,Source,Target,eType,Time,Weight,SourceLocation,TargetLocation,SourceLatitude,SourceLongitude,TargetLatitude,TargetLongitude
0,652286,571619,1,28791778,1.0,4,4,-1.51677,-167.38,3.38846,-166.241
1,632797,630107,0,6062763,1.0,-1,-1,,,,
2,632797,655116,1,13534287,1.0,3,0,-25.3349,-110.669,40.0642,-31.8787
3,468134,529002,1,16821210,1.0,3,4,-25.1091,-110.951,1.20339,-158.63
4,468134,529002,1,16936244,1.0,3,4,-25.1091,-110.951,1.20339,-158.63
5,512134,642234,0,8951685,1.0,-1,-1,,,,
6,598883,601177,0,19655321,1.0,-1,-1,,,,
7,598883,601177,0,13363210,1.0,-1,-1,,,,
8,482310,637348,0,22532667,1.0,-1,-1,,,,
9,512134,575056,1,1492572,1.0,3,0,-25.0129,-110.875,31.7367,-39.2558
10,605267,643201,1,12399414,1.0,1,2,-28.207,-16.848,-24.3983,92.1549
11,544092,556555,0,17896513,1.0,-1,-1,,,,
12,616117,457395,0,21427227,1.0,-1,-1,,,,
13,530132,466421,1,9955439,1.0,0,4,33.0971,-33.729,2.35944,-164.396
14,481563,644881,0,16946172,1.0,-1,-1,,,,
15,600256,599791,1,14641977,1.0,4,0,-5.36623,-163.335,39.3277,-47.4348
16,504449,544092,1,3804944,1.0,4,3,5.22539,-168.933,-24.3661,-111.026
17,510180,530423,1,25527836,1.0,1,0,-30.0308,-12.7151,35.4828,-34.5552
18,644881,457395,0,9337934,1.0,-1,-1,,,,
19,644881,457395,0,19991217,1.0,-1,-1,,,,
20,542664,640982,1,8390894,1.0,1,3,-25.0653,-9.02085,-25.0888,-110.72
21,503311,524976,1,30880453,1.0,4,4,-0.603295,-169.489,3.10108,-171.249
22,655165,510180,1,18060175,1.0,3,1,-24.9815,-111.325,-30.0308,-12.7151
23,542664,652286,1,13491406,1.0,1,4,-25.0653,-9.02085,-1.51677,-167.38
24,628336,601177,1,25406906,1.0,1,2,-26.4397,-10.8624,-21.9864,88.7316
25,629859,488019,0,12580840,1.0,-1,-1,,,,
26,482310,571619,1,27563531,1.0,0,4,31.0986,-42.5505,3.38846,-166.241
27,644881,583754,1,27082012,1.0,1,5,-34.5047,-12.4289,24.7714,158.537
28,482310,575629,0,2302585,1.0,-1,-1,,,,
29,598883,571619,0,6152095,1.0,-1,-1,,,,
30,564407,568466,1,19730541,1.0,1,0,-27.6821,-14.0262,28.7916,-40.9905
31,512134,644881,1,15674289,1.0,3,1,-25.0129,-110.875,-34.5047,-12.4289
32,590994,644881,0,15255005,1.0,-1,-1,,,,
33,590994,644881,0,15922233,1.0,-1,-1,,,,
34,590994,644881,1,20349565,1.0,0,1,35.241,-43.9603,-34.5047,-12.4289
35,590994,644881,0,172809,1.0,-1,-1,,,,
36,601177,642234,1,2455883,1.0,2,2,-21.9864,88.7316,-17.8666,92.6033
37,568466,506407,0,7088279,1.0,-1,-1,,,,
38,544092,575629,0,5210451,1.0,-1,-1,,,,
39,607863,611895,1,3594443,1.0,2,5,-21.214,90.6936,23.555,158.942
40,641233,610063,0,25928861,1.0,-1,-1,,,,
41,598883,503311,1,29296233,1.0,1,4,-28.9485,-14.1283,-0.603295,-169.489
42,637348,627232,1,4501439,1.0,0,3,28.7665,-40.8511,-24.9346,-111.595
43,637348,627232,0,6316502,1.0,-1,-1,,,,
44,571399,641233,1,11873537,1.0,1,3,-25.4903,-14.1047,-25.572,-111.947
45,544092,481563,1,29391321,1.0,3,0,-24.3661,-111.026,34.1603,-42.2555
46,457395,478879,1,13681587,1.0,4,4,2.43789,-158.446,0.365584,-162.693
47,481330,568466,1,22828013,1.0,0,0,30.3274,-46.8518,28.7916,-40.9905
48,571399,482310,1,2106624,1.0,1,0,-25.4903,-14.1047,31.0986,-42.5505
49,571399,482310,0,5741304,1.0,-1,-1,,,,
50,529002,652286,1,6663654,1.0,4,4,1.20339,-158.63,-1.51677,-167.38
51,482310,644881,1,30508322,1.0,0,1,31.0986,-42.5505,-34.5047,-12.4289
52,482310,644881,1,20752228,1.0,0,1,31.0986,-42.5505,-34.5047,-12.4289
53,627232,639476,1,28779621,1.0,3,0,-24.9346,-111.595,36.3902,-37.0519
54,601177,599855,1,24986919,1.0,2,4,-21.9864,88.7316,-3.95652,-162.878
55,601177,482310,0,21351644,1.0,-1,-1,,,,
56,601177,482310,1,3058342,1.0,2,0,-21.9864,88.7316,31.0986,-42.5505
57,601177,482310,1,628570,1.0,2,0,-21.9864,88.7316,31.0986,-42.5505
58,642234,488019,1,23270432,1.0,2,4,-17.8666,92.6033,-0.734926,-163.713
59,575629,504449,1,4030805,1.0,0,4,38.545,-45.332,5.22539,-168.933
60,628336,482310,0,16295435,1.0,-1,-1,,,,
61,632797,644881,0,21178580,1.0,-1,-1,,,,
62,632797,644881,1,15130092,1.0,3,1,-25.3349,-110.669,-34.5047,-12.4289
63,601177,571399,1,7544930,1.0,2,1,-21.9864,88.7316,-25.4903,-14.1047
64,544079,655165,0,8643916,1.0,-1,-1,,,,
65,506407,527394,1,18665423,1.0,5,1,21.5088,155.273,-28.0448,-15.2848
66,575056,544092,0,3200224,1.0,-1,-1,,,,
67,529002,526022,1,16655634,1.0,4,2,1.20339,-158.63,-22.3877,89.2559
68,607722,622638,1,30862105,1.0,3,2,-25.3876,-111.355,-25.6649,90.6834
69,637348,542664,1,697184,1.0,0,1,28.7665,-40.8511,-25.0653,-9.02085
70,641233,524976,1,29126204,1.0,3,4,-25.572,-111.947,3.10108,-171.249
71,524976,482310,1,198874,1.0,4,0,3.10108,-171.249,31.0986,-42.5505
72,642234,594310,1,23069698,1.0,2,4,-17.8666,92.6033,3.30008,-164.374
73,524976,569915,1,22499640,1.0,4,0,3.10108,-171.249,38.27,-38.5756
74,512134,524976,0,12295357,1.0,-1,-1,,,,
75,569915,564407,0,5649570,1.0,-1,-1,,,,
76,619539,457395,0,27509773,1.0,-1,-1,,,,
77,639476,544092,0,22504809,1.0,-1,-1,,,,
78,478879,529002,1,22519106,1.0,4,4,0.365584,-162.693,1.20339,-158.63
79,504449,605267,1,24891830,1.0,4,1,5.22539,-168.933,-28.207,-16.848
80,605267,652286,1,1496895,1.0,1,4,-28.207,-16.848,-1.51677,-167.38
81,529002,488210,0,30763873,1.0,-1,-1,,,,
82,601177,589866,1,12800689,1.0,2,0,-21.9864,88.7316,35.9148,-40.4974
83,644881,571619,1,17902097,1.0,1,4,-34.5047,-12.4289,3.38846,-166.241
84,644881,571619,1,14020578,1.0,1,4,-34.5047,-12.4289,3.38846,-166.241
85,598883,571399,0,27574955,1.0,-1,-1,,,,
86,488210,482310,0,18007087,1.0,-1,-1,,,,
87,482310,478879,1,16082432,1.0,0,4,31.0986,-42.5505,0.365584,-162.693
88,571619,601177,0,5456241,1.0,-1,-1,,,,
89,575629,601177,0,23689938,1.0,-1,-1,,,,
90,620102,544079,0,23353202,1.0,-1,-1,,,,
91,655116,571399,0,26981201,1.0,-1,-1,,,,
92,598883,590338,1,21269545,1.0,1,3,-28.9485,-14.1283,-24.5969,-111.335
93,584185,641233,1,9262440,1.0,1,3,-27.7945,-13.6694,-25.572,-111.947
94,457395,652286,1,6998458,1.0,4,4,2.43789,-158.446,-1.51677,-167.38
95,457395,652286,1,25749052,1.0,4,4,2.43789,-158.446,-1.51677,-167.38
96,457395,628336,1,14485963,1.0,4,1,2.43789,-158.446,-26.4397,-10.8624
97,605267,644881,0,4181059,1.0,-1,-1,,,,
98,629859,476515,0,9025950,1.0,-1,-1,,,,
99,652700,564120,1,10156802,1.0,4,4,0.1333,-162.051,6.38608,-164.91
100,466421,544092,0,1833880,1.0,-1,-1,,,,
101,488210,590994,0,5909816,1.0,-1,-1,,,,
102,544092,526022,1,10290869,1.0,3,2,-24.3661,-111.026,-22.3877,89.2559
103,641233,644881,0,963315,1.0,-1,-1,,,,
104,590338,583791,0,2026837,1.0,-1,-1,,,,
105,575629,503311,0,12988092,1.0,-1,-1,,,,
106,476515,481330,0,18162522,1.0,-1,-1,,,,
107,478236,600971,1,10316181,1.0,4,0,-1.68631,-165.421,37.5294,-41.5884
108,530423,619539,1,18037995,1.0,0,4,35.4828,-34.5552,0.680669,-164.209
109,601177,529002,0,29030444,1.0,-1,-1,,,,
110,482310,481563,1,29296124,1.0,0,0,31.0986,-42.5505,34.1603,-42.2555
111,655116,611420,0,1573979,1.0,-1,-1,,,,
112,549617,643201,1,623307,1.0,5,2,20.4513,157.718,-24.3983,92.1549
113,476515,639476,0,16945217,1.0,-1,-1,,,,
114,488210,616117,0,31029651,1.0,-1,-1,,,,
115,482310,559993,0,5616778,1.0,-1,-1,,,,
116,599791,568923,1,20257566,1.0,0,1,39.3277,-47.4348,-24.6291,-15.2684
117,571399,468134,0,27139251,1.0,-1,-1,,,,
118,571399,468134,0,22818017,1.0,-1,-1,,,,
119,575629,571399,1,18605426,1.0,0,1,38.545,-45.332,-25.4903,-14.1047
120,655116,555992,1,17242852,1.0,0,4,40.0642,-31.8787,0.829152,-164.628
121,542664,575056,1,18021366,1.0,1,0,-25.0653,-9.02085,31.7367,-39.2558
122,457395,601177,1,31215654,1.0,4,2,2.43789,-158.446,-21.9864,88.7316
123,530132,481330,0,9531765,1.0,-1,-1,,,,
124,503311,468134,1,10752700,1.0,4,3,-0.603295,-169.489,-25.1091,-110.951
125,616117,605267,0,31110538,1.0,-1,-1,,,,
126,482310,530423,0,22479326,1.0,-1,-1,,,,
127,569915,601177,1,22074529,1.0,0,2,38.27,-38.5756,-21.9864,88.7316
128,481330,471849,1,15308145,1.0,0,5,30.3274,-46.8518,22.2905,159.217
129,655116,482310,1,5046544,1.0,0,0,40.0642,-31.8787,31.0986,-42.5505
130,504449,544079,0,5902082,1.0,-1,-1,,,,
131,644881,590994,0,6582036,1.0,-1,-1,,,,
132,639476,641233,0,26802025,1.0,-1,-1,,,,
133,629859,510180,1,13335840,1.0,2,1,-22.0836,88.1729,-30.0308,-12.7151
134,629859,510180,1,13236352,1.0,2,1,-22.0836,88.1729,-30.0308,-12.7151
135,568466,627232,1,15711504,1.0,0,3,28.7916,-40.9905,-24.9346,-111.595
136,619539,652700,1,5537596,1.0,4,4,0.680669,-164.209,0.1333,-162.051
137,482310,601177,1,523235,1.0,0,2,31.0986,-42.5505,-21.9864,88.7316
138,482310,601177,0,3981683,1.0,-1,-1,,,,
139,482310,601177,0,20068318,1.0,-1,-1,,,,
140,482310,601177,1,19465223,1.0,0,2,31.0986,-42.5505,-21.9864,88.7316
141,482310,611420,0,26904991,1.0,-1,-1,,,,
142,482310,611420,0,2976640,1.0,-1,-1,,,,
143,605267,510180,0,11678298,1.0,-1,-1,,,,
144,627232,655165,1,1644004,1.0,3,3,-24.9346,-111.595,-24.9815,-111.325
145,643201,478879,1,30073834,1.0,2,4,-24.3983,92.1549,0.365584,-162.693
146,655165,583791,1,11364006,1.0,3,0,-24.9815,-111.325,29.8419,-41.8923
147,652286,644881,1,21272669,1.0,4,1,-1.51677,-167.38,-34.5047,-12.4289
148,512134,478879,0,21258305,1.0,-1,-1,,,,
149,482310,563920,1,3498135,1.0,0,4,31.0986,-42.5505,7.11824,-171.09
150,644881,655165,1,18716162,1.0,1,3,-34.5047,-12.4289,-24.9815,-111.325
151,644881,655165,0,16935733,1.0,-1,-1,,,,
152,524976,457395,1,14532377,1.0,4,4,3.10108,-171.249,2.43789,-158.446
153,510180,457395,0,18516078,1.0,-1,-1,,,,
154,510180,544092,0,17464207,1.0,-1,-1,,,,
155,641233,590338,0,20308856,1.0,-1,-1,,,,
156,571619,598883,1,19101641,1.0,4,1,3.38846,-166.241,-28.9485,-14.1283
157,641233,643201,1,17075898,1.0,3,2,-25.572,-111.947,-24.3983,92.1549
158,607722,482310,0,14622136,1.0,-1,-1,,,,
159,620102,488019,1,4262448,1.0,5,4,19.9382,160.921,-0.734926,-163.713
160,478879,594310,1,25835432,1.0,4,4,0.365584,-162.693,3.30008,-164.374
161,590994,466421,1,6327229,1.0,0,4,35.241,-43.9603,2.35944,-164.396
162,556555,542664,1,29032563,1.0,2,1,-19.9867,89.9124,-25.0653,-9.02085
163,556555,542664,1,28876448,1.0,2,1,-19.9867,89.9124,-25.0653,-9.02085
164,643201,516297,1,15468313,1.0,2,4,-24.3983,92.1549,-3.39022,-164.501
165,599855,590338,0,13680416,1.0,-1,-1,,,,
166,504449,471849,1,13748275,1.0,4,5,5.22539,-168.933,22.2905,159.217
167,542664,529002,1,14965259,1.0,1,4,-25.0653,-9.02085,1.20339,-158.63
168,527394,569915,1,20743822,1.0,1,0,-28.0448,-15.2848,38.27,-38.5756
169,571619,628336,1,5800361,1.0,4,1,3.38846,-166.241,-26.4397,-10.8624
170,571399,549617,1,4410049,1.0,1,5,-25.4903,-14.1047,20.4513,157.718
171,529002,482310,1,16079683,1.0,4,0,1.20339,-158.63,31.0986,-42.5505
172,622638,596503,0,16260516,1.0,-1,-1,,,,
173,583791,516297,0,18863104,1.0,-1,-1,,,,
174,503311,640982,0,5394580,1.0,-1,-1,,,,
175,563920,601177,0,23426433,1.0,-1,-1,,,,
176,644881,482310,1,15409858,1.0,1,0,-34.5047,-12.4289,31.0986,-42.5505
177,568466,512134,1,31225385,1.0,0,3,28.7916,-40.9905,-25.0129,-110.875
178,628336,596503,1,29817217,1.0,1,5,-26.4397,-10.8624,21.9557,154.209
179,644881,542664,0,11163269,1.0,-1,-1,,,,
180,615596,530132,0,24020566,1.0,-1,-1,,,,
181,627232,607722,0,17806883,1.0,-1,-1,,,,
182,601177,601177,0,2685867,1.0,-1,-1,,,,
183,611420,601177,1,8055410,1.0,0,2,40.3854,-43.1655,-21.9864,88.7316
184,606758,516297,1,26029116,1.0,4,4,-2.1076,-172.256,-3.39022,-164.501
185,642234,583754,1,30337238,1.0,2,5,-17.8666,92.6033,24.7714,158.537
186,526022,481563,1,20085019,1.0,2,0,-22.3877,89.2559,34.1603,-42.2555
187,526022,481563,1,20068311,1.0,2,0,-22.3877,89.2559,34.1603,-42.2555
188,571619,457395,1,24711235,1.0,4,4,3.38846,-166.241,2.43789,-158.446
189,488019,571619,1,14133995,1.0,4,4,-0.734926,-163.713,3.38846,-166.241
190,466421,644881,0,19369442,1.0,-1,-1,,,,
191,641233,488019,1,29295344,1.0,3,4,-25.572,-111.947,-0.734926,-163.713
192,620102,526022,0,15396919,1.0,-1,-1,,,,
193,607863,652700,1,25932610,1.0,2,4,-21.214,90.6936,0.1333,-162.051
194,607863,652700,1,25888802,1.0,2,4,-21.214,90.6936,0.1333,-162.051
195,644881,527394,0,10628691,1.0,-1,-1,,,,
196,605267,482310,0,20684936,1.0,-1,-1,,,,
197,512134,556555,0,22759937,1.0,-1,-1,,,,
198,644881,601177,1,27669001,1.0,1,2,-34.5047,-12.4289,-21.9864,88.7316
199,601177,590994,1,25412168,1.0,2,0,-21.9864,88.7316,35.241,-43.9603
200,637348,637998,1,20790030,1.0,0,0,28.7665,-40.8511,27.8946,-43.3506
201,512134,476515,1,9956177,1.0,3,4,-25.0129,-110.875,1.58773,-166.356
202,482310,598883,0,24389317,1.0,-1,-1,,,,
203,529002,457395,0,25410905,1.0,-1,-1,,,,
204,556555,644881,0,17483813,1.0,-1,-1,,,,
205,584185,596503,0,22985820,1.0,-1,-1,,,,
206,599791,598883,1,17198641,1.0,0,1,39.3277,-47.4348,-28.9485,-14.1283
207,628336,569915,1,5535368,1.0,1,0,-26.4397,-10.8624,38.27,-38.5756
208,641233,601177,0,3303756,1.0,-1,-1,,,,
209,549617,555992,1,27650573,1.0,5,4,20.4513,157.718,0.829152,-164.628
210,530423,510180,1,20309089,1.0,0,1,35.4828,-34.5552,-30.0308,-12.7151
211,510180,601177,1,9676815,1.0,1,2,-30.0308,-12.7151,-21.9864,88.7316
212,627232,510180,0,8128766,1.0,-1,-1,,,,
213,622638,644881,0,26715036,1.0,-1,-1,,,,
214,622638,644881,1,22262993,1.0,2,1,-25.6649,90.6834,-34.5047,-12.4289
215,598883,628336,0,9505176,1.0,-1,-1,,,,
216,466421,571399,1,13863652,1.0,4,1,2.35944,-164.396,-25.4903,-14.1047
217,657631,590338,1,28775128,1.0,5,3,22.5434,152.409,-24.5969,-111.335
218,466421,615596,0,749529,1.0,-1,-1,,,,
219,643201,530132,1,23252533,1.0,2,0,-24.3983,92.1549,33.0971,-33.729
220,482310,652286,1,27222500,1.0,0,4,31.0986,-42.5505,-1.51677,-167.38
221,607863,527394,0,28638976,1.0,-1,-1,,,,
222,644881,544092,1,19532655,1.0,1,3,-34.5047,-12.4289,-24.3661,-111.026
223,644881,544092,1,19530844,1.0,1,3,-34.5047,-12.4289,-24.3661,-111.026
224,568466,466421,1,606289,1.0,0,4,28.7916,-40.9905,2.35944,-164.396
225,510180,568923,1,1300323,1.0,1,1,-30.0308,-12.7151,-24.6291,-15.2684
226,549617,598883,1,7273819,1.0,5,1,20.4513,157.718,-28.9485,-14.1283
227,643201,544079,0,12309877,1.0,-1,-1,,,,
228,482310,544079,0,11979340,1.0,-1,-1,,,,
229,589866,644881,1,7605246,1.0,0,1,35.9148,-40.4974,-34.5047,-12.4289
230,482310,568466,0,2247968,1.0,-1,-1,,,,
231,529002,642234,0,29427693,1.0,-1,-1,,,,
232,571619,482310,1,27317544,1.0,4,0,3.38846,-166.241,31.0986,-42.5505
233,643201,482310,1,9002768,1.0,2,0,-24.3983,92.1549,31.0986,-42.5505
234,571399,571619,0,15645353,1.0,-1,-1,,,,
235,627232,542664,1,9764763,1.0,3,1,-24.9346,-111.595,-25.0653,-9.02085
236,457395,644881,1,27307475,1.0,4,1,2.43789,-158.446,-34.5047,-12.4289
237,563920,506407,1,23428463,1.0,4,5,7.11824,-171.09,21.5088,155.273
238,542664,589866,0,12800676,1.0,-1,-1,,,,
239,632797,589866,1,29301003,1.0,3,0,-25.3349,-110.669,35.9148,-40.4974
240,655116,644881,1,10296445,1.0,0,1,40.0642,-31.8787,-34.5047,-12.4289
241,559993,629859,1,13920025,1.0,3,2,-25.1792,-109.924,-22.0836,88.1729
242,468134,644881,1,12460330,1.0,3,1,-25.1091,-110.951,-34.5047,-12.4289
243,611420,568923,1,14192232,1.0,0,1,40.3854,-43.1655,-24.6291,-15.2684
244,641233,615596,1,3456022,1.0,3,0,-25.572,-111.947,35.3637,-45.2272
245,622638,524976,0,13566086,1.0,-1,-1,,,,
246,568466,571399,1,8039312,1.0,0,1,28.7916,-40.9905,-25.4903,-14.1047
247,590994,643201,0,10905607,1.0,-1,-1,,,,
248,629859,611420,0,17940718,1.0,-1,-1,,,,
249,457395,571399,0,27388804,1.0,-1,-1,,,,
250,652286,575629,0,19116265,1.0,-1,-1,,,,
251,556555,574666,0,8067864,1.0,-1,-1,,,,
252,575056,524976,0,15233779,1.0,-1,-1,,,,
253,530423,574666,0,26389809,1.0,-1,-1,,,,
254,639476,575629,0,1828484,1.0,-1,-1,,,,
255,644881,644881,0,23175360,1.0,-1,-1,,,,
256,644881,630107,1,1494594,1.0,1,4,-34.5047,-12.4289,1.35671,-166.832
257,615596,478236,1,13824452,1.0,0,4,35.3637,-45.2272,-1.68631,-165.421
258,615596,478236,1,13847444,1.0,0,4,35.3637,-45.2272,-1.68631,-165.421
259,478236,630107,1,16765854,1.0,4,4,-1.68631,-165.421,1.35671,-166.832
260,564120,571399,1,22591606,1.0,4,1,6.38608,-164.91,-25.4903,-14.1047
261,589866,542664,0,2875237,1.0,-1,-1,,,,
262,630107,600971,1,29922157,1.0,4,0,1.35671,-166.832,37.5294,-41.5884
263,482310,616117,0,27511746,1.0,-1,-1,,,,
264,643201,644881,1,20908833,1.0,2,1,-24.3983,92.1549,-34.5047,-12.4289
265,628336,466421,1,25179124,1.0,1,4,-26.4397,-10.8624,2.35944,-164.396
266,564407,549617,1,14101712,1.0,1,5,-27.6821,-14.0262,20.4513,157.718
267,529002,644881,0,23415742,1.0,-1,-1,,,,
268,529002,644881,0,9076379,1.0,-1,-1,,,,
269,569915,559993,0,8762299,1.0,-1,-1,,,,
270,615596,564120,1,20397170,1.0,0,4,35.3637,-45.2272,6.38608,-164.91
271,482310,610063,1,10976653,1.0,0,2,31.0986,-42.5505,-20.7004,89.0738
272,457395,530132,1,16173158,1.0,4,0,2.43789,-158.446,33.0971,-33.729
273,611420,544079,1,16177936,1.0,0,0,40.3854,-43.1655,33.3792,-37.903
274,544092,599791,0,28426226,1.0,-1,-1,,,,
275,563920,575629,1,27231639,1.0,4,0,7.11824,-171.09,38.545,-45.332
276,657631,457395,1,29295528,1.0,5,4,22.5434,152.409,2.43789,-158.446
277,575629,556555,0,28972821,1.0,-1,-1,,,,
278,481563,610063,1,14321011,1.0,0,2,34.1603,-42.2555,-20.7004,89.0738
279,482310,506407,1,24192027,1.0,0,5,31.0986,-42.5505,21.5088,155.273
280,482310,506407,1,24136407,1.0,0,5,31.0986,-42.5505,21.5088,155.273
281,590994,583791,1,30162855,1.0,0,0,35.241,-43.9603,29.8419,-41.8923
282,605267,476515,1,27918170,1.0,1,4,-28.207,-16.848,1.58773,-166.356
283,644881,563920,1,15825755,1.0,1,4,-34.5047,-12.4289,7.11824,-171.09
284,488019,457395,0,17900157,1.0,-1,-1,,,,
285,584185,481330,1,29931656,1.0,1,0,-27.7945,-13.6694,30.3274,-46.8518
286,605267,606758,0,4761605,1.0,-1,-1,,,,
287,606758,598883,1,27101340,1.0,4,1,-2.1076,-172.256,-28.9485,-14.1283
288,601177,559993,0,21458901,1.0,-1,-1,,,,
289,607863,571619,0,1739930,1.0,-1,-1,,,,
290,482310,475014,1,29487635,1.0,0,0,31.0986,-42.5505,32.8654,-46.3713
291,457395,583791,0,29640264,1.0,-1,-1,,,,
292,605267,615596,1,16591006,1.0,1,0,-28.207,-16.848,35.3637,-45.2272
293,596503,482310,1,6611681,1.0,5,0,21.9557,154.209,31.0986,-42.5505
294,575056,600971,1,605908,1.0,0,0,31.7367,-39.2558,37.5294,-41.5884
295,622638,510180,0,7617292,1.0,-1,-1,,,,
296,601177,644881,0,12714719,1.0,-1,-1,,,,
297,601177,644881,1,30377434,1.0,2,1,-21.9864,88.7316,-34.5047,-12.4289
298,596503,657631,1,24129985,1.0,5,5,21.9557,154.209,22.5434,152.409
299,564120,640982,0,104799,1.0,-1,-1,,,,
300,504449,606758,1,13947895,1.0,4,4,5.22539,-168.933,-2.1076,-172.256
301,642234,475014,1,15486483,1.0,2,0,-17.8666,92.6033,32.8654,-46.3713
302,575629,524976,1,10417245,1.0,0,4,38.545,-45.332,3.10108,-171.249
303,457395,657631,1,2781984,1.0,4,5,2.43789,-158.446,22.5434,152.409
304,630107,657631,0,22057925,1.0,-1,-1,,,,
305,471849,655165,1,21751427,1.0,5,3,22.2905,159.217,-24.9815,-111.325
306,628336,652286,1,21256217,1.0,1,4,-26.4397,-10.8624,-1.51677,-167.38
307,583791,607722,1,3155652,1.0,0,3,29.8419,-41.8923,-25.3876,-111.355
308,529002,590338,0,16447733,1.0,-1,-1,,,,
309,601177,478236,1,1320511,1.0,2,4,-21.9864,88.7316,-1.68631,-165.421
310,475014,598883,0,8308854,1.0,-1,-1,,,,
311,466421,600256,1,26297329,1.0,4,4,2.35944,-164.396,-5.36623,-163.335
312,482310,583754,0,14605216,1.0,-1,-1,,,,
313,482310,488019,1,4249478,1.0,0,4,31.0986,-42.5505,-0.734926,-163.713
314,510180,583754,1,30674048,1.0,1,5,-30.0308,-12.7151,24.7714,158.537
315,568466,589866,1,26360835,1.0,0,0,28.7916,-40.9905,35.9148,-40.4974
316,555992,615596,1,7102477,1.0,4,0,0.829152,-164.628,35.3637,-45.2272
317,583754,644881,0,29896952,1.0,-1,-1,,,,
318,462364,526022,1,3247244,1.0,3,2,-24.6075,-110.729,-22.3877,89.2559
319,611895,642234,1,14698585,1.0,5,2,23.555,158.942,-17.8666,92.6033
320,596503,599855,1,31245798,1.0,5,4,21.9557,154.209,-3.95652,-162.878
321,596503,599855,1,31365376,1.0,5,4,21.9557,154.209,-3.95652,-162.878
322,527394,510180,0,6915061,1.0,-1,-1,,,,
323,568466,475014,1,10376918,1.0,0,0,28.7916,-40.9905,32.8654,-46.3713
324,596503,643201,1,24891167,1.0,5,2,21.9557,154.209,-24.3983,92.1549
325,652286,637998,1,7955063,1.0,4,0,-1.51677,-167.38,27.8946,-43.3506
326,524976,627232,1,23701810,1.0,4,3,3.10108,-171.249,-24.9346,-111.595
327,544079,482310,0,7631096,1.0,-1,-1,,,,
328,510180,530132,0,28954547,1.0,-1,-1,,,,
329,599855,594310,1,26106296,1.0,4,4,-3.95652,-162.878,3.30008,-164.374
330,590994,607722,0,9863293,1.0,-1,-1,,,,
331,468134,611895,1,1470066,1.0,3,5,-25.1091,-110.951,23.555,158.942
332,475014,544092,1,15869212,1.0,0,3,32.8654,-46.3713,-24.3661,-111.026
333,619539,599855,1,13023018,1.0,4,4,0.680669,-164.209,-3.95652,-162.878
334,598883,563920,1,4160892,1.0,1,4,-28.9485,-14.1283,7.11824,-171.09
335,596503,601177,1,20140225,1.0,5,2,21.9557,154.209,-21.9864,88.7316
336,583791,583754,1,6826891,1.0,0,5,29.8419,-41.8923,24.7714,158.537
337,655116,630107,0,298239,1.0,-1,-1,,,,
338,589866,510180,1,21782904,1.0,0,1,35.9148,-40.4974,-30.0308,-12.7151
339,468134,601177,1,11153144,1.0,3,2,-25.1091,-110.951,-21.9864,88.7316
340,457395,524976,0,5021341,1.0,-1,-1,,,,
341,457395,632797,1,10031678,1.0,4,3,2.43789,-158.446,-25.3349,-110.669
342,574666,516297,0,13596452,1.0,-1,-1,,,,
343,512134,590338,1,3751100,1.0,3,3,-25.0129,-110.875,-24.5969,-111.335
344,568923,504449,1,18007239,1.0,1,4,-24.6291,-15.2684,5.22539,-168.933
345,610063,575629,1,19285564,1.0,2,0,-20.7004,89.0738,38.545,-45.332
346,644881,600971,0,12658932,1.0,-1,-1,,,,
347,571399,564407,0,31451419,1.0,-1,-1,,,,
348,598883,599855,0,29006754,1.0,-1,-1,,,,
349,641233,632797,1,5667007,1.0,3,3,-25.572,-111.947,-25.3349,-110.669
350,622638,600256,0,29744412,1.0,-1,-1,,,,
351,632797,564120,0,23856494,1.0,-1,-1,,,,
