,Source,Target,eType,Time,Weight,SourceLocation,TargetLocation,SourceLatitude,SourceLongitude,TargetLatitude,TargetLongitude
0,544334,613636,1,25580347,1.0,4,4,0.928511,-164.848,0.60588,-171.399
1,647855,589943,5,31536000,420.51,-1,-1,,,,
2,489586,619223,0,12454180,1.0,-1,-1,,,,
3,456924,519767,0,13319060,1.0,-1,-1,,,,
4,478536,589943,5,31536000,509.69,-1,-1,,,,
5,519767,475962,1,5404763,1.0,1,3,-28.6267,-14.1306,-24.8393,-110.853
6,609031,592714,1,10808172,1.0,2,5,-19.3589,88.9725,25.3946,152.976
7,457397,589943,5,31536000,862.57,-1,-1,,,,
8,573812,583239,0,20778931,1.0,-1,-1,,,,
9,536173,456924,0,18276654,1.0,-1,-1,,,,
10,603714,592783,1,14526059,1.0,0,2,34.1817,-38.9155,-17.1099,90.738
11,628395,589943,5,31536000,135.14,-1,-1,,,,
12,650071,589943,5,31536000,415.0,-1,-1,,,,
13,456924,566325,0,7183111,1.0,-1,-1,,,,
14,582979,523763,1,4067401,1.0,5,5,25.9535,158.378,18.9723,155.22
15,475962,622466,1,22170117,1.0,3,4,-24.8393,-110.853,-1.35307,-167.84
16,631152,609031,1,18838828,1.0,4,2,4.65019,-164.466,-19.3589,88.9725
17,497494,597228,1,27872874,1.0,0,2,30.2815,-42.8664,-24.0728,91.6763
18,470157,530147,0,19725141,1.0,-1,-1,,,,
19,596210,475962,1,19097762,1.0,2,3,-24.5492,90.2712,-24.8393,-110.853
20,603714,580764,1,26800429,1.0,0,1,34.1817,-38.9155,-30.7777,-9.93895
21,644184,456924,1,2791055,1.0,4,2,-4.80551,-166.63,-24.594,88.5698
22,546126,497494,1,26728614,1.0,0,0,24.7324,-35.1568,30.2815,-42.8664
23,619223,611498,0,4762840,1.0,-1,-1,,,,
24,598209,523763,1,27349152,1.0,5,5,24.468,156.584,18.9723,155.22
25,475962,523453,0,14720448,1.0,-1,-1,,,,
26,609031,589943,5,31536000,1013.26,-1,-1,,,,
27,613969,622466,1,4494360,1.0,2,4,-17.1044,90.7178,-1.35307,-167.84
28,530025,523763,1,3819469,1.0,2,5,-23.1061,90.2556,18.9723,155.22
29,564630,628040,1,9524885,1.0,2,2,-19.269,91.1144,-21.4972,89.2333
30,465701,628395,0,22126854,1.0,-1,-1,,,,
31,516056,589943,5,31536000,141.61,-1,-1,,,,
32,523763,594187,1,17470085,1.0,5,4,18.9723,155.22,5.02685,-161.546
33,622466,631152,1,8474468,1.0,4,4,-1.35307,-167.84,4.65019,-164.466
34,524005,644969,1,24492418,1.0,5,0,22.7336,157.622,33.6401,-37.5875
35,514120,589943,5,31536000,495.17,-1,-1,,,,
36,536173,558301,0,19702114,1.0,-1,-1,,,,
37,480172,589943,5,31536000,3097.68,-1,-1,,,,
38,570412,589943,5,31536000,895.48,-1,-1,,,,
39,594360,623622,0,18513172,1.0,-1,-1,,,,
40,609031,592783,1,12072322,1.0,2,2,-19.3589,88.9725,-17.1099,90.738
41,553069,589943,5,31536000,425.63,-1,-1,,,,
42,623622,528165,1,17369525,1.0,4,0,1.31403,-167.948,31.5109,-44.5982
43,474313,657332,0,1069462,1.0,-1,-1,,,,
44,489586,602524,1,7554471,1.0,4,0,-5.11351,-168.13,29.5565,-42.6057
45,558301,613136,1,12135652,1.0,4,0,-5.57128,-160.62,32.8261,-48.6027
46,558301,613136,1,12144948,1.0,4,0,-5.57128,-160.62,32.8261,-48.6027
47,489586,589943,5,31536000,5.13,-1,-1,,,,
48,566325,589943,5,31536000,52.23,-1,-1,,,,
49,596261,632474,0,16089648,1.0,-1,-1,,,,
50,611498,536173,1,16619806,1.0,5,0,16.2439,156.534,32.184,-42.8728
51,582979,566325,1,29645703,1.0,5,1,25.9535,158.378,-29.804,-9.77872
52,597228,589943,5,31536000,3768.2,-1,-1,,,,
53,588003,462222,1,14208494,1.0,0,3,38.1686,-35.8428,-24.7359,-111.681
54,588003,462222,1,14291570,1.0,0,3,38.1686,-35.8428,-24.7359,-111.681
55,598209,589943,5,31536000,498.68,-1,-1,,,,
56,611498,589943,5,31536000,1588.9,-1,-1,,,,
57,594187,457397,1,29337649,1.0,4,4,5.02685,-161.546,5.26273,-167.853
58,644969,589943,5,31536000,1721.42,-1,-1,,,,
59,477761,596261,0,30197909,1.0,-1,-1,,,,
60,657332,524005,0,3473314,1.0,-1,-1,,,,
61,523453,589943,5,31536000,1089.85,-1,-1,,,,
62,553069,568470,0,3141391,1.0,-1,-1,,,,
63,623622,589943,5,31536000,986.22,-1,-1,,,,
64,643084,523763,1,2962127,1.0,0,5,32.5957,-42.8559,18.9723,155.22
65,592714,523763,1,20494818,1.0,5,5,25.3946,152.976,18.9723,155.22
66,602524,589943,5,31536000,958.64,-1,-1,,,,
67,524005,596210,1,17198680,1.0,5,2,22.7336,157.622,-24.5492,90.2712
68,647855,523453,0,25841715,1.0,-1,-1,,,,
69,476656,599252,1,25320638,1.0,1,4,-33.6646,-13.4514,-1.6699,-162.895
70,582979,644969,0,25835737,1.0,-1,-1,,,,
71,497494,516056,1,22032037,1.0,0,4,30.2815,-42.8664,-1.6425,-170.023
72,588003,536173,1,29393878,1.0,0,0,38.1686,-35.8428,32.184,-42.8728
73,588003,589943,5,31536000,8224.5,-1,-1,,,,
74,613636,603714,0,8570891,1.0,-1,-1,,,,
75,609031,596261,1,22788046,1.0,2,4,-19.3589,88.9725,-3.33684,-170.502
76,568470,589943,5,31536000,9587.55,-1,-1,,,,
77,524005,565699,0,3125328,1.0,-1,-1,,,,
78,530147,589943,5,31536000,1003.0,-1,-1,,,,
79,536173,480172,1,15389710,1.0,0,1,32.184,-42.8728,-27.5257,-12.1402
80,481962,589943,5,31536000,782.72,-1,-1,,,,
81,625972,514120,0,5124967,1.0,-1,-1,,,,
82,481962,474313,1,23095361,1.0,3,4,-23.7317,-110.568,0.593687,-160.65
83,644184,570412,1,5226866,1.0,4,1,-4.80551,-166.63,-28.8804,-20.4716
84,622466,589943,5,31536000,897.47,-1,-1,,,,
85,477259,497494,1,12272405,1.0,3,0,-24.7191,-110.409,30.2815,-42.8664
86,619223,589943,5,31536000,1112.18,-1,-1,,,,
87,476656,577923,0,26997154,1.0,-1,-1,,,,
88,600971,516056,1,2356614,1.0,0,4,37.5294,-41.5884,-1.6425,-170.023
89,457397,603714,0,4246038,1.0,-1,-1,,,,
90,523763,558301,1,23420159,1.0,5,4,18.9723,155.22,-5.57128,-160.62
91,478536,481962,1,17907358,1.0,4,3,-0.794449,-162.353,-23.7317,-110.568
92,588003,650071,1,12893437,1.0,0,4,38.1686,-35.8428,-4.70191,-168.956
93,643084,589943,5,31536000,2340.56,-1,-1,,,,
94,565699,589943,5,31536000,680.37,-1,-1,,,,
95,519767,589943,5,31536000,182.41,-1,-1,,,,
96,546126,570412,1,18083572,1.0,0,1,24.7324,-35.1568,-28.8804,-20.4716
97,558301,510816,0,21344418,1.0,-1,-1,,,,
98,600971,596210,1,11925614,1.0,0,2,37.5294,-41.5884,-24.5492,90.2712
99,457397,544061,1,3820002,1.0,4,0,5.26273,-167.853,32.4894,-41.2229
100,477259,530147,0,9958137,1.0,-1,-1,,,,
101,647855,475962,1,11842223,1.0,4,3,3.58441,-167.937,-24.8393,-110.853
102,510816,524005,1,9374435,1.0,2,5,-21.0025,90.8411,22.7336,157.622
103,599252,592714,1,22398637,1.0,4,5,-1.6699,-162.895,25.3946,152.976
104,549437,589943,5,31536000,3864.15,-1,-1,,,,
105,483820,596261,1,28276225,1.0,4,4,1.53345,-161.829,-3.33684,-170.502
106,553069,613969,0,30767649,1.0,-1,-1,,,,
107,462222,599252,1,30112825,1.0,3,4,-24.7359,-111.681,-1.6699,-162.895
108,544061,583239,0,21094968,1.0,-1,-1,,,,
109,580764,470157,1,30506085,1.0,1,4,-30.7777,-9.93895,-1.42749,-166.071
110,599252,650071,1,29408680,1.0,4,4,-1.6699,-162.895,-4.70191,-168.956
111,611498,523763,0,8141784,1.0,-1,-1,,,,
112,613136,589943,5,31536000,2723.11,-1,-1,,,,
113,577875,613969,1,866178,1.0,5,2,22.7902,156.851,-17.1044,90.7178
114,596261,589943,5,31536000,622.28,-1,-1,,,,
115,599252,589943,5,31536000,540.3,-1,-1,,,,
116,632474,516056,1,26613392,1.0,4,4,4.34626,-162.251,-1.6425,-170.023
117,470157,650071,1,26274291,1.0,4,4,-1.42749,-166.071,-4.70191,-168.956
118,523763,588003,1,27825143,1.0,5,0,18.9723,155.22,38.1686,-35.8428
119,607334,589943,5,31536000,656.44,-1,-1,,,,
120,582979,462222,1,8987160,1.0,5,3,25.9535,158.378,-24.7359,-111.681
121,558301,603714,0,30099088,1.0,-1,-1,,,,
122,632474,623622,1,11005252,1.0,4,4,4.34626,-162.251,1.31403,-167.948
123,549437,564630,1,10138455,1.0,5,2,20.8997,157.114,-19.269,91.1144
124,456924,623622,0,7807968,1.0,-1,-1,,,,
125,567083,558301,0,1913367,1.0,-1,-1,,,,
126,583239,536173,1,14444342,1.0,4,0,-6.16335,-163.714,32.184,-42.8728
127,583239,589943,5,31536000,865.1,-1,-1,,,,
128,553069,489586,0,4687916,1.0,-1,-1,,,,
129,631152,589943,5,31536000,517.98,-1,-1,,,,
130,485302,609031,0,6312057,1.0,-1,-1,,,,
131,625972,589943,5,31536000,1465.14,-1,-1,,,,
132,647855,465701,0,2341213,1.0,-1,-1,,,,
133,497494,589943,5,31536000,3823.62,-1,-1,,,,
134,550868,589943,5,31536000,3946.06,-1,-1,,,,
135,528165,589943,5,31536000,10858.0,-1,-1,,,,
136,514406,489586,1,7521414,1.0,3,4,-24.1083,-110.569,-5.11351,-168.13
137,514406,489586,1,5100876,1.0,3,4,-24.1083,-110.569,-5.11351,-168.13
138,580764,544061,0,11182376,1.0,-1,-1,,,,
139,546126,577875,1,4756327,1.0,0,5,24.7324,-35.1568,22.7902,156.851
140,657332,589943,5,31536000,3456.88,-1,-1,,,,
141,628040,566325,1,31237440,1.0,2,1,-21.4972,89.2333,-29.804,-9.77872
142,536173,544061,1,24713763,1.0,0,0,32.184,-42.8728,32.4894,-41.2229
143,631152,628040,1,14224695,1.0,4,2,4.65019,-164.466,-21.4972,89.2333
144,544061,577923,1,25542021,1.0,0,1,32.4894,-41.2229,-29.8799,-13.687
145,523763,619223,1,10723348,1.0,5,2,18.9723,155.22,-22.9464,91.6204
146,609031,476656,0,19151674,1.0,-1,-1,,,,
147,523763,631152,1,6249854,1.0,5,4,18.9723,155.22,4.65019,-164.466
148,592714,530147,0,10388526,1.0,-1,-1,,,,
149,623622,510816,0,4329667,1.0,-1,-1,,,,
150,519767,592656,1,961336,1.0,1,0,-28.6267,-14.1306,32.3735,-32.5883
151,523453,456924,0,21921630,1.0,-1,-1,,,,
152,477259,517146,1,15122452,1.0,3,4,-24.7191,-110.409,5.11299,-168.277
153,544061,523453,1,31371178,1.0,0,5,32.4894,-41.2229,20.5206,156.115
154,549437,523763,0,14612525,1.0,-1,-1,,,,
155,514406,514120,0,15498697,1.0,-1,-1,,,,
156,516056,583239,1,5460450,1.0,4,4,-1.6425,-170.023,-6.16335,-163.714
157,530025,546126,1,15517472,1.0,2,0,-23.1061,90.2556,24.7324,-35.1568
158,607334,546126,1,638395,1.0,4,0,-1.77611,-170.026,24.7324,-35.1568
159,470157,589943,5,31536000,1803.13,-1,-1,,,,
160,625972,470157,0,23689587,1.0,-1,-1,,,,
161,613969,524005,1,1304211,1.0,2,5,-17.1044,90.7178,22.7336,157.622
162,613969,524005,0,462646,1.0,-1,-1,,,,
163,613969,483820,1,9683288,1.0,2,4,-17.1044,90.7178,1.53345,-161.829
164,600971,536173,1,9427006,1.0,0,0,37.5294,-41.5884,32.184,-42.8728
165,600971,589943,5,31536000,348.06,-1,-1,,,,
166,568470,558301,0,22777215,1.0,-1,-1,,,,
167,607334,549437,1,21033000,1.0,4,5,-1.77611,-170.026,20.8997,157.114
168,588003,625972,1,23184768,1.0,0,3,38.1686,-35.8428,-24.7611,-110.911
169,631152,582979,1,24888300,1.0,4,5,4.65019,-164.466,25.9535,158.378
170,611498,597228,1,11263971,1.0,5,2,16.2439,156.534,-24.0728,91.6763
171,523763,602524,1,282675,1.0,5,0,18.9723,155.22,29.5565,-42.6057
172,519767,650071,1,16957444,1.0,1,4,-28.6267,-14.1306,-4.70191,-168.956
173,631821,589943,5,31536000,16143.0,-1,-1,,,,
174,592714,622466,0,31473545,1.0,-1,-1,,,,
175,514120,510816,1,13257887,1.0,4,2,-1.01132,-161.046,-21.0025,90.8411
176,546126,544334,1,28906451,1.0,0,4,24.7324,-35.1568,0.928511,-164.848
177,647855,567083,0,11243221,1.0,-1,-1,,,,
178,582979,465701,1,22122269,1.0,5,3,25.9535,158.378,-24.6787,-109.831
179,544061,558301,1,26448999,1.0,0,4,32.4894,-41.2229,-5.57128,-160.62
180,613969,530025,0,19823405,1.0,-1,-1,,,,
181,592656,483820,1,550267,1.0,0,4,32.3735,-32.5883,1.53345,-161.829
182,523763,573812,1,30373947,1.0,5,3,18.9723,155.22,-24.4173,-110.132
183,544061,631821,0,3898093,1.0,-1,-1,,,,
184,592714,490296,0,16268297,1.0,-1,-1,,,,
185,647855,582979,1,23167347,1.0,4,5,3.58441,-167.937,25.9535,158.378
186,647855,582979,1,23085352,1.0,4,5,3.58441,-167.937,25.9535,158.378
187,544334,519767,0,7984827,1.0,-1,-1,,,,
188,644184,619223,1,895347,1.0,4,2,-4.80551,-166.63,-22.9464,91.6204
189,490296,568470,1,13228609,1.0,3,0,-25.2976,-111.266,30.423,-37.8233
190,631821,592783,1,14179681,1.0,0,2,30.3463,-34.7487,-17.1099,90.738
191,567083,589943,5,31536000,2270.13,-1,-1,,,,
192,514406,523763,1,12097107,1.0,3,5,-24.1083,-110.569,18.9723,155.22
193,462222,517146,1,13133874,1.0,3,4,-24.7359,-111.681,5.11299,-168.277
194,588003,558301,1,15830584,1.0,0,4,38.1686,-35.8428,-5.57128,-160.62
195,607334,523453,0,3239716,1.0,-1,-1,,,,
196,628395,594360,1,2643880,1.0,1,0,-28.3835,-15.2649,23.4011,-43.6115
197,564630,477761,1,19284944,1.0,2,0,-19.269,91.1144,36.7878,-29.7506
198,592783,589943,5,31536000,634.35,-1,-1,,,,
199,475962,530025,1,25095817,1.0,3,2,-24.8393,-110.853,-23.1061,90.2556
200,483820,643084,1,12020221,1.0,4,0,1.53345,-161.829,32.5957,-42.8559
201,644969,456924,1,439246,1.0,0,2,33.6401,-37.5875,-24.594,88.5698
202,568470,577875,1,5305550,1.0,0,5,30.423,-37.8233,22.7902,156.851
203,594187,553069,0,18985238,1.0,-1,-1,,,,
204,475962,643084,0,4476011,1.0,-1,-1,,,,
205,477761,519767,1,524396,1.0,0,1,36.7878,-29.7506,-28.6267,-14.1306
206,650071,483820,0,3326916,1.0,-1,-1,,,,
207,631152,644184,0,29725413,1.0,-1,-1,,,,
208,457397,523763,1,27478526,1.0,4,5,5.26273,-167.853,18.9723,155.22
209,558301,589943,5,31536000,353.39,-1,-1,,,,
210,477259,476656,0,16691447,1.0,-1,-1,,,,
211,632474,589943,5,31536000,1016.11,-1,-1,,,,
212,456924,589943,5,31536000,1246.67,-1,-1,,,,
213,490296,549437,0,17464246,1.0,-1,-1,,,,
214,583239,519767,1,13945703,1.0,4,1,-6.16335,-163.714,-28.6267,-14.1306
215,594187,580897,1,9976576,1.0,4,2,5.02685,-161.546,-22.7381,91.6783
216,470157,631821,0,3224196,1.0,-1,-1,,,,
217,625972,613136,0,29939784,1.0,-1,-1,,,,
218,514406,589943,5,31536000,6481.22,-1,-1,,,,
219,573812,536173,1,18762645,1.0,3,0,-24.4173,-110.132,32.184,-42.8728
220,573812,589943,5,31536000,616.32,-1,-1,,,,
221,613969,592714,0,3641795,1.0,-1,-1,,,,
222,553069,632474,1,8658487,1.0,2,4,-23.0806,92.3909,4.34626,-162.251
223,566325,528165,0,8403265,1.0,-1,-1,,,,
224,582979,485302,0,780895,1.0,-1,-1,,,,
225,613636,514406,1,23776951,1.0,4,3,0.60588,-171.399,-24.1083,-110.569
226,613636,514406,1,23773708,1.0,4,3,0.60588,-171.399,-24.1083,-110.569
227,577875,589943,5,31536000,1377.78,-1,-1,,,,
228,465701,589943,5,31536000,116.3,-1,-1,,,,
229,564630,589943,5,31536000,865.46,-1,-1,,,,
230,644184,565699,1,12720169,1.0,4,4,-4.80551,-166.63,-2.88719,-168.852
231,483820,589943,5,31536000,2093.78,-1,-1,,,,
232,631821,528165,1,7130077,1.0,0,0,30.3463,-34.7487,31.5109,-44.5982
233,477761,589943,5,31536000,8291.77,-1,-1,,,,
234,582979,594187,1,17325959,1.0,5,4,25.9535,158.378,5.02685,-161.546
235,546126,462222,1,19490028,1.0,0,3,24.7324,-35.1568,-24.7359,-111.681
236,546126,462222,1,19490808,1.0,0,3,24.7324,-35.1568,-24.7359,-111.681
237,602524,643084,0,19009726,1.0,-1,-1,,,,
238,600971,480172,0,5020406,1.0,-1,-1,,,,
239,577923,530025,1,9273393,1.0,1,2,-29.8799,-13.687,-23.1061,90.2556
240,530025,589943,5,31536000,1637.71,-1,-1,,,,
241,470157,523453,0,3983234,1.0,-1,-1,,,,
242,594187,573812,1,16857129,1.0,4,3,5.02685,-161.546,-24.4173,-110.132
243,599252,592656,1,12070089,1.0,4,0,-1.6699,-162.895,32.3735,-32.5883
244,625972,523763,0,15264723,1.0,-1,-1,,,,
245,550868,523763,0,8423705,1.0,-1,-1,,,,
246,475962,580764,0,19366116,1.0,-1,-1,,,,
247,573812,485302,1,30108986,1.0,3,5,-24.4173,-110.132,22.4038,156.388
248,456924,523763,0,5127124,1.0,-1,-1,,,,
249,628040,549437,1,1400129,1.0,2,5,-21.4972,89.2333,20.8997,157.114
250,497494,477761,0,22896747,1.0,-1,-1,,,,
251,570412,564630,1,18068428,1.0,1,2,-28.8804,-20.4716,-19.269,91.1144
252,523763,613136,1,18764505,1.0,5,0,18.9723,155.22,32.8261,-48.6027
253,523763,613136,1,20673089,1.0,5,0,18.9723,155.22,32.8261,-48.6027
254,523763,613136,1,20663631,1.0,5,0,18.9723,155.22,32.8261,-48.6027
255,510816,477259,1,23073873,1.0,2,3,-21.0025,90.8411,-24.7191,-110.409
256,580897,589943,5,31536000,817.84,-1,-1,,,,
257,582979,524005,1,15738856,1.0,5,5,25.9535,158.378,22.7336,157.622
258,478536,483820,0,22138197,1.0,-1,-1,,,,
259,528165,475962,1,9433581,1.0,0,3,31.5109,-44.5982,-24.8393,-110.853
260,475962,536173,1,15338209,1.0,3,0,-24.8393,-110.853,32.184,-42.8728
261,582979,589943,5,31536000,334.14,-1,-1,,,,
262,514406,524005,0,4599401,1.0,-1,-1,,,,
263,462222,485302,0,15505214,1.0,-1,-1,,,,
264,477259,558301,0,29857514,1.0,-1,-1,,,,
265,485302,650071,1,17212836,1.0,5,4,22.4038,156.388,-4.70191,-168.956
266,594360,589943,5,31536000,1647.95,-1,-1,,,,
267,631152,553069,0,16684023,1.0,-1,-1,,,,
268,570412,463659,1,11955214,1.0,1,1,-28.8804,-20.4716,-23.654,-12.9029
269,524005,607334,0,20392689,1.0,-1,-1,,,,
270,588003,596261,1,117032,1.0,0,4,38.1686,-35.8428,-3.33684,-170.502
271,588003,596261,0,12618967,1.0,-1,-1,,,,
272,463659,573812,1,28278748,1.0,1,3,-23.654,-12.9029,-24.4173,-110.132
273,598209,550868,1,23253329,1.0,5,0,24.468,156.584,32.8568,-39.0085
274,602524,456924,1,27489616,1.0,0,2,29.5565,-42.6057,-24.594,88.5698
275,514406,550868,1,2262408,1.0,3,0,-24.1083,-110.569,32.8568,-39.0085
276,523763,599252,1,29553122,1.0,5,4,18.9723,155.22,-1.6699,-162.895
277,524005,589943,5,31536000,5879.11,-1,-1,,,,
278,463659,480172,0,6062573,1.0,-1,-1,,,,
279,613969,536173,1,7439413,1.0,2,0,-17.1044,90.7178,32.184,-42.8728
280,490296,530147,1,26647713,1.0,3,1,-25.2976,-111.266,-31.0753,-16.0335
281,613969,589943,5,31536000,1289.66,-1,-1,,,,
282,567083,613136,1,7631339,1.0,0,0,33.5817,-35.9609,32.8261,-48.6027
283,550868,490296,1,13836573,1.0,0,3,32.8568,-39.0085,-25.2976,-111.266
284,628040,589943,5,31536000,4049.12,-1,-1,,,,
285,592783,613136,1,6998666,1.0,2,0,-17.1099,90.738,32.8261,-48.6027
286,650071,475962,1,24121490,1.0,4,3,-4.70191,-168.956,-24.8393,-110.853
287,476656,489586,1,2949808,1.0,1,4,-33.6646,-13.4514,-5.11351,-168.13
288,514406,596210,1,13397319,1.0,3,2,-24.1083,-110.569,-24.5492,90.2712
289,463659,589943,5,31536000,802.51,-1,-1,,,,
290,597228,474313,1,7516804,1.0,2,4,-24.0728,91.6763,0.593687,-160.65
291,609031,598209,1,8732569,1.0,2,5,-19.3589,88.9725,24.468,156.584
292,568470,566325,1,16698638,1.0,0,1,30.423,-37.8233,-29.804,-9.77872
293,567083,657332,1,5109523,1.0,0,4,33.5817,-35.9609,-3.35745,-162.419
294,536173,600971,1,3746412,1.0,0,0,32.184,-42.8728,37.5294,-41.5884
295,598209,596210,0,23328874,1.0,-1,-1,,,,
296,602524,594187,0,30157818,1.0,-1,-1,,,,
297,480172,565699,1,28011298,1.0,1,4,-27.5257,-12.1402,-2.88719,-168.852
298,611498,644184,0,22558364,1.0,-1,-1,,,,
299,517146,589943,5,31536000,1739.09,-1,-1,,,,
300,514120,650071,0,21945618,1.0,-1,-1,,,,
301,528165,553069,0,25404981,1.0,-1,-1,,,,
302,611498,476656,1,1734512,1.0,5,1,16.2439,156.534,-33.6646,-13.4514
303,631152,489586,1,29249265,1.0,4,4,4.65019,-164.466,-5.11351,-168.13
304,631152,489586,1,25620645,1.0,4,4,4.65019,-164.466,-5.11351,-168.13
