,Source,Target,eType,Time,Weight,SourceLocation,TargetLocation,SourceLatitude,SourceLongitude,TargetLatitude,TargetLongitude
0,556685,551877,0,26109363,1.0,-1,-1,,,,
1,582199,605266,0,10914904,1.0,-1,-1,,,,
2,558925,534650,1,21181296,1.0,5,4,18.7723,155.323,-0.350775,-167.662
3,483490,638948,1,26269969,1.0,2,5,-23.2841,90.7254,21.5458,152.233
4,646073,634975,1,24798084,1.0,3,3,-24.882,-110.652,-24.9253,-110.338
5,646073,634975,1,22439681,1.0,3,3,-24.882,-110.652,-24.9253,-110.338
6,614800,614800,0,8394081,1.0,-1,-1,,,,
7,547134,631140,1,4611961,1.0,4,2,-2.07968,-168.696,-20.8965,92.19
8,646073,502610,0,11893811,1.0,-1,-1,,,,
9,462597,652516,0,23176274,1.0,-1,-1,,,,
10,478239,476029,1,4511732,1.0,2,0,-18.7129,87.5619,24.0526,-37.0395
11,556685,568602,1,30592125,1.0,5,2,20.2739,155.938,-20.249,92.6989
12,605266,595107,1,20937886,1.0,3,1,-24.9078,-110.732,-27.1989,-10.9256
13,636284,483390,0,7950058,1.0,-1,-1,,,,
14,634975,502610,1,30782928,1.0,3,0,-24.9253,-110.338,33.4248,-38.319
15,550954,614800,1,6401759,1.0,2,2,-21.2794,89.2312,-19.6073,86.1219
16,482983,497030,0,11330672,1.0,-1,-1,,,,
17,594580,582199,0,10761518,1.0,-1,-1,,,,
18,594580,582199,0,20823349,1.0,-1,-1,,,,
19,594580,582199,0,21698191,1.0,-1,-1,,,,
20,550813,497030,1,3804018,1.0,3,0,-24.6065,-110.863,25.4602,-30.4058
21,532598,581390,1,5800036,1.0,3,0,-24.5079,-109.923,33.4236,-36.7288
22,652516,482597,0,20068777,1.0,-1,-1,,,,
23,581390,638948,0,15559303,1.0,-1,-1,,,,
24,581390,638948,1,26044561,1.0,0,5,33.4236,-36.7288,21.5458,152.233
25,636103,555545,1,28454132,1.0,2,4,-21.3237,90.6257,-0.92542,-165.663
26,652516,533950,1,25154315,1.0,2,0,-22.2081,93.9042,32.316,-45.0607
27,574718,502610,1,19968313,1.0,1,0,-27.4672,-14.4276,33.4248,-38.319
28,465661,568602,0,23619175,1.0,-1,-1,,,,
29,483490,652516,0,7089137,1.0,-1,-1,,,,
30,620787,501299,0,2173730,1.0,-1,-1,,,,
31,638948,646073,1,4428885,1.0,5,3,21.5458,152.233,-24.882,-110.652
32,646073,556685,1,29164744,1.0,3,5,-24.882,-110.652,20.2739,155.938
33,547134,466965,1,20243349,1.0,4,0,-2.07968,-168.696,38.0325,-39.7179
34,476340,483390,1,2466760,1.0,0,3,30.2469,-38.8708,-25.1185,-110.956
35,605266,583873,0,24503074,1.0,-1,-1,,,,
36,511254,614800,1,29142597,1.0,0,2,29.2067,-42.5726,-19.6073,86.1219
37,555545,535770,1,20234747,1.0,4,2,-0.92542,-165.663,-22.65,91.3161
38,631140,614800,0,15312273,1.0,-1,-1,,,,
39,568602,532598,1,4356050,1.0,2,3,-20.249,92.6989,-24.5079,-109.923
40,478239,614800,1,25720034,1.0,2,2,-18.7129,87.5619,-19.6073,86.1219
41,558925,520331,1,11071852,1.0,5,1,18.7723,155.323,-28.6975,-13.372
42,605266,462597,0,27304532,1.0,-1,-1,,,,
43,574718,556685,0,19968313,1.0,-1,-1,,,,
44,474004,578509,1,2535293,1.0,5,2,23.6776,152.146,-21.4683,90.1388
45,549705,482983,1,23504406,1.0,0,3,33.0848,-39.1616,-25.8428,-111.813
46,482597,459033,3,17023149,289.0,-1,-1,,,,
47,496429,476910,1,15225720,1.0,4,0,5.1063,-170.11,30.8899,-45.4596
48,568602,620787,0,21125321,1.0,-1,-1,,,,
49,483490,582199,1,7016151,1.0,2,4,-23.2841,90.7254,-5.33866,-174.327
50,496429,634975,0,10023613,1.0,-1,-1,,,,
51,496429,634975,0,6261127,1.0,-1,-1,,,,
52,541448,478502,1,5813680,1.0,4,3,-0.437137,-167.623,-25.2611,-110.591
53,496429,614800,1,10630098,1.0,4,2,5.1063,-170.11,-19.6073,86.1219
54,496429,614800,0,10639471,1.0,-1,-1,,,,
55,567251,469847,1,6168988,1.0,0,0,32.9068,-44.0311,34.0525,-42.713
56,594580,478502,1,31116279,1.0,2,3,-23.4743,88.6711,-25.2611,-110.591
57,527723,551877,1,28103819,1.0,4,2,-1.81909,-161.779,-18.3552,92.9679
58,550813,614800,0,15480644,1.0,-1,-1,,,,
59,642201,476910,1,21212111,1.0,4,0,-0.0267315,-167.954,30.8899,-45.4596
60,547134,605266,1,19908307,1.0,4,3,-2.07968,-168.696,-24.9078,-110.732
61,547134,605266,1,19962105,1.0,4,3,-2.07968,-168.696,-24.9078,-110.732
62,488824,583873,1,29775630,1.0,2,3,-24.048,92.0746,-23.7133,-111.792
63,497030,641816,1,11330933,1.0,0,0,25.4602,-30.4058,33.2399,-47.897
64,614800,492925,1,4350256,1.0,2,0,-19.6073,86.1219,34.4293,-36.5513
65,567251,517276,0,8577646,1.0,-1,-1,,,,
66,558925,469321,1,5877600,1.0,5,0,18.7723,155.323,31.0433,-43.0929
67,614800,636284,0,19145203,1.0,-1,-1,,,,
68,588253,574125,0,25853157,1.0,-1,-1,,,,
69,532598,595473,0,24501385,1.0,-1,-1,,,,
70,636284,482597,0,28455857,1.0,-1,-1,,,,
71,535770,488824,0,9685013,1.0,-1,-1,,,,
72,536660,534650,0,9806156,1.0,-1,-1,,,,
73,588253,497030,1,19393762,1.0,3,0,-25.6645,-110.909,25.4602,-30.4058
74,588253,497030,1,19527266,1.0,3,0,-25.6645,-110.909,25.4602,-30.4058
75,469847,462597,0,2419243,1.0,-1,-1,,,,
76,511923,478239,0,3636041,1.0,-1,-1,,,,
77,578509,535770,0,9955542,1.0,-1,-1,,,,
78,565131,533950,0,881831,1.0,-1,-1,,,,
79,592139,476340,1,17466755,1.0,4,0,7.88499,-163.934,30.2469,-38.8708
80,482597,551877,0,7348734,1.0,-1,-1,,,,
81,479617,462597,0,25584716,1.0,-1,-1,,,,
82,551877,638948,1,24796838,1.0,2,5,-18.3552,92.9679,21.5458,152.233
83,482983,594580,1,30506792,1.0,3,2,-25.8428,-111.813,-23.4743,88.6711
84,620787,578509,0,12888655,1.0,-1,-1,,,,
85,501299,550813,1,19495565,1.0,0,3,32.652,-36.1947,-24.6065,-110.863
86,501299,550813,1,19369096,1.0,0,3,32.652,-36.1947,-24.6065,-110.863
87,605266,465661,0,22224254,1.0,-1,-1,,,,
88,474004,614800,0,20048634,1.0,-1,-1,,,,
89,482983,631140,1,18011034,1.0,3,2,-25.8428,-111.813,-20.8965,92.19
90,488824,527723,0,7006327,1.0,-1,-1,,,,
91,550954,619165,1,9772827,1.0,2,3,-21.2794,89.2312,-25.174,-110.775
92,555545,534650,0,16119254,1.0,-1,-1,,,,
93,459434,465661,0,15843614,1.0,-1,-1,,,,
94,558925,588038,0,16416032,1.0,-1,-1,,,,
95,511998,466965,1,5023720,1.0,0,0,27.7817,-42.4835,38.0325,-39.7179
96,482597,492925,1,13050382,1.0,3,0,-25.4021,-110.288,34.4293,-36.5513
97,502610,478502,1,30240871,1.0,0,3,33.4248,-38.319,-25.2611,-110.591
98,614800,459033,3,19472761,108.0,-1,-1,,,,
99,540407,549705,1,14114897,1.0,4,0,0.887893,-162.058,33.0848,-39.1616
100,565131,578751,1,23542993,1.0,0,0,34.6556,-38.4678,32.5201,-40.069
101,520331,492925,1,26705786,1.0,1,0,-28.6975,-13.372,34.4293,-36.5513
102,479617,551877,1,25529822,1.0,4,2,2.31377,-169.873,-18.3552,92.9679
103,578751,620787,1,4666722,1.0,0,3,32.5201,-40.069,-25.1477,-111.401
104,625093,592139,0,9465539,1.0,-1,-1,,,,
105,547134,532598,1,14216541,1.0,4,3,-2.07968,-168.696,-24.5079,-109.923
106,634975,585100,1,9791580,1.0,3,1,-24.9253,-110.338,-25.7013,-14.3564
107,466965,517276,0,1513292,1.0,-1,-1,,,,
108,585100,594580,1,15566765,1.0,1,2,-25.7013,-14.3564,-23.4743,88.6711
109,594580,469847,1,30861370,1.0,2,0,-23.4743,88.6711,34.0525,-42.713
110,469847,465661,1,31216456,1.0,0,5,34.0525,-42.713,23.9713,156.015
111,469847,465661,1,31241409,1.0,0,5,34.0525,-42.713,23.9713,156.015
112,646073,588253,0,17282420,1.0,-1,-1,,,,
113,567251,476029,0,14876428,1.0,-1,-1,,,,
114,574125,550954,1,30609164,1.0,0,2,29.4774,-42.6416,-21.2794,89.2312
115,574125,550954,1,30751136,1.0,0,2,29.4774,-42.6416,-21.2794,89.2312
116,652516,478618,1,22992904,1.0,2,1,-22.2081,93.9042,-32.614,-11.9681
117,644518,605266,1,21958599,1.0,0,3,31.4059,-42.4885,-24.9078,-110.732
118,483390,644795,0,5020922,1.0,-1,-1,,,,
119,636103,611819,1,956161,1.0,2,2,-21.3237,90.6257,-21.304,92.395
120,462597,578509,0,7911026,1.0,-1,-1,,,,
121,614800,620787,1,6601752,1.0,2,3,-19.6073,86.1219,-25.1477,-111.401
122,620787,614800,1,24723347,1.0,3,2,-25.1477,-111.401,-19.6073,86.1219
123,466965,534650,0,15593801,1.0,-1,-1,,,,
124,568602,582199,0,25246115,1.0,-1,-1,,,,
125,574718,619165,1,13866031,1.0,1,3,-27.4672,-14.4276,-25.174,-110.775
126,636284,574125,1,12968022,1.0,5,0,24.9816,153.287,29.4774,-42.6416
127,567251,588253,0,18231138,1.0,-1,-1,,,,
128,638948,556685,0,25326736,1.0,-1,-1,,,,
129,583873,549705,1,16333955,1.0,3,0,-23.7133,-111.792,33.0848,-39.1616
130,496429,492925,0,18088239,1.0,-1,-1,,,,
131,549015,634975,0,23882337,1.0,-1,-1,,,,
132,469321,476029,1,30253918,1.0,0,0,31.0433,-43.0929,24.0526,-37.0395
133,600971,614800,1,1995362,1.0,0,2,37.5294,-41.5884,-19.6073,86.1219
134,588253,614800,1,14831541,1.0,3,2,-25.6645,-110.909,-19.6073,86.1219
135,518689,465661,1,21605967,1.0,3,5,-24.9542,-110.718,23.9713,156.015
136,533950,556685,0,16552563,1.0,-1,-1,,,,
137,614800,502610,1,20501216,1.0,2,0,-19.6073,86.1219,33.4248,-38.319
138,641816,540407,0,29811601,1.0,-1,-1,,,,
139,459521,549705,1,10898933,1.0,0,0,34.3982,-38.4796,33.0848,-39.1616
140,636284,459521,1,9220006,1.0,5,0,24.9816,153.287,34.3982,-38.4796
141,511923,583873,1,4928814,1.0,4,3,2.00753,-167.983,-23.7133,-111.792
142,595473,483490,1,4538442,1.0,4,2,5.73378,-162.921,-23.2841,90.7254
143,614800,483490,1,30594297,1.0,2,2,-19.6073,86.1219,-23.2841,90.7254
144,614800,483490,0,27859845,1.0,-1,-1,,,,
145,614800,478502,0,11031128,1.0,-1,-1,,,,
146,476029,549015,1,22671152,1.0,0,0,24.0526,-37.0395,31.5816,-45.9145
147,652516,556685,0,15644718,1.0,-1,-1,,,,
148,595107,578751,1,3910818,1.0,1,0,-27.1989,-10.9256,32.5201,-40.069
149,614800,541448,1,17038131,1.0,2,4,-19.6073,86.1219,-0.437137,-167.623
150,574718,478502,1,4411829,1.0,1,3,-27.4672,-14.4276,-25.2611,-110.591
151,620787,473777,0,22070657,1.0,-1,-1,,,,
152,502610,644795,0,2773084,1.0,-1,-1,,,,
153,502610,620787,1,19560454,1.0,0,3,33.4248,-38.319,-25.1477,-111.401
154,459521,588038,1,9171628,1.0,0,0,34.3982,-38.4796,27.3535,-38.7058
155,502610,556685,1,26969074,1.0,0,5,33.4248,-38.319,20.2739,155.938
156,614800,459521,1,11009529,1.0,2,0,-19.6073,86.1219,34.3982,-38.4796
157,614800,459521,1,21739346,1.0,2,0,-19.6073,86.1219,34.3982,-38.4796
158,625093,465661,1,10243246,1.0,0,5,32.812,-42.387,23.9713,156.015
159,644518,465661,1,25771695,1.0,0,5,31.4059,-42.4885,23.9713,156.015
160,636284,614800,1,22919409,1.0,5,2,24.9816,153.287,-19.6073,86.1219
161,582199,594580,1,2426814,1.0,4,2,-5.33866,-174.327,-23.4743,88.6711
162,535770,465661,1,27966455,1.0,2,5,-22.65,91.3161,23.9713,156.015
163,496429,588038,1,12914971,1.0,4,0,5.1063,-170.11,27.3535,-38.7058
164,555545,614800,1,12987888,1.0,4,2,-0.92542,-165.663,-19.6073,86.1219
165,614800,574718,1,6156260,1.0,2,1,-19.6073,86.1219,-27.4672,-14.4276
166,478502,634975,1,22750575,1.0,3,3,-25.2611,-110.591,-24.9253,-110.338
167,478502,634975,1,7432595,1.0,3,3,-25.2611,-110.591,-24.9253,-110.338
168,555545,611819,0,28523710,1.0,-1,-1,,,,
169,594580,646073,1,4605616,1.0,2,3,-23.4743,88.6711,-24.882,-110.652
170,595473,502610,0,20909097,1.0,-1,-1,,,,
171,459521,551877,1,23177076,1.0,0,2,34.3982,-38.4796,-18.3552,92.9679
172,646073,527723,1,28157907,1.0,3,4,-24.882,-110.652,-1.81909,-161.779
173,634975,482597,1,5716109,1.0,3,3,-24.9253,-110.338,-25.4021,-110.288
174,459521,550954,0,20225702,1.0,-1,-1,,,,
175,558925,611819,1,3850598,1.0,5,2,18.7723,155.323,-21.304,92.395
176,652516,469321,1,17805405,1.0,2,0,-22.2081,93.9042,31.0433,-43.0929
177,652516,469321,1,17744776,1.0,2,0,-22.2081,93.9042,31.0433,-43.0929
178,595473,466965,0,4755914,1.0,-1,-1,,,,
179,488824,459521,1,1417015,1.0,2,0,-24.048,92.0746,34.3982,-38.4796
180,547134,483490,1,8055371,1.0,4,2,-2.07968,-168.696,-23.2841,90.7254
181,646073,482597,0,8229843,1.0,-1,-1,,,,
182,646073,482597,0,14270708,1.0,-1,-1,,,,
183,478502,488824,0,3057001,1.0,-1,-1,,,,
184,652516,473777,1,12033618,1.0,2,1,-22.2081,93.9042,-23.3293,-7.58311
185,476910,578751,1,26893964,1.0,0,0,30.8899,-45.4596,32.5201,-40.069
186,636284,620787,1,8748978,1.0,5,3,24.9816,153.287,-25.1477,-111.401
187,636284,620787,0,25815869,1.0,-1,-1,,,,
188,478239,533950,0,16160770,1.0,-1,-1,,,,
189,469847,646073,1,9204433,1.0,0,3,34.0525,-42.713,-24.882,-110.652
190,595473,634975,1,19197314,1.0,4,3,5.73378,-162.921,-24.9253,-110.338
191,638948,479617,0,9296128,1.0,-1,-1,,,,
192,518689,631140,1,29137710,1.0,3,2,-24.9542,-110.718,-20.8965,92.19
193,496429,595107,1,17712011,1.0,4,1,5.1063,-170.11,-27.1989,-10.9256
194,496429,595107,1,273601,1.0,4,1,5.1063,-170.11,-27.1989,-10.9256
195,511998,465661,0,25615443,1.0,-1,-1,,,,
196,594580,634975,0,1147545,1.0,-1,-1,,,,
197,541448,620787,0,6087119,1.0,-1,-1,,,,
198,482983,551877,0,4528210,1.0,-1,-1,,,,
199,482983,614800,1,1303506,1.0,3,2,-25.8428,-111.813,-19.6073,86.1219
200,482983,614800,1,5375576,1.0,3,2,-25.8428,-111.813,-19.6073,86.1219
201,614800,574125,1,2765605,1.0,2,0,-19.6073,86.1219,29.4774,-42.6416
202,614800,574125,1,19269726,1.0,2,0,-19.6073,86.1219,29.4774,-42.6416
203,496429,556685,0,30952832,1.0,-1,-1,,,,
204,550954,478239,0,21081656,1.0,-1,-1,,,,
205,605266,555545,0,15755929,1.0,-1,-1,,,,
206,459521,646073,1,21365303,1.0,0,3,34.3982,-38.4796,-24.882,-110.652
207,536660,483390,0,17453783,1.0,-1,-1,,,,
208,474004,583873,0,31460436,1.0,-1,-1,,,,
209,474004,583873,1,3479774,1.0,5,3,23.6776,152.146,-23.7133,-111.792
210,588253,536660,1,22128634,1.0,3,0,-25.6645,-110.909,40.2165,-44.0972
211,594580,482597,1,3110418,1.0,2,3,-23.4743,88.6711,-25.4021,-110.288
212,556685,478502,1,28341366,1.0,5,3,20.2739,155.938,-25.2611,-110.591
213,549705,469321,0,1498005,1.0,-1,-1,,,,
214,532598,496429,0,19967044,1.0,-1,-1,,,,
215,558925,496429,0,24740688,1.0,-1,-1,,,,
216,476910,595473,1,12200360,1.0,0,4,30.8899,-45.4596,5.73378,-162.921
217,646073,620787,1,8527380,1.0,3,3,-24.882,-110.652,-25.1477,-111.401
218,462597,644795,1,5276368,1.0,0,4,34.8955,-40.9722,-1.23364,-166.446
219,465661,556685,1,10802393,1.0,5,5,23.9713,156.015,20.2739,155.938
220,595473,492925,1,5196532,1.0,4,0,5.73378,-162.921,34.4293,-36.5513
221,636103,536660,1,9089379,1.0,2,0,-21.3237,90.6257,40.2165,-44.0972
222,594580,541448,1,26352761,1.0,2,4,-23.4743,88.6711,-0.437137,-167.623
223,646073,459033,3,10460401,8.0,-1,-1,,,,
224,535770,492925,0,24986967,1.0,-1,-1,,,,
225,465661,638948,0,7005900,1.0,-1,-1,,,,
226,533950,574718,1,30072011,1.0,0,1,32.316,-45.0607,-27.4672,-14.4276
227,636284,465661,0,1828458,1.0,-1,-1,,,,
228,574125,625093,1,8900649,1.0,0,0,29.4774,-42.6416,32.812,-42.387
229,574718,474004,1,17712021,1.0,1,5,-27.4672,-14.4276,23.6776,152.146
230,469321,625093,1,24161065,1.0,0,0,31.0433,-43.0929,32.812,-42.387
231,581390,568602,1,29812725,1.0,0,2,33.4236,-36.7288,-20.249,92.6989
232,582199,620787,1,28427777,1.0,4,3,-5.33866,-174.327,-25.1477,-111.401
233,511254,534650,1,21613853,1.0,0,4,29.2067,-42.5726,-0.350775,-167.662
234,479617,483390,0,26043847,1.0,-1,-1,,,,
235,636103,527723,1,8236816,1.0,2,4,-21.3237,90.6257,-1.81909,-161.779
236,496429,600971,1,16627817,1.0,4,0,5.1063,-170.11,37.5294,-41.5884
237,568602,578751,1,97587,1.0,2,0,-20.249,92.6989,32.5201,-40.069
238,462597,532598,1,29558211,1.0,0,3,34.8955,-40.9722,-24.5079,-109.923
239,631140,476029,1,23706027,1.0,2,0,-20.8965,92.19,24.0526,-37.0395
240,527723,625093,0,17061364,1.0,-1,-1,,,,
241,549015,551877,1,1149864,1.0,0,2,31.5816,-45.9145,-18.3552,92.9679
242,636284,530727,0,15219880,1.0,-1,-1,,,,
243,638948,482983,0,7873771,1.0,-1,-1,,,,
244,518689,541448,0,6912029,1.0,-1,-1,,,,
245,646073,469847,0,26496418,1.0,-1,-1,,,,
246,567251,478502,1,12156515,1.0,0,3,32.9068,-44.0311,-25.2611,-110.591
247,492925,620787,1,15509329,1.0,0,3,34.4293,-36.5513,-25.1477,-111.401
248,547134,614800,1,30506758,1.0,4,2,-2.07968,-168.696,-19.6073,86.1219
249,478618,478502,1,2539974,1.0,1,3,-32.614,-11.9681,-25.2611,-110.591
250,636284,582199,0,21038935,1.0,-1,-1,,,,
251,478618,614800,1,13047143,1.0,1,2,-32.614,-11.9681,-19.6073,86.1219
252,492925,644795,1,22119157,1.0,0,4,34.4293,-36.5513,-1.23364,-166.446
253,478502,482597,1,14628500,1.0,3,3,-25.2611,-110.591,-25.4021,-110.288
254,473777,478239,0,13533539,1.0,-1,-1,,,,
255,492925,583873,0,8382242,1.0,-1,-1,,,,
256,492925,583873,1,211246,1.0,0,3,34.4293,-36.5513,-23.7133,-111.792
257,540407,511998,1,29840384,1.0,4,0,0.887893,-162.058,27.7817,-42.4835
258,565131,595473,1,1877096,1.0,0,4,34.6556,-38.4678,5.73378,-162.921
259,594580,476910,1,5903290,1.0,2,0,-23.4743,88.6711,30.8899,-45.4596
260,583873,540407,0,4073523,1.0,-1,-1,,,,
261,541448,592139,1,22820159,1.0,4,4,-0.437137,-167.623,7.88499,-163.934
262,592139,595473,1,9436946,1.0,4,4,7.88499,-163.934,5.73378,-162.921
263,631140,501299,0,9940131,1.0,-1,-1,,,,
264,636103,511923,0,29206219,1.0,-1,-1,,,,
265,636103,634975,1,9261059,1.0,2,3,-21.3237,90.6257,-24.9253,-110.338
266,511998,646073,1,3237323,1.0,0,3,27.7817,-42.4835,-24.882,-110.652
267,511998,646073,1,26729948,1.0,0,3,27.7817,-42.4835,-24.882,-110.652
268,482983,555545,1,30558492,1.0,3,4,-25.8428,-111.813,-0.92542,-165.663
269,620787,556685,1,12898829,1.0,3,5,-25.1477,-111.401,20.2739,155.938
270,482597,518689,1,16766455,1.0,3,3,-25.4021,-110.288,-24.9542,-110.718
271,482597,518689,1,16791011,1.0,3,3,-25.4021,-110.288,-24.9542,-110.718
272,565131,619165,1,24809066,1.0,0,3,34.6556,-38.4678,-25.174,-110.775
273,497030,511923,0,13999360,1.0,-1,-1,,,,
274,459521,459033,3,23160671,169.0,-1,-1,,,,
275,462597,600971,0,2558719,1.0,-1,-1,,,,
276,518689,535770,1,12021124,1.0,3,2,-24.9542,-110.718,-22.65,91.3161
277,483390,646073,1,5280141,1.0,3,3,-25.1185,-110.956,-24.882,-110.652
278,646073,541448,0,19731648,1.0,-1,-1,,,,
279,625093,558925,1,2630244,1.0,0,5,32.812,-42.387,18.7723,155.323
280,550813,568602,1,22411180,1.0,3,2,-24.6065,-110.863,-20.249,92.6989
281,550954,638948,0,16183028,1.0,-1,-1,,,,
282,550954,638948,1,24999612,1.0,2,5,-21.2794,89.2312,21.5458,152.233
283,549015,614800,0,7144132,1.0,-1,-1,,,,
284,634975,549015,0,30181164,1.0,-1,-1,,,,
285,636284,478239,1,20586980,1.0,5,2,24.9816,153.287,-18.7129,87.5619
286,496429,642201,0,3115440,1.0,-1,-1,,,,
287,625321,638948,0,20679409,1.0,-1,-1,,,,
288,582199,549015,0,17023240,1.0,-1,-1,,,,
289,536660,518689,1,8038839,1.0,0,3,40.2165,-44.0972,-24.9542,-110.718
290,462597,634975,0,20739796,1.0,-1,-1,,,,
291,631140,642201,1,21850745,1.0,2,4,-20.8965,92.19,-0.0267315,-167.954
292,631140,642201,1,22043103,1.0,2,4,-20.8965,92.19,-0.0267315,-167.954
293,574718,549015,0,3727106,1.0,-1,-1,,,,
294,496429,578751,1,17554698,1.0,4,0,5.1063,-170.11,32.5201,-40.069
295,488824,502610,1,11679842,1.0,2,0,-24.048,92.0746,33.4248,-38.319
296,588253,547134,0,10992254,1.0,-1,-1,,,,
297,595107,600971,1,13664934,1.0,1,0,-27.1989,-10.9256,37.5294,-41.5884
298,474004,646073,0,15133024,1.0,-1,-1,,,,
299,535770,459434,1,31246842,1.0,2,0,-22.65,91.3161,35.0447,-37.3787
300,492925,496429,0,8472281,1.0,-1,-1,,,,
301,497030,551877,1,26971252,1.0,0,2,25.4602,-30.4058,-18.3552,92.9679
302,600971,644795,0,699145,1.0,-1,-1,,,,
303,474004,551877,1,25947656,1.0,5,2,23.6776,152.146,-18.3552,92.9679
304,568602,482597,0,7436885,1.0,-1,-1,,,,
305,588253,459434,1,15387414,1.0,3,0,-25.6645,-110.909,35.0447,-37.3787
306,511998,614800,1,24284103,1.0,0,2,27.7817,-42.4835,-19.6073,86.1219
307,496429,465661,0,6845107,1.0,-1,-1,,,,
308,496429,465661,1,28996837,1.0,4,5,5.1063,-170.11,23.9713,156.015
309,496429,465661,1,28600958,1.0,4,5,5.1063,-170.11,23.9713,156.015
310,646073,581390,0,18835456,1.0,-1,-1,,,,
311,466965,483490,1,3146528,1.0,0,2,38.0325,-39.7179,-23.2841,90.7254
312,469847,574718,0,23595716,1.0,-1,-1,,,,
313,534650,550813,1,1822802,1.0,4,3,-0.350775,-167.662,-24.6065,-110.863
314,549015,620787,0,9632266,1.0,-1,-1,,,,
315,588038,614800,1,2301152,1.0,0,2,27.3535,-38.7058,-19.6073,86.1219
316,625093,620787,0,10978131,1.0,-1,-1,,,,
317,550813,558925,1,20181981,1.0,3,5,-24.6065,-110.863,18.7723,155.323
318,550813,558925,1,20053256,1.0,3,5,-24.6065,-110.863,18.7723,155.323
319,603472,568602,1,25850103,1.0,0,2,34.6096,-33.2737,-20.249,92.6989
320,583873,585100,0,17120907,1.0,-1,-1,,,,
321,636103,501299,1,29467462,1.0,2,0,-21.3237,90.6257,32.652,-36.1947
322,588038,511998,1,29838291,1.0,0,0,27.3535,-38.7058,27.7817,-42.4835
323,595107,550813,0,22295536,1.0,-1,-1,,,,
324,614800,511923,0,7960816,1.0,-1,-1,,,,
325,614800,465661,1,361246,1.0,2,5,-19.6073,86.1219,23.9713,156.015
326,614800,634975,0,12183883,1.0,-1,-1,,,,
327,511998,478618,1,24318222,1.0,0,1,27.7817,-42.4835,-32.614,-11.9681
328,459521,466965,1,7715521,1.0,0,0,34.3982,-38.4796,38.0325,-39.7179
329,492925,614800,1,18008689,1.0,0,2,34.4293,-36.5513,-19.6073,86.1219
330,492925,614800,0,2531122,1.0,-1,-1,,,,
331,534650,620787,1,22138956,1.0,4,3,-0.350775,-167.662,-25.1477,-111.401
332,535770,636284,1,18151208,1.0,2,5,-22.65,91.3161,24.9816,153.287
333,620787,474004,1,21286401,1.0,3,5,-25.1477,-111.401,23.6776,152.146
334,588253,534650,0,20938492,1.0,-1,-1,,,,
335,550954,603472,0,22212740,1.0,-1,-1,,,,
336,465661,517276,0,21701738,1.0,-1,-1,,,,
337,518689,595107,1,8823016,1.0,3,1,-24.9542,-110.718,-27.1989,-10.9256
338,479617,541448,1,13065953,1.0,4,4,2.31377,-169.873,-0.437137,-167.623
339,518689,511254,1,17556049,1.0,3,0,-24.9542,-110.718,29.2067,-42.5726
340,518689,511254,1,20041574,1.0,3,0,-24.9542,-110.718,29.2067,-42.5726
341,518689,511254,1,20084799,1.0,3,0,-24.9542,-110.718,29.2067,-42.5726
342,614800,585100,1,3390726,1.0,2,1,-19.6073,86.1219,-25.7013,-14.3564
343,646073,625321,0,24908718,1.0,-1,-1,,,,
344,476029,558925,1,9706202,1.0,0,5,24.0526,-37.0395,18.7723,155.323
345,646073,479617,0,21945658,1.0,-1,-1,,,,
346,479617,496429,1,20852158,1.0,4,4,2.31377,-169.873,5.1063,-170.11
347,511923,620787,0,1219183,1.0,-1,-1,,,,
348,652516,565131,0,23073491,1.0,-1,-1,,,,
349,474004,462597,1,532563,1.0,5,0,23.6776,152.146,34.8955,-40.9722
350,556685,459033,3,31470653,128.0,-1,-1,,,,
351,465661,642201,0,10730141,1.0,-1,-1,,,,
352,625321,556685,1,13405285,1.0,2,5,-19.7648,89.9665,20.2739,155.938
353,638948,594580,1,20050611,1.0,5,2,21.5458,152.233,-23.4743,88.6711
354,638948,594580,1,20075097,1.0,5,2,21.5458,152.233,-23.4743,88.6711
355,465661,619165,1,21262800,1.0,5,3,23.9713,156.015,-25.174,-110.775
356,478239,478618,0,31290863,1.0,-1,-1,,,,
357,631140,550813,0,14692330,1.0,-1,-1,,,,
358,496429,530727,1,794166,1.0,4,4,5.1063,-170.11,1.50755,-168.85
359,518689,583873,0,24068359,1.0,-1,-1,,,,
360,478502,603472,1,3225320,1.0,3,0,-25.2611,-110.591,34.6096,-33.2737
