Source,Target,eType
485337,620388,0
650549,545727,0
469187,554368,0
545727,554368,0
620388,462278,0
585522,632984,0
629563,554368,0
513014,554368,0
462278,462278,0
554368,620388,0
554368,629563,0
620388,554368,0
652376,462278,0
652376,554368,0
513014,652376,0
652376,513014,0
632984,629563,0
554368,469187,0
513014,632984,0
632984,554368,0
469187,652376,0
545727,652376,0
554368,462278,0
513014,585522,0
469187,485337,0
629563,462278,0
554368,554368,0
462278,554368,0
554368,585522,0
650549,652376,0
629563,469187,0
