Source,Target,eType
605153,561428,0
556963,479309,0
628730,561428,0
556667,605153,0
636863,575165,0
499435,628730,0
567137,532688,0
561428,558946,0
633008,637233,0
637233,601358,0
561428,636863,0
558750,561428,0
561428,561428,0
556963,480404,0
478160,638333,0
558946,478160,0
601358,558946,0
638333,497940,0
575165,586499,0
568036,556963,0
478160,586499,0
628730,478160,0
510442,499435,0
497940,556667,0
561428,584274,0
628730,568036,0
561428,575165,0
586499,567137,0
561428,586499,0
584274,480404,0
479309,636863,0
643758,628730,0
532688,510442,0
478160,480404,0
480404,633008,0
605153,643758,0
