Source,Target,eType
459713,636586,0
657050,487558,0
622629,606237,0
461399,615904,0
526001,487558,0
511634,657050,0
634452,487558,0
487558,462694,0
477405,613431,0
634452,614815,0
495711,613431,0
487558,637891,0
459713,511634,0
613431,526001,0
487558,636586,0
637891,481031,0
562688,511974,0
461223,526001,0
637891,622629,0
540472,526001,0
590007,606237,0
613431,477405,0
526001,584693,0
577566,562688,0
614815,461223,0
622629,526001,0
606237,526001,0
583472,459713,0
614815,487558,0
590007,634452,0
477405,511634,0
615904,512339,0
462694,481031,0
540472,487558,0
511634,461399,0
590007,526001,0
606237,495711,0
511974,590007,0
636586,637891,0
512339,657050,0
584693,540472,0
481031,577566,0
