Source,Target,eType
493653,482198,0
506539,629805,0
471943,490098,0
655275,506539,0
630562,490098,0
630562,655275,0
568473,493653,0
495598,655275,0
490098,495598,0
630200,630562,0
629805,630200,0
568473,471943,0
570378,625352,0
655275,568473,0
482198,506539,0
471943,570378,0
