Source,Target,eType
559851,457525,0
559851,591504,0
562349,550960,0
602131,550960,0
610585,620865,0
562349,457525,0
473657,457525,0
535658,643187,0
559851,620865,0
457525,620625,0
535658,559851,0
620865,620865,0
620865,457525,0
529002,559851,0
620625,602131,0
620865,620625,0
473657,529002,0
620865,473657,0
643187,562349,0
550960,610585,0
