Source,Target,eType
613088,571244,0
646073,505263,0
646073,579517,0
646073,573171,0
573171,461619,0
601429,646073,0
579517,579517,0
606978,613088,0
461619,634813,0
461619,579517,0
573171,458078,0
634813,634988,0
505263,606978,0
458078,579517,0
458078,573171,0
571244,458078,0
634988,579517,0
579517,573171,0
