Source,Target,eType
561428,501031,0
657632,463681,0
622457,657632,0
547506,493874,0
595834,599790,0
599790,615656,0
488665,493874,0
644058,525208,0
488665,636279,0
546094,561428,0
645859,634473,0
595834,551002,0
525208,482977,0
501031,546094,0
535613,644058,0
634473,551002,0
519801,599790,0
599790,547506,0
525208,561428,0
561428,519801,0
644058,599790,0
561428,645859,0
520305,561428,0
561428,644058,0
526340,525208,0
535613,561428,0
535613,636279,0
526340,547506,0
526340,599790,0
546094,645859,0
467529,622457,0
501031,599790,0
525208,501031,0
493874,615656,0
599790,526340,0
561428,561428,0
561428,634473,0
609697,467529,0
520305,595834,0
463681,520305,0
482977,488665,0
561428,599790,0
561428,595834,0
636279,482977,0
595834,488665,0
615656,561428,0
634473,609697,0
615656,645859,0
551002,482977,0
