Source,Target,eType
506539,481452,0
646138,513960,0
465870,530873,0
513960,628083,0
481452,646138,0
498768,617340,0
498768,506539,0
517841,465870,0
530873,498768,0
616628,615890,0
628083,617340,0
646138,615890,0
615890,517841,0
615890,506539,0
