Source,Target,eType
483619,525496,0
581734,633030,0
547271,483619,0
550912,654556,0
564950,564950,0
581734,465751,0
564950,511642,0
540238,483619,0
483619,483619,0
633030,537510,0
483619,551934,0
648896,547271,0
525496,537510,0
564950,621210,0
564950,578067,0
551934,621210,0
564950,551934,0
581734,564950,0
483619,578067,0
564950,514899,0
537510,564950,0
483619,621210,0
484813,465751,0
525496,648896,0
511642,633030,0
578707,484813,0
465889,564950,0
484813,654556,0
540383,511642,0
578707,514899,0
465889,653970,0
578707,581734,0
483619,578707,0
551934,465889,0
540238,551934,0
514899,465889,0
527306,578707,0
483619,547271,0
621210,578067,0
527306,551934,0
550912,564950,0
578067,619689,0
585000,550912,0
578067,564950,0
621210,564950,0
465751,578067,0
483619,537510,0
514899,483619,0
581734,483619,0
578067,465889,0
578707,550912,0
547271,564950,0
578707,564950,0
654556,527306,0
537510,585000,0
619689,581734,0
581734,525496,0
653970,540238,0
537510,527306,0
578707,483619,0
578067,654556,0
