Source,Target,eType
489181,493103,0
471475,604993,0
503594,622099,0
604993,554368,0
545526,554368,0
592583,554368,0
622099,604993,0
471475,554368,0
592583,545526,0
554368,604993,0
554368,471475,0
612667,551935,0
493103,592583,0
551935,559113,0
503594,554368,0
545526,612667,0
622099,471475,0
554368,554368,0
559113,604993,0
554368,545526,0
548673,489181,0
554368,503594,0
489181,554368,0
