Source,Target,eType
465086,554368,0
554368,509879,0
465086,509879,0
529619,617435,0
627420,465086,0
554368,627420,0
537942,602602,0
617435,554368,0
509879,465086,0
602602,554368,0
532393,554368,0
509879,617435,0
473183,537942,0
627172,479758,0
554368,602602,0
617435,465086,0
479758,509879,0
602602,457712,0
509879,602602,0
509879,554368,0
509879,627172,0
479758,473183,0
627172,554368,0
554368,494228,0
529619,554368,0
495607,532393,0
554368,554368,0
473183,554368,0
602602,465086,0
532393,479758,0
457712,494228,0
617435,495607,0
479758,554368,0
494228,554368,0
