Source,Target,eType
581866,602422,0
535788,552333,0
477966,536747,0
552333,460066,0
477966,602422,0
501988,535788,0
614091,465083,0
614091,501988,0
465083,614091,0
536747,530513,0
526178,530513,0
526178,648816,0
530513,602422,0
648816,465083,0
581866,477966,0
602422,526178,0
