Source,Target,eType
490754,588876,0
509879,642368,0
642368,648005,0
584053,644824,0
584053,490754,0
642368,584053,0
542174,526181,0
644824,509879,0
542174,509879,0
526181,509879,0
526181,648005,0
588876,490754,0
530761,542174,0
530761,648005,0
588876,530761,0
