Source,Target,eType
645349,494271,0
495323,645771,0
552414,463247,0
511282,621913,0
463247,495323,0
522006,645349,0
554368,522006,0
554368,596191,0
579284,465922,0
463247,554368,0
463247,622531,0
494271,596191,0
492628,552414,0
494271,511282,0
495323,645349,0
565704,647020,0
554368,554368,0
596191,495323,0
579284,511282,0
465922,547618,0
554368,601575,0
484180,554368,0
552414,511282,0
495323,647020,0
565704,645349,0
554368,645349,0
554368,494271,0
484180,495323,0
494271,465922,0
626077,511282,0
522006,554368,0
511282,554368,0
547618,484180,0
596191,579284,0
552414,645349,0
621913,511282,0
565704,622531,0
554368,495323,0
601575,492628,0
621913,554368,0
565704,554368,0
645771,554368,0
554368,552414,0
465922,554368,0
621913,522006,0
647020,626077,0
554368,511282,0
511282,465922,0
