Source,Target,eType
581357,561428,0
472720,493791,0
495572,472720,0
561428,489386,0
521309,617586,0
624239,561428,0
624239,493791,0
581357,512898,0
600075,512898,0
608282,595742,0
495572,561428,0
472720,608282,0
598563,581357,0
470451,561428,0
459733,600075,0
656615,561428,0
561428,656615,0
472720,561428,0
617586,470451,0
595742,489321,0
581357,493791,0
489386,521309,0
493791,561428,0
521309,581357,0
470451,656615,0
581357,521309,0
561428,470451,0
512898,493791,0
489321,596495,0
606279,521309,0
596495,561428,0
641877,624239,0
470451,595742,0
489386,495572,0
512898,606279,0
641877,472720,0
656615,598563,0
561428,535215,0
596495,581357,0
600075,581357,0
535215,624239,0
581357,641877,0
562621,606279,0
561428,581357,0
561428,561428,0
581357,489321,0
600075,561428,0
596495,459733,0
624239,470451,0
472720,581357,0
489321,472720,0
535215,561428,0
646974,489386,0
624239,562621,0
521309,472720,0
