Source,Target,eType
496824,502047,0
502047,550157,0
598626,506780,0
550152,492189,0
550157,562538,0
584633,465041,0
465041,492189,0
492189,584633,0
465041,598626,0
506780,562538,0
584633,496824,0
562538,465041,0
