Source,Target,eType
633030,547217,0
505835,554368,0
554368,505835,0
517479,587922,0
493735,648339,0
648339,633030,0
529814,554368,0
482199,649532,0
547217,529814,0
633030,587922,0
554368,482199,0
554368,517479,0
648339,554368,0
554368,649532,0
633030,554368,0
554368,648339,0
505835,493735,0
649532,554368,0
656600,482199,0
649532,648339,0
554368,554368,0
634220,633030,0
554368,656600,0
648339,505835,0
587922,505835,0
505835,648339,0
