Source,Target,eType
634975,582292,0
582292,551223,0
634896,554368,0
489873,543381,0
473609,458696,0
458696,645833,0
554368,589057,0
621242,578416,0
621242,648339,0
489873,554368,0
589057,580096,0
657072,554368,0
532550,554368,0
554368,582292,0
574623,648339,0
580096,554368,0
554368,648339,0
477801,589057,0
582292,634896,0
554368,473609,0
582292,648339,0
554368,554368,0
554368,543381,0
648339,477801,0
648339,570297,0
580096,551223,0
477801,489873,0
582292,589057,0
582292,473609,0
554368,458696,0
473609,574623,0
554368,580096,0
554368,489873,0
645833,578416,0
583861,473609,0
621242,554368,0
551223,554368,0
477801,554368,0
621242,489873,0
554368,477801,0
634975,589057,0
634896,648339,0
543381,634975,0
657072,458696,0
489873,645833,0
543381,554368,0
570297,621242,0
578416,657072,0
582292,554368,0
554368,532550,0
645833,551223,0
648339,554368,0
489873,589057,0
645833,554368,0
634896,489873,0
648339,621242,0
554368,634975,0
554368,621242,0
621242,657072,0
532550,477801,0
