Source,Target,eType
547764,653012,0
583013,526666,0
576414,526666,0
583013,520183,0
654909,583013,0
554368,536508,0
554368,526666,0
601595,554368,0
583013,554368,0
554368,630233,0
576414,630233,0
536508,590026,0
576414,594026,0
590026,618616,0
653012,639269,0
622388,601595,0
583013,618616,0
520183,654909,0
618616,554368,0
554368,554368,0
526666,576414,0
526666,653012,0
576414,554368,0
601595,590026,0
639269,622388,0
526666,554368,0
554368,576414,0
554368,614141,0
554368,618616,0
576414,618616,0
601595,463258,0
554368,601595,0
573945,614141,0
630233,536508,0
554368,639269,0
618616,520183,0
614141,554368,0
554368,463258,0
463258,573945,0
547764,554368,0
594026,554368,0
