Source,Target,eType
527660,564617,0
527660,616417,0
510152,552765,0
564617,585603,0
596124,527660,0
564617,619344,0
470072,624161,0
630083,653558,0
585603,596124,0
616417,470072,0
641247,552765,0
580034,624161,0
616202,563359,0
630083,564617,0
641247,510152,0
624161,564617,0
580034,564617,0
616202,552765,0
624161,492346,0
470072,630083,0
527660,624161,0
619344,616202,0
624161,619344,0
492346,641247,0
624161,552765,0
470072,552765,0
552765,580034,0
527660,619344,0
653558,492346,0
616202,564617,0
