Source,Target,eType
651573,500273,0
476924,542019,0
591993,476610,0
608261,591993,0
538520,571059,0
525074,651573,0
462278,571059,0
476610,538520,0
462278,462278,0
571059,630574,0
529171,476924,0
630574,524840,0
525074,462278,0
462278,617435,0
630059,476924,0
462278,591993,0
617435,462278,0
556399,529171,0
524840,525074,0
630059,617435,0
500273,567975,0
567975,462278,0
542019,608261,0
542019,462278,0
462278,654682,0
654682,556399,0
