Source,Target,eType
650941,629695,0
556493,484160,0
579276,616035,0
586786,460148,0
579276,530614,0
629695,486422,0
650941,502066,0
530614,586786,0
487238,650941,0
534425,507773,0
498592,489873,0
460148,483282,0
483282,487238,0
489873,564517,0
489873,483282,0
487238,483282,0
507773,579276,0
483282,460148,0
502066,489873,0
564517,629695,0
483282,586786,0
498592,586786,0
486422,530614,0
502066,498592,0
484160,483282,0
616035,556493,0
