Source,Target,eType
474892,484961,0
514981,657424,0
515470,474892,0
617770,578848,0
515470,488236,0
613927,628580,0
515470,657424,0
514981,474892,0
588172,490646,0
490646,594832,0
643486,515470,0
628641,466223,0
515470,588172,0
515470,617770,0
567102,551410,0
617770,514981,0
594832,588172,0
538831,588172,0
628580,628641,0
490646,514373,0
489750,564018,0
466223,515470,0
613499,514981,0
515470,489750,0
588172,628641,0
514981,617770,0
490646,617770,0
514373,613499,0
578848,538831,0
488236,538831,0
474892,474892,0
551410,617770,0
514373,617770,0
617770,514373,0
643486,489750,0
514373,613927,0
515470,594832,0
578848,613927,0
514373,538831,0
617770,617770,0
588172,567102,0
538831,490646,0
617770,551410,0
514373,567102,0
514373,474892,0
551410,564018,0
538831,657424,0
515470,643486,0
551410,657424,0
653251,643486,0
488236,594832,0
515470,564018,0
490646,515470,0
564018,617770,0
657424,488236,0
