Source,Target,eType
627049,539808,0
613734,648816,0
539808,600962,0
613734,606424,0
600993,486336,0
470385,606424,0
652811,536703,0
601788,656011,0
504927,601788,0
613734,656011,0
517647,627049,0
517844,470385,0
635091,568203,0
653953,627049,0
606424,486336,0
515771,536703,0
517079,470385,0
600962,517647,0
486336,650722,0
652811,656011,0
517306,504927,0
584377,652811,0
606424,517647,0
517844,613734,0
648816,517079,0
652811,488317,0
606424,470385,0
656011,568203,0
517647,492767,0
635091,645871,0
606424,557331,0
606424,504927,0
606424,536703,0
568203,584377,0
645871,517844,0
606424,517306,0
557331,600993,0
536703,517306,0
650722,515771,0
606424,515771,0
606424,600962,0
492767,635091,0
