Source,Target,eType
564950,564950,0
605099,561428,0
528967,605099,0
463733,564950,0
582292,561428,0
599190,561428,0
575753,462183,0
575753,459783,0
575753,638373,0
561428,633521,0
561428,564199,0
564199,635193,0
619866,645701,0
561428,564950,0
605099,638373,0
462183,564950,0
459783,619866,0
561428,544479,0
564950,575753,0
582292,463733,0
582292,605099,0
633521,561428,0
582292,635193,0
544479,575753,0
561428,462183,0
655963,586061,0
638373,480338,0
561428,582292,0
504818,528967,0
564199,564950,0
655963,575753,0
575753,588239,0
480338,462183,0
635193,655963,0
635193,459783,0
561428,561428,0
635193,561428,0
582292,564950,0
619866,655963,0
575753,561428,0
595886,564950,0
575753,521490,0
586061,483898,0
564199,561428,0
561428,635193,0
619866,575753,0
599190,655963,0
595886,635193,0
645701,588239,0
462183,561428,0
575753,619866,0
544479,655963,0
582292,480338,0
555015,633521,0
561428,575753,0
561428,619866,0
635193,564950,0
595886,561428,0
564950,599190,0
544479,564950,0
462183,655963,0
599190,555015,0
463733,521490,0
635193,605099,0
483898,564199,0
462183,564199,0
544479,504818,0
575753,655963,0
483898,635193,0
521490,595886,0
528967,561428,0
635193,564199,0
605099,635193,0
588239,561428,0
575753,564950,0
564950,561428,0
555015,655963,0
561428,595886,0
