Source,Target,eType
482521,554368,0
591392,470867,0
591392,596352,0
563852,470867,0
563852,482521,0
596352,591392,0
554368,596352,0
593930,470867,0
461083,578602,0
545211,457105,0
571940,508057,0
544818,554368,0
563852,545211,0
470867,609806,0
554368,545211,0
457105,571940,0
550043,554368,0
554368,554368,0
563852,554368,0
591392,554368,0
554368,571940,0
576621,482521,0
596352,554368,0
470867,554368,0
649636,508057,0
596352,469603,0
554368,482521,0
593930,554368,0
597166,591392,0
461083,554368,0
563852,461083,0
571940,554368,0
544818,538493,0
623329,545211,0
545211,597166,0
545211,545211,0
457105,591392,0
591392,563852,0
591392,597166,0
563852,508057,0
457105,554368,0
554368,458623,0
563852,458623,0
538493,470867,0
623329,554368,0
482517,571940,0
609806,554368,0
596352,470867,0
597166,554368,0
508057,563852,0
469603,596352,0
554368,457105,0
563852,591392,0
508057,545211,0
538493,554368,0
457105,545211,0
593930,649636,0
554368,508057,0
563852,571940,0
596352,576621,0
457105,563852,0
596352,571940,0
508057,470867,0
508057,482517,0
554368,469603,0
609806,457105,0
593930,597166,0
458623,475833,0
458623,457105,0
475833,550043,0
578602,554368,0
461083,563852,0
482521,623329,0
554368,563852,0
545211,554368,0
554368,649636,0
545211,563852,0
550043,469603,0
578602,544818,0
