Source,Target,eType
512716,636063,0
497600,636063,0
636063,632737,0
648990,636063,0
515153,614480,0
512716,530614,0
515153,497600,0
515153,636063,0
623847,636063,0
636063,622900,0
467401,632737,0
515153,632737,0
521449,620321,0
461858,648772,0
589057,648772,0
648990,498605,0
596921,601934,0
512716,589057,0
498605,614480,0
515153,512716,0
648772,648990,0
569579,623847,0
461858,635003,0
635660,636063,0
498605,611896,0
614480,635660,0
515153,589057,0
515153,530614,0
470218,635660,0
530614,515153,0
601934,589057,0
631152,512716,0
636063,500336,0
623847,596921,0
497600,521449,0
648772,515153,0
622900,611896,0
620321,512716,0
611896,500336,0
530614,470218,0
636063,467401,0
635660,467401,0
500336,631152,0
470218,636063,0
512716,461858,0
632737,530614,0
631152,515153,0
