Source,Target,eType
625412,554368,0
513497,651138,0
625412,644881,0
483619,483619,0
554072,644881,0
505880,554368,0
462296,546667,0
505880,462296,0
554368,549524,0
602987,483619,0
602987,574089,0
505880,483619,0
515079,554368,0
605260,503446,0
554368,573396,0
644881,603088,0
570991,459111,0
513497,554368,0
554368,482378,0
651138,573396,0
546667,602987,0
554368,505880,0
591763,505880,0
515079,625412,0
549524,515079,0
554368,515079,0
483619,554368,0
574089,554368,0
549524,644881,0
554368,554368,0
650423,607491,0
573396,562346,0
652376,644881,0
554368,554072,0
605260,483619,0
483619,573396,0
526200,503446,0
459111,554368,0
515079,513497,0
644881,644881,0
505880,652376,0
588454,625412,0
574089,554072,0
652376,483619,0
602987,573396,0
603088,588454,0
554368,644881,0
652376,554368,0
483619,652376,0
526200,652376,0
515079,549524,0
607491,483619,0
554368,483619,0
651138,526200,0
644881,554368,0
554368,650423,0
625412,570991,0
483619,603088,0
459111,483619,0
650423,591763,0
503446,554368,0
591763,482378,0
554368,651138,0
644881,483619,0
562346,482378,0
526200,554368,0
459111,549524,0
482378,605260,0
651138,554072,0
503446,554072,0
