Source,Target,eType
466507,554368,0
645982,526663,0
526663,551451,0
469116,482775,0
540215,490533,0
526663,540215,0
482775,641510,0
460614,495456,0
469116,515183,0
482775,554368,0
515183,564661,0
653004,645982,0
645982,641510,0
554368,585530,0
534288,628221,0
460614,554368,0
554368,653004,0
536739,653004,0
551451,478093,0
540215,554368,0
554368,540215,0
480641,469116,0
645982,469116,0
551451,466507,0
478093,554368,0
554368,478093,0
554368,554368,0
466507,541021,0
554368,490533,0
564661,554368,0
554368,526663,0
631147,534288,0
490533,593616,0
515183,478093,0
554368,564661,0
554368,541021,0
526663,554368,0
554368,466507,0
631147,554368,0
469116,554368,0
480641,554368,0
521358,466507,0
521358,564661,0
554368,645982,0
541021,585530,0
628221,515183,0
554368,534288,0
495456,536739,0
495456,641510,0
585530,460614,0
466507,478093,0
478093,480641,0
536739,482775,0
521358,536739,0
521358,554368,0
554368,515183,0
593616,521358,0
