Source,Target,eType
509601,554368,0
619165,620199,0
556236,525121,0
657069,554368,0
484106,507141,0
527983,620566,0
620566,554368,0
501303,554368,0
525121,492885,0
527983,554368,0
527983,556236,0
554368,525121,0
476885,554368,0
484106,594879,0
476885,463833,0
622301,497274,0
492885,554368,0
538041,554368,0
509601,552450,0
554368,554368,0
554368,492885,0
552450,622301,0
554368,556236,0
492885,527983,0
620566,538041,0
538041,556236,0
622301,554368,0
594879,492885,0
657069,538041,0
475364,643963,0
622301,475364,0
620199,484106,0
527983,476885,0
587801,554368,0
554368,587801,0
497274,509601,0
620199,554368,0
556236,554368,0
463833,501303,0
497274,484106,0
475364,554368,0
554368,476885,0
643963,554368,0
475364,484106,0
527983,619165,0
525121,554368,0
554368,509601,0
501303,497274,0
554368,594879,0
594879,554368,0
507141,476885,0
620566,657069,0
554368,507141,0
587801,620566,0
