Source,Target,eType
574196,488328,0
587163,501371,0
510546,462278,0
499760,625776,0
483619,483619,0
475576,462278,0
466370,488328,0
483619,499760,0
462278,462278,0
576254,483619,0
514324,576254,0
483619,462278,0
488328,617322,0
524435,503178,0
576254,466370,0
510546,514324,0
475576,587163,0
483619,587163,0
503178,475576,0
466370,524435,0
462278,587163,0
625776,510546,0
524435,587163,0
483619,466370,0
587163,462278,0
483619,475576,0
617322,483619,0
510546,501371,0
475576,483619,0
