Source,Target,eType
559998,609835,0
634471,546631,0
521006,465447,0
586782,619743,0
561206,577679,0
472720,531430,0
465447,597843,0
627909,614164,0
531430,553372,0
616456,634471,0
634471,561206,0
577679,609835,0
617353,632393,0
561206,521006,0
597843,472720,0
546631,459268,0
602010,616456,0
531430,609835,0
561206,602010,0
597843,627909,0
521006,472720,0
531430,627909,0
561206,502538,0
614164,632393,0
559998,521006,0
553372,521006,0
634471,502538,0
632393,559998,0
521006,531430,0
627909,609835,0
617353,602010,0
619743,465447,0
559998,507271,0
586782,521006,0
465447,632393,0
472720,546631,0
507271,586782,0
619743,502538,0
502538,472720,0
609835,546631,0
459268,627909,0
616456,619743,0
