Source,Target,eType
606004,459434,0
492189,488884,0
598416,492189,0
502784,549189,0
537907,511368,0
501997,492189,0
459434,501997,0
502784,501997,0
537907,502784,0
557022,606004,0
502784,537907,0
574645,557022,0
549189,537907,0
488884,502784,0
565168,574645,0
459434,492189,0
501997,598416,0
501997,502784,0
