Source,Target,eType
531270,466328,0
646506,571160,0
466328,535974,0
484634,646506,0
535974,610955,0
655714,588407,0
610955,484634,0
535974,466328,0
646506,466328,0
542297,623676,0
571160,655714,0
588407,542297,0
