Source,Target,eType
606408,483165,0
504808,481850,0
508566,505415,0
505415,522142,0
561278,522142,0
459677,508566,0
483165,459677,0
481850,606408,0
459677,475873,0
616034,561278,0
522142,504808,0
475873,616034,0
