Source,Target,eType
583001,518466,0
512266,583001,0
603958,574199,0
465286,574199,0
525990,584274,0
584274,457203,0
460294,525990,0
584274,574199,0
550529,603958,0
465286,460294,0
584274,580804,0
657413,465286,0
617050,584274,0
525990,475703,0
617050,536203,0
583001,497941,0
475703,525990,0
550529,536203,0
465286,635653,0
574199,518466,0
580804,657413,0
457203,457203,0
536203,457203,0
465286,603958,0
475703,617050,0
512266,525990,0
657413,635653,0
635653,635653,0
525990,518466,0
526505,584274,0
457203,512266,0
518466,512266,0
518466,526505,0
523457,635653,0
457203,523457,0
571079,550529,0
571079,525990,0
635653,526505,0
526505,465286,0
512266,465286,0
518466,635653,0
465286,526505,0
526505,635653,0
635653,571079,0
512266,536203,0
550529,457203,0
571079,635653,0
580804,457203,0
503068,526505,0
