Source,Target,eType
483619,647424,0
483619,483619,0
653697,462691,0
482001,580087,0
511282,462691,0
639382,511282,0
462691,570276,0
570276,460145,0
503561,576568,0
462691,647424,0
511282,647424,0
460145,483619,0
570276,476222,0
512364,653697,0
511282,653697,0
646216,562175,0
576568,460145,0
570276,462691,0
647424,524181,0
475348,653697,0
476222,483619,0
524181,646216,0
483619,462691,0
522635,511282,0
483619,460145,0
639382,517399,0
512364,597391,0
591309,511282,0
524181,462691,0
576568,558673,0
580087,642693,0
462691,476222,0
522635,639382,0
570276,647424,0
462691,511282,0
524181,570276,0
517399,535470,0
476222,462691,0
460145,482001,0
558673,591309,0
462691,462691,0
483619,576568,0
584981,460145,0
570276,503561,0
476222,653697,0
647424,576568,0
642693,522635,0
597391,584981,0
511282,558673,0
639382,570276,0
591309,535470,0
460145,591309,0
482001,647424,0
483619,570276,0
576568,597391,0
653697,570276,0
647424,642693,0
462691,522635,0
462691,584981,0
597391,524181,0
462691,483619,0
511282,460145,0
483619,653697,0
584981,462691,0
653697,558673,0
512364,522635,0
570276,483619,0
483619,475348,0
562175,460145,0
647424,653697,0
653697,483619,0
522635,591309,0
576568,512364,0
511282,562175,0
522635,483619,0
647424,483619,0
558673,570276,0
535470,570276,0
483619,558673,0
