Source,Target,eType
554368,600356,0
479787,564617,0
537839,573171,0
639382,573171,0
554368,537839,0
559634,554368,0
570220,554368,0
532550,573171,0
611719,554368,0
554368,495647,0
479787,625937,0
573171,532550,0
479787,491516,0
462541,532550,0
573171,569985,0
569985,616610,0
537839,554368,0
639382,554368,0
491516,559634,0
494190,479787,0
559634,573171,0
573171,537839,0
532550,554368,0
554779,550792,0
564617,495647,0
532550,600356,0
554368,573171,0
573171,554368,0
479787,573171,0
554368,569985,0
554368,558394,0
554368,479877,0
558394,564617,0
554368,554368,0
479787,554368,0
570220,532550,0
495647,600356,0
532550,467949,0
558394,616610,0
554368,479787,0
573171,489416,0
564617,554368,0
489416,569985,0
625937,537839,0
564617,479787,0
573171,616610,0
550792,600356,0
495647,611719,0
616610,494190,0
639382,570220,0
558394,625937,0
638161,558394,0
573171,564617,0
554779,616610,0
570220,479877,0
489416,554368,0
479787,639382,0
550792,573171,0
532550,639382,0
467949,573171,0
494190,554779,0
554368,532550,0
569985,639382,0
537839,564617,0
600356,491516,0
550792,616610,0
479877,495647,0
559634,467949,0
573171,600356,0
550792,638161,0
554779,573171,0
554368,616610,0
554368,550792,0
