Source,Target,eType
483619,483619,0
643836,648005,0
564728,513640,0
599486,571659,0
579726,599936,0
505077,564728,0
505077,460288,0
599936,483619,0
600225,564728,0
460288,600225,0
606951,607801,0
483619,460288,0
599486,483619,0
571659,483619,0
593744,575152,0
599486,648005,0
599936,505077,0
513640,606951,0
483619,466541,0
607801,593744,0
648005,538437,0
483619,643836,0
606951,460288,0
466541,483619,0
575152,466541,0
466541,599486,0
