Source,Target,eType
553043,511282,0
602193,632830,0
623295,608856,0
578377,490124,0
606424,644974,0
490124,618856,0
511282,623295,0
606424,511282,0
606424,602193,0
649621,500792,0
626494,623295,0
644974,493886,0
500792,637897,0
606424,601617,0
493886,553043,0
511282,632830,0
601617,461386,0
637897,602193,0
608856,511282,0
561245,511282,0
608856,602193,0
632830,606424,0
511282,602193,0
623295,511282,0
601617,511282,0
606424,578377,0
602193,601617,0
608856,461386,0
644974,606424,0
461386,626494,0
461386,602193,0
561245,601617,0
511282,561245,0
601617,623295,0
511282,490124,0
618856,644974,0
