Source,Target,eType
564950,554368,0
573946,612293,0
564950,564950,0
554368,564950,0
554745,561527,0
561527,564950,0
566773,537495,0
573946,591310,0
603784,488860,0
591310,467890,0
554368,481654,0
488860,554368,0
467890,573946,0
481654,554368,0
488860,564950,0
532799,564950,0
537495,554368,0
537495,553357,0
554368,603784,0
488860,554745,0
591310,554368,0
591310,564950,0
540816,554368,0
554368,467890,0
564950,566773,0
612293,554368,0
564950,554745,0
554368,488860,0
540816,573946,0
532799,554368,0
469785,564950,0
581958,481654,0
603784,564950,0
553357,497290,0
554368,537495,0
481654,566773,0
469785,548374,0
554368,554368,0
566773,554368,0
540816,564950,0
612293,650782,0
650782,603784,0
564950,581958,0
467890,554745,0
473544,469785,0
497290,532799,0
564950,488860,0
554368,473544,0
488860,573946,0
564950,457377,0
581958,612293,0
603784,554368,0
497290,581958,0
581958,554368,0
554368,561527,0
473544,554368,0
457377,481654,0
554368,581958,0
554368,532799,0
561527,532799,0
469785,554368,0
467890,564950,0
467890,554368,0
473544,564950,0
