Source,Target,eType
462691,516354,0
597489,607469,0
462691,545540,0
626751,516354,0
462691,462691,0
538085,602367,0
602367,621607,0
607469,519778,0
462691,550847,0
519778,626751,0
516354,556188,0
621607,597489,0
550847,476667,0
575792,535035,0
462691,578508,0
545540,462691,0
516354,597489,0
578508,538085,0
597489,621607,0
476667,578508,0
556188,575792,0
535035,618949,0
