Source,Target,eType
606798,557451,0
483619,483619,0
462691,462691,0
483619,513621,0
465479,561428,0
462691,561428,0
513621,463406,0
528510,492189,0
561428,492189,0
578302,483619,0
514985,614168,0
523508,462691,0
561428,543929,0
513621,462691,0
463406,483619,0
490059,561428,0
490059,528510,0
543929,523957,0
462691,465479,0
614168,513958,0
462691,513621,0
462691,490059,0
513621,483619,0
513621,558089,0
463406,546524,0
557451,462691,0
590327,505757,0
561428,514985,0
490059,462691,0
546524,462691,0
588109,632913,0
528510,483619,0
561428,483619,0
614168,523508,0
505661,606798,0
483619,561428,0
558089,561428,0
465479,462691,0
462691,523957,0
523508,483619,0
505661,514985,0
465479,505661,0
492189,558089,0
483619,465479,0
558089,492189,0
462691,483619,0
462691,558089,0
483619,462691,0
514985,514985,0
561428,614168,0
528510,614168,0
523438,492189,0
523508,590327,0
557451,561428,0
561428,561428,0
505757,525750,0
505661,483619,0
557451,483619,0
514985,523508,0
614168,546524,0
492189,523508,0
561428,462691,0
578302,523438,0
557451,465479,0
632913,514985,0
561428,513621,0
513958,578302,0
462691,525750,0
525750,465479,0
561428,523508,0
