Source,Target,eType
457203,472756,0
457203,611702,0
617506,457203,0
621792,546562,0
575126,488924,0
617506,564617,0
611702,575126,0
621792,564617,0
552623,530025,0
530025,472756,0
488924,617506,0
457203,457203,0
552623,564617,0
611702,488924,0
530025,611702,0
488924,611702,0
564617,621792,0
546562,530025,0
