Source,Target,eType
520948,651400,0
512769,561428,0
644581,561428,0
613176,618290,0
618290,644581,0
591715,573372,0
561428,520948,0
512769,591715,0
573372,523881,0
573372,561428,0
644581,591715,0
473114,512769,0
523881,473114,0
561428,523881,0
561428,561428,0
