Source,Target,eType
469116,622021,0
622021,582630,0
504619,622021,0
470232,619777,0
554368,458628,0
622421,554368,0
469116,622421,0
558713,470232,0
619777,653854,0
461119,470232,0
558713,622021,0
638244,554368,0
470232,470232,0
461119,554368,0
639382,554368,0
554368,461119,0
554368,622021,0
469116,554368,0
631254,622021,0
655808,558713,0
504619,469116,0
631254,655808,0
458628,504619,0
516340,461119,0
582630,639382,0
461119,622021,0
554368,631254,0
622421,558713,0
554368,554368,0
554368,470232,0
653854,638244,0
470232,554368,0
631254,554368,0
639382,631254,0
655808,458628,0
