Source,Target,eType
511163,634770,0
581835,514147,0
639475,581835,0
545303,625233,0
545303,504799,0
625233,547825,0
581835,634770,0
504799,511163,0
547825,545303,0
634770,639475,0
581835,639475,0
560608,625233,0
