Source,Target,eType
623468,511282,0
631515,590754,0
497191,486919,0
561278,631515,0
623468,647783,0
497191,581357,0
468703,572576,0
519038,638723,0
590754,486919,0
590754,581357,0
561278,581357,0
623468,473549,0
581357,497191,0
464949,477059,0
581357,486919,0
511282,519038,0
511282,486919,0
590754,502828,0
623468,590754,0
561278,502828,0
527730,590754,0
616885,581357,0
623468,581357,0
502828,519038,0
581357,590754,0
647783,511282,0
479899,511282,0
638723,561278,0
590754,572576,0
581357,527730,0
647783,479899,0
486919,631515,0
623468,631515,0
486919,626714,0
561278,497191,0
477059,616885,0
497191,511282,0
464949,581357,0
626714,631515,0
590754,511282,0
473549,464949,0
497191,623468,0
527730,623468,0
631515,497191,0
581357,511282,0
572576,473549,0
626714,527730,0
