Source,Target,eType
605609,575443,0
583335,605609,0
464324,575443,0
556022,583335,0
567623,600243,0
463126,653891,0
610710,653891,0
586384,522625,0
605609,653891,0
653891,614460,0
633669,586384,0
605609,483517,0
583335,633669,0
522625,483517,0
600243,554427,0
554427,483181,0
575443,567623,0
653891,556022,0
483517,464324,0
483181,463126,0
610710,614460,0
522625,462580,0
614460,605609,0
483517,483517,0
