Source,Target,eType
516801,556036,0
643046,554368,0
640025,554368,0
554368,532767,0
483619,483619,0
556036,554368,0
479856,459565,0
578302,483619,0
516801,514529,0
514529,486926,0
546482,483619,0
459565,554368,0
578302,554368,0
483619,508475,0
483619,640025,0
554368,556036,0
617983,533694,0
575931,643046,0
459565,508475,0
483619,643046,0
643046,595679,0
483619,554368,0
554368,554368,0
554368,459565,0
643046,578302,0
516801,483619,0
566604,554368,0
554232,640025,0
640025,546482,0
554368,516801,0
635511,479856,0
483619,556036,0
556036,533694,0
546482,554368,0
459565,483619,0
534226,532767,0
479288,554368,0
486926,479288,0
516801,479856,0
554368,595679,0
508475,556036,0
516801,635511,0
554368,578302,0
566604,595679,0
554368,483619,0
643046,486926,0
479856,554368,0
546482,533694,0
516801,554368,0
629805,554368,0
554368,534226,0
575931,629805,0
532767,483619,0
533694,566604,0
595679,635511,0
514529,643046,0
575931,554368,0
629805,617983,0
556036,554232,0
486926,554368,0
