Source,Target,eType
653891,504776,0
653891,483619,0
483619,483619,0
486975,635653,0
580533,460145,0
483619,587222,0
504776,565514,0
580533,556292,0
657585,501592,0
615991,492807,0
638244,536542,0
483619,489873,0
486975,486975,0
607386,489873,0
606339,489873,0
460145,483619,0
475061,635653,0
483619,557629,0
483619,606339,0
565514,567124,0
642149,504776,0
460145,587222,0
483619,638244,0
607386,460145,0
602661,483619,0
607386,527240,0
549285,635653,0
549285,489873,0
489873,549285,0
475061,638244,0
536542,489873,0
486975,501592,0
635653,635653,0
549285,486975,0
504776,635653,0
492807,606339,0
587222,653891,0
567124,577361,0
577361,657585,0
635653,587222,0
483619,460145,0
557629,460145,0
483619,549285,0
602661,536542,0
607386,635653,0
653891,602661,0
635653,460145,0
602661,460145,0
580533,635653,0
635653,536542,0
556292,580533,0
638244,489873,0
635653,527240,0
486975,638244,0
580533,567124,0
536542,504776,0
580533,475061,0
527240,556292,0
475061,607386,0
606339,529645,0
536542,635653,0
606339,475061,0
635653,606339,0
580533,486975,0
557629,475061,0
486975,549285,0
536542,653891,0
460145,615991,0
501592,489873,0
602661,638244,0
529645,638244,0
460145,602661,0
