Source,Target,eType
515793,628165,0
620566,515793,0
564950,564950,0
530610,655162,0
655162,513074,0
653228,523284,0
530610,620566,0
560411,564950,0
649623,620566,0
600755,515793,0
575859,564950,0
636765,564950,0
649623,530610,0
564950,600755,0
508231,628165,0
564950,620566,0
494744,559529,0
508231,502097,0
606110,552244,0
636765,655162,0
655162,575859,0
600755,559427,0
600671,594274,0
655162,515793,0
564950,560411,0
559427,508231,0
559427,606110,0
611155,564950,0
564950,606110,0
560411,559529,0
523284,564950,0
600755,655162,0
530610,560411,0
594274,600755,0
611155,494744,0
606110,564950,0
513074,600671,0
628165,560411,0
502097,636765,0
575859,620566,0
552244,611155,0
559529,513074,0
508231,564950,0
530610,564950,0
560411,649623,0
