Source,Target,eType
492189,583127,0
554368,586275,0
656212,492189,0
554368,583127,0
460806,656212,0
583127,554368,0
518214,554368,0
586275,586275,0
554368,554368,0
632690,460806,0
554368,492189,0
586275,518214,0
518214,632690,0
492189,554368,0
586275,583127,0
656212,554368,0
583127,618521,0
633677,554368,0
