Source,Target,eType
462691,584781,0
603297,461803,0
573414,613450,0
628373,643316,0
462691,462691,0
462691,613450,0
632202,551023,0
584781,518819,0
636063,632202,0
462691,516094,0
581127,462691,0
574199,643316,0
603297,462691,0
628373,491815,0
632202,484129,0
580499,636063,0
636063,580499,0
551023,632202,0
630536,521006,0
643316,573414,0
543132,613450,0
630536,461803,0
516094,521006,0
484129,643316,0
632202,462691,0
630536,573414,0
630536,462691,0
499289,581127,0
551023,614960,0
462691,630536,0
628373,613450,0
584781,636063,0
458818,636063,0
632202,521006,0
458818,580499,0
521006,462691,0
551023,516094,0
518819,462691,0
580499,573023,0
636063,573023,0
462691,636063,0
643316,630536,0
574199,462691,0
573023,462691,0
580499,462691,0
636063,462691,0
584781,536664,0
603297,499289,0
458818,499289,0
580499,630536,0
630536,574199,0
613450,462691,0
580499,458818,0
516094,643316,0
491815,603297,0
643316,580499,0
521006,585644,0
551023,585644,0
585644,573414,0
461803,584781,0
518819,541467,0
536664,551023,0
541467,628373,0
581127,643316,0
516094,636063,0
484129,551023,0
461803,551023,0
613450,518819,0
580499,551023,0
636063,551023,0
573023,580499,0
614960,574199,0
573414,543132,0
