Source,Target,eType
478853,581357,0
570191,485020,0
598182,487442,0
641469,581357,0
641469,611454,0
570191,611454,0
534482,549167,0
478853,472496,0
549167,581357,0
611454,549167,0
483909,628693,0
461416,492961,0
611454,604157,0
605075,633003,0
655756,483909,0
515470,570191,0
570191,570191,0
487442,607907,0
577511,570191,0
570191,515470,0
590173,577511,0
549167,534482,0
515470,628693,0
611454,622296,0
478853,515470,0
622296,622296,0
633003,590173,0
485020,655756,0
641469,549167,0
604157,598182,0
472106,606343,0
607907,472106,0
605075,534482,0
622296,581357,0
478853,570191,0
515470,622296,0
604157,570191,0
628693,478853,0
628693,611454,0
560765,612305,0
581357,612305,0
581357,570191,0
606343,534482,0
577511,472106,0
622296,570191,0
515470,581357,0
607907,628693,0
515470,492961,0
612305,570191,0
472496,605075,0
622296,515470,0
607907,478853,0
570191,581357,0
534482,570191,0
628693,570191,0
515470,560765,0
581357,515470,0
607907,622296,0
492961,622296,0
628693,641469,0
549167,622296,0
