Source,Target,eType
520470,495078,0
495078,625683,0
610009,634257,0
495078,648286,0
488416,508741,0
610009,625683,0
509435,634257,0
586506,625683,0
607013,459213,0
648286,610009,0
607013,634257,0
459213,509435,0
634257,586506,0
508741,520470,0
625683,607013,0
