Source,Target,eType
461546,653405,0
489671,627259,0
579551,461546,0
489671,461546,0
645591,599920,0
461546,496371,0
496371,556724,0
547771,496371,0
627259,579551,0
653405,645591,0
599920,496371,0
556724,489671,0
