Source,Target,eType
457529,518835,0
502913,603888,0
514066,474087,0
610885,603888,0
471455,461386,0
631995,610885,0
490740,613117,0
471455,457529,0
461386,457529,0
586506,502913,0
607297,531597,0
531597,471117,0
530423,584623,0
548775,457529,0
631995,547151,0
471117,631995,0
461386,603888,0
580721,518413,0
471827,481286,0
603888,500771,0
500771,490740,0
518835,607297,0
580721,481286,0
457529,613117,0
610885,471827,0
603888,474087,0
514066,461386,0
547151,471455,0
547151,474087,0
610885,547151,0
518413,514066,0
490740,547151,0
498533,490740,0
514066,610885,0
474087,586506,0
580721,548775,0
498533,500771,0
481286,613117,0
467081,456794,0
456794,580721,0
457529,467081,0
490740,607297,0
584623,467081,0
467081,457529,0
500771,530423,0
613117,471455,0
461386,548775,0
