Source,Target,eType
502229,511501,0
523068,470074,0
568391,532025,0
611631,520613,0
599687,468192,0
468192,523068,0
591126,599687,0
532025,591126,0
547580,502229,0
520613,611631,0
523068,591126,0
470074,611631,0
523068,568391,0
523068,588052,0
588052,558044,0
511501,588052,0
558044,568391,0
