Source,Target,eType
573797,634359,0
504865,537624,0
547669,615202,0
551234,462937,0
637635,551234,0
634359,563081,0
615202,637635,0
615202,634233,0
560008,572810,0
471247,588216,0
634233,637635,0
574889,481331,0
572810,469587,0
537624,504865,0
654747,547669,0
547669,481331,0
563081,574889,0
481331,537624,0
634359,654747,0
626642,573797,0
471247,645703,0
574889,563081,0
469587,645703,0
588216,563081,0
481331,615202,0
504865,626642,0
547669,634359,0
462937,583360,0
645703,471247,0
