Source,Target,eType
570191,548719,0
498910,657389,0
508974,570191,0
528137,600557,0
503561,611596,0
553787,570191,0
611596,483607,0
621913,537727,0
460145,537727,0
483607,570191,0
570191,483607,0
657389,561769,0
483607,460145,0
552256,573514,0
553787,575295,0
621913,623153,0
600557,657389,0
506913,600557,0
535179,460145,0
570191,570191,0
563645,498910,0
545447,575295,0
460145,535179,0
561769,553787,0
545447,563645,0
508974,460145,0
483607,623153,0
575295,545447,0
575295,570191,0
600557,548719,0
570191,535179,0
570191,621913,0
460145,570191,0
573514,545447,0
573514,528137,0
570191,460145,0
535179,570191,0
537727,460145,0
573514,553787,0
570191,506913,0
561769,460145,0
535179,548719,0
553787,621913,0
548719,535179,0
535179,508974,0
537727,570191,0
553787,460145,0
506913,545447,0
657389,528137,0
537727,506913,0
600557,460145,0
657389,545447,0
537727,561769,0
621913,570191,0
570191,553787,0
573514,503561,0
460145,552256,0
570191,575295,0
