Source,Target,eType
554368,655165,0
554368,531205,0
550157,548824,0
554368,548824,0
548824,554368,0
504853,470747,0
475518,602233,0
512724,475518,0
602233,554368,0
610384,554368,0
554368,547974,0
512724,554368,0
554368,610384,0
470747,610384,0
602233,550157,0
550157,554368,0
655165,550157,0
475518,554368,0
550157,531205,0
610384,655165,0
554368,550157,0
554368,554368,0
531205,512724,0
554368,475518,0
547974,554368,0
602233,547974,0
