Source,Target,eType
516536,501829,0
501829,516536,0
495744,652520,0
516536,486975,0
516536,610356,0
516536,601202,0
511947,539137,0
610356,516536,0
486975,525419,0
501829,477091,0
516536,571198,0
652520,477091,0
495744,516536,0
477091,501829,0
525419,601202,0
516536,502353,0
501829,501829,0
601202,610356,0
501829,496561,0
571198,501829,0
496561,486975,0
539137,495744,0
571198,502353,0
486975,486975,0
