Source,Target,eType
545211,626662,0
613185,457203,0
626662,545211,0
626662,613185,0
627110,626662,0
457203,545211,0
524623,483627,0
545211,457203,0
507623,484743,0
507623,556303,0
538305,582629,0
613185,524623,0
507623,457203,0
507623,545211,0
556303,545211,0
484743,538305,0
536376,588488,0
483627,637587,0
545211,545211,0
588488,627564,0
556303,457203,0
457203,457203,0
627564,457203,0
626662,484743,0
627110,457203,0
556303,538305,0
637587,507623,0
556303,626662,0
545211,627110,0
556303,484743,0
626662,457203,0
