Source,Target,eType
576606,484789,0
576606,533508,0
604539,484789,0
484789,508533,0
564199,495350,0
630536,576606,0
598683,592022,0
592022,598683,0
646807,650663,0
588361,630536,0
530437,630536,0
530437,646807,0
646807,530437,0
564199,592022,0
533508,604539,0
598683,495350,0
576606,530437,0
508533,564199,0
630536,530437,0
650663,530437,0
484789,646807,0
564199,646807,0
495350,646807,0
