Source,Target,eType
629945,614045,0
489971,554505,0
537012,495545,0
546513,520456,0
536309,520456,0
509369,536309,0
641460,469116,0
654404,546513,0
551638,486927,0
641460,495545,0
495545,629945,0
546513,486927,0
457390,520456,0
536309,495545,0
629945,575275,0
469116,654404,0
575275,641460,0
461386,537012,0
486927,461386,0
537012,457390,0
489971,469116,0
614045,489971,0
520456,575275,0
546513,509369,0
