Source,Target,eType
497710,643924,0
602961,512338,0
523728,596927,0
628242,655572,0
463273,643924,0
463273,650302,0
512338,599762,0
587182,639880,0
463273,639880,0
587182,497710,0
655572,538583,0
521492,628242,0
639880,650302,0
599762,463273,0
608046,602961,0
587182,608046,0
643924,639880,0
463273,521492,0
650763,497710,0
596927,587182,0
463273,602961,0
538583,650763,0
