Source,Target,eType
497602,564736,0
495584,556036,0
508525,595304,0
652781,556036,0
552664,508525,0
556036,469116,0
541987,652781,0
652781,564629,0
469116,497602,0
556036,541987,0
652781,564736,0
469116,555145,0
555145,552664,0
595304,497602,0
568024,469116,0
595304,564629,0
564736,495584,0
