Source,Target,eType
501654,457203,0
473535,651185,0
507912,625996,0
467225,554368,0
467225,501829,0
648931,650829,0
457203,554368,0
501829,635653,0
651185,612138,0
642774,642128,0
457203,524975,0
530873,651185,0
467225,457203,0
554098,554368,0
524975,530873,0
530873,501829,0
648931,457203,0
501829,559631,0
612138,651185,0
524975,554368,0
511591,457203,0
635653,501654,0
504604,554098,0
526239,635653,0
501654,554368,0
558312,473535,0
501654,635653,0
554368,577121,0
558312,642128,0
650829,558312,0
530873,635653,0
642128,554368,0
554368,554368,0
651185,501829,0
457203,457203,0
530873,554368,0
457203,501654,0
558312,554368,0
501829,651185,0
501654,504604,0
501829,501829,0
473535,554368,0
642774,554368,0
612138,457203,0
511591,554368,0
467225,635653,0
648931,554368,0
554368,473535,0
635653,635653,0
473535,635653,0
511591,507912,0
554368,457203,0
507912,473535,0
473535,501829,0
636436,577121,0
526239,457203,0
554368,625996,0
577121,559631,0
635653,559631,0
554368,530873,0
542432,642774,0
554368,501829,0
457203,473535,0
473535,457203,0
530873,457203,0
612138,501829,0
554368,636436,0
501829,511591,0
558312,577121,0
554368,501654,0
501654,501829,0
625996,467225,0
554368,526239,0
501654,651185,0
554368,467225,0
635653,554368,0
554098,464830,0
554368,635653,0
457203,511591,0
473535,642774,0
501829,554368,0
464830,542432,0
