Source,Target,eType
543593,597106,0
629575,463273,0
475705,561989,0
518892,578036,0
578036,492548,0
597106,637987,0
578036,561989,0
543593,595117,0
463273,597106,0
463273,518892,0
595117,478394,0
649223,465298,0
594793,505368,0
576632,637987,0
644270,468793,0
557109,594793,0
463273,463658,0
535718,518892,0
601766,475705,0
535718,463273,0
637987,557109,0
557109,597106,0
460288,582685,0
543593,460288,0
463658,557109,0
478394,576632,0
576632,535718,0
649223,557109,0
561989,460288,0
492548,601766,0
465298,629575,0
505368,543593,0
637987,595117,0
468793,649223,0
