Source,Target,eType
546662,544054,0
462631,564950,0
564950,564950,0
519558,466429,0
576194,564950,0
625204,610834,0
466429,576194,0
619071,564950,0
564950,519558,0
514899,619071,0
523478,564950,0
466429,480249,0
646984,627907,0
610834,462631,0
480249,519558,0
584535,486291,0
462631,526924,0
523478,546662,0
564950,514899,0
486291,546662,0
462631,466429,0
533809,584535,0
473288,495943,0
473288,519558,0
466429,473288,0
544054,625204,0
495943,473288,0
565101,508678,0
526924,523478,0
564950,646984,0
495943,646984,0
473288,523478,0
546662,480249,0
564950,565101,0
627907,576194,0
565101,564950,0
564950,495943,0
508678,544054,0
473288,466429,0
