Source,Target,eType
574932,646018,0
521966,657383,0
574932,607727,0
595785,574932,0
657383,630348,0
474859,504746,0
566504,499144,0
646018,499378,0
646018,607727,0
514985,514985,0
562201,458083,0
536380,646515,0
514985,536380,0
607727,646018,0
526626,528755,0
528755,468426,0
499144,536380,0
630348,474859,0
504746,595785,0
558207,574932,0
476271,558207,0
595785,476271,0
468426,499144,0
499144,562201,0
499378,526626,0
506422,650318,0
458083,475102,0
650318,514985,0
650318,506422,0
607727,595785,0
630348,566504,0
646515,474859,0
468426,521966,0
