Source,Target,eType
554368,595785,0
604007,483437,0
514197,521175,0
595785,481556,0
641193,562462,0
502317,560403,0
560403,481556,0
554368,560403,0
554368,562462,0
521175,554368,0
554368,481556,0
481556,554368,0
641193,514197,0
514197,595785,0
555121,604007,0
562462,555121,0
595785,554368,0
554368,554368,0
560403,554368,0
595785,560403,0
483437,502317,0
481556,595785,0
481556,555121,0
