Source,Target,eType
647004,523871,0
554368,620375,0
645338,554368,0
554368,619050,0
582835,631159,0
619050,557479,0
631159,554368,0
554368,631159,0
554368,497957,0
554368,495323,0
497957,554368,0
557479,582835,0
620375,554368,0
523871,497957,0
554368,630467,0
554368,582835,0
619050,631159,0
631159,645338,0
554368,554368,0
630467,619050,0
620375,647004,0
645338,495323,0
582835,554368,0
