Source,Target,eType
554368,588465,0
591522,554368,0
506713,499986,0
548011,554368,0
499986,548688,0
553395,638398,0
465286,624722,0
548011,506713,0
591522,591522,0
484320,554368,0
465286,600602,0
465286,553395,0
548688,624722,0
600602,624722,0
600602,591522,0
484320,548011,0
638398,554368,0
554368,499986,0
591522,634576,0
554368,548011,0
554368,465286,0
465286,591522,0
554368,554368,0
624722,465286,0
465286,548011,0
484320,465286,0
588465,484320,0
465286,554368,0
