Source,Target,eType
612412,472298,0
548005,560076,0
470865,650977,0
623679,548005,0
650977,612412,0
472298,512524,0
598381,470865,0
594957,470865,0
496209,594957,0
512524,590499,0
548005,548005,0
596541,598381,0
590499,623679,0
560076,596541,0
598381,496209,0
