Source,Target,eType
657033,628794,0
529364,474255,0
550157,628615,0
487059,523623,0
478933,469397,0
529364,550157,0
469397,628615,0
519867,478933,0
654026,657033,0
657033,550157,0
487264,487059,0
514732,580721,0
517146,627578,0
461167,608508,0
551023,461167,0
628794,529364,0
487059,529364,0
529364,487059,0
474255,641102,0
523623,551023,0
580721,654026,0
551023,550157,0
608508,514732,0
628615,474255,0
550157,487264,0
529364,523623,0
627578,550157,0
641102,517146,0
608508,550157,0
