Source,Target,eType
631159,551287,0
554368,599853,0
505369,554368,0
564018,642713,0
586728,555994,0
573930,564018,0
631159,554368,0
551287,523645,0
554368,631159,0
631159,599853,0
599853,554368,0
642713,549437,0
554368,549437,0
555994,554368,0
607926,631159,0
523645,505369,0
554368,467268,0
564018,599853,0
549437,551287,0
554368,564018,0
554368,607926,0
551287,554368,0
467268,586728,0
554368,554368,0
573930,554368,0
554368,573930,0
