Source,Target,eType
462691,557188,0
593930,541853,0
554368,561428,0
462691,462691,0
462691,561428,0
465525,514373,0
523021,561428,0
484789,514373,0
554368,557188,0
484789,561428,0
647955,462691,0
485076,561428,0
657072,554368,0
492480,523021,0
657072,492480,0
557188,554368,0
554368,484789,0
465525,557188,0
561428,554368,0
484789,557188,0
479937,465525,0
623479,462691,0
610277,554368,0
610277,557188,0
554368,554368,0
541853,561428,0
554368,485076,0
541853,479937,0
514373,554368,0
610277,523021,0
610277,561428,0
554368,462691,0
479937,462691,0
657072,561428,0
514373,462691,0
557188,484789,0
593930,554368,0
523021,554368,0
561428,561428,0
462691,593930,0
484789,647955,0
462691,610277,0
462691,484789,0
485076,554368,0
623479,554368,0
561428,657072,0
561428,462691,0
484789,554368,0
647955,554368,0
554368,647955,0
647955,593930,0
514373,561428,0
561428,485076,0
485076,462691,0
647955,484789,0
647955,561428,0
462691,554368,0
