Source,Target,eType
603469,637416,0
494713,561428,0
561428,502219,0
475935,517946,0
603469,561428,0
561428,603469,0
634257,502219,0
603469,492881,0
568423,561428,0
561428,492189,0
502219,513726,0
561428,634257,0
513726,475935,0
634257,603469,0
505235,502219,0
618175,568423,0
502219,492189,0
492189,632340,0
561428,561428,0
632340,475935,0
647105,502219,0
561428,505235,0
637416,634257,0
637416,561428,0
492881,505235,0
517946,578237,0
573122,494713,0
475935,502219,0
494713,603469,0
634257,492189,0
647105,573122,0
637416,568423,0
561428,632340,0
475935,561428,0
513726,561428,0
578237,618175,0
492881,637416,0
568423,647105,0
