Source,Target,eType
631484,575000,0
477251,476869,0
494713,565187,0
476869,476869,0
494536,477251,0
583965,486919,0
594509,476827,0
560252,583050,0
620535,494536,0
602711,539634,0
583050,620535,0
583050,646853,0
596204,565187,0
627890,646853,0
627890,513136,0
560084,494713,0
596204,486919,0
462543,539634,0
539634,560084,0
627890,596204,0
575000,594509,0
486919,560252,0
596204,635422,0
583965,462543,0
565187,646853,0
462543,476827,0
565187,627890,0
583050,486919,0
646853,486919,0
476827,583965,0
476869,494713,0
596204,476827,0
477251,565187,0
462543,602711,0
476869,596204,0
478648,513136,0
646853,594509,0
478648,627890,0
476827,478648,0
513136,583965,0
476827,583050,0
