Source,Target,eType
592700,602193,0
642261,488839,0
623468,642261,0
532985,550664,0
592700,592700,0
579060,488839,0
639882,602193,0
488839,512026,0
639882,592700,0
592700,464705,0
558740,634485,0
602193,639882,0
512026,639882,0
602193,469537,0
602193,488839,0
642261,592700,0
531219,639882,0
550664,591239,0
634485,623468,0
591239,558740,0
592700,512026,0
591239,602193,0
558740,639882,0
469537,558740,0
512026,474296,0
469537,602193,0
464705,579060,0
531219,532985,0
512026,464705,0
474296,531219,0
532985,602193,0
