Source,Target,eType
505818,465896,0
472180,571719,0
501997,650875,0
590960,521154,0
549840,582608,0
544636,561428,0
474085,603584,0
517961,475061,0
550157,561428,0
544636,604199,0
550157,571719,0
561428,573922,0
579486,550157,0
521154,561428,0
517961,604199,0
497691,501997,0
573922,590960,0
549840,650875,0
582608,472180,0
549840,521154,0
549840,550157,0
571719,561428,0
550157,463470,0
521154,579486,0
573922,549840,0
579486,609419,0
561428,521154,0
501997,609419,0
501997,475061,0
573922,475061,0
472180,550157,0
517961,561428,0
521154,604199,0
550157,497691,0
550157,544636,0
501997,604199,0
590960,561428,0
561428,639561,0
604199,561428,0
561428,474085,0
650875,505818,0
573922,561428,0
603584,550157,0
475061,550157,0
622551,497691,0
561428,501997,0
501997,561428,0
571719,549840,0
501997,622551,0
521154,521154,0
472496,475061,0
549840,501997,0
573922,544636,0
561428,517961,0
573922,550157,0
561428,603584,0
604199,622551,0
611170,590960,0
544636,521154,0
571719,604199,0
573922,639561,0
573922,604199,0
521154,550157,0
550157,521154,0
474085,561428,0
463470,573922,0
544636,475061,0
544636,544636,0
573922,501997,0
639561,561428,0
579486,561428,0
561428,561428,0
604199,571719,0
517961,521154,0
472180,517961,0
622551,501997,0
603584,571719,0
550157,604199,0
579486,497691,0
609419,472496,0
650875,544636,0
521154,501997,0
604199,573922,0
561428,550157,0
573922,579486,0
590960,573922,0
582608,561428,0
544636,463470,0
