Source,Target,eType
635184,462278,0
462278,579364,0
462278,557747,0
534465,646458,0
579364,635184,0
511641,462278,0
533641,568815,0
549185,496110,0
549021,646506,0
470175,549021,0
496110,500495,0
568815,462278,0
534465,526505,0
484081,534465,0
508742,526505,0
478160,462278,0
549185,610798,0
557747,511641,0
635184,579364,0
462278,478160,0
462278,538644,0
579364,462278,0
500495,568815,0
554946,484081,0
542282,478160,0
462278,462278,0
554946,462278,0
500495,601750,0
579364,526505,0
478160,533641,0
549021,500495,0
538644,554946,0
646458,549185,0
568815,579364,0
568815,635184,0
579364,511641,0
610798,531537,0
646506,610798,0
462278,549021,0
531537,462278,0
526505,470175,0
484081,462278,0
630919,542282,0
531537,508742,0
508742,557747,0
635184,568815,0
646506,462278,0
