Source,Target,eType
483619,483619,0
575753,483619,0
541088,561428,0
561428,627577,0
548074,551867,0
629123,488432,0
554738,575753,0
515291,575937,0
483619,599119,0
589087,548074,0
483619,515291,0
581833,483619,0
545267,483619,0
464156,545267,0
561428,515291,0
565057,639494,0
575753,554738,0
548074,575753,0
561428,575753,0
566762,629123,0
595151,581833,0
595151,561428,0
479886,584054,0
567625,483619,0
534356,479886,0
627577,581833,0
639494,464156,0
534356,464156,0
584054,534356,0
488432,599119,0
626961,554738,0
598911,541088,0
515291,561428,0
561428,483619,0
561428,626961,0
515291,595151,0
575937,561428,0
483619,561428,0
534356,561428,0
581833,565057,0
567625,515291,0
599119,584054,0
561428,566762,0
584054,567625,0
639494,561428,0
483619,534356,0
575753,566762,0
561428,561428,0
515291,483619,0
561428,567625,0
551867,567625,0
483619,570382,0
541088,483619,0
575753,561428,0
595151,598911,0
479886,589087,0
561428,595151,0
575753,565057,0
483619,575753,0
483619,627577,0
483619,545267,0
551867,551867,0
534356,551867,0
541088,575937,0
