Source,Target,eType
561428,603804,0
561428,573856,0
462278,603804,0
561428,462278,0
516909,512421,0
462691,462691,0
649985,536719,0
458571,561428,0
462691,561428,0
521154,458571,0
614816,571485,0
562942,521154,0
462278,591631,0
561428,568630,0
512421,568630,0
562942,460602,0
521154,561428,0
536719,614816,0
548848,554596,0
628302,462691,0
568630,649985,0
462278,548848,0
628302,591631,0
554596,646124,0
561428,521154,0
548848,462691,0
556134,516909,0
462691,536719,0
591631,554596,0
628302,554596,0
623083,603804,0
649985,561428,0
462691,462278,0
628302,646124,0
628302,521154,0
628302,568630,0
577365,611902,0
458571,628302,0
548848,475770,0
577365,561428,0
521154,521154,0
462691,460602,0
611902,648177,0
462691,548848,0
571485,628302,0
573856,561428,0
521154,573856,0
458571,556134,0
649985,577365,0
462278,462278,0
648177,623083,0
475770,536719,0
561428,554596,0
573856,462278,0
649985,462691,0
561428,561428,0
460602,597785,0
475770,562942,0
475770,561428,0
603804,521154,0
628302,462278,0
646124,561428,0
462278,462691,0
561428,462691,0
628302,603804,0
611902,603804,0
628302,561428,0
460602,561428,0
462691,577365,0
548848,648177,0
603804,516909,0
597785,521154,0
536719,462278,0
