Source,Target,eType
468266,653022,0
617534,631159,0
491967,534964,0
457203,617534,0
570602,635653,0
457203,570602,0
561428,457203,0
460129,500253,0
594889,561428,0
570602,602259,0
561428,468266,0
620625,631159,0
614800,534964,0
584713,643996,0
542737,547332,0
570602,620625,0
635653,542737,0
561428,631159,0
614800,457203,0
457203,614800,0
457203,491967,0
614800,491967,0
457203,631159,0
561428,510844,0
647868,631159,0
653022,602259,0
620625,570602,0
570602,561428,0
510844,617534,0
457203,457203,0
561428,570602,0
653022,620625,0
561428,635653,0
561428,520245,0
520245,635653,0
520245,534964,0
468266,457203,0
635653,635653,0
620625,602259,0
602259,510844,0
653022,561428,0
647868,561428,0
635653,460129,0
561428,594889,0
643996,561428,0
500253,584713,0
460129,561428,0
520245,561428,0
631159,614800,0
457203,606484,0
561428,561428,0
570602,457203,0
635653,620625,0
534964,647868,0
520245,468266,0
539130,520245,0
614800,468266,0
460129,620625,0
468266,561428,0
500253,561428,0
614800,614800,0
631159,460129,0
643996,542737,0
635653,561428,0
547332,539130,0
606484,491967,0
457203,534964,0
457203,620625,0
