Source,Target,eType
476869,476869,0
570191,462278,0
619440,653028,0
578238,554368,0
554368,641128,0
462278,476869,0
626278,554368,0
639603,462278,0
641128,578238,0
554368,507893,0
462278,619440,0
606223,554368,0
541372,527664,0
554368,578238,0
631784,641128,0
527664,626278,0
554368,476869,0
570191,570191,0
462278,626278,0
564736,487827,0
528968,570191,0
570191,554368,0
487827,554368,0
554368,462278,0
528968,639603,0
639603,554368,0
653028,476869,0
554368,554368,0
564736,554368,0
554368,528968,0
476869,462278,0
606223,570191,0
570191,641128,0
641128,554368,0
554368,527664,0
487827,528968,0
541372,570191,0
570191,564736,0
541372,554368,0
541372,462278,0
554368,487827,0
462278,462278,0
462278,641128,0
606223,564736,0
507893,606223,0
554368,570191,0
487827,476869,0
554368,541372,0
476869,554368,0
462278,541372,0
570191,527664,0
606223,653028,0
462278,570191,0
527664,570191,0
619440,462278,0
476869,570191,0
462278,554368,0
578238,541372,0
