Source,Target,eType
509879,561428,0
518642,561428,0
561428,589057,0
600058,509879,0
555973,561428,0
561428,614085,0
483589,516393,0
518642,602602,0
508743,556425,0
602602,561428,0
556425,498334,0
561428,509879,0
561428,561428,0
498334,614085,0
602602,498334,0
509879,602602,0
518642,509879,0
589057,555973,0
561428,600058,0
621799,635434,0
516393,561428,0
589057,621799,0
552710,508743,0
614085,498334,0
602602,600058,0
523291,552710,0
509879,516393,0
509879,483589,0
635434,523291,0
483589,633312,0
561428,518642,0
614085,516393,0
509879,518642,0
509879,635434,0
516393,589057,0
