Source,Target,eType
633581,554368,0
581958,643731,0
649623,470232,0
643731,649623,0
543969,554368,0
531704,588172,0
588172,554368,0
581958,575528,0
626046,533023,0
615479,543969,0
554368,533023,0
533023,554368,0
643731,531704,0
554368,633581,0
470232,643731,0
470232,543969,0
473584,649623,0
554368,554368,0
524985,554368,0
533023,524985,0
599605,581958,0
588172,462414,0
541964,554368,0
554368,543969,0
543969,473584,0
541964,575528,0
633581,626046,0
575528,470232,0
470232,470232,0
554368,588172,0
470232,541964,0
473584,599605,0
575528,554368,0
649623,554368,0
581958,554368,0
554368,581958,0
470232,533023,0
575528,533023,0
531704,599605,0
462414,524985,0
533023,643731,0
524985,626046,0
554368,470232,0
581958,615479,0
470232,554368,0
524985,649623,0
543969,533023,0
643731,554368,0
