Source,Target,eType
553518,549037,0
516932,571719,0
590458,615376,0
553518,531385,0
511752,516932,0
610602,609451,0
610602,553518,0
595104,511752,0
617770,595104,0
654301,609451,0
609451,503760,0
595104,503760,0
649623,614517,0
503760,590458,0
614517,636189,0
651242,649623,0
599674,595104,0
492227,590458,0
617770,492227,0
599674,495690,0
548544,642927,0
609451,599674,0
610602,617770,0
609451,495690,0
636189,617770,0
516932,595104,0
590458,469867,0
503760,531385,0
649623,595104,0
649623,617770,0
469867,599674,0
622363,651242,0
583852,571719,0
571719,654301,0
590458,495690,0
476388,595104,0
617770,651242,0
642927,610602,0
649623,599674,0
617770,617770,0
516932,622363,0
531385,617770,0
492227,595104,0
531385,548544,0
583852,617770,0
649623,583852,0
495690,583852,0
615376,469867,0
