Source,Target,eType
575696,493425,0
617770,617770,0
549057,575696,0
570191,570191,0
570191,617770,0
508077,617770,0
508077,570191,0
546593,617770,0
530539,598639,0
600214,546593,0
598639,528008,0
617770,570191,0
598639,617770,0
570191,546593,0
528008,600214,0
617770,508077,0
508077,549057,0
546593,570191,0
549057,493425,0
570191,598639,0
