Source,Target,eType
483619,483619,0
514649,540995,0
547962,639113,0
519353,650961,0
650961,547962,0
540995,505506,0
547962,505506,0
483619,623692,0
639113,483619,0
645997,500683,0
650961,645997,0
505506,645997,0
645997,483619,0
483619,650961,0
623692,588246,0
500683,519353,0
588246,483619,0
