Source,Target,eType
486047,513960,0
523421,488975,0
618477,513960,0
610942,482295,0
486047,475678,0
482295,640431,0
488975,618477,0
513960,486047,0
640431,639009,0
475678,461393,0
497796,629730,0
646187,497796,0
592546,577046,0
650704,627890,0
650704,461393,0
639009,610942,0
629730,523421,0
482295,639009,0
592546,627890,0
463831,646187,0
627890,640431,0
627890,463831,0
497796,488975,0
600153,650704,0
576456,592546,0
461393,576456,0
577046,640431,0
592546,513960,0
627890,646187,0
