Source,Target,eType
554368,646223,0
554368,561428,0
520454,652544,0
652544,554368,0
501663,522206,0
584873,583296,0
522206,591161,0
468649,554368,0
561428,587864,0
561428,561428,0
554368,584873,0
587864,501663,0
491639,584873,0
646223,587864,0
561428,520454,0
652397,468649,0
561428,554368,0
591161,561428,0
491639,554368,0
646223,491639,0
561428,652397,0
584873,554368,0
554368,554368,0
501663,491639,0
587864,561428,0
554368,591161,0
491639,561428,0
652544,491639,0
561428,491639,0
554368,468649,0
