Source,Target,eType
579614,561428,0
555821,457203,0
561428,477775,0
633030,533607,0
633030,540164,0
644131,629763,0
511991,636284,0
632512,486407,0
561428,457203,0
459328,457203,0
636284,459328,0
644131,645277,0
477775,555821,0
561428,555821,0
457203,633030,0
555821,647419,0
537858,558194,0
540164,537858,0
457203,611390,0
629763,590851,0
533607,579614,0
644131,457203,0
504440,644131,0
457203,457203,0
647419,561428,0
540164,633030,0
477775,504440,0
636284,561428,0
558194,629763,0
561428,636284,0
561428,633030,0
477775,611390,0
633030,557113,0
477775,457203,0
612021,540164,0
579614,514899,0
557113,577080,0
590851,511991,0
561428,561428,0
477775,561428,0
644131,561428,0
636284,457203,0
579614,533607,0
645277,511991,0
645277,457203,0
514899,632512,0
577080,504440,0
632512,557113,0
611390,486407,0
590851,636284,0
486407,477775,0
636284,632512,0
645277,561428,0
