Source,Target,eType
554368,458677,0
582938,554368,0
600601,553826,0
503525,471593,0
554368,568085,0
512371,497806,0
458677,554368,0
568085,503525,0
509696,591217,0
582340,458677,0
600601,554368,0
519126,582340,0
519126,462278,0
512371,554368,0
591217,462278,0
554368,462278,0
544608,632027,0
462278,519126,0
554368,554368,0
608412,554368,0
610081,554368,0
568085,554368,0
568085,509696,0
554368,608412,0
471593,544608,0
458677,582938,0
458677,458677,0
462278,582340,0
608412,458677,0
591217,610081,0
582938,544608,0
582340,462278,0
554368,519126,0
462278,462278,0
544608,462278,0
568085,608412,0
554368,497806,0
608412,462278,0
544608,554368,0
519126,554368,0
632027,554368,0
462278,458677,0
591217,554368,0
553826,544608,0
497806,600601,0
462278,608412,0
553826,509696,0
582938,568085,0
462278,554368,0
608412,544608,0
600601,462278,0
