Source,Target,eType
474363,569672,0
508665,485318,0
569672,458796,0
462278,533092,0
589939,508665,0
508665,508665,0
462278,569672,0
485318,533092,0
508665,462278,0
583971,456970,0
462278,631236,0
605646,474363,0
462278,462278,0
533092,631236,0
458796,462278,0
458796,583971,0
456970,589939,0
569672,485318,0
631236,605646,0
