Source,Target,eType
471126,545211,0
496791,601845,0
500336,580653,0
557481,646132,0
551371,519466,0
586007,471126,0
498061,554368,0
646132,498061,0
557481,554368,0
529028,545211,0
498061,489270,0
610780,489270,0
498061,586836,0
554368,509317,0
590044,557481,0
568434,529028,0
645537,545211,0
509317,495880,0
551371,586007,0
554368,545211,0
601845,478944,0
545211,568434,0
551371,646132,0
498061,519466,0
554368,554368,0
519466,545211,0
554368,498061,0
471126,554368,0
554368,496791,0
503763,554368,0
610780,554368,0
529028,500336,0
471126,509317,0
568434,554368,0
519466,554368,0
554368,568434,0
478944,545211,0
500336,545211,0
478944,554368,0
489270,568434,0
545211,608303,0
554368,610780,0
545211,646132,0
554368,529028,0
554368,645537,0
545211,554368,0
580653,496791,0
554368,471126,0
586836,586007,0
471126,500336,0
545211,545211,0
519466,500336,0
498061,545211,0
519466,503763,0
608303,551371,0
554368,580653,0
495880,590044,0
580653,554368,0
