Source,Target,eType
508192,474307,0
623919,551462,0
634398,587163,0
557131,463908,0
474307,473081,0
463908,629423,0
519319,521223,0
508192,623919,0
519319,634398,0
652459,648688,0
471164,474307,0
471164,519319,0
521223,528372,0
528372,596866,0
477967,463908,0
514757,477967,0
508192,477967,0
519319,474307,0
587163,508192,0
473081,587163,0
629423,471164,0
534658,629423,0
629423,587163,0
634398,521223,0
528372,623919,0
465107,557131,0
508192,557131,0
596866,587163,0
596866,471164,0
471164,514757,0
587163,534658,0
519319,587163,0
648688,465107,0
534658,508192,0
528372,629423,0
477967,474307,0
551462,519319,0
