Source,Target,eType
492642,515793,0
596077,457203,0
600307,600307,0
479206,589025,0
529896,600307,0
524464,523016,0
480679,500006,0
589025,457203,0
524464,549862,0
567439,631758,0
515793,544460,0
619864,638244,0
466101,529896,0
596077,461119,0
544460,567439,0
457203,523016,0
457203,515793,0
523016,638244,0
524464,619864,0
626283,492642,0
631758,457203,0
457203,522206,0
655485,567439,0
462083,523016,0
457203,457203,0
522206,462083,0
500006,524464,0
515793,600307,0
619864,549862,0
515793,523016,0
492642,596077,0
595552,619864,0
524464,479206,0
461119,480679,0
655485,524464,0
595552,515793,0
600307,522206,0
655485,544460,0
515793,533066,0
619864,600307,0
500006,461119,0
524464,461119,0
492642,461119,0
549862,480679,0
523016,655485,0
567439,638244,0
457203,655485,0
461119,524464,0
515793,457203,0
544460,515793,0
655485,457203,0
631758,638244,0
500006,544460,0
533066,619864,0
457203,626283,0
461119,655485,0
461119,595552,0
515793,596077,0
