Source,Target,eType
622296,457021,0
529152,559851,0
622296,573629,0
639804,559851,0
462922,605385,0
554368,486244,0
554368,476801,0
470320,554368,0
564962,605385,0
486244,574275,0
564962,529152,0
554368,622296,0
470320,497682,0
626907,588195,0
457021,639804,0
494569,554368,0
626907,554368,0
476801,554368,0
574275,554368,0
554368,470320,0
605385,622296,0
628966,573629,0
588195,494569,0
476551,619327,0
594313,619327,0
588195,554368,0
554368,476551,0
554368,554368,0
547151,628966,0
554368,494569,0
554368,497682,0
622296,622296,0
594313,462922,0
605385,639804,0
639804,605385,0
564962,547151,0
622296,494569,0
607366,554368,0
514596,457525,0
470320,486244,0
559851,457525,0
554368,607366,0
639804,470320,0
559851,554368,0
564962,494569,0
514596,554368,0
547151,529152,0
554368,529152,0
594313,559851,0
497682,547151,0
559851,607366,0
554368,457525,0
564962,573629,0
554368,514596,0
639804,514596,0
457525,494569,0
457021,554368,0
588195,564962,0
554368,564962,0
622296,457525,0
554368,574275,0
573629,486244,0
514596,628966,0
559851,494569,0
545473,628966,0
619327,545473,0
574275,470320,0
622296,554368,0
554368,457021,0
547151,554368,0
464608,626907,0
547151,464608,0
547151,462922,0
564962,554368,0
554368,639804,0
554368,619327,0
476801,622296,0
457021,622296,0
