Source,Target,eType
552125,555590,0
463755,575322,0
555590,648330,0
555590,497602,0
529612,565467,0
588227,463755,0
621021,588227,0
521517,621021,0
575322,581373,0
575322,552125,0
565467,457020,0
529612,497602,0
581373,529612,0
648330,581373,0
619230,565467,0
613175,619230,0
497602,613175,0
