Source,Target,eType
572511,583425,0
583425,460620,0
520295,590061,0
478185,519065,0
463546,623017,0
558722,463546,0
601595,572511,0
519065,542524,0
601595,542524,0
547441,520295,0
601595,558722,0
473698,465808,0
460620,478185,0
478185,538087,0
623017,473698,0
538087,561750,0
590061,601595,0
530493,538087,0
542524,530493,0
561750,558722,0
