Source,Target,eType
552989,627527,0
482250,596241,0
531422,591615,0
586005,552989,0
491410,586005,0
504236,592118,0
457737,504236,0
627527,554368,0
586005,554368,0
550739,531422,0
552989,554368,0
554368,491410,0
539663,530612,0
554368,554368,0
530612,546847,0
546847,457737,0
586005,482250,0
624873,539663,0
591615,552989,0
596241,624873,0
591615,554368,0
491410,554368,0
