Source,Target,eType
597106,633146,0
596910,476918,0
593129,624722,0
572423,632610,0
524153,476918,0
495777,633146,0
596910,541553,0
564111,551771,0
632610,555665,0
633146,599826,0
551771,589203,0
625851,476918,0
624722,519905,0
632610,524153,0
624722,524153,0
633146,524153,0
624722,555665,0
519905,606011,0
589203,546275,0
549440,575503,0
524153,519905,0
633146,596910,0
536223,495777,0
633146,476918,0
575503,624722,0
555665,596910,0
599826,564111,0
567689,578535,0
555665,593129,0
593129,632610,0
593129,549440,0
546275,572423,0
578535,495777,0
606011,524153,0
632610,624722,0
596910,624722,0
536223,567689,0
606011,518548,0
597106,541553,0
564111,625851,0
518548,555665,0
612304,596910,0
476918,551771,0
599826,495777,0
575503,597106,0
541553,536223,0
495777,593129,0
606011,593129,0
495777,495777,0
