Source,Target,eType
481521,636203,0
648345,474307,0
562338,546271,0
562338,632775,0
554368,474307,0
474307,562338,0
554368,465716,0
465716,554368,0
643315,632775,0
481272,554368,0
562338,474307,0
546271,481521,0
481272,522136,0
554368,632775,0
574483,474307,0
474307,515572,0
632775,522136,0
474307,554368,0
648345,554368,0
554368,463401,0
515572,546271,0
554368,481521,0
481521,554368,0
562338,522136,0
554368,636203,0
562338,574483,0
465716,632775,0
463401,474307,0
463401,554368,0
648345,481272,0
481521,463401,0
554368,554368,0
554368,562338,0
465716,643315,0
636203,648345,0
522136,636203,0
522136,554368,0
554368,481272,0
