Source,Target,eType
554368,498959,0
588432,570191,0
638943,553622,0
628082,564736,0
597815,604011,0
588432,564736,0
645663,564736,0
554368,588432,0
483186,597815,0
547426,570191,0
570191,469774,0
571872,570350,0
483915,571872,0
553622,485963,0
564736,588432,0
575751,564736,0
570191,570191,0
547426,554368,0
570191,554368,0
547426,601933,0
483186,554368,0
604011,638943,0
554368,575751,0
478506,485963,0
485963,478506,0
554368,554368,0
564736,554368,0
588432,645663,0
597815,570191,0
485963,554368,0
478506,575751,0
575751,570191,0
544727,570191,0
562652,554368,0
469774,554368,0
570191,564736,0
469774,553622,0
575751,554368,0
540612,554368,0
655926,483186,0
478506,554368,0
554368,570191,0
562652,544727,0
554368,601933,0
469774,597815,0
478506,570191,0
601933,540612,0
588432,554368,0
628082,554368,0
575751,483915,0
628082,570191,0
498959,562652,0
655926,554368,0
554368,483915,0
575751,571872,0
554368,478506,0
554368,638943,0
570350,628082,0
645663,547426,0
