Source,Target,eType
489115,587524,0
567034,483619,0
612954,529115,0
483619,483619,0
529115,579099,0
616486,587524,0
650668,467224,0
612954,523284,0
483619,523284,0
613412,616486,0
532968,459971,0
596382,567034,0
613412,489115,0
579099,591933,0
519165,576251,0
596382,483619,0
582998,596382,0
529115,483619,0
612954,616486,0
587524,519165,0
489115,529115,0
467224,529115,0
483619,529115,0
612954,483619,0
459971,613412,0
582998,483619,0
612954,489115,0
591933,612954,0
576251,532968,0
467224,650668,0
584336,650668,0
483619,489115,0
489115,582998,0
