Source,Target,eType
532243,505579,0
590353,532243,0
501829,605289,0
601366,613664,0
631437,501829,0
629228,624786,0
628133,507706,0
571924,601366,0
605525,500336,0
474371,507706,0
647312,522576,0
501829,628133,0
613664,571924,0
628133,501829,0
522576,590353,0
567538,628133,0
624786,587104,0
567538,501829,0
500336,474371,0
501829,613664,0
605525,501829,0
500336,506762,0
485521,474371,0
501829,605525,0
501829,501829,0
655406,649391,0
587104,591778,0
556917,567538,0
649391,532243,0
613664,628133,0
507706,474371,0
485521,476364,0
505579,485521,0
507706,605289,0
501829,507706,0
506762,655406,0
591778,501829,0
591778,556917,0
556917,601366,0
613664,476364,0
605525,649391,0
649391,647312,0
587104,501829,0
501829,601366,0
605289,631437,0
629228,501829,0
571924,649391,0
476364,629228,0
590353,571924,0
