Source,Target,eType
564950,501857,0
564950,564950,0
501857,516393,0
564950,649277,0
553851,564950,0
471475,514177,0
573171,471475,0
649277,544463,0
526628,516393,0
646853,516393,0
564950,544463,0
501857,564950,0
471475,646853,0
646853,543969,0
553851,573171,0
568085,573171,0
543969,564950,0
561588,532597,0
526628,564950,0
649277,646853,0
564950,573171,0
458328,526628,0
649277,564950,0
646853,645461,0
514177,646853,0
501857,544463,0
564950,568085,0
645461,598490,0
501857,621458,0
501857,645461,0
544463,518843,0
543969,516393,0
526628,544463,0
471475,516393,0
518843,573171,0
564950,543969,0
573171,516393,0
516393,553851,0
532597,501857,0
573171,564950,0
649277,573171,0
621458,649277,0
568085,561588,0
526628,573171,0
543969,645461,0
568085,564950,0
