Source,Target,eType
624631,606179,0
606179,555994,0
562206,649435,0
460146,508069,0
568391,580499,0
580499,568391,0
580499,624631,0
649435,560101,0
560101,568391,0
643685,460146,0
508069,572209,0
555994,562206,0
572209,606179,0
