Vertex,0110000000001000,0000100010001000,0100000010001000,0110000000000100,0010100000000100,0000100010000110,0111000000000000,0110000100000000,0100000010000100,0110000000000110,0010100000000110
483784,630.0,415.0,99.0,1160.0,58.0,203.0,1376.0,154.0,63.0,913.0,145.0
620120,451.0,85.0,83.0,286.0,58.0,46.0,1285.0,25.0,24.0,481.0,145.0
473173,301.0,120.0,8.0,369.0,0.0,60.0,1475.0,0.0,24.0,603.0,9.0
573137,153.0,420.0,8.0,1056.0,8.0,127.0,852.0,79.0,84.0,836.0,14.0
594308,380.0,440.0,28.0,1062.0,4.0,212.0,1186.0,113.0,60.0,982.0,19.0
477657,210.0,385.0,23.0,1014.0,10.0,172.0,501.0,134.0,50.0,636.0,13.0
549840,342.0,438.0,27.0,971.0,6.0,209.0,1015.0,108.0,61.0,965.0,17.0
524153,306.0,430.0,26.0,989.0,7.0,202.0,862.0,110.0,58.0,885.0,16.0
631903,136.0,380.0,8.0,1184.0,9.0,113.0,716.0,99.0,76.0,655.0,13.0
619322,190.0,433.0,8.0,1050.0,4.0,137.0,1176.0,73.0,94.0,989.0,18.0
530990,306.0,454.0,26.0,880.0,6.0,210.0,862.0,93.0,60.0,956.0,17.0
561819,190.0,457.0,8.0,936.0,4.0,141.0,1176.0,65.0,98.0,1055.0,18.0
632961,223.0,35.0,6.0,420.0,3.0,27.0,1128.0,29.0,12.0,312.0,6.0
644226,240.0,35.0,7.0,407.0,3.0,31.0,1128.0,26.0,10.0,316.0,6.0
571970,157.0,10.0,5.0,450.0,5.0,13.0,708.0,34.0,6.0,123.0,4.0
503701,301.0,120.0,8.0,369.0,0.0,60.0,1475.0,0.0,24.0,603.0,9.0
642329,170.0,10.0,5.0,415.0,5.0,13.0,839.0,34.0,6.0,153.0,4.0
616315,268.0,56.0,8.0,418.0,2.0,43.0,1219.0,16.0,12.0,394.0,7.0
595581,265.0,84.0,7.0,437.0,1.0,46.0,1322.0,14.0,20.0,477.0,8.0
580426,184.0,20.0,5.0,476.0,4.0,18.0,924.0,33.0,9.0,202.0,5.0
523927,169.0,10.0,5.0,444.0,5.0,13.0,805.0,34.0,6.0,139.0,4.0
537281,235.0,56.0,6.0,447.0,2.0,34.0,1213.0,24.0,16.0,385.0,7.0
577992,151.0,10.0,4.0,427.0,5.0,11.0,821.0,33.0,6.0,148.0,4.0
589943,282.0,84.0,8.0,435.0,1.0,51.0,1304.0,9.0,18.0,475.0,8.0
466907,301.0,120.0,8.0,369.0,0.0,60.0,1475.0,0.0,24.0,603.0,9.0
595298,301.0,120.0,8.0,369.0,0.0,60.0,1475.0,0.0,24.0,603.0,9.0
459381,301.0,120.0,8.0,369.0,0.0,60.0,1475.0,0.0,24.0,603.0,9.0
527449,301.0,120.0,8.0,369.0,0.0,60.0,1475.0,0.0,24.0,603.0,9.0
567195,251.0,56.0,7.0,431.0,2.0,38.0,1219.0,21.0,15.0,390.0,7.0
520660,98.0,0.0,4.0,239.0,8.0,2.0,361.0,24.0,0.0,16.0,1.0
536346,240.0,35.0,7.0,407.0,3.0,31.0,1128.0,26.0,10.0,316.0,6.0
503218,60.0,0.0,3.0,131.0,9.0,0.0,190.0,14.0,0.0,0.0,0.0
510031,982.0,1.0,132.0,24.0,0.0,215.0,20.0,120.0,352.0,15.0,5.0
552988,1651.0,1.0,132.0,24.0,0.0,648.0,120.0,369.0,0.0,15.0,9.0
621924,163.0,20.0,3.0,441.0,0.0,18.0,938.0,39.0,9.0,220.0,0.0
575030,222.0,56.0,5.0,455.0,0.0,38.0,1114.0,29.0,15.0,369.0,0.0
630626,61.0,1.0,1.0,291.0,0.0,3.0,347.0,29.0,2.0,37.0,0.0
640784,184.0,35.0,4.0,470.0,0.0,27.0,943.0,36.0,12.0,271.0,0.0
606730,16.0,0.0,0.0,113.0,0.0,0.0,120.0,10.0,0.0,0.0,0.0
graph,2843.0,1418.0,189.0,5151.0,58.0,863.0,9442.0,514.0,352.0,4436.0,145.0
