Vertex,011100100
464579,534.0
575030,502.0
552988,769.0
620120,769.0
473173,769.0
632961,423.0
644226,396.0
571970,397.0
503701,570.0
642329,459.0
595581,534.0
523927,464.0
537281,531.0
577992,455.0
466907,726.0
595298,769.0
459381,769.0
527449,769.0
567195,569.0
536346,396.0
579305,634.0
628320,702.0
483005,623.0
584457,554.0
477374,591.0
516873,589.0
571369,554.0
585606,547.0
639642,625.0
557269,474.0
657526,541.0
580798,538.0
569329,504.0
492850,555.0
541907,518.0
601496,625.0
544636,621.0
655963,582.0
536906,445.0
546593,463.0
636721,488.0
588172,489.0
566580,414.0
482012,497.0
616315,529.0
580426,501.0
630626,223.0
510031,452.0
589943,323.0
520660,109.0
621924,324.0
606730,78.0
503218,86.0
640784,214.0
graph,9194.0
