Vertex,000100100,000100110,001100010,011000000,010000100
594308,4.0,0.0,2.0,2.0,7.0
524153,3.0,1.0,2.0,4.0,4.0
573137,1.0,0.0,0.0,0.0,5.0
631903,5.0,2.0,1.0,4.0,11.0
549840,4.0,0.0,1.0,5.0,10.0
483784,3.0,0.0,0.0,1.0,6.0
477657,1.0,0.0,0.0,4.0,8.0
619322,4.0,1.0,0.0,2.0,8.0
530990,1.0,2.0,0.0,2.0,5.0
561819,1.0,0.0,0.0,0.0,2.0
graph,9.0,2.0,2.0,8.0,22.0
