Vertex,0111010101110001000101010,0111110110110011100110110,0111110000100001000010000,0111110111110001100011000,0111010110110011100000100,0111110100110001000110010,0110010011100100110001000,0111110111110101110011000,0111110100110001000010000,0111110111110111110111110,0111110111110111110011100,0111110110110001100010000,0111010100110001000100010,0110010011100000100001000,0111110110110101110010000,0111110110110011100010100,0110010010100010100000100,0111010101110001000001000
490041,3.0,1.0,26.0,8.0,11.0,26.0,3.0,24.0,91.0,1.0,11.0,97.0,29.0,29.0,20.0,24.0,7.0,13.0
623295,1.0,0.0,31.0,4.0,8.0,23.0,0.0,23.0,102.0,6.0,11.0,63.0,26.0,24.0,54.0,11.0,4.0,10.0
640464,3.0,1.0,44.0,2.0,9.0,18.0,3.0,4.0,143.0,0.0,0.0,46.0,22.0,47.0,15.0,17.0,6.0,11.0
493044,0.0,0.0,43.0,7.0,6.0,22.0,1.0,19.0,112.0,5.0,8.0,58.0,24.0,30.0,43.0,8.0,2.0,8.0
570411,3.0,1.0,60.0,10.0,2.0,16.0,3.0,11.0,138.0,0.0,0.0,63.0,17.0,40.0,13.0,9.0,5.0,6.0
492777,0.0,0.0,20.0,2.0,6.0,30.0,1.0,21.0,118.0,6.0,10.0,50.0,32.0,22.0,57.0,11.0,4.0,8.0
550361,1.0,0.0,14.0,4.0,9.0,28.0,0.0,23.0,99.0,7.0,14.0,60.0,33.0,22.0,68.0,12.0,3.0,8.0
596193,0.0,0.0,60.0,9.0,3.0,17.0,1.0,17.0,106.0,1.0,9.0,78.0,17.0,34.0,20.0,8.0,3.0,11.0
589639,1.0,0.0,68.0,9.0,4.0,12.0,0.0,15.0,129.0,0.0,2.0,62.0,11.0,44.0,15.0,12.0,1.0,10.0
635665,0.0,1.0,133.0,16.0,20.0,96.0,0.0,40.0,379.0,7.0,15.0,196.0,84.0,126.0,102.0,25.0,0.0,63.0
599956,3.0,1.0,5.0,14.0,7.0,34.0,3.0,36.0,62.0,7.0,15.0,105.0,42.0,15.0,65.0,15.0,0.0,10.0
533140,0.0,0.0,44.0,0.0,10.0,42.0,0.0,3.0,129.0,0.0,0.0,48.0,21.0,34.0,27.0,2.0,0.0,33.0
616050,0.0,0.0,44.0,0.0,10.0,42.0,0.0,3.0,129.0,0.0,0.0,48.0,21.0,34.0,27.0,2.0,0.0,33.0
568093,0.0,0.0,68.0,0.0,0.0,21.0,0.0,1.0,128.0,0.0,0.0,58.0,0.0,20.0,17.0,2.0,0.0,22.0
632150,0.0,0.0,20.0,0.0,20.0,63.0,0.0,3.0,124.0,0.0,0.0,60.0,42.0,58.0,27.0,3.0,0.0,40.0
591682,0.0,0.0,0.0,0.0,10.0,0.0,0.0,1.0,3.0,0.0,0.0,4.0,42.0,68.0,0.0,2.0,0.0,32.0
464459,0.0,0.0,0.0,0.0,10.0,0.0,0.0,1.0,3.0,0.0,0.0,4.0,42.0,68.0,0.0,2.0,0.0,32.0
graph,3.0,1.0,136.0,17.0,29.0,98.0,3.0,49.0,399.0,8.0,19.0,220.0,101.0,143.0,114.0,33.0,7.0,70.0
