Source,Target,eType
461442,532721,1
491650,553206,1
491650,611764,0
491650,536170,1
491650,618627,1
491650,534171,1
618627,476202,0
471172,593897,1
490760,618627,0
490760,568093,0
490760,536170,0
490760,534171,1
481807,622366,1
481807,486814,0
628119,611764,0
534171,525924,0
534171,558820,1
568093,568093,1
568093,481807,1
568093,611764,0
622366,616679,1
622366,568093,1
622366,461442,1
486814,568093,0
486814,628119,0
476202,471172,0
474416,628119,1
474416,643157,1
611764,471172,1
615104,568093,1
643157,615104,0
558820,534171,1
525924,474416,1
525924,490760,1
616679,588010,1
593897,646131,1
588010,491650,1
536170,558820,1
536170,471172,0
532721,553206,1
532721,622366,1
532721,628119,0
646131,553206,1
553206,568093,0
553206,490760,1
553206,491650,1
