Source,Target,eType
517138,636780,0
517138,538753,1
517138,498970,1
517138,464425,0
517138,495657,0
517138,578598,0
517138,466829,0
517138,510089,1
517138,528587,0
517138,459677,1
517138,622652,1
517138,620375,1
517138,486225,0
517138,595957,0
517138,589157,0
517138,628468,1
517138,477174,1
517138,620818,0
517138,604812,1
517138,552262,1
517138,499759,0
517138,466369,1
517138,477174,1
517138,552189,1
517138,645230,1
517138,529903,0
517138,596012,0
517138,629384,1
517138,464104,1
517138,458571,1
517138,538753,1
517138,604812,1
517138,594629,1
517138,566542,1
517138,571970,5
517138,557824,1
552189,571970,5
552189,616315,5
464425,594989,1
464425,649765,0
464425,571970,5
645230,571970,5
645230,510089,0
596012,571970,5
596012,616315,5
636780,616315,5
636780,495657,1
636780,458448,1
578598,616315,5
459677,606424,1
459677,616315,5
459677,536739,1
459677,594989,0
459677,558135,1
459677,466829,1
622652,616315,5
622652,457537,1
464104,527928,1
464104,517138,0
464104,648559,1
464104,523198,0
464104,527928,0
464104,620375,0
464104,558135,1
464104,527581,1
464104,498970,1
464104,621298,1
477174,571970,5
477174,606424,1
477174,616315,5
594629,614840,1
458571,528587,1
458571,536739,0
458571,594629,1
458571,616315,5
458571,571970,5
458571,524130,1
529903,616315,5
529903,578598,1
620818,634097,1
620818,571970,5
595957,616315,5
595957,567566,0
595957,629384,0
495657,562802,1
495657,557824,1
495657,571970,5
495657,616315,5
538753,490806,1
538753,649765,1
538753,616315,5
538753,571970,5
628468,524130,1
466829,571970,5
466829,616315,5
466369,566542,0
466369,536739,1
466369,552262,1
466369,477657,0
466369,590532,1
466369,564621,0
466369,524130,1
466369,632610,1
466369,552189,0
466369,527928,1
466369,510089,0
466369,536739,0
466369,606424,1
466369,528587,0
466369,571970,5
466369,552262,0
466369,610747,0
466369,606424,1
557824,571970,5
557824,527928,1
510089,606424,1
510089,571970,5
510089,616315,5
510089,594989,1
620375,606424,1
620375,631593,0
620375,557824,1
620375,594989,0
620375,558135,0
629384,498970,1
629384,602191,0
629384,628468,1
629384,571970,5
629384,616315,5
629384,636780,1
629384,622176,1
589157,571970,5
566542,616315,5
566542,571970,5
552262,620818,1
552262,616315,5
552262,571970,5
486225,606424,1
486225,616315,5
486225,571970,5
486225,562802,1
528587,573206,1
528587,562802,1
528587,571970,5
528587,616315,5
528587,477657,1
528587,464425,1
604812,567566,1
604812,632610,1
604812,570105,0
604812,460568,1
604812,616805,0
604812,457537,1
604812,649765,1
604812,545240,1
604812,600287,1
604812,477657,1
604812,527928,0
604812,602191,1
604812,649644,0
604812,527150,1
604812,499759,1
604812,490492,0
604812,606424,1
604812,458448,1
604812,645230,0
604812,477657,1
604812,600287,1
604812,471425,1
604812,518029,1
604812,490806,0
604812,622600,1
604812,637004,0
604812,616315,5
604812,610747,0
604812,524130,0
604812,571970,5
604812,534100,1
604812,648559,1
604812,536739,1
604812,564621,1
604812,605250,1
604812,567543,0
458448,616315,5
458448,571970,5
458448,460568,1
499759,538753,1
499759,636780,1
499759,616315,5
499759,571970,5
637004,622176,1
637004,620375,1
649765,571970,5
649765,616315,5
567543,464104,0
605250,498970,1
605250,571970,5
605250,616315,5
567566,510089,0
567566,602191,1
567566,648559,0
567566,532683,1
567566,558135,1
567566,649765,0
648559,466369,0
648559,558135,0
648559,616315,5
648559,594989,1
610747,464104,1
610747,606424,1
610747,571970,5
610747,616315,5
527928,571970,5
527928,651996,0
527150,605250,0
527150,571970,5
527150,605250,1
527150,620375,1
527150,527928,0
527150,645230,1
564621,645230,1
564621,621298,1
564621,616315,5
564621,571970,5
518029,495657,1
518029,536739,1
518029,567566,1
518029,616315,5
632610,604812,1
632610,571970,5
632610,594989,1
632610,594989,1
632610,466829,1
632610,606424,0
632610,517138,1
616805,611242,1
616805,571970,5
616805,634097,0
616805,629384,1
524130,477657,1
524130,616315,5
524130,571970,5
524130,594989,0
570105,571970,5
536739,571970,5
536739,616315,5
536739,552189,0
536739,595957,0
536739,562802,1
536739,527150,0
536739,460568,1
477657,510089,1
477657,629311,1
477657,510089,0
477657,567566,0
477657,564621,1
477657,571970,5
477657,616315,5
477657,637004,1
602191,538753,1
602191,616315,5
602191,571970,5
460568,571970,5
471425,534100,1
471425,616315,5
471425,571970,5
471425,590532,0
471425,620375,0
471425,606424,1
471425,459677,0
457537,571970,5
457537,616315,5
457537,620375,0
490806,606424,0
490806,616315,5
490806,571970,5
600287,606424,0
600287,616315,5
600287,611242,0
534100,616315,5
534100,571970,5
622600,587273,0
622600,475564,0
622600,594989,1
622600,573206,0
622600,562802,1
622600,591239,0
622600,609105,0
622600,458008,1
622600,532683,1
622600,490303,1
622600,631593,1
622600,558135,1
622600,622176,1
622600,634097,0
622600,567566,1
622600,482115,1
622600,523198,0
622600,629311,1
622600,498970,1
622600,651996,1
622600,616315,5
622600,590532,1
622600,614840,0
622600,576182,1
622600,571970,5
622600,611242,1
622600,527581,0
622600,616547,1
622600,606424,1
622600,621298,1
622600,629311,1
622600,634514,1
649644,571970,5
649644,616315,5
611242,616315,5
611242,571970,5
458008,621298,1
458008,595957,1
458008,528587,1
458008,616315,5
573206,632610,0
573206,571970,5
573206,616315,5
622176,616315,5
532683,571970,5
527581,631593,1
527581,631593,1
527581,570105,0
527581,571970,5
629311,571970,5
576182,523198,0
576182,529903,0
576182,571970,5
591239,616315,5
591239,534100,1
591239,594989,0
591239,594989,1
591239,637004,1
591239,620818,1
591239,606424,1
591239,570105,1
591239,524130,0
591239,620375,1
631593,571970,5
631593,616315,5
631593,464425,0
631593,564621,0
631593,587273,1
631593,536739,1
631593,629384,0
523198,621298,0
523198,604812,0
590532,616315,5
590532,571970,5
590532,567566,1
590532,567566,1
590532,606424,1
490303,558135,1
490303,616315,5
490303,571970,5
490303,510089,1
490303,510089,1
634097,616315,5
634097,604812,1
594989,602191,1
594989,591239,0
594989,571970,5
594989,616315,5
594989,518029,0
594989,510089,1
594989,636780,0
594989,636780,0
594989,590532,0
594989,634097,1
594989,604812,0
594989,590532,0
594989,578598,1
594989,545240,1
594989,590532,1
594989,477657,1
594989,459677,1
594989,457537,0
594989,590532,0
594989,590532,1
594989,614840,1
594989,498970,0
594989,524130,1
594989,590532,1
594989,590532,0
594989,604812,1
594989,632610,1
594989,527581,1
594989,464425,1
594989,564621,0
594989,510089,1
558135,495657,0
558135,606424,1
558135,606424,1
621298,510089,1
621298,614840,1
621298,605250,0
621298,571970,5
621298,616315,5
616547,616315,5
616547,571970,5
606424,459677,1
606424,629384,0
606424,477174,0
606424,534100,1
606424,566542,1
606424,532683,1
606424,629384,1
606424,538753,0
606424,620375,0
606424,636780,1
606424,482115,0
606424,591239,1
606424,634097,0
606424,621298,1
606424,648559,0
606424,490303,1
606424,649644,0
606424,632610,0
606424,510089,1
606424,477657,0
606424,616315,5
606424,629384,1
606424,510089,1
606424,631593,0
606424,645230,0
606424,591239,0
606424,629384,1
606424,557824,1
606424,622600,0
498970,527150,0
498970,464425,0
498970,571970,5
498970,616315,5
498970,495657,1
587273,536739,0
587273,571970,5
609105,578598,1
609105,527928,1
609105,571970,5
482115,571970,5
482115,616315,5
634514,616315,5
562802,464425,0
562802,629384,1
562802,628468,1
475564,576182,0
475564,558135,0
614840,611242,0
