Source,Target,eType
551344,640133,0
551344,594875,1
551344,619887,0
551344,632744,0
551344,533728,0
551344,604607,0
551344,552129,1
551344,644102,0
551344,609239,1
551344,458835,0
551344,651438,0
551344,647339,1
551344,626291,1
551344,563495,0
551344,605377,1
551344,539848,1
551344,588246,1
551344,531042,1
551344,607064,1
551344,538904,0
551344,622145,1
551344,576357,0
551344,615898,1
551344,595370,1
551344,611450,1
551344,568438,0
551344,577992,5
551344,459381,5
551344,478592,0
551344,536346,5
551344,473173,5
551344,617305,1
551344,472812,1
551344,550318,1
533728,511216,0
533728,619887,1
533728,459381,5
533728,577992,5
533728,473173,5
632744,473173,5
632744,577992,5
632744,459381,5
622145,577992,5
622145,459381,5
622145,536346,5
622145,473173,5
622145,478592,1
622145,470074,0
622145,638376,0
594875,473173,5
594875,577992,5
594875,459381,5
594875,536346,5
594875,463285,1
594875,644102,0
609239,647339,0
609239,571970,5
609239,473173,5
609239,536346,5
609239,459381,5
478592,571970,5
478592,611450,1
478592,473173,5
478592,470074,0
478592,459381,5
478592,536346,5
478592,577992,5
539848,473173,5
539848,459381,5
539848,577992,5
539848,617866,0
539848,591424,1
539848,612637,0
539848,651438,1
640133,459381,5
640133,577992,5
640133,571970,5
640133,473173,5
640133,598860,1
640133,612637,0
647339,473173,5
647339,571970,5
647339,459381,5
619887,643540,0
619887,470074,1
619887,644102,1
619887,459381,5
619887,577992,5
619887,536346,5
619887,571970,5
619887,473173,5
617305,641527,0
617305,603459,1
617305,536346,5
617305,459381,5
617305,577992,5
617305,473173,5
617305,475690,0
472812,577992,5
472812,459381,5
472812,536346,5
472812,473173,5
472812,554165,0
552129,619757,1
552129,624470,0
552129,552707,1
552129,647339,0
552129,473173,5
552129,577992,5
552129,536346,5
552129,459381,5
607064,536346,5
607064,473173,5
607064,571970,5
607064,577992,5
607064,459381,5
607064,554165,1
611450,473173,5
611450,459381,5
611450,577992,5
576357,533728,0
576357,473173,5
576357,571970,5
576357,461608,1
576357,577992,5
576357,536346,5
576357,459381,5
588246,601383,0
588246,473173,5
588246,571970,5
588246,554165,0
588246,471886,0
588246,536346,5
588246,577992,5
588246,459381,5
588246,559845,0
588246,486180,0
588246,605377,0
458835,571970,5
458835,473173,5
458835,459381,5
458835,577992,5
458835,536346,5
458835,568438,0
604607,473173,5
604607,577992,5
604607,459381,5
604607,536346,5
626291,468405,1
626291,577992,5
626291,459381,5
626291,473173,5
563495,588246,1
563495,588246,0
563495,643540,0
563495,571970,5
563495,473173,5
563495,459381,5
563495,536346,5
615898,638677,1
615898,536346,5
615898,459381,5
615898,473173,5
605377,591424,1
605377,588246,1
605377,644102,1
605377,466017,0
605377,624757,0
605377,458835,1
605377,640037,1
605377,473173,5
605377,538904,1
605377,571970,5
605377,536346,5
605377,577992,5
605377,459381,5
651438,470074,0
651438,571970,5
651438,473173,5
651438,536346,5
651438,459381,5
531042,568438,0
531042,571970,5
531042,459381,5
531042,473173,5
531042,550318,1
644102,461608,1
644102,531042,0
644102,473173,5
644102,571970,5
644102,577992,5
644102,459381,5
644102,536346,5
644102,612637,1
568438,605143,1
568438,590530,1
568438,628366,0
568438,651354,1
568438,577992,5
568438,624757,1
568438,459381,5
568438,536346,5
568438,473173,5
568438,571970,5
568438,486180,1
568438,550318,1
568438,603459,1
568438,552707,1
568438,638376,0
568438,471886,0
568438,644168,1
568438,640037,1
568438,620402,1
568438,590097,1
568438,561808,1
568438,538366,1
568438,468405,1
568438,511216,1
568438,645415,0
568438,475690,1
568438,619757,1
568438,554165,1
568438,591424,0
568438,595370,0
568438,652942,0
568438,564192,0
568438,612794,1
538904,470074,1
538904,459381,5
538904,536346,5
538904,473173,5
603459,577992,5
603459,459381,5
603459,536346,5
603459,473173,5
538366,473173,5
538366,571970,5
538366,459381,5
538366,612794,1
538366,461608,1
651354,511216,1
651354,473173,5
651354,571970,5
651354,638677,1
651354,577992,5
651354,536346,5
651354,459381,5
628366,552707,1
628366,653803,1
628366,624757,1
628366,536346,5
628366,459381,5
628366,571970,5
628366,473173,5
620402,473173,5
620402,577992,5
620402,624757,1
620402,459381,5
620402,536346,5
620402,592742,1
620402,576357,0
552707,473173,5
552707,632744,0
552707,486180,1
552707,643540,1
552707,459381,5
552707,536346,5
552707,611450,0
552707,577992,5
552707,463285,0
552707,605377,0
644168,473173,5
644168,645415,1
644168,459381,5
561808,536346,5
561808,459381,5
561808,577992,5
561808,571970,5
561808,473173,5
561808,538904,1
590097,486180,0
590097,533728,0
590097,473173,5
590097,571970,5
590097,577992,5
590097,459381,5
471886,459381,5
471886,577992,5
471886,473173,5
471886,603348,1
475690,609239,1
475690,473173,5
475690,571970,5
475690,459381,5
475690,577992,5
550318,644102,0
550318,470074,1
550318,463285,1
550318,459381,5
550318,473173,5
550318,571970,5
550318,533728,1
486180,473173,5
486180,459381,5
486180,577992,5
486180,645415,1
638376,459381,5
638376,577992,5
638376,473173,5
468405,590097,1
468405,473173,5
468405,577992,5
468405,459381,5
468405,536346,5
595370,612794,0
595370,459381,5
595370,536346,5
595370,473173,5
595370,571970,5
595370,471886,0
595370,640133,1
595370,604607,0
605143,595812,1
605143,470074,0
605143,536346,5
605143,459381,5
605143,577992,5
605143,571970,5
605143,473173,5
605143,604607,1
605143,552707,1
652942,536346,5
652942,459381,5
652942,473173,5
564192,603104,1
564192,536346,5
564192,459381,5
564192,571970,5
564192,473173,5
591424,473173,5
591424,571970,5
591424,459381,5
591424,470074,0
591424,511216,1
591424,653803,0
591424,478592,1
640037,459381,5
640037,577992,5
640037,470074,1
640037,536346,5
640037,653803,0
640037,619887,1
640037,473173,5
640037,571970,5
624757,576357,1
624757,552707,0
624757,603348,0
624757,594875,1
624757,605377,0
624757,612637,0
624757,571970,5
624757,473173,5
624757,459381,5
624757,577992,5
624757,536346,5
554165,536346,5
554165,459381,5
554165,473173,5
554165,643540,0
511216,626291,0
511216,470074,1
511216,473173,5
511216,459381,5
590530,624757,1
590530,536346,5
590530,459381,5
590530,571970,5
590530,473173,5
612794,461608,1
612794,536346,5
612794,571970,5
612794,473173,5
612794,577992,5
612794,459381,5
645415,470074,0
645415,640037,0
645415,588246,1
645415,459381,5
645415,536346,5
645415,571970,5
645415,473173,5
645415,577992,5
645415,470074,1
645415,576800,0
619757,576800,0
619757,463285,1
619757,592742,0
619757,461608,1
619757,595812,0
619757,530854,1
619757,459381,5
619757,603348,1
619757,617866,1
619757,603104,0
619757,650274,1
619757,653803,1
619757,571970,5
619757,638677,1
619757,521553,0
619757,473173,5
619757,577992,5
619757,653174,0
619757,598860,0
619757,539276,0
619757,612637,1
619757,601383,1
619757,466017,0
619757,579434,1
619757,559845,1
619757,615898,1
619757,618619,1
619757,641527,0
619757,643540,0
619757,541222,1
619757,607822,1
619757,546892,0
619757,470074,0
619757,624470,1
618619,612637,0
618619,459381,5
618619,577992,5
618619,536346,5
618619,473173,5
618619,571970,5
559845,645415,1
559845,609239,1
559845,473173,5
559845,459381,5
579434,595812,0
579434,571970,5
579434,473173,5
579434,459381,5
624470,473173,5
624470,571970,5
624470,577992,5
624470,459381,5
617866,577992,5
617866,459381,5
617866,473173,5
617866,536346,5
466017,473173,5
466017,571970,5
466017,459381,5
641527,536346,5
641527,473173,5
641527,571970,5
641527,459381,5
643540,461608,0
643540,592742,1
643540,626291,0
643540,459381,5
643540,577992,5
643540,536346,5
643540,473173,5
643540,571970,5
470074,640133,1
470074,550318,0
470074,653803,1
470074,552707,1
470074,571970,5
470074,473173,5
470074,536346,5
470074,459381,5
470074,577992,5
470074,641527,1
470074,601383,1
521553,601383,0
521553,536346,5
521553,459381,5
521553,473173,5
521553,643540,0
521553,468405,1
653174,536346,5
653174,563495,0
653174,571970,5
653174,473173,5
653174,459381,5
653174,577992,5
653803,611450,1
653803,640133,1
653803,550318,1
653803,536346,5
653803,459381,5
653803,577992,5
653803,473173,5
653803,653174,1
653803,533728,1
650274,459381,5
650274,536346,5
650274,473173,5
541222,473173,5
541222,577992,5
541222,459381,5
607822,473173,5
607822,459381,5
607822,605377,1
607822,536346,5
607822,619887,1
530854,653174,0
530854,473173,5
530854,536346,5
530854,577992,5
530854,459381,5
601383,551344,0
601383,468405,1
601383,622145,0
601383,538904,0
601383,577992,5
601383,594875,1
601383,561808,0
601383,473173,5
601383,563495,1
601383,563495,0
601383,461608,1
601383,459381,5
603348,473173,5
603348,459381,5
603348,577992,5
603348,643540,0
546892,459381,5
546892,473173,5
546892,571970,5
546892,598860,1
461608,591424,1
461608,531042,0
461608,605377,0
461608,604607,0
461608,598860,1
461608,628366,0
461608,470074,0
461608,605377,1
461608,595812,0
461608,536346,5
461608,459381,5
461608,577992,5
461608,473173,5
461608,486180,1
461608,533728,1
461608,644102,0
461608,609239,0
612637,473173,5
612637,653803,1
612637,552707,1
612637,577992,5
612637,459381,5
612637,619757,0
612637,563495,1
463285,554165,0
463285,638677,1
463285,459381,5
463285,536346,5
463285,577992,5
463285,571970,5
463285,473173,5
463285,632744,0
463285,550318,0
463285,644102,0
595812,645415,1
595812,473173,5
595812,571970,5
595812,459381,5
595812,628366,0
595812,561808,1
576800,459381,5
576800,536346,5
576800,473173,5
576800,577992,5
576800,571970,5
539276,459381,5
539276,571970,5
539276,473173,5
592742,473173,5
592742,577992,5
592742,459381,5
598860,459381,5
598860,577992,5
598860,473173,5
638677,571970,5
638677,577992,5
638677,459381,5
638677,536346,5
638677,473173,5
638677,605377,0
603104,620402,0
603104,550318,1
603104,459381,5
603104,536346,5
603104,652942,0
603104,571970,5
603104,473173,5
