Vertex,0110010011100000100001000,0111110111110111110011100,0111010110110011100000100,0111110100110001000110010,0111110111110101110011000,0111110110110101110010000,0110010011100100110001000,0110010011100110110001100,0111110111110001100011000,0110010010100010100100110,0110010010100010100000100,0111010101110001000101010,0111110110110011100010100,0111110110110001100010000,0111110100110001000010000,0111010110110011100100110,0111110000100001000010000,0111010101110001000001000,0111010100110001000100010
623468,240.0,4.0,32.0,20.0,19.0,15.0,39.0,0.0,24.0,1.0,87.0,6.0,27.0,105.0,230.0,3.0,154.0,110.0,55.0
517494,252.0,4.0,30.0,23.0,19.0,15.0,36.0,1.0,24.0,3.0,95.0,19.0,22.0,113.0,219.0,3.0,159.0,96.0,48.0
572043,210.0,0.0,22.0,0.0,0.0,2.0,31.0,0.0,0.0,0.0,68.0,4.0,0.0,2.0,2.0,1.0,2.0,44.0,42.0
506896,324.0,7.0,50.0,27.0,23.0,19.0,69.0,6.0,27.0,6.0,144.0,32.0,31.0,135.0,220.0,3.0,130.0,117.0,76.0
513752,460.0,0.0,35.0,0.0,11.0,2.0,103.0,6.0,34.0,2.0,114.0,24.0,5.0,77.0,201.0,4.0,254.0,38.0,65.0
521973,225.0,0.0,32.0,0.0,0.0,5.0,40.0,1.0,0.0,4.0,113.0,15.0,0.0,10.0,7.0,3.0,2.0,93.0,45.0
547931,343.0,8.0,75.0,15.0,24.0,17.0,37.0,1.0,28.0,12.0,157.0,18.0,49.0,149.0,201.0,3.0,140.0,130.0,70.0
561428,373.0,19.0,133.0,16.0,73.0,53.0,47.0,2.0,90.0,4.0,119.0,25.0,72.0,244.0,203.0,7.0,83.0,179.0,124.0
554368,619.0,19.0,123.0,52.0,79.0,73.0,109.0,6.0,95.0,3.0,68.0,41.0,78.0,354.0,625.0,7.0,502.0,210.0,141.0
546999,238.0,2.0,16.0,12.0,15.0,8.0,11.0,0.0,30.0,0.0,25.0,7.0,14.0,93.0,211.0,0.0,206.0,60.0,24.0
505443,229.0,5.0,29.0,12.0,22.0,5.0,17.0,0.0,33.0,1.0,54.0,0.0,25.0,122.0,175.0,0.0,187.0,49.0,47.0
519322,301.0,5.0,68.0,31.0,25.0,21.0,47.0,4.0,25.0,3.0,110.0,28.0,41.0,124.0,224.0,2.0,133.0,124.0,99.0
643151,203.0,4.0,33.0,43.0,27.0,18.0,10.0,0.0,24.0,4.0,90.0,7.0,40.0,117.0,240.0,0.0,84.0,100.0,81.0
638919,251.0,4.0,28.0,17.0,16.0,13.0,17.0,0.0,35.0,0.0,45.0,0.0,25.0,79.0,218.0,0.0,175.0,35.0,53.0
470232,254.0,12.0,57.0,22.0,27.0,26.0,9.0,0.0,28.0,5.0,114.0,10.0,60.0,165.0,205.0,0.0,73.0,65.0,92.0
487560,215.0,0.0,48.0,6.0,1.0,4.0,9.0,0.0,0.0,6.0,111.0,5.0,9.0,9.0,12.0,0.0,2.0,80.0,69.0
490196,179.0,1.0,12.0,20.0,5.0,20.0,10.0,0.0,2.0,0.0,42.0,3.0,22.0,86.0,180.0,0.0,140.0,68.0,37.0
469413,180.0,1.0,16.0,15.0,6.0,17.0,11.0,0.0,3.0,0.0,46.0,0.0,23.0,74.0,189.0,0.0,137.0,45.0,42.0
519263,195.0,0.0,9.0,9.0,3.0,10.0,28.0,1.0,3.0,3.0,74.0,9.0,10.0,89.0,158.0,0.0,177.0,49.0,42.0
497804,180.0,0.0,2.0,0.0,0.0,13.0,41.0,3.0,0.0,1.0,50.0,10.0,0.0,74.0,166.0,0.0,206.0,26.0,24.0
545447,356.0,0.0,41.0,5.0,0.0,6.0,91.0,7.0,0.0,7.0,198.0,36.0,2.0,13.0,15.0,3.0,8.0,82.0,93.0
480006,243.0,0.0,24.0,0.0,0.0,3.0,33.0,2.0,0.0,0.0,56.0,6.0,0.0,6.0,9.0,1.0,6.0,50.0,36.0
graph,1214.0,19.0,183.0,69.0,79.0,73.0,169.0,8.0,101.0,13.0,396.0,61.0,111.0,448.0,782.0,8.0,592.0,370.0,281.0
