Vertex,0100101001010010,0111100010001000,0101101001011010,0110100110010110,0110100010010010,0100101101000100,0110100110000100,0101101001001000
491850,20.0,72.0,6.0,35.0,66.0,4.0,127.0,27.0
595303,18.0,39.0,0.0,0.0,45.0,2.0,87.0,20.0
634717,14.0,39.0,0.0,0.0,58.0,2.0,109.0,36.0
481971,17.0,72.0,6.0,35.0,65.0,2.0,130.0,25.0
482505,19.0,72.0,6.0,35.0,69.0,2.0,138.0,35.0
458294,34.0,95.0,6.0,35.0,103.0,6.0,190.0,55.0
478180,10.0,24.0,0.0,0.0,43.0,2.0,76.0,14.0
481925,12.0,39.0,0.0,0.0,44.0,2.0,93.0,22.0
538364,2.0,15.0,0.0,0.0,12.0,2.0,29.0,10.0
556967,21.0,30.0,0.0,0.0,57.0,0.0,96.0,21.0
475506,12.0,39.0,0.0,0.0,48.0,0.0,95.0,25.0
643559,14.0,30.0,0.0,0.0,48.0,0.0,84.0,19.0
604564,12.0,15.0,0.0,0.0,37.0,0.0,62.0,11.0
511216,3.0,15.0,0.0,0.0,9.0,0.0,24.0,4.0
graph,52.0,149.0,6.0,35.0,176.0,6.0,335.0,81.0
