0110010011100000100001000: 492503 460145 636794 510803 555839
0110010011100000100001000: 492503 460145 636794 510803 596470
0110010011100000100001000: 492503 460145 636794 486657 555839
0110010011100000100001000: 492503 460145 636794 486657 510803
0110010011100000100001000: 492503 460145 636794 491361 555839
0110010011100000100001000: 492503 460145 636794 491361 596470
0110010011100000100001000: 492503 460145 636794 491361 510803
0110010011100000100001000: 492503 460145 636794 491361 486657
0110010010100010100000100: 492503 636794 460145 621363 555839
0110010010100010100000100: 492503 636794 460145 621363 596470
0110010010100010100000100: 492503 636794 460145 621363 510803
0110010010100010100000100: 492503 636794 460145 621363 486657
0110010010100010100000100: 492503 636794 460145 621363 491361
0110010011100000100001000: 492503 636794 460145 464644 621363
0110010010100010100000100: 492503 636794 460145 464644 555839
0110010010100010100000100: 492503 636794 460145 464644 596470
0110010010100010100000100: 492503 636794 460145 464644 486657
0110010010100010100000100: 492503 636794 460145 464644 491361
0110010010100010100100110: 492503 636794 460145 464644 510803
0110010011100000100001000: 492503 636794 460145 517222 621363
0110010011100000100001000: 492503 636794 460145 517222 464644
0110010010100010100000100: 492503 636794 460145 517222 555839
0110010010100010100000100: 492503 636794 460145 517222 596470
0110010010100010100000100: 492503 636794 460145 517222 510803
0110010010100010100000100: 492503 636794 460145 517222 486657
0110010010100010100000100: 492503 636794 460145 517222 491361
0110010010100010100000100: 636794 464644 621363 585661 491164
0110010011100000100001000: 636794 464644 621363 574332 585661
0110010010100010100000100: 636794 464644 621363 574332 491164
0110010011100000100001000: 636794 464644 621363 510803 585661
0110010011100000100001000: 636794 464644 621363 510803 574332
0110010010100010100000100: 636794 464644 621363 510803 491164
0110010011100000100001000: 636794 464644 517222 510803 585661
0110010011100100110001000: 636794 464644 517222 574332 585661
0110010011100100110001000: 636794 464644 517222 574332 510803
0110010011100000100001000: 636794 464644 492503 574332 585661
0110010011100000100001000: 636794 464644 492503 510803 585661
0110010011100000100001000: 636794 464644 492503 510803 574332
0110010010100010100000100: 636794 517222 621363 574301 491164
0110010011100000100001000: 636794 517222 621363 574332 574301
0110010010100010100000100: 636794 517222 621363 574332 491164
0110010010100010100000100: 636794 517222 464644 574301 585661
0110010010100010100000100: 636794 517222 464644 574301 510803
0110010011100100110001000: 636794 517222 464644 574332 574301
0110010011100000100001000: 636794 517222 492503 574332 574301
0110010010100010100000100: 636794 492503 621363 460145 491164
0110010010100010100000100: 636794 492503 464644 460145 585661
0110010010100010100000100: 636794 492503 464644 460145 574332
0111110000100001000010000: 636794 492503 517222 464644 621363
0110010010100010100000100: 636794 492503 517222 460145 574301
0110010010100010100000100: 636794 492503 517222 460145 574332
0110010010100010100000100: 491361 460145 585661 555839 464644
0110010010100010100000100: 491361 460145 585661 596470 464644
0110010011100000100001000: 491361 460145 585661 510803 555839
0110010011100000100001000: 491361 460145 585661 510803 596470
0110010010100010100100110: 491361 460145 585661 510803 464644
0110010011100000100001000: 491361 460145 585661 486657 555839
0110010011100000100001000: 491361 460145 585661 486657 510803
0110010010100010100000100: 491361 460145 585661 486657 464644
0110010011100000100001000: 491361 460145 585661 492503 555839
0110010011100000100001000: 491361 460145 585661 492503 596470
0110010011100000100001000: 491361 460145 585661 492503 510803
0110010011100000100001000: 491361 460145 585661 492503 486657
0110010010100010100000100: 491361 460145 585661 492503 464644
0110010011100000100001000: 491361 460145 607891 510803 555839
0110010011100000100001000: 491361 460145 607891 510803 596470
0110010011100000100001000: 491361 460145 607891 486657 555839
0110010011100000100001000: 491361 460145 607891 486657 510803
0110010011100000100001000: 491361 460145 607891 492503 555839
0110010011100000100001000: 491361 460145 607891 492503 596470
0110010011100000100001000: 491361 460145 607891 492503 510803
0110010011100000100001000: 491361 460145 607891 492503 486657
0110010010100010100000100: 491361 607891 585661 456960 464644
0110010011100000100001000: 491361 607891 585661 495690 456960
0110010010100010100000100: 491361 607891 585661 495690 464644
0110010011100000100001000: 491361 607891 585661 492551 456960
0110010010100010100000100: 491361 607891 585661 492551 464644
0110010010100010100000100: 491361 607891 460145 456960 555839
0110010010100010100000100: 491361 607891 460145 456960 596470
0110010010100010100000100: 491361 607891 460145 456960 510803
0110010010100010100000100: 491361 607891 460145 456960 486657
0110010010100010100000100: 491361 607891 460145 456960 492503
0110010011100000100001000: 491361 607891 460145 495690 456960
0110010010100010100000100: 491361 607891 460145 495690 596470
0110010010100010100000100: 491361 607891 460145 495690 510803
0110010010100010100000100: 491361 607891 460145 495690 486657
0110010010100010100000100: 491361 607891 460145 495690 492503
0110010010100010100100110: 491361 607891 460145 495690 555839
0110010011100000100001000: 491361 607891 460145 492551 456960
0110010010100010100000100: 491361 607891 460145 492551 555839
0110010010100010100000100: 491361 607891 460145 492551 596470
0110010010100010100000100: 491361 607891 460145 492551 510803
0110010010100010100000100: 491361 607891 460145 492551 486657
0110010010100010100000100: 491361 607891 460145 492551 492503
0110010011100000100001000: 607891 456960 495690 491164 574301
0110010011100000100001000: 607891 456960 492551 491164 574301
0110010011100000100001000: 607891 456960 491361 491164 574301
0110010010100010100000100: 607891 495690 456960 555839 574301
0110010010100010100000100: 607891 495690 456960 555839 491164
0110010011100000100001000: 607891 495690 456960 468655 555839
0110010010100010100000100: 607891 495690 456960 468655 574301
0110010010100010100100110: 607891 495690 456960 468655 491164
0110010011100000100001000: 607891 495690 491361 468655 555839
0111010101110001000001000: 607891 495690 492551 456960 555839
0111010101110001000001000: 607891 495690 492551 456960 468655
0111010101110001000001000: 607891 495690 492551 491361 555839
0111010101110001000001000: 607891 495690 492551 491361 468655
0110010010100010100000100: 607891 492551 456960 612694 574301
0110010010100010100000100: 607891 492551 456960 612694 491164
0110010011100000100001000: 607891 492551 456960 590384 612694
0110010010100010100000100: 607891 492551 456960 590384 574301
0110010010100010100000100: 607891 492551 456960 590384 491164
0110010011100000100001000: 607891 492551 456960 601259 612694
0110010011100000100001000: 607891 492551 456960 601259 590384
0110010010100010100000100: 607891 492551 456960 601259 574301
0110010010100010100000100: 607891 492551 456960 601259 491164
0110010011100000100001000: 607891 492551 491361 590384 612694
0110010011100000100001000: 607891 492551 491361 601259 612694
0110010011100000100001000: 607891 492551 491361 601259 590384
0111010101110001000001000: 607891 492551 495690 456960 612694
0111010101110001000001000: 607891 492551 495690 456960 590384
0111010101110001000001000: 607891 492551 495690 456960 601259
0111010100110001000100010: 607891 492551 495690 456960 574301
0111010100110001000100010: 607891 492551 495690 456960 491164
0111110100110001000010000: 607891 492551 495690 491361 456960
0111010101110001000001000: 607891 492551 495690 491361 612694
0111010101110001000001000: 607891 492551 495690 491361 590384
0111010101110001000001000: 607891 492551 495690 491361 601259
0111010100110001000100010: 607891 492551 495690 491361 585661
0111010100110001000100010: 607891 492551 495690 491361 460145
0110010010100010100000100: 607891 491361 456960 585661 574301
0110010010100010100000100: 607891 491361 456960 585661 491164
0110010011100000100001000: 607891 491361 456960 460145 585661
0110010010100010100000100: 607891 491361 456960 460145 574301
0110010010100010100000100: 607891 491361 456960 460145 491164
0110010010100010100000100: 607891 491361 495690 585661 555839
0110010010100010100000100: 607891 491361 495690 585661 468655
0110010011100000100001000: 607891 491361 495690 460145 585661
0110010010100010100000100: 607891 491361 495690 460145 468655
0110010010100010100000100: 607891 491361 492551 585661 612694
0110010010100010100000100: 607891 491361 492551 585661 590384
0110010010100010100000100: 607891 491361 492551 585661 601259
0110010011100000100001000: 607891 491361 492551 460145 585661
0110010010100010100000100: 607891 491361 492551 460145 612694
0110010010100010100000100: 607891 491361 492551 460145 590384
0110010010100010100000100: 607891 491361 492551 460145 601259
0110010010100010100000100: 601259 656962 534464 555839 524643
0110010010100010100000100: 601259 492551 534464 612694 524643
0110010011100000100001000: 601259 492551 534464 495690 612694
0110010010100010100000100: 601259 492551 534464 495690 524643
0110010011100000100001000: 601259 492551 534464 590384 612694
0110010011100000100001000: 601259 492551 534464 590384 495690
0110010010100010100000100: 601259 492551 534464 590384 524643
0110010011100000100001000: 601259 492551 534464 607891 612694
0110010011100000100001000: 601259 492551 534464 607891 590384
0110010010100010100000100: 601259 492551 534464 607891 524643
0110010010100010100000100: 601259 492551 656962 612694 555839
0110010011100000100001000: 601259 492551 656962 495690 612694
0110010010100010100100110: 601259 492551 656962 495690 555839
0110010011100000100001000: 601259 492551 656962 590384 612694
0110010011100000100001000: 601259 492551 656962 590384 495690
0110010010100010100000100: 601259 492551 656962 590384 555839
0110010011100000100001000: 601259 492551 656962 607891 612694
0110010011100000100001000: 601259 492551 656962 607891 590384
0110010010100010100000100: 601259 492551 656962 607891 555839
0110010010100010100000100: 492551 495690 612694 555839 617986
0110010011100000100001000: 492551 495690 612694 468655 555839
0110010010100010100000100: 492551 495690 612694 468655 617986
0110010011100100110001000: 492551 495690 590384 468655 555839
0110010011100000100001000: 492551 495690 601259 468655 555839
0111010101110001000001000: 492551 495690 607891 612694 555839
0111010101110001000001000: 492551 495690 607891 612694 468655
0111010101110001000001000: 492551 495690 607891 590384 555839
0111010101110001000101010: 492551 495690 607891 590384 468655
0111010101110001000001000: 492551 495690 607891 601259 555839
0111010101110001000001000: 492551 495690 607891 601259 468655
0110010010100010100100110: 492551 590384 612694 596470 617986
0110010011100000100001000: 492551 590384 612694 468655 596470
0110010010100010100000100: 492551 590384 612694 468655 617986
0110010011100000100001000: 492551 590384 612694 510803 596470
0110010011100000100001000: 492551 590384 612694 510803 468655
0110010010100010100000100: 492551 590384 612694 510803 617986
0110010010100010100100110: 492551 590384 495690 596470 555839
0110010011100000100001000: 492551 590384 495690 510803 596470
0110010010100010100000100: 492551 590384 495690 510803 555839
0110010011100100110001000: 492551 590384 495690 468655 596470
0110010011100100110001000: 492551 590384 495690 468655 510803
0110010011100000100001000: 492551 590384 601259 468655 596470
0110010011100000100001000: 492551 590384 601259 510803 596470
0110010011100000100001000: 492551 590384 601259 510803 468655
0110010011100000100001000: 492551 590384 607891 468655 596470
0110010011100000100001000: 492551 590384 607891 510803 596470
0110010011100000100001000: 492551 590384 607891 510803 468655
0110010010100010100000100: 492551 601259 612694 534464 617986
0110010011100000100001000: 492551 601259 612694 656962 534464
0110010010100010100000100: 492551 601259 612694 656962 617986
0110010010100010100000100: 492551 601259 495690 534464 555839
0110010010100010100000100: 492551 601259 495690 534464 468655
0110010011100000100001000: 492551 601259 495690 656962 534464
0110010010100010100000100: 492551 601259 495690 656962 468655
0111110000100001000010000: 492551 601259 590384 495690 612694
0110010010100010100000100: 492551 601259 590384 534464 596470
0110010010100010100000100: 492551 601259 590384 534464 468655
0110010010100010100000100: 492551 601259 590384 534464 510803
0110010011100000100001000: 492551 601259 590384 656962 534464
0110010010100010100000100: 492551 601259 590384 656962 596470
0110010010100010100000100: 492551 601259 590384 656962 468655
0110010010100010100000100: 492551 601259 590384 656962 510803
0110010011100000100001000: 492551 601259 607891 656962 534464
0110010010100010100000100: 492551 607891 612694 456960 617986
0110010011100000100001000: 492551 607891 612694 491361 456960
0110010010100010100000100: 492551 607891 612694 491361 617986
0110010010100010100000100: 492551 607891 590384 456960 596470
0110010010100010100000100: 492551 607891 590384 456960 468655
0110010010100010100000100: 492551 607891 590384 456960 510803
0110010011100000100001000: 492551 607891 590384 491361 456960
0110010010100010100000100: 492551 607891 590384 491361 596470
0110010010100010100000100: 492551 607891 590384 491361 468655
0110010010100010100000100: 492551 607891 590384 491361 510803
0111110000100001000010000: 492551 607891 601259 590384 612694
0110010010100010100000100: 492551 607891 601259 456960 534464
0110010010100010100000100: 492551 607891 601259 456960 656962
0110010011100000100001000: 492551 607891 601259 491361 456960
0110010010100010100000100: 492551 607891 601259 491361 534464
0110010010100010100000100: 492551 607891 601259 491361 656962
0111010100110001000100010: 492551 607891 495690 612694 617986
0111110100110001000010000: 492551 607891 495690 590384 612694
0111010100110001000100010: 492551 607891 495690 590384 596470
0111010100110001000100010: 492551 607891 495690 590384 510803
0111110100110001000010000: 492551 607891 495690 601259 612694
0111110100110001000010000: 492551 607891 495690 601259 590384
0111010100110001000100010: 492551 607891 495690 601259 534464
0111010100110001000100010: 492551 607891 495690 601259 656962
0110010011100000100001000: 460145 555839 510803 495690 656962
0110010011100000100001000: 460145 555839 486657 495690 656962
0110010011100000100001000: 460145 555839 491361 495690 656962
0110010011100000100001000: 460145 555839 492503 495690 656962
0111010101110001000001000: 460145 555839 596470 510803 656962
0111010101110001000001000: 460145 555839 596470 510803 495690
0111010101110001000001000: 460145 555839 596470 491361 656962
0111010101110001000001000: 460145 555839 596470 491361 495690
0111010101110001000001000: 460145 555839 596470 492503 656962
0111010101110001000001000: 460145 555839 596470 492503 495690
0110010011100000100001000: 460145 596470 510803 524643 573318
0110010011100000100001000: 460145 596470 510803 524643 617986
0110010011100100110001000: 460145 596470 510803 590384 573318
0110010011100100110001000: 460145 596470 510803 590384 617986
0110010011100100110001000: 460145 596470 510803 590384 524643
0110010011100000100001000: 460145 596470 491361 524643 573318
0110010011100000100001000: 460145 596470 491361 524643 617986
0110010011100000100001000: 460145 596470 491361 590384 573318
0110010011100000100001000: 460145 596470 491361 590384 617986
0110010011100000100001000: 460145 596470 491361 590384 524643
0110010011100000100001000: 460145 596470 492503 524643 573318
0110010011100000100001000: 460145 596470 492503 524643 617986
0110010011100000100001000: 460145 596470 492503 590384 573318
0110010011100000100001000: 460145 596470 492503 590384 617986
0110010011100000100001000: 460145 596470 492503 590384 524643
0111010101110001000001000: 460145 596470 555839 510803 573318
0111010101110001000001000: 460145 596470 555839 510803 617986
0111010101110001000001000: 460145 596470 555839 510803 524643
0111010100110001000100010: 460145 596470 555839 510803 464644
0111010101110001000101010: 460145 596470 555839 510803 590384
0111110100110001000010000: 460145 596470 555839 491361 510803
0111010101110001000001000: 460145 596470 555839 491361 573318
0111010101110001000001000: 460145 596470 555839 491361 617986
0111010101110001000001000: 460145 596470 555839 491361 524643
0111010101110001000001000: 460145 596470 555839 491361 590384
0111010100110001000100010: 460145 596470 555839 491361 585661
0111010100110001000100010: 460145 596470 555839 491361 607891
0111110100110001000010000: 460145 596470 555839 492503 510803
0111110100110001000010000: 460145 596470 555839 492503 491361
0111010101110001000001000: 460145 596470 555839 492503 573318
0111010101110001000001000: 460145 596470 555839 492503 617986
0111010101110001000001000: 460145 596470 555839 492503 524643
0111010101110001000001000: 460145 596470 555839 492503 590384
0111010100110001000100010: 460145 596470 555839 492503 636794
0111010110110011100000100: 460145 596470 555839 486657 656962
0111010110110011100000100: 460145 596470 555839 486657 495690
0111010101110001000001000: 460145 596470 486657 510803 573318
0111010101110001000001000: 460145 596470 486657 510803 617986
0111010101110001000001000: 460145 596470 486657 510803 524643
0111010101110001000101010: 460145 596470 486657 510803 590384
0111010101110001000001000: 460145 596470 486657 491361 573318
0111010101110001000001000: 460145 596470 486657 491361 617986
0111010101110001000001000: 460145 596470 486657 491361 524643
0111010101110001000001000: 460145 596470 486657 491361 590384
0111010101110001000001000: 460145 596470 486657 492503 573318
0111010101110001000001000: 460145 596470 486657 492503 617986
0111010101110001000001000: 460145 596470 486657 492503 524643
0111010101110001000001000: 460145 596470 486657 492503 590384
0111110110110001100010000: 460145 596470 486657 555839 510803
0111110110110001100010000: 460145 596470 486657 555839 491361
0111110110110001100010000: 460145 596470 486657 555839 492503
0110010010100010100000100: 460145 510803 555839 464644 656962
0110010010100010100000100: 460145 510803 555839 464644 495690
0110010011100000100001000: 460145 510803 555839 590384 464644
0110010010100010100000100: 460145 510803 555839 590384 656962
0110010010100010100000100: 460145 510803 555839 590384 495690
0110010010100010100000100: 460145 510803 596470 464644 573318
0110010010100010100000100: 460145 510803 596470 464644 617986
0110010010100010100000100: 460145 510803 596470 464644 524643
0110010011100100110001000: 460145 510803 596470 590384 464644
0110010011100000100001000: 460145 510803 486657 590384 464644
0110010011100000100001000: 460145 510803 491361 590384 464644
0110010011100000100001000: 460145 510803 492503 590384 464644
0111010100110001000100010: 460145 486657 596470 510803 464644
0111110100110001000010000: 460145 486657 596470 491361 510803
0111010100110001000100010: 460145 486657 596470 491361 585661
0111010100110001000100010: 460145 486657 596470 491361 607891
0111110100110001000010000: 460145 486657 596470 492503 510803
0111110100110001000010000: 460145 486657 596470 492503 491361
0111010100110001000100010: 460145 486657 596470 492503 636794
0110010010100010100000100: 460145 491361 555839 585661 656962
0110010010100010100000100: 460145 491361 555839 585661 495690
0110010011100000100001000: 460145 491361 555839 607891 585661
0110010010100010100000100: 460145 491361 555839 607891 656962
0110010010100010100000100: 460145 491361 596470 585661 573318
0110010010100010100000100: 460145 491361 596470 585661 617986
0110010010100010100000100: 460145 491361 596470 585661 524643
0110010010100010100000100: 460145 491361 596470 585661 590384
0110010011100000100001000: 460145 491361 596470 607891 585661
0110010010100010100000100: 460145 491361 596470 607891 573318
0110010010100010100000100: 460145 491361 596470 607891 617986
0110010010100010100000100: 460145 491361 596470 607891 524643
0110010010100010100000100: 460145 491361 596470 607891 590384
0110010010100010100000100: 460145 491361 510803 585661 590384
0110010011100000100001000: 460145 491361 510803 607891 585661
0110010010100010100000100: 460145 491361 510803 607891 464644
0110010010100010100000100: 460145 491361 510803 607891 590384
0111110000100001000010000: 460145 491361 486657 510803 555839
0110010011100000100001000: 460145 491361 486657 607891 585661
0110010011100000100001000: 460145 491361 492503 607891 585661
0110010010100010100000100: 460145 492503 555839 636794 656962
0110010010100010100000100: 460145 492503 555839 636794 495690
0110010010100010100000100: 460145 492503 596470 636794 573318
0110010010100010100000100: 460145 492503 596470 636794 617986
0110010010100010100000100: 460145 492503 596470 636794 524643
0110010010100010100000100: 460145 492503 596470 636794 590384
0110010010100010100000100: 460145 492503 510803 636794 590384
0111110000100001000010000: 460145 492503 486657 510803 555839
0111110000100001000010000: 460145 492503 491361 510803 555839
0111110000100001000010000: 460145 492503 491361 510803 596470
0111110000100001000010000: 460145 492503 491361 486657 555839
0111110000100001000010000: 460145 492503 491361 486657 510803
0110010010100010100000100: 460145 492503 491361 636794 585661
0110010010100010100000100: 460145 492503 491361 636794 607891
0110010011100000100001000: 510803 464644 590384 574332 585661
0110010011100000100001000: 510803 464644 590384 636794 585661
0110010011100000100001000: 510803 464644 590384 636794 574332
0110010011100000100001000: 510803 464644 460145 574332 585661
0110010011100000100001000: 510803 464644 460145 636794 585661
0110010011100000100001000: 510803 464644 460145 636794 574332
0110010010100010100000100: 510803 590384 464644 596470 585661
0110010010100010100000100: 510803 590384 464644 596470 574332
0110010010100010100000100: 510803 590384 464644 596470 636794
0110010011100000100001000: 510803 590384 464644 468655 596470
0110010010100010100000100: 510803 590384 464644 468655 585661
0110010010100010100000100: 510803 590384 464644 468655 574332
0110010010100010100000100: 510803 590384 464644 468655 636794
0110010011100000100001000: 510803 590384 464644 492551 596470
0110010011100000100001000: 510803 590384 464644 492551 468655
0110010010100010100000100: 510803 590384 464644 492551 585661
0110010010100010100000100: 510803 590384 464644 492551 574332
0110010010100010100000100: 510803 590384 464644 492551 636794
0110010011100000100001000: 510803 590384 460145 492551 468655
0110010011100100110001000: 510803 590384 460145 596470 468655
0110010011100100110001000: 510803 590384 460145 596470 492551
0110010010100010100000100: 510803 460145 464644 555839 585661
0110010010100010100000100: 510803 460145 464644 555839 574332
0110010010100010100000100: 510803 460145 464644 555839 636794
0110010010100010100000100: 510803 460145 464644 596470 585661
0110010010100010100000100: 510803 460145 464644 596470 574332
0110010010100010100000100: 510803 460145 464644 596470 636794
0110010011100000100001000: 510803 460145 464644 486657 555839
0110010010100010100000100: 510803 460145 464644 486657 585661
0110010010100010100000100: 510803 460145 464644 486657 574332
0110010010100010100000100: 510803 460145 464644 486657 636794
0110010011100000100001000: 510803 460145 464644 491361 555839
0110010011100000100001000: 510803 460145 464644 491361 596470
0110010011100000100001000: 510803 460145 464644 491361 486657
0110010010100010100000100: 510803 460145 464644 491361 574332
0110010010100010100000100: 510803 460145 464644 491361 636794
0110010011100000100001000: 510803 460145 464644 492503 555839
0110010011100000100001000: 510803 460145 464644 492503 596470
0110010011100000100001000: 510803 460145 464644 492503 486657
0110010011100000100001000: 510803 460145 464644 492503 491361
0110010010100010100000100: 510803 460145 464644 492503 585661
0110010010100010100000100: 510803 460145 464644 492503 574332
0110010010100010100000100: 510803 460145 590384 555839 468655
0110010010100010100000100: 510803 460145 590384 555839 492551
0110010011100000100001000: 510803 460145 590384 486657 555839
0110010010100010100000100: 510803 460145 590384 486657 468655
0110010010100010100000100: 510803 460145 590384 486657 492551
0110010011100000100001000: 510803 460145 590384 491361 555839
0110010011100000100001000: 510803 460145 590384 491361 486657
0110010010100010100000100: 510803 460145 590384 491361 468655
0110010010100010100000100: 510803 460145 590384 491361 492551
0110010011100000100001000: 510803 460145 590384 492503 555839
0110010011100000100001000: 510803 460145 590384 492503 486657
0110010011100000100001000: 510803 460145 590384 492503 491361
0110010010100010100000100: 510803 460145 590384 492503 468655
0110010010100010100000100: 510803 460145 590384 492503 492551
0110010011100100110001000: 510803 460145 590384 596470 491361
0110010011100100110001000: 510803 460145 590384 596470 492503
0110010011100000100001000: 590384 596470 468655 555839 573318
0110010011100000100001000: 590384 596470 468655 555839 617986
0110010011100000100001000: 590384 596470 468655 524643 573318
0110010011100000100001000: 590384 596470 468655 524643 617986
0110010011100000100001000: 590384 596470 468655 524643 555839
0110010011100000100001000: 590384 596470 468655 460145 573318
0110010011100000100001000: 590384 596470 468655 460145 617986
0110010011100000100001000: 590384 596470 468655 460145 524643
0110010011100000100001000: 590384 596470 468655 486657 573318
0110010011100000100001000: 590384 596470 468655 486657 617986
0110010011100000100001000: 590384 596470 468655 486657 555839
0110010011100000100001000: 590384 596470 468655 486657 524643
0110010011100000100001000: 590384 596470 510803 555839 573318
0110010011100000100001000: 590384 596470 510803 555839 617986
0110010011100000100001000: 590384 596470 510803 524643 573318
0110010011100000100001000: 590384 596470 510803 524643 617986
0110010011100000100001000: 590384 596470 510803 524643 555839
0110010011100000100001000: 590384 596470 510803 486657 573318
0110010011100000100001000: 590384 596470 510803 486657 617986
0110010011100000100001000: 590384 596470 510803 486657 555839
0110010011100000100001000: 590384 596470 510803 486657 524643
0110010011100000100001000: 590384 596470 492551 555839 573318
0110010011100000100001000: 590384 596470 492551 555839 617986
0110010011100000100001000: 590384 596470 492551 524643 573318
0110010011100000100001000: 590384 596470 492551 524643 617986
0110010011100000100001000: 590384 596470 492551 524643 555839
0110010011100000100001000: 590384 596470 492551 460145 573318
0110010011100000100001000: 590384 596470 492551 460145 617986
0110010011100000100001000: 590384 596470 492551 460145 524643
0110010011100000100001000: 590384 596470 492551 486657 573318
0110010011100000100001000: 590384 596470 492551 486657 617986
0110010011100000100001000: 590384 596470 492551 486657 555839
0110010011100000100001000: 590384 596470 492551 486657 524643
0110010010100010100000100: 590384 468655 596470 491164 573318
0110010010100010100000100: 590384 468655 596470 491164 617986
0110010010100010100000100: 590384 468655 596470 491164 555839
0110010010100010100000100: 590384 468655 596470 491164 524643
0110010010100010100000100: 590384 468655 596470 491164 460145
0110010010100010100000100: 590384 468655 596470 491164 486657
0110010011100000100001000: 590384 468655 596470 495690 491164
0110010010100010100000100: 590384 468655 596470 495690 573318
0110010010100010100000100: 590384 468655 596470 495690 617986
0110010010100010100000100: 590384 468655 596470 495690 524643
0110010010100010100000100: 590384 468655 596470 495690 460145
0110010010100010100000100: 590384 468655 596470 495690 486657
0110010010100010100100110: 590384 468655 596470 495690 555839
0110010011100000100001000: 590384 468655 510803 495690 491164
0110010011100100110001000: 590384 468655 492551 495690 491164
0110010010100010100000100: 590384 510803 596470 464644 573318
0110010010100010100000100: 590384 510803 596470 464644 617986
0110010010100010100000100: 590384 510803 596470 464644 555839
0110010010100010100000100: 590384 510803 596470 464644 524643
0110010010100010100000100: 590384 510803 596470 464644 486657
0110010010100010100000100: 590384 510803 468655 464644 491164
0110010010100010100000100: 590384 510803 468655 464644 495690
0110010011100000100001000: 590384 510803 468655 460145 464644
0110010010100010100000100: 590384 510803 468655 460145 491164
0110010010100010100000100: 590384 510803 468655 460145 495690
0110010011100000100001000: 590384 510803 492551 460145 464644
0110010010100010100000100: 590384 492551 596470 612694 573318
0110010010100010100000100: 590384 492551 596470 612694 555839
0110010010100010100000100: 590384 492551 596470 612694 524643
0110010010100010100000100: 590384 492551 596470 612694 460145
0110010010100010100000100: 590384 492551 596470 612694 486657
0110010011100000100001000: 590384 492551 596470 495690 612694
0110010010100010100000100: 590384 492551 596470 495690 573318
0110010010100010100000100: 590384 492551 596470 495690 617986
0110010010100010100000100: 590384 492551 596470 495690 524643
0110010010100010100000100: 590384 492551 596470 495690 460145
0110010010100010100000100: 590384 492551 596470 495690 486657
0110010011100000100001000: 590384 492551 596470 601259 612694
0110010011100000100001000: 590384 492551 596470 601259 495690
0110010010100010100000100: 590384 492551 596470 601259 573318
0110010010100010100000100: 590384 492551 596470 601259 617986
0110010010100010100000100: 590384 492551 596470 601259 555839
0110010010100010100000100: 590384 492551 596470 601259 524643
0110010010100010100000100: 590384 492551 596470 601259 460145
0110010010100010100000100: 590384 492551 596470 601259 486657
0110010011100000100001000: 590384 492551 596470 607891 612694
0110010011100000100001000: 590384 492551 596470 607891 601259
0110010010100010100000100: 590384 492551 596470 607891 573318
0110010010100010100000100: 590384 492551 596470 607891 617986
0110010010100010100000100: 590384 492551 596470 607891 555839
0110010010100010100000100: 590384 492551 596470 607891 524643
0110010010100010100000100: 590384 492551 596470 607891 460145
0110010010100010100000100: 590384 492551 596470 607891 486657
0110010010100010100000100: 590384 492551 468655 612694 491164
0110010011100000100001000: 590384 492551 468655 601259 612694
0110010010100010100000100: 590384 492551 468655 601259 491164
0110010011100000100001000: 590384 492551 468655 607891 612694
0110010011100000100001000: 590384 492551 468655 607891 601259
0110010010100010100000100: 590384 492551 468655 607891 491164
0110010011100100110001000: 590384 492551 468655 495690 612694
0110010011100100110001000: 590384 492551 468655 495690 601259
0111110000100001000010000: 590384 492551 510803 468655 596470
0110010010100010100000100: 590384 492551 510803 612694 464644
0110010010100010100000100: 590384 492551 510803 612694 460145
0110010011100000100001000: 590384 492551 510803 495690 612694
0110010010100010100000100: 590384 492551 510803 495690 464644
0110010010100010100000100: 590384 492551 510803 495690 460145
0110010011100000100001000: 590384 492551 510803 601259 612694
0110010011100000100001000: 590384 492551 510803 601259 495690
0110010010100010100000100: 590384 492551 510803 601259 464644
0110010010100010100000100: 590384 492551 510803 601259 460145
0110010011100000100001000: 590384 492551 510803 607891 612694
0110010011100000100001000: 590384 492551 510803 607891 601259
0110010010100010100000100: 590384 492551 510803 607891 464644
0110010010100010100000100: 590384 492551 510803 607891 460145
0110010011100000100001000: 495690 555839 468655 656962 596470
0110010011100000100001000: 495690 555839 468655 460145 656962
0110010011100000100001000: 495690 555839 492551 656962 596470
0110010011100000100001000: 495690 555839 492551 460145 656962
0110010011100000100001000: 495690 555839 607891 656962 596470
0110010011100000100001000: 495690 555839 607891 460145 656962
0110010010100010100000100: 495690 468655 555839 491164 596470
0110010010100010100000100: 495690 468655 555839 491164 656962
0110010010100010100000100: 495690 468655 555839 491164 460145
0110010011100000100001000: 495690 468655 555839 590384 491164
0110010010100010100000100: 495690 468655 555839 590384 656962
0110010010100010100000100: 495690 468655 555839 590384 460145
0110010011100000100001000: 495690 468655 607891 590384 491164
0110010010100010100000100: 495690 492551 555839 612694 596470
0110010010100010100000100: 495690 492551 555839 612694 656962
0110010010100010100000100: 495690 492551 555839 612694 460145
0110010011100000100001000: 495690 492551 555839 590384 612694
0110010010100010100000100: 495690 492551 555839 590384 656962
0110010010100010100000100: 495690 492551 555839 590384 460145
0110010011100000100001000: 495690 492551 555839 601259 612694
0110010011100000100001000: 495690 492551 555839 601259 590384
0110010010100010100000100: 495690 492551 555839 601259 596470
0110010010100010100000100: 495690 492551 555839 601259 460145
0110010010100010100000100: 495690 492551 468655 612694 491164
0110010011100000100001000: 495690 492551 468655 601259 612694
0110010010100010100000100: 495690 492551 468655 601259 491164
0110010010100010100000100: 495690 607891 555839 456960 596470
0110010010100010100000100: 495690 607891 555839 456960 656962
0110010010100010100000100: 495690 607891 555839 456960 460145
0110010011100000100001000: 495690 607891 555839 491361 456960
0110010010100010100000100: 495690 607891 555839 491361 596470
0110010010100010100000100: 495690 607891 555839 491361 656962
0110010010100010100000100: 495690 607891 468655 456960 590384
0110010011100000100001000: 495690 607891 468655 491361 456960
0110010010100010100000100: 495690 607891 468655 491361 491164
0110010010100010100000100: 495690 607891 468655 491361 590384
0111010100110001000100010: 495690 607891 492551 555839 596470
0111010100110001000100010: 495690 607891 492551 555839 656962
0111010100110001000100010: 495690 607891 492551 555839 460145
0111110100110001000010000: 495690 607891 492551 468655 555839
0111010100110001000100010: 495690 607891 492551 468655 491164
0110010010100010100000100: 517222 574332 574301 464644 456960
0110010010100010100000100: 517222 636794 574301 621363 456960
0110010011100000100001000: 517222 636794 574301 464644 621363
0110010010100010100000100: 517222 636794 574301 464644 456960
0110010011100000100001000: 517222 636794 574301 492503 621363
0110010011100000100001000: 517222 636794 574301 492503 464644
0110010010100010100000100: 517222 636794 574301 492503 456960
0110010011100000100001000: 517222 636794 574332 492503 621363
0110010011100100110001000: 517222 636794 574332 464644 621363
0110010011100100110001000: 517222 636794 574332 464644 492503
0110010011100000100001000: 468655 491164 495690 621363 456960
0110010011100000100001000: 468655 491164 590384 621363 456960
0110010010100010100000100: 468655 495690 491164 555839 456960
0110010010100010100000100: 468655 495690 491164 555839 621363
0110010011100000100001000: 468655 495690 491164 492551 555839
0110010010100010100000100: 468655 495690 491164 492551 456960
0110010010100010100000100: 468655 495690 491164 492551 621363
0110010011100000100001000: 468655 495690 491164 607891 555839
0110010010100010100000100: 468655 495690 491164 607891 621363
0110010011100000100001000: 468655 495690 590384 607891 555839
0110010010100010100000100: 468655 590384 491164 596470 456960
0110010010100010100000100: 468655 590384 491164 596470 621363
0110010011100000100001000: 468655 590384 491164 510803 596470
0110010010100010100000100: 468655 590384 491164 510803 456960
0110010010100010100000100: 468655 590384 491164 510803 621363
0110010011100000100001000: 468655 590384 491164 492551 596470
0110010011100000100001000: 468655 590384 491164 492551 510803
0110010010100010100000100: 468655 590384 491164 492551 456960
0110010010100010100000100: 468655 590384 491164 492551 621363
0110010010100010100000100: 468655 590384 495690 596470 607891
0110010011100000100001000: 468655 590384 495690 510803 596470
0110010010100010100000100: 468655 590384 495690 510803 555839
0110010010100010100000100: 468655 590384 495690 510803 607891
0110010011100000100001000: 656962 555839 601259 495690 596470
0110010011100000100001000: 656962 555839 601259 460145 495690
0110010010100010100000100: 656962 601259 555839 534464 596470
0110010010100010100000100: 656962 601259 555839 534464 495690
0110010010100010100000100: 656962 601259 555839 534464 460145
0110010011100000100001000: 656962 601259 555839 492551 534464
0110010010100010100000100: 656962 601259 555839 492551 596470
0110010010100010100000100: 656962 601259 555839 492551 460145
0110010011100000100001000: 574332 464644 517222 510803 585661
0110010010100010100000100: 574332 517222 464644 574301 585661
0110010010100010100000100: 574332 517222 464644 574301 510803
0111010101110001000001000: 596470 617986 573318 555839 612694
0111010100110001000100010: 596470 617986 573318 555839 656962
0111010100110001000100010: 596470 617986 573318 555839 495690
0111110100110001000010000: 596470 617986 573318 524643 555839
0111010101110001000001000: 596470 617986 573318 524643 612694
0111010100110001000100010: 596470 617986 573318 524643 534464
0111110100110001000010000: 596470 617986 573318 590384 555839
0111110100110001000010000: 596470 617986 573318 590384 524643
0111010101110001000001000: 596470 617986 573318 590384 612694
0111010100110001000100010: 596470 617986 573318 590384 468655
0111010100110001000100010: 596470 617986 573318 590384 510803
0111010100110001000100010: 596470 617986 573318 590384 492551
0111110100110001000010000: 596470 617986 573318 460145 524643
0111110100110001000010000: 596470 617986 573318 460145 590384
0111010101110001000001000: 596470 617986 573318 460145 612694
0111010100110001000100010: 596470 617986 573318 460145 510803
0111010100110001000100010: 596470 617986 573318 460145 491361
0111010100110001000100010: 596470 617986 573318 460145 492503
0111110100110001000010000: 596470 617986 573318 486657 555839
0111110100110001000010000: 596470 617986 573318 486657 524643
0111110100110001000010000: 596470 617986 573318 486657 590384
0111010101110001000001000: 596470 617986 573318 486657 612694
0110010011100000100001000: 596470 555839 573318 495690 656962
0110010010100010100000100: 596470 555839 617986 656962 612694
0110010011100000100001000: 596470 555839 617986 495690 656962
0110010010100010100000100: 596470 555839 617986 495690 612694
0110010011100000100001000: 596470 555839 524643 495690 656962
0110010011100000100001000: 596470 555839 590384 495690 656962
0110010011100000100001000: 596470 555839 486657 495690 656962
0111010101110001000001000: 596470 555839 460145 573318 656962
0111010101110001000001000: 596470 555839 460145 573318 495690
0111010101110001000001000: 596470 555839 460145 617986 656962
0111010101110001000001000: 596470 555839 460145 617986 495690
0111010101110001000001000: 596470 555839 460145 524643 656962
0111010101110001000001000: 596470 555839 460145 524643 495690
0111010101110001000001000: 596470 555839 460145 590384 656962
0111010101110001000001000: 596470 555839 460145 590384 495690
0110010010100010100000100: 596470 524643 617986 534464 612694
0110010010100010100000100: 596470 524643 555839 534464 656962
0110010010100010100000100: 596470 524643 555839 534464 495690
0110010011100000100001000: 596470 590384 573318 510803 468655
0110010011100000100001000: 596470 590384 573318 492551 468655
0110010011100000100001000: 596470 590384 573318 492551 510803
0110010010100010100000100: 596470 590384 617986 468655 612694
0110010011100000100001000: 596470 590384 617986 510803 468655
0110010010100010100000100: 596470 590384 617986 510803 612694
0110010011100000100001000: 596470 590384 617986 492551 468655
0110010011100000100001000: 596470 590384 617986 492551 510803
0110010010100010100000100: 596470 590384 555839 468655 656962
0110010011100000100001000: 596470 590384 555839 510803 468655
0110010010100010100000100: 596470 590384 555839 510803 656962
0110010010100010100000100: 596470 590384 555839 510803 495690
0110010011100000100001000: 596470 590384 555839 492551 468655
0110010011100000100001000: 596470 590384 555839 492551 510803
0110010010100010100000100: 596470 590384 555839 492551 656962
0111110000100001000010000: 596470 590384 524643 555839 573318
0111110000100001000010000: 596470 590384 524643 555839 617986
0110010010100010100000100: 596470 590384 524643 468655 534464
0110010011100000100001000: 596470 590384 524643 510803 468655
0110010010100010100000100: 596470 590384 524643 510803 534464
0110010011100000100001000: 596470 590384 524643 492551 468655
0110010011100000100001000: 596470 590384 524643 492551 510803
0110010010100010100000100: 596470 590384 524643 492551 534464
0110010011100000100001000: 596470 590384 460145 492551 468655
0110010011100000100001000: 596470 590384 486657 510803 468655
0110010011100000100001000: 596470 590384 486657 492551 468655
0110010011100000100001000: 596470 590384 486657 492551 510803
0110010011100000100001000: 596470 460145 573318 491361 510803
0110010011100000100001000: 596470 460145 573318 492503 510803
0110010011100000100001000: 596470 460145 573318 492503 491361
0110010010100010100000100: 596470 460145 617986 510803 612694
0110010011100000100001000: 596470 460145 617986 491361 510803
0110010010100010100000100: 596470 460145 617986 491361 612694
0110010011100000100001000: 596470 460145 617986 492503 510803
0110010011100000100001000: 596470 460145 617986 492503 491361
0110010010100010100000100: 596470 460145 617986 492503 612694
0110010010100010100000100: 596470 460145 524643 510803 534464
0110010011100000100001000: 596470 460145 524643 491361 510803
0110010010100010100000100: 596470 460145 524643 491361 534464
0110010011100000100001000: 596470 460145 524643 492503 510803
0110010011100000100001000: 596470 460145 524643 492503 491361
0110010010100010100000100: 596470 460145 524643 492503 534464
0111110000100001000010000: 596470 460145 590384 524643 573318
0111110000100001000010000: 596470 460145 590384 524643 617986
0110010010100010100000100: 596470 460145 590384 491361 468655
0110010010100010100000100: 596470 460145 590384 491361 492551
0110010011100000100001000: 596470 460145 590384 492503 491361
0110010010100010100000100: 596470 460145 590384 492503 468655
0110010010100010100000100: 596470 460145 590384 492503 492551
0111010100110001000100010: 596470 460145 555839 617986 612694
0111110100110001000110010: 596470 460145 555839 617986 573318
0111110100110001000010000: 596470 460145 555839 524643 573318
0111110100110001000010000: 596470 460145 555839 524643 617986
0111010100110001000100010: 596470 460145 555839 524643 534464
0111110100110001000010000: 596470 460145 555839 590384 573318
0111110100110001000010000: 596470 460145 555839 590384 617986
0111110100110001000010000: 596470 460145 555839 590384 524643
0111010100110001000100010: 596470 460145 555839 590384 468655
0111010100110001000100010: 596470 460145 555839 590384 492551
0111110110110001100010000: 596470 460145 486657 555839 573318
0111110110110001100010000: 596470 460145 486657 555839 617986
0111110110110001100010000: 596470 460145 486657 555839 524643
0111110110110001100010000: 596470 460145 486657 555839 590384
0111110000100001000010000: 596470 486657 524643 555839 573318
0111110000100001000010000: 596470 486657 524643 555839 617986
0111110000100001000010000: 596470 486657 590384 555839 573318
0111110000100001000010000: 596470 486657 590384 555839 617986
0111110000100001000010000: 596470 486657 590384 524643 573318
0111110000100001000010000: 596470 486657 590384 524643 617986
0111110000100001000010000: 596470 486657 590384 524643 555839
0111010100110001000100010: 596470 486657 460145 617986 612694
0111110100110001000110010: 596470 486657 460145 617986 573318
0111110100110001000010000: 596470 486657 460145 524643 573318
0111110100110001000010000: 596470 486657 460145 524643 617986
0111010100110001000100010: 596470 486657 460145 524643 534464
0111110100110001000010000: 596470 486657 460145 590384 573318
0111110100110001000010000: 596470 486657 460145 590384 617986
0111110100110001000010000: 596470 486657 460145 590384 524643
0111010100110001000100010: 596470 486657 460145 590384 468655
0111010100110001000100010: 596470 486657 460145 590384 492551
0110010010100010100000100: 464644 574332 585661 517222 491361
0110010010100010100000100: 464644 510803 585661 590384 491361
0110010011100000100001000: 464644 510803 585661 460145 590384
0110010010100010100000100: 464644 510803 574332 590384 517222
0110010011100000100001000: 464644 510803 574332 460145 590384
0110010010100010100000100: 464644 510803 574332 460145 517222
0110010011100000100001000: 464644 510803 636794 460145 590384
0110010010100010100000100: 464644 636794 585661 621363 491361
0110010011100000100001000: 464644 636794 585661 517222 621363
0110010010100010100000100: 464644 636794 585661 517222 491361
0110010011100000100001000: 464644 636794 585661 492503 621363
0110010011100000100001000: 464644 636794 585661 492503 517222
0110010010100010100000100: 464644 636794 585661 492503 491361
0110010011100000100001000: 464644 636794 574332 492503 621363
0111110000100001000010000: 464644 636794 510803 574332 585661
0110010010100010100000100: 464644 636794 510803 621363 590384
0110010010100010100000100: 464644 636794 510803 621363 460145
0110010011100000100001000: 464644 636794 510803 517222 621363
0110010010100010100000100: 464644 636794 510803 517222 590384
0110010010100010100000100: 464644 636794 510803 517222 460145
0110010011100000100001000: 464644 636794 510803 492503 621363
0110010011100000100001000: 464644 636794 510803 492503 517222
0110010010100010100000100: 464644 636794 510803 492503 590384
0110010011100000100001000: 491164 456960 621363 607891 574301
0110010011100000100001000: 491164 456960 468655 607891 574301
0110010010100010100000100: 491164 621363 456960 636794 574301
0110010010100010100000100: 491164 621363 456960 636794 607891
0110010010100010100000100: 491164 468655 456960 495690 574301
0110010011100000100001000: 491164 468655 456960 590384 495690
0110010010100010100000100: 491164 468655 456960 590384 574301
0110010010100010100000100: 491164 468655 456960 590384 607891
0110010010100010100000100: 491164 468655 621363 495690 636794
0110010011100000100001000: 491164 468655 621363 590384 495690
0110010010100010100000100: 491164 468655 621363 590384 636794
0110010010100010100000100: 534464 601259 524643 656962 596470
0110010011100000100001000: 534464 601259 524643 492551 656962
0110010010100010100000100: 534464 601259 524643 492551 596470
0110010010100010100000100: 524643 596470 534464 573318 601259
0110010010100010100000100: 524643 596470 534464 617986 601259
0110010011100000100001000: 524643 596470 534464 555839 573318
0110010011100000100001000: 524643 596470 534464 555839 617986
0110010010100010100000100: 524643 596470 534464 555839 601259
0110010011100000100001000: 524643 596470 534464 590384 573318
0110010011100000100001000: 524643 596470 534464 590384 617986
0110010011100000100001000: 524643 596470 534464 590384 555839
0110010010100010100000100: 524643 596470 534464 590384 601259
0110010011100000100001000: 524643 596470 534464 460145 573318
0110010011100000100001000: 524643 596470 534464 460145 617986
0110010011100000100001000: 524643 596470 534464 460145 590384
0110010010100010100000100: 524643 596470 534464 460145 601259
0110010011100000100001000: 524643 596470 534464 486657 573318
0110010011100000100001000: 524643 596470 534464 486657 617986
0110010011100000100001000: 524643 596470 534464 486657 555839
0110010011100000100001000: 524643 596470 534464 486657 590384
0110010010100010100000100: 524643 596470 534464 486657 601259
0110010011100000100001000: 621363 491164 636794 468655 456960
0110010010100010100000100: 621363 636794 491164 464644 456960
0110010010100010100000100: 621363 636794 491164 464644 468655
0110010011100000100001000: 621363 636794 491164 517222 464644
0110010010100010100000100: 621363 636794 491164 517222 456960
0110010010100010100000100: 621363 636794 491164 517222 468655
0110010011100000100001000: 621363 636794 491164 492503 464644
0110010011100000100001000: 621363 636794 491164 492503 517222
0110010010100010100000100: 621363 636794 491164 492503 456960
0110010010100010100000100: 621363 636794 491164 492503 468655
0110010011100000100001000: 555839 596470 656962 524643 573318
0110010011100000100001000: 555839 596470 656962 524643 617986
0110010011100000100001000: 555839 596470 656962 590384 573318
0110010011100000100001000: 555839 596470 656962 590384 617986
0110010011100000100001000: 555839 596470 656962 590384 524643
0110010011100000100001000: 555839 596470 656962 486657 573318
0110010011100000100001000: 555839 596470 656962 486657 617986
0110010011100000100001000: 555839 596470 656962 486657 524643
0110010011100000100001000: 555839 596470 656962 486657 590384
0110010011100000100001000: 555839 596470 495690 524643 573318
0110010011100000100001000: 555839 596470 495690 524643 617986
0110010011100000100001000: 555839 596470 495690 590384 573318
0110010011100000100001000: 555839 596470 495690 590384 617986
0110010011100000100001000: 555839 596470 495690 590384 524643
0110010011100000100001000: 555839 596470 495690 486657 573318
0110010011100000100001000: 555839 596470 495690 486657 617986
0110010011100000100001000: 555839 596470 495690 486657 524643
0110010011100000100001000: 555839 596470 495690 486657 590384
0110010010100010100000100: 555839 656962 596470 601259 573318
0110010010100010100000100: 555839 656962 596470 601259 617986
0110010010100010100000100: 555839 656962 596470 601259 524643
0110010010100010100000100: 555839 656962 596470 601259 590384
0110010010100010100000100: 555839 656962 596470 601259 486657
0110010010100010100000100: 555839 495690 596470 468655 573318
0110010010100010100000100: 555839 495690 596470 468655 617986
0110010010100010100000100: 555839 495690 596470 468655 524643
0110010010100010100000100: 555839 495690 596470 468655 486657
0110010011100000100001000: 555839 495690 596470 492551 468655
0110010010100010100000100: 555839 495690 596470 492551 573318
0110010010100010100000100: 555839 495690 596470 492551 617986
0110010010100010100000100: 555839 495690 596470 492551 524643
0110010010100010100000100: 555839 495690 596470 492551 486657
0110010011100000100001000: 555839 495690 596470 607891 468655
0110010010100010100000100: 555839 495690 596470 607891 573318
0110010010100010100000100: 555839 495690 596470 607891 617986
0110010010100010100000100: 555839 495690 596470 607891 524643
0110010010100010100000100: 555839 495690 596470 607891 590384
0110010010100010100000100: 555839 495690 596470 607891 486657
0110010010100010100000100: 555839 495690 656962 468655 601259
0110010011100000100001000: 555839 495690 656962 492551 468655
0110010011100000100001000: 555839 495690 656962 607891 468655
0110010010100010100000100: 555839 495690 656962 607891 601259
0110010011100000100001000: 555839 495690 460145 492551 468655
0110010011100000100001000: 555839 495690 460145 607891 468655
0110010010100010100000100: 555839 460145 656962 510803 601259
0110010011100000100001000: 555839 460145 656962 486657 510803
0110010010100010100000100: 555839 460145 656962 486657 601259
0110010011100000100001000: 555839 460145 656962 491361 510803
0110010011100000100001000: 555839 460145 656962 491361 486657
0110010010100010100000100: 555839 460145 656962 491361 601259
0110010011100000100001000: 555839 460145 656962 492503 510803
0110010011100000100001000: 555839 460145 656962 492503 486657
0110010011100000100001000: 555839 460145 656962 492503 491361
0110010010100010100000100: 555839 460145 656962 492503 601259
0110010010100010100000100: 555839 460145 495690 510803 468655
0110010010100010100000100: 555839 460145 495690 510803 492551
0110010010100010100000100: 555839 460145 495690 510803 607891
0110010011100000100001000: 555839 460145 495690 486657 510803
0110010010100010100000100: 555839 460145 495690 486657 468655
0110010010100010100000100: 555839 460145 495690 486657 492551
0110010010100010100000100: 555839 460145 495690 486657 607891
0110010011100000100001000: 555839 460145 495690 491361 510803
0110010011100000100001000: 555839 460145 495690 491361 486657
0110010010100010100000100: 555839 460145 495690 491361 468655
0110010010100010100000100: 555839 460145 495690 491361 492551
0110010011100000100001000: 555839 460145 495690 492503 510803
0110010011100000100001000: 555839 460145 495690 492503 486657
0110010011100000100001000: 555839 460145 495690 492503 491361
0110010010100010100000100: 555839 460145 495690 492503 468655
0110010010100010100000100: 555839 460145 495690 492503 492551
0110010010100010100000100: 555839 460145 495690 492503 607891
0111010100110001000100010: 555839 460145 596470 656962 601259
0111110100110001000010000: 555839 460145 596470 495690 656962
0111010100110001000100010: 555839 460145 596470 495690 468655
0111010100110001000100010: 555839 460145 596470 495690 492551
0111010100110001000100010: 555839 460145 596470 495690 607891
0110010010100010100000100: 456960 491164 574301 621363 517222
0110010011100000100001000: 456960 491164 574301 468655 621363
0110010010100010100000100: 456960 491164 574301 468655 517222
0110010011100000100001000: 456960 491164 607891 468655 621363
0110010010100010100000100: 456960 607891 574301 495690 517222
0110010010100010100000100: 456960 607891 574301 492551 517222
0110010011100000100001000: 456960 607891 574301 491361 495690
0110010011100000100001000: 456960 607891 574301 491361 492551
0110010010100010100000100: 456960 607891 574301 491361 517222
0110010010100010100000100: 456960 607891 491164 495690 621363
0110010010100010100000100: 456960 607891 491164 492551 621363
0110010010100010100000100: 456960 607891 491164 492551 468655
0110010011100000100001000: 456960 607891 491164 491361 495690
0110010011100000100001000: 456960 607891 491164 491361 492551
0110010010100010100000100: 456960 607891 491164 491361 621363
0110010010100010100000100: 456960 607891 491164 491361 468655
0110010010100010100000100: 617986 596470 612694 555839 492551
0110010011100000100001000: 617986 596470 612694 524643 555839
0110010010100010100000100: 617986 596470 612694 524643 492551
0110010011100000100001000: 617986 596470 612694 590384 555839
0110010011100000100001000: 617986 596470 612694 590384 524643
0110010011100000100001000: 617986 596470 612694 460145 524643
0110010011100000100001000: 617986 596470 612694 460145 590384
0110010010100010100000100: 617986 596470 612694 460145 492551
0110010011100000100001000: 617986 596470 612694 486657 555839
0110010011100000100001000: 617986 596470 612694 486657 524643
0110010011100000100001000: 617986 596470 612694 486657 590384
0110010010100010100000100: 617986 596470 612694 486657 492551
0111010100110001000100010: 617986 596470 573318 612694 492551
0110010011100000100001000: 574301 456960 517222 607891 491164
0110010010100010100000100: 574301 517222 456960 574332 491164
0110010010100010100000100: 574301 517222 456960 574332 607891
0110010011100000100001000: 574301 517222 456960 636794 574332
0110010010100010100000100: 574301 517222 456960 636794 491164
0110010010100010100000100: 574301 517222 456960 636794 607891
0110010011100000100001000: 585661 464644 491361 510803 574332
0110010011100000100001000: 585661 464644 491361 636794 574332
0110010011100000100001000: 585661 464644 491361 636794 510803
0110010010100010100000100: 585661 491361 464644 460145 574332
0110010010100010100000100: 585661 491361 464644 460145 636794
0110010011100000100001000: 585661 491361 464644 607891 460145
0110010010100010100000100: 585661 491361 464644 607891 574332
0110010010100010100000100: 585661 491361 464644 607891 510803
0110010010100010100000100: 585661 491361 464644 607891 636794
0110010010100010100000100: 612694 492551 617986 495690 573318
0110010010100010100000100: 612694 492551 617986 495690 596470
0110010011100000100001000: 612694 492551 617986 590384 495690
0110010010100010100000100: 612694 492551 617986 590384 573318
0110010011100000100001000: 612694 492551 617986 601259 495690
0110010011100000100001000: 612694 492551 617986 601259 590384
0110010010100010100000100: 612694 492551 617986 601259 573318
0110010010100010100000100: 612694 492551 617986 601259 596470
0110010011100000100001000: 612694 492551 617986 607891 590384
0110010011100000100001000: 612694 492551 617986 607891 601259
0110010010100010100000100: 612694 492551 617986 607891 573318
0110010010100010100000100: 612694 492551 617986 607891 596470
