Vertex,0101101101011110,0110100110000100,0111100110001100,0101101001001000,0100101101010110,0111100010001000,0111101111011110,0101101101001100,0111101111001100,0110100110010110,0110101111000100,0111100110011110,0100101001010010,0111100010011010,0111101011011010,0100101101000100,0101101001011010,0110100010010010,0110101111010110,0111101011001000,0110101011010010
576910,7.0,580.0,170.0,159.0,2.0,404.0,155.0,22.0,108.0,70.0,252.0,10.0,92.0,112.0,100.0,10.0,28.0,329.0,88.0,605.0,137.0
594193,0.0,295.0,49.0,72.0,0.0,133.0,0.0,12.0,0.0,35.0,59.0,0.0,29.0,16.0,0.0,8.0,14.0,144.0,0.0,134.0,38.0
556852,6.0,620.0,152.0,147.0,4.0,479.0,0.0,16.0,108.0,70.0,192.0,9.0,73.0,110.0,99.0,6.0,20.0,322.0,81.0,483.0,106.0
576456,4.0,549.0,62.0,150.0,2.0,203.0,0.0,18.0,36.0,70.0,79.0,6.0,78.0,34.0,37.0,12.0,24.0,290.0,34.0,169.0,53.0
628048,4.0,319.0,126.0,87.0,2.0,344.0,155.0,14.0,72.0,35.0,192.0,6.0,32.0,92.0,61.0,2.0,10.0,158.0,54.0,461.0,105.0
460570,2.0,746.0,167.0,207.0,2.0,565.0,155.0,24.0,72.0,105.0,253.0,5.0,154.0,112.0,60.0,32.0,37.0,450.0,47.0,596.0,144.0
509369,3.0,543.0,95.0,135.0,0.0,508.0,0.0,16.0,90.0,35.0,157.0,3.0,67.0,76.0,72.0,8.0,9.0,265.0,64.0,361.0,96.0
490760,4.0,946.0,161.0,252.0,4.0,705.0,155.0,28.0,72.0,243.0,252.0,4.0,180.0,136.0,65.0,42.0,81.0,515.0,61.0,577.0,148.0
641057,0.0,254.0,15.0,72.0,0.0,94.0,0.0,4.0,0.0,0.0,20.0,0.0,48.0,6.0,0.0,10.0,0.0,152.0,0.0,44.0,12.0
561428,14.0,1437.0,491.0,385.0,4.0,1344.0,310.0,94.0,288.0,280.0,807.0,18.0,153.0,379.0,250.0,18.0,103.0,752.0,216.0,1828.0,493.0
586445,8.0,838.0,142.0,232.0,4.0,649.0,0.0,26.0,108.0,208.0,221.0,6.0,163.0,114.0,100.0,40.0,71.0,427.0,95.0,503.0,137.0
498868,0.0,678.0,38.0,115.0,2.0,318.0,0.0,12.0,0.0,35.0,42.0,0.0,128.0,26.0,0.0,10.0,9.0,372.0,0.0,84.0,38.0
629004,6.0,481.0,187.0,102.0,4.0,359.0,155.0,18.0,90.0,35.0,253.0,9.0,51.0,154.0,87.0,2.0,6.0,241.0,71.0,629.0,135.0
493648,0.0,224.0,103.0,52.0,0.0,336.0,155.0,12.0,36.0,0.0,172.0,1.0,13.0,98.0,27.0,0.0,0.0,90.0,20.0,410.0,94.0
473042,0.0,299.0,75.0,78.0,0.0,376.0,0.0,10.0,0.0,0.0,133.0,0.0,27.0,66.0,0.0,2.0,0.0,156.0,0.0,308.0,77.0
463434,3.0,306.0,75.0,93.0,0.0,416.0,0.0,10.0,90.0,33.0,135.0,2.0,29.0,60.0,70.0,0.0,12.0,141.0,64.0,316.0,75.0
486024,0.0,614.0,119.0,166.0,6.0,452.0,0.0,18.0,0.0,35.0,177.0,0.0,113.0,115.0,0.0,12.0,14.0,336.0,0.0,407.0,101.0
524326,0.0,390.0,65.0,101.0,2.0,478.0,0.0,8.0,36.0,35.0,111.0,1.0,66.0,54.0,27.0,4.0,9.0,212.0,20.0,261.0,64.0
624171,0.0,961.0,75.0,237.0,2.0,699.0,0.0,20.0,0.0,313.0,89.0,0.0,179.0,40.0,0.0,50.0,97.0,512.0,0.0,193.0,56.0
497630,0.0,481.0,31.0,110.0,0.0,269.0,0.0,6.0,0.0,35.0,34.0,0.0,104.0,10.0,0.0,12.0,9.0,279.0,0.0,78.0,19.0
583632,3.0,820.0,94.0,159.0,4.0,484.0,0.0,12.0,18.0,105.0,80.0,4.0,157.0,70.0,21.0,34.0,21.0,479.0,17.0,208.0,48.0
631466,0.0,612.0,27.0,128.0,0.0,397.0,0.0,8.0,0.0,72.0,34.0,0.0,122.0,17.0,0.0,22.0,11.0,345.0,0.0,69.0,22.0
468418,0.0,515.0,10.0,64.0,0.0,367.0,0.0,2.0,0.0,37.0,9.0,0.0,90.0,9.0,0.0,16.0,0.0,270.0,0.0,20.0,5.0
648046,0.0,534.0,66.0,114.0,6.0,274.0,0.0,16.0,0.0,107.0,76.0,0.0,79.0,59.0,0.0,12.0,25.0,264.0,0.0,163.0,46.0
624657,0.0,546.0,51.0,121.0,6.0,355.0,0.0,10.0,0.0,107.0,55.0,0.0,105.0,53.0,0.0,32.0,22.0,306.0,0.0,122.0,31.0
513298,0.0,257.0,10.0,40.0,0.0,96.0,0.0,4.0,0.0,0.0,12.0,0.0,30.0,10.0,0.0,2.0,0.0,140.0,0.0,19.0,12.0
502876,0.0,39.0,0.0,6.0,0.0,24.0,0.0,0.0,0.0,0.0,0.0,0.0,6.0,0.0,0.0,2.0,0.0,29.0,0.0,0.0,0.0
graph,16.0,3721.0,664.0,896.0,14.0,2782.0,310.0,110.0,306.0,525.0,974.0,21.0,592.0,507.0,269.0,100.0,158.0,1994.0,233.0,2262.0,573.0
