Vertex,0110100010010010,0110100110000100
593095,8.0,40.0
557451,8.0,40.0
577956,8.0,39.0
492104,8.0,39.0
564372,6.0,29.0
529585,4.0,19.0
487529,6.0,29.0
556163,4.0,19.0
594920,2.0,9.0
479180,2.0,9.0
graph,14.0,68.0
