0111010110110011100000100: 614800 554368 483619 626287 551237
0110010011100000100001000: 614800 483619 626287 622551 551237
0110010011100000100001000: 614800 483619 626287 635367 551237
0110010011100000100001000: 614800 483619 626287 635367 622551
0110010011100000100001000: 483619 551237 622551 574158 656496
0110010011100100110001000: 483619 551237 635367 574158 656496
0110010011100000100001000: 483619 551237 554368 574158 656496
0110010011100000100001000: 483619 551237 614800 574158 656496
0110010010100010100000100: 483619 622551 551237 476671 656496
0110010010100010100000100: 483619 622551 551237 476671 574158
0111010101110001000001000: 483619 622551 554368 551237 476671
0110010010100010100000100: 483619 635367 622551 574158 476671
0111010101110001000101010: 483619 635367 554368 551237 574158
0110010010100010100000100: 483619 554368 551237 638132 656496
0110010010100010100000100: 483619 554368 551237 638132 574158
0110010011100000100001000: 483619 554368 551237 626287 638132
0110010010100010100000100: 483619 554368 551237 626287 656496
0110010010100010100000100: 483619 554368 551237 626287 574158
0111010101110001000001000: 483619 554368 622551 551237 638132
0111010101110001000001000: 483619 554368 622551 551237 626287
0111010100110001000100010: 483619 554368 622551 551237 656496
0111010100110001000100010: 483619 554368 622551 551237 574158
0111010110110011100000100: 483619 554368 622551 635367 476671
0111010110110011100000100: 483619 554368 622551 614800 476671
0111010101110001000001000: 483619 554368 635367 551237 638132
0111010101110001000001000: 483619 554368 635367 551237 626287
0111010100110001000100010: 483619 554368 635367 551237 656496
0111110110110001100010000: 483619 554368 635367 622551 551237
0111010110110011100000100: 483619 554368 635367 622551 574158
0111010110110011100000100: 483619 554368 635367 614800 574158
0111010101110001000001000: 483619 554368 614800 551237 638132
0111110110110001100010000: 483619 554368 614800 622551 551237
0111110110110001100010000: 483619 554368 614800 635367 551237
0111110111110001100011000: 483619 554368 614800 635367 622551
0110010010100010100000100: 483619 614800 551237 626287 656496
0110010010100010100000100: 483619 614800 551237 626287 574158
0110010010100010100000100: 483619 614800 622551 626287 476671
0111110000100001000010000: 483619 614800 635367 622551 551237
0110010010100010100000100: 483619 614800 635367 626287 574158
0111010100110001000100010: 483619 614800 554368 551237 656496
0111010100110001000100010: 483619 614800 554368 551237 574158
0110010010100010100100110: 554368 622551 638132 476671 566545
0111010101110001000001000: 554368 622551 483619 638132 476671
0111010101110001000001000: 554368 622551 483619 626287 476671
0110010010100010100000100: 554368 635367 638132 574158 566545
0110010010100010100000100: 554368 635367 622551 574158 476671
0111010101110001000001000: 554368 635367 483619 638132 574158
0111010101110001000001000: 554368 635367 483619 626287 574158
0110010010100010100000100: 554368 483619 638132 551237 566545
0111010100110001000100010: 554368 483619 622551 638132 566545
0111110100110001000010000: 554368 483619 622551 626287 638132
0111010100110001000100010: 554368 483619 635367 638132 566545
0111110100110001000010000: 554368 483619 635367 626287 638132
0111110110110001100010000: 554368 483619 635367 622551 638132
0111110110110001100010000: 554368 483619 635367 622551 626287
0111110110110001100010000: 554368 483619 614800 622551 638132
0111110110110001100010000: 554368 483619 614800 635367 638132
0111110000100001000010000: 554368 614800 635367 622551 638132
0111010100110001000100010: 554368 614800 483619 638132 566545
0111110110110011100010100: 554368 614800 483619 626287 622551
0111110110110011100010100: 554368 614800 483619 626287 635367
0111110110110001100010000: 554368 614800 626287 483619 638132
0111110000100001000010000: 554368 626287 635367 622551 638132
0111010100110001000100010: 554368 626287 614800 638132 566545
0111110100110001000010000: 554368 626287 614800 622551 638132
0111010100110001000100010: 554368 626287 614800 622551 476671
0111110100110001000010000: 554368 626287 614800 635367 638132
0111110100110001000010000: 554368 626287 614800 635367 622551
0111010100110001000100010: 554368 626287 614800 635367 574158
0110010010100010100000100: 635367 554368 574158 638132 551237
0110010011100000100001000: 635367 554368 574158 622551 638132
0110010010100010100000100: 635367 554368 574158 622551 551237
0110010011100000100001000: 635367 554368 574158 614800 638132
0110010011100000100001000: 635367 554368 574158 614800 622551
0110010010100010100000100: 635367 554368 574158 614800 551237
0110010011100000100001000: 635367 554368 574158 626287 638132
0110010011100000100001000: 635367 554368 574158 626287 622551
0110010010100010100000100: 635367 554368 574158 626287 551237
0110010011100000100001000: 635367 483619 574158 614800 622551
0110010011100100110001000: 635367 483619 574158 551237 622551
0110010011100100110001000: 635367 483619 574158 551237 614800
0110010010100010100000100: 476671 566545 622551 638132 483619
0110010011100000100001000: 622551 554368 476671 635367 638132
0110010010100010100000100: 622551 554368 476671 635367 566545
0110010011100000100001000: 622551 554368 476671 614800 638132
0110010011100000100001000: 622551 554368 476671 614800 635367
0110010010100010100000100: 622551 554368 476671 614800 566545
0110010011100000100001000: 622551 554368 476671 626287 638132
0110010011100000100001000: 622551 554368 476671 626287 635367
0110010010100010100000100: 622551 554368 476671 626287 566545
0110010010100010100000100: 622551 483619 476671 551237 566545
0110010011100000100001000: 622551 483619 476671 635367 551237
0110010010100010100000100: 622551 483619 476671 635367 566545
0110010011100000100001000: 622551 483619 476671 614800 551237
0110010011100000100001000: 622551 483619 476671 614800 635367
0110010010100010100000100: 622551 483619 476671 614800 566545
0111010100110001000100010: 622551 483619 554368 476671 566545
0110010011100000100001000: 638132 554368 566545 635367 622551
0110010010100010100000100: 638132 554368 566545 635367 476671
0110010010100010100000100: 638132 554368 566545 483619 476671
0110010011100000100001000: 638132 554368 566545 614800 622551
0110010011100000100001000: 638132 554368 566545 614800 635367
0110010010100010100000100: 638132 554368 566545 614800 476671
0110010011100000100001000: 638132 554368 566545 626287 622551
0110010011100000100001000: 638132 554368 566545 626287 635367
0110010011100000100001000: 638132 554368 566545 626287 483619
0110010010100010100000100: 638132 554368 566545 626287 476671
0110010011100000100001000: 551237 483619 656496 635367 622551
0110010011100000100001000: 551237 483619 656496 614800 622551
0110010011100000100001000: 551237 483619 656496 614800 635367
0110010011100000100001000: 551237 483619 574158 614800 622551
0110010010100010100000100: 574158 635367 551237 554368 656496
