Vertex,0110010011100000100001000,0110010011100110110001100,0111010101110001000101010,0111010101110001000001000,0111110100110001000010000,0111110000100001000010000,0111110110110001100010000,0111010100110001000100010,0110010010100010100000100,0110010011100100110001000,0111010110110011100000100
476869,33.0,1.0,0.0,0.0,0.0,2.0,0.0,4.0,31.0,17.0,0.0
591078,13.0,0.0,0.0,0.0,0.0,0.0,0.0,1.0,41.0,8.0,0.0
623413,39.0,1.0,1.0,2.0,4.0,6.0,1.0,5.0,33.0,28.0,0.0
510180,23.0,0.0,1.0,3.0,0.0,1.0,0.0,2.0,39.0,14.0,1.0
456960,5.0,0.0,0.0,0.0,0.0,0.0,0.0,0.0,19.0,1.0,0.0
557550,36.0,1.0,0.0,3.0,4.0,6.0,1.0,6.0,30.0,24.0,0.0
650961,59.0,1.0,1.0,9.0,6.0,8.0,4.0,16.0,40.0,26.0,1.0
508178,29.0,1.0,0.0,0.0,0.0,2.0,0.0,4.0,13.0,12.0,0.0
546179,18.0,0.0,0.0,0.0,0.0,1.0,0.0,4.0,15.0,9.0,0.0
624175,28.0,0.0,0.0,3.0,4.0,5.0,1.0,2.0,13.0,9.0,0.0
632512,26.0,0.0,1.0,6.0,3.0,4.0,4.0,8.0,25.0,10.0,1.0
592141,24.0,0.0,0.0,3.0,3.0,4.0,4.0,8.0,7.0,4.0,1.0
551543,20.0,0.0,1.0,9.0,6.0,1.0,4.0,16.0,26.0,3.0,1.0
587705,5.0,0.0,0.0,7.0,0.0,0.0,1.0,2.0,19.0,0.0,0.0
573104,2.0,0.0,0.0,0.0,0.0,0.0,0.0,2.0,14.0,0.0,0.0
graph,72.0,1.0,1.0,9.0,6.0,8.0,4.0,16.0,73.0,33.0,1.0
