0110010011100000100001000: 501011 516536 551366 515949 467287
0110010011100000100001000: 501011 516536 551366 640210 467287
0110010011100000100001000: 501011 516536 551366 640210 515949
0110010011100100110001000: 501011 516536 551366 573706 467287
0110010011100100110001000: 501011 516536 551366 573706 515949
0110010011100100110001000: 501011 516536 551366 573706 640210
0110010011100000100001000: 501011 516536 556219 515949 467287
0110010011100000100001000: 501011 516536 556219 640210 467287
0110010011100000100001000: 501011 516536 556219 640210 515949
0110010011100100110001000: 501011 516536 556219 573706 467287
0110010011100100110001000: 501011 516536 556219 573706 515949
0110010011100100110001000: 501011 516536 556219 573706 640210
0110010011100100110001000: 501011 556219 551366 573706 500336
0110010010100010100000100: 501011 556219 516536 500336 467287
0110010010100010100000100: 501011 556219 516536 500336 515949
0110010010100010100100110: 501011 556219 516536 500336 640210
0110010011100100110001000: 501011 556219 516536 573706 500336
0110010011100000100001000: 556219 573706 500336 534279 551366
0110010011100000100001000: 556219 573706 500336 528095 551366
0110010011100000100001000: 556219 573706 500336 528095 534279
0110010011100000100001000: 556219 573706 500336 516536 551366
0110010011100000100001000: 556219 573706 500336 516536 534279
0110010011100000100001000: 556219 573706 500336 516536 528095
0110010011100000100001000: 556219 573706 501011 528095 534279
0110010011100100110001000: 556219 573706 501011 551366 534279
0110010011100100110001000: 556219 573706 501011 551366 528095
0110010011100100110001000: 556219 573706 501011 516536 534279
0110010011100100110001000: 556219 573706 501011 516536 528095
0110010010100010100000100: 556219 500336 573706 640210 551366
0110010010100010100000100: 556219 500336 573706 640210 534279
0110010010100010100000100: 556219 500336 573706 640210 528095
0110010010100010100100110: 556219 500336 573706 640210 516536
0110010011100110110001100: 556219 501011 573706 516536 551366
0110010010100010100000100: 556219 501011 500336 551366 640210
0110010011100000100001000: 556219 501011 500336 516536 551366
0110010011100000100001000: 500336 640210 556219 580193 603020
0110010011100000100001000: 500336 640210 556219 516536 603020
0110010011100000100001000: 500336 640210 556219 516536 580193
0110010010100010100000100: 500336 556219 640210 573706 603020
0110010010100010100000100: 500336 556219 640210 573706 580193
0110010011100000100001000: 500336 556219 640210 501011 573706
0110010010100010100000100: 500336 556219 640210 501011 603020
0110010010100010100000100: 500336 556219 640210 501011 580193
0110010011100000100001000: 516536 467287 515949 653697 580193
0110010011100000100001000: 516536 467287 573706 653697 580193
0110010011100100110001000: 516536 467287 640210 580193 653697
0110010011100000100001000: 516536 467287 501011 653697 580193
0110010010100010100000100: 516536 515949 467287 504190 580193
0110010010100010100000100: 516536 515949 467287 504190 653697
0110010011100000100001000: 516536 515949 467287 505639 504190
0110010010100010100000100: 516536 515949 467287 505639 580193
0110010010100010100000100: 516536 515949 467287 505639 653697
0110010011100000100001000: 516536 515949 573706 505639 504190
0110010011100000100001000: 516536 515949 640210 505639 504190
0110010011100000100001000: 516536 515949 501011 505639 504190
0110010010100010100000100: 516536 573706 467287 551366 580193
0110010010100010100000100: 516536 573706 467287 551366 653697
0110010011100000100001000: 516536 573706 467287 534279 551366
0110010010100010100000100: 516536 573706 467287 534279 580193
0110010010100010100000100: 516536 573706 467287 534279 653697
0110010011100000100001000: 516536 573706 467287 528095 551366
0110010011100000100001000: 516536 573706 467287 528095 534279
0110010010100010100000100: 516536 573706 467287 528095 580193
0110010010100010100000100: 516536 573706 467287 528095 653697
0110010011100000100001000: 516536 573706 467287 556219 551366
0110010011100000100001000: 516536 573706 467287 556219 534279
0110010011100000100001000: 516536 573706 467287 556219 528095
0110010010100010100000100: 516536 573706 467287 556219 580193
0110010010100010100000100: 516536 573706 467287 556219 653697
0110010010100010100000100: 516536 573706 515949 551366 504190
0110010010100010100000100: 516536 573706 515949 551366 505639
0110010011100000100001000: 516536 573706 515949 534279 551366
0110010010100010100000100: 516536 573706 515949 534279 504190
0110010010100010100000100: 516536 573706 515949 534279 505639
0110010011100000100001000: 516536 573706 515949 528095 551366
0110010011100000100001000: 516536 573706 515949 528095 534279
0110010010100010100000100: 516536 573706 515949 528095 504190
0110010010100010100000100: 516536 573706 515949 528095 505639
0110010011100000100001000: 516536 573706 515949 556219 551366
0110010011100000100001000: 516536 573706 515949 556219 534279
0110010011100000100001000: 516536 573706 515949 556219 528095
0110010010100010100000100: 516536 573706 515949 556219 504190
0110010010100010100000100: 516536 573706 515949 556219 505639
0110010011100000100001000: 516536 573706 640210 534279 551366
0110010011100000100001000: 516536 573706 640210 528095 551366
0110010011100000100001000: 516536 573706 640210 528095 534279
0110010011100000100001000: 516536 573706 640210 556219 551366
0110010011100000100001000: 516536 573706 640210 556219 534279
0110010011100000100001000: 516536 573706 640210 556219 528095
0110010011100000100001000: 516536 573706 501011 528095 534279
0110010011100100110001000: 516536 573706 501011 551366 534279
0110010011100100110001000: 516536 573706 501011 551366 528095
0110010010100010100000100: 516536 640210 467287 603020 653697
0110010011100000100001000: 516536 640210 467287 500336 603020
0110010010100010100000100: 516536 640210 467287 500336 653697
0110010011100100110001000: 516536 640210 467287 580193 603020
0110010011100100110001000: 516536 640210 467287 580193 500336
0110010010100010100000100: 516536 640210 515949 603020 504190
0110010010100010100000100: 516536 640210 515949 603020 505639
0110010011100000100001000: 516536 640210 515949 580193 603020
0110010010100010100000100: 516536 640210 515949 580193 504190
0110010010100010100000100: 516536 640210 515949 580193 505639
0110010011100000100001000: 516536 640210 515949 500336 603020
0110010011100000100001000: 516536 640210 515949 500336 580193
0110010010100010100000100: 516536 640210 515949 500336 504190
0110010010100010100000100: 516536 640210 515949 500336 505639
0111110000100001000010000: 516536 640210 573706 515949 467287
0110010010100010100000100: 516536 640210 573706 603020 551366
0110010010100010100000100: 516536 640210 573706 603020 534279
0110010010100010100000100: 516536 640210 573706 603020 528095
0110010010100010100000100: 516536 640210 573706 603020 556219
0110010011100000100001000: 516536 640210 573706 580193 603020
0110010010100010100000100: 516536 640210 573706 580193 551366
0110010010100010100000100: 516536 640210 573706 580193 534279
0110010010100010100000100: 516536 640210 573706 580193 528095
0110010010100010100000100: 516536 640210 573706 580193 556219
0110010011100000100001000: 516536 640210 573706 500336 603020
0110010011100000100001000: 516536 640210 573706 500336 580193
0110010010100010100000100: 516536 640210 573706 500336 551366
0110010010100010100000100: 516536 640210 573706 500336 534279
0110010010100010100000100: 516536 640210 573706 500336 528095
0110010011100000100001000: 516536 640210 501011 580193 603020
0110010011100000100001000: 516536 640210 501011 500336 603020
0110010011100000100001000: 516536 640210 501011 500336 580193
0110010010100010100000100: 516536 501011 467287 551366 580193
0110010010100010100000100: 516536 501011 467287 551366 653697
0110010011100000100001000: 516536 501011 467287 556219 551366
0110010010100010100000100: 516536 501011 467287 556219 580193
0110010010100010100000100: 516536 501011 467287 556219 653697
0110010010100010100000100: 516536 501011 515949 551366 504190
0110010010100010100000100: 516536 501011 515949 551366 505639
0110010011100000100001000: 516536 501011 515949 556219 551366
0110010010100010100000100: 516536 501011 515949 556219 504190
0110010010100010100000100: 516536 501011 515949 556219 505639
0111110000100001000010000: 516536 501011 573706 515949 467287
0111110000100001000010000: 516536 501011 640210 515949 467287
0111110000100001000010000: 516536 501011 640210 573706 467287
0111110000100001000010000: 516536 501011 640210 573706 515949
0110010010100010100000100: 516536 501011 640210 551366 603020
0110010010100010100000100: 516536 501011 640210 551366 580193
0110010010100010100000100: 516536 501011 640210 551366 500336
0110010011100000100001000: 516536 501011 640210 556219 551366
0110010010100010100000100: 516536 501011 640210 556219 603020
0110010010100010100000100: 516536 501011 640210 556219 580193
0110010010100010100000100: 640210 580193 603020 467287 631437
0110010010100010100000100: 640210 516536 603020 467287 631437
0110010011100000100001000: 640210 516536 603020 515949 467287
0110010010100010100000100: 640210 516536 603020 515949 631437
0110010011100000100001000: 640210 516536 603020 573706 467287
0110010011100000100001000: 640210 516536 603020 573706 515949
0110010010100010100000100: 640210 516536 603020 573706 631437
0110010011100000100001000: 640210 516536 603020 501011 467287
0110010011100000100001000: 640210 516536 603020 501011 515949
0110010011100000100001000: 640210 516536 603020 501011 573706
0110010010100010100000100: 640210 516536 603020 501011 631437
0110010011100000100001000: 640210 516536 580193 573706 515949
0110010011100000100001000: 640210 516536 580193 501011 515949
0110010011100000100001000: 640210 516536 580193 501011 573706
0110010011100100110001000: 640210 516536 580193 467287 515949
0110010011100100110001000: 640210 516536 580193 467287 573706
0110010011100100110001000: 640210 516536 580193 467287 501011
0110010011100000100001000: 640210 516536 500336 515949 467287
0110010011100000100001000: 640210 516536 500336 573706 467287
0110010011100000100001000: 640210 516536 500336 573706 515949
0110010011100000100001000: 640210 516536 500336 501011 467287
0110010011100000100001000: 640210 516536 500336 501011 515949
0110010011100000100001000: 640210 516536 500336 501011 573706
0110010010100010100000100: 640210 500336 603020 556219 631437
0110010010100010100000100: 640210 500336 580193 556219 467287
0111110000100001000010000: 640210 500336 516536 580193 603020
0110010010100010100000100: 640210 500336 516536 556219 467287
0110010010100010100000100: 640210 500336 516536 556219 515949
0110010010100010100000100: 573706 534279 551366 631437 501011
0110010011100000100001000: 573706 534279 551366 643646 631437
0110010010100010100000100: 573706 534279 551366 643646 501011
0110010011100000100001000: 573706 534279 528095 643646 631437
0110010011100000100001000: 573706 534279 516536 643646 631437
0110010011100000100001000: 573706 534279 556219 643646 631437
0110010010100010100000100: 573706 528095 551366 631960 501011
0110010010100010100000100: 573706 528095 534279 631960 631437
0110010010100010100000100: 573706 528095 534279 631960 643646
0110010011100000100001000: 573706 516536 551366 515949 467287
0110010011100000100001000: 573706 516536 551366 640210 467287
0110010011100000100001000: 573706 516536 551366 640210 515949
0110010010100010100000100: 573706 516536 534279 467287 631437
0110010010100010100000100: 573706 516536 534279 467287 643646
0110010011100000100001000: 573706 516536 534279 515949 467287
0110010010100010100000100: 573706 516536 534279 515949 631437
0110010010100010100000100: 573706 516536 534279 515949 643646
0110010011100000100001000: 573706 516536 534279 640210 467287
0110010011100000100001000: 573706 516536 534279 640210 515949
0110010010100010100000100: 573706 516536 534279 640210 631437
0110010010100010100000100: 573706 516536 534279 640210 643646
0110010011100000100001000: 573706 516536 534279 501011 467287
0110010011100000100001000: 573706 516536 534279 501011 515949
0110010011100000100001000: 573706 516536 534279 501011 640210
0110010010100010100000100: 573706 516536 534279 501011 631437
0110010010100010100000100: 573706 516536 534279 501011 643646
0111110000100001000010000: 573706 516536 528095 534279 551366
0110010010100010100000100: 573706 516536 528095 467287 631960
0110010011100000100001000: 573706 516536 528095 515949 467287
0110010010100010100000100: 573706 516536 528095 515949 631960
0110010011100000100001000: 573706 516536 528095 640210 467287
0110010011100000100001000: 573706 516536 528095 640210 515949
0110010010100010100000100: 573706 516536 528095 640210 631960
0110010011100000100001000: 573706 516536 528095 501011 467287
0110010011100000100001000: 573706 516536 528095 501011 515949
0110010011100000100001000: 573706 516536 528095 501011 640210
0110010010100010100000100: 573706 516536 528095 501011 631960
0110010011100000100001000: 573706 516536 556219 515949 467287
0110010011100000100001000: 573706 516536 556219 640210 467287
0110010011100000100001000: 573706 516536 556219 640210 515949
0110010010100010100000100: 573706 556219 534279 500336 631437
0110010010100010100000100: 573706 556219 534279 500336 643646
0110010011100000100001000: 573706 556219 534279 501011 500336
0110010010100010100000100: 573706 556219 534279 501011 631437
0110010010100010100000100: 573706 556219 534279 501011 643646
0111110000100001000010000: 573706 556219 528095 534279 551366
0110010010100010100000100: 573706 556219 528095 500336 631960
0110010011100000100001000: 573706 556219 528095 501011 500336
0110010010100010100000100: 573706 556219 528095 501011 631960
0111110000100001000010000: 573706 556219 516536 534279 551366
0111110000100001000010000: 573706 556219 516536 528095 551366
0111110000100001000010000: 573706 556219 516536 528095 534279
0110010010100010100000100: 573706 556219 516536 500336 467287
0110010010100010100000100: 573706 556219 516536 500336 515949
0110010010100010100000100: 528095 573706 631960 551366 504190
0110010011100000100001000: 528095 573706 631960 534279 551366
0110010010100010100000100: 528095 573706 631960 534279 504190
0110010011100000100001000: 528095 573706 631960 516536 551366
0110010011100000100001000: 528095 573706 631960 516536 534279
0110010010100010100000100: 528095 573706 631960 516536 504190
0110010011100000100001000: 528095 573706 631960 556219 551366
0110010011100000100001000: 528095 573706 631960 556219 534279
0110010011100000100001000: 528095 573706 631960 556219 516536
0110010010100010100000100: 528095 573706 631960 556219 504190
0110010011100000100001000: 643646 653697 534279 467787 467287
0110010010100010100000100: 643646 534279 653697 631437 467287
0110010010100010100000100: 643646 534279 653697 631437 467787
0110010011100000100001000: 643646 534279 653697 573706 631437
0110010010100010100000100: 643646 534279 653697 573706 467287
0110010010100010100000100: 643646 534279 653697 573706 467787
0110010010100010100000100: 534279 643646 631437 653697 603020
0110010010100010100000100: 534279 573706 631437 551366 603020
0110010011100000100001000: 534279 573706 631437 528095 551366
0110010010100010100000100: 534279 573706 631437 528095 603020
0110010011100000100001000: 534279 573706 631437 516536 551366
0110010011100000100001000: 534279 573706 631437 516536 528095
0110010010100010100000100: 534279 573706 631437 516536 603020
0110010011100000100001000: 534279 573706 631437 556219 551366
0110010011100000100001000: 534279 573706 631437 556219 528095
0110010011100000100001000: 534279 573706 631437 556219 516536
0110010010100010100000100: 534279 573706 631437 556219 603020
0110010010100010100000100: 534279 573706 643646 551366 653697
0110010011100000100001000: 534279 573706 643646 528095 551366
0110010010100010100000100: 534279 573706 643646 528095 653697
0110010011100000100001000: 534279 573706 643646 516536 551366
0110010011100000100001000: 534279 573706 643646 516536 528095
0110010010100010100000100: 534279 573706 643646 516536 653697
0110010011100000100001000: 534279 573706 643646 556219 551366
0110010011100000100001000: 534279 573706 643646 556219 528095
0110010011100000100001000: 534279 573706 643646 556219 516536
0110010010100010100000100: 534279 573706 643646 556219 653697
0110010011100000100001000: 653697 467287 467787 516536 580193
0110010011100000100001000: 653697 467287 643646 516536 580193
0110010010100010100000100: 653697 467787 467287 505639 580193
0110010010100010100000100: 653697 467787 467287 505639 516536
0110010010100010100000100: 653697 643646 467287 534279 580193
0110010010100010100000100: 653697 643646 467287 534279 516536
0110010010100010100000100: 653697 643646 467787 534279 505639
0110010011100000100001000: 505639 515949 467787 516536 504190
0110010010100010100000100: 505639 467787 515949 653697 504190
0110010010100010100000100: 505639 467787 515949 653697 516536
0110010010100010100000100: 467787 653697 505639 467287 515949
0110010011100000100001000: 467787 653697 505639 643646 467287
0110010010100010100000100: 467787 653697 505639 643646 515949
0110010010100010100000100: 504190 515949 631960 505639 528095
0110010011100000100001000: 504190 515949 631960 516536 505639
0110010010100010100000100: 504190 515949 631960 516536 528095
0110010010100010100000100: 515949 505639 504190 467787 631960
0110010010100010100000100: 515949 516536 504190 467287 631960
0110010011100000100001000: 515949 516536 504190 573706 467287
0110010010100010100000100: 515949 516536 504190 573706 631960
0110010011100000100001000: 515949 516536 504190 640210 467287
0110010011100000100001000: 515949 516536 504190 640210 573706
0110010010100010100000100: 515949 516536 504190 640210 631960
0110010011100000100001000: 515949 516536 504190 501011 467287
0110010011100000100001000: 515949 516536 504190 501011 573706
0110010011100000100001000: 515949 516536 504190 501011 640210
0110010010100010100000100: 515949 516536 504190 501011 631960
0110010010100010100000100: 515949 516536 505639 467287 467787
0110010011100000100001000: 515949 516536 505639 573706 467287
0110010010100010100000100: 515949 516536 505639 573706 467787
0110010011100000100001000: 515949 516536 505639 640210 467287
0110010011100000100001000: 515949 516536 505639 640210 573706
0110010010100010100000100: 515949 516536 505639 640210 467787
0110010011100000100001000: 515949 516536 505639 501011 467287
0110010011100000100001000: 515949 516536 505639 501011 573706
0110010011100000100001000: 515949 516536 505639 501011 640210
0110010010100010100000100: 515949 516536 505639 501011 467787
0110010010100010100000100: 631960 528095 504190 573706 515949
0110010011100000100001000: 551366 573706 501011 528095 534279
0110010010100010100000100: 467287 653697 580193 467787 640210
0110010011100000100001000: 467287 653697 580193 643646 467787
0110010010100010100000100: 467287 653697 580193 643646 640210
0110010011100000100001000: 467287 653697 516536 643646 467787
0110010011100000100001000: 467287 516536 580193 573706 515949
0110010011100000100001000: 467287 516536 580193 501011 515949
0110010011100000100001000: 467287 516536 580193 501011 573706
0110010010100010100000100: 467287 516536 653697 515949 467787
0110010010100010100000100: 467287 516536 653697 515949 643646
0110010011100000100001000: 467287 516536 653697 573706 515949
0110010010100010100000100: 467287 516536 653697 573706 467787
0110010010100010100000100: 467287 516536 653697 573706 643646
0110010011100000100001000: 467287 516536 653697 640210 515949
0110010011100000100001000: 467287 516536 653697 640210 573706
0110010010100010100000100: 467287 516536 653697 640210 467787
0110010010100010100000100: 467287 516536 653697 640210 643646
0110010011100000100001000: 467287 516536 653697 501011 515949
0110010011100000100001000: 467287 516536 653697 501011 573706
0110010011100000100001000: 467287 516536 653697 501011 640210
0110010010100010100000100: 467287 516536 653697 501011 467787
0110010010100010100000100: 467287 516536 653697 501011 643646
0110010010100010100000100: 580193 640210 467287 603020 653697
0110010011100000100001000: 580193 640210 467287 500336 603020
0110010010100010100000100: 580193 640210 467287 500336 653697
0110010010100010100000100: 631437 534279 603020 643646 640210
0110010011100000100001000: 631437 534279 603020 573706 643646
0110010010100010100000100: 631437 534279 603020 573706 640210
0110010010100010100000100: 603020 640210 631437 580193 534279
0110010011100000100001000: 603020 640210 631437 516536 580193
0110010010100010100000100: 603020 640210 631437 516536 534279
0110010011100000100001000: 603020 640210 631437 500336 580193
0110010011100000100001000: 603020 640210 631437 500336 516536
0110010010100010100000100: 603020 640210 631437 500336 534279
