0110101111000100: 462515 561428 533407 603064
0110101111000100: 462515 561428 533407 531016
0110101111000100: 462515 561428 533407 603064
0110101111000100: 462515 561428 533407 531016
0110101111010110: 462515 561428 533407 462691
0110101111010110: 462515 561428 533407 542204
0110101111010110: 462515 561428 533407 462691
0110101111010110: 462515 561428 533407 542204
0110101111010110: 462515 561428 533407 462691
0110101111010110: 462515 561428 533407 542204
0110101011010010: 462515 533407 561428 603064
0110101011010010: 462515 533407 561428 531016
0110101011010010: 462515 533407 561428 603064
0110101011010010: 462515 533407 561428 531016
0110101111010110: 462515 533407 561428 462691
0110101111010110: 462515 533407 561428 542204
0110101111010110: 462515 533407 561428 462691
0110101111010110: 462515 533407 561428 542204
0110101111010110: 462515 533407 561428 462691
0110101111010110: 462515 533407 561428 542204
0111101011001000: 533407 462691 542204 462515
0111101111011110: 533407 462691 542204 561428
0111101111011110: 533407 462691 561428 542204
0111101011001000: 533407 542204 462691 462515
0111101111011110: 533407 542204 462691 561428
0111101111011110: 533407 542204 561428 462691
0111101111011110: 533407 561428 462691 542204
0111101111011110: 533407 561428 542204 462691
0111101111001100: 533407 561428 462515 462691
0111101111001100: 533407 561428 462515 542204
0110100110000100: 533407 462691 462515 573390
0110100110000100: 533407 462691 462515 496265
0110100110000100: 533407 462691 462515 603064
0110100110000100: 533407 462691 462515 573390
0110100110000100: 533407 462691 462515 496265
0110100110000100: 533407 462691 462515 603064
0110100110000100: 533407 462691 462515 573390
0110100110000100: 533407 462691 462515 496265
0110100110000100: 533407 462691 462515 603064
0111100110001100: 533407 462691 462515 542204
0111101011001000: 533407 462691 542204 462515
0110101011010010: 533407 462691 542204 508176
0110101011010010: 533407 462691 542204 508176
0111101011001000: 533407 462691 542204 462515
0111101111011110: 533407 462691 542204 561428
0110101011010010: 533407 462691 561428 531016
0110101011010010: 533407 462691 561428 531016
0111101011011010: 533407 462691 561428 462515
0111101011011010: 533407 462691 561428 462515
0111101011011010: 533407 462691 561428 462515
0111101111011110: 533407 462691 561428 542204
0111101111011110: 533407 462691 561428 542204
0111101011001000: 533407 462691 542204 462515
0111101011001000: 533407 462691 542204 462515
0110101111000100: 533407 462691 542204 573390
0110101111000100: 533407 462691 542204 496265
0110101111000100: 533407 462691 542204 603064
0110101111000100: 533407 462691 542204 573390
0110101111000100: 533407 462691 542204 496265
0110101111000100: 533407 462691 542204 603064
0111101011001000: 533407 462691 542204 462515
0110101011010010: 533407 462691 542204 508176
0111101111011110: 533407 462691 542204 561428
0111101011001000: 533407 462691 542204 462515
0111101111011110: 533407 462691 542204 561428
0111101111011110: 533407 462691 542204 561428
0111101111011110: 533407 462691 542204 561428
0110101111000100: 533407 462691 561428 573390
0110101111000100: 533407 462691 561428 496265
0110101111000100: 533407 462691 561428 573390
0110101111000100: 533407 462691 561428 496265
0110101111010110: 533407 462691 561428 603064
0110101111010110: 533407 462691 561428 603064
0110101111000100: 533407 462691 561428 573390
0110101111000100: 533407 462691 561428 496265
0110101111010110: 533407 462691 561428 603064
0111101111011110: 533407 462691 561428 542204
0111101111011110: 533407 462691 561428 542204
0111101011011010: 533407 462691 561428 462515
0111101111011110: 533407 462691 561428 542204
0111101111011110: 533407 462691 561428 542204
0110100110000100: 533407 462691 462515 573390
0110100110000100: 533407 462691 462515 496265
0110100110000100: 533407 462691 462515 603064
0110100110000100: 533407 462691 462515 573390
0110100110000100: 533407 462691 462515 496265
0110100110000100: 533407 462691 462515 603064
0111100110001100: 533407 462691 462515 542204
0111100110001100: 533407 462691 462515 542204
0111100110001100: 533407 462691 462515 542204
0111100110011110: 533407 462691 462515 561428
0111101011001000: 533407 462691 542204 462515
0111101111011110: 533407 462691 542204 561428
0111101011011010: 533407 462691 561428 462515
0111101111011110: 533407 462691 561428 542204
0110100110000100: 533407 542204 462515 508176
0110100110000100: 533407 542204 462515 508176
0110100110000100: 533407 542204 462515 508176
0111100110001100: 533407 542204 462515 462691
0111101011001000: 533407 542204 462691 462515
0110101011010010: 533407 542204 462691 573390
0110101011010010: 533407 542204 462691 496265
0110101011010010: 533407 542204 462691 603064
0110101011010010: 533407 542204 462691 573390
0110101011010010: 533407 542204 462691 496265
0110101011010010: 533407 542204 462691 603064
0111101011001000: 533407 542204 462691 462515
0111101111011110: 533407 542204 462691 561428
0110101011010010: 533407 542204 561428 603064
0110101011010010: 533407 542204 561428 531016
0110101011010010: 533407 542204 561428 603064
0110101011010010: 533407 542204 561428 531016
0111101011011010: 533407 542204 561428 462515
0111101011011010: 533407 542204 561428 462515
0111101011011010: 533407 542204 561428 462515
0111101111011110: 533407 542204 561428 462691
0111101111011110: 533407 542204 561428 462691
0111101011001000: 533407 542204 462691 462515
0111101011001000: 533407 542204 462691 462515
0110101111000100: 533407 542204 462691 508176
0110101111000100: 533407 542204 462691 508176
0111101011001000: 533407 542204 462691 462515
0110101111000100: 533407 542204 462691 508176
0111101111011110: 533407 542204 462691 561428
0111101011001000: 533407 542204 462691 462515
0111101111011110: 533407 542204 462691 561428
0111101111011110: 533407 542204 462691 561428
0111101111011110: 533407 542204 462691 561428
0110101111000100: 533407 542204 561428 508176
0110101111000100: 533407 542204 561428 508176
0110101111000100: 533407 542204 561428 508176
0111101111011110: 533407 542204 561428 462691
0111101111011110: 533407 542204 561428 462691
0111101011011010: 533407 542204 561428 462515
0111101111011110: 533407 542204 561428 462691
0111101111011110: 533407 542204 561428 462691
0110100110000100: 533407 542204 462515 508176
0110100110000100: 533407 542204 462515 508176
0111100110001100: 533407 542204 462515 462691
0111100110001100: 533407 542204 462515 462691
0111100110001100: 533407 542204 462515 462691
0111100110011110: 533407 542204 462515 561428
0111101011001000: 533407 542204 462691 462515
0111101011001000: 533407 542204 462691 462515
0111101011001000: 533407 542204 462691 462515
0111101111011110: 533407 542204 462691 561428
0111101011001000: 533407 542204 462691 462515
0111101111011110: 533407 542204 462691 561428
0111101111011110: 533407 542204 462691 561428
0111101011011010: 533407 542204 561428 462515
0111101111011110: 533407 542204 561428 462691
0110101011010010: 533407 561428 462691 573390
0110101011010010: 533407 561428 462691 496265
0110101011010010: 533407 561428 462691 573390
0110101011010010: 533407 561428 462691 496265
0111101111011110: 533407 561428 462691 542204
0110101011010010: 533407 561428 542204 508176
0110101011010010: 533407 561428 542204 508176
0111101111011110: 533407 561428 542204 462691
0111101111011110: 533407 561428 542204 462691
0111101111001100: 533407 561428 462515 462691
0111101111001100: 533407 561428 462515 542204
0110101111000100: 533407 561428 462691 531016
0110101111000100: 533407 561428 462691 531016
0111101111001100: 533407 561428 462691 462515
0111101111001100: 533407 561428 462691 462515
0110101111010110: 533407 561428 462691 603064
0110101111010110: 533407 561428 462691 603064
0110101111000100: 533407 561428 462691 531016
0110101111010110: 533407 561428 462691 603064
0111101111011110: 533407 561428 462691 542204
0111101111011110: 533407 561428 462691 542204
0111101111011110: 533407 561428 462691 542204
0111101111011110: 533407 561428 462691 542204
0110101111000100: 533407 561428 542204 603064
0110101111000100: 533407 561428 542204 531016
0110101111000100: 533407 561428 542204 603064
0110101111000100: 533407 561428 542204 531016
0111101111001100: 533407 561428 542204 462515
0111101111001100: 533407 561428 542204 462515
0110101011010010: 533407 561428 542204 508176
0111101111011110: 533407 561428 542204 462691
0111101111011110: 533407 561428 542204 462691
0111101111011110: 533407 561428 542204 462691
0111101111011110: 533407 561428 542204 462691
0110101111000100: 533407 561428 462515 603064
0110101111000100: 533407 561428 462515 531016
0110101111000100: 533407 561428 462515 603064
0110101111000100: 533407 561428 462515 531016
0111101111001100: 533407 561428 462515 462691
0111101111001100: 533407 561428 462515 542204
0111101111001100: 533407 561428 462515 462691
0111101111001100: 533407 561428 462515 542204
0111101111001100: 533407 561428 462515 462691
0111101111001100: 533407 561428 462515 542204
0111101111001100: 533407 561428 462691 462515
0111101111001100: 533407 561428 462691 462515
0111101111011110: 533407 561428 462691 542204
0111101111011110: 533407 561428 462691 542204
0111101111011110: 533407 561428 462691 542204
0111101111001100: 533407 561428 542204 462515
0111101111001100: 533407 561428 542204 462515
0111101111011110: 533407 561428 542204 462691
0111101111011110: 533407 561428 542204 462691
0111101111011110: 533407 561428 542204 462691
0111101111011110: 533407 561428 542204 462691
0111101111001100: 533407 561428 462515 462691
0111101111001100: 533407 561428 462515 542204
0111101111001100: 533407 561428 462515 462691
0111101111001100: 533407 561428 462515 542204
0111101111001100: 533407 561428 462515 462691
0111101111001100: 533407 561428 462515 542204
0110100010010010: 533407 462515 462691 573390
0110100010010010: 533407 462515 462691 496265
0110100010010010: 533407 462515 462691 603064
0111100010011010: 533407 462515 462691 542204
0110100010010010: 533407 462515 542204 508176
0111100010011010: 533407 462515 542204 462691
0111101011011010: 533407 462515 561428 462691
0111101011011010: 533407 462515 561428 542204
0111101011011010: 533407 462515 561428 462691
0111101011011010: 533407 462515 561428 542204
0111101011011010: 533407 462515 561428 462691
0111101011011010: 533407 462515 561428 542204
0111101011001000: 561428 603064 462691 531016
0111101011001000: 561428 603064 462691 462515
0111101011001000: 561428 462691 603064 531016
0111101011001000: 561428 462691 603064 462515
0111101011001000: 561428 462691 542204 531016
0111101011001000: 561428 462691 542204 462515
0111101111001100: 561428 462691 542204 603064
0111101111011110: 561428 462691 542204 533407
0111101011001000: 561428 462691 533407 531016
0111101111001100: 561428 462691 533407 603064
0111101111011110: 561428 462691 533407 542204
0101101001001000: 561428 531016 632913 603064
0101101001001000: 561428 531016 632913 462691
0101101001001000: 561428 531016 632913 542204
0101101001001000: 561428 531016 632913 533407
0101101001001000: 561428 531016 632913 462515
0101101001001000: 561428 531016 508176 603064
0101101001001000: 561428 531016 508176 462691
0101101001001000: 561428 531016 508176 533407
0101101001001000: 561428 531016 508176 462515
0100101101000100: 561428 531016 508176 632913
0111100010001000: 561428 542204 531016 603064
0110100110010110: 561428 542204 531016 508176
0111101011001000: 561428 542204 462691 531016
0111101011001000: 561428 542204 462691 462515
0111101111011110: 561428 542204 462691 533407
0111101011001000: 561428 542204 533407 603064
0111101011001000: 561428 542204 533407 531016
0111101111011110: 561428 542204 533407 462691
0101101001001000: 561428 542204 508176 603064
0101101001001000: 561428 542204 508176 462515
0101101101001100: 561428 542204 508176 462691
0101101101001100: 561428 542204 508176 533407
0111100010001000: 561428 533407 531016 603064
0111101011001000: 561428 533407 462691 531016
0111101111011110: 561428 533407 462691 542204
0111101011001000: 561428 533407 542204 603064
0111101011001000: 561428 533407 542204 531016
0111101111011110: 561428 533407 542204 462691
0111101011001000: 561428 533407 462515 603064
0111101011001000: 561428 533407 462515 531016
0111101111001100: 561428 533407 462515 462691
0111101111001100: 561428 533407 462515 542204
0111100010001000: 561428 462515 531016 603064
0111100010001000: 561428 462515 531016 462691
0111100010001000: 561428 462515 542204 603064
0111100010001000: 561428 462515 542204 531016
0111101011001000: 561428 462515 533407 603064
0111101011001000: 561428 462515 533407 531016
0110100010010010: 561428 603064 531016 632913
0110100010010010: 561428 603064 531016 508176
0110100010010010: 561428 603064 531016 632913
0110100010010010: 561428 603064 531016 508176
0111100010001000: 561428 603064 542204 531016
0110100010010010: 561428 603064 542204 508176
0111100010011010: 561428 603064 542204 533407
0110100010010010: 561428 603064 542204 508176
0111100010001000: 561428 603064 533407 531016
0111100010011010: 561428 603064 533407 542204
0111100010011010: 561428 603064 533407 462515
0111100010001000: 561428 603064 462515 531016
0111100010001000: 561428 603064 462515 542204
0111100010011010: 561428 603064 462515 533407
0111100110001100: 561428 603064 531016 462691
0111100110001100: 561428 603064 462515 462691
0111101011001000: 561428 603064 462691 531016
0111101011001000: 561428 603064 462691 462515
0110101011010010: 561428 603064 462691 573390
0110101011010010: 561428 603064 462691 496265
0110101011010010: 561428 603064 462691 573390
0110101011010010: 561428 603064 462691 496265
0111101011011010: 561428 603064 462691 542204
0111101011011010: 561428 603064 462691 533407
0111101011011010: 561428 603064 462691 542204
0111101011011010: 561428 603064 462691 533407
0111101011011010: 561428 603064 462691 542204
0111101011011010: 561428 603064 462691 533407
0111101011001000: 561428 603064 462691 531016
0111101011001000: 561428 603064 462691 462515
0111101011001000: 561428 603064 462691 531016
0111101011001000: 561428 603064 462691 462515
0111101011001000: 561428 603064 462691 531016
0111101011001000: 561428 603064 462691 462515
0110100110000100: 561428 462691 531016 573390
0110100110000100: 561428 462691 531016 496265
0110100010010010: 561428 462691 531016 632913
0110100010010010: 561428 462691 531016 508176
0110100010010010: 561428 462691 531016 632913
0110100010010010: 561428 462691 531016 508176
0111100010001000: 561428 462691 462515 531016
0110100110000100: 561428 462691 462515 573390
0110100110000100: 561428 462691 462515 496265
0110100110000100: 561428 462691 531016 573390
0110100110000100: 561428 462691 531016 496265
0110100110000100: 561428 462691 531016 573390
0110100110000100: 561428 462691 531016 496265
0111100110001100: 561428 462691 531016 603064
0111100110001100: 561428 462691 531016 542204
0111100110001100: 561428 462691 531016 533407
0110100010010010: 561428 462691 531016 632913
0110100010010010: 561428 462691 531016 508176
0110100110000100: 561428 462691 462515 573390
0110100110000100: 561428 462691 462515 496265
0110100110000100: 561428 462691 462515 573390
0110100110000100: 561428 462691 462515 496265
0111100110001100: 561428 462691 462515 603064
0111100110001100: 561428 462691 462515 542204
0111101011001000: 561428 462691 603064 531016
0111101011001000: 561428 462691 603064 462515
0111101011001000: 561428 462691 542204 531016
0111101011001000: 561428 462691 542204 462515
0110101011010010: 561428 462691 542204 508176
0110101011010010: 561428 462691 542204 508176
0111101111001100: 561428 462691 542204 603064
0110101011010010: 561428 462691 542204 508176
0110101011010010: 561428 462691 542204 508176
0110101011010010: 561428 462691 542204 508176
0111101111011110: 561428 462691 542204 533407
0111101011001000: 561428 462691 533407 531016
0111101111001100: 561428 462691 533407 603064
0111101011011010: 561428 462691 533407 462515
0111101011011010: 561428 462691 533407 462515
0111101011011010: 561428 462691 533407 462515
0111101111011110: 561428 462691 533407 542204
0111101111011110: 561428 462691 533407 542204
0111100010001000: 561428 462691 531016 462515
0111100010001000: 561428 462691 531016 462515
0110100010010010: 561428 462691 531016 632913
0110100010010010: 561428 462691 531016 508176
0111100010001000: 561428 462691 462515 531016
0111100010001000: 561428 462691 462515 531016
0111101011001000: 561428 462691 603064 531016
0111101011001000: 561428 462691 603064 462515
0111101011001000: 561428 462691 603064 531016
0111101011001000: 561428 462691 603064 462515
0110101111000100: 561428 462691 603064 573390
0110101111000100: 561428 462691 603064 496265
0110101111000100: 561428 462691 603064 573390
0110101111000100: 561428 462691 603064 496265
0111101111001100: 561428 462691 603064 542204
0111101111001100: 561428 462691 603064 533407
0111101011001000: 561428 462691 603064 531016
0111101011001000: 561428 462691 603064 462515
0111101111001100: 561428 462691 603064 542204
0111101111001100: 561428 462691 603064 533407
0111101011001000: 561428 462691 542204 531016
0111101011001000: 561428 462691 542204 462515
0111101011001000: 561428 462691 542204 531016
0111101011001000: 561428 462691 542204 462515
0110101111000100: 561428 462691 542204 573390
0110101111000100: 561428 462691 542204 496265
0110101111000100: 561428 462691 542204 573390
0110101111000100: 561428 462691 542204 496265
0111101111001100: 561428 462691 542204 603064
0111101011001000: 561428 462691 542204 531016
0111101011001000: 561428 462691 542204 462515
0111101111001100: 561428 462691 542204 603064
0111101111001100: 561428 462691 542204 603064
0110101011010010: 561428 462691 542204 508176
0110101011010010: 561428 462691 542204 508176
0111101111011110: 561428 462691 542204 533407
0111101111011110: 561428 462691 542204 533407
0111101111011110: 561428 462691 542204 533407
0111101111011110: 561428 462691 542204 533407
0111101011001000: 561428 462691 533407 531016
0111101011001000: 561428 462691 533407 531016
0110101111000100: 561428 462691 533407 573390
0110101111000100: 561428 462691 533407 496265
0110101111000100: 561428 462691 533407 573390
0110101111000100: 561428 462691 533407 496265
0111101111001100: 561428 462691 533407 603064
0111101011001000: 561428 462691 533407 531016
0111101111001100: 561428 462691 533407 603064
0111101111001100: 561428 462691 533407 603064
0111101111011110: 561428 462691 533407 542204
0111101111011110: 561428 462691 533407 542204
0111101011011010: 561428 462691 533407 462515
0111101111011110: 561428 462691 533407 542204
0111101111011110: 561428 462691 533407 542204
0110100110000100: 561428 462691 531016 573390
0110100110000100: 561428 462691 531016 496265
0110100110000100: 561428 462691 531016 573390
0110100110000100: 561428 462691 531016 496265
0111100110001100: 561428 462691 531016 603064
0111100110001100: 561428 462691 531016 542204
0111100110001100: 561428 462691 531016 533407
0111100110001100: 561428 462691 531016 603064
0111100110001100: 561428 462691 531016 542204
0111100110001100: 561428 462691 531016 533407
0111100110001100: 561428 462691 531016 603064
0111100110001100: 561428 462691 531016 542204
0111100110001100: 561428 462691 531016 533407
0111100010001000: 561428 462691 531016 462515
0110100010010010: 561428 462691 531016 632913
0110100010010010: 561428 462691 531016 508176
0110100010010010: 561428 462691 531016 632913
0110100010010010: 561428 462691 531016 508176
0110100110000100: 561428 462691 462515 573390
0110100110000100: 561428 462691 462515 496265
0110100110000100: 561428 462691 462515 573390
0110100110000100: 561428 462691 462515 496265
0111100110001100: 561428 462691 462515 603064
0111100110001100: 561428 462691 462515 542204
0111100110001100: 561428 462691 462515 603064
0111100110001100: 561428 462691 462515 542204
0111100110001100: 561428 462691 462515 603064
0111100110001100: 561428 462691 462515 542204
0111100010001000: 561428 462691 462515 531016
0111100010001000: 561428 462691 462515 531016
0111100110011110: 561428 462691 462515 533407
0111101011001000: 561428 462691 603064 531016
0111101011001000: 561428 462691 603064 462515
0111101011001000: 561428 462691 603064 531016
0111101011001000: 561428 462691 603064 462515
0111101111001100: 561428 462691 603064 542204
0111101111001100: 561428 462691 603064 533407
0111101111001100: 561428 462691 603064 542204
0111101111001100: 561428 462691 603064 533407
0111101011001000: 561428 462691 603064 531016
0111101011001000: 561428 462691 603064 462515
0111101111001100: 561428 462691 542204 603064
0111101111001100: 561428 462691 542204 603064
0111101011001000: 561428 462691 542204 531016
0111101011001000: 561428 462691 542204 462515
0111101111001100: 561428 462691 542204 603064
0110101011010010: 561428 462691 542204 508176
0111101111011110: 561428 462691 542204 533407
0111101111001100: 561428 462691 533407 603064
0111101111001100: 561428 462691 533407 603064
0111101011001000: 561428 462691 533407 531016
0111101111001100: 561428 462691 533407 603064
0111101011011010: 561428 462691 533407 462515
0111101111011110: 561428 462691 533407 542204
0110100110000100: 561428 531016 603064 632913
0110100110000100: 561428 531016 603064 508176
0111100010011010: 561428 531016 603064 462691
0110100110000100: 561428 531016 462691 632913
0110100110000100: 561428 531016 462691 508176
0110100010010010: 561428 531016 462691 573390
0110100010010010: 561428 531016 462691 496265
0111100010011010: 561428 531016 462691 603064
0111100010011010: 561428 531016 462691 542204
0111100010011010: 561428 531016 462691 533407
0111100010001000: 561428 531016 542204 603064
0110100110000100: 561428 531016 542204 632913
0111100010011010: 561428 531016 542204 462691
0111100010011010: 561428 531016 542204 533407
0110100110010110: 561428 531016 542204 508176
0110100110010110: 561428 531016 542204 508176
0111100010001000: 561428 531016 533407 603064
0110100110000100: 561428 531016 533407 632913
0110100110000100: 561428 531016 533407 508176
0111100010011010: 561428 531016 533407 462691
0111100010011010: 561428 531016 533407 542204
0111100010011010: 561428 531016 533407 462515
0111100010001000: 561428 531016 462515 603064
0111100010001000: 561428 531016 462515 462691
0111100010001000: 561428 531016 462515 542204
0110100110000100: 561428 531016 462515 632913
0110100110000100: 561428 531016 462515 508176
0111100010011010: 561428 531016 462515 533407
0111100010001000: 561428 531016 603064 542204
0111100010001000: 561428 531016 603064 533407
0111100010001000: 561428 531016 603064 462515
0110100110000100: 561428 531016 603064 632913
0110100110000100: 561428 531016 603064 508176
0110100110000100: 561428 531016 603064 632913
0110100110000100: 561428 531016 603064 508176
0110100110000100: 561428 531016 603064 632913
0110100110000100: 561428 531016 603064 508176
0111100010001000: 561428 531016 462691 462515
0110100110000100: 561428 531016 462691 632913
0110100110000100: 561428 531016 462691 508176
0110100110000100: 561428 531016 462691 632913
0110100110000100: 561428 531016 462691 508176
0110100110000100: 561428 531016 462691 632913
0110100110000100: 561428 531016 462691 508176
0110100110000100: 561428 531016 542204 632913
0110100110000100: 561428 531016 542204 632913
0110100110000100: 561428 531016 542204 632913
0110100110010110: 561428 531016 542204 508176
0110100110000100: 561428 531016 533407 632913
0110100110000100: 561428 531016 533407 508176
0110100110000100: 561428 531016 533407 632913
0110100110000100: 561428 531016 533407 508176
0110100110000100: 561428 531016 533407 632913
0110100110000100: 561428 531016 533407 508176
0110100110000100: 561428 531016 462515 632913
0110100110000100: 561428 531016 462515 508176
0110100110000100: 561428 531016 462515 632913
0110100110000100: 561428 531016 462515 508176
0110100110000100: 561428 531016 462515 632913
0110100110000100: 561428 531016 462515 508176
0101101001001000: 561428 531016 632913 603064
0101101001001000: 561428 531016 632913 462691
0101101001001000: 561428 531016 632913 542204
0101101001001000: 561428 531016 632913 533407
0101101001001000: 561428 531016 632913 462515
0100101001010010: 561428 531016 632913 573390
0100101001010010: 561428 531016 632913 573390
0100101001010010: 561428 531016 632913 573390
0100101001010010: 561428 531016 632913 573390
0101101001001000: 561428 531016 508176 603064
0101101001001000: 561428 531016 508176 462691
0101101001001000: 561428 531016 508176 533407
0101101001001000: 561428 531016 508176 462515
0100101101000100: 561428 531016 508176 632913
0101101001011010: 561428 531016 508176 542204
0101101001011010: 561428 531016 508176 542204
0101101001011010: 561428 531016 508176 542204
0101101001011010: 561428 531016 508176 542204
0101101001011010: 561428 531016 508176 542204
0110100110000100: 561428 542204 603064 508176
0111100010001000: 561428 542204 531016 603064
0110100010010010: 561428 542204 531016 632913
0110100010010010: 561428 542204 531016 632913
0110100110010110: 561428 542204 531016 508176
0110100110010110: 561428 542204 531016 508176
0111100010001000: 561428 542204 462515 603064
0111100010001000: 561428 542204 462515 531016
0110100110000100: 561428 542204 462515 508176
0111100010001000: 561428 542204 603064 531016
0111100010001000: 561428 542204 603064 462515
0110100110000100: 561428 542204 603064 508176
0110100110000100: 561428 542204 603064 508176
0111100110001100: 561428 542204 603064 533407
0110100110000100: 561428 542204 603064 508176
0111100010001000: 561428 542204 531016 603064
0111100010001000: 561428 542204 531016 462515
0111100010001000: 561428 542204 531016 603064
0111100110001100: 561428 542204 531016 462691
0111100110001100: 561428 542204 531016 533407
0110100110010110: 561428 542204 531016 508176
0110100010010010: 561428 542204 531016 632913
0110100110010110: 561428 542204 531016 508176
0110100110010110: 561428 542204 531016 508176
0110100110000100: 561428 542204 462515 508176
0110100110000100: 561428 542204 462515 508176
0111100110001100: 561428 542204 462515 462691
0110100110000100: 561428 542204 462515 508176
0111101011001000: 561428 542204 462691 531016
0111101011001000: 561428 542204 462691 462515
0110101011010010: 561428 542204 462691 573390
0110101011010010: 561428 542204 462691 496265
0110101011010010: 561428 542204 462691 573390
0110101011010010: 561428 542204 462691 496265
0111101011011010: 561428 542204 462691 603064
0111101011011010: 561428 542204 462691 603064
0111101011011010: 561428 542204 462691 603064
0111101011001000: 561428 542204 462691 531016
0111101011001000: 561428 542204 462691 462515
0111101011001000: 561428 542204 462691 531016
0110101111000100: 561428 542204 462691 508176
0111101111011110: 561428 542204 462691 533407
0111101011001000: 561428 542204 533407 603064
0111101011001000: 561428 542204 533407 531016
0111101011011010: 561428 542204 533407 462515
0111101011011010: 561428 542204 533407 462515
0111101011011010: 561428 542204 533407 462515
0111101111011110: 561428 542204 533407 462691
0110101111000100: 561428 542204 533407 508176
0111101111011110: 561428 542204 533407 462691
0101101001001000: 561428 542204 508176 603064
0101101001001000: 561428 542204 508176 462515
0101101101001100: 561428 542204 508176 462691
0101101101001100: 561428 542204 508176 533407
0101101001011010: 561428 542204 508176 531016
0101101001011010: 561428 542204 508176 531016
0101101001011010: 561428 542204 508176 531016
0101101001011010: 561428 542204 508176 531016
0101101001011010: 561428 542204 508176 531016
0111101011001000: 561428 542204 462691 531016
0111101011001000: 561428 542204 462691 462515
0111101011001000: 561428 542204 462691 531016
0111101011001000: 561428 542204 462691 462515
0110101111000100: 561428 542204 462691 508176
0110101111000100: 561428 542204 462691 508176
0110101111000100: 561428 542204 462691 508176
0110101111000100: 561428 542204 462691 508176
0111101111011110: 561428 542204 462691 533407
0111101111011110: 561428 542204 462691 533407
0111101111011110: 561428 542204 462691 533407
0111101111011110: 561428 542204 462691 533407
0111101011001000: 561428 542204 533407 603064
0111101011001000: 561428 542204 533407 531016
0111101011001000: 561428 542204 533407 603064
0111101011001000: 561428 542204 533407 531016
0110101111000100: 561428 542204 533407 508176
0110101111000100: 561428 542204 533407 508176
0110101111000100: 561428 542204 533407 508176
0110101111000100: 561428 542204 533407 508176
0111101111011110: 561428 542204 533407 462691
0111101111011110: 561428 542204 533407 462691
0111101111011110: 561428 542204 533407 462691
0111101111011110: 561428 542204 533407 462691
0111101011001000: 561428 542204 462691 531016
0111101011001000: 561428 542204 462691 462515
0111101011001000: 561428 542204 462691 531016
0111101011001000: 561428 542204 462691 462515
0110101111000100: 561428 542204 462691 508176
0111101111011110: 561428 542204 462691 533407
0111101111011110: 561428 542204 462691 533407
0111101111011110: 561428 542204 462691 533407
0110101111000100: 561428 542204 533407 508176
0111101111011110: 561428 542204 533407 462691
0111100010001000: 561428 533407 531016 603064
0110100010010010: 561428 533407 531016 632913
0110100010010010: 561428 533407 531016 508176
0110100010010010: 561428 533407 531016 632913
0110100010010010: 561428 533407 531016 508176
0111100010001000: 561428 533407 603064 531016
0111100110001100: 561428 533407 603064 542204
0111100110001100: 561428 533407 603064 462515
0111100010001000: 561428 533407 531016 603064
0111100010001000: 561428 533407 531016 603064
0111100110001100: 561428 533407 531016 462691
0111100110001100: 561428 533407 531016 542204
0111100110001100: 561428 533407 531016 462515
0110100010010010: 561428 533407 531016 632913
0110100010010010: 561428 533407 531016 508176
0111101011001000: 561428 533407 462691 531016
0111101011011010: 561428 533407 462691 603064
0111101011011010: 561428 533407 462691 603064
0111101011011010: 561428 533407 462691 603064
0111101011001000: 561428 533407 462691 531016
0111101011001000: 561428 533407 462691 531016
0111101011001000: 561428 533407 542204 603064
0111101011001000: 561428 533407 542204 531016
0110101011010010: 561428 533407 542204 508176
0110101011010010: 561428 533407 542204 508176
0111101011001000: 561428 533407 462515 603064
0111101011001000: 561428 533407 462515 531016
0111101011001000: 561428 533407 462691 531016
0111101011001000: 561428 533407 462691 531016
0111101111001100: 561428 533407 462691 462515
0111101111011110: 561428 533407 462691 542204
0111101111011110: 561428 533407 462691 542204
0111101111011110: 561428 533407 462691 542204
0111101011001000: 561428 533407 542204 603064
0111101011001000: 561428 533407 542204 531016
0111101011001000: 561428 533407 542204 603064
0111101011001000: 561428 533407 542204 531016
0111101111001100: 561428 533407 542204 462515
0111101111011110: 561428 533407 542204 462691
0111101111011110: 561428 533407 542204 462691
0111101111011110: 561428 533407 542204 462691
0111101011001000: 561428 533407 462515 603064
0111101011001000: 561428 533407 462515 531016
0111101011001000: 561428 533407 462515 603064
0111101011001000: 561428 533407 462515 531016
0111101111001100: 561428 533407 462515 462691
0111101111001100: 561428 533407 462515 542204
0111101111001100: 561428 533407 462515 462691
0111101111001100: 561428 533407 462515 542204
0111101011001000: 561428 533407 462691 531016
0111101011001000: 561428 533407 462691 531016
0111101111001100: 561428 533407 462691 462515
0111101111011110: 561428 533407 462691 542204
0111101011001000: 561428 533407 542204 603064
0111101011001000: 561428 533407 542204 531016
0111101011001000: 561428 533407 542204 603064
0111101011001000: 561428 533407 542204 531016
0111101111001100: 561428 533407 542204 462515
0111101111011110: 561428 533407 542204 462691
0111101111001100: 561428 533407 462515 462691
0111101111001100: 561428 533407 462515 542204
0111100010011010: 561428 462515 603064 462691
0110100010010010: 561428 462515 462691 573390
0110100010010010: 561428 462515 462691 496265
0111100010011010: 561428 462515 462691 603064
0111100010011010: 561428 462515 462691 542204
0111100010001000: 561428 462515 531016 603064
0111100010001000: 561428 462515 531016 462691
0110100010010010: 561428 462515 531016 632913
0110100010010010: 561428 462515 531016 508176
0110100010010010: 561428 462515 531016 632913
0110100010010010: 561428 462515 531016 508176
0111100010001000: 561428 462515 542204 603064
0111100010001000: 561428 462515 542204 531016
0110100010010010: 561428 462515 542204 508176
0111100010011010: 561428 462515 542204 462691
0110100010010010: 561428 462515 542204 508176
0111100010001000: 561428 462515 603064 531016
0111100010001000: 561428 462515 603064 542204
0111100110001100: 561428 462515 603064 533407
0111100010001000: 561428 462515 462691 531016
0111100010001000: 561428 462515 531016 603064
0111100010001000: 561428 462515 531016 462691
0111100010001000: 561428 462515 531016 542204
0111100010001000: 561428 462515 531016 603064
0111100010001000: 561428 462515 531016 462691
0111100110001100: 561428 462515 531016 533407
0111100010001000: 561428 462515 542204 603064
0111100010001000: 561428 462515 542204 531016
0111100010001000: 561428 462515 542204 603064
0111100010001000: 561428 462515 542204 531016
0111101011001000: 561428 462515 533407 603064
0111101011001000: 561428 462515 533407 531016
0111101011011010: 561428 462515 533407 462691
0111101011011010: 561428 462515 533407 542204
0111101011011010: 561428 462515 533407 462691
0111101011011010: 561428 462515 533407 542204
0111101011011010: 561428 462515 533407 462691
0111101011011010: 561428 462515 533407 542204
0111101011001000: 561428 462515 533407 603064
0111101011001000: 561428 462515 533407 531016
0111101011001000: 561428 462515 533407 603064
0111101011001000: 561428 462515 533407 531016
0111101011001000: 561428 462515 533407 603064
0111101011001000: 561428 462515 533407 531016
0111101011001000: 561428 462515 533407 603064
0111101011001000: 561428 462515 533407 531016
0111101011001000: 542204 462691 561428 508176
0111101111011110: 542204 462691 561428 533407
0111101011001000: 542204 462691 533407 508176
0111101111011110: 542204 462691 533407 561428
0101101001001000: 542204 508176 531016 462691
0101101001001000: 542204 508176 531016 533407
0110100110010110: 542204 561428 508176 531016
0111101011001000: 542204 561428 462691 508176
0111101111011110: 542204 561428 462691 533407
0111101011001000: 542204 561428 533407 508176
0111101111011110: 542204 561428 533407 462691
0111101011001000: 542204 533407 462691 508176
0111101111011110: 542204 533407 462691 561428
0111101011001000: 542204 533407 561428 508176
0111101111011110: 542204 533407 561428 462691
0110100110000100: 542204 462691 508176 573390
0110100110000100: 542204 462691 508176 496265
0110100110000100: 542204 462691 508176 603064
0110100010010010: 542204 462691 508176 531016
0110100010010010: 542204 462691 508176 531016
0110100110000100: 542204 462691 508176 573390
0110100110000100: 542204 462691 508176 496265
0110100110000100: 542204 462691 508176 603064
0110100110000100: 542204 462691 508176 573390
0110100110000100: 542204 462691 508176 496265
0110100110000100: 542204 462691 508176 603064
0111100110001100: 542204 462691 508176 561428
0111100110001100: 542204 462691 508176 533407
0110100010010010: 542204 462691 508176 531016
0111101011001000: 542204 462691 561428 508176
0110101011010010: 542204 462691 561428 531016
0110101011010010: 542204 462691 561428 462515
0110101011010010: 542204 462691 561428 531016
0110101011010010: 542204 462691 561428 462515
0111101011001000: 542204 462691 561428 508176
0111101111011110: 542204 462691 561428 533407
0111101011001000: 542204 462691 533407 508176
0110101011010010: 542204 462691 533407 462515
0110101011010010: 542204 462691 533407 462515
0111101011001000: 542204 462691 533407 508176
0111101111011110: 542204 462691 533407 561428
0111101111011110: 542204 462691 533407 561428
0110100010010010: 542204 462691 508176 531016
0111101011001000: 542204 462691 561428 508176
0111101011001000: 542204 462691 561428 508176
0110101111000100: 542204 462691 561428 573390
0110101111000100: 542204 462691 561428 496265
0110101111000100: 542204 462691 561428 573390
0110101111000100: 542204 462691 561428 496265
0111101011001000: 542204 462691 561428 508176
0110101111010110: 542204 462691 561428 603064
0110101111010110: 542204 462691 561428 603064
0110101111000100: 542204 462691 561428 573390
0110101111000100: 542204 462691 561428 496265
0110101111010110: 542204 462691 561428 603064
0111101111011110: 542204 462691 561428 533407
0111101011001000: 542204 462691 561428 508176
0111101111011110: 542204 462691 561428 533407
0111101111011110: 542204 462691 561428 533407
0111101111011110: 542204 462691 561428 533407
0111101011001000: 542204 462691 533407 508176
0111101011001000: 542204 462691 533407 508176
0110101111000100: 542204 462691 533407 573390
0110101111000100: 542204 462691 533407 496265
0110101111000100: 542204 462691 533407 603064
0110101111000100: 542204 462691 533407 573390
0110101111000100: 542204 462691 533407 496265
0110101111000100: 542204 462691 533407 603064
0111101011001000: 542204 462691 533407 508176
0110101011010010: 542204 462691 533407 462515
0111101111011110: 542204 462691 533407 561428
0111101011001000: 542204 462691 533407 508176
0111101111011110: 542204 462691 533407 561428
0111101111011110: 542204 462691 533407 561428
0111101111011110: 542204 462691 533407 561428
0110100110000100: 542204 462691 508176 573390
0110100110000100: 542204 462691 508176 496265
0110100110000100: 542204 462691 508176 603064
0110100110000100: 542204 462691 508176 573390
0110100110000100: 542204 462691 508176 496265
0110100110000100: 542204 462691 508176 603064
0111100110001100: 542204 462691 508176 561428
0111100110001100: 542204 462691 508176 533407
0111100110001100: 542204 462691 508176 561428
0111100110001100: 542204 462691 508176 533407
0111100110001100: 542204 462691 508176 561428
0111100110001100: 542204 462691 508176 533407
0110100010010010: 542204 462691 508176 531016
0110100010010010: 542204 462691 508176 531016
0111101011001000: 542204 462691 561428 508176
0111101111011110: 542204 462691 561428 533407
0111101011001000: 542204 462691 533407 508176
0111101111011110: 542204 462691 533407 561428
0110100110000100: 542204 508176 462691 531016
0110100010010010: 542204 508176 462691 573390
0110100010010010: 542204 508176 462691 496265
0110100010010010: 542204 508176 462691 603064
0111100010011010: 542204 508176 462691 561428
0111100010011010: 542204 508176 462691 533407
0110100010010010: 542204 508176 561428 603064
0110100010010010: 542204 508176 561428 462515
0111100010011010: 542204 508176 561428 462691
0111100010011010: 542204 508176 561428 533407
0110100110010110: 542204 508176 561428 531016
0110100110010110: 542204 508176 561428 531016
0110100110000100: 542204 508176 533407 531016
0110100010010010: 542204 508176 533407 462515
0111100010011010: 542204 508176 533407 462691
0111100010011010: 542204 508176 533407 561428
0110100110000100: 542204 508176 462691 531016
0110100110000100: 542204 508176 462691 531016
0110100110000100: 542204 508176 462691 531016
0110100110010110: 542204 508176 561428 531016
0110100110000100: 542204 508176 533407 531016
0110100110000100: 542204 508176 533407 531016
0110100110000100: 542204 508176 533407 531016
0101101001001000: 542204 508176 531016 462691
0101101001001000: 542204 508176 531016 533407
0100101001010010: 542204 508176 531016 632913
0100101001010010: 542204 508176 531016 632913
0101101001011010: 542204 508176 531016 561428
0101101001011010: 542204 508176 531016 561428
0101101001011010: 542204 508176 531016 561428
0100101001010010: 542204 508176 531016 632913
0110100110010110: 542204 561428 508176 531016
0110100110000100: 542204 561428 508176 603064
0110100110000100: 542204 561428 508176 462515
0111100110001100: 542204 561428 508176 462691
0111100110001100: 542204 561428 508176 533407
0110100110010110: 542204 561428 508176 531016
0110100110010110: 542204 561428 508176 531016
0111101011001000: 542204 561428 462691 508176
0111101011001000: 542204 561428 462691 508176
0111101011001000: 542204 561428 462691 508176
0111101011001000: 542204 561428 533407 508176
0111101011001000: 542204 561428 533407 508176
0111101011001000: 542204 561428 533407 508176
0111101011001000: 542204 561428 462691 508176
0111101011001000: 542204 561428 462691 508176
0110101111000100: 542204 561428 462691 531016
0110101111000100: 542204 561428 462691 462515
0110101111000100: 542204 561428 462691 531016
0110101111000100: 542204 561428 462691 462515
0111101011001000: 542204 561428 462691 508176
0110101111010110: 542204 561428 462691 603064
0110101111010110: 542204 561428 462691 603064
0110101111000100: 542204 561428 462691 531016
0110101111000100: 542204 561428 462691 462515
0110101111010110: 542204 561428 462691 603064
0111101011001000: 542204 561428 462691 508176
0111101111011110: 542204 561428 462691 533407
0111101111011110: 542204 561428 462691 533407
0111101111011110: 542204 561428 462691 533407
0111101011001000: 542204 561428 533407 508176
0111101011001000: 542204 561428 533407 508176
0110101111000100: 542204 561428 533407 603064
0110101111000100: 542204 561428 533407 531016
0110101111000100: 542204 561428 533407 603064
0110101111000100: 542204 561428 533407 531016
0111101011001000: 542204 561428 533407 508176
0110101111010110: 542204 561428 533407 462515
0110101111010110: 542204 561428 533407 462515
0111101011001000: 542204 561428 533407 508176
0111101111011110: 542204 561428 533407 462691
0111101111011110: 542204 561428 533407 462691
0111101111011110: 542204 561428 533407 462691
0110100110000100: 542204 561428 508176 603064
0110100110000100: 542204 561428 508176 462515
0110100110000100: 542204 561428 508176 603064
0110100110000100: 542204 561428 508176 462515
0111100110001100: 542204 561428 508176 462691
0111100110001100: 542204 561428 508176 533407
0111100110001100: 542204 561428 508176 462691
0111100110001100: 542204 561428 508176 533407
0111100110001100: 542204 561428 508176 462691
0111100110001100: 542204 561428 508176 533407
0110100110010110: 542204 561428 508176 531016
0110100110010110: 542204 561428 508176 531016
0111101011001000: 542204 561428 462691 508176
0111101011001000: 542204 561428 462691 508176
0111101011001000: 542204 561428 462691 508176
0111101011001000: 542204 561428 462691 508176
0111101111011110: 542204 561428 462691 533407
0111101011001000: 542204 561428 533407 508176
0110100010010010: 542204 533407 508176 531016
0110100010010010: 542204 533407 508176 531016
0110100110000100: 542204 533407 508176 462515
0111100110001100: 542204 533407 508176 462691
0111100110001100: 542204 533407 508176 561428
0110100010010010: 542204 533407 508176 531016
0111101011001000: 542204 533407 462691 508176
0111101011001000: 542204 533407 462691 508176
0111101011001000: 542204 533407 462691 508176
0111101011001000: 542204 533407 561428 508176
0111101011001000: 542204 533407 561428 508176
0111101011001000: 542204 533407 561428 508176
0110100010010010: 542204 533407 508176 531016
0111101011001000: 542204 533407 462691 508176
0111101011001000: 542204 533407 462691 508176
0110101111000100: 542204 533407 462691 462515
0110101111000100: 542204 533407 462691 462515
0111101011001000: 542204 533407 462691 508176
0110101111000100: 542204 533407 462691 462515
0111101011001000: 542204 533407 462691 508176
0111101111011110: 542204 533407 462691 561428
0111101111011110: 542204 533407 462691 561428
0111101111011110: 542204 533407 462691 561428
0111101011001000: 542204 533407 561428 508176
0111101011001000: 542204 533407 561428 508176
0111101011001000: 542204 533407 561428 508176
0110101111010110: 542204 533407 561428 462515
0110101111010110: 542204 533407 561428 462515
0111101011001000: 542204 533407 561428 508176
0111101111011110: 542204 533407 561428 462691
0111101111011110: 542204 533407 561428 462691
0111101111011110: 542204 533407 561428 462691
0110100110000100: 542204 533407 508176 462515
0110100110000100: 542204 533407 508176 462515
0111100110001100: 542204 533407 508176 462691
0111100110001100: 542204 533407 508176 561428
0111100110001100: 542204 533407 508176 462691
0111100110001100: 542204 533407 508176 561428
0111100110001100: 542204 533407 508176 462691
0111100110001100: 542204 533407 508176 561428
0110100010010010: 542204 533407 508176 531016
0110100010010010: 542204 533407 508176 531016
0111101011001000: 542204 533407 462691 508176
0111101011001000: 542204 533407 462691 508176
0111101011001000: 542204 533407 462691 508176
0111101011001000: 542204 533407 462691 508176
0111101111011110: 542204 533407 462691 561428
0111101011001000: 542204 533407 561428 508176
0111101011001000: 542204 533407 561428 508176
0111101011001000: 542204 533407 561428 508176
0111101011001000: 542204 533407 561428 508176
0111101111011110: 542204 533407 561428 462691
0110100110010110: 508176 542204 531016 561428
0110100110000100: 508176 531016 542204 632913
0110100010010010: 508176 531016 542204 462691
0110100010010010: 508176 531016 542204 533407
0110100110010110: 508176 531016 542204 561428
0110100110010110: 508176 531016 542204 561428
0110100110000100: 508176 531016 542204 632913
0110100110000100: 508176 531016 542204 632913
0110100110010110: 508176 531016 542204 561428
0110100110000100: 508176 531016 542204 632913
0110100110000100: 508176 531016 542204 632913
0110100110010110: 508176 531016 542204 561428
0110100110000100: 508176 531016 542204 632913
0110100010010010: 508176 542204 531016 632913
0110100110010110: 508176 542204 531016 561428
0110100110000100: 508176 542204 531016 462691
0110100110000100: 508176 542204 531016 533407
0110100110010110: 508176 542204 531016 561428
0110100010010010: 508176 542204 531016 632913
0110100110010110: 508176 542204 531016 561428
0110100110000100: 508176 542204 531016 462691
0110100110000100: 508176 542204 531016 533407
0110100110000100: 508176 542204 531016 462691
0110100110000100: 508176 542204 531016 533407
0110100010010010: 508176 542204 531016 632913
0110100110010110: 508176 542204 531016 561428
0101101001001000: 531016 632913 573390 508176
0101101001001000: 531016 632913 573390 561428
0101101001001000: 531016 508176 542204 632913
0111100010001000: 531016 561428 508176 632913
0110100110010110: 531016 561428 508176 542204
0110100110000100: 531016 632913 508176 573390
0110100010010010: 531016 632913 508176 542204
0110100010010010: 531016 632913 508176 542204
0111100010001000: 531016 632913 561428 508176
0110100110000100: 531016 632913 561428 573390
0110100010010010: 531016 632913 561428 603064
0110100010010010: 531016 632913 561428 462691
0110100010010010: 531016 632913 561428 542204
0110100010010010: 531016 632913 561428 533407
0110100010010010: 531016 632913 561428 462515
0110100110000100: 531016 632913 508176 573390
0110100110000100: 531016 632913 508176 573390
0110100110000100: 531016 632913 508176 573390
0110100110000100: 531016 632913 561428 573390
0110100110000100: 531016 632913 561428 573390
0110100110000100: 531016 632913 561428 573390
0101101001001000: 531016 632913 573390 508176
0101101001001000: 531016 632913 573390 561428
0100101001010010: 531016 632913 573390 466816
0100101001010010: 531016 632913 573390 462691
0100101001010010: 531016 632913 573390 466816
0100101001010010: 531016 632913 573390 462691
0101101001001000: 531016 632913 573390 508176
0101101001001000: 531016 632913 573390 561428
0110100010010010: 531016 508176 632913 573390
0110100010010010: 531016 508176 632913 573390
0111100010001000: 531016 508176 561428 632913
0110100010010010: 531016 508176 561428 603064
0110100010010010: 531016 508176 561428 462691
0110100010010010: 531016 508176 561428 533407
0110100010010010: 531016 508176 561428 462515
0110100110010110: 531016 508176 561428 542204
0111100010001000: 531016 508176 632913 561428
0110100110000100: 531016 508176 632913 542204
0110100110000100: 531016 508176 632913 542204
0110100110010110: 531016 508176 561428 542204
0101101001001000: 531016 508176 542204 632913
0100101001010010: 531016 508176 542204 462691
0100101001010010: 531016 508176 542204 533407
0100101001010010: 531016 508176 542204 462691
0100101001010010: 531016 508176 542204 533407
0101101001011010: 531016 508176 542204 561428
0101101001011010: 531016 508176 542204 561428
0101101001011010: 531016 508176 542204 561428
0101101001001000: 531016 508176 542204 632913
0101101001001000: 531016 508176 542204 632913
0110100010010010: 531016 561428 632913 573390
0110100010010010: 531016 561428 632913 573390
0111100010001000: 531016 561428 508176 632913
0110100110010110: 531016 561428 508176 542204
0111100010001000: 531016 561428 632913 508176
0110100110000100: 531016 561428 632913 603064
0110100110000100: 531016 561428 632913 462691
0110100110000100: 531016 561428 632913 542204
0110100110000100: 531016 561428 632913 533407
0110100110000100: 531016 561428 632913 462515
0110100010010010: 531016 561428 632913 573390
0111100010001000: 531016 561428 508176 632913
0111100010001000: 531016 561428 508176 632913
0110100110000100: 531016 561428 508176 603064
0110100110000100: 531016 561428 508176 462691
0110100110000100: 531016 561428 508176 533407
0110100110000100: 531016 561428 508176 462515
0110100110010110: 531016 561428 508176 542204
0110100110010110: 531016 561428 508176 542204
0111100010001000: 531016 561428 632913 508176
0111100010001000: 531016 561428 632913 508176
0110100010010010: 531016 561428 632913 573390
0111100010001000: 531016 561428 508176 632913
0111100010001000: 531016 561428 508176 632913
0110100110000100: 531016 561428 632913 603064
0110100110000100: 531016 561428 632913 462691
0110100110000100: 531016 561428 632913 542204
0110100110000100: 531016 561428 632913 533407
0110100110000100: 531016 561428 632913 462515
0110100110000100: 531016 561428 632913 603064
0110100110000100: 531016 561428 632913 462691
0110100110000100: 531016 561428 632913 542204
0110100110000100: 531016 561428 632913 533407
0110100110000100: 531016 561428 632913 462515
0111100010001000: 531016 561428 632913 508176
0110100010010010: 531016 561428 632913 573390
0110100010010010: 531016 561428 632913 573390
0110100110000100: 531016 561428 508176 603064
0110100110000100: 531016 561428 508176 462691
0110100110000100: 531016 561428 508176 533407
0110100110000100: 531016 561428 508176 462515
0110100110000100: 531016 561428 508176 603064
0110100110000100: 531016 561428 508176 462691
0110100110000100: 531016 561428 508176 533407
0110100110000100: 531016 561428 508176 462515
0111100010001000: 531016 561428 508176 632913
0111100010001000: 531016 561428 508176 632913
0110100110010110: 531016 561428 508176 542204
0110100110010110: 531016 561428 508176 542204
0110100110000100: 632913 573390 531016 466816
0110100110000100: 632913 573390 531016 462691
0110100010010010: 632913 573390 531016 508176
0110100010010010: 632913 573390 531016 561428
0110100110000100: 632913 573390 531016 466816
0110100110000100: 632913 573390 531016 462691
0110100110000100: 632913 573390 531016 466816
0110100110000100: 632913 573390 531016 462691
0110100110000100: 632913 573390 531016 466816
0110100110000100: 632913 573390 531016 462691
0110100110000100: 632913 573390 531016 466816
0110100110000100: 632913 573390 531016 462691
0110100110000100: 632913 573390 531016 466816
0110100110000100: 632913 573390 531016 462691
0110100010010010: 632913 531016 573390 466816
0110100010010010: 632913 531016 573390 462691
0110100110000100: 632913 531016 573390 508176
0110100110000100: 632913 531016 573390 561428
0110100110000100: 632913 531016 573390 508176
0110100110000100: 632913 531016 573390 561428
0110100110000100: 632913 531016 573390 508176
0110100110000100: 632913 531016 573390 561428
0110100110000100: 632913 531016 573390 508176
0110100110000100: 632913 531016 573390 561428
0101101001001000: 462691 573390 466816 496265
0101101001001000: 462691 573390 466816 603064
0101101001001000: 462691 573390 466816 542204
0101101001001000: 462691 573390 466816 561428
0101101001001000: 462691 573390 466816 533407
0101101001001000: 462691 573390 632913 496265
0101101001001000: 462691 573390 632913 603064
0101101001001000: 462691 573390 632913 542204
0101101001001000: 462691 573390 632913 561428
0101101001001000: 462691 573390 632913 533407
0100101101000100: 462691 573390 632913 466816
0101101001001000: 462691 496265 556964 573390
0101101001001000: 462691 496265 556964 603064
0101101001001000: 462691 496265 556964 542204
0101101001001000: 462691 496265 556964 561428
0101101001001000: 462691 496265 556964 533407
0111100010001000: 462691 603064 496265 573390
0111101011001000: 462691 603064 561428 573390
0111101011001000: 462691 603064 561428 496265
0111100010001000: 462691 542204 496265 573390
0111100010001000: 462691 542204 603064 573390
0111100010001000: 462691 542204 603064 496265
0111101011001000: 462691 542204 561428 573390
0111101011001000: 462691 542204 561428 496265
0111101111011110: 462691 542204 561428 533407
0111101011001000: 462691 542204 533407 573390
0111101011001000: 462691 542204 533407 496265
0111101011001000: 462691 542204 533407 603064
0111101111011110: 462691 542204 533407 561428
0101101001001000: 462691 542204 508176 573390
0101101001001000: 462691 542204 508176 496265
0101101001001000: 462691 542204 508176 603064
0101101101001100: 462691 542204 508176 561428
0101101101001100: 462691 542204 508176 533407
0111100010001000: 462691 561428 496265 573390
0111101011001000: 462691 561428 603064 573390
0111101011001000: 462691 561428 603064 496265
0111101011001000: 462691 561428 542204 573390
0111101011001000: 462691 561428 542204 496265
0111101111001100: 462691 561428 542204 603064
0111101111011110: 462691 561428 542204 533407
0111101011001000: 462691 561428 533407 573390
0111101011001000: 462691 561428 533407 496265
0111101111001100: 462691 561428 533407 603064
0111101111011110: 462691 561428 533407 542204
0110101111010110: 462691 561428 533407 462515
0111100010001000: 462691 533407 496265 573390
0111100010001000: 462691 533407 603064 573390
0111100010001000: 462691 533407 603064 496265
0111101011001000: 462691 533407 542204 573390
0111101011001000: 462691 533407 542204 496265
0111101011001000: 462691 533407 542204 603064
0111101111011110: 462691 533407 542204 561428
0111101011001000: 462691 533407 561428 573390
0111101011001000: 462691 533407 561428 496265
0111101111011110: 462691 533407 561428 542204
0110101111010110: 462691 533407 561428 462515
0101101001001000: 462691 533407 462515 573390
0101101001001000: 462691 533407 462515 496265
0101101001001000: 462691 533407 462515 603064
0101101101001100: 462691 533407 462515 542204
0110100110000100: 462691 573390 496265 466816
0110100110000100: 462691 573390 496265 632913
0110100010010010: 462691 573390 496265 556964
0110100010010010: 462691 573390 496265 556964
0111100010001000: 462691 573390 603064 496265
0110100110000100: 462691 573390 603064 466816
0110100110000100: 462691 573390 603064 632913
0111100010011010: 462691 573390 603064 561428
0111100010001000: 462691 573390 542204 496265
0111100010001000: 462691 573390 542204 603064
0110100110000100: 462691 573390 542204 466816
0110100110000100: 462691 573390 542204 632913
0110100010010010: 462691 573390 542204 508176
0111100010011010: 462691 573390 542204 561428
0111100010011010: 462691 573390 542204 533407
0110100010010010: 462691 573390 542204 508176
0111100010001000: 462691 573390 561428 496265
0110100110000100: 462691 573390 561428 466816
0110100110000100: 462691 573390 561428 632913
0110100010010010: 462691 573390 561428 531016
0110100010010010: 462691 573390 561428 462515
0111100010011010: 462691 573390 561428 603064
0111100010011010: 462691 573390 561428 542204
0111100010011010: 462691 573390 561428 533407
0111100010001000: 462691 573390 533407 496265
0111100010001000: 462691 573390 533407 603064
0110100110000100: 462691 573390 533407 466816
0110100110000100: 462691 573390 533407 632913
0110100010010010: 462691 573390 533407 462515
0111100010011010: 462691 573390 533407 542204
0111100010011010: 462691 573390 533407 561428
0110100010010010: 462691 573390 533407 462515
0110100110000100: 462691 573390 496265 466816
0110100110000100: 462691 573390 496265 632913
0110100110000100: 462691 573390 496265 466816
0110100110000100: 462691 573390 496265 632913
0110100110000100: 462691 573390 496265 466816
0110100110000100: 462691 573390 496265 632913
0110100010010010: 462691 573390 496265 556964
0110100110000100: 462691 573390 603064 466816
0110100110000100: 462691 573390 603064 632913
0110100110000100: 462691 573390 603064 466816
0110100110000100: 462691 573390 603064 632913
0110100110000100: 462691 573390 603064 466816
0110100110000100: 462691 573390 603064 632913
0110100110000100: 462691 573390 542204 466816
0110100110000100: 462691 573390 542204 632913
0110100110000100: 462691 573390 542204 466816
0110100110000100: 462691 573390 542204 632913
0110100110000100: 462691 573390 542204 466816
0110100110000100: 462691 573390 542204 632913
0110100110000100: 462691 573390 561428 466816
0110100110000100: 462691 573390 561428 632913
0110100110000100: 462691 573390 561428 466816
0110100110000100: 462691 573390 561428 632913
0110100110000100: 462691 573390 561428 466816
0110100110000100: 462691 573390 561428 632913
0110100110000100: 462691 573390 533407 466816
0110100110000100: 462691 573390 533407 632913
0110100110000100: 462691 573390 533407 466816
0110100110000100: 462691 573390 533407 632913
0110100110000100: 462691 573390 533407 466816
0110100110000100: 462691 573390 533407 632913
0101101001001000: 462691 573390 466816 496265
0101101001001000: 462691 573390 466816 603064
0101101001001000: 462691 573390 466816 542204
0101101001001000: 462691 573390 466816 561428
0101101001001000: 462691 573390 466816 533407
0100101001010010: 462691 573390 466816 512549
0100101001010010: 462691 573390 466816 512549
0100101001010010: 462691 573390 466816 512549
0100101001010010: 462691 573390 466816 512549
0101101001001000: 462691 573390 632913 496265
0101101001001000: 462691 573390 632913 603064
0101101001001000: 462691 573390 632913 542204
0101101001001000: 462691 573390 632913 561428
0101101001001000: 462691 573390 632913 533407
0100101001010010: 462691 573390 632913 531016
0100101001010010: 462691 573390 632913 531016
0100101101000100: 462691 573390 632913 466816
0100101001010010: 462691 573390 632913 531016
0100101001010010: 462691 573390 632913 531016
0110100110000100: 462691 496265 573390 556964
0110100010010010: 462691 496265 573390 466816
0110100010010010: 462691 496265 573390 632913
0110100010010010: 462691 496265 573390 466816
0110100010010010: 462691 496265 573390 632913
0111100010001000: 462691 496265 603064 573390
0110100110000100: 462691 496265 603064 556964
0111100010011010: 462691 496265 603064 561428
0111100010001000: 462691 496265 542204 573390
0111100010001000: 462691 496265 542204 603064
0110100110000100: 462691 496265 542204 556964
0110100010010010: 462691 496265 542204 508176
0111100010011010: 462691 496265 542204 561428
0111100010011010: 462691 496265 542204 533407
0110100010010010: 462691 496265 542204 508176
0111100010001000: 462691 496265 561428 573390
0110100110000100: 462691 496265 561428 556964
0110100010010010: 462691 496265 561428 531016
0110100010010010: 462691 496265 561428 462515
0111100010011010: 462691 496265 561428 603064
0111100010011010: 462691 496265 561428 542204
0111100010011010: 462691 496265 561428 533407
0111100010001000: 462691 496265 533407 573390
0111100010001000: 462691 496265 533407 603064
0110100110000100: 462691 496265 533407 556964
0110100010010010: 462691 496265 533407 462515
0111100010011010: 462691 496265 533407 542204
0111100010011010: 462691 496265 533407 561428
0110100010010010: 462691 496265 533407 462515
0111100010001000: 462691 496265 573390 603064
0111100010001000: 462691 496265 573390 542204
0111100010001000: 462691 496265 573390 561428
0111100010001000: 462691 496265 573390 533407
0110100110000100: 462691 496265 573390 556964
0110100110000100: 462691 496265 573390 556964
0110100110000100: 462691 496265 573390 556964
0110100110000100: 462691 496265 603064 556964
0110100110000100: 462691 496265 603064 556964
0110100110000100: 462691 496265 603064 556964
0110100110000100: 462691 496265 542204 556964
0110100110000100: 462691 496265 542204 556964
0110100110000100: 462691 496265 542204 556964
0110100110000100: 462691 496265 561428 556964
0110100110000100: 462691 496265 561428 556964
0110100110000100: 462691 496265 561428 556964
0110100110000100: 462691 496265 533407 556964
0110100110000100: 462691 496265 533407 556964
0110100110000100: 462691 496265 533407 556964
0101101001001000: 462691 496265 556964 573390
0101101001001000: 462691 496265 556964 603064
0101101001001000: 462691 496265 556964 542204
0101101001001000: 462691 496265 556964 561428
0101101001001000: 462691 496265 556964 533407
0100101001010010: 462691 496265 556964 653134
0100101001010010: 462691 496265 556964 653134
0100101001010010: 462691 496265 556964 653134
0110100010010010: 462691 603064 573390 466816
0110100010010010: 462691 603064 573390 632913
0110100010010010: 462691 603064 573390 466816
0110100010010010: 462691 603064 573390 632913
0111100010001000: 462691 603064 496265 573390
0110100010010010: 462691 603064 496265 556964
0110100010010010: 462691 603064 496265 556964
0111100010001000: 462691 603064 542204 573390
0111100010001000: 462691 603064 542204 496265
0110100010010010: 462691 603064 542204 508176
0111100010011010: 462691 603064 542204 533407
0110100010010010: 462691 603064 542204 508176
0111100010001000: 462691 603064 533407 573390
0111100010001000: 462691 603064 533407 496265
0110100010010010: 462691 603064 533407 462515
0111100010011010: 462691 603064 533407 542204
0110100010010010: 462691 603064 533407 462515
0111100010001000: 462691 603064 573390 496265
0111100010001000: 462691 603064 573390 542204
0111100010001000: 462691 603064 573390 533407
0111100110001100: 462691 603064 573390 561428
0111100010001000: 462691 603064 496265 573390
0111100010001000: 462691 603064 496265 542204
0111100010001000: 462691 603064 496265 533407
0111100010001000: 462691 603064 496265 573390
0111100110001100: 462691 603064 496265 561428
0111101011001000: 462691 603064 561428 573390
0111101011001000: 462691 603064 561428 496265
0110101011010010: 462691 603064 561428 531016
0110101011010010: 462691 603064 561428 462515
0110101011010010: 462691 603064 561428 531016
0110101011010010: 462691 603064 561428 462515
0111101011011010: 462691 603064 561428 542204
0111101011011010: 462691 603064 561428 533407
0111101011011010: 462691 603064 561428 542204
0111101011011010: 462691 603064 561428 533407
0111101011011010: 462691 603064 561428 542204
0111101011011010: 462691 603064 561428 533407
0111101011001000: 462691 603064 561428 573390
0111101011001000: 462691 603064 561428 496265
0111101011001000: 462691 603064 561428 573390
0111101011001000: 462691 603064 561428 496265
0111101011001000: 462691 603064 561428 573390
0111101011001000: 462691 603064 561428 496265
0111101011001000: 462691 603064 561428 573390
0111101011001000: 462691 603064 561428 496265
0110100010010010: 462691 542204 573390 466816
0110100010010010: 462691 542204 573390 632913
0110100010010010: 462691 542204 573390 466816
0110100010010010: 462691 542204 573390 632913
0111100010001000: 462691 542204 496265 573390
0110100010010010: 462691 542204 496265 556964
0110100010010010: 462691 542204 496265 556964
0111100010001000: 462691 542204 603064 573390
0111100010001000: 462691 542204 603064 496265
0111100010001000: 462691 542204 573390 496265
0111100010001000: 462691 542204 573390 603064
0110100110000100: 462691 542204 573390 508176
0111100110001100: 462691 542204 573390 561428
0111100110001100: 462691 542204 573390 533407
0110100110000100: 462691 542204 573390 508176
0110100010010010: 462691 542204 573390 466816
0110100010010010: 462691 542204 573390 632913
0111100010001000: 462691 542204 496265 573390
0111100010001000: 462691 542204 496265 603064
0111100010001000: 462691 542204 496265 573390
0110100110000100: 462691 542204 496265 508176
0111100110001100: 462691 542204 496265 561428
0111100110001100: 462691 542204 496265 533407
0110100110000100: 462691 542204 496265 508176
0110100010010010: 462691 542204 496265 556964
0111100010001000: 462691 542204 603064 573390
0111100010001000: 462691 542204 603064 496265
0111100010001000: 462691 542204 603064 573390
0111100010001000: 462691 542204 603064 496265
0110100110000100: 462691 542204 603064 508176
0111100110001100: 462691 542204 603064 533407
0110100110000100: 462691 542204 603064 508176
0111101011001000: 462691 542204 561428 573390
0111101011001000: 462691 542204 561428 496265
0111101011011010: 462691 542204 561428 603064
0111101011011010: 462691 542204 561428 603064
0111101011011010: 462691 542204 561428 603064
0111101011001000: 462691 542204 561428 573390
0111101011001000: 462691 542204 561428 496265
0111101011001000: 462691 542204 561428 573390
0111101011001000: 462691 542204 561428 496265
0110101111000100: 462691 542204 561428 508176
0111101011001000: 462691 542204 533407 573390
0111101011001000: 462691 542204 533407 496265
0111101011001000: 462691 542204 533407 603064
0110101011010010: 462691 542204 533407 462515
0110101011010010: 462691 542204 533407 462515
0110101111000100: 462691 542204 533407 508176
0101101001001000: 462691 542204 508176 573390
0101101001001000: 462691 542204 508176 496265
0101101001001000: 462691 542204 508176 603064
0100101001010010: 462691 542204 508176 531016
0100101001010010: 462691 542204 508176 531016
0101101101001100: 462691 542204 508176 561428
0101101101001100: 462691 542204 508176 533407
0100101001010010: 462691 542204 508176 531016
0100101001010010: 462691 542204 508176 531016
0111101011001000: 462691 542204 561428 573390
0111101011001000: 462691 542204 561428 496265
0111101011001000: 462691 542204 561428 573390
0111101011001000: 462691 542204 561428 496265
0110101111000100: 462691 542204 561428 508176
0110101111000100: 462691 542204 561428 508176
0110101111000100: 462691 542204 561428 508176
0110101111000100: 462691 542204 561428 508176
0111101111011110: 462691 542204 561428 533407
0111101111011110: 462691 542204 561428 533407
0111101111011110: 462691 542204 561428 533407
0111101011001000: 462691 542204 533407 573390
0111101011001000: 462691 542204 533407 496265
0111101011001000: 462691 542204 533407 603064
0111101011001000: 462691 542204 533407 573390
0111101011001000: 462691 542204 533407 496265
0111101011001000: 462691 542204 533407 603064
0110101111000100: 462691 542204 533407 508176
0110101111000100: 462691 542204 533407 508176
0110101111000100: 462691 542204 533407 508176
0110101111000100: 462691 542204 533407 508176
0111101111011110: 462691 542204 533407 561428
0111101111011110: 462691 542204 533407 561428
0111101111011110: 462691 542204 533407 561428
0110101111000100: 462691 542204 561428 508176
0110101111000100: 462691 542204 533407 508176
0110100010010010: 462691 561428 573390 466816
0110100010010010: 462691 561428 573390 632913
0110100010010010: 462691 561428 573390 466816
0110100010010010: 462691 561428 573390 632913
0111100010001000: 462691 561428 496265 573390
0110100010010010: 462691 561428 496265 556964
0110100010010010: 462691 561428 496265 556964
0111100010001000: 462691 561428 573390 496265
0110100110000100: 462691 561428 573390 531016
0110100110000100: 462691 561428 573390 462515
0111100110001100: 462691 561428 573390 603064
0111100110001100: 462691 561428 573390 542204
0111100110001100: 462691 561428 573390 533407
0110100010010010: 462691 561428 573390 466816
0110100010010010: 462691 561428 573390 632913
0111100010001000: 462691 561428 496265 573390
0111100010001000: 462691 561428 496265 573390
0110100110000100: 462691 561428 496265 531016
0110100110000100: 462691 561428 496265 462515
0111100110001100: 462691 561428 496265 603064
0111100110001100: 462691 561428 496265 542204
0111100110001100: 462691 561428 496265 533407
0110100010010010: 462691 561428 496265 556964
0111101011001000: 462691 561428 603064 573390
0111101011001000: 462691 561428 603064 496265
0111101011001000: 462691 561428 542204 573390
0111101011001000: 462691 561428 542204 496265
0110101011010010: 462691 561428 542204 508176
0110101011010010: 462691 561428 542204 508176
0111101011001000: 462691 561428 533407 573390
0111101011001000: 462691 561428 533407 496265
0110101111010110: 462691 561428 533407 462515
0111100010001000: 462691 561428 573390 496265
0111100010001000: 462691 561428 573390 496265
0110100010010010: 462691 561428 573390 466816
0110100010010010: 462691 561428 573390 632913
0111100010001000: 462691 561428 496265 573390
0111100010001000: 462691 561428 496265 573390
0110100010010010: 462691 561428 496265 556964
0111101011001000: 462691 561428 603064 573390
0111101011001000: 462691 561428 603064 496265
0111101011001000: 462691 561428 603064 573390
0111101011001000: 462691 561428 603064 496265
0110101111000100: 462691 561428 603064 531016
0110101111000100: 462691 561428 603064 462515
0110101111000100: 462691 561428 603064 531016
0110101111000100: 462691 561428 603064 462515
0111101111001100: 462691 561428 603064 542204
0111101111001100: 462691 561428 603064 533407
0111101011001000: 462691 561428 603064 573390
0111101011001000: 462691 561428 603064 496265
0111101011001000: 462691 561428 542204 573390
0111101011001000: 462691 561428 542204 496265
0111101011001000: 462691 561428 542204 573390
0111101011001000: 462691 561428 542204 496265
0110101111000100: 462691 561428 542204 531016
0110101111000100: 462691 561428 542204 462515
0110101111000100: 462691 561428 542204 531016
0110101111000100: 462691 561428 542204 462515
0111101111001100: 462691 561428 542204 603064
0111101011001000: 462691 561428 542204 573390
0111101011001000: 462691 561428 542204 496265
0111101111001100: 462691 561428 542204 603064
0110101011010010: 462691 561428 542204 508176
0110101011010010: 462691 561428 542204 508176
0111101111011110: 462691 561428 542204 533407
0111101111011110: 462691 561428 542204 533407
0111101111011110: 462691 561428 542204 533407
0111101011001000: 462691 561428 533407 573390
0111101011001000: 462691 561428 533407 496265
0111101011001000: 462691 561428 533407 573390
0111101011001000: 462691 561428 533407 496265
0110101111000100: 462691 561428 533407 531016
0110101111000100: 462691 561428 533407 531016
0111101111001100: 462691 561428 533407 603064
0111101011001000: 462691 561428 533407 573390
0111101011001000: 462691 561428 533407 496265
0111101111001100: 462691 561428 533407 603064
0110101111010110: 462691 561428 533407 462515
0110101111010110: 462691 561428 533407 462515
0110101111010110: 462691 561428 533407 462515
0111101111011110: 462691 561428 533407 542204
0111101111011110: 462691 561428 533407 542204
0111101111011110: 462691 561428 533407 542204
0110100110000100: 462691 561428 573390 531016
0110100110000100: 462691 561428 573390 462515
0110100110000100: 462691 561428 573390 531016
0110100110000100: 462691 561428 573390 462515
0111100110001100: 462691 561428 573390 603064
0111100110001100: 462691 561428 573390 542204
0111100110001100: 462691 561428 573390 533407
0111100110001100: 462691 561428 573390 603064
0111100110001100: 462691 561428 573390 542204
0111100110001100: 462691 561428 573390 533407
0111100110001100: 462691 561428 573390 603064
0111100110001100: 462691 561428 573390 542204
0111100110001100: 462691 561428 573390 533407
0111100010001000: 462691 561428 573390 496265
0110100010010010: 462691 561428 573390 466816
0110100010010010: 462691 561428 573390 632913
0110100010010010: 462691 561428 573390 466816
0110100010010010: 462691 561428 573390 632913
0110100110000100: 462691 561428 496265 531016
0110100110000100: 462691 561428 496265 462515
0110100110000100: 462691 561428 496265 531016
0110100110000100: 462691 561428 496265 462515
0111100110001100: 462691 561428 496265 603064
0111100110001100: 462691 561428 496265 542204
0111100110001100: 462691 561428 496265 533407
0111100110001100: 462691 561428 496265 603064
0111100110001100: 462691 561428 496265 542204
0111100110001100: 462691 561428 496265 533407
0111100110001100: 462691 561428 496265 603064
0111100110001100: 462691 561428 496265 542204
0111100110001100: 462691 561428 496265 533407
0111100010001000: 462691 561428 496265 573390
0111100010001000: 462691 561428 496265 573390
0110100010010010: 462691 561428 496265 556964
0110100010010010: 462691 561428 496265 556964
0111101011001000: 462691 561428 603064 573390
0111101011001000: 462691 561428 603064 496265
0111101011001000: 462691 561428 603064 573390
0111101011001000: 462691 561428 603064 496265
0111101111001100: 462691 561428 603064 542204
0111101111001100: 462691 561428 603064 533407
0111101011001000: 462691 561428 603064 573390
0111101011001000: 462691 561428 603064 496265
0111101011001000: 462691 561428 542204 573390
0111101011001000: 462691 561428 542204 496265
0111101011001000: 462691 561428 542204 573390
0111101011001000: 462691 561428 542204 496265
0111101111001100: 462691 561428 542204 603064
0111101011001000: 462691 561428 542204 573390
0111101011001000: 462691 561428 542204 496265
0111101111011110: 462691 561428 542204 533407
0111101111001100: 462691 561428 533407 603064
0111101011001000: 462691 561428 533407 573390
0111101011001000: 462691 561428 533407 496265
0110100010010010: 462691 533407 573390 466816
0110100010010010: 462691 533407 573390 632913
0110100010010010: 462691 533407 573390 466816
0110100010010010: 462691 533407 573390 632913
0111100010001000: 462691 533407 496265 573390
0110100010010010: 462691 533407 496265 556964
0110100010010010: 462691 533407 496265 556964
0111100010001000: 462691 533407 603064 573390
0111100010001000: 462691 533407 603064 496265
0111100010001000: 462691 533407 573390 496265
0111100010001000: 462691 533407 573390 603064
0110100110000100: 462691 533407 573390 462515
0111100110001100: 462691 533407 573390 542204
0111100110001100: 462691 533407 573390 561428
0110100110000100: 462691 533407 573390 462515
0110100010010010: 462691 533407 573390 466816
0110100010010010: 462691 533407 573390 632913
0111100010001000: 462691 533407 496265 573390
0111100010001000: 462691 533407 496265 603064
0111100010001000: 462691 533407 496265 573390
0110100110000100: 462691 533407 496265 462515
0111100110001100: 462691 533407 496265 542204
0111100110001100: 462691 533407 496265 561428
0110100110000100: 462691 533407 496265 462515
0110100010010010: 462691 533407 496265 556964
0111100010001000: 462691 533407 603064 573390
0111100010001000: 462691 533407 603064 496265
0111100010001000: 462691 533407 603064 573390
0111100010001000: 462691 533407 603064 496265
0110100110000100: 462691 533407 603064 462515
0111100110001100: 462691 533407 603064 542204
0110100110000100: 462691 533407 603064 462515
0111101011001000: 462691 533407 542204 573390
0111101011001000: 462691 533407 542204 496265
0111101011001000: 462691 533407 542204 603064
0110101011010010: 462691 533407 542204 508176
0110101011010010: 462691 533407 542204 508176
0110101111000100: 462691 533407 542204 462515
0111101011001000: 462691 533407 561428 573390
0111101011001000: 462691 533407 561428 496265
0111101011011010: 462691 533407 561428 603064
0111101011011010: 462691 533407 561428 603064
0111101011011010: 462691 533407 561428 603064
0111101011001000: 462691 533407 561428 573390
0111101011001000: 462691 533407 561428 496265
0111101011001000: 462691 533407 561428 573390
0111101011001000: 462691 533407 561428 496265
0110101111010110: 462691 533407 561428 462515
0101101001001000: 462691 533407 462515 573390
0101101001001000: 462691 533407 462515 496265
0101101001001000: 462691 533407 462515 603064
0101101101001100: 462691 533407 462515 542204
0101101101011110: 462691 533407 462515 561428
0111101011001000: 462691 533407 542204 573390
0111101011001000: 462691 533407 542204 496265
0111101011001000: 462691 533407 542204 603064
0111101011001000: 462691 533407 542204 573390
0111101011001000: 462691 533407 542204 496265
0111101011001000: 462691 533407 542204 603064
0110101111000100: 462691 533407 542204 462515
0110101111000100: 462691 533407 542204 462515
0110101111000100: 462691 533407 542204 462515
0110101111000100: 462691 533407 542204 462515
0111101111011110: 462691 533407 542204 561428
0111101111011110: 462691 533407 542204 561428
0111101111011110: 462691 533407 542204 561428
0111101011001000: 462691 533407 561428 573390
0111101011001000: 462691 533407 561428 496265
0111101011001000: 462691 533407 561428 573390
0111101011001000: 462691 533407 561428 496265
0110101111010110: 462691 533407 561428 462515
0110101111010110: 462691 533407 561428 462515
0110101111010110: 462691 533407 561428 462515
0111101111011110: 462691 533407 561428 542204
0111101111011110: 462691 533407 561428 542204
0111101111011110: 462691 533407 561428 542204
0111101011001000: 462691 533407 542204 573390
0111101011001000: 462691 533407 542204 496265
0111101011001000: 462691 533407 542204 603064
0111101011001000: 462691 533407 542204 573390
0111101011001000: 462691 533407 542204 496265
0111101011001000: 462691 533407 542204 603064
0110101111000100: 462691 533407 542204 462515
0111101111011110: 462691 533407 542204 561428
0111101011001000: 462691 533407 561428 573390
0111101011001000: 462691 533407 561428 496265
0111101011001000: 462691 533407 561428 573390
0111101011001000: 462691 533407 561428 496265
0110101111010110: 462691 533407 561428 462515
0111101111011110: 462691 533407 561428 542204
0110100110000100: 644833 512549 465499 466816
0110100010010010: 644833 512549 465499 653134
0110100110000100: 644833 512549 465499 466816
0110100110000100: 644833 512549 465499 466816
0110100110000100: 644833 512549 465499 466816
0110100110000100: 644833 512549 465499 466816
0110100110000100: 644833 512549 465499 466816
0110100110000100: 644833 465499 512549 653134
0110100010010010: 644833 465499 512549 466816
0110100110000100: 644833 465499 512549 653134
0110100110000100: 644833 465499 512549 653134
0110100110000100: 644833 465499 512549 653134
0110100110000100: 644833 465499 512549 653134
0110100110000100: 644833 465499 512549 653134
0110100110000100: 465499 653134 644833 556964
0110100010010010: 465499 653134 644833 512549
0110100110000100: 465499 653134 644833 556964
0110100110000100: 465499 653134 644833 556964
0110100110000100: 465499 653134 644833 556964
0110100110000100: 465499 653134 644833 556964
0110100110000100: 465499 653134 644833 556964
0110100010010010: 465499 644833 653134 556964
0110100110000100: 465499 644833 653134 512549
0110100110000100: 465499 644833 653134 512549
0110100110000100: 465499 644833 653134 512549
0110100110000100: 465499 644833 653134 512549
0110101111000100: 603064 462691 561428 573390
0110101111000100: 603064 462691 561428 496265
0110101111000100: 603064 462691 561428 573390
0110101111000100: 603064 462691 561428 496265
0110101111010110: 603064 462691 561428 542204
0110101111010110: 603064 462691 561428 533407
0110101111010110: 603064 462691 561428 542204
0110101111010110: 603064 462691 561428 533407
0110101111000100: 603064 462691 561428 573390
0110101111000100: 603064 462691 561428 496265
0110101111000100: 603064 561428 462691 531016
0110101111000100: 603064 561428 462691 462515
0110101111000100: 603064 561428 462691 531016
0110101111000100: 603064 561428 462691 462515
0110101111010110: 603064 561428 462691 542204
0110101111010110: 603064 561428 462691 533407
0110101111010110: 603064 561428 462691 542204
0110101111010110: 603064 561428 462691 533407
0110101111000100: 603064 561428 462691 531016
0110101111000100: 603064 561428 462691 462515
0110100110000100: 512549 466816 644833 573390
0110100010010010: 512549 466816 644833 465499
0110100110000100: 512549 466816 644833 573390
0110100110000100: 512549 466816 644833 573390
0110100110000100: 512549 466816 644833 573390
0110100110000100: 512549 466816 644833 573390
0110100110000100: 512549 466816 644833 573390
0110100010010010: 512549 644833 466816 573390
0110100110000100: 512549 644833 466816 465499
0110100110000100: 512549 644833 466816 465499
0110100110000100: 512549 644833 466816 465499
0110100110000100: 512549 644833 466816 465499
0110100110000100: 496265 556964 462691 653134
0110100010010010: 496265 556964 462691 573390
0110100010010010: 496265 556964 462691 603064
0110100010010010: 496265 556964 462691 542204
0110100010010010: 496265 556964 462691 561428
0110100010010010: 496265 556964 462691 533407
0110100110000100: 496265 556964 462691 653134
0110100110000100: 496265 556964 462691 653134
0110100110000100: 496265 556964 462691 653134
0110100110000100: 496265 556964 462691 653134
0110100110000100: 496265 556964 462691 653134
0110100010010010: 496265 462691 556964 653134
0110100110000100: 496265 462691 556964 573390
0110100110000100: 496265 462691 556964 603064
0110100110000100: 496265 462691 556964 542204
0110100110000100: 496265 462691 556964 561428
0110100110000100: 496265 462691 556964 533407
0110100010010010: 496265 462691 556964 653134
0110100110000100: 496265 462691 556964 573390
0110100110000100: 496265 462691 556964 603064
0110100110000100: 496265 462691 556964 542204
0110100110000100: 496265 462691 556964 561428
0110100110000100: 496265 462691 556964 533407
0110100110000100: 496265 462691 556964 573390
0110100110000100: 496265 462691 556964 603064
0110100110000100: 496265 462691 556964 542204
0110100110000100: 496265 462691 556964 561428
0110100110000100: 496265 462691 556964 533407
0110100010010010: 496265 462691 556964 653134
0110100110000100: 653134 556964 465499 496265
0110100010010010: 653134 556964 465499 644833
0110100110000100: 653134 556964 465499 496265
0110100110000100: 653134 556964 465499 496265
0110100110000100: 653134 556964 465499 496265
0110100110000100: 653134 556964 465499 496265
0110100110000100: 653134 556964 465499 496265
0110100010010010: 653134 465499 556964 496265
0110100110000100: 653134 465499 556964 644833
0110100110000100: 653134 465499 556964 644833
0110100110000100: 653134 465499 556964 644833
0110100110000100: 653134 465499 556964 644833
0101101001001000: 573390 466816 512549 462691
0101101001001000: 573390 466816 512549 632913
0111100010001000: 573390 632913 462691 466816
0101101001001000: 573390 632913 531016 466816
0101101001001000: 573390 632913 531016 462691
0110100110000100: 573390 466816 462691 512549
0110100010010010: 573390 466816 462691 496265
0110100010010010: 573390 466816 462691 603064
0110100010010010: 573390 466816 462691 542204
0110100010010010: 573390 466816 462691 561428
0110100010010010: 573390 466816 462691 533407
0111100010001000: 573390 466816 632913 462691
0110100110000100: 573390 466816 632913 512549
0110100010010010: 573390 466816 632913 531016
0110100010010010: 573390 466816 632913 531016
0110100110000100: 573390 466816 462691 512549
0110100110000100: 573390 466816 462691 512549
0110100110000100: 573390 466816 462691 512549
0110100110000100: 573390 466816 632913 512549
0110100110000100: 573390 466816 632913 512549
0110100110000100: 573390 466816 632913 512549
0101101001001000: 573390 466816 512549 462691
0101101001001000: 573390 466816 512549 632913
0100101001010010: 573390 466816 512549 644833
0100101001010010: 573390 466816 512549 644833
0100101001010010: 573390 466816 512549 644833
0110100010010010: 573390 462691 466816 512549
0110100010010010: 573390 462691 466816 512549
0111100010001000: 573390 462691 632913 466816
0110100010010010: 573390 462691 632913 531016
0110100010010010: 573390 462691 632913 531016
0111100010001000: 573390 462691 466816 632913
0110100110000100: 573390 462691 466816 496265
0110100110000100: 573390 462691 466816 603064
0110100110000100: 573390 462691 466816 542204
0110100110000100: 573390 462691 466816 561428
0110100110000100: 573390 462691 466816 533407
0110100010010010: 573390 462691 466816 512549
0110100110000100: 573390 462691 632913 496265
0110100110000100: 573390 462691 632913 603064
0110100110000100: 573390 462691 632913 542204
0110100110000100: 573390 462691 632913 561428
0110100110000100: 573390 462691 632913 533407
0110100010010010: 573390 462691 632913 531016
0111100010001000: 573390 462691 466816 632913
0111100010001000: 573390 462691 466816 632913
0110100010010010: 573390 462691 466816 512549
0111100010001000: 573390 462691 632913 466816
0111100010001000: 573390 462691 632913 466816
0110100010010010: 573390 462691 632913 531016
0110100110000100: 573390 462691 466816 496265
0110100110000100: 573390 462691 466816 603064
0110100110000100: 573390 462691 466816 542204
0110100110000100: 573390 462691 466816 561428
0110100110000100: 573390 462691 466816 533407
0110100110000100: 573390 462691 466816 496265
0110100110000100: 573390 462691 466816 603064
0110100110000100: 573390 462691 466816 542204
0110100110000100: 573390 462691 466816 561428
0110100110000100: 573390 462691 466816 533407
0111100010001000: 573390 462691 466816 632913
0110100010010010: 573390 462691 466816 512549
0110100010010010: 573390 462691 466816 512549
0110100110000100: 573390 462691 632913 496265
0110100110000100: 573390 462691 632913 603064
0110100110000100: 573390 462691 632913 542204
0110100110000100: 573390 462691 632913 561428
0110100110000100: 573390 462691 632913 533407
0110100110000100: 573390 462691 632913 496265
0110100110000100: 573390 462691 632913 603064
0110100110000100: 573390 462691 632913 542204
0110100110000100: 573390 462691 632913 561428
0110100110000100: 573390 462691 632913 533407
0111100010001000: 573390 462691 632913 466816
0111100010001000: 573390 462691 632913 466816
0110100010010010: 573390 462691 632913 531016
0110100010010010: 573390 462691 632913 531016
0110100010010010: 573390 632913 466816 512549
0110100010010010: 573390 632913 466816 512549
0111100010001000: 573390 632913 462691 466816
0110100010010010: 573390 632913 462691 496265
0110100010010010: 573390 632913 462691 603064
0110100010010010: 573390 632913 462691 542204
0110100010010010: 573390 632913 462691 561428
0110100010010010: 573390 632913 462691 533407
0111100010001000: 573390 632913 466816 462691
0110100110000100: 573390 632913 466816 531016
0110100110000100: 573390 632913 466816 531016
0111100010001000: 573390 632913 462691 466816
0111100010001000: 573390 632913 462691 466816
0110100110000100: 573390 632913 462691 531016
0110100110000100: 573390 632913 462691 531016
0101101001001000: 573390 632913 531016 466816
0101101001001000: 573390 632913 531016 462691
0100101001010010: 573390 632913 531016 508176
0100101001010010: 573390 632913 531016 561428
0100101001010010: 573390 632913 531016 508176
0100101001010010: 573390 632913 531016 561428
0101101001001000: 573390 632913 531016 466816
0101101001001000: 573390 632913 531016 462691
0101101001001000: 573390 632913 531016 466816
0101101001001000: 573390 632913 531016 462691
0110100010010010: 556964 653134 496265 462691
0110100110000100: 556964 653134 496265 465499
0110100110000100: 556964 653134 496265 465499
0110100110000100: 556964 653134 496265 465499
0110100110000100: 556964 653134 496265 465499
0110100010010010: 556964 496265 653134 465499
0110100110000100: 556964 496265 653134 462691
0110100110000100: 556964 496265 653134 462691
0110100110000100: 556964 496265 653134 462691
0110100110000100: 556964 496265 653134 462691
0110100010010010: 466816 573390 512549 644833
0110100110000100: 466816 573390 512549 462691
0110100110000100: 466816 573390 512549 632913
0110100010010010: 466816 573390 512549 644833
0110100110000100: 466816 573390 512549 462691
0110100110000100: 466816 573390 512549 632913
0110100110000100: 466816 573390 512549 462691
0110100110000100: 466816 573390 512549 632913
0110100010010010: 466816 573390 512549 644833
0110100010010010: 466816 512549 573390 462691
0110100010010010: 466816 512549 573390 632913
0110100110000100: 466816 512549 573390 644833
0110100110000100: 466816 512549 573390 644833
0110100110000100: 466816 512549 573390 644833
0110100110000100: 466816 512549 573390 644833
