Vertex,0110101011010010,0110100110000100,0100101101000100,0100101001010010,0101101001001000,0110101111000100,0111101111001100,0111100010011010,0111101011011010,0101101001011010,0111100110001100,0111100110011110,0101101101001100,0101101101011110,0100101101010110,0110100010010010,0110101111010110,0111100010001000,0110100110010110,0111101011001000
533285,0.0,141.0,0.0,21.0,24.0,0.0,0.0,0.0,0.0,0.0,0.0,0.0,0.0,0.0,0.0,75.0,0.0,54.0,0.0,0.0
501959,4.0,192.0,0.0,8.0,52.0,8.0,0.0,4.0,0.0,0.0,4.0,0.0,0.0,0.0,0.0,98.0,0.0,104.0,0.0,20.0
505077,5.0,430.0,16.0,96.0,75.0,9.0,0.0,10.0,0.0,0.0,10.0,0.0,2.0,0.0,0.0,261.0,0.0,246.0,0.0,19.0
501997,93.0,772.0,32.0,105.0,191.0,127.0,54.0,72.0,46.0,64.0,94.0,5.0,26.0,4.0,6.0,402.0,44.0,538.0,245.0,258.0
553413,14.0,374.0,10.0,54.0,78.0,22.0,0.0,8.0,0.0,16.0,14.0,0.0,4.0,0.0,0.0,208.0,0.0,203.0,35.0,47.0
460346,36.0,328.0,18.0,63.0,69.0,45.0,0.0,10.0,0.0,34.0,34.0,0.0,12.0,0.0,0.0,182.0,0.0,248.0,107.0,85.0
635193,44.0,469.0,6.0,63.0,85.0,73.0,0.0,69.0,0.0,28.0,65.0,0.0,12.0,0.0,6.0,234.0,0.0,276.0,105.0,165.0
590245,67.0,361.0,12.0,42.0,97.0,106.0,54.0,65.0,50.0,55.0,78.0,6.0,14.0,6.0,2.0,196.0,51.0,242.0,212.0,238.0
592047,81.0,440.0,14.0,51.0,84.0,129.0,36.0,84.0,30.0,76.0,102.0,3.0,22.0,2.0,0.0,221.0,27.0,379.0,319.0,283.0
570683,7.0,184.0,8.0,28.0,33.0,14.0,0.0,4.0,0.0,16.0,13.0,0.0,2.0,0.0,0.0,94.0,0.0,132.0,35.0,34.0
588586,0.0,109.0,4.0,17.0,19.0,0.0,0.0,0.0,0.0,0.0,0.0,0.0,0.0,0.0,0.0,58.0,0.0,54.0,0.0,0.0
635653,128.0,505.0,20.0,91.0,125.0,189.0,72.0,96.0,68.0,55.0,139.0,9.0,36.0,8.0,2.0,284.0,68.0,275.0,175.0,397.0
506938,69.0,369.0,8.0,68.0,82.0,116.0,0.0,111.0,0.0,16.0,112.0,0.0,18.0,0.0,12.0,187.0,0.0,142.0,72.0,265.0
583623,77.0,429.0,14.0,89.0,87.0,118.0,18.0,116.0,22.0,51.0,113.0,4.0,22.0,4.0,10.0,214.0,24.0,268.0,249.0,258.0
576568,30.0,221.0,6.0,30.0,62.0,59.0,36.0,37.0,38.0,9.0,47.0,6.0,4.0,6.0,2.0,103.0,41.0,91.0,35.0,147.0
494457,79.0,472.0,16.0,66.0,93.0,131.0,18.0,96.0,18.0,38.0,120.0,3.0,22.0,2.0,8.0,240.0,17.0,270.0,142.0,293.0
633897,50.0,480.0,12.0,46.0,113.0,80.0,0.0,74.0,0.0,26.0,77.0,0.0,12.0,0.0,8.0,233.0,0.0,268.0,105.0,180.0
477478,2.0,138.0,6.0,15.0,28.0,5.0,0.0,2.0,0.0,0.0,5.0,0.0,0.0,0.0,0.0,65.0,0.0,77.0,0.0,14.0
635014,2.0,138.0,6.0,12.0,27.0,5.0,0.0,2.0,0.0,0.0,5.0,0.0,0.0,0.0,0.0,63.0,0.0,77.0,0.0,13.0
628665,4.0,181.0,0.0,5.0,46.0,8.0,0.0,4.0,0.0,0.0,4.0,0.0,0.0,0.0,0.0,80.0,0.0,104.0,0.0,20.0
583882,0.0,58.0,0.0,10.0,8.0,0.0,0.0,0.0,0.0,0.0,0.0,0.0,0.0,0.0,0.0,31.0,0.0,0.0,0.0,0.0
549065,0.0,72.0,0.0,6.0,12.0,0.0,0.0,0.0,0.0,0.0,0.0,0.0,0.0,0.0,0.0,33.0,0.0,0.0,0.0,0.0
479074,0.0,69.0,0.0,14.0,14.0,0.0,0.0,0.0,0.0,0.0,0.0,0.0,0.0,0.0,0.0,46.0,0.0,0.0,0.0,0.0
graph,198.0,1733.0,52.0,250.0,376.0,311.0,72.0,216.0,68.0,121.0,259.0,9.0,52.0,8.0,14.0,902.0,68.0,1012.0,459.0,684.0
