0110010011100000100001000: 642803 492426 650242 542487 572314
0110010011100100110001000: 642803 492426 614800 542487 572314
0110010011100000100001000: 642803 492426 569986 542487 572314
0110010011100000100001000: 642803 492426 501381 542487 572314
0110010011100000100001000: 642803 492426 605906 542487 572314
0110010010100010100000100: 642803 650242 492426 606500 572314
0110010010100010100000100: 642803 650242 492426 606500 542487
0110010010100010100000100: 642803 614800 492426 484310 572314
0110010011100000100001000: 642803 614800 492426 654589 484310
0110010010100010100000100: 642803 614800 492426 654589 572314
0110010011100100110001000: 642803 614800 492426 542487 484310
0110010011100100110001000: 642803 614800 492426 542487 654589
0110010010100010100000100: 642803 614800 650242 542487 606500
0110010011100000100001000: 642803 614800 650242 484310 542487
0110010010100010100000100: 642803 614800 650242 484310 606500
0110010011100000100001000: 642803 614800 650242 654589 542487
0110010011100000100001000: 642803 614800 650242 654589 484310
0110010010100010100000100: 642803 614800 650242 654589 606500
0110010011100000100001000: 642803 614800 501381 484310 542487
0110010011100100110001000: 642803 614800 501381 654589 542487
0110010011100100110001000: 642803 614800 501381 654589 484310
0110010011100000100001000: 642803 614800 605906 654589 542487
0110010011100100110001000: 642803 614800 605906 484310 542487
0110010011100100110001000: 642803 614800 605906 484310 654589
0111010101110001000001000: 642803 614800 569986 492426 654589
0111010101110001000101010: 642803 614800 569986 492426 542487
0111010101110001000001000: 642803 614800 569986 650242 542487
0111010101110001000001000: 642803 614800 569986 650242 654589
0111010101110001000001000: 642803 614800 569986 501381 542487
0111010101110001000101010: 642803 614800 569986 501381 654589
0110010010100010100000100: 642803 569986 492426 519661 572314
0110010010100010100000100: 642803 569986 492426 519661 542487
0110010011100000100001000: 642803 569986 492426 484310 519661
0110010010100010100000100: 642803 569986 492426 484310 572314
0110010010100010100000100: 642803 569986 492426 484310 542487
0110010011100000100001000: 642803 569986 492426 632887 519661
0110010011100000100001000: 642803 569986 492426 632887 484310
0110010010100010100000100: 642803 569986 492426 632887 572314
0110010010100010100000100: 642803 569986 492426 632887 542487
0110010010100010100000100: 642803 569986 650242 519661 606500
0110010011100000100001000: 642803 569986 650242 484310 519661
0110010010100010100000100: 642803 569986 650242 484310 606500
0110010011100000100001000: 642803 569986 650242 632887 519661
0110010011100000100001000: 642803 569986 650242 632887 484310
0110010010100010100000100: 642803 569986 650242 632887 606500
0110010011100000100001000: 642803 569986 501381 484310 519661
0110010011100000100001000: 642803 569986 501381 632887 519661
0110010011100000100001000: 642803 569986 501381 632887 484310
0111010101110001000001000: 642803 569986 614800 492426 519661
0111010101110001000001000: 642803 569986 614800 492426 632887
0111010100110001000100010: 642803 569986 614800 492426 572314
0111110100110001000010000: 642803 569986 614800 650242 492426
0111010101110001000001000: 642803 569986 614800 650242 519661
0111010101110001000001000: 642803 569986 614800 650242 632887
0111010100110001000100010: 642803 569986 614800 650242 606500
0111110100110001000010000: 642803 569986 614800 501381 492426
0111110100110001000010000: 642803 569986 614800 501381 650242
0111010101110001000001000: 642803 569986 614800 501381 519661
0111010101110001000001000: 642803 569986 614800 501381 632887
0111010100110001000100010: 642803 569986 614800 501381 639788
0111010110110011100000100: 642803 569986 614800 605906 542487
0111010110110011100000100: 642803 569986 614800 605906 654589
0111010101110001000001000: 642803 569986 605906 492426 519661
0111010101110001000001000: 642803 569986 605906 492426 632887
0111010101110001000001000: 642803 569986 605906 650242 519661
0111010101110001000001000: 642803 569986 605906 650242 632887
0111010101110001000001000: 642803 569986 605906 501381 519661
0111010101110001000001000: 642803 569986 605906 501381 632887
0111110110110001100010000: 642803 569986 605906 614800 492426
0111110110110001100010000: 642803 569986 605906 614800 650242
0111110110110001100010000: 642803 569986 605906 614800 501381
0111010110110011100000100: 642803 569986 605906 614800 626973
0111010110110011100000100: 642803 569986 605906 614800 639788
0110010010100010100000100: 642803 501381 492426 639788 572314
0110010010100010100000100: 642803 501381 492426 639788 542487
0110010011100000100001000: 642803 501381 492426 654589 639788
0110010010100010100000100: 642803 501381 492426 654589 572314
0110010010100010100000100: 642803 501381 492426 654589 542487
0110010010100010100000100: 642803 501381 650242 639788 606500
0110010011100000100001000: 642803 501381 650242 654589 639788
0110010010100010100000100: 642803 501381 650242 654589 606500
0111110000100001000010000: 642803 501381 614800 650242 492426
0110010010100010100000100: 642803 501381 614800 639788 542487
0110010010100010100100110: 642803 501381 614800 639788 484310
0110010011100100110001000: 642803 501381 614800 654589 639788
0111110000100001000010000: 642803 501381 569986 650242 492426
0110010010100010100000100: 642803 501381 569986 639788 519661
0110010010100010100000100: 642803 501381 569986 639788 632887
0110010010100010100100110: 642803 501381 569986 639788 484310
0110010011100000100001000: 642803 501381 569986 654589 639788
0110010010100010100000100: 642803 501381 569986 654589 519661
0110010010100010100000100: 642803 501381 569986 654589 484310
0110010010100010100100110: 642803 501381 569986 654589 632887
0110010011100100110001000: 642803 501381 605906 639788 654589
0110010010100010100100110: 642803 605906 492426 626973 572314
0110010010100010100100110: 642803 605906 492426 626973 542487
0110010011100000100001000: 642803 605906 492426 639788 626973
0110010010100010100000100: 642803 605906 492426 639788 572314
0110010010100010100000100: 642803 605906 492426 639788 542487
0110010011100000100001000: 642803 605906 492426 484310 626973
0110010010100010100000100: 642803 605906 492426 484310 572314
0110010010100010100000100: 642803 605906 492426 484310 542487
0110010010100010100000100: 642803 605906 650242 626973 606500
0110010011100000100001000: 642803 605906 650242 639788 626973
0110010010100010100000100: 642803 605906 650242 639788 606500
0110010011100000100001000: 642803 605906 650242 484310 626973
0110010010100010100000100: 642803 605906 650242 484310 606500
0111110000100001000010000: 642803 605906 614800 650242 492426
0110010010100010100000100: 642803 605906 614800 626973 654589
0110010010100010100100110: 642803 605906 614800 626973 542487
0110010011100000100001000: 642803 605906 614800 639788 626973
0110010010100010100000100: 642803 605906 614800 639788 542487
0110010010100010100000100: 642803 605906 614800 639788 654589
0110010011100100110001000: 642803 605906 614800 484310 626973
0111110000100001000010000: 642803 605906 501381 650242 492426
0111110000100001000010000: 642803 605906 501381 614800 492426
0111110000100001000010000: 642803 605906 501381 614800 650242
0110010010100010100000100: 642803 605906 501381 626973 654589
0110010011100000100001000: 642803 605906 501381 484310 626973
0110010010100010100000100: 642803 605906 501381 484310 654589
0110010011100100110001000: 642803 605906 501381 639788 626973
0111010101110001000001000: 642803 605906 569986 492426 626973
0111010101110001000001000: 642803 605906 569986 492426 639788
0111010100110001000100010: 642803 605906 569986 492426 572314
0111010100110001000100010: 642803 605906 569986 492426 542487
0111110100110001000010000: 642803 605906 569986 650242 492426
0111010101110001000001000: 642803 605906 569986 650242 626973
0111010101110001000001000: 642803 605906 569986 650242 639788
0111010100110001000100010: 642803 605906 569986 650242 606500
0111110100110001000010000: 642803 605906 569986 501381 492426
0111110100110001000010000: 642803 605906 569986 501381 650242
0111010101110001000001000: 642803 605906 569986 501381 626973
0111010100110001000100010: 642803 605906 569986 501381 654589
0111010101110001000101010: 642803 605906 569986 501381 639788
0110010011100000100001000: 605906 626973 639788 542487 572314
0110010011100000100001000: 605906 626973 569986 542487 572314
0110010011100000100001000: 605906 626973 484310 542487 572314
0110010011100000100001000: 605906 626973 642803 542487 572314
0110010010100010100000100: 605906 639788 626973 631291 572314
0110010010100010100000100: 605906 639788 626973 631291 542487
0110010011100000100001000: 605906 639788 626973 501381 631291
0110010010100010100000100: 605906 639788 626973 501381 572314
0110010010100010100000100: 605906 639788 626973 501381 542487
0110010011100000100001000: 605906 639788 569986 501381 631291
0110010011100100110001000: 605906 639788 642803 501381 631291
0111010101110001000001000: 605906 639788 484310 626973 501381
0111010101110001000101010: 605906 639788 484310 642803 501381
0110010010100010100000100: 605906 569986 626973 519661 572314
0110010010100010100000100: 605906 569986 626973 519661 542487
0110010011100000100001000: 605906 569986 626973 614800 519661
0110010010100010100000100: 605906 569986 626973 614800 572314
0110010010100010100100110: 605906 569986 626973 614800 542487
0110010011100000100001000: 605906 569986 626973 632887 519661
0110010011100000100001000: 605906 569986 626973 632887 614800
0110010010100010100000100: 605906 569986 626973 632887 572314
0110010010100010100000100: 605906 569986 626973 632887 542487
0110010010100010100000100: 605906 569986 639788 519661 631291
0110010010100010100000100: 605906 569986 639788 519661 501381
0110010011100000100001000: 605906 569986 639788 614800 519661
0110010010100010100000100: 605906 569986 639788 614800 631291
0110010010100010100000100: 605906 569986 639788 614800 501381
0110010011100000100001000: 605906 569986 639788 632887 519661
0110010011100000100001000: 605906 569986 639788 632887 614800
0110010010100010100000100: 605906 569986 639788 632887 631291
0110010010100010100000100: 605906 569986 639788 632887 501381
0111010101110001000001000: 605906 569986 484310 626973 519661
0111010101110001000001000: 605906 569986 484310 626973 632887
0111010110110011100000100: 605906 569986 484310 642803 631291
0111010101110001000001000: 605906 569986 642803 626973 519661
0111010101110001000001000: 605906 569986 642803 626973 632887
0111010101110001000001000: 605906 569986 642803 639788 519661
0111010101110001000001000: 605906 569986 642803 639788 632887
0111110110110001100010000: 605906 569986 642803 484310 626973
0111010110110011100000100: 605906 569986 642803 484310 492426
0111010110110011100000100: 605906 569986 642803 484310 650242
0111010110110011100000100: 605906 569986 642803 484310 501381
0110010010100010100000100: 605906 484310 626973 631291 572314
0110010010100010100000100: 605906 484310 626973 631291 542487
0110010011100000100001000: 605906 484310 626973 614800 631291
0110010010100010100000100: 605906 484310 626973 614800 572314
0110010010100010100100110: 605906 484310 626973 614800 542487
0110010011100100110001000: 605906 484310 642803 614800 631291
0111010101110001000001000: 605906 484310 639788 626973 614800
0111010100110001000100010: 605906 484310 639788 626973 572314
0111010100110001000100010: 605906 484310 639788 626973 542487
0111110100110001000010000: 605906 484310 639788 642803 626973
0111010100110001000100010: 605906 484310 639788 642803 492426
0111010100110001000100010: 605906 484310 639788 642803 650242
0111010101110001000101010: 605906 484310 639788 642803 614800
0111010110110011100000100: 605906 484310 639788 569986 501381
0111010101110001000001000: 605906 484310 569986 626973 631291
0111010100110001000100010: 605906 484310 569986 626973 572314
0111010100110001000100010: 605906 484310 569986 626973 542487
0111110110110001100010000: 605906 484310 569986 639788 626973
0111110110110011100010100: 605906 484310 569986 639788 642803
0111010110110011100000100: 605906 484310 569986 639788 519661
0111010110110011100000100: 605906 484310 569986 639788 632887
0110010011100000100001000: 605906 642803 626973 650242 492426
0110010010100010100000100: 605906 642803 626973 650242 572314
0110010010100010100000100: 605906 642803 626973 650242 542487
0110010011100000100001000: 605906 642803 626973 614800 492426
0110010011100000100001000: 605906 642803 626973 614800 650242
0110010010100010100000100: 605906 642803 626973 614800 572314
0110010011100000100001000: 605906 642803 626973 501381 492426
0110010011100000100001000: 605906 642803 626973 501381 650242
0110010011100000100001000: 605906 642803 626973 501381 614800
0110010010100010100000100: 605906 642803 626973 501381 572314
0110010010100010100000100: 605906 642803 626973 501381 542487
0110010010100010100000100: 605906 642803 639788 492426 631291
0110010011100000100001000: 605906 642803 639788 650242 492426
0110010010100010100000100: 605906 642803 639788 650242 631291
0110010011100000100001000: 605906 642803 639788 614800 492426
0110010011100000100001000: 605906 642803 639788 614800 650242
0110010010100010100000100: 605906 642803 639788 614800 631291
0110010011100100110001000: 605906 642803 639788 501381 492426
0110010011100100110001000: 605906 642803 639788 501381 650242
0110010011100100110001000: 605906 642803 639788 501381 614800
0110010010100010100000100: 605906 642803 484310 492426 631291
0110010011100000100001000: 605906 642803 484310 650242 492426
0110010010100010100000100: 605906 642803 484310 650242 631291
0110010011100000100001000: 605906 642803 484310 501381 492426
0110010011100000100001000: 605906 642803 484310 501381 650242
0110010010100010100000100: 605906 642803 484310 501381 631291
0110010011100100110001000: 605906 642803 484310 614800 492426
0110010011100100110001000: 605906 642803 484310 614800 650242
0110010011100100110001000: 605906 642803 484310 614800 501381
0111010100110001000100010: 605906 642803 569986 626973 572314
0111010100110001000100010: 605906 642803 569986 626973 542487
0111110100110001000010000: 605906 642803 569986 639788 626973
0111010100110001000100010: 605906 642803 569986 639788 631291
0110010011100000100001000: 654589 614800 501381 569986 542487
0110010011100000100001000: 654589 614800 501381 484310 542487
0110010011100000100001000: 654589 614800 632887 484310 542487
0110010011100000100001000: 654589 614800 632887 642803 542487
0110010011100000100001000: 654589 614800 632887 642803 484310
0110010011100100110001000: 654589 614800 632887 569986 542487
0110010010100010100000100: 654589 501381 614800 639788 542487
0110010010100010100000100: 654589 501381 614800 639788 569986
0110010010100010100100110: 654589 501381 614800 639788 484310
0110010011100000100001000: 654589 501381 632887 642803 639788
0110010010100010100000100: 654589 632887 501381 569986 639788
0110010011100000100001000: 632887 569986 654589 484310 519661
0110010011100000100001000: 632887 569986 654589 605906 519661
0110010011100000100001000: 632887 569986 654589 642803 519661
0110010011100000100001000: 632887 569986 654589 642803 484310
0110010011100100110001000: 632887 569986 654589 614800 519661
0110010011100100110001000: 632887 569986 654589 614800 605906
0110010010100010100000100: 632887 654589 569986 501381 519661
0110010010100010100000100: 632887 654589 569986 501381 484310
0110010010100010100000100: 632887 654589 569986 501381 605906
0110010011100100110001000: 632887 654589 569986 614800 501381
0110010011100000100001000: 501381 639788 654589 605906 631291
0110010010100010100000100: 501381 654589 639788 614800 631291
0110010010100010100000100: 501381 654589 639788 614800 605906
0110010011100000100001000: 501381 654589 639788 632887 614800
0110010010100010100000100: 501381 654589 639788 632887 631291
0110010010100010100000100: 501381 654589 639788 632887 484310
0110010010100010100000100: 501381 654589 639788 632887 605906
0110010011100100110001000: 501381 654589 642803 614800 632887
0110010010100010100000100: 501381 642803 639788 492426 631291
0110010010100010100000100: 501381 642803 639788 492426 484310
0110010011100000100001000: 501381 642803 639788 650242 492426
0110010010100010100000100: 501381 642803 639788 650242 631291
0110010010100010100000100: 501381 642803 639788 650242 484310
0110010011100000100001000: 501381 642803 639788 614800 492426
0110010011100000100001000: 501381 642803 639788 614800 650242
0110010010100010100000100: 501381 642803 639788 614800 631291
0110010011100000100001000: 501381 642803 639788 569986 492426
0110010011100000100001000: 501381 642803 639788 569986 650242
0110010010100010100000100: 501381 642803 639788 569986 631291
0110010010100010100000100: 501381 642803 654589 492426 632887
0110010011100000100001000: 501381 642803 654589 650242 492426
0110010010100010100000100: 501381 642803 654589 650242 632887
0110010011100000100001000: 501381 642803 654589 569986 492426
0110010011100000100001000: 501381 642803 654589 569986 650242
0110010011100000100001000: 501381 642803 654589 605906 492426
0110010011100000100001000: 501381 642803 654589 605906 650242
0110010010100010100000100: 501381 642803 654589 605906 632887
0110010011100100110001000: 501381 642803 654589 614800 492426
0110010011100100110001000: 501381 642803 654589 614800 650242
0110010011100100110001000: 501381 642803 654589 614800 605906
0111010101110001000001000: 484310 639788 631291 614800 501381
0111010100110001000100010: 484310 639788 631291 614800 542487
0111010100110001000100010: 484310 639788 631291 614800 654589
0111010100110001000100010: 484310 639788 631291 614800 642803
0111010101110001000001000: 484310 639788 631291 569986 501381
0111010100110001000100010: 484310 639788 631291 569986 519661
0111010100110001000100010: 484310 639788 631291 569986 632887
0111010100110001000100010: 484310 639788 631291 569986 642803
0111010101110001000001000: 484310 639788 605906 614800 501381
0111110110110001100010000: 484310 639788 605906 631291 614800
0111010110110011100000100: 484310 639788 605906 631291 626973
0111010110110011100000100: 484310 639788 605906 631291 642803
0110010011100000100001000: 484310 614800 631291 654589 542487
0110010011100000100001000: 484310 614800 631291 642803 542487
0110010011100000100001000: 484310 614800 631291 642803 654589
0110010010100010100000100: 484310 614800 639788 542487 501381
0110010011100000100001000: 484310 614800 639788 654589 542487
0110010011100000100001000: 484310 614800 639788 642803 542487
0110010011100000100001000: 484310 614800 639788 642803 654589
0110010011100000100001000: 484310 614800 605906 654589 542487
0111010101110001000001000: 484310 614800 569986 631291 542487
0111010101110001000001000: 484310 614800 569986 631291 654589
0111010101110001000001000: 484310 614800 569986 639788 542487
0111010101110001000001000: 484310 614800 569986 639788 654589
0110010011100000100001000: 484310 569986 631291 632887 519661
0110010011100000100001000: 484310 569986 631291 642803 519661
0110010011100000100001000: 484310 569986 631291 642803 632887
0110010010100010100000100: 484310 569986 639788 519661 501381
0110010011100000100001000: 484310 569986 639788 632887 519661
0110010010100010100000100: 484310 569986 639788 632887 501381
0110010011100000100001000: 484310 569986 639788 642803 519661
0110010011100000100001000: 484310 569986 639788 642803 632887
0111010101110001000001000: 484310 569986 614800 631291 519661
0111010101110001000001000: 484310 569986 614800 631291 632887
0111010101110001000001000: 484310 569986 614800 639788 519661
0111010101110001000001000: 484310 569986 614800 639788 632887
0111010100110001000100010: 484310 569986 614800 639788 501381
0111110100110001000110010: 484310 569986 614800 639788 631291
0111010110110011100000100: 484310 569986 614800 605906 542487
0111010110110011100000100: 484310 569986 614800 605906 654589
0111010101110001000001000: 484310 569986 605906 631291 519661
0111010101110001000001000: 484310 569986 605906 631291 632887
0111110110110001100010000: 484310 569986 605906 614800 631291
0111010110110011100000100: 484310 569986 605906 614800 626973
0110010011100000100001000: 484310 605906 631291 642803 626973
0110010010100010100000100: 484310 605906 614800 626973 654589
0111010100110001000100010: 484310 605906 639788 614800 542487
0111010100110001000100010: 484310 605906 639788 614800 654589
0111110110110011100010100: 484310 605906 639788 569986 631291
0111110110110011100010100: 484310 605906 569986 639788 614800
0110010011100000100001000: 569986 614800 519661 654589 542487
0110010011100000100001000: 569986 614800 605906 654589 542487
0111010101110001000001000: 569986 614800 484310 519661 542487
0111010101110001000001000: 569986 614800 484310 519661 654589
0111010101110001000001000: 569986 614800 484310 632887 542487
0111010101110001000101010: 569986 614800 484310 632887 654589
0111010110110011100000100: 569986 614800 484310 642803 631291
0111010110110011100000100: 569986 614800 484310 642803 639788
0111010101110001000001000: 569986 614800 642803 519661 542487
0111010101110001000001000: 569986 614800 642803 519661 654589
0111010101110001000001000: 569986 614800 642803 632887 542487
0111010101110001000101010: 569986 614800 642803 632887 654589
0111110110110001100010000: 569986 614800 642803 484310 519661
0111110110110001100010000: 569986 614800 642803 484310 632887
0111010110110011100000100: 569986 614800 642803 484310 492426
0111010110110011100000100: 569986 614800 642803 484310 650242
0111010110110011100000100: 569986 614800 642803 484310 501381
0111110100110001000010000: 569986 484310 614800 632887 519661
0111110110110001100010000: 569986 484310 605906 614800 519661
0111110110110001100010000: 569986 484310 605906 614800 632887
0110010010100010100000100: 569986 632887 484310 654589 631291
0110010010100010100000100: 569986 632887 484310 654589 639788
0110010011100000100001000: 569986 605906 519661 639788 626973
0110010010100010100000100: 569986 605906 614800 626973 654589
0110010011100000100001000: 569986 605906 614800 639788 626973
0110010010100010100000100: 569986 605906 614800 639788 542487
0110010010100010100000100: 569986 605906 614800 639788 654589
0111110000100001000010000: 569986 605906 632887 614800 519661
0110010010100010100000100: 569986 605906 632887 626973 654589
0110010011100000100001000: 569986 605906 632887 639788 626973
0110010010100010100000100: 569986 605906 632887 639788 654589
0111110100110001000010000: 569986 605906 484310 632887 519661
0111010100110001000100010: 569986 605906 484310 632887 654589
0111110110110001100010000: 569986 605906 642803 484310 519661
0111110110110001100010000: 569986 605906 642803 484310 632887
0110010011100000100001000: 569986 642803 519661 650242 492426
0110010011100000100001000: 569986 642803 519661 501381 492426
0110010011100000100001000: 569986 642803 519661 501381 650242
0110010010100010100000100: 569986 642803 484310 492426 631291
0110010010100010100000100: 569986 642803 484310 492426 639788
0110010011100000100001000: 569986 642803 484310 650242 492426
0110010010100010100000100: 569986 642803 484310 650242 631291
0110010010100010100000100: 569986 642803 484310 650242 639788
0110010011100000100001000: 569986 642803 484310 501381 492426
0110010011100000100001000: 569986 642803 484310 501381 650242
0110010010100010100000100: 569986 642803 484310 501381 631291
0111110000100001000010000: 569986 642803 632887 484310 519661
0110010010100010100000100: 569986 642803 632887 492426 654589
0110010011100000100001000: 569986 642803 632887 650242 492426
0110010010100010100000100: 569986 642803 632887 650242 654589
0110010011100000100001000: 569986 642803 632887 501381 492426
0110010011100000100001000: 569986 642803 632887 501381 650242
0111110100110001000010000: 569986 642803 614800 632887 519661
0111110100110001000010000: 569986 642803 605906 632887 519661
0111010100110001000100010: 569986 642803 605906 632887 654589
0111110110110001100010000: 569986 642803 605906 614800 519661
0111110110110001100010000: 569986 642803 605906 614800 632887
0111110110110011100110110: 569986 642803 605906 614800 484310
0110010011100000100001000: 614800 542487 569986 626973 492426
0110010011100000100001000: 614800 542487 484310 626973 492426
0110010011100000100001000: 614800 542487 654589 626973 492426
0110010011100100110001000: 614800 542487 642803 492426 626973
0110010010100010100000100: 614800 569986 542487 519661 492426
0110010010100010100000100: 614800 569986 542487 519661 626973
0110010011100000100001000: 614800 569986 542487 632887 519661
0110010010100010100000100: 614800 569986 542487 632887 492426
0110010010100010100000100: 614800 569986 542487 632887 626973
0110010011100000100001000: 614800 569986 542487 605906 519661
0110010011100000100001000: 614800 569986 542487 605906 632887
0110010010100010100000100: 614800 569986 542487 605906 492426
0110010011100000100001000: 614800 569986 654589 605906 519661
0111110110110001100010000: 614800 569986 642803 484310 542487
0111110110110001100010000: 614800 569986 642803 484310 654589
0110010010100010100000100: 614800 484310 542487 631291 492426
0110010010100010100000100: 614800 484310 542487 631291 626973
0110010010100010100000100: 614800 484310 542487 639788 492426
0110010010100010100000100: 614800 484310 542487 639788 626973
0110010011100000100001000: 614800 484310 542487 605906 631291
0110010010100010100000100: 614800 484310 542487 605906 492426
0110010011100000100001000: 614800 484310 654589 605906 631291
0111010100110001000100010: 614800 484310 569986 542487 492426
0111010100110001000100010: 614800 484310 569986 542487 626973
0111110100110001000010000: 614800 484310 569986 654589 542487
0111010100110001000100010: 614800 484310 569986 654589 501381
0110010010100010100000100: 614800 654589 542487 501381 492426
0110010010100010100000100: 614800 654589 542487 501381 626973
0110010011100000100001000: 614800 654589 542487 632887 501381
0110010010100010100000100: 614800 654589 542487 632887 492426
0110010010100010100000100: 614800 654589 542487 632887 626973
0110010010100010100000100: 614800 654589 569986 501381 519661
0110010010100010100000100: 614800 654589 569986 501381 605906
0110010010100010100000100: 614800 654589 484310 501381 631291
0110010010100010100000100: 614800 654589 484310 501381 605906
0110010011100000100001000: 614800 654589 484310 632887 501381
0110010010100010100000100: 614800 654589 484310 632887 631291
0110010010100010100000100: 614800 654589 484310 632887 639788
0110010010100010100000100: 614800 654589 484310 632887 605906
0110010010100010100000100: 614800 642803 542487 650242 626973
0110010011100000100001000: 614800 642803 542487 501381 650242
0110010010100010100000100: 614800 642803 542487 501381 626973
0110010011100000100001000: 614800 642803 542487 605906 650242
0110010011100000100001000: 614800 642803 542487 605906 501381
0110010011100100110001000: 614800 642803 542487 492426 650242
0110010011100100110001000: 614800 642803 542487 492426 501381
0110010011100100110001000: 614800 642803 542487 492426 605906
0110010010100010100000100: 614800 642803 484310 492426 631291
0110010010100010100000100: 614800 642803 484310 492426 639788
0110010011100000100001000: 614800 642803 484310 650242 492426
0110010010100010100000100: 614800 642803 484310 650242 631291
0110010010100010100000100: 614800 642803 484310 650242 639788
0110010011100000100001000: 614800 642803 484310 501381 492426
0110010011100000100001000: 614800 642803 484310 501381 650242
0110010010100010100000100: 614800 642803 484310 501381 631291
0111110000100001000010000: 614800 642803 654589 484310 542487
0110010010100010100000100: 614800 642803 654589 492426 632887
0110010011100000100001000: 614800 642803 654589 650242 492426
0110010010100010100000100: 614800 642803 654589 650242 632887
0110010011100000100001000: 614800 642803 654589 605906 492426
0110010011100000100001000: 614800 642803 654589 605906 650242
0110010010100010100000100: 614800 642803 654589 605906 632887
0111010100110001000100010: 614800 642803 569986 542487 626973
0111110100110001000010000: 614800 642803 569986 654589 542487
0111010100110001000100010: 639788 484310 631291 501381 654589
0111010100110001000100010: 639788 484310 631291 501381 642803
0111110110110001100010000: 639788 484310 605906 631291 501381
0110010011100000100001000: 639788 501381 631291 642803 654589
0110010010100010100000100: 639788 501381 484310 654589 569986
0110010011100000100001000: 639788 501381 484310 642803 654589
0110010011100000100001000: 639788 605906 631291 569986 626973
0110010011100000100001000: 639788 605906 631291 642803 626973
0110010010100010100000100: 639788 605906 501381 626973 654589
0110010011100000100001000: 639788 605906 501381 569986 626973
0110010010100010100000100: 639788 605906 501381 569986 654589
0111010100110001000100010: 639788 605906 484310 501381 654589
0110010011100000100001000: 650242 642803 606500 614800 492426
0110010011100000100001000: 650242 642803 606500 569986 492426
0110010011100000100001000: 650242 642803 606500 501381 492426
0110010011100000100001000: 650242 642803 606500 501381 614800
0110010011100000100001000: 650242 642803 606500 501381 569986
0110010011100000100001000: 650242 642803 606500 605906 492426
0110010011100000100001000: 650242 642803 606500 605906 614800
0110010011100000100001000: 650242 642803 606500 605906 501381
0110010011100100110001000: 626973 542487 572314 492426 614800
0110010011100000100001000: 626973 542487 605906 614800 492426
0110010010100010100000100: 626973 605906 572314 639788 492426
0110010011100000100001000: 626973 605906 572314 569986 639788
0110010010100010100000100: 626973 605906 572314 569986 492426
0110010010100010100000100: 626973 605906 572314 484310 492426
0110010011100000100001000: 626973 605906 572314 642803 639788
0110010011100000100001000: 626973 605906 572314 642803 484310
0110010010100010100000100: 626973 605906 542487 639788 492426
0110010010100010100000100: 626973 605906 542487 639788 614800
0110010011100000100001000: 626973 605906 542487 569986 639788
0110010010100010100000100: 626973 605906 542487 569986 492426
0110010010100010100000100: 626973 605906 542487 484310 492426
0110010011100000100001000: 626973 605906 542487 642803 639788
0110010011100000100001000: 626973 605906 542487 642803 484310
0110010011100100110001000: 542487 492426 626973 572314 642803
0110010011100100110001000: 542487 626973 492426 572314 605906
0110010011100000100001000: 542487 626973 614800 605906 572314
0110010010100010100000100: 542487 614800 492426 569986 572314
0110010010100010100000100: 542487 614800 492426 484310 572314
0110010011100000100001000: 542487 614800 492426 654589 569986
0110010011100000100001000: 542487 614800 492426 654589 484310
0110010010100010100000100: 542487 614800 492426 654589 572314
0110010010100010100000100: 542487 614800 626973 569986 572314
0110010010100010100000100: 542487 614800 626973 484310 572314
0110010011100000100001000: 542487 614800 626973 654589 569986
0110010011100000100001000: 542487 614800 626973 654589 484310
0110010010100010100000100: 542487 614800 626973 654589 572314
0110010010100010100000100: 542487 614800 626973 654589 605906
0110010011100000100001000: 542487 614800 626973 642803 484310
0110010011100000100001000: 542487 614800 626973 642803 654589
0110010010100010100000100: 542487 614800 626973 642803 572314
0110010010100010100000100: 492426 642803 572314 650242 626973
0110010011100000100001000: 492426 642803 572314 614800 650242
0110010010100010100000100: 492426 642803 572314 614800 626973
0110010011100000100001000: 492426 642803 572314 569986 650242
0110010010100010100000100: 492426 642803 572314 569986 626973
0110010011100000100001000: 492426 642803 572314 501381 650242
0110010011100000100001000: 492426 642803 572314 501381 614800
0110010011100000100001000: 492426 642803 572314 501381 569986
0110010010100010100000100: 492426 642803 572314 501381 626973
0110010011100000100001000: 492426 642803 572314 605906 650242
0110010011100000100001000: 492426 642803 572314 605906 614800
0110010011100000100001000: 492426 642803 572314 605906 501381
0110010010100010100000100: 492426 642803 542487 650242 626973
0110010011100000100001000: 492426 642803 542487 569986 650242
0110010010100010100000100: 492426 642803 542487 569986 626973
0110010011100000100001000: 492426 642803 542487 501381 650242
0110010011100000100001000: 492426 642803 542487 501381 569986
0110010010100010100000100: 492426 642803 542487 501381 626973
0110010011100000100001000: 492426 642803 542487 605906 650242
0110010011100000100001000: 492426 642803 542487 605906 501381
