Vertex,0111100010011010,0111100010001000,0111100110011110,0100101101000100,0101101001001000,0110101111010110,0110100110010110,0110101011010010,0101101001011010,0111101011001000,0111101011011010,0100101001010010,0110101111000100,0111100110001100,0111101111001100,0110100110000100,0101101101011110,0110100010010010,0101101101001100
525045,22.0,72.0,2.0,2.0,50.0,34.0,35.0,38.0,10.0,129.0,34.0,23.0,58.0,34.0,36.0,160.0,3.0,85.0,8.0
495298,4.0,56.0,0.0,4.0,38.0,0.0,35.0,10.0,10.0,28.0,0.0,22.0,14.0,10.0,0.0,163.0,0.0,88.0,4.0
545960,8.0,136.0,0.0,4.0,42.0,0.0,35.0,8.0,10.0,40.0,0.0,16.0,16.0,8.0,0.0,183.0,0.0,97.0,0.0
572819,16.0,72.0,0.0,0.0,38.0,10.0,0.0,29.0,0.0,95.0,12.0,16.0,43.0,25.0,18.0,137.0,0.0,71.0,6.0
538113,16.0,71.0,3.0,0.0,36.0,44.0,0.0,22.0,0.0,88.0,48.0,8.0,38.0,22.0,54.0,118.0,3.0,52.0,4.0
610268,0.0,24.0,0.0,2.0,16.0,0.0,0.0,0.0,0.0,0.0,0.0,21.0,0.0,0.0,0.0,83.0,0.0,56.0,0.0
483619,42.0,183.0,3.0,4.0,90.0,44.0,35.0,70.0,10.0,265.0,48.0,27.0,116.0,75.0,54.0,324.0,3.0,176.0,16.0
560416,2.0,0.0,0.0,0.0,24.0,0.0,0.0,12.0,0.0,21.0,0.0,18.0,12.0,8.0,0.0,94.0,0.0,61.0,4.0
543804,24.0,70.0,3.0,0.0,44.0,34.0,0.0,36.0,0.0,156.0,36.0,18.0,66.0,45.0,36.0,172.0,3.0,93.0,8.0
647714,18.0,109.0,1.0,2.0,48.0,10.0,0.0,27.0,0.0,122.0,14.0,22.0,51.0,36.0,18.0,214.0,0.0,117.0,6.0
617349,8.0,88.0,0.0,0.0,26.0,0.0,0.0,8.0,0.0,40.0,0.0,0.0,16.0,8.0,0.0,91.0,0.0,45.0,0.0
586913,0.0,24.0,0.0,2.0,22.0,0.0,0.0,0.0,0.0,0.0,0.0,17.0,0.0,0.0,0.0,104.0,0.0,64.0,0.0
636631,2.0,30.0,0.0,2.0,22.0,0.0,0.0,5.0,0.0,20.0,0.0,14.0,9.0,8.0,0.0,103.0,0.0,59.0,2.0
630023,4.0,15.0,0.0,0.0,22.0,0.0,0.0,10.0,0.0,35.0,0.0,20.0,16.0,13.0,0.0,97.0,0.0,57.0,4.0
464829,0.0,0.0,0.0,0.0,12.0,0.0,0.0,0.0,0.0,0.0,0.0,0.0,0.0,0.0,0.0,42.0,0.0,24.0,0.0
511528,2.0,30.0,0.0,2.0,22.0,0.0,0.0,5.0,0.0,21.0,0.0,14.0,9.0,8.0,0.0,103.0,0.0,59.0,2.0
graph,42.0,245.0,3.0,6.0,138.0,44.0,35.0,70.0,10.0,265.0,48.0,64.0,116.0,75.0,54.0,547.0,3.0,301.0,16.0
