Vertex,0101101001001000,0110100010010010,0100101001010010,0111100010001000,0110100110000100
457378,6.0,25.0,6.0,15.0,57.0
491036,8.0,28.0,6.0,0.0,48.0
469356,12.0,50.0,6.0,30.0,93.0
613450,6.0,25.0,6.0,15.0,57.0
599745,12.0,50.0,6.0,30.0,94.0
482597,6.0,21.0,3.0,15.0,46.0
574472,4.0,14.0,3.0,0.0,23.0
525751,6.0,23.0,3.0,15.0,57.0
520243,0.0,4.0,3.0,0.0,9.0
532346,0.0,6.0,0.0,0.0,29.0
594835,0.0,4.0,0.0,0.0,19.0
524286,0.0,10.0,3.0,0.0,39.0
505405,0.0,2.0,0.0,0.0,9.0
511216,4.0,18.0,3.0,0.0,44.0
graph,16.0,70.0,12.0,30.0,156.0
