Vertex,0111110111110101110011000,0111110100110001000010000,0110010011100100110001000,0111110110110101110010000,0111010101110001000101010,0110010011100110110001100,0110010010100010100100110,0110010010100010100000100,0111010100110001000100010,0111010110110011100000100,0111110100110001000110010,0111010110110011100100110,0111110000100001000010000,0111110110110011100010100,0111110110110001100010000,0111010101110001000001000,0110010011100000100001000
574965,0.0,6.0,14.0,1.0,2.0,0.0,3.0,53.0,7.0,0.0,0.0,1.0,2.0,0.0,2.0,16.0,51.0
476869,0.0,12.0,19.0,1.0,6.0,1.0,3.0,53.0,14.0,2.0,1.0,1.0,3.0,2.0,3.0,16.0,60.0
585438,0.0,0.0,2.0,0.0,0.0,0.0,2.0,36.0,7.0,0.0,0.0,0.0,0.0,0.0,0.0,0.0,21.0
618533,0.0,4.0,12.0,1.0,6.0,1.0,2.0,47.0,5.0,2.0,0.0,0.0,0.0,0.0,0.0,11.0,36.0
494622,1.0,12.0,7.0,0.0,3.0,0.0,4.0,61.0,21.0,6.0,1.0,1.0,4.0,2.0,11.0,23.0,73.0
592700,1.0,25.0,23.0,7.0,11.0,1.0,1.0,90.0,45.0,6.0,1.0,1.0,7.0,2.0,11.0,43.0,112.0
573171,1.0,15.0,21.0,7.0,7.0,0.0,4.0,99.0,36.0,6.0,0.0,1.0,4.0,2.0,11.0,29.0,99.0
648970,0.0,0.0,2.0,0.0,0.0,0.0,3.0,63.0,6.0,2.0,0.0,0.0,0.0,0.0,1.0,10.0,31.0
636063,1.0,16.0,2.0,7.0,4.0,0.0,0.0,23.0,26.0,1.0,1.0,0.0,3.0,1.0,4.0,19.0,46.0
608735,1.0,17.0,7.0,7.0,7.0,1.0,3.0,66.0,27.0,3.0,1.0,0.0,3.0,1.0,4.0,26.0,68.0
497765,0.0,7.0,14.0,1.0,3.0,0.0,2.0,110.0,14.0,1.0,0.0,0.0,5.0,0.0,2.0,12.0,115.0
647806,0.0,11.0,9.0,1.0,3.0,1.0,0.0,26.0,4.0,0.0,0.0,0.0,5.0,0.0,3.0,11.0,48.0
462090,0.0,14.0,13.0,1.0,3.0,0.0,2.0,99.0,29.0,0.0,0.0,0.0,8.0,0.0,3.0,18.0,132.0
609148,0.0,0.0,5.0,0.0,0.0,0.0,1.0,60.0,7.0,0.0,0.0,0.0,1.0,0.0,0.0,0.0,44.0
524500,0.0,0.0,5.0,0.0,0.0,0.0,1.0,46.0,6.0,0.0,0.0,0.0,1.0,0.0,0.0,0.0,36.0
597343,0.0,3.0,2.0,1.0,0.0,0.0,1.0,41.0,5.0,1.0,0.0,0.0,0.0,0.0,0.0,16.0,24.0
567971,0.0,0.0,1.0,0.0,0.0,0.0,1.0,28.0,1.0,0.0,0.0,0.0,0.0,0.0,0.0,4.0,9.0
499789,0.0,0.0,4.0,0.0,0.0,0.0,0.0,28.0,0.0,0.0,0.0,0.0,0.0,0.0,0.0,0.0,10.0
646955,0.0,3.0,1.0,0.0,0.0,0.0,1.0,36.0,16.0,0.0,0.0,0.0,1.0,0.0,0.0,7.0,33.0
522963,0.0,2.0,1.0,0.0,0.0,0.0,0.0,17.0,5.0,0.0,0.0,0.0,2.0,0.0,0.0,2.0,42.0
644339,0.0,3.0,1.0,0.0,0.0,0.0,1.0,43.0,19.0,0.0,0.0,0.0,1.0,0.0,0.0,7.0,35.0
graph,1.0,30.0,33.0,7.0,11.0,1.0,7.0,225.0,60.0,6.0,1.0,1.0,10.0,2.0,11.0,54.0,225.0
