0110010011100000100001000: 556881 460129 618912 522954 470226
0110010010100010100000100: 556881 618912 460129 473838 470226
0110010010100010100000100: 556881 618912 460129 473838 522954
0110010011100000100001000: 618912 473838 556881 468711 557916
0110010011100000100001000: 618912 473838 556881 570191 557916
0110010011100000100001000: 618912 473838 556881 570191 468711
0110010010100010100000100: 618912 556881 473838 460129 557916
0110010010100010100000100: 618912 556881 473838 460129 468711
0110010010100010100000100: 618912 556881 473838 460129 570191
0110010011100000100001000: 552728 470226 545761 460129 546593
0110010010100010100000100: 552728 545761 470226 557916 546593
0110010010100010100000100: 552728 545761 470226 557916 460129
0110010011100000100001000: 552728 545761 470226 463816 557916
0110010010100010100000100: 552728 545761 470226 463816 546593
0110010010100010100000100: 552728 545761 470226 463816 460129
0110010011100000100001000: 552728 545761 470226 574880 557916
0110010011100000100001000: 552728 545761 470226 574880 463816
0110010010100010100000100: 552728 545761 470226 574880 460129
0110010010100010100100110: 552728 545761 470226 574880 546593
0111010110110011100000100: 552728 570191 470226 545761 460129
0111010110110011100000100: 552728 570191 545761 470226 557916
0111010110110011100000100: 552728 570191 545761 470226 463816
0111010110110011100000100: 552728 570191 545761 470226 574880
0111010101110001000001000: 570191 470226 546593 483968 460129
0111010101110001000101010: 570191 470226 546593 522954 460129
0111010101110001000001000: 570191 470226 546593 545761 460129
0111010101110001000001000: 570191 470226 546593 473838 460129
0111010110110011100000100: 570191 470226 546593 552728 574880
0111010101110001000001000: 570191 470226 552728 483968 460129
0111010101110001000101010: 570191 470226 552728 522954 460129
0111010101110001000001000: 570191 470226 552728 473838 460129
0111110110110001100010000: 570191 470226 552728 546593 483968
0111110110110001100010000: 570191 470226 552728 546593 522954
0111110110110001100010000: 570191 470226 552728 546593 473838
0111010101110001000001000: 570191 546593 470226 483968 574880
0111010100110001000100010: 570191 546593 470226 483968 561260
0111110100110001000010000: 570191 546593 470226 522954 483968
0111010100110001000100010: 570191 546593 470226 522954 629712
0111010100110001000100010: 570191 546593 470226 522954 580570
0111010101110001000101010: 570191 546593 470226 522954 574880
0111110100110001000010000: 570191 546593 470226 545761 483968
0111110100110001000010000: 570191 546593 470226 545761 522954
0111010100110001000100010: 570191 546593 470226 545761 557916
0111010100110001000100010: 570191 546593 470226 545761 463816
0111010101110001000101010: 570191 546593 470226 545761 574880
0111110100110001000010000: 570191 546593 470226 473838 483968
0111110100110001000010000: 570191 546593 470226 473838 522954
0111110100110001000010000: 570191 546593 470226 473838 545761
0111010101110001000001000: 570191 546593 470226 473838 574880
0111010100110001000100010: 570191 546593 470226 473838 557916
0111010100110001000100010: 570191 546593 470226 473838 468711
0111010100110001000100010: 570191 546593 470226 473838 618912
0110010010100010100000100: 570191 483968 470226 561260 460129
0110010010100010100100110: 570191 483968 546593 561260 574880
0110010011100000100001000: 570191 522954 470226 580570 629712
0110010011100000100001000: 570191 522954 470226 574880 629712
0110010011100000100001000: 570191 522954 470226 574880 580570
0110010011100100110001000: 570191 522954 470226 460129 629712
0110010011100100110001000: 570191 522954 470226 460129 580570
0110010011100100110001000: 570191 522954 470226 460129 574880
0110010011100000100001000: 570191 522954 546593 460129 629712
0110010011100000100001000: 570191 522954 546593 580570 629712
0110010011100000100001000: 570191 522954 546593 580570 460129
0110010011100100110001000: 570191 522954 546593 574880 629712
0110010011100100110001000: 570191 522954 546593 574880 460129
0110010011100100110001000: 570191 522954 546593 574880 580570
0110010010100010100100110: 570191 522954 483968 629712 561260
0110010011100000100001000: 570191 522954 483968 460129 629712
0110010010100010100000100: 570191 522954 483968 460129 561260
0110010011100000100001000: 570191 522954 483968 580570 629712
0110010011100000100001000: 570191 522954 483968 580570 460129
0110010010100010100100110: 570191 522954 483968 580570 561260
0110010011100000100001000: 570191 522954 483968 574880 629712
0110010011100000100001000: 570191 522954 483968 574880 460129
0110010011100000100001000: 570191 522954 483968 574880 580570
0110010010100010100100110: 570191 522954 483968 574880 561260
0110010011100000100001000: 570191 522954 545761 460129 629712
0110010011100000100001000: 570191 522954 545761 580570 629712
0110010011100000100001000: 570191 522954 545761 580570 460129
0110010011100100110001000: 570191 522954 545761 574880 629712
0110010011100100110001000: 570191 522954 545761 574880 460129
0110010011100100110001000: 570191 522954 545761 574880 580570
0110010011100000100001000: 570191 522954 473838 460129 629712
0110010011100000100001000: 570191 522954 473838 580570 629712
0110010011100000100001000: 570191 522954 473838 580570 460129
0110010011100000100001000: 570191 522954 473838 574880 629712
0110010011100000100001000: 570191 522954 473838 574880 460129
0110010011100000100001000: 570191 522954 473838 574880 580570
0110010011100000100001000: 570191 522954 552728 460129 629712
0110010011100000100001000: 570191 522954 552728 580570 629712
0110010011100000100001000: 570191 522954 552728 580570 460129
0110010011100000100001000: 570191 522954 552728 574880 629712
0110010011100000100001000: 570191 522954 552728 574880 460129
0110010011100000100001000: 570191 522954 552728 574880 580570
0110010010100010100000100: 570191 545761 470226 557916 460129
0110010011100000100001000: 570191 545761 470226 463816 557916
0110010010100010100000100: 570191 545761 470226 463816 460129
0110010011100000100001000: 570191 545761 470226 574880 557916
0110010011100000100001000: 570191 545761 470226 574880 463816
0110010010100010100000100: 570191 545761 470226 574880 460129
0110010011100000100001000: 570191 545761 546593 463816 557916
0110010011100100110001000: 570191 545761 546593 574880 557916
0110010011100100110001000: 570191 545761 546593 574880 463816
0110010010100010100000100: 570191 545761 483968 557916 561260
0110010011100000100001000: 570191 545761 483968 463816 557916
0110010010100010100000100: 570191 545761 483968 463816 561260
0110010011100000100001000: 570191 545761 483968 574880 557916
0110010011100000100001000: 570191 545761 483968 574880 463816
0110010010100010100100110: 570191 545761 483968 574880 561260
0111110000100001000010000: 570191 545761 522954 483968 470226
0111110000100001000010000: 570191 545761 522954 483968 546593
0110010010100010100000100: 570191 545761 522954 557916 629712
0110010010100010100000100: 570191 545761 522954 557916 460129
0110010010100010100100110: 570191 545761 522954 557916 580570
0110010011100000100001000: 570191 545761 522954 463816 557916
0110010010100010100000100: 570191 545761 522954 463816 629712
0110010010100010100000100: 570191 545761 522954 463816 460129
0110010010100010100000100: 570191 545761 522954 463816 580570
0110010011100100110001000: 570191 545761 522954 574880 557916
0110010011100100110001000: 570191 545761 522954 574880 463816
0110010011100000100001000: 570191 545761 473838 574880 463816
0110010011100100110001000: 570191 545761 473838 557916 463816
0110010011100100110001000: 570191 545761 473838 557916 574880
0111010101110001000001000: 570191 545761 552728 546593 557916
0111010101110001000001000: 570191 545761 552728 546593 463816
0111010101110001000101010: 570191 545761 552728 546593 574880
0111010101110001000001000: 570191 545761 552728 483968 557916
0111010101110001000001000: 570191 545761 552728 483968 463816
0111010101110001000001000: 570191 545761 552728 483968 574880
0111010101110001000001000: 570191 545761 552728 522954 557916
0111010101110001000001000: 570191 545761 552728 522954 463816
0111010101110001000101010: 570191 545761 552728 522954 574880
0111010101110001000001000: 570191 545761 552728 473838 463816
0111010101110001000001000: 570191 545761 552728 473838 574880
0111010101110001000101010: 570191 545761 552728 473838 557916
0110010010100010100000100: 570191 473838 470226 557916 460129
0110010011100000100001000: 570191 473838 470226 468711 557916
0110010010100010100000100: 570191 473838 470226 468711 460129
0110010011100000100001000: 570191 473838 470226 618912 557916
0110010011100000100001000: 570191 473838 470226 618912 468711
0110010010100010100000100: 570191 473838 470226 618912 460129
0110010010100010100000100: 570191 473838 546593 557916 574880
0110010011100000100001000: 570191 473838 546593 468711 557916
0110010010100010100000100: 570191 473838 546593 468711 574880
0110010011100000100001000: 570191 473838 546593 618912 557916
0110010011100000100001000: 570191 473838 546593 618912 468711
0110010010100010100000100: 570191 473838 546593 618912 574880
0110010010100010100000100: 570191 473838 483968 557916 561260
0110010011100000100001000: 570191 473838 483968 468711 557916
0110010010100010100000100: 570191 473838 483968 468711 561260
0110010011100000100001000: 570191 473838 483968 618912 557916
0110010011100000100001000: 570191 473838 483968 618912 468711
0110010010100010100000100: 570191 473838 483968 618912 561260
0111110000100001000010000: 570191 473838 522954 483968 470226
0111110000100001000010000: 570191 473838 522954 483968 546593
0110010010100010100000100: 570191 473838 522954 557916 629712
0110010010100010100000100: 570191 473838 522954 557916 460129
0110010010100010100000100: 570191 473838 522954 557916 574880
0110010010100010100100110: 570191 473838 522954 557916 580570
0110010011100000100001000: 570191 473838 522954 468711 557916
0110010010100010100000100: 570191 473838 522954 468711 629712
0110010010100010100000100: 570191 473838 522954 468711 460129
0110010010100010100000100: 570191 473838 522954 468711 580570
0110010010100010100000100: 570191 473838 522954 468711 574880
0110010011100000100001000: 570191 473838 522954 618912 557916
0110010011100000100001000: 570191 473838 522954 618912 468711
0110010010100010100000100: 570191 473838 522954 618912 629712
0110010010100010100000100: 570191 473838 522954 618912 460129
0110010010100010100000100: 570191 473838 522954 618912 580570
0110010010100010100000100: 570191 473838 522954 618912 574880
0111110000100001000010000: 570191 473838 545761 483968 470226
0111110000100001000010000: 570191 473838 545761 483968 546593
0111110000100001000010000: 570191 473838 545761 522954 470226
0111110000100001000010000: 570191 473838 545761 522954 546593
0111110000100001000010000: 570191 473838 545761 522954 483968
0110010010100010100000100: 570191 473838 545761 468711 574880
0110010010100010100100110: 570191 473838 545761 468711 463816
0110010011100000100001000: 570191 473838 545761 618912 468711
0110010010100010100000100: 570191 473838 545761 618912 463816
0110010010100010100000100: 570191 473838 545761 618912 574880
0110010011100100110001000: 570191 473838 545761 557916 468711
0110010011100100110001000: 570191 473838 545761 557916 618912
0110010011100000100001000: 570191 473838 552728 468711 557916
0110010011100000100001000: 570191 473838 552728 618912 557916
0110010011100000100001000: 570191 473838 552728 618912 468711
0111110000100001000010000: 570191 552728 522954 483968 546593
0111110000100001000010000: 570191 552728 473838 483968 546593
0111110000100001000010000: 570191 552728 473838 522954 546593
0111110000100001000010000: 570191 552728 473838 522954 483968
0111010100110001000100010: 570191 552728 470226 483968 561260
0111110100110001000010000: 570191 552728 470226 522954 483968
0111010100110001000100010: 570191 552728 470226 522954 629712
0111010100110001000100010: 570191 552728 470226 522954 580570
0111010100110001000100010: 570191 552728 470226 522954 574880
0111110100110001000010000: 570191 552728 470226 473838 483968
0111110100110001000010000: 570191 552728 470226 473838 522954
0111010100110001000100010: 570191 552728 470226 473838 557916
0111010100110001000100010: 570191 552728 470226 473838 468711
0111010100110001000100010: 570191 552728 470226 473838 618912
0111110110110011100010100: 570191 552728 470226 545761 546593
0111110100110001000010000: 570191 552728 545761 483968 546593
0111010100110001000100010: 570191 552728 545761 483968 561260
0111110100110001000010000: 570191 552728 545761 522954 546593
0111110100110001000010000: 570191 552728 545761 522954 483968
0111010100110001000100010: 570191 552728 545761 522954 629712
0111010100110001000100010: 570191 552728 545761 522954 460129
0111010100110001000100010: 570191 552728 545761 522954 580570
0111110100110001000010000: 570191 552728 545761 473838 546593
0111110100110001000010000: 570191 552728 545761 473838 483968
0111110100110001000010000: 570191 552728 545761 473838 522954
0111010100110001000100010: 570191 552728 545761 473838 468711
0111010100110001000100010: 570191 552728 545761 473838 618912
0111110110110001100010000: 570191 552728 545761 470226 483968
0111110110110001100010000: 570191 552728 545761 470226 522954
0111110110110001100010000: 570191 552728 545761 470226 473838
0110010011100000100001000: 468711 463816 473838 545761 515428
0110010010100010100000100: 468711 473838 463816 557916 515428
0110010010100010100100110: 468711 473838 463816 557916 545761
0110010011100000100001000: 468711 473838 463816 570191 557916
0110010010100010100000100: 468711 473838 463816 570191 515428
0110010011100000100001000: 468711 473838 463816 618912 557916
0110010011100000100001000: 468711 473838 463816 618912 570191
0110010010100010100000100: 468711 473838 463816 618912 515428
0110010010100010100000100: 468711 473838 463816 618912 545761
0110010011100000100001000: 473838 557916 468711 545761 580570
0110010011100100110001000: 473838 557916 570191 545761 580570
0110010011100000100001000: 473838 557916 618912 545761 580570
0110010010100010100000100: 473838 468711 557916 463816 580570
0110010010100010100000100: 473838 570191 557916 470226 580570
0110010010100010100000100: 473838 570191 557916 546593 580570
0110010011100000100001000: 473838 570191 557916 483968 470226
0110010011100000100001000: 473838 570191 557916 483968 546593
0110010010100010100000100: 473838 570191 557916 483968 580570
0110010011100000100001000: 473838 570191 557916 522954 470226
0110010011100000100001000: 473838 570191 557916 522954 546593
0110010011100000100001000: 473838 570191 557916 522954 483968
0110010011100000100001000: 473838 570191 557916 552728 546593
0110010011100000100001000: 473838 570191 557916 552728 483968
0110010011100000100001000: 473838 570191 557916 552728 522954
0110010010100010100000100: 473838 570191 557916 552728 580570
0110010011100100110001000: 473838 570191 557916 545761 470226
0110010011100100110001000: 473838 570191 557916 545761 546593
0110010011100100110001000: 473838 570191 557916 545761 483968
0110010011100100110001000: 473838 570191 557916 545761 522954
0110010010100010100000100: 473838 570191 468711 470226 463816
0110010010100010100000100: 473838 570191 468711 546593 463816
0110010011100000100001000: 473838 570191 468711 483968 470226
0110010011100000100001000: 473838 570191 468711 483968 546593
0110010010100010100000100: 473838 570191 468711 483968 463816
0110010011100000100001000: 473838 570191 468711 522954 470226
0110010011100000100001000: 473838 570191 468711 522954 546593
0110010011100000100001000: 473838 570191 468711 522954 483968
0110010010100010100000100: 473838 570191 468711 522954 463816
0110010011100000100001000: 473838 570191 468711 545761 470226
0110010011100000100001000: 473838 570191 468711 545761 546593
0110010011100000100001000: 473838 570191 468711 545761 483968
0110010011100000100001000: 473838 570191 468711 545761 522954
0110010011100000100001000: 473838 570191 468711 552728 546593
0110010011100000100001000: 473838 570191 468711 552728 483968
0110010011100000100001000: 473838 570191 468711 552728 522954
0110010010100010100000100: 473838 570191 468711 552728 463816
0110010011100000100001000: 473838 570191 618912 483968 470226
0110010011100000100001000: 473838 570191 618912 483968 546593
0110010011100000100001000: 473838 570191 618912 522954 470226
0110010011100000100001000: 473838 570191 618912 522954 546593
0110010011100000100001000: 473838 570191 618912 522954 483968
0110010011100000100001000: 473838 570191 618912 545761 470226
0110010011100000100001000: 473838 570191 618912 545761 546593
0110010011100000100001000: 473838 570191 618912 545761 483968
0110010011100000100001000: 473838 570191 618912 545761 522954
0110010011100000100001000: 473838 570191 618912 552728 546593
0110010011100000100001000: 473838 570191 618912 552728 483968
0110010011100000100001000: 473838 570191 618912 552728 522954
0110010010100010100000100: 473838 618912 557916 556881 580570
0110010010100010100000100: 473838 618912 557916 556881 545761
0110010010100010100000100: 473838 618912 468711 556881 463816
0111110000100001000010000: 473838 618912 570191 468711 557916
0110010010100010100000100: 473838 618912 570191 556881 470226
0110010010100010100000100: 473838 618912 570191 556881 546593
0110010010100010100000100: 473838 618912 570191 556881 483968
0110010010100010100000100: 473838 618912 570191 556881 522954
0110010010100010100000100: 473838 618912 570191 556881 545761
0110010010100010100000100: 473838 618912 570191 556881 552728
0110010011100000100001000: 545761 557916 463816 473838 580570
0110010011100000100001000: 545761 557916 574880 473838 580570
0110010011100000100001000: 545761 557916 552728 473838 580570
0110010010100010100000100: 545761 463816 557916 515428 580570
0110010010100010100000100: 545761 463816 557916 515428 473838
0110010011100000100001000: 545761 463816 557916 468711 515428
0110010010100010100000100: 545761 463816 557916 468711 580570
0110010011100000100001000: 545761 463816 574880 468711 515428
0110010011100000100001000: 545761 463816 570191 468711 515428
0110010011100000100001000: 545761 463816 552728 468711 515428
0110010010100010100000100: 545761 574880 557916 546593 580570
0110010010100010100000100: 545761 574880 557916 546593 473838
0110010011100000100001000: 545761 574880 557916 561260 546593
0110010010100010100000100: 545761 574880 557916 561260 473838
0110010010100010100100110: 545761 574880 557916 561260 580570
0110010011100000100001000: 545761 574880 557916 522954 546593
0110010011100000100001000: 545761 574880 557916 522954 561260
0110010010100010100000100: 545761 574880 557916 522954 473838
0110010010100010100100110: 545761 574880 557916 522954 580570
0110010010100010100000100: 545761 574880 463816 546593 515428
0110010010100010100000100: 545761 574880 463816 546593 468711
0110010011100000100001000: 545761 574880 463816 561260 546593
0110010010100010100000100: 545761 574880 463816 561260 515428
0110010010100010100000100: 545761 574880 463816 561260 468711
0110010011100000100001000: 545761 574880 463816 522954 546593
0110010011100000100001000: 545761 574880 463816 522954 561260
0110010010100010100000100: 545761 574880 463816 522954 515428
0110010010100010100000100: 545761 574880 463816 522954 468711
0110010011100100110001000: 545761 574880 570191 546593 561260
0110010011100100110001000: 545761 574880 570191 522954 561260
0110010011100000100001000: 545761 574880 552728 561260 546593
0110010011100000100001000: 545761 574880 552728 522954 546593
0110010011100000100001000: 545761 574880 552728 522954 561260
0110010010100010100000100: 545761 570191 557916 470226 580570
0110010010100010100000100: 545761 570191 557916 546593 580570
0110010011100000100001000: 545761 570191 557916 483968 470226
0110010011100000100001000: 545761 570191 557916 483968 546593
0110010010100010100000100: 545761 570191 557916 483968 580570
0110010011100000100001000: 545761 570191 557916 522954 470226
0110010011100000100001000: 545761 570191 557916 522954 546593
0110010011100000100001000: 545761 570191 557916 522954 483968
0110010010100010100000100: 545761 570191 463816 470226 515428
0110010010100010100000100: 545761 570191 463816 470226 468711
0110010010100010100000100: 545761 570191 463816 546593 515428
0110010010100010100000100: 545761 570191 463816 546593 468711
0110010011100000100001000: 545761 570191 463816 483968 470226
0110010011100000100001000: 545761 570191 463816 483968 546593
0110010010100010100000100: 545761 570191 463816 483968 515428
0110010010100010100000100: 545761 570191 463816 483968 468711
0110010011100000100001000: 545761 570191 463816 522954 470226
0110010011100000100001000: 545761 570191 463816 522954 546593
0110010011100000100001000: 545761 570191 463816 522954 483968
0110010010100010100000100: 545761 570191 463816 522954 515428
0110010010100010100000100: 545761 570191 463816 522954 468711
0110010011100000100001000: 545761 570191 463816 473838 470226
0110010011100000100001000: 545761 570191 463816 473838 546593
0110010011100000100001000: 545761 570191 463816 473838 483968
0110010011100000100001000: 545761 570191 463816 473838 522954
0110010010100010100000100: 545761 570191 463816 473838 515428
0111110000100001000010000: 545761 570191 574880 463816 557916
0110010010100010100000100: 545761 570191 574880 470226 561260
0110010011100000100001000: 545761 570191 574880 483968 470226
0110010011100000100001000: 545761 570191 574880 473838 470226
0110010011100000100001000: 545761 570191 574880 473838 483968
0110010010100010100000100: 545761 570191 574880 473838 561260
0110010011100100110001000: 545761 570191 574880 546593 483968
0110010011100100110001000: 545761 570191 574880 546593 473838
0110010011100100110001000: 545761 570191 574880 522954 470226
0110010011100100110001000: 545761 570191 574880 522954 483968
0110010011100100110001000: 545761 570191 574880 522954 473838
0110010011100110110001100: 545761 570191 574880 522954 546593
0110010010100010100000100: 545761 552728 557916 470226 580570
0110010010100010100000100: 545761 552728 557916 470226 473838
0110010010100010100000100: 545761 552728 463816 470226 515428
0110010010100010100000100: 545761 552728 463816 470226 468711
0111110000100001000010000: 545761 552728 574880 463816 557916
0110010010100010100000100: 545761 552728 574880 470226 561260
0110010010100010100000100: 545761 552728 574880 470226 522954
0111010100110001000100010: 545761 552728 570191 557916 580570
0111110100110001000010000: 545761 552728 570191 463816 557916
0111010100110001000100010: 545761 552728 570191 463816 515428
0111010100110001000100010: 545761 552728 570191 463816 468711
0111110100110001000010000: 545761 552728 570191 574880 557916
0111110100110001000010000: 545761 552728 570191 574880 463816
0111010100110001000100010: 545761 552728 570191 574880 561260
0110010010100010100000100: 522954 460129 629712 470226 561260
0110010011100000100001000: 522954 460129 629712 556881 470226
0110010010100010100000100: 522954 460129 629712 556881 561260
0110010011100000100001000: 522954 460129 580570 556881 470226
0110010011100000100001000: 522954 460129 574880 556881 470226
0110010011100100110001000: 522954 460129 570191 470226 556881
0110010011100100110001000: 522954 580570 629712 561260 557916
0110010010100010100000100: 522954 580570 460129 557916 470226
0110010010100010100000100: 522954 580570 460129 557916 556881
0110010011100000100001000: 522954 580570 460129 561260 557916
0110010010100010100000100: 522954 580570 460129 561260 470226
0110010010100010100000100: 522954 580570 460129 561260 556881
0110010011100100110001000: 522954 580570 574880 561260 557916
0110010011100000100001000: 522954 580570 570191 561260 557916
0110010011100000100001000: 522954 574880 629712 545761 546593
0110010011100100110001000: 522954 574880 629712 561260 546593
0110010011100100110001000: 522954 574880 629712 561260 545761
0110010010100010100000100: 522954 574880 460129 546593 556881
0110010010100010100100110: 522954 574880 460129 546593 470226
0110010011100000100001000: 522954 574880 460129 561260 546593
0110010010100010100000100: 522954 574880 460129 561260 470226
0110010010100010100000100: 522954 574880 460129 561260 556881
0110010011100000100001000: 522954 574880 460129 545761 546593
0110010011100000100001000: 522954 574880 460129 545761 561260
0110010010100010100000100: 522954 574880 460129 545761 470226
0110010010100010100000100: 522954 574880 460129 545761 556881
0111110000100001000010000: 522954 574880 580570 460129 629712
0110010010100010100000100: 522954 574880 580570 546593 557916
0110010011100000100001000: 522954 574880 580570 545761 546593
0110010011100100110001000: 522954 574880 580570 561260 546593
0110010011100100110001000: 522954 574880 580570 561260 545761
0110010011100100110001000: 522954 574880 570191 546593 561260
0110010010100010100000100: 522954 570191 629712 470226 561260
0110010010100010100000100: 522954 570191 629712 546593 561260
0110010011100000100001000: 522954 570191 629712 483968 470226
0110010011100000100001000: 522954 570191 629712 483968 546593
0110010011100000100001000: 522954 570191 629712 545761 470226
0110010011100000100001000: 522954 570191 629712 545761 546593
0110010011100000100001000: 522954 570191 629712 545761 483968
0110010010100010100000100: 522954 570191 629712 545761 561260
0110010011100000100001000: 522954 570191 629712 473838 470226
0110010011100000100001000: 522954 570191 629712 473838 546593
0110010011100000100001000: 522954 570191 629712 473838 483968
0110010011100000100001000: 522954 570191 629712 473838 545761
0110010010100010100000100: 522954 570191 629712 473838 561260
0110010011100000100001000: 522954 570191 629712 552728 546593
0110010011100000100001000: 522954 570191 629712 552728 483968
0110010011100000100001000: 522954 570191 629712 552728 473838
0110010010100010100000100: 522954 570191 629712 552728 561260
0110010010100010100000100: 522954 570191 460129 546593 556881
0110010011100000100001000: 522954 570191 460129 483968 546593
0110010010100010100000100: 522954 570191 460129 483968 556881
0110010011100000100001000: 522954 570191 460129 545761 546593
0110010011100000100001000: 522954 570191 460129 545761 483968
0110010010100010100000100: 522954 570191 460129 545761 556881
0110010011100000100001000: 522954 570191 460129 473838 546593
0110010011100000100001000: 522954 570191 460129 473838 483968
0110010011100000100001000: 522954 570191 460129 473838 545761
0110010010100010100000100: 522954 570191 460129 473838 556881
0110010011100000100001000: 522954 570191 460129 552728 546593
0110010011100000100001000: 522954 570191 460129 552728 483968
0110010011100000100001000: 522954 570191 460129 552728 473838
0110010010100010100000100: 522954 570191 460129 552728 556881
0110010011100100110001000: 522954 570191 460129 470226 483968
0110010011100100110001000: 522954 570191 460129 470226 545761
0110010011100100110001000: 522954 570191 460129 470226 473838
0111110000100001000010000: 522954 570191 580570 460129 629712
0110010010100010100000100: 522954 570191 580570 470226 557916
0110010010100010100000100: 522954 570191 580570 470226 561260
0110010010100010100000100: 522954 570191 580570 546593 557916
0110010010100010100000100: 522954 570191 580570 546593 561260
0110010011100000100001000: 522954 570191 580570 483968 470226
0110010011100000100001000: 522954 570191 580570 483968 546593
0110010010100010100000100: 522954 570191 580570 483968 557916
0110010011100000100001000: 522954 570191 580570 545761 470226
0110010011100000100001000: 522954 570191 580570 545761 546593
0110010011100000100001000: 522954 570191 580570 545761 483968
0110010010100010100000100: 522954 570191 580570 545761 561260
0110010011100000100001000: 522954 570191 580570 473838 470226
0110010011100000100001000: 522954 570191 580570 473838 546593
0110010011100000100001000: 522954 570191 580570 473838 483968
0110010011100000100001000: 522954 570191 580570 473838 545761
0110010010100010100000100: 522954 570191 580570 473838 561260
0110010011100000100001000: 522954 570191 580570 552728 546593
0110010011100000100001000: 522954 570191 580570 552728 483968
0110010011100000100001000: 522954 570191 580570 552728 473838
0110010010100010100000100: 522954 570191 580570 552728 557916
0110010010100010100000100: 522954 570191 580570 552728 561260
0111110000100001000010000: 522954 570191 574880 460129 629712
0111110000100001000010000: 522954 570191 574880 580570 629712
0111110000100001000010000: 522954 570191 574880 580570 460129
0110010010100010100000100: 522954 570191 574880 470226 561260
0110010011100000100001000: 522954 570191 574880 483968 470226
0110010011100000100001000: 522954 570191 574880 473838 470226
0110010011100000100001000: 522954 570191 574880 473838 483968
0110010010100010100000100: 522954 570191 574880 473838 561260
0110010011100000100001000: 522954 570191 574880 552728 483968
0110010011100000100001000: 522954 570191 574880 552728 473838
0110010010100010100000100: 522954 570191 574880 552728 561260
0110010011100100110001000: 522954 570191 574880 546593 483968
0110010011100100110001000: 522954 570191 574880 546593 473838
0110010011100100110001000: 522954 570191 574880 546593 552728
0110010010100010100000100: 574880 561260 546593 629712 470226
0110010010100010100000100: 574880 561260 546593 629712 570191
0110010011100000100001000: 574880 561260 546593 483968 629712
0110010010100010100000100: 574880 561260 546593 483968 470226
0110010011100000100001000: 574880 561260 546593 580570 629712
0110010011100000100001000: 574880 561260 546593 580570 483968
0110010010100010100000100: 574880 561260 546593 580570 470226
0110010010100010100000100: 574880 561260 546593 580570 570191
0110010011100100110001000: 574880 561260 522954 629712 483968
0110010011100100110001000: 574880 561260 522954 580570 483968
0110010011100000100001000: 574880 561260 545761 483968 629712
0110010011100000100001000: 574880 561260 545761 580570 629712
0110010011100000100001000: 574880 561260 545761 580570 483968
0110010010100010100000100: 574880 522954 546593 629712 470226
0110010011100000100001000: 574880 522954 546593 460129 629712
0110010011100000100001000: 574880 522954 546593 580570 629712
0110010011100000100001000: 574880 522954 546593 580570 460129
0110010010100010100000100: 574880 522954 546593 580570 470226
0110010010100010100000100: 574880 522954 561260 460129 483968
0110010011100000100001000: 574880 522954 561260 570191 460129
0110010011100100110001000: 574880 522954 561260 629712 460129
0110010011100100110001000: 574880 522954 561260 629712 570191
0110010011100100110001000: 574880 522954 561260 580570 460129
0110010011100100110001000: 574880 522954 561260 580570 570191
0110010011100110110001100: 574880 522954 561260 580570 629712
0110010011100000100001000: 574880 522954 545761 460129 629712
0110010011100000100001000: 574880 522954 545761 580570 629712
0110010011100000100001000: 574880 522954 545761 580570 460129
0110010010100010100000100: 574880 545761 546593 557916 470226
0110010011100000100001000: 574880 545761 546593 463816 557916
0110010010100010100000100: 574880 545761 546593 463816 470226
0110010011100000100001000: 574880 545761 546593 552728 557916
0110010011100000100001000: 574880 545761 546593 552728 463816
0110010010100010100000100: 574880 545761 561260 557916 629712
0110010010100010100000100: 574880 545761 561260 557916 483968
0110010011100000100001000: 574880 545761 561260 463816 557916
0110010010100010100000100: 574880 545761 561260 463816 629712
0110010010100010100000100: 574880 545761 561260 463816 483968
0110010010100010100000100: 574880 545761 561260 463816 580570
0110010011100000100001000: 574880 545761 561260 570191 557916
0110010011100000100001000: 574880 545761 561260 570191 463816
0110010010100010100000100: 574880 545761 561260 570191 629712
0110010010100010100000100: 574880 545761 561260 570191 580570
0110010011100000100001000: 574880 545761 561260 552728 557916
0110010011100000100001000: 574880 545761 561260 552728 463816
0110010010100010100000100: 574880 545761 561260 552728 629712
0110010010100010100000100: 574880 545761 561260 552728 483968
0110010010100010100000100: 574880 545761 561260 552728 580570
0111110000100001000010000: 574880 545761 522954 561260 546593
0110010010100010100000100: 574880 545761 522954 557916 629712
0110010010100010100000100: 574880 545761 522954 557916 460129
0110010011100000100001000: 574880 545761 522954 463816 557916
0110010010100010100000100: 574880 545761 522954 463816 629712
0110010010100010100000100: 574880 545761 522954 463816 460129
0110010010100010100000100: 574880 545761 522954 463816 580570
0110010011100000100001000: 574880 545761 522954 552728 557916
0110010011100000100001000: 574880 545761 522954 552728 463816
0110010010100010100000100: 574880 545761 522954 552728 629712
0110010010100010100000100: 574880 545761 522954 552728 460129
0110010010100010100000100: 574880 545761 522954 552728 580570
0110010011100000100001000: 580570 557916 561260 473838 545761
0110010011100000100001000: 580570 557916 522954 473838 545761
0110010010100010100000100: 580570 561260 557916 629712 545761
0110010010100010100000100: 580570 561260 557916 629712 473838
0110010011100000100001000: 580570 561260 557916 483968 629712
0110010010100010100000100: 580570 561260 557916 483968 545761
0110010010100010100000100: 580570 561260 557916 483968 473838
0110010011100000100001000: 580570 561260 557916 574880 629712
0110010011100000100001000: 580570 561260 557916 574880 483968
0110010010100010100000100: 580570 561260 557916 574880 473838
0110010011100100110001000: 580570 561260 522954 629712 483968
0110010010100010100000100: 580570 522954 557916 629712 545761
0110010010100010100000100: 580570 522954 557916 629712 473838
0110010011100000100001000: 580570 522954 557916 460129 629712
0110010010100010100000100: 580570 522954 557916 460129 545761
0110010010100010100000100: 580570 522954 557916 460129 473838
0110010011100000100001000: 580570 522954 557916 574880 629712
0110010011100000100001000: 580570 522954 557916 574880 460129
0110010010100010100000100: 580570 522954 557916 574880 473838
0110010011100000100001000: 580570 522954 557916 570191 629712
0110010011100000100001000: 580570 522954 557916 570191 460129
0110010011100000100001000: 580570 522954 557916 570191 574880
0110010010100010100000100: 580570 522954 561260 460129 483968
0110010011100000100001000: 580570 522954 561260 570191 460129
0110010011100100110001000: 580570 522954 561260 629712 460129
0110010011100100110001000: 580570 522954 561260 629712 570191
0110010011100000100001000: 483968 561260 570191 580570 629712
0110010011100000100001000: 483968 561260 570191 574880 629712
0110010011100000100001000: 483968 561260 570191 574880 580570
0110010010100010100000100: 483968 570191 561260 470226 629712
0110010010100010100000100: 483968 570191 561260 470226 580570
0110010010100010100000100: 483968 570191 561260 470226 574880
0110010010100010100000100: 483968 570191 561260 546593 629712
0110010010100010100000100: 483968 570191 561260 546593 580570
0110010011100000100001000: 483968 570191 561260 522954 470226
0110010011100000100001000: 483968 570191 561260 522954 546593
0110010011100000100001000: 483968 570191 561260 545761 470226
0110010011100000100001000: 483968 570191 561260 545761 546593
0110010011100000100001000: 483968 570191 561260 545761 522954
0110010010100010100000100: 483968 570191 561260 545761 629712
0110010010100010100000100: 483968 570191 561260 545761 580570
0110010011100000100001000: 483968 570191 561260 473838 470226
0110010011100000100001000: 483968 570191 561260 473838 546593
0110010011100000100001000: 483968 570191 561260 473838 522954
0110010011100000100001000: 483968 570191 561260 473838 545761
0110010010100010100000100: 483968 570191 561260 473838 629712
0110010010100010100000100: 483968 570191 561260 473838 580570
0110010010100010100000100: 483968 570191 561260 473838 574880
0110010011100000100001000: 483968 570191 561260 552728 546593
0110010011100000100001000: 483968 570191 561260 552728 522954
0110010011100000100001000: 483968 570191 561260 552728 473838
0110010010100010100000100: 483968 570191 561260 552728 629712
0110010010100010100000100: 483968 570191 561260 552728 580570
0110010010100010100000100: 483968 570191 561260 552728 574880
0110010011100000100001000: 460129 470226 522954 552728 546593
0110010011100000100001000: 460129 470226 556881 552728 546593
0110010010100010100000100: 460129 522954 470226 629712 546593
0110010010100010100000100: 460129 522954 470226 629712 552728
0110010011100000100001000: 460129 522954 470226 580570 629712
0110010010100010100000100: 460129 522954 470226 580570 546593
0110010010100010100000100: 460129 522954 470226 580570 552728
0110010011100000100001000: 460129 522954 470226 574880 629712
0110010011100000100001000: 460129 522954 470226 574880 580570
0110010010100010100000100: 460129 522954 470226 574880 552728
0110010011100000100001000: 460129 522954 556881 580570 629712
0110010011100000100001000: 460129 522954 556881 574880 629712
0110010011100000100001000: 460129 522954 556881 574880 580570
0110010011100000100001000: 460129 522954 556881 570191 629712
0110010011100000100001000: 460129 522954 556881 570191 580570
0110010011100000100001000: 460129 522954 556881 570191 574880
0110010010100010100000100: 460129 556881 470226 618912 546593
0110010010100010100000100: 460129 556881 470226 618912 570191
0110010010100010100000100: 460129 556881 470226 618912 552728
0110010010100010100000100: 460129 556881 522954 618912 629712
0110010010100010100000100: 460129 556881 522954 618912 580570
0110010010100010100000100: 460129 556881 522954 618912 574880
0110010010100010100000100: 460129 556881 522954 618912 570191
0110010010100010100000100: 561260 580570 483968 557916 570191
0110010011100000100001000: 561260 580570 483968 522954 557916
0110010011100000100001000: 561260 574880 629712 545761 546593
0110010011100000100001000: 561260 574880 483968 522954 546593
0110010011100000100001000: 561260 574880 483968 545761 546593
0110010011100000100001000: 561260 574880 483968 545761 522954
0111110000100001000010000: 561260 574880 580570 483968 629712
0110010010100010100000100: 561260 574880 580570 546593 557916
0110010011100000100001000: 561260 574880 580570 545761 546593
0110010011100000100001000: 463816 545761 515428 574880 557916
0110010011100000100001000: 463816 545761 515428 570191 557916
0110010011100000100001000: 463816 545761 515428 570191 574880
0110010011100000100001000: 463816 545761 515428 552728 557916
0110010011100000100001000: 463816 545761 515428 552728 574880
0110010011100000100001000: 463816 545761 468711 574880 557916
0110010011100000100001000: 463816 545761 468711 570191 557916
0110010011100000100001000: 463816 545761 468711 570191 574880
0110010011100000100001000: 463816 545761 468711 552728 557916
0110010011100000100001000: 463816 545761 468711 552728 574880
0110010010100010100000100: 463816 468711 545761 473838 574880
0110010010100010100000100: 463816 468711 545761 473838 552728
0110010011100000100001000: 546593 470226 574880 552728 460129
0111010101110001000001000: 546593 470226 570191 574880 460129
0110010010100010100000100: 546593 574880 470226 561260 460129
0110010010100010100000100: 546593 574880 470226 561260 552728
0110010011100000100001000: 546593 574880 470226 522954 561260
0110010010100010100000100: 546593 574880 470226 522954 552728
0110010011100000100001000: 546593 574880 470226 545761 561260
0110010011100000100001000: 546593 574880 470226 545761 522954
0110010010100010100000100: 546593 574880 470226 545761 460129
0110010011100000100001000: 546593 570191 574880 473838 483968
0110010010100010100000100: 546593 570191 574880 473838 561260
0110010011100000100001000: 546593 570191 574880 552728 483968
0110010011100000100001000: 546593 570191 574880 552728 473838
0110010010100010100000100: 546593 570191 574880 552728 561260
0111010100110001000100010: 546593 570191 470226 574880 561260
0110010011100000100001000: 557916 580570 545761 522954 561260
0110010011100000100001000: 557916 580570 473838 522954 561260
0110010010100010100000100: 557916 545761 580570 463816 561260
0110010010100010100000100: 557916 545761 580570 463816 522954
0110010011100000100001000: 557916 545761 580570 574880 463816
0110010011100000100001000: 557916 545761 580570 570191 463816
0110010011100000100001000: 557916 545761 580570 570191 574880
0110010010100010100000100: 557916 545761 580570 570191 561260
0110010011100000100001000: 557916 545761 580570 552728 463816
0110010011100000100001000: 557916 545761 580570 552728 574880
0110010010100010100000100: 557916 545761 580570 552728 561260
0110010010100010100000100: 557916 545761 580570 552728 522954
0110010011100000100001000: 557916 545761 473838 574880 463816
0110010011100000100001000: 557916 545761 473838 552728 463816
0110010011100000100001000: 557916 545761 473838 552728 574880
0110010010100010100000100: 557916 473838 580570 468711 561260
0110010010100010100000100: 557916 473838 580570 468711 522954
0110010011100000100001000: 557916 473838 580570 570191 468711
0110010010100010100000100: 557916 473838 580570 570191 561260
0110010011100000100001000: 557916 473838 580570 618912 468711
0110010011100000100001000: 557916 473838 580570 618912 570191
0110010010100010100000100: 557916 473838 580570 618912 561260
0110010010100010100000100: 557916 473838 580570 618912 522954
0110010010100010100000100: 557916 473838 545761 468711 574880
0110010010100010100000100: 557916 473838 545761 468711 552728
0110010011100000100001000: 557916 473838 545761 618912 468711
0110010010100010100000100: 557916 473838 545761 618912 463816
0110010010100010100000100: 557916 473838 545761 618912 574880
0110010010100010100000100: 557916 473838 545761 618912 552728
0110010010100010100000100: 629712 522954 561260 460129 483968
0110010011100000100001000: 629712 522954 561260 570191 460129
0110010011100000100001000: 470226 460129 546593 556881 522954
0110010010100010100000100: 470226 460129 546593 556881 574880
0110010011100000100001000: 470226 460129 552728 556881 522954
0110010010100010100000100: 470226 570191 460129 483968 556881
0110010011100000100001000: 470226 570191 460129 545761 483968
0110010010100010100000100: 470226 570191 460129 545761 556881
0110010011100000100001000: 470226 570191 460129 473838 483968
0110010011100000100001000: 470226 570191 460129 473838 545761
0110010010100010100000100: 470226 570191 460129 473838 556881
0111010100110001000100010: 470226 570191 546593 460129 556881
0111110110110001100010000: 470226 570191 552728 546593 460129
0110010010100010100000100: 470226 552728 460129 545761 522954
0110010010100010100000100: 470226 552728 460129 545761 556881
0111010100110001000100010: 470226 552728 570191 460129 556881
