Vertex,0110010011100000100001000,0111010100110001000100010,0111110000100001000010000,0111010101110001000001000,0110010010100010100100110,0110010010100010100000100,0111110100110001000010000,0111010101110001000101010,0110010011100100110001000
656487,58.0,0.0,2.0,3.0,2.0,70.0,1.0,2.0,12.0
587034,86.0,3.0,8.0,2.0,4.0,84.0,3.0,1.0,17.0
567605,81.0,15.0,5.0,12.0,3.0,84.0,7.0,2.0,13.0
642268,47.0,2.0,1.0,0.0,1.0,66.0,0.0,0.0,10.0
552186,57.0,3.0,2.0,0.0,3.0,43.0,0.0,0.0,2.0
504865,130.0,18.0,10.0,15.0,6.0,129.0,8.0,2.0,21.0
515079,47.0,4.0,1.0,5.0,3.0,92.0,0.0,1.0,5.0
528755,55.0,14.0,5.0,12.0,2.0,53.0,7.0,2.0,6.0
641643,92.0,6.0,3.0,7.0,4.0,114.0,3.0,0.0,2.0
594284,42.0,3.0,1.0,3.0,2.0,44.0,1.0,0.0,1.0
458407,57.0,3.0,3.0,2.0,1.0,69.0,2.0,0.0,1.0
592959,16.0,1.0,0.0,0.0,0.0,24.0,0.0,0.0,0.0
469867,102.0,16.0,8.0,9.0,5.0,80.0,7.0,0.0,3.0
460145,103.0,15.0,3.0,6.0,4.0,121.0,4.0,0.0,1.0
652338,63.0,4.0,7.0,3.0,1.0,62.0,3.0,0.0,15.0
638321,54.0,3.0,7.0,3.0,1.0,36.0,3.0,0.0,8.0
502414,55.0,4.0,2.0,2.0,2.0,65.0,2.0,0.0,7.0
591650,44.0,2.0,1.0,0.0,1.0,64.0,0.0,0.0,1.0
648747,34.0,14.0,1.0,6.0,0.0,25.0,4.0,0.0,0.0
485110,10.0,0.0,0.0,0.0,0.0,23.0,0.0,0.0,0.0
594308,2.0,0.0,0.0,0.0,0.0,17.0,0.0,0.0,0.0
graph,247.0,26.0,14.0,18.0,9.0,273.0,11.0,2.0,25.0
