Vertex,0110100110010110,0111100110001100,0110101011010010,0111101111011110,0110101111000100,0111100010011010,0111100010001000,0110100110000100,0101101101011110,0111101011001000,0110101111010110,0111101011011010,0101101001001000,0100101001010010,0110100010010010,0100101101000100,0111101111001100,0111100110011110,0101101101001100,0101101001011010
518277,105.0,48.0,46.0,0.0,72.0,24.0,80.0,142.0,2.0,158.0,64.0,76.0,31.0,19.0,74.0,2.0,90.0,5.0,12.0,34.0
584348,70.0,51.0,57.0,310.0,81.0,36.0,48.0,95.0,3.0,168.0,101.0,114.0,22.0,10.0,50.0,2.0,144.0,5.0,14.0,20.0
561428,35.0,98.0,101.0,310.0,151.0,50.0,63.0,147.0,4.0,328.0,148.0,174.0,42.0,12.0,79.0,2.0,216.0,9.0,26.0,14.0
537210,70.0,40.0,41.0,0.0,57.0,16.0,56.0,109.0,0.0,114.0,0.0,0.0,27.0,9.0,52.0,2.0,0.0,0.0,14.0,28.0
550157,70.0,78.0,88.0,310.0,122.0,48.0,55.0,167.0,2.0,250.0,84.0,95.0,43.0,27.0,95.0,2.0,126.0,3.0,24.0,28.0
462278,35.0,52.0,45.0,0.0,75.0,34.0,64.0,184.0,3.0,172.0,61.0,74.0,35.0,29.0,101.0,2.0,72.0,8.0,10.0,6.0
502073,35.0,40.0,39.0,155.0,59.0,28.0,80.0,121.0,2.0,126.0,94.0,115.0,24.0,11.0,55.0,0.0,144.0,6.0,10.0,6.0
654810,0.0,26.0,26.0,155.0,46.0,20.0,64.0,77.0,0.0,107.0,50.0,60.0,22.0,2.0,34.0,0.0,90.0,0.0,4.0,0.0
587831,0.0,16.0,10.0,0.0,18.0,4.0,24.0,115.0,0.0,42.0,0.0,0.0,20.0,27.0,72.0,0.0,0.0,0.0,4.0,0.0
524691,0.0,39.0,47.0,0.0,67.0,24.0,102.0,213.0,0.0,145.0,30.0,36.0,58.0,24.0,114.0,4.0,54.0,0.0,10.0,0.0
579892,0.0,8.0,12.0,0.0,12.0,2.0,30.0,122.0,0.0,21.0,0.0,0.0,32.0,18.0,76.0,4.0,0.0,0.0,4.0,0.0
514710,0.0,8.0,12.0,0.0,12.0,2.0,30.0,91.0,0.0,21.0,0.0,0.0,26.0,8.0,49.0,4.0,0.0,0.0,4.0,0.0
648273,0.0,0.0,0.0,0.0,0.0,0.0,0.0,21.0,0.0,0.0,0.0,0.0,6.0,8.0,17.0,0.0,0.0,0.0,0.0,0.0
graph,105.0,126.0,131.0,310.0,193.0,72.0,174.0,401.0,4.0,413.0,158.0,186.0,97.0,51.0,217.0,6.0,234.0,9.0,34.0,34.0
