Vertex,0110101011010010,0101101001011010,0101101101001100,0110100110000100,0110101111000100,0110101111010110,0111101011011010,0111100110011110,0101101001001000,0110100110010110,0110100010010010,0101101101011110,0100101001010010,0100101101000100,0111101011001000,0111101111001100,0111100010001000,0111100110001100,0111100010011010
554368,359.0,63.0,30.0,1150.0,673.0,84.0,108.0,10.0,331.0,140.0,539.0,2.0,49.0,4.0,1635.0,126.0,3334.0,369.0,306.0
547051,49.0,16.0,2.0,202.0,97.0,10.0,16.0,2.0,54.0,35.0,93.0,0.0,9.0,0.0,240.0,18.0,656.0,52.0,46.0
536521,71.0,0.0,2.0,113.0,141.0,20.0,32.0,4.0,26.0,0.0,49.0,0.0,5.0,0.0,350.0,36.0,560.0,74.0,68.0
460048,102.0,16.0,12.0,232.0,186.0,10.0,14.0,1.0,60.0,35.0,120.0,0.0,14.0,0.0,446.0,18.0,582.0,107.0,80.0
610119,54.0,32.0,4.0,314.0,102.0,24.0,20.0,2.0,99.0,70.0,150.0,2.0,28.0,2.0,248.0,18.0,679.0,54.0,48.0
492583,49.0,0.0,2.0,217.0,97.0,10.0,16.0,2.0,54.0,0.0,104.0,0.0,12.0,0.0,241.0,18.0,656.0,52.0,46.0
474653,61.0,0.0,6.0,230.0,107.0,10.0,14.0,1.0,59.0,0.0,114.0,0.0,18.0,0.0,254.0,18.0,671.0,57.0,48.0
545540,44.0,0.0,0.0,93.0,88.0,10.0,14.0,1.0,24.0,0.0,38.0,0.0,2.0,0.0,220.0,18.0,656.0,44.0,44.0
623997,66.0,0.0,0.0,103.0,132.0,20.0,30.0,3.0,24.0,0.0,41.0,0.0,2.0,0.0,330.0,36.0,560.0,66.0,66.0
590751,59.0,15.0,6.0,335.0,115.0,10.0,14.0,1.0,88.0,35.0,166.0,0.0,12.0,4.0,282.0,18.0,716.0,68.0,50.0
533790,80.0,0.0,4.0,103.0,158.0,10.0,16.0,2.0,25.0,0.0,49.0,0.0,4.0,0.0,392.0,18.0,552.0,86.0,74.0
646309,61.0,16.0,6.0,206.0,107.0,10.0,12.0,0.0,62.0,35.0,98.0,0.0,17.0,0.0,255.0,18.0,664.0,57.0,48.0
628491,22.0,15.0,0.0,198.0,44.0,0.0,0.0,0.0,59.0,35.0,103.0,0.0,33.0,2.0,110.0,0.0,767.0,22.0,22.0
631430,88.0,16.0,8.0,233.0,158.0,34.0,32.0,2.0,77.0,35.0,114.0,2.0,25.0,0.0,379.0,36.0,568.0,84.0,72.0
646676,81.0,0.0,6.0,124.0,153.0,34.0,32.0,2.0,43.0,0.0,55.0,2.0,16.0,0.0,372.0,36.0,576.0,81.0,72.0
627883,49.0,0.0,2.0,225.0,97.0,10.0,16.0,2.0,62.0,0.0,108.0,0.0,18.0,0.0,241.0,18.0,656.0,52.0,46.0
587541,10.0,16.0,4.0,228.0,16.0,0.0,0.0,0.0,66.0,35.0,105.0,0.0,11.0,2.0,34.0,0.0,23.0,13.0,4.0
573878,62.0,0.0,0.0,112.0,124.0,30.0,46.0,5.0,24.0,0.0,43.0,0.0,2.0,0.0,310.0,54.0,568.0,62.0,62.0
585335,20.0,16.0,8.0,238.0,30.0,0.0,0.0,0.0,68.0,35.0,104.0,0.0,10.0,0.0,63.0,0.0,23.0,23.0,8.0
501694,17.0,16.0,6.0,233.0,19.0,0.0,0.0,0.0,69.0,35.0,108.0,0.0,15.0,2.0,35.0,0.0,23.0,13.0,4.0
509919,5.0,0.0,2.0,145.0,9.0,0.0,0.0,0.0,36.0,0.0,82.0,0.0,18.0,0.0,21.0,0.0,0.0,8.0,2.0
657060,12.0,0.0,4.0,150.0,12.0,0.0,0.0,0.0,40.0,0.0,89.0,0.0,18.0,0.0,20.0,0.0,0.0,8.0,2.0
505986,5.0,0.0,2.0,128.0,9.0,0.0,0.0,0.0,32.0,0.0,52.0,0.0,0.0,2.0,21.0,0.0,30.0,8.0,2.0
464906,5.0,15.0,2.0,280.0,9.0,0.0,0.0,0.0,80.0,35.0,154.0,0.0,51.0,4.0,20.0,0.0,45.0,8.0,2.0
635992,5.0,0.0,2.0,168.0,9.0,0.0,0.0,0.0,50.0,0.0,94.0,0.0,23.0,2.0,21.0,0.0,15.0,8.0,2.0
graph,359.0,63.0,30.0,1440.0,673.0,84.0,108.0,10.0,403.0,140.0,693.0,2.0,103.0,6.0,1635.0,126.0,3395.0,369.0,306.0
