0111101011001000: 465627 457098 561428 517839
0111101011001000: 465627 567679 561428 517839
0101101001001000: 465627 567679 568289 457098
0101101001001000: 465627 567679 568289 517839
0101101101001100: 465627 567679 568289 561428
0111100010001000: 465627 517839 567679 457098
0101101001001000: 465627 517839 609900 457098
0101101001001000: 465627 517839 609900 567679
0101101001001000: 465627 517839 609900 561428
0101101001001000: 465627 517839 470074 457098
0101101001001000: 465627 517839 470074 567679
0100101101000100: 465627 517839 470074 609900
0110100110010110: 465627 561428 517839 470074
0111101011001000: 465627 561428 457098 517839
0111101011001000: 465627 561428 567679 517839
0111101111001100: 465627 561428 567679 457098
0110100010010010: 465627 457098 567679 568289
0110100010010010: 465627 457098 567679 568289
0111100010001000: 465627 457098 517839 567679
0110100010010010: 465627 457098 517839 609900
0110100010010010: 465627 457098 517839 470074
0110100010010010: 465627 457098 517839 609900
0110100010010010: 465627 457098 517839 470074
0111100110001100: 465627 457098 517839 561428
0111101011001000: 465627 457098 561428 517839
0110101011010010: 465627 457098 561428 513463
0110101011010010: 465627 457098 561428 609157
0110101011010010: 465627 457098 561428 470074
0110101011010010: 465627 457098 561428 595598
0110101011010010: 465627 457098 561428 513463
0110101011010010: 465627 457098 561428 609157
0110101011010010: 465627 457098 561428 470074
0110101011010010: 465627 457098 561428 595598
0111101011011010: 465627 457098 561428 567679
0111101011011010: 465627 457098 561428 567679
0111101011011010: 465627 457098 561428 567679
0111101011001000: 465627 457098 561428 517839
0111101011001000: 465627 457098 561428 517839
0111101011001000: 465627 457098 561428 517839
0110100110000100: 465627 567679 457098 568289
0111100010001000: 465627 567679 517839 457098
0110100110000100: 465627 567679 517839 568289
0110100010010010: 465627 567679 517839 609900
0110100010010010: 465627 567679 517839 470074
0110100010010010: 465627 567679 517839 609900
0110100010010010: 465627 567679 517839 470074
0111100010001000: 465627 567679 457098 517839
0110100110000100: 465627 567679 457098 568289
0110100110000100: 465627 567679 457098 568289
0110100110000100: 465627 567679 457098 568289
0110100110000100: 465627 567679 517839 568289
0110100110000100: 465627 567679 517839 568289
0111100110001100: 465627 567679 517839 561428
0110100110000100: 465627 567679 517839 568289
0111101011001000: 465627 567679 561428 517839
0110101011010010: 465627 567679 561428 513463
0110101011010010: 465627 567679 561428 609157
0110101011010010: 465627 567679 561428 470074
0110101011010010: 465627 567679 561428 595598
0110101011010010: 465627 567679 561428 513463
0110101011010010: 465627 567679 561428 609157
0110101011010010: 465627 567679 561428 470074
0110101011010010: 465627 567679 561428 595598
0111101011011010: 465627 567679 561428 457098
0111101011011010: 465627 567679 561428 457098
0111101011011010: 465627 567679 561428 457098
0111101011001000: 465627 567679 561428 517839
0110101111000100: 465627 567679 561428 568289
0101101001001000: 465627 567679 568289 457098
0101101001001000: 465627 567679 568289 517839
0100101001010010: 465627 567679 568289 609900
0100101001010010: 465627 567679 568289 609900
0101101101001100: 465627 567679 568289 561428
0100101001010010: 465627 567679 568289 609900
0100101001010010: 465627 567679 568289 609900
0111101011001000: 465627 567679 561428 517839
0111101011001000: 465627 567679 561428 517839
0110101111000100: 465627 567679 561428 568289
0110101111000100: 465627 567679 561428 568289
0110101111000100: 465627 567679 561428 568289
0110101111000100: 465627 567679 561428 568289
0110101111000100: 465627 567679 561428 568289
0110100110000100: 465627 517839 457098 609900
0110100110000100: 465627 517839 457098 470074
0111100010011010: 465627 517839 457098 561428
0111100010001000: 465627 517839 567679 457098
0110100110000100: 465627 517839 567679 609900
0110100110000100: 465627 517839 567679 470074
0110100010010010: 465627 517839 567679 568289
0111100010011010: 465627 517839 567679 561428
0110100010010010: 465627 517839 567679 568289
0110100110000100: 465627 517839 561428 609900
0110100010010010: 465627 517839 561428 513463
0110100010010010: 465627 517839 561428 609157
0110100010010010: 465627 517839 561428 595598
0111100010011010: 465627 517839 561428 457098
0111100010011010: 465627 517839 561428 567679
0110100110010110: 465627 517839 561428 470074
0110100110010110: 465627 517839 561428 470074
0111100010001000: 465627 517839 457098 567679
0110100110000100: 465627 517839 457098 609900
0110100110000100: 465627 517839 457098 470074
0110100110000100: 465627 517839 457098 609900
0110100110000100: 465627 517839 457098 470074
0110100110000100: 465627 517839 457098 609900
0110100110000100: 465627 517839 457098 470074
0111100010001000: 465627 517839 567679 457098
0111100010001000: 465627 517839 567679 457098
0110100110000100: 465627 517839 567679 609900
0110100110000100: 465627 517839 567679 470074
0110100110000100: 465627 517839 567679 609900
0110100110000100: 465627 517839 567679 470074
0110100110000100: 465627 517839 567679 609900
0110100110000100: 465627 517839 567679 470074
0110100110000100: 465627 517839 561428 609900
0110100110000100: 465627 517839 561428 609900
0110100110000100: 465627 517839 561428 609900
0110100110010110: 465627 517839 561428 470074
0101101001001000: 465627 517839 609900 457098
0101101001001000: 465627 517839 609900 567679
0101101001001000: 465627 517839 609900 561428
0100101001010010: 465627 517839 609900 568289
0100101001010010: 465627 517839 609900 609157
0100101001010010: 465627 517839 609900 568289
0100101001010010: 465627 517839 609900 609157
0100101001010010: 465627 517839 609900 568289
0100101001010010: 465627 517839 609900 609157
0101101001001000: 465627 517839 470074 457098
0101101001001000: 465627 517839 470074 567679
0100101001010010: 465627 517839 470074 572578
0100101001010010: 465627 517839 470074 572578
0100101101000100: 465627 517839 470074 609900
0101101001011010: 465627 517839 470074 561428
0101101001011010: 465627 517839 470074 561428
0101101001011010: 465627 517839 470074 561428
0100101001010010: 465627 517839 470074 572578
0110100110000100: 465627 561428 517839 513463
0110100110000100: 465627 561428 517839 609157
0110100110000100: 465627 561428 517839 595598
0110100010010010: 465627 561428 517839 609900
0110100010010010: 465627 561428 517839 609900
0110100110010110: 465627 561428 517839 470074
0110100110010110: 465627 561428 517839 470074
0110100110000100: 465627 561428 517839 513463
0110100110000100: 465627 561428 517839 609157
0110100110000100: 465627 561428 517839 595598
0110100110000100: 465627 561428 517839 513463
0110100110000100: 465627 561428 517839 609157
0110100110000100: 465627 561428 517839 595598
0111100110001100: 465627 561428 517839 457098
0111100110001100: 465627 561428 517839 567679
0110100110010110: 465627 561428 517839 470074
0110100010010010: 465627 561428 517839 609900
0110100110010110: 465627 561428 517839 470074
0110100110010110: 465627 561428 517839 470074
0111101011001000: 465627 561428 457098 517839
0111101011001000: 465627 561428 567679 517839
0110101011010010: 465627 561428 567679 568289
0110101011010010: 465627 561428 567679 568289
0111101111001100: 465627 561428 567679 457098
0110101011010010: 465627 561428 567679 568289
0110101011010010: 465627 561428 567679 568289
0110101011010010: 465627 561428 567679 568289
0110100010010010: 465627 561428 517839 609900
0111101011001000: 465627 561428 457098 517839
0111101011001000: 465627 561428 457098 517839
0110101111000100: 465627 561428 457098 513463
0110101111000100: 465627 561428 457098 609157
0110101111000100: 465627 561428 457098 470074
0110101111000100: 465627 561428 457098 595598
0110101111000100: 465627 561428 457098 513463
0110101111000100: 465627 561428 457098 609157
0110101111000100: 465627 561428 457098 470074
0110101111000100: 465627 561428 457098 595598
0111101111001100: 465627 561428 457098 567679
0111101011001000: 465627 561428 457098 517839
0111101111001100: 465627 561428 457098 567679
0111101011001000: 465627 561428 567679 517839
0111101011001000: 465627 561428 567679 517839
0110101111000100: 465627 561428 567679 513463
0110101111000100: 465627 561428 567679 609157
0110101111000100: 465627 561428 567679 470074
0110101111000100: 465627 561428 567679 595598
0110101111000100: 465627 561428 567679 513463
0110101111000100: 465627 561428 567679 609157
0110101111000100: 465627 561428 567679 470074
0110101111000100: 465627 561428 567679 595598
0111101111001100: 465627 561428 567679 457098
0111101011001000: 465627 561428 567679 517839
0111101111001100: 465627 561428 567679 457098
0111101111001100: 465627 561428 567679 457098
0110101011010010: 465627 561428 567679 568289
0110101011010010: 465627 561428 567679 568289
0110100110000100: 465627 561428 517839 513463
0110100110000100: 465627 561428 517839 609157
0110100110000100: 465627 561428 517839 595598
0110100110000100: 465627 561428 517839 513463
0110100110000100: 465627 561428 517839 609157
0110100110000100: 465627 561428 517839 595598
0111100110001100: 465627 561428 517839 457098
0111100110001100: 465627 561428 517839 567679
0111100110001100: 465627 561428 517839 457098
0111100110001100: 465627 561428 517839 567679
0111100110001100: 465627 561428 517839 457098
0111100110001100: 465627 561428 517839 567679
0110100010010010: 465627 561428 517839 609900
0110100110010110: 465627 561428 517839 470074
0110100010010010: 465627 561428 517839 609900
0110100110010110: 465627 561428 517839 470074
0111101011001000: 465627 561428 457098 517839
0111101011001000: 465627 561428 457098 517839
0111101111001100: 465627 561428 457098 567679
0111101111001100: 465627 561428 457098 567679
0111101011001000: 465627 561428 457098 517839
0111101011001000: 465627 561428 567679 517839
0111101011001000: 465627 561428 567679 517839
0111101111001100: 465627 561428 567679 457098
0111101111001100: 465627 561428 567679 457098
0111101011001000: 465627 561428 567679 517839
0111101111001100: 465627 561428 567679 457098
0110101011010010: 465627 561428 567679 568289
0111101011001000: 561428 457098 465627 513463
0111101011001000: 561428 457098 465627 609157
0111101011001000: 561428 457098 465627 470074
0111101011001000: 561428 457098 465627 595598
0111100010001000: 561428 567679 457098 513463
0111101011001000: 561428 567679 465627 513463
0111101011001000: 561428 567679 465627 609157
0111101011001000: 561428 567679 465627 470074
0111101011001000: 561428 567679 465627 595598
0101101001001000: 561428 567679 568289 513463
0101101001001000: 561428 567679 568289 457098
0101101001001000: 561428 567679 568289 609157
0101101001001000: 561428 567679 568289 470074
0101101001001000: 561428 567679 568289 595598
0101101101001100: 561428 567679 568289 465627
0111100010001000: 561428 609157 457098 513463
0111100010001000: 561428 609157 567679 513463
0111100010001000: 561428 609157 567679 457098
0111101011001000: 561428 609157 595598 513463
0111101011001000: 561428 609157 595598 457098
0111101011001000: 561428 609157 595598 567679
0111101011001000: 561428 609157 595598 470074
0111101011001000: 561428 609157 595598 465627
0101101001001000: 561428 609157 559046 513463
0101101001001000: 561428 609157 559046 457098
0101101001001000: 561428 609157 559046 567679
0101101001001000: 561428 609157 559046 470074
0101101001001000: 561428 609157 559046 465627
0101101101001100: 561428 609157 559046 595598
0101101001001000: 561428 609157 609900 513463
0101101001001000: 561428 609157 609900 457098
0101101001001000: 561428 609157 609900 567679
0101101001001000: 561428 609157 609900 470074
0101101001001000: 561428 609157 609900 465627
0101101101001100: 561428 609157 609900 595598
0100101101000100: 561428 609157 609900 559046
0111100010001000: 561428 470074 457098 513463
0111100010001000: 561428 470074 567679 513463
0111100010001000: 561428 470074 567679 457098
0111100010001000: 561428 470074 609157 513463
0111100010001000: 561428 470074 609157 457098
0111100010001000: 561428 470074 609157 567679
0101101001001000: 561428 470074 572578 513463
0101101001001000: 561428 470074 572578 457098
0101101001001000: 561428 470074 572578 567679
0101101001001000: 561428 470074 572578 609157
0101101001001000: 561428 470074 572578 595598
0101101001001000: 561428 470074 572578 465627
0101101001001000: 561428 470074 517839 513463
0101101001001000: 561428 470074 517839 457098
0101101001001000: 561428 470074 517839 567679
0101101001001000: 561428 470074 517839 609157
0101101001001000: 561428 470074 517839 595598
0100101101000100: 561428 470074 517839 572578
0111100010001000: 561428 595598 457098 513463
0111100010001000: 561428 595598 567679 513463
0111100010001000: 561428 595598 567679 457098
0111100010001000: 561428 595598 470074 513463
0111100010001000: 561428 595598 470074 457098
0111100010001000: 561428 595598 470074 567679
0111101011001000: 561428 595598 609157 513463
0111101011001000: 561428 595598 609157 457098
0111101011001000: 561428 595598 609157 567679
0111101011001000: 561428 595598 609157 470074
0111101011001000: 561428 595598 609157 465627
0101101001001000: 561428 595598 507373 513463
0101101001001000: 561428 595598 507373 457098
0101101001001000: 561428 595598 507373 567679
0101101001001000: 561428 595598 507373 470074
0101101001001000: 561428 595598 507373 465627
0101101101001100: 561428 595598 507373 609157
0111100010001000: 561428 465627 609157 513463
0111100010001000: 561428 465627 470074 513463
0111100010001000: 561428 465627 470074 609157
0110100110010110: 561428 465627 470074 517839
0111100010001000: 561428 465627 595598 513463
0111100010001000: 561428 465627 595598 470074
0111101011001000: 561428 465627 457098 513463
0111101011001000: 561428 465627 457098 609157
0111101011001000: 561428 465627 457098 470074
0111101011001000: 561428 465627 457098 595598
0111101011001000: 561428 465627 567679 513463
0111101011001000: 561428 465627 567679 609157
0111101011001000: 561428 465627 567679 470074
0111101011001000: 561428 465627 567679 595598
0111101111001100: 561428 465627 567679 457098
0101101001001000: 561428 465627 517839 513463
0101101001001000: 561428 465627 517839 609157
0101101001001000: 561428 465627 517839 595598
0101101101001100: 561428 465627 517839 457098
0101101101001100: 561428 465627 517839 567679
0111100010011010: 561428 513463 457098 465627
0111100010001000: 561428 513463 567679 457098
0110100010010010: 561428 513463 567679 568289
0111100010011010: 561428 513463 567679 465627
0110100010010010: 561428 513463 567679 568289
0111100010001000: 561428 513463 609157 457098
0111100010001000: 561428 513463 609157 567679
0110100010010010: 561428 513463 609157 559046
0110100010010010: 561428 513463 609157 609900
0111100010011010: 561428 513463 609157 595598
0110100010010010: 561428 513463 609157 559046
0110100010010010: 561428 513463 609157 609900
0111100010001000: 561428 513463 470074 457098
0111100010001000: 561428 513463 470074 567679
0111100010001000: 561428 513463 470074 609157
0110100010010010: 561428 513463 470074 572578
0110100010010010: 561428 513463 470074 517839
0110100010010010: 561428 513463 470074 572578
0110100010010010: 561428 513463 470074 517839
0111100010001000: 561428 513463 595598 457098
0111100010001000: 561428 513463 595598 567679
0111100010001000: 561428 513463 595598 470074
0110100010010010: 561428 513463 595598 507373
0111100010011010: 561428 513463 595598 609157
0110100010010010: 561428 513463 595598 507373
0111100010001000: 561428 513463 465627 609157
0111100010001000: 561428 513463 465627 470074
0111100010001000: 561428 513463 465627 595598
0110100010010010: 561428 513463 465627 517839
0111100010011010: 561428 513463 465627 457098
0111100010011010: 561428 513463 465627 567679
0110100010010010: 561428 513463 465627 517839
0111100010001000: 561428 457098 567679 513463
0110100010010010: 561428 457098 567679 568289
0110100010010010: 561428 457098 567679 568289
0111100010001000: 561428 457098 609157 513463
0111100010001000: 561428 457098 609157 567679
0110100010010010: 561428 457098 609157 559046
0110100010010010: 561428 457098 609157 609900
0111100010011010: 561428 457098 609157 595598
0110100010010010: 561428 457098 609157 559046
0110100010010010: 561428 457098 609157 609900
0111100010001000: 561428 457098 470074 513463
0111100010001000: 561428 457098 470074 567679
0111100010001000: 561428 457098 470074 609157
0110100010010010: 561428 457098 470074 572578
0110100010010010: 561428 457098 470074 517839
0110100010010010: 561428 457098 470074 572578
0110100010010010: 561428 457098 470074 517839
0111100010001000: 561428 457098 595598 513463
0111100010001000: 561428 457098 595598 567679
0111100010001000: 561428 457098 595598 470074
0110100010010010: 561428 457098 595598 507373
0111100010011010: 561428 457098 595598 609157
0110100010010010: 561428 457098 595598 507373
0111100010001000: 561428 457098 513463 567679
0111100010001000: 561428 457098 513463 609157
0111100010001000: 561428 457098 513463 470074
0111100010001000: 561428 457098 513463 595598
0111100110001100: 561428 457098 513463 465627
0111100110001100: 561428 457098 609157 465627
0111100110001100: 561428 457098 470074 465627
0111100110001100: 561428 457098 595598 465627
0111101011001000: 561428 457098 465627 513463
0111101011001000: 561428 457098 465627 609157
0111101011001000: 561428 457098 465627 470074
0111101011001000: 561428 457098 465627 595598
0110101011010010: 561428 457098 465627 517839
0110101011010010: 561428 457098 465627 517839
0111101011011010: 561428 457098 465627 567679
0111101011011010: 561428 457098 465627 567679
0111101011011010: 561428 457098 465627 567679
0110101011010010: 561428 457098 465627 517839
0110101011010010: 561428 457098 465627 517839
0111101011001000: 561428 457098 465627 513463
0111101011001000: 561428 457098 465627 609157
0111101011001000: 561428 457098 465627 470074
0111101011001000: 561428 457098 465627 595598
0111101011001000: 561428 457098 465627 513463
0111101011001000: 561428 457098 465627 609157
0111101011001000: 561428 457098 465627 470074
0111101011001000: 561428 457098 465627 595598
0110100110000100: 561428 567679 513463 568289
0111100010001000: 561428 567679 457098 513463
0110100110000100: 561428 567679 457098 568289
0111100010001000: 561428 567679 609157 513463
0111100010001000: 561428 567679 609157 457098
0110100110000100: 561428 567679 609157 568289
0110100010010010: 561428 567679 609157 559046
0110100010010010: 561428 567679 609157 609900
0111100010011010: 561428 567679 609157 595598
0110100010010010: 561428 567679 609157 559046
0110100010010010: 561428 567679 609157 609900
0111100010001000: 561428 567679 470074 513463
0111100010001000: 561428 567679 470074 457098
0111100010001000: 561428 567679 470074 609157
0110100110000100: 561428 567679 470074 568289
0110100010010010: 561428 567679 470074 572578
0110100010010010: 561428 567679 470074 517839
0110100010010010: 561428 567679 470074 572578
0110100010010010: 561428 567679 470074 517839
0111100010001000: 561428 567679 595598 513463
0111100010001000: 561428 567679 595598 457098
0111100010001000: 561428 567679 595598 470074
0110100110000100: 561428 567679 595598 568289
0110100010010010: 561428 567679 595598 507373
0111100010011010: 561428 567679 595598 609157
0110100010010010: 561428 567679 595598 507373
0111100010001000: 561428 567679 513463 457098
0111100010001000: 561428 567679 513463 609157
0111100010001000: 561428 567679 513463 470074
0111100010001000: 561428 567679 513463 595598
0110100110000100: 561428 567679 513463 568289
0110100110000100: 561428 567679 513463 568289
0111100110001100: 561428 567679 513463 465627
0110100110000100: 561428 567679 513463 568289
0111100010001000: 561428 567679 457098 513463
0111100010001000: 561428 567679 457098 609157
0111100010001000: 561428 567679 457098 470074
0111100010001000: 561428 567679 457098 595598
0111100010001000: 561428 567679 457098 513463
0110100110000100: 561428 567679 457098 568289
0110100110000100: 561428 567679 457098 568289
0110100110000100: 561428 567679 457098 568289
0110100110000100: 561428 567679 609157 568289
0110100110000100: 561428 567679 609157 568289
0111100110001100: 561428 567679 609157 465627
0110100110000100: 561428 567679 609157 568289
0110100110000100: 561428 567679 470074 568289
0110100110000100: 561428 567679 470074 568289
0111100110001100: 561428 567679 470074 465627
0110100110000100: 561428 567679 470074 568289
0110100110000100: 561428 567679 595598 568289
0110100110000100: 561428 567679 595598 568289
0111100110001100: 561428 567679 595598 465627
0110100110000100: 561428 567679 595598 568289
0111101011001000: 561428 567679 465627 513463
0111101011001000: 561428 567679 465627 609157
0111101011001000: 561428 567679 465627 470074
0111101011001000: 561428 567679 465627 595598
0110101011010010: 561428 567679 465627 517839
0110101011010010: 561428 567679 465627 517839
0111101011011010: 561428 567679 465627 457098
0111101011011010: 561428 567679 465627 457098
0111101011011010: 561428 567679 465627 457098
0110101011010010: 561428 567679 465627 517839
0110101011010010: 561428 567679 465627 517839
0110101111000100: 561428 567679 465627 568289
0101101001001000: 561428 567679 568289 513463
0101101001001000: 561428 567679 568289 457098
0101101001001000: 561428 567679 568289 609157
0101101001001000: 561428 567679 568289 470074
0101101001001000: 561428 567679 568289 595598
0100101001010010: 561428 567679 568289 609900
0100101001010010: 561428 567679 568289 609900
0101101101001100: 561428 567679 568289 465627
0100101001010010: 561428 567679 568289 609900
0100101001010010: 561428 567679 568289 609900
0111101011001000: 561428 567679 465627 513463
0111101011001000: 561428 567679 465627 609157
0111101011001000: 561428 567679 465627 470074
0111101011001000: 561428 567679 465627 595598
0111101011001000: 561428 567679 465627 513463
0111101011001000: 561428 567679 465627 609157
0111101011001000: 561428 567679 465627 470074
0111101011001000: 561428 567679 465627 595598
0110101111000100: 561428 567679 465627 568289
0110101111000100: 561428 567679 465627 568289
0110101111000100: 561428 567679 465627 568289
0110101111000100: 561428 567679 465627 568289
0110101111000100: 561428 567679 465627 568289
0110100110000100: 561428 609157 513463 559046
0110100110000100: 561428 609157 513463 609900
0111100010001000: 561428 609157 457098 513463
0110100110000100: 561428 609157 457098 559046
0110100110000100: 561428 609157 457098 609900
0111100010011010: 561428 609157 457098 465627
0111100010001000: 561428 609157 567679 513463
0111100010001000: 561428 609157 567679 457098
0110100110000100: 561428 609157 567679 559046
0110100110000100: 561428 609157 567679 609900
0110100010010010: 561428 609157 567679 568289
0111100010011010: 561428 609157 567679 465627
0110100010010010: 561428 609157 567679 568289
0111100010001000: 561428 609157 470074 513463
0111100010001000: 561428 609157 470074 457098
0111100010001000: 561428 609157 470074 567679
0110100110000100: 561428 609157 470074 559046
0110100110000100: 561428 609157 470074 609900
0110100010010010: 561428 609157 470074 572578
0110100010010010: 561428 609157 470074 517839
0110100010010010: 561428 609157 470074 572578
0110100010010010: 561428 609157 470074 517839
0111100010001000: 561428 609157 465627 513463
0111100010001000: 561428 609157 465627 470074
0110100110000100: 561428 609157 465627 559046
0110100110000100: 561428 609157 465627 609900
0110100010010010: 561428 609157 465627 517839
0111100010011010: 561428 609157 465627 457098
0111100010011010: 561428 609157 465627 567679
0110100010010010: 561428 609157 465627 517839
0111100010001000: 561428 609157 513463 457098
0111100010001000: 561428 609157 513463 567679
0111100010001000: 561428 609157 513463 470074
0111100010001000: 561428 609157 513463 465627
0110100110000100: 561428 609157 513463 559046
0110100110000100: 561428 609157 513463 609900
0110100110000100: 561428 609157 513463 559046
0110100110000100: 561428 609157 513463 609900
0111100110001100: 561428 609157 513463 595598
0110100110000100: 561428 609157 513463 559046
0110100110000100: 561428 609157 513463 609900
0111100010001000: 561428 609157 457098 513463
0111100010001000: 561428 609157 457098 567679
0111100010001000: 561428 609157 457098 470074
0111100010001000: 561428 609157 457098 513463
0110100110000100: 561428 609157 457098 559046
0110100110000100: 561428 609157 457098 609900
0110100110000100: 561428 609157 457098 559046
0110100110000100: 561428 609157 457098 609900
0111100110001100: 561428 609157 457098 595598
0110100110000100: 561428 609157 457098 559046
0110100110000100: 561428 609157 457098 609900
0111100010001000: 561428 609157 567679 513463
0111100010001000: 561428 609157 567679 457098
0111100010001000: 561428 609157 567679 470074
0111100010001000: 561428 609157 567679 513463
0111100010001000: 561428 609157 567679 457098
0110100110000100: 561428 609157 567679 559046
0110100110000100: 561428 609157 567679 609900
0110100110000100: 561428 609157 567679 559046
0110100110000100: 561428 609157 567679 609900
0111100110001100: 561428 609157 567679 595598
0110100110000100: 561428 609157 567679 559046
0110100110000100: 561428 609157 567679 609900
0110100010010010: 561428 609157 567679 568289
0110100110000100: 561428 609157 470074 559046
0110100110000100: 561428 609157 470074 609900
0110100110000100: 561428 609157 470074 559046
0110100110000100: 561428 609157 470074 609900
0111100110001100: 561428 609157 470074 595598
0110100110000100: 561428 609157 470074 559046
0110100110000100: 561428 609157 470074 609900
0110100010010010: 561428 609157 470074 572578
0110100010010010: 561428 609157 470074 517839
0110100110000100: 561428 609157 465627 559046
0110100110000100: 561428 609157 465627 609900
0110100110000100: 561428 609157 465627 559046
0110100110000100: 561428 609157 465627 609900
0111100110001100: 561428 609157 465627 595598
0110100110000100: 561428 609157 465627 559046
0110100110000100: 561428 609157 465627 609900
0111101011001000: 561428 609157 595598 513463
0111101011001000: 561428 609157 595598 457098
0111101011001000: 561428 609157 595598 567679
0111101011001000: 561428 609157 595598 470074
0111101011001000: 561428 609157 595598 465627
0110101011010010: 561428 609157 595598 507373
0110101011010010: 561428 609157 595598 507373
0110101011010010: 561428 609157 595598 507373
0110101011010010: 561428 609157 595598 507373
0110101011010010: 561428 609157 595598 507373
0101101001001000: 561428 609157 559046 513463
0101101001001000: 561428 609157 559046 457098
0101101001001000: 561428 609157 559046 567679
0101101001001000: 561428 609157 559046 470074
0101101001001000: 561428 609157 559046 465627
0101101101001100: 561428 609157 559046 595598
0101101001001000: 561428 609157 609900 513463
0101101001001000: 561428 609157 609900 457098
0101101001001000: 561428 609157 609900 567679
0101101001001000: 561428 609157 609900 470074
0101101001001000: 561428 609157 609900 465627
0100101001010010: 561428 609157 609900 568289
0100101001010010: 561428 609157 609900 517839
0100101001010010: 561428 609157 609900 568289
0100101001010010: 561428 609157 609900 517839
0101101101001100: 561428 609157 609900 595598
0100101101000100: 561428 609157 609900 559046
0100101001010010: 561428 609157 609900 568289
0100101001010010: 561428 609157 609900 517839
0100101001010010: 561428 609157 609900 568289
0100101001010010: 561428 609157 609900 517839
0111101011001000: 561428 609157 595598 513463
0111101011001000: 561428 609157 595598 457098
0111101011001000: 561428 609157 595598 567679
0111101011001000: 561428 609157 595598 470074
0111101011001000: 561428 609157 595598 465627
0111101011001000: 561428 609157 595598 513463
0111101011001000: 561428 609157 595598 457098
0111101011001000: 561428 609157 595598 567679
0111101011001000: 561428 609157 595598 470074
0111101011001000: 561428 609157 595598 465627
0110101111000100: 561428 609157 595598 559046
0110101111000100: 561428 609157 595598 609900
0110101111000100: 561428 609157 595598 559046
0110101111000100: 561428 609157 595598 609900
0110101111000100: 561428 609157 595598 559046
0110101111000100: 561428 609157 595598 609900
0110101011010010: 561428 609157 595598 507373
0110101011010010: 561428 609157 595598 507373
0110101111000100: 561428 609157 595598 559046
0110101111000100: 561428 609157 595598 609900
0110101011010010: 561428 609157 595598 507373
0110100110000100: 561428 470074 513463 572578
0110100110000100: 561428 470074 513463 517839
0111100010001000: 561428 470074 457098 513463
0110100110000100: 561428 470074 457098 572578
0110100110000100: 561428 470074 457098 517839
0111100010011010: 561428 470074 457098 465627
0111100010001000: 561428 470074 567679 513463
0111100010001000: 561428 470074 567679 457098
0110100110000100: 561428 470074 567679 572578
0110100110000100: 561428 470074 567679 517839
0110100010010010: 561428 470074 567679 568289
0111100010011010: 561428 470074 567679 465627
0110100010010010: 561428 470074 567679 568289
0111100010001000: 561428 470074 609157 513463
0111100010001000: 561428 470074 609157 457098
0111100010001000: 561428 470074 609157 567679
0110100110000100: 561428 470074 609157 572578
0110100110000100: 561428 470074 609157 517839
0110100010010010: 561428 470074 609157 559046
0110100010010010: 561428 470074 609157 609900
0111100010011010: 561428 470074 609157 595598
0110100010010010: 561428 470074 609157 559046
0110100010010010: 561428 470074 609157 609900
0111100010001000: 561428 470074 595598 513463
0111100010001000: 561428 470074 595598 457098
0111100010001000: 561428 470074 595598 567679
0110100110000100: 561428 470074 595598 572578
0110100110000100: 561428 470074 595598 517839
0110100010010010: 561428 470074 595598 507373
0111100010011010: 561428 470074 595598 609157
0110100010010010: 561428 470074 595598 507373
0111100010001000: 561428 470074 465627 513463
0111100010001000: 561428 470074 465627 609157
0111100010001000: 561428 470074 465627 595598
0110100110000100: 561428 470074 465627 572578
0111100010011010: 561428 470074 465627 457098
0111100010011010: 561428 470074 465627 567679
0110100110010110: 561428 470074 465627 517839
0110100110010110: 561428 470074 465627 517839
0111100010001000: 561428 470074 513463 457098
0111100010001000: 561428 470074 513463 567679
0111100010001000: 561428 470074 513463 609157
0111100010001000: 561428 470074 513463 595598
0111100010001000: 561428 470074 513463 465627
0110100110000100: 561428 470074 513463 572578
0110100110000100: 561428 470074 513463 517839
0110100110000100: 561428 470074 513463 572578
0110100110000100: 561428 470074 513463 517839
0110100110000100: 561428 470074 513463 572578
0110100110000100: 561428 470074 513463 517839
0111100010001000: 561428 470074 457098 513463
0111100010001000: 561428 470074 457098 567679
0111100010001000: 561428 470074 457098 609157
0111100010001000: 561428 470074 457098 595598
0111100010001000: 561428 470074 457098 513463
0110100110000100: 561428 470074 457098 572578
0110100110000100: 561428 470074 457098 517839
0110100110000100: 561428 470074 457098 572578
0110100110000100: 561428 470074 457098 517839
0110100110000100: 561428 470074 457098 572578
0110100110000100: 561428 470074 457098 517839
0111100010001000: 561428 470074 567679 513463
0111100010001000: 561428 470074 567679 457098
0111100010001000: 561428 470074 567679 609157
0111100010001000: 561428 470074 567679 595598
0111100010001000: 561428 470074 567679 513463
0111100010001000: 561428 470074 567679 457098
0110100110000100: 561428 470074 567679 572578
0110100110000100: 561428 470074 567679 517839
0110100110000100: 561428 470074 567679 572578
0110100110000100: 561428 470074 567679 517839
0110100110000100: 561428 470074 567679 572578
0110100110000100: 561428 470074 567679 517839
0111100010001000: 561428 470074 609157 513463
0111100010001000: 561428 470074 609157 457098
0111100010001000: 561428 470074 609157 567679
0111100010001000: 561428 470074 609157 465627
0111100010001000: 561428 470074 609157 513463
0111100010001000: 561428 470074 609157 457098
0111100010001000: 561428 470074 609157 567679
0110100110000100: 561428 470074 609157 572578
0110100110000100: 561428 470074 609157 517839
0110100110000100: 561428 470074 609157 572578
0110100110000100: 561428 470074 609157 517839
0110100110000100: 561428 470074 609157 572578
0110100110000100: 561428 470074 609157 517839
0110100110000100: 561428 470074 595598 572578
0110100110000100: 561428 470074 595598 517839
0110100110000100: 561428 470074 595598 572578
0110100110000100: 561428 470074 595598 517839
0110100110000100: 561428 470074 595598 572578
0110100110000100: 561428 470074 595598 517839
0110100110000100: 561428 470074 465627 572578
0110100110000100: 561428 470074 465627 572578
0110100110000100: 561428 470074 465627 572578
0110100110010110: 561428 470074 465627 517839
0101101001001000: 561428 470074 572578 513463
0101101001001000: 561428 470074 572578 457098
0101101001001000: 561428 470074 572578 567679
0101101001001000: 561428 470074 572578 609157
0101101001001000: 561428 470074 572578 595598
0101101001001000: 561428 470074 572578 465627
0100101001010010: 561428 470074 572578 518991
0100101001010010: 561428 470074 572578 518991
0100101001010010: 561428 470074 572578 518991
0100101001010010: 561428 470074 572578 518991
0101101001001000: 561428 470074 517839 513463
0101101001001000: 561428 470074 517839 457098
0101101001001000: 561428 470074 517839 567679
0101101001001000: 561428 470074 517839 609157
0101101001001000: 561428 470074 517839 595598
0100101001010010: 561428 470074 517839 609900
0100101001010010: 561428 470074 517839 609900
0100101101000100: 561428 470074 517839 572578
0101101001011010: 561428 470074 517839 465627
0101101001011010: 561428 470074 517839 465627
0101101001011010: 561428 470074 517839 465627
0100101001010010: 561428 470074 517839 609900
0110100110000100: 561428 595598 513463 507373
0111100010001000: 561428 595598 457098 513463
0110100110000100: 561428 595598 457098 507373
0111100010011010: 561428 595598 457098 465627
0111100010001000: 561428 595598 567679 513463
0111100010001000: 561428 595598 567679 457098
0110100110000100: 561428 595598 567679 507373
0110100010010010: 561428 595598 567679 568289
0111100010011010: 561428 595598 567679 465627
0110100010010010: 561428 595598 567679 568289
0111100010001000: 561428 595598 470074 513463
0111100010001000: 561428 595598 470074 457098
0111100010001000: 561428 595598 470074 567679
0110100110000100: 561428 595598 470074 507373
0110100010010010: 561428 595598 470074 572578
0110100010010010: 561428 595598 470074 517839
0110100010010010: 561428 595598 470074 572578
0110100010010010: 561428 595598 470074 517839
0111100010001000: 561428 595598 465627 513463
0111100010001000: 561428 595598 465627 470074
0110100110000100: 561428 595598 465627 507373
0110100010010010: 561428 595598 465627 517839
0111100010011010: 561428 595598 465627 457098
0111100010011010: 561428 595598 465627 567679
0110100010010010: 561428 595598 465627 517839
0111100010001000: 561428 595598 513463 457098
0111100010001000: 561428 595598 513463 567679
0111100010001000: 561428 595598 513463 470074
0111100010001000: 561428 595598 513463 465627
0110100110000100: 561428 595598 513463 507373
0110100110000100: 561428 595598 513463 507373
0111100110001100: 561428 595598 513463 609157
0110100110000100: 561428 595598 513463 507373
0111100010001000: 561428 595598 457098 513463
0111100010001000: 561428 595598 457098 567679
0111100010001000: 561428 595598 457098 470074
0111100010001000: 561428 595598 457098 513463
0110100110000100: 561428 595598 457098 507373
0110100110000100: 561428 595598 457098 507373
0111100110001100: 561428 595598 457098 609157
0110100110000100: 561428 595598 457098 507373
0111100010001000: 561428 595598 567679 513463
0111100010001000: 561428 595598 567679 457098
0111100010001000: 561428 595598 567679 470074
0111100010001000: 561428 595598 567679 513463
0111100010001000: 561428 595598 567679 457098
0110100110000100: 561428 595598 567679 507373
0110100110000100: 561428 595598 567679 507373
0111100110001100: 561428 595598 567679 609157
0110100110000100: 561428 595598 567679 507373
0111100010001000: 561428 595598 470074 513463
0111100010001000: 561428 595598 470074 457098
0111100010001000: 561428 595598 470074 567679
0111100010001000: 561428 595598 470074 465627
0111100010001000: 561428 595598 470074 513463
0111100010001000: 561428 595598 470074 457098
0111100010001000: 561428 595598 470074 567679
0110100110000100: 561428 595598 470074 507373
0110100110000100: 561428 595598 470074 507373
0111100110001100: 561428 595598 470074 609157
0110100110000100: 561428 595598 470074 507373
0110100110000100: 561428 595598 465627 507373
0110100110000100: 561428 595598 465627 507373
0111100110001100: 561428 595598 465627 609157
0110100110000100: 561428 595598 465627 507373
0111101011001000: 561428 595598 609157 513463
0111101011001000: 561428 595598 609157 457098
0111101011001000: 561428 595598 609157 567679
0111101011001000: 561428 595598 609157 470074
0111101011001000: 561428 595598 609157 465627
0110101011010010: 561428 595598 609157 559046
0110101011010010: 561428 595598 609157 609900
0110101011010010: 561428 595598 609157 559046
0110101011010010: 561428 595598 609157 609900
0110101011010010: 561428 595598 609157 559046
0110101011010010: 561428 595598 609157 609900
0110101011010010: 561428 595598 609157 559046
0110101011010010: 561428 595598 609157 609900
0110101111000100: 561428 595598 609157 507373
0101101001001000: 561428 595598 507373 513463
0101101001001000: 561428 595598 507373 457098
0101101001001000: 561428 595598 507373 567679
0101101001001000: 561428 595598 507373 470074
0101101001001000: 561428 595598 507373 465627
0100101001010010: 561428 595598 507373 469603
0100101001010010: 561428 595598 507373 469603
0101101101001100: 561428 595598 507373 609157
0100101001010010: 561428 595598 507373 469603
0100101001010010: 561428 595598 507373 469603
0111101011001000: 561428 595598 609157 513463
0111101011001000: 561428 595598 609157 457098
0111101011001000: 561428 595598 609157 567679
0111101011001000: 561428 595598 609157 470074
0111101011001000: 561428 595598 609157 465627
0111101011001000: 561428 595598 609157 513463
0111101011001000: 561428 595598 609157 457098
0111101011001000: 561428 595598 609157 567679
0111101011001000: 561428 595598 609157 470074
0111101011001000: 561428 595598 609157 465627
0110101111000100: 561428 595598 609157 507373
0110101111000100: 561428 595598 609157 507373
0110101111000100: 561428 595598 609157 507373
0110101111000100: 561428 595598 609157 507373
0111101011001000: 561428 595598 609157 513463
0111101011001000: 561428 595598 609157 457098
0111101011001000: 561428 595598 609157 567679
0111101011001000: 561428 595598 609157 470074
0111101011001000: 561428 595598 609157 465627
0111101011001000: 561428 595598 609157 513463
0111101011001000: 561428 595598 609157 457098
0111101011001000: 561428 595598 609157 567679
0111101011001000: 561428 595598 609157 470074
0111101011001000: 561428 595598 609157 465627
0110101111000100: 561428 595598 609157 507373
0111100010001000: 561428 465627 609157 513463
0110100010010010: 561428 465627 609157 559046
0110100010010010: 561428 465627 609157 609900
0111100010011010: 561428 465627 609157 595598
0110100010010010: 561428 465627 609157 559046
0110100010010010: 561428 465627 609157 609900
0111100010001000: 561428 465627 470074 513463
0111100010001000: 561428 465627 470074 609157
0110100010010010: 561428 465627 470074 572578
0110100010010010: 561428 465627 470074 572578
0110100110010110: 561428 465627 470074 517839
0111100010001000: 561428 465627 595598 513463
0111100010001000: 561428 465627 595598 470074
0110100010010010: 561428 465627 595598 507373
0111100010011010: 561428 465627 595598 609157
0110100010010010: 561428 465627 595598 507373
0111100010001000: 561428 465627 513463 609157
0111100010001000: 561428 465627 513463 470074
0111100010001000: 561428 465627 513463 595598
0110100110000100: 561428 465627 513463 517839
0111100110001100: 561428 465627 513463 457098
0111100110001100: 561428 465627 513463 567679
0110100110000100: 561428 465627 513463 517839
0111100010001000: 561428 465627 609157 513463
0111100010001000: 561428 465627 609157 470074
0111100010001000: 561428 465627 609157 513463
0110100110000100: 561428 465627 609157 517839
0111100110001100: 561428 465627 609157 457098
0111100110001100: 561428 465627 609157 567679
0110100110000100: 561428 465627 609157 517839
0111100010001000: 561428 465627 470074 513463
0111100010001000: 561428 465627 470074 609157
0111100010001000: 561428 465627 470074 595598
0111100010001000: 561428 465627 470074 513463
0111100010001000: 561428 465627 470074 609157
0111100110001100: 561428 465627 470074 457098
0111100110001100: 561428 465627 470074 567679
0110100110010110: 561428 465627 470074 517839
0110100010010010: 561428 465627 470074 572578
0110100110010110: 561428 465627 470074 517839
0111100010001000: 561428 465627 595598 513463
0111100010001000: 561428 465627 595598 470074
0111100010001000: 561428 465627 595598 513463
0111100010001000: 561428 465627 595598 470074
0110100110000100: 561428 465627 595598 517839
0111100110001100: 561428 465627 595598 457098
0111100110001100: 561428 465627 595598 567679
0110100110000100: 561428 465627 595598 517839
0110100010010010: 561428 465627 595598 507373
0111101011001000: 561428 465627 457098 513463
0111101011001000: 561428 465627 457098 609157
0111101011001000: 561428 465627 457098 470074
0111101011001000: 561428 465627 457098 595598
0111101011001000: 561428 465627 567679 513463
0111101011001000: 561428 465627 567679 609157
0111101011001000: 561428 465627 567679 470074
0111101011001000: 561428 465627 567679 595598
0110101011010010: 561428 465627 567679 568289
0110101011010010: 561428 465627 567679 568289
0101101001001000: 561428 465627 517839 513463
0101101001001000: 561428 465627 517839 609157
0101101001001000: 561428 465627 517839 595598
0100101001010010: 561428 465627 517839 609900
0100101001010010: 561428 465627 517839 609900
0101101101001100: 561428 465627 517839 457098
0101101101001100: 561428 465627 517839 567679
0101101001011010: 561428 465627 517839 470074
0101101001011010: 561428 465627 517839 470074
0101101001011010: 561428 465627 517839 470074
0100101001010010: 561428 465627 517839 609900
0100101001010010: 561428 465627 517839 609900
0101101001011010: 561428 465627 517839 470074
0111101011001000: 561428 465627 457098 513463
0111101011001000: 561428 465627 457098 609157
0111101011001000: 561428 465627 457098 470074
0111101011001000: 561428 465627 457098 595598
0111101011001000: 561428 465627 457098 513463
0111101011001000: 561428 465627 457098 609157
0111101011001000: 561428 465627 457098 470074
0111101011001000: 561428 465627 457098 595598
0110101111000100: 561428 465627 457098 517839
0110101111000100: 561428 465627 457098 517839
0111101111001100: 561428 465627 457098 567679
0110101111000100: 561428 465627 457098 517839
0111101011001000: 561428 465627 567679 513463
0111101011001000: 561428 465627 567679 609157
0111101011001000: 561428 465627 567679 470074
0111101011001000: 561428 465627 567679 595598
0111101011001000: 561428 465627 567679 513463
0111101011001000: 561428 465627 567679 609157
0111101011001000: 561428 465627 567679 470074
0111101011001000: 561428 465627 567679 595598
0110101111000100: 561428 465627 567679 517839
0110101111000100: 561428 465627 567679 517839
0111101111001100: 561428 465627 567679 457098
0110101111000100: 561428 465627 567679 517839
0111101111001100: 561428 465627 567679 457098
0110101011010010: 561428 465627 567679 568289
0110101011010010: 561428 465627 567679 568289
0111101011001000: 561428 465627 457098 513463
0111101011001000: 561428 465627 457098 609157
0111101011001000: 561428 465627 457098 470074
0111101011001000: 561428 465627 457098 595598
0111101011001000: 561428 465627 457098 513463
0111101011001000: 561428 465627 457098 609157
0111101011001000: 561428 465627 457098 470074
0111101011001000: 561428 465627 457098 595598
0110101111000100: 561428 465627 457098 517839
0111101111001100: 561428 465627 457098 567679
0111101011001000: 561428 465627 567679 513463
0111101011001000: 561428 465627 567679 609157
0111101011001000: 561428 465627 567679 470074
0111101011001000: 561428 465627 567679 595598
0111101011001000: 561428 465627 567679 513463
0111101011001000: 561428 465627 567679 609157
0111101011001000: 561428 465627 567679 470074
0111101011001000: 561428 465627 567679 595598
0110101111000100: 561428 465627 567679 517839
0111101111001100: 561428 465627 567679 457098
0111101011001000: 595598 609157 561428 507373
0101101001001000: 595598 507373 469603 609157
0101101001001000: 595598 507373 469603 561428
0111101011001000: 595598 561428 609157 507373
0110100110000100: 595598 609157 507373 559046
0110100110000100: 595598 609157 507373 609900
0110100010010010: 595598 609157 507373 469603
0110100010010010: 595598 609157 507373 469603
0110100110000100: 595598 609157 507373 559046
0110100110000100: 595598 609157 507373 609900
0110100110000100: 595598 609157 507373 559046
0110100110000100: 595598 609157 507373 609900
0111100110001100: 595598 609157 507373 561428
0110100010010010: 595598 609157 507373 469603
0111101011001000: 595598 609157 561428 507373
0110101011010010: 595598 609157 561428 513463
0110101011010010: 595598 609157 561428 457098
0110101011010010: 595598 609157 561428 567679
0110101011010010: 595598 609157 561428 470074
0110101011010010: 595598 609157 561428 465627
0110101011010010: 595598 609157 561428 513463
0110101011010010: 595598 609157 561428 457098
0110101011010010: 595598 609157 561428 567679
0110101011010010: 595598 609157 561428 470074
0110101011010010: 595598 609157 561428 465627
0111101011001000: 595598 609157 561428 507373
0110100010010010: 595598 609157 507373 469603
0111101011001000: 595598 609157 561428 507373
0111101011001000: 595598 609157 561428 507373
0110101111000100: 595598 609157 561428 559046
0110101111000100: 595598 609157 561428 609900
0110101111000100: 595598 609157 561428 559046
0110101111000100: 595598 609157 561428 609900
0111101011001000: 595598 609157 561428 507373
0110101111000100: 595598 609157 561428 559046
0110101111000100: 595598 609157 561428 609900
0111101011001000: 595598 609157 561428 507373
0110100110000100: 595598 609157 507373 559046
0110100110000100: 595598 609157 507373 609900
0110100110000100: 595598 609157 507373 559046
0110100110000100: 595598 609157 507373 609900
0111100110001100: 595598 609157 507373 561428
0111100110001100: 595598 609157 507373 561428
0111100110001100: 595598 609157 507373 561428
0110100010010010: 595598 609157 507373 469603
0110100010010010: 595598 609157 507373 469603
0111101011001000: 595598 609157 561428 507373
0110100110000100: 595598 507373 609157 469603
0110100010010010: 595598 507373 609157 559046
0110100010010010: 595598 507373 609157 609900
0111100010011010: 595598 507373 609157 561428
0110100110000100: 595598 507373 561428 469603
0110100010010010: 595598 507373 561428 513463
0110100010010010: 595598 507373 561428 457098
0110100010010010: 595598 507373 561428 567679
0110100010010010: 595598 507373 561428 470074
0110100010010010: 595598 507373 561428 465627
0111100010011010: 595598 507373 561428 609157
0110100110000100: 595598 507373 609157 469603
0110100110000100: 595598 507373 609157 469603
0110100110000100: 595598 507373 609157 469603
0110100110000100: 595598 507373 561428 469603
0110100110000100: 595598 507373 561428 469603
0110100110000100: 595598 507373 561428 469603
0101101001001000: 595598 507373 469603 609157
0101101001001000: 595598 507373 469603 561428
0100101001010010: 595598 507373 469603 518991
0100101001010010: 595598 507373 469603 518991
0100101001010010: 595598 507373 469603 518991
0110100010010010: 595598 561428 507373 469603
0110100010010010: 595598 561428 507373 469603
0110100110000100: 595598 561428 507373 513463
0110100110000100: 595598 561428 507373 457098
0110100110000100: 595598 561428 507373 567679
0110100110000100: 595598 561428 507373 470074
0110100110000100: 595598 561428 507373 465627
0111100110001100: 595598 561428 507373 609157
0110100010010010: 595598 561428 507373 469603
0111101011001000: 595598 561428 609157 507373
0111101011001000: 595598 561428 609157 507373
0111101011001000: 595598 561428 609157 507373
0110100010010010: 595598 561428 507373 469603
0111101011001000: 595598 561428 609157 507373
0111101011001000: 595598 561428 609157 507373
0110101111000100: 595598 561428 609157 513463
0110101111000100: 595598 561428 609157 457098
0110101111000100: 595598 561428 609157 567679
0110101111000100: 595598 561428 609157 470074
0110101111000100: 595598 561428 609157 465627
0110101111000100: 595598 561428 609157 513463
0110101111000100: 595598 561428 609157 457098
0110101111000100: 595598 561428 609157 567679
0110101111000100: 595598 561428 609157 470074
0110101111000100: 595598 561428 609157 465627
0111101011001000: 595598 561428 609157 507373
0110101011010010: 595598 561428 609157 559046
0110101011010010: 595598 561428 609157 609900
0111101011001000: 595598 561428 609157 507373
0110100110000100: 595598 561428 507373 513463
0110100110000100: 595598 561428 507373 457098
0110100110000100: 595598 561428 507373 567679
0110100110000100: 595598 561428 507373 470074
0110100110000100: 595598 561428 507373 465627
0110100110000100: 595598 561428 507373 513463
0110100110000100: 595598 561428 507373 457098
0110100110000100: 595598 561428 507373 567679
0110100110000100: 595598 561428 507373 470074
0110100110000100: 595598 561428 507373 465627
0111100110001100: 595598 561428 507373 609157
0111100110001100: 595598 561428 507373 609157
0111100110001100: 595598 561428 507373 609157
0110100010010010: 595598 561428 507373 469603
0110100010010010: 595598 561428 507373 469603
0111101011001000: 595598 561428 609157 507373
0111101011001000: 595598 561428 609157 507373
0111101011001000: 595598 561428 609157 507373
0111101011001000: 595598 561428 609157 507373
0110100110000100: 507373 469603 595598 518991
0110100010010010: 507373 469603 595598 609157
0110100010010010: 507373 469603 595598 561428
0110100110000100: 507373 469603 595598 518991
0110100110000100: 507373 469603 595598 518991
0110100110000100: 507373 469603 595598 518991
0110100110000100: 507373 469603 595598 518991
0110100110000100: 507373 469603 595598 518991
0110100010010010: 507373 595598 469603 518991
0110100110000100: 507373 595598 469603 609157
0110100110000100: 507373 595598 469603 561428
0110100010010010: 507373 595598 469603 518991
0110100110000100: 507373 595598 469603 609157
0110100110000100: 507373 595598 469603 561428
0110100110000100: 507373 595598 469603 609157
0110100110000100: 507373 595598 469603 561428
0110100010010010: 507373 595598 469603 518991
0111100010001000: 517839 465627 470074 609900
0110100110010110: 517839 465627 470074 561428
0110100110000100: 517839 609900 470074 568289
0110100110000100: 517839 609900 470074 609157
0110100010010010: 517839 609900 470074 572578
0110100010010010: 517839 609900 470074 561428
0111100010001000: 517839 609900 465627 470074
0110100110000100: 517839 609900 465627 568289
0110100110000100: 517839 609900 465627 609157
0110100010010010: 517839 609900 465627 457098
0110100010010010: 517839 609900 465627 567679
0110100010010010: 517839 609900 465627 561428
0110100110000100: 517839 609900 470074 568289
0110100110000100: 517839 609900 470074 609157
0110100110000100: 517839 609900 470074 568289
0110100110000100: 517839 609900 470074 609157
0110100110000100: 517839 609900 465627 568289
0110100110000100: 517839 609900 465627 609157
0110100110000100: 517839 609900 465627 568289
0110100110000100: 517839 609900 465627 609157
0111100010001000: 517839 609900 470074 465627
0111100010001000: 517839 609900 470074 465627
0111100010001000: 517839 609900 470074 465627
0111100010001000: 517839 609900 465627 470074
0111100010001000: 517839 609900 465627 470074
0111100010001000: 517839 609900 465627 470074
0110100110000100: 517839 609900 470074 568289
0110100110000100: 517839 609900 470074 609157
0110100110000100: 517839 609900 470074 568289
0110100110000100: 517839 609900 470074 609157
0111100010001000: 517839 609900 470074 465627
0110100110000100: 517839 609900 470074 568289
0110100110000100: 517839 609900 470074 609157
0110100110000100: 517839 609900 465627 568289
0110100110000100: 517839 609900 465627 609157
0110100110000100: 517839 609900 465627 568289
0110100110000100: 517839 609900 465627 609157
0111100010001000: 517839 609900 465627 470074
0111100010001000: 517839 609900 465627 470074
0110100110000100: 517839 609900 465627 568289
0110100110000100: 517839 609900 465627 609157
0110100110000100: 517839 470074 609900 572578
0110100110000100: 517839 470074 609900 561428
0110100010010010: 517839 470074 609900 568289
0110100010010010: 517839 470074 609900 609157
0111100010001000: 517839 470074 465627 609900
0110100110000100: 517839 470074 465627 572578
0110100010010010: 517839 470074 465627 457098
0110100010010010: 517839 470074 465627 567679
0110100110010110: 517839 470074 465627 561428
0110100110010110: 517839 470074 465627 561428
0111100010001000: 517839 470074 609900 465627
0110100110000100: 517839 470074 609900 572578
0110100110000100: 517839 470074 609900 561428
0110100110000100: 517839 470074 609900 572578
0110100110000100: 517839 470074 609900 561428
0110100110000100: 517839 470074 465627 572578
0110100110000100: 517839 470074 465627 572578
0110100110010110: 517839 470074 465627 561428
0111100010001000: 517839 470074 609900 465627
0111100010001000: 517839 470074 609900 465627
0111100010001000: 517839 470074 609900 465627
0111100010001000: 517839 470074 465627 609900
0111100010001000: 517839 470074 465627 609900
0111100010001000: 517839 470074 465627 609900
0110100110000100: 517839 470074 609900 572578
0110100110000100: 517839 470074 609900 561428
0110100110000100: 517839 470074 609900 572578
0110100110000100: 517839 470074 609900 561428
0111100010001000: 517839 470074 609900 465627
0110100110000100: 517839 470074 609900 572578
0110100110000100: 517839 470074 609900 561428
0110100110000100: 517839 470074 465627 572578
0110100110000100: 517839 470074 465627 572578
0111100010001000: 517839 470074 465627 609900
0111100010001000: 517839 470074 465627 609900
0110100110010110: 517839 470074 465627 561428
0110100110000100: 517839 470074 465627 572578
0110100010010010: 517839 465627 609900 568289
0110100010010010: 517839 465627 609900 609157
0111100010001000: 517839 465627 470074 609900
0110100010010010: 517839 465627 470074 572578
0110100110010110: 517839 465627 470074 561428
0111100010001000: 517839 465627 609900 470074
0110100110000100: 517839 465627 609900 457098
0110100110000100: 517839 465627 609900 567679
0110100110000100: 517839 465627 609900 561428
0110100010010010: 517839 465627 609900 568289
0110100010010010: 517839 465627 609900 609157
0111100010001000: 517839 465627 470074 609900
0111100010001000: 517839 465627 470074 609900
0110100110000100: 517839 465627 470074 457098
0110100110000100: 517839 465627 470074 567679
0110100110010110: 517839 465627 470074 561428
0110100010010010: 517839 465627 470074 572578
0110100110010110: 517839 465627 470074 561428
0111100010001000: 517839 465627 609900 470074
0111100010001000: 517839 465627 609900 470074
0111100010001000: 517839 465627 609900 470074
0111100010001000: 517839 465627 470074 609900
0111100010001000: 517839 465627 470074 609900
0111100010001000: 517839 465627 470074 609900
0110100110000100: 517839 465627 609900 457098
0110100110000100: 517839 465627 609900 567679
0110100110000100: 517839 465627 609900 561428
0110100110000100: 517839 465627 609900 457098
0110100110000100: 517839 465627 609900 567679
0110100110000100: 517839 465627 609900 561428
0111100010001000: 517839 465627 609900 470074
0110100010010010: 517839 465627 609900 568289
0110100010010010: 517839 465627 609900 609157
0110100110000100: 517839 465627 470074 457098
0110100110000100: 517839 465627 470074 567679
0110100110000100: 517839 465627 470074 457098
0110100110000100: 517839 465627 470074 567679
0111100010001000: 517839 465627 470074 609900
0111100010001000: 517839 465627 470074 609900
0110100010010010: 517839 465627 470074 572578
0110100110010110: 517839 465627 470074 561428
0101101001001000: 470074 572578 518991 517839
0101101001001000: 470074 572578 518991 561428
0111100010001000: 470074 561428 517839 572578
0110100110010110: 470074 561428 517839 465627
0110100110000100: 470074 572578 517839 518991
0110100010010010: 470074 572578 517839 609900
0110100010010010: 470074 572578 517839 465627
0111100010001000: 470074 572578 561428 517839
0110100110000100: 470074 572578 561428 518991
0110100010010010: 470074 572578 561428 513463
0110100010010010: 470074 572578 561428 457098
0110100010010010: 470074 572578 561428 567679
0110100010010010: 470074 572578 561428 609157
0110100010010010: 470074 572578 561428 595598
0110100010010010: 470074 572578 561428 465627
0110100110000100: 470074 572578 517839 518991
0110100110000100: 470074 572578 517839 518991
0110100110000100: 470074 572578 517839 518991
0110100110000100: 470074 572578 561428 518991
0110100110000100: 470074 572578 561428 518991
0110100110000100: 470074 572578 561428 518991
0101101001001000: 470074 572578 518991 517839
0101101001001000: 470074 572578 518991 561428
0100101001010010: 470074 572578 518991 469603
0100101001010010: 470074 572578 518991 469603
0100101001010010: 470074 572578 518991 469603
0110100010010010: 470074 517839 572578 518991
0110100010010010: 470074 517839 572578 518991
0111100010001000: 470074 517839 561428 572578
0110100010010010: 470074 517839 561428 513463
0110100010010010: 470074 517839 561428 457098
0110100010010010: 470074 517839 561428 567679
0110100010010010: 470074 517839 561428 609157
0110100010010010: 470074 517839 561428 595598
0110100110010110: 470074 517839 561428 465627
0111100010001000: 470074 517839 572578 561428
0110100110000100: 470074 517839 572578 609900
0110100110000100: 470074 517839 572578 465627
0110100010010010: 470074 517839 572578 518991
0110100110000100: 470074 517839 561428 609900
0110100110010110: 470074 517839 561428 465627
0111100010001000: 470074 517839 572578 561428
0111100010001000: 470074 517839 572578 561428
0110100010010010: 470074 517839 572578 518991
0111100010001000: 470074 517839 561428 572578
0111100010001000: 470074 517839 561428 572578
0111100010001000: 470074 517839 561428 572578
0110100110000100: 470074 517839 572578 609900
0110100110000100: 470074 517839 572578 465627
0110100110000100: 470074 517839 572578 609900
0110100110000100: 470074 517839 572578 465627
0111100010001000: 470074 517839 572578 561428
0110100010010010: 470074 517839 572578 518991
0110100010010010: 470074 517839 572578 518991
0110100110000100: 470074 517839 561428 609900
0110100110000100: 470074 517839 561428 609900
0111100010001000: 470074 517839 561428 572578
0111100010001000: 470074 517839 561428 572578
0110100110010110: 470074 517839 561428 465627
0110100110000100: 470074 517839 561428 609900
0110100010010010: 470074 561428 572578 518991
0110100010010010: 470074 561428 572578 518991
0111100010001000: 470074 561428 517839 572578
0110100010010010: 470074 561428 517839 609900
0110100110010110: 470074 561428 517839 465627
0111100010001000: 470074 561428 572578 517839
0110100110000100: 470074 561428 572578 513463
0110100110000100: 470074 561428 572578 457098
0110100110000100: 470074 561428 572578 567679
0110100110000100: 470074 561428 572578 609157
0110100110000100: 470074 561428 572578 595598
0110100110000100: 470074 561428 572578 465627
0110100010010010: 470074 561428 572578 518991
0111100010001000: 470074 561428 517839 572578
0111100010001000: 470074 561428 517839 572578
0110100110000100: 470074 561428 517839 513463
0110100110000100: 470074 561428 517839 457098
0110100110000100: 470074 561428 517839 567679
0110100110000100: 470074 561428 517839 609157
0110100110000100: 470074 561428 517839 595598
0110100110010110: 470074 561428 517839 465627
0110100010010010: 470074 561428 517839 609900
0110100110010110: 470074 561428 517839 465627
0111100010001000: 470074 561428 572578 517839
0111100010001000: 470074 561428 572578 517839
0110100010010010: 470074 561428 572578 518991
0111100010001000: 470074 561428 517839 572578
0111100010001000: 470074 561428 517839 572578
0111100010001000: 470074 561428 517839 572578
0110100110000100: 470074 561428 572578 513463
0110100110000100: 470074 561428 572578 457098
0110100110000100: 470074 561428 572578 567679
0110100110000100: 470074 561428 572578 609157
0110100110000100: 470074 561428 572578 595598
0110100110000100: 470074 561428 572578 465627
0110100110000100: 470074 561428 572578 513463
0110100110000100: 470074 561428 572578 457098
0110100110000100: 470074 561428 572578 567679
0110100110000100: 470074 561428 572578 609157
0110100110000100: 470074 561428 572578 595598
0110100110000100: 470074 561428 572578 465627
0111100010001000: 470074 561428 572578 517839
0110100010010010: 470074 561428 572578 518991
0110100010010010: 470074 561428 572578 518991
0110100110000100: 470074 561428 517839 513463
0110100110000100: 470074 561428 517839 457098
0110100110000100: 470074 561428 517839 567679
0110100110000100: 470074 561428 517839 609157
0110100110000100: 470074 561428 517839 595598
0110100110000100: 470074 561428 517839 513463
0110100110000100: 470074 561428 517839 457098
0110100110000100: 470074 561428 517839 567679
0110100110000100: 470074 561428 517839 609157
0110100110000100: 470074 561428 517839 595598
0111100010001000: 470074 561428 517839 572578
0111100010001000: 470074 561428 517839 572578
0110100010010010: 470074 561428 517839 609900
0110100110010110: 470074 561428 517839 465627
0101101001001000: 609900 568289 567679 609157
0101101001001000: 609900 568289 567679 517839
0111100010001000: 609900 517839 609157 568289
0110100110000100: 609900 568289 609157 567679
0110100010010010: 609900 568289 609157 559046
0110100010010010: 609900 568289 609157 595598
0110100010010010: 609900 568289 609157 561428
0111100010001000: 609900 568289 517839 609157
0110100110000100: 609900 568289 517839 567679
0110100010010010: 609900 568289 517839 470074
0110100010010010: 609900 568289 517839 465627
0110100110000100: 609900 568289 609157 567679
0110100110000100: 609900 568289 609157 567679
0110100110000100: 609900 568289 609157 567679
0110100110000100: 609900 568289 517839 567679
0110100110000100: 609900 568289 517839 567679
0110100110000100: 609900 568289 517839 567679
0101101001001000: 609900 568289 567679 609157
0101101001001000: 609900 568289 567679 517839
0100101001010010: 609900 568289 567679 561428
0100101001010010: 609900 568289 567679 465627
0100101001010010: 609900 568289 567679 561428
0100101001010010: 609900 568289 567679 465627
0101101001001000: 609900 568289 567679 609157
0101101001001000: 609900 568289 567679 517839
0110100110000100: 609900 609157 568289 559046
0110100110000100: 609900 609157 568289 595598
0110100110000100: 609900 609157 568289 561428
0110100010010010: 609900 609157 568289 567679
0110100010010010: 609900 609157 568289 567679
0111100010001000: 609900 609157 517839 568289
0110100110000100: 609900 609157 517839 559046
0110100110000100: 609900 609157 517839 595598
0110100110000100: 609900 609157 517839 561428
0110100010010010: 609900 609157 517839 470074
0110100010010010: 609900 609157 517839 465627
0111100010001000: 609900 609157 568289 517839
0110100110000100: 609900 609157 568289 559046
0110100110000100: 609900 609157 568289 595598
0110100110000100: 609900 609157 568289 561428
0110100110000100: 609900 609157 568289 559046
0110100110000100: 609900 609157 568289 595598
0110100110000100: 609900 609157 568289 561428
0110100010010010: 609900 609157 568289 567679
0110100110000100: 609900 609157 517839 559046
0110100110000100: 609900 609157 517839 595598
0110100110000100: 609900 609157 517839 561428
0110100110000100: 609900 609157 517839 559046
0110100110000100: 609900 609157 517839 595598
0110100110000100: 609900 609157 517839 561428
0110100010010010: 609900 609157 517839 470074
0110100010010010: 609900 609157 517839 465627
0111100010001000: 609900 609157 568289 517839
0111100010001000: 609900 609157 568289 517839
0110100010010010: 609900 609157 568289 567679
0111100010001000: 609900 609157 517839 568289
0111100010001000: 609900 609157 517839 568289
0111100010001000: 609900 609157 517839 568289
0110100110000100: 609900 609157 568289 559046
0110100110000100: 609900 609157 568289 595598
0110100110000100: 609900 609157 568289 561428
0110100110000100: 609900 609157 568289 559046
0110100110000100: 609900 609157 568289 595598
0110100110000100: 609900 609157 568289 561428
0111100010001000: 609900 609157 568289 517839
0110100010010010: 609900 609157 568289 567679
0110100010010010: 609900 609157 568289 567679
0110100110000100: 609900 609157 517839 559046
0110100110000100: 609900 609157 517839 595598
0110100110000100: 609900 609157 517839 561428
0110100110000100: 609900 609157 517839 559046
0110100110000100: 609900 609157 517839 595598
0110100110000100: 609900 609157 517839 561428
0111100010001000: 609900 609157 517839 568289
0111100010001000: 609900 609157 517839 568289
0110100010010010: 609900 609157 517839 470074
0110100010010010: 609900 609157 517839 465627
0110100010010010: 609900 517839 568289 567679
0110100010010010: 609900 517839 568289 567679
0111100010001000: 609900 517839 609157 568289
0110100010010010: 609900 517839 609157 559046
0110100010010010: 609900 517839 609157 595598
0110100010010010: 609900 517839 609157 561428
0111100010001000: 609900 517839 568289 609157
0110100110000100: 609900 517839 568289 470074
0110100110000100: 609900 517839 568289 465627
0110100010010010: 609900 517839 568289 567679
0111100010001000: 609900 517839 609157 568289
0111100010001000: 609900 517839 609157 568289
0110100110000100: 609900 517839 609157 470074
0110100110000100: 609900 517839 609157 465627
0111100010001000: 609900 517839 568289 609157
0111100010001000: 609900 517839 568289 609157
0110100010010010: 609900 517839 568289 567679
0111100010001000: 609900 517839 609157 568289
0111100010001000: 609900 517839 609157 568289
0111100010001000: 609900 517839 609157 568289
0110100110000100: 609900 517839 568289 470074
0110100110000100: 609900 517839 568289 465627
0110100110000100: 609900 517839 568289 470074
0110100110000100: 609900 517839 568289 465627
0111100010001000: 609900 517839 568289 609157
0110100010010010: 609900 517839 568289 567679
0110100010010010: 609900 517839 568289 567679
0110100110000100: 609900 517839 609157 470074
0110100110000100: 609900 517839 609157 465627
0110100110000100: 609900 517839 609157 470074
0110100110000100: 609900 517839 609157 465627
0111100010001000: 609900 517839 609157 568289
0111100010001000: 609900 517839 609157 568289
0110100110000100: 609900 517839 609157 470074
0110100110000100: 609900 517839 609157 465627
0101101001001000: 609157 609900 568289 559046
0101101001001000: 609157 609900 568289 595598
0101101001001000: 609157 609900 568289 561428
0101101001001000: 609157 609900 517839 559046
0101101001001000: 609157 609900 517839 595598
0101101001001000: 609157 609900 517839 561428
0100101101000100: 609157 609900 517839 568289
0111100010001000: 609157 595598 609900 559046
0111101011001000: 609157 595598 561428 559046
0111101011001000: 609157 595598 561428 609900
0101101001001000: 609157 595598 507373 559046
0101101001001000: 609157 595598 507373 609900
0101101101001100: 609157 595598 507373 561428
0111100010001000: 609157 561428 609900 559046
0111101011001000: 609157 561428 595598 559046
0111101011001000: 609157 561428 595598 609900
0110100010010010: 609157 559046 609900 568289
0110100010010010: 609157 559046 609900 517839
0110100010010010: 609157 559046 609900 568289
0110100010010010: 609157 559046 609900 517839
0111100010001000: 609157 559046 595598 609900
0110100010010010: 609157 559046 595598 507373
0111100010011010: 609157 559046 595598 561428
0110100010010010: 609157 559046 595598 507373
0111100010001000: 609157 559046 561428 609900
0110100010010010: 609157 559046 561428 513463
0110100010010010: 609157 559046 561428 457098
0110100010010010: 609157 559046 561428 567679
0110100010010010: 609157 559046 561428 470074
0110100010010010: 609157 559046 561428 465627
0111100010011010: 609157 559046 561428 595598
0111100010001000: 609157 609900 595598 559046
0110100010010010: 609157 609900 595598 507373
0111100010011010: 609157 609900 595598 561428
0110100010010010: 609157 609900 595598 507373
0111100010001000: 609157 609900 561428 559046
0110100010010010: 609157 609900 561428 513463
0110100010010010: 609157 609900 561428 457098
0110100010010010: 609157 609900 561428 567679
0110100010010010: 609157 609900 561428 470074
0110100010010010: 609157 609900 561428 465627
0111100010011010: 609157 609900 561428 595598
0111100010001000: 609157 609900 559046 595598
0111100010001000: 609157 609900 559046 561428
0110100110000100: 609157 609900 559046 568289
0110100110000100: 609157 609900 559046 517839
0110100110000100: 609157 609900 559046 568289
0110100110000100: 609157 609900 559046 517839
0110100110000100: 609157 609900 595598 568289
0110100110000100: 609157 609900 595598 517839
0110100110000100: 609157 609900 595598 568289
0110100110000100: 609157 609900 595598 517839
0110100110000100: 609157 609900 561428 568289
0110100110000100: 609157 609900 561428 517839
0110100110000100: 609157 609900 561428 568289
0110100110000100: 609157 609900 561428 517839
0101101001001000: 609157 609900 568289 559046
0101101001001000: 609157 609900 568289 595598
0101101001001000: 609157 609900 568289 561428
0100101001010010: 609157 609900 568289 567679
0100101001010010: 609157 609900 568289 567679
0100101001010010: 609157 609900 568289 567679
0100101001010010: 609157 609900 568289 567679
0101101001001000: 609157 609900 517839 559046
0101101001001000: 609157 609900 517839 595598
0101101001001000: 609157 609900 517839 561428
0100101001010010: 609157 609900 517839 470074
0100101001010010: 609157 609900 517839 465627
0100101001010010: 609157 609900 517839 470074
0100101001010010: 609157 609900 517839 465627
0100101101000100: 609157 609900 517839 568289
0100101001010010: 609157 609900 517839 470074
0100101001010010: 609157 609900 517839 465627
0111100010001000: 609157 595598 609900 559046
0110100010010010: 609157 595598 609900 568289
0110100010010010: 609157 595598 609900 517839
0110100010010010: 609157 595598 609900 568289
0110100010010010: 609157 595598 609900 517839
0111100010001000: 609157 595598 559046 609900
0110100110000100: 609157 595598 559046 507373
0111100110001100: 609157 595598 559046 561428
0110100110000100: 609157 595598 559046 507373
0111100010001000: 609157 595598 609900 559046
0111100010001000: 609157 595598 609900 559046
0110100110000100: 609157 595598 609900 507373
0111100110001100: 609157 595598 609900 561428
0110100110000100: 609157 595598 609900 507373
0111101011001000: 609157 595598 561428 559046
0111101011001000: 609157 595598 561428 609900
0111101011001000: 609157 595598 561428 559046
0111101011001000: 609157 595598 561428 609900
0111101011001000: 609157 595598 561428 559046
0111101011001000: 609157 595598 561428 609900
0110101111000100: 609157 595598 561428 507373
0101101001001000: 609157 595598 507373 559046
0101101001001000: 609157 595598 507373 609900
0100101001010010: 609157 595598 507373 469603
0100101001010010: 609157 595598 507373 469603
0101101101001100: 609157 595598 507373 561428
0100101001010010: 609157 595598 507373 469603
0100101001010010: 609157 595598 507373 469603
0111101011001000: 609157 595598 561428 559046
0111101011001000: 609157 595598 561428 609900
0111101011001000: 609157 595598 561428 559046
0111101011001000: 609157 595598 561428 609900
0110101111000100: 609157 595598 561428 507373
0110101111000100: 609157 595598 561428 507373
0110101111000100: 609157 595598 561428 507373
0110101111000100: 609157 595598 561428 507373
0110101111000100: 609157 595598 561428 507373
0111100010001000: 609157 561428 609900 559046
0110100010010010: 609157 561428 609900 568289
0110100010010010: 609157 561428 609900 517839
0110100010010010: 609157 561428 609900 568289
0110100010010010: 609157 561428 609900 517839
0111100010001000: 609157 561428 559046 609900
0110100110000100: 609157 561428 559046 513463
0110100110000100: 609157 561428 559046 457098
0110100110000100: 609157 561428 559046 567679
0110100110000100: 609157 561428 559046 470074
0110100110000100: 609157 561428 559046 465627
0111100110001100: 609157 561428 559046 595598
0111100010001000: 609157 561428 609900 559046
0111100010001000: 609157 561428 609900 559046
0110100110000100: 609157 561428 609900 513463
0110100110000100: 609157 561428 609900 457098
0110100110000100: 609157 561428 609900 567679
0110100110000100: 609157 561428 609900 470074
0110100110000100: 609157 561428 609900 465627
0111100110001100: 609157 561428 609900 595598
0110100010010010: 609157 561428 609900 568289
0110100010010010: 609157 561428 609900 517839
0111101011001000: 609157 561428 595598 559046
0111101011001000: 609157 561428 595598 609900
0110101011010010: 609157 561428 595598 507373
0110101011010010: 609157 561428 595598 507373
0111100010001000: 609157 561428 559046 609900
0111100010001000: 609157 561428 559046 609900
0111100010001000: 609157 561428 609900 559046
0111100010001000: 609157 561428 609900 559046
0110100010010010: 609157 561428 609900 568289
0110100010010010: 609157 561428 609900 517839
0111101011001000: 609157 561428 595598 559046
0111101011001000: 609157 561428 595598 609900
0111101011001000: 609157 561428 595598 559046
0111101011001000: 609157 561428 595598 609900
0110101111000100: 609157 561428 595598 513463
0110101111000100: 609157 561428 595598 457098
0110101111000100: 609157 561428 595598 567679
0110101111000100: 609157 561428 595598 470074
0110101111000100: 609157 561428 595598 465627
0110101111000100: 609157 561428 595598 513463
0110101111000100: 609157 561428 595598 457098
0110101111000100: 609157 561428 595598 567679
0110101111000100: 609157 561428 595598 470074
0110101111000100: 609157 561428 595598 465627
0111101011001000: 609157 561428 595598 559046
0111101011001000: 609157 561428 595598 609900
0110101011010010: 609157 561428 595598 507373
0110101011010010: 609157 561428 595598 507373
0110100110000100: 609157 561428 559046 513463
0110100110000100: 609157 561428 559046 457098
0110100110000100: 609157 561428 559046 567679
0110100110000100: 609157 561428 559046 470074
0110100110000100: 609157 561428 559046 465627
0110100110000100: 609157 561428 559046 513463
0110100110000100: 609157 561428 559046 457098
0110100110000100: 609157 561428 559046 567679
0110100110000100: 609157 561428 559046 470074
0110100110000100: 609157 561428 559046 465627
0111100110001100: 609157 561428 559046 595598
0111100110001100: 609157 561428 559046 595598
0111100110001100: 609157 561428 559046 595598
0111100010001000: 609157 561428 559046 609900
0110100110000100: 609157 561428 609900 513463
0110100110000100: 609157 561428 609900 457098
0110100110000100: 609157 561428 609900 567679
0110100110000100: 609157 561428 609900 470074
0110100110000100: 609157 561428 609900 465627
0110100110000100: 609157 561428 609900 513463
0110100110000100: 609157 561428 609900 457098
0110100110000100: 609157 561428 609900 567679
0110100110000100: 609157 561428 609900 470074
0110100110000100: 609157 561428 609900 465627
0111100110001100: 609157 561428 609900 595598
0111100110001100: 609157 561428 609900 595598
0111100110001100: 609157 561428 609900 595598
0111100010001000: 609157 561428 609900 559046
0111100010001000: 609157 561428 609900 559046
0110100010010010: 609157 561428 609900 568289
0110100010010010: 609157 561428 609900 517839
0110100010010010: 609157 561428 609900 568289
0110100010010010: 609157 561428 609900 517839
0111101011001000: 609157 561428 595598 559046
0111101011001000: 609157 561428 595598 609900
0111101011001000: 609157 561428 595598 559046
0111101011001000: 609157 561428 595598 609900
0111101011001000: 609157 561428 595598 559046
0111101011001000: 609157 561428 595598 609900
0110100110000100: 568289 567679 609900 561428
0110100110000100: 568289 567679 609900 465627
0110100010010010: 568289 567679 609900 609157
0110100010010010: 568289 567679 609900 517839
0110100110000100: 568289 567679 609900 561428
0110100110000100: 568289 567679 609900 465627
0110100110000100: 568289 567679 609900 561428
0110100110000100: 568289 567679 609900 465627
0110100110000100: 568289 567679 609900 561428
0110100110000100: 568289 567679 609900 465627
0110100110000100: 568289 567679 609900 561428
0110100110000100: 568289 567679 609900 465627
0110100110000100: 568289 567679 609900 561428
0110100110000100: 568289 567679 609900 465627
0110100010010010: 568289 609900 567679 561428
0110100010010010: 568289 609900 567679 465627
0110100110000100: 568289 609900 567679 609157
0110100110000100: 568289 609900 567679 517839
0110100110000100: 568289 609900 567679 609157
0110100110000100: 568289 609900 567679 517839
0110100110000100: 568289 609900 567679 609157
0110100110000100: 568289 609900 567679 517839
0110100110000100: 568289 609900 567679 609157
0110100110000100: 568289 609900 567679 517839
0101101001001000: 567679 568289 609900 561428
0101101001001000: 567679 568289 609900 465627
0111101011001000: 567679 561428 465627 568289
0111101011001000: 567679 465627 561428 568289
0110100010010010: 567679 568289 561428 513463
0110100010010010: 567679 568289 561428 457098
0110100010010010: 567679 568289 561428 609157
0110100010010010: 567679 568289 561428 470074
0110100010010010: 567679 568289 561428 595598
0111100010011010: 567679 568289 561428 465627
0110100010010010: 567679 568289 465627 457098
0110100010010010: 567679 568289 465627 517839
0111100010011010: 567679 568289 465627 561428
0110100110000100: 567679 568289 561428 609900
0110100110000100: 567679 568289 561428 609900
0110100110000100: 567679 568289 465627 609900
0110100110000100: 567679 568289 465627 609900
0101101001001000: 567679 568289 609900 561428
0101101001001000: 567679 568289 609900 465627
0100101001010010: 567679 568289 609900 609157
0100101001010010: 567679 568289 609900 517839
0100101001010010: 567679 568289 609900 609157
0100101001010010: 567679 568289 609900 517839
0101101001001000: 567679 568289 609900 561428
0101101001001000: 567679 568289 609900 465627
0110100010010010: 567679 561428 568289 609900
0110100010010010: 567679 561428 568289 609900
0110100110000100: 567679 561428 568289 513463
0110100110000100: 567679 561428 568289 457098
0110100110000100: 567679 561428 568289 609157
0110100110000100: 567679 561428 568289 470074
0110100110000100: 567679 561428 568289 595598
0111100110001100: 567679 561428 568289 465627
0110100010010010: 567679 561428 568289 609900
0111101011001000: 567679 561428 465627 568289
0111101011001000: 567679 561428 465627 568289
0111101011001000: 567679 561428 465627 568289
0110100010010010: 567679 561428 568289 609900
0111101011001000: 567679 561428 465627 568289
0111101011001000: 567679 561428 465627 568289
0110101111000100: 567679 561428 465627 513463
0110101111000100: 567679 561428 465627 609157
0110101111000100: 567679 561428 465627 470074
0110101111000100: 567679 561428 465627 595598
0110101111000100: 567679 561428 465627 513463
0110101111000100: 567679 561428 465627 609157
0110101111000100: 567679 561428 465627 470074
0110101111000100: 567679 561428 465627 595598
0111101011001000: 567679 561428 465627 568289
0110101111010110: 567679 561428 465627 457098
0110101011010010: 567679 561428 465627 517839
0110101111010110: 567679 561428 465627 457098
0110101111010110: 567679 561428 465627 457098
0111101011001000: 567679 561428 465627 568289
0110100110000100: 567679 561428 568289 513463
0110100110000100: 567679 561428 568289 457098
0110100110000100: 567679 561428 568289 609157
0110100110000100: 567679 561428 568289 470074
0110100110000100: 567679 561428 568289 595598
0110100110000100: 567679 561428 568289 513463
0110100110000100: 567679 561428 568289 457098
0110100110000100: 567679 561428 568289 609157
0110100110000100: 567679 561428 568289 470074
0110100110000100: 567679 561428 568289 595598
0111100110001100: 567679 561428 568289 465627
0111100110001100: 567679 561428 568289 465627
0111100110001100: 567679 561428 568289 465627
0110100010010010: 567679 561428 568289 609900
0110100010010010: 567679 561428 568289 609900
0111101011001000: 567679 561428 465627 568289
0110100010010010: 567679 465627 568289 609900
0110100010010010: 567679 465627 568289 609900
0110100110000100: 567679 465627 568289 457098
0110100110000100: 567679 465627 568289 517839
0111100110001100: 567679 465627 568289 561428
0110100010010010: 567679 465627 568289 609900
0111101011001000: 567679 465627 561428 568289
0111101011001000: 567679 465627 561428 568289
0111101011001000: 567679 465627 561428 568289
0110100010010010: 567679 465627 568289 609900
0111101011001000: 567679 465627 561428 568289
0111101011001000: 567679 465627 561428 568289
0110101111000100: 567679 465627 561428 517839
0110101111000100: 567679 465627 561428 517839
0111101011001000: 567679 465627 561428 568289
0110101111010110: 567679 465627 561428 457098
0110101111010110: 567679 465627 561428 457098
0110101111000100: 567679 465627 561428 517839
0110101111010110: 567679 465627 561428 457098
0111101011001000: 567679 465627 561428 568289
0110100110000100: 567679 465627 568289 457098
0110100110000100: 567679 465627 568289 517839
0110100110000100: 567679 465627 568289 457098
0110100110000100: 567679 465627 568289 517839
0111100110001100: 567679 465627 568289 561428
0111100110001100: 567679 465627 568289 561428
0111100110001100: 567679 465627 568289 561428
0110100010010010: 567679 465627 568289 609900
0110100010010010: 567679 465627 568289 609900
0111101011001000: 567679 465627 561428 568289
0111101011001000: 567679 465627 561428 568289
0111101011001000: 567679 465627 561428 568289
0111101011001000: 567679 465627 561428 568289
0110100110000100: 572578 518991 470074 469603
0110100010010010: 572578 518991 470074 517839
0110100010010010: 572578 518991 470074 561428
0110100110000100: 572578 518991 470074 469603
0110100110000100: 572578 518991 470074 469603
0110100110000100: 572578 518991 470074 469603
0110100110000100: 572578 518991 470074 469603
0110100110000100: 572578 518991 470074 469603
0110100010010010: 572578 470074 518991 469603
0110100110000100: 572578 470074 518991 517839
0110100110000100: 572578 470074 518991 561428
0110100010010010: 572578 470074 518991 469603
0110100110000100: 572578 470074 518991 517839
0110100110000100: 572578 470074 518991 561428
0110100110000100: 572578 470074 518991 517839
0110100110000100: 572578 470074 518991 561428
0110100010010010: 572578 470074 518991 469603
0110101111000100: 457098 561428 465627 513463
0110101111000100: 457098 561428 465627 609157
0110101111000100: 457098 561428 465627 470074
0110101111000100: 457098 561428 465627 595598
0110101111000100: 457098 561428 465627 513463
0110101111000100: 457098 561428 465627 609157
0110101111000100: 457098 561428 465627 470074
0110101111000100: 457098 561428 465627 595598
0110101111010110: 457098 561428 465627 567679
0110101011010010: 457098 561428 465627 517839
0110101111010110: 457098 561428 465627 567679
0110101111000100: 457098 465627 561428 517839
0110101111000100: 457098 465627 561428 517839
0110101111010110: 457098 465627 561428 567679
0110101111010110: 457098 465627 561428 567679
0110101111000100: 457098 465627 561428 517839
0110100110000100: 518991 469603 572578 507373
0110100010010010: 518991 469603 572578 470074
0110100110000100: 518991 469603 572578 507373
0110100110000100: 518991 469603 572578 507373
0110100110000100: 518991 469603 572578 507373
0110100110000100: 518991 469603 572578 507373
0110100110000100: 518991 469603 572578 507373
0110100010010010: 518991 572578 469603 507373
0110100110000100: 518991 572578 469603 470074
0110100110000100: 518991 572578 469603 470074
0110100110000100: 518991 572578 469603 470074
0110100110000100: 518991 572578 469603 470074
0110100010010010: 469603 518991 507373 595598
0110100110000100: 469603 518991 507373 572578
0110100110000100: 469603 518991 507373 572578
0110100110000100: 469603 518991 507373 572578
0110100110000100: 469603 518991 507373 572578
0110100010010010: 469603 507373 518991 572578
0110100110000100: 469603 507373 518991 595598
0110100110000100: 469603 507373 518991 595598
0110100110000100: 469603 507373 518991 595598
0110100110000100: 469603 507373 518991 595598
