Vertex,0111110000100001000010000,0110010011100100110001000,0111110110110001100010000,0110010010100010100100110,0110010011100000100001000,0111010100110001000100010,0111110100110001000110010,0111010110110011100000100,0110010010100010100000100,0111110110110011100010100,0111010101110001000101010,0111110100110001000010000,0111010101110001000001000
618482,0.0,6.0,0.0,0.0,29.0,5.0,0.0,1.0,21.0,0.0,1.0,1.0,4.0
502647,7.0,8.0,3.0,0.0,47.0,7.0,0.0,0.0,40.0,0.0,1.0,10.0,6.0
543143,5.0,7.0,5.0,2.0,39.0,9.0,1.0,3.0,30.0,1.0,1.0,10.0,15.0
573171,8.0,10.0,10.0,1.0,65.0,22.0,1.0,6.0,46.0,2.0,2.0,17.0,26.0
603812,0.0,4.0,0.0,0.0,24.0,4.0,0.0,0.0,36.0,0.0,0.0,0.0,0.0
527152,0.0,1.0,0.0,2.0,19.0,5.0,0.0,1.0,19.0,0.0,0.0,1.0,5.0
647473,2.0,1.0,7.0,1.0,29.0,12.0,1.0,4.0,35.0,2.0,1.0,11.0,21.0
476502,7.0,5.0,3.0,0.0,31.0,3.0,0.0,0.0,12.0,0.0,1.0,10.0,6.0
545539,0.0,0.0,1.0,2.0,13.0,3.0,0.0,2.0,21.0,0.0,0.0,0.0,7.0
577475,2.0,1.0,6.0,0.0,20.0,11.0,1.0,3.0,14.0,2.0,1.0,10.0,9.0
510652,5.0,5.0,4.0,0.0,24.0,7.0,1.0,2.0,17.0,1.0,1.0,9.0,8.0
467869,4.0,2.0,10.0,2.0,32.0,12.0,0.0,6.0,27.0,2.0,0.0,6.0,10.0
512717,0.0,1.0,1.0,0.0,17.0,3.0,0.0,1.0,29.0,0.0,0.0,0.0,10.0
586941,0.0,3.0,0.0,0.0,10.0,2.0,0.0,0.0,33.0,0.0,0.0,0.0,0.0
648005,0.0,3.0,0.0,0.0,5.0,0.0,0.0,0.0,17.0,0.0,0.0,0.0,0.0
459417,0.0,3.0,0.0,0.0,6.0,0.0,0.0,0.0,14.0,0.0,0.0,0.0,0.0
598970,0.0,1.0,0.0,0.0,3.0,0.0,0.0,0.0,9.0,0.0,0.0,0.0,0.0
653565,0.0,0.0,0.0,0.0,1.0,0.0,0.0,0.0,6.0,0.0,0.0,0.0,0.0
523683,0.0,0.0,0.0,0.0,0.0,0.0,0.0,0.0,3.0,0.0,0.0,0.0,0.0
475591,0.0,0.0,0.0,0.0,0.0,0.0,0.0,0.0,1.0,0.0,0.0,0.0,0.0
461246,0.0,4.0,0.0,0.0,11.0,5.0,0.0,1.0,15.0,0.0,1.0,0.0,3.0
graph,8.0,13.0,10.0,2.0,85.0,22.0,1.0,6.0,89.0,2.0,2.0,17.0,26.0
