Vertex,0110101111000100,0111101111011110,0111101011001000,0111100110011110,0101101101001100,0101101101011110,0110100010010010,0110101011010010,0110100110010110,0111101111001100,0101101001001000,0100101001010010,0101101001011010,0111101011011010,0111100010001000,0111100010011010,0100101101010110,0110101111010110,0110100110000100,0111100110001100,0100101101000100
653010,207.0,155.0,459.0,0.0,30.0,0.0,274.0,135.0,35.0,90.0,133.0,55.0,6.0,60.0,543.0,96.0,0.0,50.0,552.0,129.0,0.0
501997,437.0,155.0,917.0,9.0,82.0,11.0,660.0,307.0,488.0,216.0,341.0,189.0,187.0,174.0,1024.0,181.0,4.0,169.0,1211.0,281.0,62.0
630536,328.0,155.0,703.0,8.0,56.0,12.0,497.0,230.0,385.0,270.0,241.0,139.0,157.0,216.0,766.0,126.0,0.0,206.0,873.0,202.0,54.0
610348,48.0,0.0,84.0,0.0,16.0,0.0,333.0,48.0,35.0,0.0,125.0,123.0,6.0,0.0,172.0,32.0,0.0,0.0,561.0,40.0,12.0
570191,855.0,155.0,1811.0,15.0,150.0,22.0,828.0,603.0,383.0,450.0,446.0,167.0,147.0,363.0,1597.0,341.0,6.0,348.0,1590.0,531.0,32.0
496244,114.0,0.0,259.0,1.0,12.0,2.0,341.0,72.0,173.0,36.0,156.0,114.0,58.0,29.0,654.0,59.0,2.0,27.0,622.0,68.0,20.0
462292,24.0,0.0,41.0,0.0,8.0,0.0,215.0,24.0,35.0,0.0,85.0,91.0,15.0,0.0,147.0,4.0,0.0,0.0,332.0,16.0,14.0
575014,37.0,0.0,70.0,0.0,10.0,0.0,167.0,29.0,0.0,0.0,81.0,58.0,0.0,0.0,231.0,10.0,0.0,0.0,324.0,25.0,14.0
574065,116.0,0.0,262.0,0.0,12.0,0.0,199.0,70.0,171.0,54.0,115.0,55.0,63.0,36.0,612.0,55.0,2.0,30.0,409.0,68.0,6.0
614072,48.0,0.0,95.0,0.0,12.0,0.0,222.0,36.0,105.0,0.0,120.0,47.0,35.0,0.0,221.0,21.0,0.0,0.0,439.0,34.0,8.0
603524,187.0,0.0,377.0,4.0,42.0,6.0,420.0,137.0,313.0,36.0,197.0,129.0,107.0,34.0,578.0,101.0,6.0,34.0,776.0,129.0,40.0
577802,36.0,0.0,75.0,0.0,8.0,0.0,166.0,24.0,0.0,0.0,85.0,56.0,0.0,0.0,221.0,12.0,0.0,0.0,307.0,24.0,8.0
553092,67.0,0.0,130.0,0.0,18.0,0.0,254.0,53.0,243.0,0.0,146.0,81.0,98.0,0.0,431.0,18.0,0.0,0.0,497.0,45.0,32.0
581357,387.0,0.0,802.0,11.0,74.0,15.0,672.0,279.0,173.0,198.0,347.0,198.0,67.0,172.0,936.0,171.0,6.0,173.0,1231.0,247.0,62.0
636765,227.0,0.0,482.0,6.0,38.0,9.0,484.0,157.0,210.0,162.0,256.0,141.0,86.0,135.0,725.0,87.0,0.0,132.0,886.0,139.0,48.0
646853,241.0,0.0,512.0,5.0,42.0,7.0,477.0,173.0,278.0,144.0,243.0,172.0,110.0,118.0,694.0,107.0,6.0,115.0,850.0,152.0,48.0
504853,90.0,0.0,161.0,0.0,28.0,0.0,439.0,78.0,451.0,0.0,202.0,178.0,164.0,0.0,486.0,49.0,4.0,0.0,781.0,69.0,44.0
620625,86.0,0.0,199.0,1.0,8.0,1.0,208.0,52.0,35.0,72.0,118.0,34.0,16.0,52.0,469.0,36.0,0.0,47.0,408.0,48.0,6.0
542204,102.0,0.0,236.0,2.0,8.0,4.0,198.0,60.0,70.0,36.0,108.0,34.0,20.0,34.0,476.0,51.0,0.0,34.0,391.0,58.0,14.0
648611,52.0,0.0,130.0,0.0,0.0,0.0,121.0,26.0,0.0,0.0,68.0,12.0,0.0,0.0,424.0,26.0,0.0,0.0,258.0,26.0,0.0
475748,52.0,0.0,130.0,0.0,0.0,0.0,128.0,26.0,70.0,0.0,74.0,27.0,24.0,0.0,448.0,26.0,0.0,0.0,268.0,26.0,2.0
461858,193.0,0.0,419.0,4.0,30.0,5.0,400.0,131.0,103.0,90.0,205.0,120.0,43.0,77.0,622.0,70.0,0.0,78.0,694.0,115.0,32.0
530963,43.0,0.0,73.0,0.0,14.0,0.0,236.0,41.0,35.0,0.0,102.0,91.0,10.0,0.0,131.0,16.0,0.0,0.0,374.0,31.0,16.0
621208,0.0,0.0,0.0,0.0,0.0,0.0,88.0,0.0,0.0,0.0,38.0,14.0,0.0,0.0,0.0,0.0,0.0,0.0,153.0,0.0,0.0
599033,26.0,0.0,49.0,0.0,8.0,0.0,143.0,22.0,35.0,0.0,72.0,46.0,15.0,0.0,108.0,6.0,0.0,0.0,235.0,18.0,12.0
530622,37.0,0.0,70.0,0.0,10.0,0.0,119.0,29.0,0.0,0.0,66.0,22.0,0.0,0.0,177.0,10.0,0.0,0.0,251.0,25.0,14.0
583310,72.0,0.0,143.0,2.0,16.0,2.0,218.0,54.0,35.0,18.0,97.0,60.0,10.0,16.0,234.0,51.0,4.0,17.0,398.0,50.0,22.0
468115,36.0,0.0,63.0,0.0,12.0,0.0,161.0,36.0,35.0,0.0,81.0,35.0,16.0,0.0,69.0,6.0,0.0,0.0,281.0,24.0,10.0
graph,1037.0,155.0,2188.0,17.0,186.0,24.0,2167.0,733.0,974.0,468.0,1087.0,622.0,365.0,379.0,3299.0,442.0,10.0,365.0,3988.0,655.0,158.0
