Vertex,0110010011100100110001000,0111110000100001000010000,0110010010100010100000100,0110010011100000100001000,0110010010100010100100110
477560,4.0,0.0,9.0,8.0,0.0
520232,4.0,1.0,16.0,13.0,0.0
470232,4.0,1.0,12.0,13.0,1.0
650116,4.0,1.0,21.0,20.0,1.0
488142,1.0,0.0,10.0,6.0,0.0
637291,1.0,0.0,9.0,6.0,1.0
457390,1.0,1.0,9.0,13.0,1.0
597785,1.0,1.0,13.0,13.0,0.0
550026,0.0,0.0,10.0,4.0,1.0
508881,0.0,0.0,10.0,3.0,0.0
650786,0.0,0.0,5.0,0.0,0.0
477242,0.0,0.0,2.0,0.0,0.0
462029,0.0,0.0,6.0,1.0,0.0
457411,0.0,0.0,2.0,0.0,0.0
554919,0.0,0.0,1.0,0.0,0.0
graph,4.0,1.0,27.0,20.0,1.0
