Vertex,0111110100110001000110010,0111010101110001000001000,0111010110110011100000100,0111110000100001000010000,0111110110110001100010000,0111110111110001100011000,0111110100110001000010000,0110010011100000100001000,0110010011100100110001000,0111010100110001000100010,0111010101110001000101010,0110010010100010100000100,0110010010100010100100110
624161,3.0,43.0,6.0,9.0,12.0,1.0,15.0,74.0,4.0,23.0,2.0,47.0,3.0
537700,1.0,11.0,4.0,8.0,8.0,1.0,5.0,40.0,1.0,7.0,0.0,24.0,1.0
457203,3.0,24.0,6.0,1.0,12.0,1.0,7.0,19.0,0.0,17.0,1.0,25.0,0.0
465530,3.0,28.0,0.0,4.0,3.0,0.0,12.0,35.0,4.0,12.0,2.0,31.0,1.0
525802,0.0,4.0,2.0,0.0,0.0,0.0,0.0,14.0,0.0,3.0,0.0,25.0,1.0
548851,3.0,29.0,0.0,4.0,3.0,0.0,12.0,43.0,0.0,13.0,1.0,34.0,2.0
595449,0.0,10.0,0.0,7.0,3.0,0.0,10.0,41.0,1.0,4.0,0.0,18.0,1.0
541764,0.0,7.0,0.0,0.0,0.0,0.0,1.0,17.0,1.0,4.0,0.0,20.0,1.0
621844,0.0,9.0,2.0,0.0,0.0,0.0,1.0,23.0,4.0,2.0,2.0,22.0,0.0
518066,1.0,11.0,4.0,8.0,8.0,1.0,5.0,40.0,1.0,7.0,0.0,24.0,1.0
508398,1.0,9.0,4.0,8.0,8.0,1.0,5.0,36.0,4.0,4.0,2.0,23.0,0.0
537592,0.0,7.0,0.0,0.0,0.0,0.0,1.0,19.0,0.0,5.0,0.0,24.0,1.0
613499,0.0,7.0,0.0,0.0,0.0,0.0,1.0,19.0,0.0,5.0,0.0,24.0,1.0
599825,0.0,4.0,2.0,0.0,0.0,0.0,0.0,14.0,0.0,3.0,0.0,25.0,1.0
629667,0.0,0.0,0.0,0.0,0.0,0.0,0.0,13.0,0.0,5.0,0.0,21.0,1.0
559213,0.0,12.0,0.0,1.0,3.0,0.0,0.0,8.0,0.0,1.0,0.0,8.0,0.0
graph,3.0,43.0,6.0,10.0,12.0,1.0,15.0,91.0,4.0,23.0,2.0,79.0,3.0
