0110010010100010100000100: 627199 509243 603434 533374 557439
0110010011100000100001000: 627199 509243 603434 551023 533374
0110010010100010100100110: 627199 509243 603434 551023 557439
0110010011100100110001000: 627199 509243 595429 551023 533374
0110010010100010100000100: 627199 595429 603434 603784 557439
0110010011100000100001000: 627199 595429 603434 613615 603784
0110010010100010100000100: 627199 595429 603434 613615 557439
0110010011100000100001000: 627199 595429 603434 551023 603784
0110010011100000100001000: 627199 595429 603434 551023 613615
0110010010100010100100110: 627199 595429 603434 551023 557439
0110010010100010100000100: 627199 595429 509243 603784 533374
0110010011100000100001000: 627199 595429 509243 613615 603784
0110010010100010100000100: 627199 595429 509243 613615 533374
0110010011100100110001000: 627199 595429 509243 551023 603784
0110010011100100110001000: 627199 595429 509243 551023 613615
0110010010100010100000100: 595429 613615 603784 547869 556778
0110010011100000100001000: 595429 613615 603784 547177 547869
0110010010100010100000100: 595429 613615 603784 547177 556778
0110010011100100110001000: 595429 613615 551023 547177 547869
0110010011100000100001000: 595429 613615 627199 547177 547869
0110010011100000100001000: 595429 551023 603784 547177 557439
0110010011100000100001000: 595429 551023 603784 509243 557439
0110010011100000100001000: 595429 551023 603784 509243 547177
0110010011100100110001000: 595429 551023 603784 556778 557439
0110010011100100110001000: 595429 551023 603784 556778 547177
0110010011100100110001000: 595429 551023 603784 556778 509243
0110010010100010100000100: 595429 551023 613615 556778 547869
0110010011100000100001000: 595429 551023 613615 557439 556778
0110010010100010100000100: 595429 551023 613615 557439 547869
0110010011100000100001000: 595429 551023 613615 509243 556778
0110010011100000100001000: 595429 551023 613615 509243 557439
0110010010100010100000100: 595429 551023 613615 509243 547869
0110010011100100110001000: 595429 551023 613615 547177 556778
0110010011100100110001000: 595429 551023 613615 547177 557439
0110010011100100110001000: 595429 551023 613615 547177 509243
0110010011100000100001000: 595429 551023 627199 557439 556778
0110010011100000100001000: 595429 551023 627199 547177 556778
0110010011100000100001000: 595429 551023 627199 547177 557439
0110010011100100110001000: 595429 551023 627199 509243 556778
0110010011100100110001000: 595429 551023 627199 509243 557439
0110010011100100110001000: 595429 551023 627199 509243 547177
0110010010100010100000100: 595429 627199 603784 603434 556778
0110010011100000100001000: 595429 627199 603784 509243 603434
0110010010100010100000100: 595429 627199 603784 509243 556778
0110010010100010100000100: 595429 627199 613615 603434 547869
0110010010100010100000100: 595429 627199 613615 603434 547177
0110010011100000100001000: 595429 627199 613615 509243 603434
0110010010100010100000100: 595429 627199 613615 509243 547869
0110010010100010100000100: 595429 627199 613615 509243 547177
0111110000100001000010000: 595429 627199 551023 613615 603784
0110010010100010100000100: 595429 627199 551023 603434 556778
0110010010100010100000100: 595429 627199 551023 603434 547177
0110010011100100110001000: 595429 627199 551023 509243 603434
0110010011100000100001000: 631435 556778 562469 551023 603784
0110010010100010100000100: 631435 562469 556778 547177 603784
0110010010100010100100110: 631435 562469 556778 547177 551023
0110010011100000100001000: 562469 547177 631435 551023 613615
0110010010100010100000100: 562469 631435 547177 556778 613615
0110010011100000100001000: 551023 556778 557439 631435 603784
0110010011100000100001000: 551023 556778 547177 631435 603784
0110010011100000100001000: 551023 556778 509243 631435 603784
0110010011100100110001000: 551023 556778 595429 603784 631435
0110010010100010100000100: 551023 557439 556778 603434 603784
0110010010100010100000100: 551023 557439 556778 603434 631435
0110010010100010100000100: 551023 547177 556778 613615 603784
0110010010100010100000100: 551023 547177 556778 613615 631435
0110010011100000100001000: 551023 547177 556778 562469 613615
0110010010100010100000100: 551023 547177 556778 562469 603784
0110010010100010100000100: 551023 547177 557439 613615 603434
0110010011100000100001000: 551023 547177 557439 562469 613615
0110010010100010100000100: 551023 547177 557439 562469 603434
0110010011100000100001000: 551023 547177 509243 562469 613615
0110010011100100110001000: 551023 547177 595429 613615 562469
0110010010100010100000100: 551023 509243 556778 533374 603784
0110010010100010100000100: 551023 509243 556778 533374 631435
0110010011100000100001000: 551023 509243 556778 627199 533374
0110010010100010100000100: 551023 509243 556778 627199 603784
0110010010100010100000100: 551023 509243 556778 627199 631435
0110010010100010100000100: 551023 509243 557439 533374 603434
0110010011100000100001000: 551023 509243 557439 627199 533374
0111110000100001000010000: 551023 509243 547177 557439 556778
0110010010100010100000100: 551023 509243 547177 533374 613615
0110010010100010100000100: 551023 509243 547177 533374 562469
0110010011100000100001000: 551023 509243 547177 627199 533374
0110010010100010100000100: 551023 509243 547177 627199 613615
0110010010100010100000100: 551023 509243 547177 627199 562469
0110010010100010100000100: 551023 595429 556778 613615 631435
0110010011100000100001000: 551023 595429 556778 627199 613615
0110010010100010100000100: 551023 595429 556778 627199 631435
0110010011100100110001000: 551023 595429 556778 603784 613615
0110010011100100110001000: 551023 595429 556778 603784 627199
0110010010100010100000100: 551023 595429 557439 603784 603434
0110010011100000100001000: 551023 595429 557439 613615 603784
0110010010100010100000100: 551023 595429 557439 613615 603434
0110010011100000100001000: 551023 595429 557439 627199 603784
0110010011100000100001000: 551023 595429 557439 627199 613615
0111110000100001000010000: 551023 595429 547177 557439 556778
0110010010100010100000100: 551023 595429 547177 603784 562469
0110010011100000100001000: 551023 595429 547177 627199 603784
0110010010100010100000100: 551023 595429 547177 627199 562469
0110010011100100110001000: 551023 595429 547177 613615 603784
0110010011100100110001000: 551023 595429 547177 613615 627199
0111110000100001000010000: 551023 595429 509243 557439 556778
0111110000100001000010000: 551023 595429 509243 547177 556778
0111110000100001000010000: 551023 595429 509243 547177 557439
0110010010100010100000100: 551023 595429 509243 603784 533374
0110010011100000100001000: 551023 595429 509243 613615 603784
0110010010100010100000100: 551023 595429 509243 613615 533374
0110010010100010100000100: 613615 547177 547869 551023 509037
0110010011100000100001000: 613615 547177 547869 562469 551023
0110010010100010100000100: 613615 547177 547869 562469 509037
0110010010100010100000100: 613615 595429 547869 603784 509037
0110010011100000100001000: 613615 595429 547869 551023 603784
0110010010100010100000100: 613615 595429 547869 551023 509037
0110010011100000100001000: 613615 595429 547869 627199 603784
0110010011100000100001000: 613615 595429 547869 627199 551023
0110010010100010100000100: 613615 595429 547869 627199 509037
0110010010100010100000100: 613615 595429 547177 603784 562469
0110010011100000100001000: 613615 595429 547177 627199 603784
0110010010100010100000100: 613615 595429 547177 627199 562469
0110010010100010100000100: 523252 533374 509037 509243 547869
0110010011100000100001000: 533374 509243 523252 627199 551023
0110010010100010100000100: 533374 523252 509243 509037 551023
0110010010100010100000100: 533374 523252 509243 509037 627199
0110010010100010100000100: 509243 551023 533374 556778 523252
0110010011100000100001000: 509243 551023 533374 557439 556778
0110010010100010100000100: 509243 551023 533374 557439 523252
0110010011100000100001000: 509243 551023 533374 547177 556778
0110010011100000100001000: 509243 551023 533374 547177 557439
0110010010100010100000100: 509243 551023 533374 547177 523252
0110010011100000100001000: 509243 551023 533374 595429 556778
0110010011100000100001000: 509243 551023 533374 595429 557439
0110010011100000100001000: 509243 551023 533374 595429 547177
0110010010100010100000100: 509243 551023 533374 595429 523252
0110010011100000100001000: 509243 551023 627199 557439 556778
0110010011100000100001000: 509243 551023 627199 547177 556778
0110010011100000100001000: 509243 551023 627199 547177 557439
0110010010100010100000100: 509243 627199 533374 603434 523252
0110010011100000100001000: 509243 627199 533374 595429 603434
0110010010100010100000100: 509243 627199 533374 595429 523252
0110010010100010100000100: 509243 627199 551023 603434 556778
0110010010100010100000100: 509243 627199 551023 603434 547177
0110010011100000100001000: 547177 613615 562469 595429 547869
0110010010100010100000100: 547177 551023 613615 556778 547869
0110010011100000100001000: 547177 551023 613615 557439 556778
0110010010100010100000100: 547177 551023 613615 557439 547869
0110010011100000100001000: 547177 551023 613615 509243 556778
0110010011100000100001000: 547177 551023 613615 509243 557439
0110010010100010100000100: 547177 551023 613615 509243 547869
0110010011100000100001000: 547177 551023 562469 557439 556778
0110010011100000100001000: 547177 551023 562469 509243 556778
0110010011100000100001000: 547177 551023 562469 509243 557439
0110010011100000100001000: 547177 551023 562469 595429 556778
0110010011100000100001000: 547177 551023 562469 595429 557439
0110010011100000100001000: 547177 551023 562469 595429 509243
0110010010100010100000100: 547177 562469 613615 631435 547869
0110010010100010100000100: 547177 562469 613615 631435 595429
0110010010100010100000100: 547177 562469 551023 631435 557439
0110010010100010100000100: 547177 562469 551023 631435 509243
0110010010100010100000100: 547177 562469 551023 631435 595429
0110010010100010100000100: 547869 613615 509037 547177 523252
0110010011100000100001000: 547869 613615 509037 595429 547177
0110010010100010100000100: 547869 613615 509037 595429 523252
0110010010100010100000100: 509037 523252 547869 533374 613615
0110010011100000100001000: 603434 627199 557439 595429 509243
0110010010100010100000100: 557439 551023 603434 556778 627199
0110010011100000100001000: 557439 551023 603434 547177 556778
0110010010100010100000100: 557439 551023 603434 547177 627199
0110010011100000100001000: 557439 551023 603434 509243 556778
0110010011100000100001000: 557439 551023 603434 509243 547177
0110010011100000100001000: 557439 551023 603434 595429 556778
0110010011100000100001000: 557439 551023 603434 595429 547177
0110010011100000100001000: 557439 551023 603434 595429 509243
0110010010100010100000100: 603784 595429 556778 613615 631435
0110010011100000100001000: 603784 595429 556778 627199 613615
0110010010100010100000100: 603784 595429 556778 627199 631435
0110010011100000100001000: 556778 551023 603784 547177 557439
0110010011100000100001000: 556778 551023 603784 509243 557439
0110010011100000100001000: 556778 551023 603784 509243 547177
0110010011100000100001000: 556778 551023 631435 547177 557439
0110010011100000100001000: 556778 551023 631435 509243 557439
0110010011100000100001000: 556778 551023 631435 509243 547177
0110010011100000100001000: 556778 551023 631435 595429 557439
0110010011100000100001000: 556778 551023 631435 595429 547177
0110010011100000100001000: 556778 551023 631435 595429 509243
0110010010100010100000100: 556778 631435 603784 562469 595429
0110010010100010100000100: 556778 631435 551023 562469 557439
0110010010100010100000100: 556778 631435 551023 562469 509243
0110010010100010100000100: 556778 631435 551023 562469 595429
