Vertex,0111010101110001000001000,0110010011100000100001000,0111110100110001000010000,0110010010100010100000100,0111010100110001000100010
599745,5.0,2.0,1.0,9.0,3.0
532040,5.0,4.0,1.0,11.0,3.0
657018,3.0,1.0,0.0,9.0,1.0
497280,2.0,4.0,1.0,3.0,0.0
475649,0.0,0.0,0.0,8.0,1.0
540604,2.0,4.0,1.0,9.0,1.0
469116,5.0,2.0,1.0,7.0,3.0
490185,3.0,1.0,0.0,5.0,1.0
484779,0.0,0.0,0.0,3.0,1.0
602461,0.0,2.0,0.0,8.0,1.0
628737,0.0,0.0,0.0,7.0,0.0
476653,0.0,0.0,0.0,6.0,0.0
graph,5.0,4.0,1.0,17.0,3.0
