0110010010100010100000100: 588753 518571 607898 601772 590449
0110010011100000100001000: 518571 601772 588753 648005 460895
0110010010100010100000100: 518571 588753 601772 607898 460895
0110010010100010100000100: 518571 588753 601772 607898 648005
0110010010100010100000100: 601772 648005 460895 634257 596327
0110010011100000100001000: 601772 648005 460895 644750 634257
0110010010100010100000100: 601772 648005 460895 644750 596327
0110010011100000100001000: 601772 648005 460895 609500 634257
0110010011100000100001000: 601772 648005 460895 609500 644750
0110010010100010100000100: 601772 648005 460895 609500 596327
0110010011100000100001000: 601772 648005 460895 488538 634257
0110010011100000100001000: 601772 648005 460895 488538 644750
0110010010100010100000100: 601772 648005 460895 488538 596327
0110010011100000100001000: 601772 648005 518571 644750 634257
0110010011100000100001000: 601772 648005 518571 609500 634257
0110010011100000100001000: 601772 648005 518571 609500 644750
0110010011100000100001000: 601772 648005 518571 488538 634257
0110010011100000100001000: 601772 648005 518571 488538 644750
0110010010100010100000100: 601772 518571 460895 588753 596327
0110010010100010100000100: 601772 518571 648005 588753 634257
0110010010100010100000100: 601772 518571 648005 588753 644750
0110010010100010100000100: 601772 518571 648005 588753 609500
0110010010100010100000100: 601772 518571 648005 588753 488538
0110010011100000100001000: 526864 634257 599797 648005 574189
0110010010100010100000100: 526864 599797 634257 627402 574189
0110010010100010100000100: 526864 599797 634257 627402 648005
0110010010100010100000100: 599797 526864 627402 634257 590449
0110010011100000100001000: 648005 634257 644750 526864 574189
0110010011100000100001000: 648005 634257 609500 526864 574189
0110010011100000100001000: 648005 634257 488538 526864 574189
0110010011100000100001000: 648005 634257 601772 526864 574189
0110010010100010100000100: 648005 609500 634257 475935 526864
0110010010100010100100110: 648005 609500 634257 475935 574189
0111010101110001000001000: 648005 609500 488538 634257 475935
0111010101110001000001000: 648005 609500 488538 644750 475935
0111010101110001000001000: 648005 609500 488538 601772 475935
0111010100110001000100010: 648005 488538 609500 634257 574189
0111010100110001000100010: 648005 488538 609500 634257 526864
0111110100110001000010000: 648005 488538 609500 644750 634257
0111110100110001000010000: 648005 488538 609500 601772 634257
0111110100110001000010000: 648005 488538 609500 601772 644750
0111010100110001000100010: 648005 488538 609500 601772 460895
0111010100110001000100010: 648005 488538 609500 601772 518571
0110010010100010100000100: 648005 601772 634257 460895 574189
0110010010100010100000100: 648005 601772 634257 460895 526864
0110010011100000100001000: 648005 601772 634257 518571 460895
0110010010100010100000100: 648005 601772 634257 518571 574189
0110010010100010100000100: 648005 601772 634257 518571 526864
0110010011100000100001000: 648005 601772 644750 518571 460895
0111110000100001000010000: 648005 601772 609500 644750 634257
0110010010100010100000100: 648005 601772 609500 460895 475935
0110010011100000100001000: 648005 601772 609500 518571 460895
0110010010100010100000100: 648005 601772 609500 518571 475935
0111110000100001000010000: 648005 601772 488538 644750 634257
0110010011100000100001000: 648005 601772 488538 518571 460895
0110010011100000100001000: 609500 648005 475935 644750 634257
0110010010100010100000100: 609500 648005 475935 644750 574189
0110010011100000100001000: 609500 648005 475935 601772 634257
0110010011100000100001000: 609500 648005 475935 601772 644750
0110010010100010100000100: 609500 648005 475935 601772 574189
0111010100110001000100010: 609500 648005 488538 475935 574189
0110010011100000100001000: 460895 601772 596327 518571 648005
0110010011100000100001000: 574189 634257 475935 526864 648005
0110010010100010100000100: 574189 634257 475935 526864 609500
0110010010100010100000100: 634257 648005 574189 644750 475935
0110010011100000100001000: 634257 648005 574189 609500 644750
0110010011100000100001000: 634257 648005 574189 488538 644750
0110010010100010100000100: 634257 648005 574189 488538 475935
0110010011100000100001000: 634257 648005 574189 601772 644750
0110010011100000100001000: 634257 648005 574189 601772 609500
0110010011100000100001000: 634257 648005 574189 601772 488538
0110010010100010100000100: 634257 648005 574189 601772 475935
0110010011100000100001000: 634257 648005 526864 609500 644750
0110010011100000100001000: 634257 648005 526864 488538 644750
0110010011100000100001000: 634257 648005 526864 601772 644750
0110010011100000100001000: 634257 648005 526864 601772 609500
0110010011100000100001000: 634257 648005 526864 601772 488538
0110010010100010100000100: 634257 526864 574189 599797 475935
0110010010100010100000100: 634257 526864 648005 599797 644750
0110010010100010100000100: 634257 526864 648005 599797 609500
0110010010100010100000100: 634257 526864 648005 599797 488538
0110010010100010100000100: 634257 526864 648005 599797 601772
0110010010100010100000100: 475935 609500 574189 488538 634257
0110010010100010100000100: 627402 599797 590449 526864 607898
0110010010100010100000100: 590449 627402 607898 599797 588753
0110010010100010100000100: 607898 588753 590449 518571 627402
