0110100110000100: 647437 517190 617305 625692
0110100110000100: 647437 517190 617305 618615
0110100110000100: 647437 517190 617305 555506
0110100010010010: 647437 517190 617305 586696
0110100110000100: 647437 517190 617305 625692
0110100110000100: 647437 517190 617305 618615
0110100110000100: 647437 517190 617305 555506
0110100110000100: 647437 517190 617305 625692
0110100110000100: 647437 517190 617305 618615
0110100110000100: 647437 517190 617305 555506
0110100010010010: 647437 517190 617305 586696
0110100110000100: 647437 517190 617305 625692
0110100110000100: 647437 517190 617305 618615
0110100110000100: 647437 517190 617305 555506
0110100110000100: 647437 517190 617305 625692
0110100110000100: 647437 517190 617305 618615
0110100110000100: 647437 517190 617305 555506
0110100010010010: 647437 517190 617305 586696
0110100110000100: 647437 617305 517190 586696
0110100010010010: 647437 617305 517190 625692
0110100010010010: 647437 617305 517190 618615
0110100010010010: 647437 617305 517190 555506
0110100110000100: 647437 617305 517190 586696
0110100110000100: 647437 617305 517190 586696
0110100110000100: 647437 617305 517190 586696
0110100110000100: 647437 617305 517190 586696
0110100110000100: 647437 617305 517190 586696
0110100110000100: 617305 586696 647437 584331
0110100010010010: 617305 586696 647437 517190
0110100110000100: 617305 586696 647437 584331
0110100110000100: 617305 586696 647437 584331
0110100110000100: 617305 586696 647437 584331
0110100110000100: 617305 586696 647437 584331
0110100110000100: 617305 586696 647437 584331
0110100010010010: 617305 647437 586696 584331
0110100110000100: 617305 647437 586696 517190
0110100110000100: 617305 647437 586696 517190
0110100110000100: 617305 647437 586696 517190
0110100110000100: 617305 647437 586696 517190
0111100010001000: 517190 555506 618615 625692
0110100110010110: 517190 555506 618615 545303
0101101001001000: 517190 555506 615656 625692
0101101001001000: 517190 555506 615656 618615
0101101001001000: 517190 555506 615656 647437
0101101001001000: 517190 555506 545303 625692
0101101001001000: 517190 555506 545303 647437
0100101101000100: 517190 555506 545303 615656
0111100010001000: 517190 647437 618615 625692
0111100010001000: 517190 647437 555506 625692
0111100010001000: 517190 647437 555506 618615
0101101001001000: 517190 647437 617305 625692
0101101001001000: 517190 647437 617305 618615
0101101001001000: 517190 647437 617305 555506
0110100010010010: 517190 625692 618615 545303
0110100010010010: 517190 625692 618615 520062
0110100010010010: 517190 625692 618615 653349
0111100010001000: 517190 625692 555506 618615
0110100010010010: 517190 625692 555506 615656
0110100010010010: 517190 625692 555506 545303
0110100010010010: 517190 625692 555506 615656
0110100010010010: 517190 625692 555506 545303
0111100010001000: 517190 625692 647437 618615
0111100010001000: 517190 625692 647437 555506
0110100010010010: 517190 625692 647437 617305
0110100010010010: 517190 625692 647437 617305
0110100110000100: 517190 618615 625692 545303
0110100110000100: 517190 618615 625692 520062
0110100110000100: 517190 618615 625692 653349
0111100010001000: 517190 618615 555506 625692
0110100110000100: 517190 618615 555506 520062
0110100110000100: 517190 618615 555506 653349
0110100010010010: 517190 618615 555506 615656
0110100010010010: 517190 618615 555506 615656
0110100110010110: 517190 618615 555506 545303
0110100110010110: 517190 618615 555506 545303
0111100010001000: 517190 618615 647437 625692
0111100010001000: 517190 618615 647437 555506
0110100110000100: 517190 618615 647437 545303
0110100110000100: 517190 618615 647437 520062
0110100110000100: 517190 618615 647437 653349
0110100010010010: 517190 618615 647437 617305
0110100010010010: 517190 618615 647437 617305
0111100010001000: 517190 618615 625692 555506
0111100010001000: 517190 618615 625692 647437
0110100110000100: 517190 618615 625692 545303
0110100110000100: 517190 618615 625692 520062
0110100110000100: 517190 618615 625692 653349
0110100110000100: 517190 618615 625692 545303
0110100110000100: 517190 618615 625692 520062
0110100110000100: 517190 618615 625692 653349
0110100110000100: 517190 618615 555506 520062
0110100110000100: 517190 618615 555506 653349
0110100110000100: 517190 618615 555506 520062
0110100110000100: 517190 618615 555506 653349
0110100010010010: 517190 618615 555506 615656
0110100110010110: 517190 618615 555506 545303
0110100110000100: 517190 618615 647437 545303
0110100110000100: 517190 618615 647437 520062
0110100110000100: 517190 618615 647437 653349
0110100110000100: 517190 618615 647437 545303
0110100110000100: 517190 618615 647437 520062
0110100110000100: 517190 618615 647437 653349
0110100010010010: 517190 618615 647437 617305
0111100010001000: 517190 618615 625692 555506
0111100010001000: 517190 618615 625692 647437
0111100010001000: 517190 618615 625692 555506
0111100010001000: 517190 618615 625692 647437
0111100010001000: 517190 618615 555506 625692
0111100010001000: 517190 618615 555506 647437
0111100010001000: 517190 618615 555506 625692
0111100010001000: 517190 618615 555506 647437
0110100010010010: 517190 618615 555506 615656
0111100010001000: 517190 618615 647437 625692
0111100010001000: 517190 618615 647437 555506
0111100010001000: 517190 618615 647437 625692
0111100010001000: 517190 618615 647437 555506
0110100010010010: 517190 618615 647437 617305
0110100110000100: 517190 618615 625692 545303
0110100110000100: 517190 618615 625692 520062
0110100110000100: 517190 618615 625692 653349
0110100110000100: 517190 618615 625692 545303
0110100110000100: 517190 618615 625692 520062
0110100110000100: 517190 618615 625692 653349
0111100010001000: 517190 618615 625692 555506
0111100010001000: 517190 618615 625692 647437
0110100110000100: 517190 618615 555506 520062
0110100110000100: 517190 618615 555506 653349
0110100110000100: 517190 618615 555506 520062
0110100110000100: 517190 618615 555506 653349
0111100010001000: 517190 618615 555506 625692
0111100010001000: 517190 618615 555506 647437
0111100010001000: 517190 618615 555506 625692
0110100010010010: 517190 618615 555506 615656
0110100110010110: 517190 618615 555506 545303
0110100010010010: 517190 618615 555506 615656
0110100110010110: 517190 618615 555506 545303
0110100110000100: 517190 618615 647437 545303
0110100110000100: 517190 618615 647437 520062
0110100110000100: 517190 618615 647437 653349
0110100110000100: 517190 618615 647437 545303
0110100110000100: 517190 618615 647437 520062
0110100110000100: 517190 618615 647437 653349
0111100010001000: 517190 618615 647437 625692
0111100010001000: 517190 618615 647437 555506
0111100010001000: 517190 618615 647437 625692
0111100010001000: 517190 618615 647437 555506
0110100010010010: 517190 618615 647437 617305
0110100010010010: 517190 618615 647437 617305
0110100110000100: 517190 555506 625692 615656
0110100110000100: 517190 555506 625692 545303
0111100010001000: 517190 555506 618615 625692
0110100110000100: 517190 555506 618615 615656
0110100010010010: 517190 555506 618615 520062
0110100010010010: 517190 555506 618615 653349
0110100110010110: 517190 555506 618615 545303
0110100110010110: 517190 555506 618615 545303
0111100010001000: 517190 555506 647437 625692
0111100010001000: 517190 555506 647437 618615
0110100110000100: 517190 555506 647437 615656
0110100110000100: 517190 555506 647437 545303
0110100010010010: 517190 555506 647437 617305
0110100010010010: 517190 555506 647437 617305
0111100010001000: 517190 555506 625692 618615
0111100010001000: 517190 555506 625692 647437
0110100110000100: 517190 555506 625692 615656
0110100110000100: 517190 555506 625692 545303
0110100110000100: 517190 555506 625692 615656
0110100110000100: 517190 555506 625692 545303
0110100110000100: 517190 555506 625692 615656
0110100110000100: 517190 555506 625692 545303
0111100010001000: 517190 555506 618615 625692
0111100010001000: 517190 555506 618615 647437
0111100010001000: 517190 555506 618615 625692
0110100110000100: 517190 555506 618615 615656
0110100110000100: 517190 555506 618615 615656
0110100110000100: 517190 555506 618615 615656
0110100110010110: 517190 555506 618615 545303
0110100110010110: 517190 555506 618615 545303
0110100110010110: 517190 555506 618615 545303
0110100110000100: 517190 555506 647437 615656
0110100110000100: 517190 555506 647437 545303
0110100110000100: 517190 555506 647437 615656
0110100110000100: 517190 555506 647437 545303
0110100110000100: 517190 555506 647437 615656
0110100110000100: 517190 555506 647437 545303
0110100010010010: 517190 555506 647437 617305
0101101001001000: 517190 555506 615656 625692
0101101001001000: 517190 555506 615656 618615
0101101001001000: 517190 555506 615656 647437
0100101001010010: 517190 555506 615656 584331
0100101001010010: 517190 555506 615656 584331
0100101001010010: 517190 555506 615656 584331
0100101001010010: 517190 555506 615656 584331
0101101001001000: 517190 555506 545303 625692
0101101001001000: 517190 555506 545303 647437
0100101001010010: 517190 555506 545303 520062
0100101001010010: 517190 555506 545303 520062
0100101101000100: 517190 555506 545303 615656
0101101001011010: 517190 555506 545303 618615
0101101001011010: 517190 555506 545303 618615
0101101001011010: 517190 555506 545303 618615
0100101001010010: 517190 555506 545303 520062
0111100010001000: 517190 647437 618615 625692
0110100010010010: 517190 647437 618615 545303
0110100010010010: 517190 647437 618615 520062
0110100010010010: 517190 647437 618615 653349
0111100010001000: 517190 647437 555506 625692
0111100010001000: 517190 647437 555506 618615
0110100010010010: 517190 647437 555506 615656
0110100010010010: 517190 647437 555506 545303
0110100010010010: 517190 647437 555506 615656
0110100010010010: 517190 647437 555506 545303
0111100010001000: 517190 647437 625692 618615
0111100010001000: 517190 647437 625692 555506
0110100110000100: 517190 647437 625692 617305
0110100110000100: 517190 647437 625692 617305
0111100010001000: 517190 647437 618615 625692
0111100010001000: 517190 647437 618615 555506
0111100010001000: 517190 647437 618615 625692
0110100110000100: 517190 647437 618615 617305
0110100110000100: 517190 647437 618615 617305
0111100010001000: 517190 647437 555506 625692
0111100010001000: 517190 647437 555506 618615
0111100010001000: 517190 647437 555506 625692
0111100010001000: 517190 647437 555506 618615
0110100110000100: 517190 647437 555506 617305
0110100110000100: 517190 647437 555506 617305
0101101001001000: 517190 647437 617305 625692
0101101001001000: 517190 647437 617305 618615
0101101001001000: 517190 647437 617305 555506
0100101001010010: 517190 647437 617305 586696
0100101001010010: 517190 647437 617305 586696
0100101001010010: 517190 647437 617305 586696
0101101001001000: 555506 615656 584331 545303
0101101001001000: 555506 615656 584331 517190
0111100010001000: 555506 517190 545303 615656
0110100110010110: 555506 517190 545303 618615
0110100110000100: 555506 615656 545303 584331
0110100010010010: 555506 615656 545303 520062
0110100010010010: 555506 615656 545303 618615
0111100010001000: 555506 615656 517190 545303
0110100110000100: 555506 615656 517190 584331
0110100010010010: 555506 615656 517190 625692
0110100010010010: 555506 615656 517190 618615
0110100010010010: 555506 615656 517190 647437
0110100110000100: 555506 615656 545303 584331
0110100110000100: 555506 615656 545303 584331
0110100110000100: 555506 615656 545303 584331
0110100110000100: 555506 615656 517190 584331
0110100110000100: 555506 615656 517190 584331
0110100110000100: 555506 615656 517190 584331
0101101001001000: 555506 615656 584331 545303
0101101001001000: 555506 615656 584331 517190
0100101001010010: 555506 615656 584331 586696
0100101001010010: 555506 615656 584331 586696
0100101001010010: 555506 615656 584331 586696
0110100110000100: 555506 545303 615656 520062
0110100110000100: 555506 545303 615656 618615
0110100010010010: 555506 545303 615656 584331
0110100010010010: 555506 545303 615656 584331
0111100010001000: 555506 545303 517190 615656
0110100110000100: 555506 545303 517190 520062
0110100010010010: 555506 545303 517190 625692
0110100010010010: 555506 545303 517190 647437
0110100110010110: 555506 545303 517190 618615
0110100110010110: 555506 545303 517190 618615
0111100010001000: 555506 545303 615656 517190
0110100110000100: 555506 545303 615656 520062
0110100110000100: 555506 545303 615656 618615
0110100110000100: 555506 545303 615656 520062
0110100110000100: 555506 545303 615656 618615
0110100010010010: 555506 545303 615656 584331
0110100110000100: 555506 545303 517190 520062
0110100110000100: 555506 545303 517190 520062
0110100110010110: 555506 545303 517190 618615
0111100010001000: 555506 545303 615656 517190
0111100010001000: 555506 545303 615656 517190
0110100010010010: 555506 545303 615656 584331
0111100010001000: 555506 545303 517190 615656
0111100010001000: 555506 545303 517190 615656
0111100010001000: 555506 545303 517190 615656
0110100110000100: 555506 545303 615656 520062
0110100110000100: 555506 545303 615656 618615
0110100110000100: 555506 545303 615656 520062
0110100110000100: 555506 545303 615656 618615
0111100010001000: 555506 545303 615656 517190
0110100010010010: 555506 545303 615656 584331
0110100010010010: 555506 545303 615656 584331
0110100110000100: 555506 545303 517190 520062
0110100110000100: 555506 545303 517190 520062
0111100010001000: 555506 545303 517190 615656
0111100010001000: 555506 545303 517190 615656
0110100110010110: 555506 545303 517190 618615
0110100110000100: 555506 545303 517190 520062
0110100010010010: 555506 517190 615656 584331
0110100010010010: 555506 517190 615656 584331
0111100010001000: 555506 517190 545303 615656
0110100010010010: 555506 517190 545303 520062
0110100110010110: 555506 517190 545303 618615
0111100010001000: 555506 517190 615656 545303
0110100110000100: 555506 517190 615656 625692
0110100110000100: 555506 517190 615656 618615
0110100110000100: 555506 517190 615656 647437
0110100010010010: 555506 517190 615656 584331
0111100010001000: 555506 517190 545303 615656
0111100010001000: 555506 517190 545303 615656
0110100110000100: 555506 517190 545303 625692
0110100110000100: 555506 517190 545303 647437
0110100110010110: 555506 517190 545303 618615
0110100010010010: 555506 517190 545303 520062
0110100110010110: 555506 517190 545303 618615
0111100010001000: 555506 517190 615656 545303
0111100010001000: 555506 517190 615656 545303
0110100010010010: 555506 517190 615656 584331
0111100010001000: 555506 517190 545303 615656
0111100010001000: 555506 517190 545303 615656
0111100010001000: 555506 517190 545303 615656
0110100110000100: 555506 517190 615656 625692
0110100110000100: 555506 517190 615656 618615
0110100110000100: 555506 517190 615656 647437
0110100110000100: 555506 517190 615656 625692
0110100110000100: 555506 517190 615656 618615
0110100110000100: 555506 517190 615656 647437
0111100010001000: 555506 517190 615656 545303
0110100010010010: 555506 517190 615656 584331
0110100010010010: 555506 517190 615656 584331
0110100110000100: 555506 517190 545303 625692
0110100110000100: 555506 517190 545303 647437
0110100110000100: 555506 517190 545303 625692
0110100110000100: 555506 517190 545303 647437
0111100010001000: 555506 517190 545303 615656
0111100010001000: 555506 517190 545303 615656
0110100010010010: 555506 517190 545303 520062
0110100110010110: 555506 517190 545303 618615
0110100110000100: 586696 584331 617305 615656
0110100010010010: 586696 584331 617305 647437
0110100110000100: 586696 584331 617305 615656
0110100110000100: 586696 584331 617305 615656
0110100110000100: 586696 584331 617305 615656
0110100110000100: 586696 584331 617305 615656
0110100110000100: 586696 584331 617305 615656
0110100010010010: 586696 617305 584331 615656
0110100110000100: 586696 617305 584331 647437
0110100110000100: 586696 617305 584331 647437
0110100110000100: 586696 617305 584331 647437
0110100110000100: 586696 617305 584331 647437
0110100110000100: 584331 615656 586696 555506
0110100010010010: 584331 615656 586696 617305
0110100110000100: 584331 615656 586696 555506
0110100110000100: 584331 615656 586696 555506
0110100110000100: 584331 615656 586696 555506
0110100110000100: 584331 615656 586696 555506
0110100110000100: 584331 615656 586696 555506
0110100010010010: 584331 586696 615656 555506
0110100110000100: 584331 586696 615656 617305
0110100110000100: 584331 586696 615656 617305
0110100110000100: 584331 586696 615656 617305
0110100110000100: 584331 586696 615656 617305
0111101011001000: 618615 545303 520062 653349
0111101011001000: 618615 545303 520062 517190
0101101001001000: 618615 545303 555506 653349
0101101101001100: 618615 545303 555506 520062
0111101011001000: 618615 520062 545303 653349
0111101011001000: 618615 520062 545303 517190
0101101001001000: 618615 653349 471243 545303
0101101001001000: 618615 653349 471243 520062
0101101001001000: 618615 653349 471243 517190
0110100110010110: 618615 517190 545303 555506
0111100010001000: 618615 517190 653349 545303
0111100010001000: 618615 517190 653349 520062
0110100110000100: 618615 545303 653349 555506
0110100010010010: 618615 545303 653349 471243
0110100010010010: 618615 545303 653349 471243
0111100010001000: 618615 545303 517190 653349
0110100010010010: 618615 545303 517190 625692
0110100010010010: 618615 545303 517190 647437
0110100110010110: 618615 545303 517190 555506
0110100110010110: 618615 545303 517190 555506
0110100110000100: 618615 545303 653349 555506
0110100110000100: 618615 545303 653349 555506
0111100110001100: 618615 545303 653349 520062
0110100110000100: 618615 545303 653349 555506
0110100010010010: 618615 545303 653349 471243
0111100110001100: 618615 545303 517190 520062
0110100110010110: 618615 545303 517190 555506
0111101011001000: 618615 545303 520062 653349
0111101011001000: 618615 545303 520062 517190
0101101001001000: 618615 545303 555506 653349
0100101001010010: 618615 545303 555506 615656
0100101001010010: 618615 545303 555506 615656
0101101101001100: 618615 545303 555506 520062
0101101001011010: 618615 545303 555506 517190
0101101001011010: 618615 545303 555506 517190
0101101001011010: 618615 545303 555506 517190
0100101001010010: 618615 545303 555506 615656
0111101011001000: 618615 545303 520062 653349
0111101011001000: 618615 545303 520062 517190
0111101011001000: 618615 545303 520062 653349
0111101011001000: 618615 545303 520062 517190
0110101111000100: 618615 545303 520062 555506
0110101111000100: 618615 545303 520062 555506
0110101111000100: 618615 545303 520062 555506
0110101111000100: 618615 545303 520062 555506
0110100010010010: 618615 520062 653349 471243
0110100010010010: 618615 520062 653349 471243
0111100010001000: 618615 520062 517190 653349
0110100010010010: 618615 520062 517190 625692
0110100010010010: 618615 520062 517190 555506
0110100010010010: 618615 520062 517190 647437
0111100110001100: 618615 520062 653349 545303
0111100110001100: 618615 520062 517190 545303
0111101011001000: 618615 520062 545303 653349
0111101011001000: 618615 520062 545303 517190
0110101011010010: 618615 520062 545303 555506
0110101011010010: 618615 520062 545303 555506
0110101011010010: 618615 520062 545303 555506
0110101011010010: 618615 520062 545303 555506
0111101011001000: 618615 520062 545303 653349
0111101011001000: 618615 520062 545303 517190
0111101011001000: 618615 520062 545303 653349
0111101011001000: 618615 520062 545303 517190
0111101011001000: 618615 520062 545303 653349
0111101011001000: 618615 520062 545303 517190
0111101011001000: 618615 520062 545303 653349
0111101011001000: 618615 520062 545303 517190
0110100110000100: 618615 653349 545303 471243
0110100010010010: 618615 653349 545303 555506
0111100010011010: 618615 653349 545303 520062
0110100010010010: 618615 653349 545303 555506
0110100110000100: 618615 653349 520062 471243
0111100010011010: 618615 653349 520062 545303
0111100010001000: 618615 653349 517190 545303
0111100010001000: 618615 653349 517190 520062
0110100110000100: 618615 653349 517190 471243
0110100010010010: 618615 653349 517190 625692
0110100010010010: 618615 653349 517190 555506
0110100010010010: 618615 653349 517190 647437
0111100010001000: 618615 653349 545303 517190
0110100110000100: 618615 653349 545303 471243
0110100110000100: 618615 653349 545303 471243
0110100110000100: 618615 653349 545303 471243
0111100010001000: 618615 653349 520062 517190
0110100110000100: 618615 653349 520062 471243
0110100110000100: 618615 653349 520062 471243
0110100110000100: 618615 653349 520062 471243
0110100110000100: 618615 653349 517190 471243
0110100110000100: 618615 653349 517190 471243
0110100110000100: 618615 653349 517190 471243
0101101001001000: 618615 653349 471243 545303
0101101001001000: 618615 653349 471243 520062
0101101001001000: 618615 653349 471243 517190
0111100010011010: 618615 517190 545303 520062
0110100110010110: 618615 517190 545303 555506
0111100010011010: 618615 517190 520062 545303
0111100010001000: 618615 517190 653349 545303
0111100010001000: 618615 517190 653349 520062
0110100010010010: 618615 517190 653349 471243
0110100010010010: 618615 517190 653349 471243
0111100010001000: 618615 517190 545303 653349
0110100110000100: 618615 517190 545303 625692
0110100110000100: 618615 517190 545303 647437
0110100110010110: 618615 517190 545303 555506
0110100110010110: 618615 517190 545303 555506
0111100010001000: 618615 517190 520062 653349
0110100110000100: 618615 517190 520062 625692
0110100110000100: 618615 517190 520062 555506
0110100110000100: 618615 517190 520062 647437
0111100010001000: 618615 517190 653349 545303
0111100010001000: 618615 517190 653349 520062
0111100010001000: 618615 517190 653349 545303
0111100010001000: 618615 517190 653349 520062
0110100110000100: 618615 517190 653349 625692
0110100110000100: 618615 517190 653349 555506
0110100110000100: 618615 517190 653349 647437
0110100010010010: 618615 517190 653349 471243
0111100010001000: 618615 517190 545303 653349
0111100010001000: 618615 517190 545303 653349
0111100010011010: 618615 517190 545303 520062
0111100010011010: 618615 517190 545303 520062
0111100010011010: 618615 517190 545303 520062
0111100010001000: 618615 517190 520062 653349
0111100010001000: 618615 517190 520062 653349
0111100010011010: 618615 517190 520062 545303
0111100010011010: 618615 517190 520062 545303
0111100010011010: 618615 517190 520062 545303
0111100010001000: 618615 517190 653349 545303
0111100010001000: 618615 517190 653349 520062
0111100010001000: 618615 517190 653349 545303
0111100010001000: 618615 517190 653349 520062
0110100010010010: 618615 517190 653349 471243
0110100110000100: 618615 517190 545303 625692
0110100110000100: 618615 517190 545303 647437
0110100110000100: 618615 517190 545303 625692
0110100110000100: 618615 517190 545303 647437
0111100010001000: 618615 517190 545303 653349
0110100110010110: 618615 517190 545303 555506
0110100110010110: 618615 517190 545303 555506
0111100010011010: 618615 517190 545303 520062
0110100110000100: 618615 517190 520062 625692
0110100110000100: 618615 517190 520062 555506
0110100110000100: 618615 517190 520062 647437
0110100110000100: 618615 517190 520062 625692
0110100110000100: 618615 517190 520062 555506
0110100110000100: 618615 517190 520062 647437
0111100010001000: 618615 517190 520062 653349
0111100010011010: 618615 517190 520062 545303
0110100110000100: 618615 517190 653349 625692
0110100110000100: 618615 517190 653349 555506
0110100110000100: 618615 517190 653349 647437
0110100110000100: 618615 517190 653349 625692
0110100110000100: 618615 517190 653349 555506
0110100110000100: 618615 517190 653349 647437
0111100010001000: 618615 517190 653349 545303
0111100010001000: 618615 517190 653349 520062
0111100010001000: 618615 517190 653349 545303
0111100010001000: 618615 517190 653349 520062
0110100010010010: 618615 517190 653349 471243
0110100010010010: 618615 517190 653349 471243
0110100010010010: 653349 471243 618615 545303
0110100010010010: 653349 471243 618615 520062
0110100010010010: 653349 471243 618615 517190
0110100110000100: 653349 618615 471243 545303
0110100110000100: 653349 618615 471243 520062
0110100110000100: 653349 618615 471243 517190
0110100110000100: 653349 618615 471243 545303
0110100110000100: 653349 618615 471243 520062
0110100110000100: 653349 618615 471243 517190
0110100110000100: 653349 618615 471243 545303
0110100110000100: 653349 618615 471243 520062
0110100110000100: 653349 618615 471243 517190
0110101011010010: 520062 545303 618615 653349
0110101011010010: 520062 545303 618615 517190
0110101011010010: 520062 545303 618615 653349
0110101011010010: 520062 545303 618615 517190
0110101111000100: 520062 545303 618615 555506
0110101111000100: 520062 545303 618615 555506
0110101111000100: 520062 545303 618615 555506
0110101111000100: 520062 618615 545303 653349
0110101111000100: 520062 618615 545303 517190
0110101111000100: 520062 618615 545303 653349
0110101111000100: 520062 618615 545303 517190
0110101011010010: 520062 618615 545303 555506
0111101011001000: 545303 520062 618615 555506
0111101011001000: 545303 618615 520062 555506
0110100110010110: 545303 555506 618615 517190
0110100010010010: 545303 520062 555506 615656
0110100010010010: 545303 520062 555506 517190
0111100110001100: 545303 520062 555506 618615
0111101011001000: 545303 520062 618615 555506
0111101011001000: 545303 520062 618615 555506
0111101011001000: 545303 520062 618615 555506
0111101011001000: 545303 520062 618615 555506
0110100010010010: 545303 618615 555506 615656
0110100110010110: 545303 618615 555506 517190
0110100110000100: 545303 618615 555506 653349
0111100110001100: 545303 618615 555506 520062
0110100010010010: 545303 618615 555506 615656
0110100110010110: 545303 618615 555506 517190
0111101011001000: 545303 618615 520062 555506
0111101011001000: 545303 618615 520062 555506
0111101011001000: 545303 618615 520062 555506
0110101111000100: 545303 618615 520062 653349
0110101111000100: 545303 618615 520062 517190
0110101111000100: 545303 618615 520062 653349
0110101111000100: 545303 618615 520062 517190
0111101011001000: 545303 618615 520062 555506
0110100110000100: 545303 618615 555506 653349
0110100110000100: 545303 618615 555506 653349
0111100110001100: 545303 618615 555506 520062
0111100110001100: 545303 618615 555506 520062
0111100110001100: 545303 618615 555506 520062
0110100010010010: 545303 618615 555506 615656
0110100110010110: 545303 618615 555506 517190
0111100110001100: 545303 618615 555506 520062
0111101011001000: 545303 618615 520062 555506
0111101011001000: 545303 618615 520062 555506
0111101011001000: 545303 618615 520062 555506
0111100010011010: 545303 555506 520062 618615
0110100010010010: 545303 555506 618615 653349
0111100010011010: 545303 555506 618615 520062
0110100110010110: 545303 555506 618615 517190
0110100110000100: 545303 555506 520062 615656
0110100110000100: 545303 555506 520062 517190
0110100110000100: 545303 555506 618615 615656
0110100110010110: 545303 555506 618615 517190
0110100110010110: 545303 555506 618615 517190
0111100010011010: 545303 555506 520062 618615
0111100010011010: 545303 555506 520062 618615
0111100010011010: 545303 555506 520062 618615
0111100010011010: 545303 555506 618615 520062
0111100010011010: 545303 555506 618615 520062
0111100010011010: 545303 555506 618615 520062
0110100110000100: 545303 555506 520062 615656
0110100110000100: 545303 555506 520062 517190
0110100110000100: 545303 555506 520062 615656
0110100110000100: 545303 555506 520062 517190
0111100010011010: 545303 555506 520062 618615
0110100110000100: 545303 555506 618615 615656
0110100110000100: 545303 555506 618615 615656
0110100110010110: 545303 555506 618615 517190
0110100110000100: 545303 555506 618615 615656
0111100010011010: 545303 555506 618615 520062
0110100010010010: 615656 584331 555506 545303
0110100010010010: 615656 584331 555506 517190
0110100110000100: 615656 584331 555506 586696
0110100110000100: 615656 584331 555506 586696
0110100110000100: 615656 584331 555506 586696
0110100110000100: 615656 584331 555506 586696
0110100010010010: 615656 555506 584331 586696
0110100110000100: 615656 555506 584331 545303
0110100110000100: 615656 555506 584331 517190
0110100010010010: 615656 555506 584331 586696
0110100110000100: 615656 555506 584331 545303
0110100110000100: 615656 555506 584331 517190
0110100110000100: 615656 555506 584331 545303
0110100110000100: 615656 555506 584331 517190
0110100010010010: 615656 555506 584331 586696
