0110010011100000100001000: 643577 554368 533777 526955 521861
0110010011100000100001000: 643577 554368 533777 509068 521861
0110010011100000100001000: 643577 554368 533777 640016 521861
0110010011100000100001000: 643577 554368 533777 640016 526955
0110010011100000100001000: 643577 554368 533777 640016 509068
0110010011100000100001000: 643577 554368 533777 595152 526955
0110010011100000100001000: 643577 554368 533777 595152 509068
0110010011100100110001000: 643577 554368 533777 524952 521861
0110010011100100110001000: 643577 554368 533777 524952 526955
0110010011100100110001000: 643577 554368 533777 524952 640016
0110010011100100110001000: 643577 554368 533777 524952 595152
0110010011100000100001000: 643577 554368 580221 526955 521861
0110010011100000100001000: 643577 554368 580221 524952 521861
0110010011100000100001000: 643577 554368 580221 524952 526955
0110010011100000100001000: 643577 554368 580221 509068 521861
0110010011100000100001000: 643577 554368 580221 640016 521861
0110010011100000100001000: 643577 554368 580221 640016 526955
0110010011100000100001000: 643577 554368 580221 640016 524952
0110010011100000100001000: 643577 554368 580221 640016 509068
0110010011100000100001000: 643577 554368 580221 595152 526955
0110010011100000100001000: 643577 554368 580221 595152 524952
0110010011100000100001000: 643577 554368 580221 595152 509068
0111010101110001000001000: 554368 524952 509068 521861 533777
0111010101110001000101010: 554368 524952 509068 643577 533777
0111010101110001000001000: 554368 524952 509068 640016 533777
0111010101110001000001000: 554368 524952 509068 595152 533777
0111110100110001000010000: 554368 509068 526955 643577 521861
0111010100110001000100010: 554368 509068 526955 643577 533777
0111010100110001000100010: 554368 509068 526955 643577 580221
0111110100110001000010000: 554368 509068 526955 640016 521861
0111110100110001000010000: 554368 509068 526955 640016 643577
0111110100110001000010000: 554368 509068 526955 595152 643577
0111110100110001000010000: 554368 509068 524952 643577 521861
0111010100110001000100010: 554368 509068 524952 643577 580221
0111110100110001000010000: 554368 509068 524952 640016 521861
0111110100110001000010000: 554368 509068 524952 640016 643577
0111110100110001000010000: 554368 509068 524952 595152 643577
0111110110110001100010000: 554368 509068 524952 526955 521861
0111110110110001100010000: 554368 509068 524952 526955 643577
0111110110110001100010000: 554368 509068 524952 526955 640016
0111110110110001100010000: 554368 509068 524952 526955 595152
0111010110110011100000100: 554368 509068 524952 526955 533777
0110010011100000100001000: 554368 643577 521861 580221 533777
0110010011100000100001000: 554368 643577 526955 580221 533777
0111110000100001000010000: 554368 643577 524952 526955 521861
0110010011100100110001000: 554368 643577 524952 533777 580221
0110010011100000100001000: 554368 643577 509068 580221 533777
0110010011100000100001000: 554368 643577 640016 580221 533777
0110010011100000100001000: 554368 643577 595152 580221 533777
0111110000100001000010000: 554368 640016 524952 526955 521861
0111110000100001000010000: 554368 640016 643577 526955 521861
0111110000100001000010000: 554368 640016 643577 524952 521861
0111110000100001000010000: 554368 640016 643577 524952 526955
0111110000100001000010000: 554368 640016 643577 509068 521861
0111110000100001000010000: 554368 595152 643577 524952 526955
0111110100110001000010000: 554368 595152 521861 524952 526955
0111010100110001000100010: 554368 595152 521861 524952 533777
0111110100110001000110010: 554368 595152 521861 509068 526955
0111110100110001000110010: 554368 595152 521861 509068 524952
0111110100110001000010000: 554368 595152 521861 643577 526955
0111110100110001000010000: 554368 595152 521861 643577 524952
0111110100110001000010000: 554368 595152 521861 643577 509068
0111010100110001000100010: 554368 595152 521861 643577 533777
0111010100110001000100010: 554368 595152 521861 643577 580221
0111110100110001000010000: 554368 595152 640016 524952 526955
0111010100110001000100010: 554368 595152 640016 524952 533777
0111110100110001000110010: 554368 595152 640016 509068 526955
0111110100110001000110010: 554368 595152 640016 509068 524952
0111110100110001000010000: 554368 595152 640016 643577 526955
0111110100110001000010000: 554368 595152 640016 643577 524952
0111110100110001000010000: 554368 595152 640016 643577 509068
0111010100110001000100010: 554368 595152 640016 643577 533777
0111010100110001000100010: 554368 595152 640016 643577 580221
0111110110110001100010000: 554368 595152 640016 521861 526955
0111110110110001100010000: 554368 595152 640016 521861 524952
0111110110110001100010000: 554368 595152 640016 521861 509068
0111110110110001100010000: 554368 595152 640016 521861 643577
0110010010100010100000100: 524952 509068 533777 526955 643577
0110010011100000100001000: 524952 554368 533777 526955 521861
0110010011100000100001000: 524952 554368 533777 640016 521861
0110010011100000100001000: 524952 554368 533777 640016 526955
0110010011100000100001000: 524952 554368 533777 595152 526955
0110010010100010100000100: 533777 643577 524952 580221 509068
