Vertex,0111100110011110,0111101111011110,0111100010011010,0100101101000100,0110100010010010,0111100110001100,0110101011010010,0110101111010110,0110101111000100,0101101101001100,0111101111001100,0101101001011010,0100101001010010,0110100110000100,0111100010001000,0100101101010110,0111101011001000,0111101011011010,0101101001001000,0110100110010110,0101101101011110
573158,33.0,1860.0,296.0,22.0,414.0,526.0,571.0,433.0,827.0,150.0,540.0,108.0,113.0,723.0,477.0,6.0,1762.0,464.0,208.0,245.0,40.0
571984,31.0,1085.0,271.0,14.0,355.0,339.0,365.0,426.0,540.0,82.0,540.0,87.0,103.0,631.0,413.0,16.0,1160.0,461.0,189.0,208.0,38.0
605099,40.0,1705.0,300.0,24.0,340.0,453.0,447.0,453.0,679.0,106.0,576.0,147.0,85.0,606.0,478.0,10.0,1483.0,498.0,162.0,418.0,38.0
515014,0.0,0.0,34.0,8.0,171.0,70.0,78.0,0.0,108.0,24.0,0.0,14.0,37.0,316.0,124.0,0.0,222.0,0.0,91.0,35.0,0.0
535107,3.0,0.0,50.0,12.0,149.0,92.0,90.0,37.0,135.0,28.0,54.0,0.0,30.0,341.0,231.0,2.0,277.0,42.0,92.0,0.0,2.0
514076,37.0,310.0,283.0,58.0,580.0,413.0,377.0,309.0,544.0,114.0,342.0,341.0,193.0,1063.0,745.0,26.0,1131.0,325.0,295.0,937.0,32.0
484310,50.0,1395.0,312.0,44.0,592.0,542.0,574.0,697.0,837.0,152.0,864.0,241.0,125.0,1135.0,929.0,10.0,1772.0,734.0,327.0,624.0,52.0
570191,65.0,2325.0,542.0,16.0,468.0,719.0,756.0,1016.0,1196.0,152.0,1224.0,126.0,105.0,922.0,1067.0,16.0,2660.0,1058.0,266.0,344.0,75.0
616782,6.0,0.0,74.0,30.0,333.0,180.0,193.0,61.0,245.0,66.0,72.0,147.0,90.0,610.0,329.0,2.0,488.0,66.0,173.0,381.0,12.0
544441,32.0,465.0,227.0,40.0,405.0,278.0,258.0,333.0,397.0,60.0,360.0,184.0,125.0,703.0,608.0,22.0,867.0,342.0,195.0,517.0,33.0
495527,26.0,775.0,172.0,26.0,326.0,295.0,296.0,292.0,453.0,64.0,324.0,76.0,76.0,631.0,503.0,2.0,1002.0,286.0,184.0,202.0,27.0
645266,30.0,620.0,226.0,14.0,361.0,248.0,237.0,380.0,384.0,46.0,432.0,58.0,99.0,625.0,483.0,22.0,865.0,392.0,187.0,171.0,31.0
579463,40.0,1395.0,309.0,16.0,419.0,494.0,427.0,429.0,706.0,102.0,558.0,82.0,66.0,731.0,586.0,6.0,1601.0,477.0,168.0,286.0,28.0
552728,3.0,0.0,72.0,4.0,195.0,90.0,102.0,51.0,168.0,12.0,54.0,14.0,67.0,316.0,360.0,0.0,393.0,50.0,91.0,35.0,4.0
465721,10.0,0.0,151.0,18.0,316.0,193.0,194.0,216.0,319.0,36.0,288.0,96.0,88.0,610.0,672.0,6.0,721.0,236.0,185.0,274.0,14.0
635653,27.0,155.0,229.0,28.0,470.0,255.0,243.0,384.0,387.0,54.0,414.0,88.0,184.0,794.0,421.0,18.0,859.0,389.0,233.0,241.0,36.0
583332,2.0,0.0,82.0,4.0,130.0,136.0,127.0,17.0,185.0,42.0,18.0,0.0,16.0,306.0,103.0,4.0,392.0,17.0,79.0,0.0,3.0
534642,0.0,0.0,16.0,8.0,183.0,64.0,96.0,0.0,96.0,32.0,0.0,0.0,46.0,297.0,48.0,0.0,158.0,0.0,82.0,0.0,0.0
539650,3.0,0.0,86.0,6.0,172.0,101.0,101.0,131.0,187.0,10.0,198.0,38.0,37.0,347.0,613.0,0.0,446.0,146.0,104.0,101.0,4.0
470399,0.0,0.0,34.0,12.0,185.0,61.0,65.0,0.0,97.0,18.0,0.0,45.0,44.0,329.0,294.0,0.0,207.0,0.0,94.0,105.0,0.0
497674,0.0,0.0,32.0,4.0,167.0,53.0,53.0,0.0,85.0,14.0,0.0,0.0,38.0,311.0,246.0,0.0,184.0,0.0,86.0,0.0,0.0
488979,2.0,0.0,82.0,8.0,122.0,84.0,87.0,34.0,159.0,6.0,36.0,0.0,12.0,238.0,376.0,2.0,384.0,35.0,68.0,0.0,4.0
476090,16.0,310.0,168.0,16.0,335.0,182.0,187.0,221.0,302.0,30.0,234.0,0.0,129.0,483.0,294.0,14.0,690.0,214.0,145.0,0.0,19.0
graph,114.0,3100.0,1012.0,108.0,1797.0,1467.0,1481.0,1480.0,2259.0,350.0,1782.0,473.0,477.0,3267.0,2600.0,46.0,4931.0,1558.0,926.0,1281.0,123.0
