0111010101110001000001000: 622296 490098 642074 508636 601216
0111010101110001000001000: 622296 490098 642074 596866 601216
0111010110110011100000100: 622296 490098 642074 563852 654134
0111010110110011100000100: 622296 490098 642074 563852 533250
0111010101110001000001000: 622296 490098 563852 508636 601216
0111110110110001100010000: 622296 490098 563852 642074 508636
0111010110110011100000100: 622296 490098 563852 642074 571035
0110010011100000100001000: 622296 642074 508636 533250 654134
0110010011100000100001000: 622296 642074 563852 533250 654134
0110010011100000100001000: 622296 642074 596866 533250 654134
0111010101110001000001000: 622296 642074 490098 508636 654134
0111010101110001000001000: 622296 642074 490098 508636 533250
0111010101110001000001000: 622296 642074 490098 596866 654134
0111010101110001000001000: 622296 642074 490098 596866 533250
0110010010100010100000100: 622296 563852 642074 571035 654134
0110010010100010100000100: 622296 563852 642074 571035 533250
0111010101110001000001000: 622296 563852 490098 508636 571035
0111110110110011100010100: 622296 563852 490098 596866 642074
0111010110110011100000100: 622296 563852 490098 596866 601216
0111010101110001000001000: 622296 563852 596866 642074 571035
0111010110110011100000100: 622296 570191 490098 508636 601216
0111010110110011100000100: 622296 570191 490098 596866 601216
0111110111110111110011100: 622296 570191 490098 563852 642074
0111010110110011100000100: 622296 570191 642074 508636 654134
0111010110110011100000100: 622296 570191 642074 563852 654134
0111010110110011100000100: 622296 570191 642074 596866 654134
0111110111110101110011000: 622296 570191 642074 490098 508636
0111110111110101110011000: 622296 570191 642074 490098 596866
0111110111110001100011000: 622296 570191 563852 642074 508636
0111110111110101110011000: 622296 570191 563852 490098 508636
0111110111110111110011100: 622296 570191 563852 596866 490098
0111110111110101110011000: 622296 570191 596866 508636 490098
0111110111110101110011000: 622296 570191 596866 508636 642074
0111110111110101110011000: 622296 570191 596866 563852 642074
0111010100110001000100010: 622296 596866 508636 490098 601216
0111010100110001000100010: 622296 596866 508636 642074 654134
0111010100110001000100010: 622296 596866 508636 642074 533250
0111110100110001000110010: 622296 596866 508636 642074 490098
0111010100110001000100010: 622296 596866 563852 642074 654134
0111010100110001000100010: 622296 596866 563852 642074 533250
0111110110110001100010000: 622296 596866 563852 508636 642074
0111110110110011100010100: 622296 596866 563852 508636 490098
0111010110110011100000100: 622296 596866 563852 508636 571035
0111110111110111110011100: 622296 596866 570191 563852 508636
0110010011100000100001000: 596866 563852 508636 490098 571035
0111010101110001000001000: 570191 571035 563852 503423 519280
0111010101110001000001000: 570191 571035 563852 508636 519280
0111010101110001000001000: 570191 571035 563852 642074 519280
0111010101110001000101010: 570191 571035 563852 533250 519280
0111110000100001000010000: 570191 490098 571035 508636 503423
0110010010100010100000100: 570191 490098 571035 601216 519280
0111010101110001000001000: 570191 490098 642074 503423 601216
0111010101110001000001000: 570191 490098 642074 508636 601216
0111010101110001000001000: 570191 490098 642074 571035 601216
0111010101110001000001000: 570191 490098 642074 596866 601216
0111010110110011100000100: 570191 490098 642074 563852 654134
0111010101110001000001000: 570191 490098 563852 503423 601216
0111010101110001000001000: 570191 490098 563852 508636 601216
0111010101110001000001000: 570191 490098 563852 533250 601216
0111110110110001100010000: 570191 490098 563852 642074 503423
0111110110110001100010000: 570191 490098 563852 642074 508636
0111010101110001000001000: 570191 490098 622296 503423 601216
0111010101110001000001000: 570191 490098 622296 571035 601216
0111010101110001000001000: 570191 490098 622296 533250 601216
0111110000100001000010000: 570191 642074 571035 508636 503423
0110010010100010100000100: 570191 642074 571035 654134 519280
0111010101110001000001000: 570191 642074 490098 503423 654134
0111110100110001000010000: 570191 642074 490098 508636 503423
0111010101110001000001000: 570191 642074 490098 508636 654134
0111110100110001000010000: 570191 642074 490098 571035 503423
0111110100110001000010000: 570191 642074 490098 571035 508636
0111010101110001000001000: 570191 642074 490098 571035 654134
0111010100110001000100010: 570191 642074 490098 571035 519280
0111110100110001000010000: 570191 642074 490098 596866 503423
0111110100110001000010000: 570191 642074 490098 596866 571035
0111010101110001000001000: 570191 642074 490098 596866 654134
0111110110110011100010100: 570191 642074 490098 533250 563852
0111010110110011100000100: 570191 642074 490098 533250 601216
0111010101110001000001000: 570191 642074 533250 503423 654134
0111010101110001000001000: 570191 642074 533250 508636 654134
0111010101110001000001000: 570191 642074 533250 571035 654134
0111010101110001000001000: 570191 642074 533250 563852 654134
0111010101110001000001000: 570191 642074 533250 596866 654134
0111110110110001100010000: 570191 642074 533250 490098 503423
0111110110110001100010000: 570191 642074 533250 490098 508636
0111110110110001100010000: 570191 642074 533250 490098 571035
0111110110110001100010000: 570191 642074 533250 490098 596866
0111010110110011100000100: 570191 642074 533250 490098 519280
0111010110110011100000100: 570191 642074 533250 622296 519280
0111010101110001000001000: 570191 642074 622296 503423 654134
0111010101110001000001000: 570191 642074 622296 571035 654134
0111110110110001100010000: 570191 642074 622296 533250 503423
0111110110110001100010000: 570191 642074 622296 533250 571035
0111110111110101110011000: 570191 642074 622296 490098 533250
0111110000100001000010000: 570191 533250 571035 508636 503423
0111110000100001000010000: 570191 533250 490098 508636 503423
0111110000100001000010000: 570191 533250 490098 571035 503423
0111110000100001000010000: 570191 533250 490098 571035 508636
0110010010100010100000100: 570191 533250 490098 519280 601216
0111010101110001000001000: 570191 533250 642074 503423 519280
0111110100110001000010000: 570191 533250 642074 508636 503423
0111010101110001000001000: 570191 533250 642074 508636 519280
0111110100110001000010000: 570191 533250 642074 571035 503423
0111110100110001000010000: 570191 533250 642074 571035 508636
0111010101110001000101010: 570191 533250 642074 571035 519280
0111110100110001000010000: 570191 533250 642074 563852 503423
0111110100110001000010000: 570191 533250 642074 563852 508636
0111010101110001000001000: 570191 533250 642074 563852 519280
0111110100110001000010000: 570191 533250 642074 596866 503423
0111110100110001000010000: 570191 533250 642074 596866 571035
0111010101110001000001000: 570191 533250 642074 596866 519280
0111110000100001000010000: 570191 563852 642074 508636 503423
0111110000100001000010000: 570191 563852 533250 508636 503423
0111110100110001000010000: 570191 563852 571035 508636 503423
0111110100110001000010000: 570191 563852 571035 642074 503423
0111110100110001000010000: 570191 563852 571035 642074 508636
0111010100110001000100010: 570191 563852 571035 642074 654134
0111110100110001000010000: 570191 563852 571035 533250 503423
0111110100110001000010000: 570191 563852 571035 533250 508636
0111110100110001000110010: 570191 563852 571035 533250 642074
0111010110110011100000100: 570191 563852 571035 490098 519280
0111010110110011100000100: 570191 563852 571035 596866 519280
0111010110110011100000100: 570191 563852 571035 622296 519280
0111110100110001000010000: 570191 563852 490098 508636 503423
0111110100110001000010000: 570191 563852 490098 533250 503423
0111110100110001000010000: 570191 563852 490098 533250 508636
0111010100110001000100010: 570191 563852 490098 533250 519280
0111110110110001100010000: 570191 563852 490098 571035 503423
0111110110110001100010000: 570191 563852 490098 571035 508636
0111110110110001100010000: 570191 563852 490098 571035 533250
0111110110110011100010100: 570191 563852 490098 571035 642074
0111010110110011100000100: 570191 563852 490098 571035 601216
0111110110110011100010100: 570191 563852 490098 596866 642074
0111010110110011100000100: 570191 563852 490098 596866 601216
0111110110110001100010000: 570191 563852 596866 571035 503423
0111110110110001100010000: 570191 563852 596866 571035 642074
0111110110110001100010000: 570191 563852 596866 571035 533250
0111110110110001100010000: 570191 563852 596866 490098 503423
0111110110110001100010000: 570191 563852 596866 490098 533250
0111110111110001100011000: 570191 563852 596866 490098 571035
0111110110110001100010000: 570191 563852 622296 571035 503423
0111110110110001100010000: 570191 563852 622296 571035 533250
0111110111110101110011000: 570191 563852 622296 490098 571035
0111110111110101110011000: 570191 563852 622296 596866 571035
0111110000100001000010000: 570191 596866 490098 571035 503423
0111110000100001000010000: 570191 596866 642074 571035 503423
0111110000100001000010000: 570191 596866 533250 571035 503423
0111110000100001000010000: 570191 596866 533250 490098 503423
0111110000100001000010000: 570191 596866 533250 490098 571035
0111110100110001000010000: 570191 596866 508636 571035 503423
0111010100110001000100010: 570191 596866 508636 571035 519280
0111110100110001000010000: 570191 596866 508636 490098 503423
0111110100110001000010000: 570191 596866 508636 490098 571035
0111010100110001000100010: 570191 596866 508636 490098 601216
0111110100110001000010000: 570191 596866 508636 642074 503423
0111110100110001000010000: 570191 596866 508636 642074 571035
0111010100110001000100010: 570191 596866 508636 642074 654134
0111110100110001000110010: 570191 596866 508636 642074 490098
0111110100110001000010000: 570191 596866 508636 533250 503423
0111110100110001000010000: 570191 596866 508636 533250 571035
0111110100110001000010000: 570191 596866 508636 533250 490098
0111010100110001000100010: 570191 596866 508636 533250 519280
0111110100110001000110010: 570191 596866 508636 533250 642074
0111110100110001000010000: 570191 596866 563852 642074 503423
0111010100110001000100010: 570191 596866 563852 642074 654134
0111110100110001000010000: 570191 596866 563852 533250 503423
0111010100110001000100010: 570191 596866 563852 533250 519280
0111110100110001000110010: 570191 596866 563852 533250 642074
0111110110110001100010000: 570191 596866 563852 508636 503423
0111110110110001100010000: 570191 596866 563852 508636 642074
0111110110110001100010000: 570191 596866 563852 508636 533250
0111110110110011100010100: 570191 596866 563852 508636 571035
0111110110110011100010100: 570191 596866 563852 508636 490098
0111110000100001000010000: 570191 622296 533250 571035 503423
0111110100110001000010000: 570191 622296 508636 571035 503423
0111010100110001000100010: 570191 622296 508636 571035 519280
0111110100110001000010000: 570191 622296 508636 533250 503423
0111110100110001000010000: 570191 622296 508636 533250 571035
0111010100110001000100010: 570191 622296 508636 533250 519280
0111110100110001000010000: 570191 622296 490098 571035 503423
0111010100110001000100010: 570191 622296 490098 571035 519280
0111110100110001000010000: 570191 622296 490098 533250 503423
0111110100110001000010000: 570191 622296 490098 533250 571035
0111010100110001000100010: 570191 622296 490098 533250 519280
0111110110110001100010000: 570191 622296 490098 508636 503423
0111110110110001100010000: 570191 622296 490098 508636 571035
0111110110110001100010000: 570191 622296 490098 508636 533250
0111110100110001000010000: 570191 622296 642074 571035 503423
0111010100110001000100010: 570191 622296 642074 571035 519280
0111110110110001100010000: 570191 622296 642074 508636 503423
0111110110110001100010000: 570191 622296 642074 508636 571035
0111110110110011100010100: 570191 622296 642074 508636 533250
0111110110110011100010100: 570191 622296 642074 563852 533250
0111110110110011100010100: 570191 622296 642074 596866 533250
0111110110110101110010000: 570191 622296 642074 490098 503423
0111110110110101110010000: 570191 622296 642074 490098 571035
0111110100110001000010000: 570191 622296 563852 533250 503423
0111010100110001000100010: 570191 622296 563852 533250 519280
0111110110110001100010000: 570191 622296 563852 508636 503423
0111110110110001100010000: 570191 622296 563852 508636 533250
0111110110110011100010100: 570191 622296 563852 508636 571035
0111110110110001100010000: 570191 622296 563852 642074 503423
0111110110110011100010100: 570191 622296 563852 642074 571035
0111110110110101110010000: 570191 622296 563852 490098 503423
0111110110110101110010000: 570191 622296 563852 490098 533250
0111110100110001000010000: 570191 622296 596866 571035 503423
0111010100110001000100010: 570191 622296 596866 571035 519280
0111110100110001000010000: 570191 622296 596866 533250 503423
0111110100110001000010000: 570191 622296 596866 533250 571035
0111010100110001000100010: 570191 622296 596866 533250 519280
0111110110110001100010000: 570191 622296 596866 490098 503423
0111110110110001100010000: 570191 622296 596866 490098 571035
0111110110110001100010000: 570191 622296 596866 490098 533250
0111110110110001100010000: 570191 622296 596866 642074 503423
0111110110110001100010000: 570191 622296 596866 642074 571035
0111110110110101110010000: 570191 622296 596866 508636 503423
0111110110110101110010000: 570191 622296 596866 508636 571035
0111110110110101110010000: 570191 622296 596866 508636 533250
0111110110110101110010000: 570191 622296 596866 563852 503423
0111110110110101110010000: 570191 622296 596866 563852 533250
0110010010100010100000100: 563852 490098 571035 601216 519280
0110010011100000100001000: 563852 490098 571035 642074 601216
0110010010100010100000100: 563852 490098 571035 642074 519280
0110010011100000100001000: 563852 490098 596866 642074 601216
0111010101110001000001000: 563852 490098 622296 571035 601216
0110010010100010100000100: 563852 596866 571035 508636 519280
0110010010100010100000100: 563852 596866 490098 508636 601216
0110010010100010100000100: 563852 596866 490098 508636 642074
0110010010100010100000100: 563852 622296 571035 508636 519280
0110010011100000100001000: 563852 622296 571035 642074 508636
0110010010100010100000100: 563852 622296 571035 642074 519280
0111010100110001000100010: 563852 622296 490098 571035 519280
0111010100110001000100010: 563852 622296 596866 571035 519280
0111110110110001100010000: 563852 622296 596866 490098 571035
0110010010100010100000100: 533250 642074 519280 490098 571035
0110010011100000100001000: 533250 642074 519280 654134 490098
0110010010100010100000100: 533250 642074 519280 654134 571035
0110010011100000100001000: 533250 642074 519280 622296 654134
0110010010100010100000100: 533250 642074 519280 622296 571035
0111010101110001000001000: 533250 642074 570191 519280 654134
0110010011100000100001000: 533250 570191 519280 508636 503423
0110010011100000100001000: 533250 570191 519280 490098 503423
0110010011100000100001000: 533250 570191 519280 490098 508636
0110010011100000100001000: 533250 570191 519280 563852 503423
0110010011100000100001000: 533250 570191 519280 563852 508636
0110010011100000100001000: 533250 570191 519280 596866 503423
0110010011100000100001000: 533250 570191 519280 596866 490098
0110010011100000100001000: 533250 570191 519280 622296 503423
0110010011100100110001000: 533250 570191 519280 571035 503423
0110010011100100110001000: 533250 570191 519280 571035 508636
0110010011100100110001000: 533250 570191 519280 571035 490098
0110010011100100110001000: 533250 570191 519280 571035 596866
0110010011100100110001000: 533250 570191 519280 571035 622296
0110010011100100110001000: 642074 490098 654134 601216 563852
0110010011100000100001000: 642074 490098 533250 563852 601216
0111010101110001000101010: 642074 490098 570191 654134 601216
0111010101110001000101010: 642074 490098 622296 654134 601216
0111010101110001000001000: 642074 490098 622296 533250 601216
0110010010100010100000100: 642074 533250 490098 519280 601216
0110010010100010100000100: 642074 533250 490098 519280 563852
0110010010100010100000100: 642074 533250 654134 519280 601216
0110010010100010100000100: 642074 570191 654134 503423 601216
0110010011100000100001000: 642074 570191 654134 508636 503423
0110010010100010100000100: 642074 570191 654134 508636 601216
0110010011100000100001000: 642074 570191 654134 571035 503423
0110010011100000100001000: 642074 570191 654134 571035 508636
0110010010100010100000100: 642074 570191 654134 571035 601216
0110010011100000100001000: 642074 570191 654134 563852 503423
0110010011100000100001000: 642074 570191 654134 563852 508636
0110010010100010100000100: 642074 570191 654134 563852 601216
0110010011100000100001000: 642074 570191 654134 596866 503423
0110010011100000100001000: 642074 570191 654134 596866 571035
0110010010100010100000100: 642074 570191 654134 596866 601216
0111010100110001000100010: 642074 570191 533250 654134 601216
0111110110110001100010000: 642074 570191 533250 490098 654134
0111110110110001100010000: 642074 570191 622296 533250 654134
0110010010100010100000100: 642074 622296 654134 508636 601216
0110010011100000100001000: 642074 622296 654134 563852 508636
0110010010100010100000100: 642074 622296 654134 563852 601216
0110010010100010100000100: 642074 622296 654134 596866 601216
0110010010100010100000100: 642074 622296 533250 508636 519280
0110010011100000100001000: 642074 622296 533250 563852 508636
0110010010100010100000100: 642074 622296 533250 563852 519280
0110010010100010100000100: 642074 622296 533250 596866 519280
0111110100110001000010000: 642074 622296 490098 533250 654134
0111010100110001000100010: 642074 622296 490098 533250 519280
0111010100110001000100010: 642074 622296 570191 654134 601216
0111110110110101110010000: 642074 622296 570191 490098 654134
0110010011100000100001000: 654134 642074 601216 622296 533250
0110010011100100110001000: 654134 642074 601216 490098 533250
0110010011100000100001000: 490098 642074 563852 533250 654134
0110010010100010100000100: 490098 563852 601216 571035 654134
0110010011100000100001000: 490098 563852 601216 596866 571035
0110010010100010100000100: 490098 563852 601216 596866 654134
0110010010100010100000100: 490098 563852 642074 571035 654134
0110010010100010100000100: 490098 563852 642074 571035 533250
0110010011100000100001000: 490098 563852 642074 596866 571035
0110010010100010100000100: 490098 563852 642074 596866 654134
0110010010100010100000100: 490098 563852 642074 596866 533250
0110010010100010100000100: 490098 570191 601216 503423 654134
0110010011100000100001000: 490098 570191 601216 508636 503423
0110010010100010100000100: 490098 570191 601216 508636 654134
0110010011100000100001000: 490098 570191 601216 571035 503423
0110010011100000100001000: 490098 570191 601216 571035 508636
0110010010100010100000100: 490098 570191 601216 571035 654134
0110010011100000100001000: 490098 570191 601216 533250 503423
0110010011100000100001000: 490098 570191 601216 533250 508636
0110010011100000100001000: 490098 570191 601216 533250 571035
0110010010100010100000100: 490098 570191 601216 533250 654134
0110010011100000100001000: 490098 570191 601216 596866 503423
0110010011100000100001000: 490098 570191 601216 596866 571035
0110010011100000100001000: 490098 570191 601216 596866 533250
0110010010100010100000100: 490098 570191 601216 596866 654134
0111010100110001000100010: 490098 570191 563852 601216 654134
0111110110110001100010000: 490098 570191 563852 642074 601216
0110010010100010100000100: 490098 622296 601216 508636 654134
0110010010100010100000100: 490098 622296 601216 596866 654134
0111010100110001000100010: 490098 622296 563852 601216 654134
0111110110110001100010000: 490098 622296 563852 642074 601216
0111010100110001000100010: 490098 622296 570191 601216 654134
0111110110110101110010000: 490098 622296 570191 642074 601216
0111110110110101110010000: 490098 622296 570191 563852 601216
0110010010100010100000100: 571035 563852 519280 490098 533250
0110010011100000100001000: 571035 563852 519280 596866 490098
0110010010100010100000100: 571035 563852 519280 596866 533250
0110010010100010100000100: 571035 563852 519280 622296 533250
0110010011100000100001000: 571035 570191 519280 508636 503423
0110010011100000100001000: 571035 570191 519280 490098 503423
0110010011100000100001000: 571035 570191 519280 490098 508636
0110010011100000100001000: 571035 570191 519280 642074 503423
0110010011100000100001000: 571035 570191 519280 642074 508636
0110010011100000100001000: 571035 570191 519280 596866 503423
0110010011100000100001000: 571035 570191 519280 596866 490098
0110010011100000100001000: 571035 570191 519280 596866 642074
0110010011100000100001000: 571035 570191 519280 622296 503423
0110010010100010100000100: 519280 533250 571035 642074 563852
