Vertex,0111100110001100,0100101101010110,0110101111000100,0100101001010010,0111100010001000,0111101011001000,0110100110010110,0111101011011010,0110100110000100,0111100110011110,0101101101011110,0111100010011010,0100101101000100,0101101001011010,0101101101001100,0110100010010010,0110101111010110,0110101011010010,0101101001001000,0111101111001100
462691,104.0,2.0,163.0,80.0,581.0,362.0,105.0,34.0,755.0,4.0,4.0,66.0,8.0,47.0,24.0,384.0,27.0,106.0,211.0,36.0
489873,69.0,2.0,88.0,7.0,152.0,217.0,35.0,40.0,199.0,6.0,4.0,40.0,0.0,15.0,8.0,107.0,27.0,48.0,52.0,36.0
470446,50.0,0.0,66.0,17.0,191.0,171.0,35.0,40.0,246.0,6.0,4.0,26.0,2.0,16.0,4.0,134.0,27.0,32.0,59.0,36.0
597175,6.0,0.0,12.0,14.0,200.0,30.0,0.0,0.0,171.0,0.0,0.0,6.0,0.0,0.0,0.0,85.0,0.0,6.0,46.0,0.0
521309,32.0,0.0,54.0,24.0,184.0,118.0,0.0,12.0,214.0,0.0,0.0,20.0,0.0,0.0,8.0,110.0,10.0,36.0,65.0,18.0
512273,6.0,0.0,12.0,22.0,215.0,30.0,70.0,0.0,212.0,0.0,0.0,6.0,2.0,32.0,0.0,115.0,0.0,6.0,63.0,0.0
485194,40.0,0.0,66.0,15.0,214.0,140.0,35.0,12.0,246.0,0.0,0.0,22.0,4.0,16.0,12.0,120.0,10.0,48.0,72.0,18.0
635653,70.0,0.0,116.0,39.0,189.0,248.0,0.0,12.0,333.0,0.0,0.0,40.0,6.0,0.0,20.0,185.0,10.0,82.0,93.0,18.0
629508,6.0,0.0,12.0,30.0,215.0,30.0,0.0,0.0,192.0,0.0,0.0,6.0,2.0,0.0,0.0,103.0,0.0,6.0,59.0,0.0
533024,14.0,0.0,24.0,23.0,200.0,49.0,35.0,0.0,162.0,0.0,0.0,8.0,0.0,15.0,4.0,88.0,0.0,18.0,48.0,0.0
520406,35.0,2.0,34.0,31.0,54.0,86.0,0.0,40.0,228.0,6.0,4.0,18.0,4.0,0.0,4.0,136.0,27.0,20.0,58.0,36.0
493926,27.0,2.0,31.0,24.0,15.0,67.0,35.0,18.0,159.0,2.0,0.0,16.0,0.0,15.0,6.0,85.0,10.0,21.0,40.0,18.0
545026,0.0,0.0,0.0,14.0,15.0,0.0,0.0,0.0,115.0,0.0,0.0,0.0,2.0,0.0,0.0,66.0,0.0,0.0,30.0,0.0
483180,8.0,0.0,12.0,23.0,15.0,21.0,0.0,0.0,131.0,0.0,0.0,2.0,2.0,0.0,4.0,80.0,0.0,12.0,43.0,0.0
459432,16.0,0.0,15.0,10.0,39.0,40.0,35.0,0.0,145.0,0.0,0.0,4.0,4.0,16.0,2.0,73.0,0.0,7.0,37.0,0.0
584379,8.0,0.0,12.0,14.0,45.0,21.0,35.0,0.0,142.0,0.0,0.0,2.0,6.0,16.0,4.0,71.0,0.0,12.0,43.0,0.0
539786,8.0,0.0,12.0,2.0,30.0,21.0,0.0,0.0,77.0,0.0,0.0,2.0,4.0,0.0,4.0,33.0,0.0,12.0,22.0,0.0
586410,10.0,0.0,14.0,10.0,39.0,28.0,0.0,0.0,125.0,0.0,0.0,4.0,2.0,0.0,4.0,60.0,0.0,10.0,30.0,0.0
492189,10.0,0.0,14.0,25.0,54.0,27.0,0.0,0.0,174.0,0.0,0.0,4.0,4.0,0.0,4.0,95.0,0.0,10.0,44.0,0.0
647223,13.0,0.0,11.0,52.0,30.0,34.0,0.0,0.0,179.0,0.0,0.0,4.0,2.0,0.0,0.0,115.0,0.0,4.0,51.0,0.0
626275,0.0,0.0,0.0,14.0,0.0,0.0,0.0,0.0,62.0,0.0,0.0,0.0,0.0,0.0,0.0,37.0,0.0,0.0,12.0,0.0
558370,0.0,0.0,0.0,14.0,15.0,0.0,0.0,0.0,69.0,0.0,0.0,0.0,2.0,0.0,0.0,38.0,0.0,0.0,14.0,0.0
graph,133.0,2.0,192.0,126.0,673.0,435.0,105.0,52.0,1084.0,6.0,4.0,74.0,14.0,47.0,28.0,580.0,37.0,124.0,298.0,54.0
