Vertex,0110010010100010100000100,0110010011100100110001000,0111110100110001000010000,0111010101110001000001000,0111010101110001000101010,0111010100110001000100010,0110010011100000100001000
551502,14.0,2.0,2.0,4.0,2.0,6.0,7.0
612289,21.0,2.0,1.0,5.0,2.0,7.0,7.0
594054,23.0,2.0,1.0,3.0,2.0,6.0,7.0
466328,12.0,2.0,2.0,2.0,2.0,5.0,8.0
527220,16.0,1.0,1.0,2.0,0.0,2.0,7.0
524104,19.0,0.0,1.0,4.0,1.0,7.0,7.0
509669,6.0,0.0,1.0,1.0,1.0,6.0,5.0
604393,20.0,1.0,1.0,1.0,0.0,2.0,10.0
554681,21.0,0.0,0.0,3.0,0.0,1.0,6.0
626964,27.0,0.0,0.0,0.0,0.0,2.0,10.0
572852,21.0,0.0,0.0,0.0,0.0,0.0,8.0
569975,15.0,0.0,0.0,0.0,0.0,1.0,7.0
509879,8.0,0.0,0.0,0.0,0.0,0.0,5.0
636775,5.0,0.0,0.0,0.0,0.0,0.0,1.0
536650,2.0,0.0,0.0,0.0,0.0,0.0,0.0
graph,46.0,2.0,2.0,5.0,2.0,9.0,19.0
