Vertex,0111010100110001000100010,0110010011100000100001000,0110010010100010100100110,0111010101110001000001000,0111110110110001100010000,0111110100110001000110010,0110010011100100110001000,0111010101110001000101010,0110010011100110110001100,0111110000100001000010000,0111110100110001000010000,0111010110110011100000100,0110010010100010100000100
508192,33.0,177.0,12.0,44.0,4.0,3.0,22.0,8.0,1.0,11.0,22.0,8.0,161.0
477967,20.0,76.0,4.0,32.0,0.0,2.0,11.0,5.0,0.0,2.0,11.0,1.0,100.0
534658,28.0,79.0,4.0,31.0,4.0,3.0,4.0,5.0,0.0,5.0,22.0,8.0,51.0
514757,4.0,52.0,1.0,12.0,0.0,0.0,9.0,2.0,0.0,2.0,3.0,0.0,60.0
629423,22.0,161.0,14.0,17.0,4.0,1.0,32.0,5.0,2.0,12.0,13.0,8.0,135.0
463908,8.0,83.0,6.0,10.0,0.0,0.0,11.0,1.0,0.0,2.0,3.0,1.0,89.0
557131,6.0,78.0,2.0,8.0,0.0,0.0,8.0,1.0,0.0,4.0,6.0,1.0,76.0
587163,37.0,196.0,13.0,39.0,7.0,4.0,46.0,15.0,3.0,16.0,32.0,13.0,140.0
623919,11.0,104.0,6.0,9.0,0.0,0.0,5.0,0.0,0.0,5.0,6.0,1.0,102.0
474307,32.0,109.0,7.0,56.0,1.0,4.0,24.0,13.0,1.0,4.0,21.0,1.0,108.0
465107,2.0,15.0,0.0,0.0,0.0,0.0,1.0,0.0,0.0,0.0,0.0,0.0,27.0
596866,8.0,107.0,6.0,13.0,1.0,0.0,31.0,4.0,2.0,12.0,12.0,1.0,70.0
519319,39.0,125.0,7.0,52.0,4.0,5.0,28.0,12.0,2.0,8.0,26.0,6.0,111.0
473081,2.0,87.0,2.0,19.0,1.0,0.0,17.0,4.0,1.0,9.0,14.0,1.0,44.0
634398,23.0,60.0,2.0,27.0,4.0,4.0,3.0,4.0,0.0,5.0,17.0,6.0,47.0
528372,13.0,104.0,10.0,6.0,0.0,0.0,16.0,1.0,1.0,3.0,2.0,2.0,126.0
551462,8.0,68.0,3.0,12.0,1.0,0.0,4.0,0.0,0.0,2.0,7.0,0.0,55.0
471164,22.0,125.0,9.0,39.0,1.0,3.0,32.0,10.0,2.0,5.0,14.0,1.0,122.0
521223,17.0,73.0,7.0,9.0,3.0,1.0,6.0,0.0,0.0,3.0,4.0,6.0,65.0
648688,0.0,1.0,0.0,0.0,0.0,0.0,0.0,0.0,0.0,0.0,0.0,0.0,9.0
652459,0.0,0.0,0.0,0.0,0.0,0.0,0.0,0.0,0.0,0.0,0.0,0.0,2.0
graph,67.0,376.0,23.0,87.0,7.0,6.0,62.0,18.0,3.0,22.0,47.0,13.0,340.0
