Vertex,0111100110011110,0100101101000100,0110100110010110,0111101111011110,0101101001001000,0111101111001100,0110101111010110,0111100010001000,0111100010011010,0111100110001100,0110100110000100,0111101011001000,0101101101001100,0101101001011010,0100101001010010,0110101111000100,0101101101011110,0100101101010110,0110101011010010,0111101011011010,0110100010010010
506539,23.0,18.0,210.0,930.0,169.0,612.0,424.0,860.0,277.0,418.0,684.0,1556.0,68.0,74.0,76.0,670.0,21.0,2.0,408.0,495.0,395.0
548239,7.0,12.0,70.0,0.0,83.0,180.0,135.0,1092.0,104.0,122.0,328.0,547.0,6.0,23.0,19.0,221.0,8.0,0.0,113.0,150.0,153.0
554368,55.0,6.0,350.0,1395.0,380.0,1602.0,1163.0,5253.0,866.0,1010.0,1330.0,4517.0,96.0,144.0,0.0,1886.0,66.0,0.0,1056.0,1302.0,628.0
603064,14.0,22.0,173.0,0.0,152.0,324.0,250.0,1119.0,150.0,168.0,578.0,778.0,8.0,60.0,70.0,316.0,17.0,0.0,162.0,276.0,313.0
509719,26.0,28.0,245.0,930.0,184.0,648.0,465.0,949.0,258.0,382.0,729.0,1432.0,56.0,101.0,66.0,612.0,26.0,2.0,364.0,525.0,412.0
525586,17.0,26.0,212.0,310.0,156.0,396.0,304.0,935.0,238.0,294.0,584.0,1104.0,34.0,70.0,65.0,465.0,20.0,8.0,265.0,334.0,313.0
491840,2.0,0.0,70.0,155.0,131.0,234.0,130.0,1158.0,118.0,154.0,480.0,646.0,20.0,32.0,19.0,274.0,0.0,0.0,160.0,160.0,232.0
550435,6.0,4.0,70.0,775.0,176.0,324.0,208.0,942.0,200.0,296.0,589.0,1150.0,54.0,30.0,52.0,504.0,10.0,0.0,317.0,240.0,303.0
583933,9.0,26.0,210.0,0.0,184.0,180.0,128.0,1231.0,112.0,154.0,715.0,630.0,18.0,83.0,90.0,263.0,7.0,0.0,147.0,152.0,399.0
542649,0.0,18.0,105.0,0.0,179.0,0.0,0.0,181.0,20.0,71.0,661.0,188.0,28.0,48.0,107.0,97.0,0.0,0.0,82.0,0.0,386.0
557269,32.0,42.0,418.0,775.0,309.0,846.0,645.0,1096.0,326.0,452.0,1093.0,1702.0,90.0,152.0,122.0,750.0,48.0,4.0,467.0,705.0,571.0
652495,0.0,6.0,70.0,0.0,108.0,0.0,0.0,69.0,10.0,40.0,399.0,104.0,18.0,32.0,26.0,57.0,0.0,0.0,53.0,0.0,216.0
550604,8.0,16.0,70.0,155.0,142.0,162.0,125.0,1068.0,122.0,161.0,505.0,675.0,22.0,32.0,66.0,288.0,12.0,0.0,171.0,141.0,278.0
600677,3.0,6.0,0.0,155.0,72.0,72.0,61.0,933.0,155.0,168.0,246.0,702.0,10.0,0.0,17.0,287.0,5.0,6.0,151.0,64.0,117.0
637960,9.0,20.0,247.0,0.0,182.0,252.0,189.0,1231.0,135.0,164.0,652.0,672.0,24.0,92.0,69.0,291.0,12.0,2.0,178.0,204.0,339.0
525990,12.0,20.0,282.0,155.0,194.0,252.0,189.0,1139.0,209.0,237.0,726.0,921.0,26.0,99.0,80.0,387.0,13.0,6.0,217.0,212.0,381.0
515104,0.0,10.0,70.0,0.0,127.0,0.0,0.0,99.0,24.0,81.0,414.0,210.0,38.0,30.0,30.0,119.0,0.0,0.0,109.0,0.0,200.0
474258,6.0,10.0,70.0,0.0,80.0,162.0,125.0,1043.0,108.0,123.0,304.0,563.0,4.0,31.0,8.0,226.0,9.0,0.0,114.0,137.0,139.0
613450,13.0,32.0,208.0,0.0,197.0,306.0,247.0,1040.0,154.0,190.0,701.0,824.0,18.0,87.0,102.0,343.0,17.0,0.0,189.0,262.0,381.0
612063,6.0,10.0,177.0,0.0,177.0,54.0,58.0,191.0,120.0,149.0,689.0,457.0,42.0,58.0,53.0,216.0,9.0,2.0,147.0,55.0,334.0
545207,7.0,10.0,138.0,0.0,118.0,252.0,189.0,1077.0,128.0,134.0,402.0,648.0,4.0,58.0,30.0,262.0,11.0,0.0,134.0,202.0,199.0
468833,0.0,4.0,105.0,155.0,68.0,0.0,0.0,883.0,172.0,162.0,292.0,718.0,12.0,32.0,22.0,298.0,0.0,0.0,164.0,0.0,146.0
629384,0.0,0.0,0.0,155.0,24.0,0.0,0.0,848.0,147.0,136.0,111.0,663.0,2.0,0.0,9.0,267.0,0.0,0.0,135.0,0.0,48.0
640838,0.0,0.0,0.0,155.0,24.0,0.0,0.0,848.0,147.0,136.0,111.0,663.0,2.0,0.0,9.0,267.0,0.0,0.0,135.0,0.0,48.0
627669,1.0,6.0,35.0,0.0,98.0,54.0,37.0,1061.0,92.0,101.0,333.0,475.0,6.0,16.0,37.0,195.0,1.0,0.0,105.0,40.0,187.0
528983,0.0,8.0,35.0,0.0,110.0,0.0,0.0,54.0,8.0,29.0,380.0,75.0,14.0,16.0,36.0,43.0,0.0,0.0,41.0,0.0,218.0
graph,64.0,90.0,910.0,1550.0,956.0,1728.0,1268.0,6600.0,1100.0,1383.0,3509.0,5655.0,180.0,350.0,320.0,2401.0,78.0,8.0,1396.0,1414.0,1834.0
