Vertex,0111101011001000,0111100110001100,0111101011011010,0100101101010110,0110101111010110,0101101101011110,0111100110011110,0101101101001100,0100101001010010,0110101011010010,0110100110000100,0111101111001100,0111100010011010,0111100010001000,0110100010010010,0101101001001000,0110101111000100
460836,83.0,19.0,0.0,0.0,0.0,0.0,0.0,2.0,0.0,19.0,56.0,0.0,16.0,24.0,27.0,16.0,35.0
466926,83.0,19.0,0.0,0.0,0.0,0.0,0.0,2.0,0.0,19.0,28.0,0.0,16.0,24.0,12.0,8.0,35.0
648339,220.0,60.0,48.0,2.0,37.0,4.0,5.0,10.0,16.0,51.0,154.0,54.0,44.0,48.0,85.0,44.0,93.0
584174,13.0,5.0,0.0,0.0,0.0,0.0,0.0,2.0,0.0,5.0,28.0,0.0,2.0,0.0,15.0,8.0,7.0
624722,113.0,34.0,54.0,2.0,44.0,6.0,7.0,4.0,10.0,24.0,119.0,54.0,34.0,32.0,58.0,28.0,47.0
629685,148.0,49.0,30.0,2.0,20.0,0.0,3.0,6.0,14.0,31.0,154.0,36.0,38.0,31.0,78.0,26.0,60.0
608504,136.0,42.0,68.0,0.0,54.0,6.0,8.0,6.0,7.0,29.0,115.0,72.0,28.0,31.0,62.0,18.0,56.0
505984,64.0,15.0,14.0,0.0,10.0,0.0,1.0,2.0,0.0,15.0,59.0,18.0,12.0,47.0,22.0,12.0,27.0
605280,63.0,24.0,38.0,2.0,34.0,6.0,5.0,4.0,9.0,14.0,96.0,36.0,24.0,0.0,50.0,22.0,27.0
461736,50.0,18.0,20.0,2.0,17.0,2.0,3.0,4.0,23.0,12.0,106.0,18.0,14.0,0.0,74.0,32.0,22.0
525852,54.0,23.0,22.0,2.0,10.0,0.0,4.0,4.0,14.0,12.0,118.0,18.0,14.0,15.0,59.0,18.0,22.0
595709,38.0,16.0,0.0,0.0,0.0,0.0,0.0,2.0,19.0,7.0,73.0,0.0,4.0,0.0,50.0,20.0,15.0
643442,38.0,18.0,22.0,2.0,10.0,0.0,4.0,0.0,9.0,4.0,48.0,18.0,12.0,0.0,30.0,10.0,12.0
588121,38.0,18.0,22.0,2.0,10.0,0.0,4.0,0.0,9.0,4.0,48.0,18.0,12.0,0.0,30.0,10.0,12.0
606310,19.0,8.0,22.0,0.0,10.0,0.0,4.0,0.0,18.0,2.0,70.0,18.0,2.0,0.0,40.0,16.0,6.0
graph,290.0,92.0,90.0,4.0,64.0,6.0,12.0,12.0,37.0,62.0,318.0,90.0,68.0,63.0,173.0,72.0,119.0
