Vertex,0110010010100010100100110,0111110110110101110010000,0111110111110101110011000,0111110111110001100011000,0111110110110001100010000,0111110100110001000110010,0111010101110001000101010,0110010011100000100001000,0111110100110001000010000,0111110000100001000010000,0110010010100010100000100,0111110110110011100010100,0111010110110011100000100,0111010100110001000100010,0111010101110001000001000,0110010011100100110001000,0111110110110011100110110
478624,2.0,0.0,1.0,14.0,27.0,0.0,4.0,164.0,72.0,121.0,29.0,6.0,13.0,14.0,11.0,21.0,0.0
563852,2.0,5.0,6.0,31.0,88.0,0.0,2.0,130.0,58.0,35.0,48.0,33.0,19.0,18.0,24.0,6.0,1.0
524640,1.0,0.0,0.0,0.0,0.0,0.0,2.0,105.0,1.0,0.0,23.0,0.0,8.0,18.0,12.0,11.0,0.0
578937,0.0,0.0,1.0,14.0,26.0,6.0,0.0,91.0,91.0,91.0,12.0,11.0,3.0,8.0,5.0,3.0,0.0
654198,1.0,0.0,1.0,0.0,35.0,5.0,2.0,71.0,86.0,88.0,21.0,5.0,3.0,13.0,17.0,11.0,0.0
572425,0.0,0.0,1.0,14.0,26.0,6.0,0.0,91.0,91.0,91.0,12.0,11.0,3.0,8.0,5.0,3.0,0.0
610350,1.0,0.0,1.0,15.0,38.0,8.0,1.0,87.0,89.0,73.0,21.0,15.0,5.0,10.0,12.0,7.0,1.0
569840,0.0,5.0,6.0,10.0,31.0,5.0,0.0,110.0,87.0,92.0,16.0,5.0,9.0,18.0,26.0,3.0,0.0
560403,1.0,5.0,6.0,10.0,30.0,10.0,1.0,60.0,109.0,61.0,15.0,10.0,5.0,14.0,29.0,2.0,0.0
537201,0.0,0.0,1.0,14.0,33.0,4.0,0.0,82.0,80.0,97.0,11.0,10.0,3.0,8.0,5.0,8.0,1.0
457554,1.0,0.0,0.0,0.0,0.0,0.0,2.0,106.0,1.0,0.0,24.0,0.0,8.0,17.0,12.0,11.0,0.0
546547,1.0,1.0,0.0,1.0,30.0,4.0,2.0,80.0,90.0,87.0,21.0,7.0,2.0,14.0,12.0,12.0,0.0
554368,0.0,5.0,6.0,31.0,113.0,17.0,4.0,197.0,276.0,234.0,5.0,34.0,22.0,37.0,38.0,20.0,1.0
503951,0.0,1.0,0.0,0.0,26.0,6.0,0.0,55.0,100.0,81.0,8.0,6.0,0.0,6.0,6.0,2.0,0.0
586691,0.0,1.0,0.0,0.0,26.0,6.0,0.0,55.0,100.0,81.0,8.0,6.0,0.0,6.0,6.0,2.0,0.0
509136,0.0,1.0,0.0,1.0,36.0,8.0,0.0,61.0,99.0,63.0,14.0,11.0,1.0,11.0,5.0,8.0,1.0
570632,0.0,1.0,0.0,0.0,0.0,0.0,0.0,50.0,0.0,0.0,12.0,0.0,6.0,5.0,20.0,0.0,0.0
graph,2.0,5.0,6.0,31.0,113.0,17.0,4.0,319.0,286.0,259.0,60.0,34.0,22.0,45.0,49.0,26.0,1.0
