Vertex,0111100110001100,0111100010011010,0101101101001100,0110100110010110,0111101011001000,0110101011010010,0101101001011010,0100101001010010,0110101111000100,0101101001001000,0111100110011110,0100101101000100,0110100110000100,0110100010010010,0111100010001000,0111101111001100,0111101011011010,0110101111010110,0100101101010110
494434,40.0,36.0,4.0,68.0,104.0,20.0,21.0,53.0,41.0,88.0,0.0,6.0,296.0,143.0,115.0,0.0,0.0,0.0,6.0
523053,4.0,4.0,0.0,33.0,20.0,4.0,12.0,16.0,8.0,36.0,0.0,0.0,111.0,50.0,80.0,0.0,0.0,0.0,0.0
570276,36.0,32.0,6.0,33.0,91.0,21.0,12.0,52.0,39.0,68.0,0.0,0.0,211.0,108.0,56.0,0.0,0.0,0.0,4.0
490575,20.0,12.0,2.0,70.0,52.0,9.0,15.0,34.0,19.0,47.0,0.0,4.0,199.0,102.0,105.0,0.0,0.0,0.0,0.0
628872,24.0,16.0,4.0,0.0,72.0,16.0,0.0,17.0,30.0,31.0,0.0,0.0,125.0,65.0,24.0,0.0,0.0,0.0,2.0
520292,47.0,30.0,0.0,35.0,119.0,14.0,9.0,13.0,38.0,42.0,2.0,2.0,170.0,91.0,79.0,18.0,16.0,10.0,4.0
609402,26.0,24.0,4.0,35.0,70.0,16.0,6.0,19.0,30.0,31.0,0.0,4.0,130.0,76.0,59.0,0.0,0.0,0.0,2.0
648011,26.0,18.0,4.0,33.0,82.0,18.0,12.0,17.0,34.0,44.0,0.0,0.0,133.0,60.0,64.0,0.0,0.0,0.0,2.0
606424,44.0,26.0,2.0,70.0,101.0,13.0,15.0,36.0,33.0,44.0,2.0,6.0,205.0,121.0,104.0,18.0,16.0,10.0,4.0
607306,8.0,2.0,2.0,0.0,21.0,5.0,0.0,13.0,9.0,16.0,0.0,0.0,75.0,51.0,0.0,0.0,0.0,0.0,0.0
498748,11.0,12.0,0.0,0.0,27.0,4.0,0.0,0.0,10.0,10.0,2.0,2.0,67.0,23.0,39.0,18.0,16.0,10.0,2.0
566580,45.0,28.0,0.0,0.0,109.0,12.0,0.0,15.0,34.0,24.0,2.0,0.0,130.0,79.0,30.0,18.0,16.0,10.0,4.0
528733,2.0,2.0,0.0,0.0,10.0,2.0,0.0,6.0,4.0,13.0,0.0,0.0,37.0,15.0,40.0,0.0,0.0,0.0,0.0
549791,34.0,26.0,4.0,35.0,91.0,18.0,6.0,28.0,36.0,32.0,0.0,0.0,133.0,75.0,54.0,0.0,0.0,0.0,2.0
644780,13.0,4.0,0.0,0.0,35.0,4.0,0.0,13.0,11.0,10.0,0.0,0.0,70.0,45.0,15.0,0.0,0.0,0.0,0.0
graph,95.0,68.0,8.0,103.0,251.0,44.0,27.0,83.0,94.0,134.0,2.0,6.0,523.0,276.0,216.0,18.0,16.0,10.0,8.0
