Vertex,0110010011100100110001000,0111110110110101110010000,0111010110110011100000100,0111110110110011100010100,0110010010100010100100110,0110010011100110110001100,0111110000100001000010000,0110010010100010100000100,0111110111110111110111110,0111010101110001000001000,0111010101110001000101010,0111110111110111110011100,0111110110110001100010000,0111010100110001000100010,0111010110110011100100110,0111110110110011100110110,0111110100110001000110010,0111110100110001000010000,0110010011100000100001000,0111110111110101110011000,0111110111110001100011000
606405,89.0,27.0,63.0,78.0,4.0,8.0,378.0,183.0,0.0,170.0,22.0,8.0,312.0,84.0,7.0,10.0,26.0,424.0,451.0,32.0,46.0
483545,91.0,34.0,65.0,72.0,8.0,1.0,325.0,251.0,0.0,215.0,29.0,5.0,279.0,130.0,7.0,4.0,50.0,485.0,541.0,30.0,33.0
508057,41.0,13.0,19.0,41.0,2.0,1.0,438.0,97.0,0.0,78.0,4.0,0.0,179.0,44.0,0.0,2.0,21.0,442.0,359.0,4.0,8.0
642577,46.0,13.0,36.0,0.0,1.0,1.0,10.0,102.0,0.0,205.0,9.0,0.0,30.0,26.0,5.0,0.0,0.0,23.0,318.0,0.0,0.0
556036,115.0,11.0,42.0,84.0,7.0,11.0,415.0,199.0,0.0,156.0,28.0,4.0,315.0,71.0,6.0,11.0,30.0,437.0,571.0,21.0,61.0
482321,34.0,13.0,15.0,40.0,4.0,0.0,446.0,108.0,0.0,89.0,4.0,0.0,190.0,42.0,0.0,1.0,24.0,432.0,364.0,4.0,8.0
548851,172.0,66.0,169.0,148.0,8.0,9.0,257.0,317.0,1.0,465.0,51.0,18.0,512.0,104.0,23.0,13.0,27.0,485.0,836.0,70.0,86.0
459611,66.0,24.0,31.0,32.0,7.0,0.0,500.0,158.0,0.0,108.0,19.0,2.0,186.0,74.0,2.0,0.0,24.0,411.0,463.0,8.0,23.0
521580,164.0,122.0,134.0,115.0,2.0,15.0,144.0,263.0,2.0,372.0,56.0,20.0,489.0,138.0,23.0,17.0,48.0,475.0,443.0,81.0,79.0
617770,125.0,98.0,136.0,76.0,5.0,5.0,359.0,196.0,2.0,388.0,44.0,16.0,390.0,132.0,20.0,9.0,22.0,486.0,597.0,72.0,41.0
603857,198.0,45.0,98.0,135.0,9.0,16.0,190.0,332.0,0.0,252.0,49.0,9.0,429.0,150.0,18.0,22.0,37.0,434.0,609.0,51.0,74.0
537027,107.0,4.0,34.0,29.0,5.0,10.0,587.0,135.0,0.0,123.0,23.0,0.0,221.0,46.0,4.0,5.0,7.0,364.0,558.0,15.0,49.0
459891,122.0,14.0,55.0,34.0,1.0,2.0,576.0,161.0,0.0,166.0,20.0,3.0,226.0,74.0,7.0,0.0,12.0,392.0,692.0,19.0,42.0
466328,85.0,13.0,27.0,46.0,2.0,10.0,560.0,91.0,0.0,156.0,21.0,4.0,275.0,26.0,6.0,8.0,12.0,393.0,465.0,19.0,54.0
470751,217.0,102.0,143.0,97.0,10.0,6.0,346.0,332.0,2.0,474.0,75.0,14.0,382.0,166.0,19.0,6.0,37.0,571.0,882.0,59.0,35.0
466632,122.0,14.0,55.0,34.0,0.0,2.0,576.0,157.0,0.0,167.0,19.0,3.0,226.0,75.0,7.0,0.0,12.0,392.0,690.0,19.0,42.0
474884,58.0,50.0,37.0,61.0,0.0,0.0,410.0,138.0,1.0,183.0,20.0,7.0,278.0,67.0,3.0,3.0,35.0,469.0,399.0,26.0,29.0
554368,178.0,173.0,219.0,272.0,0.0,2.0,1962.0,52.0,2.0,591.0,52.0,27.0,1243.0,238.0,16.0,26.0,132.0,2028.0,1491.0,125.0,182.0
584704,58.0,10.0,73.0,9.0,7.0,0.0,42.0,144.0,0.0,212.0,18.0,0.0,48.0,56.0,2.0,0.0,1.0,55.0,530.0,5.0,1.0
599335,34.0,12.0,11.0,30.0,1.0,0.0,484.0,88.0,0.0,82.0,0.0,0.0,183.0,41.0,0.0,0.0,34.0,425.0,351.0,5.0,23.0
634748,71.0,11.0,25.0,22.0,0.0,2.0,581.0,76.0,0.0,103.0,11.0,0.0,180.0,38.0,2.0,0.0,4.0,406.0,521.0,7.0,21.0
552106,48.0,11.0,48.0,17.0,0.0,0.0,63.0,106.0,0.0,230.0,19.0,0.0,60.0,69.0,1.0,0.0,1.0,82.0,558.0,3.0,0.0
530138,54.0,9.0,31.0,46.0,1.0,0.0,424.0,130.0,0.0,113.0,5.0,0.0,230.0,39.0,3.0,3.0,41.0,448.0,452.0,10.0,22.0
521973,99.0,10.0,46.0,0.0,5.0,2.0,42.0,165.0,0.0,145.0,24.0,0.0,25.0,65.0,5.0,0.0,0.0,48.0,555.0,0.0,0.0
603800,98.0,10.0,37.0,0.0,0.0,2.0,42.0,156.0,0.0,142.0,20.0,0.0,24.0,74.0,5.0,0.0,0.0,48.0,524.0,0.0,0.0
554315,36.0,17.0,3.0,0.0,0.0,0.0,582.0,53.0,0.0,58.0,13.0,0.0,146.0,38.0,1.0,0.0,0.0,395.0,356.0,0.0,0.0
475345,15.0,17.0,3.0,22.0,1.0,0.0,396.0,86.0,0.0,58.0,0.0,0.0,167.0,47.0,0.0,0.0,53.0,484.0,253.0,0.0,1.0
657439,47.0,2.0,30.0,0.0,0.0,0.0,0.0,114.0,0.0,64.0,0.0,0.0,0.0,66.0,3.0,0.0,0.0,6.0,346.0,0.0,0.0
graph,518.0,189.0,337.0,308.0,18.0,21.0,2227.0,878.0,2.0,1113.0,131.0,28.0,1445.0,444.0,39.0,28.0,138.0,2308.0,3035.0,137.0,192.0
