Vertex,0111110100110001000110010,0111110110110001100010000,0111110111110001100011000,0111010100110001000100010,0111110100110001000010000,0110010010100010100100110,0111110000100001000010000,0110010011100100110001000,0111010101110001000101010,0111010110110011100000100,0111110110110011100010100,0111010101110001000001000,0111010110110011100100110,0110010011100000100001000,0110010010100010100000100
483619,11.0,46.0,2.0,73.0,99.0,3.0,59.0,14.0,5.0,29.0,11.0,72.0,1.0,295.0,88.0
635829,7.0,21.0,2.0,31.0,40.0,0.0,9.0,2.0,0.0,9.0,6.0,19.0,0.0,60.0,33.0
614937,3.0,14.0,1.0,11.0,34.0,0.0,30.0,2.0,0.0,4.0,2.0,10.0,0.0,80.0,14.0
553724,3.0,19.0,1.0,25.0,35.0,4.0,21.0,1.0,1.0,10.0,7.0,25.0,0.0,101.0,63.0
598684,0.0,1.0,0.0,12.0,0.0,3.0,0.0,0.0,0.0,3.0,0.0,12.0,0.0,39.0,71.0
599739,5.0,17.0,1.0,28.0,44.0,1.0,17.0,14.0,5.0,13.0,6.0,33.0,1.0,83.0,55.0
485547,0.0,2.0,0.0,16.0,2.0,0.0,0.0,2.0,0.0,9.0,1.0,7.0,0.0,58.0,23.0
521556,1.0,5.0,0.0,19.0,6.0,1.0,2.0,14.0,5.0,9.0,1.0,24.0,1.0,81.0,40.0
485470,4.0,14.0,0.0,26.0,42.0,1.0,26.0,0.0,2.0,9.0,3.0,23.0,0.0,111.0,45.0
573347,0.0,1.0,0.0,9.0,0.0,1.0,0.0,0.0,0.0,1.0,0.0,10.0,0.0,34.0,34.0
515064,10.0,19.0,0.0,26.0,48.0,2.0,15.0,5.0,3.0,12.0,4.0,45.0,1.0,53.0,30.0
488473,7.0,16.0,0.0,48.0,46.0,2.0,29.0,9.0,2.0,11.0,2.0,37.0,1.0,176.0,75.0
642016,2.0,1.0,0.0,17.0,6.0,0.0,1.0,1.0,0.0,1.0,0.0,13.0,0.0,42.0,13.0
481484,0.0,1.0,0.0,11.0,7.0,2.0,2.0,1.0,0.0,1.0,0.0,10.0,0.0,65.0,40.0
513164,2.0,1.0,0.0,19.0,6.0,0.0,1.0,1.0,0.0,1.0,0.0,13.0,0.0,46.0,24.0
494477,0.0,9.0,0.0,1.0,38.0,0.0,37.0,2.0,0.0,2.0,0.0,12.0,0.0,84.0,7.0
499045,3.0,14.0,1.0,23.0,35.0,2.0,30.0,2.0,0.0,6.0,2.0,22.0,0.0,125.0,61.0
644306,0.0,0.0,0.0,8.0,1.0,1.0,0.0,0.0,0.0,2.0,0.0,6.0,0.0,39.0,36.0
627680,0.0,0.0,0.0,8.0,1.0,1.0,0.0,0.0,0.0,2.0,0.0,6.0,0.0,44.0,45.0
476801,2.0,29.0,2.0,27.0,30.0,1.0,16.0,0.0,2.0,11.0,10.0,17.0,0.0,75.0,47.0
598886,0.0,0.0,0.0,2.0,0.0,0.0,0.0,0.0,0.0,0.0,0.0,4.0,0.0,4.0,11.0
graph,12.0,46.0,2.0,88.0,104.0,5.0,59.0,14.0,5.0,29.0,11.0,84.0,1.0,339.0,171.0
