0110010010100010100000100: 570191 463114 612496 509643 552777
0111010101110001000001000: 570191 463114 520883 612496 509643
0110010010100010100000100: 570191 520883 612496 522039 552777
0111010101110001000001000: 570191 520883 463114 612496 522039
0111010100110001000100010: 570191 520883 463114 612496 552777
0111010110110011100000100: 570191 520883 463114 592914 509643
0111010101110001000001000: 570191 520883 592914 612496 522039
0111110110110001100010000: 570191 520883 592914 463114 612496
0111010110110011100000100: 570191 520883 592914 463114 490708
0110010010100010100000100: 570191 592914 612496 490708 552777
0110010010100010100000100: 570191 592914 463114 490708 509643
0111010101110001000001000: 570191 592914 520883 612496 490708
0111010100110001000100010: 570191 592914 520883 612496 552777
0110010010100010100000100: 592914 520883 490708 463114 476323
0110010011100000100001000: 592914 520883 490708 522039 463114
0110010010100010100000100: 592914 520883 490708 522039 476323
0111010101110001000001000: 592914 520883 570191 490708 522039
0110010010100010100000100: 592914 570191 490708 612496 476323
0110010011100000100001000: 592914 570191 490708 463114 612496
0110010010100010100000100: 592914 570191 490708 463114 476323
0111010100110001000100010: 592914 570191 520883 490708 476323
0111010101110001000001000: 520883 463114 570191 522039 509643
0110010010100010100000100: 520883 592914 463114 490708 509643
0111110110110001100010000: 520883 570191 592914 463114 522039
0110010010100010100000100: 463114 520883 509643 522039 492658
0110010011100000100001000: 463114 520883 509643 592914 522039
0110010010100010100000100: 463114 520883 509643 592914 492658
0110010010100010100000100: 463114 570191 509643 612496 492658
0110010011100000100001000: 463114 570191 509643 592914 612496
0110010010100010100000100: 463114 570191 509643 592914 492658
0111010100110001000100010: 463114 570191 520883 509643 492658
0110010010100010100000100: 509643 463114 492658 520883 553133
0110010010100010100000100: 509643 463114 492658 570191 553133
0110010010100010100000100: 476323 490708 553133 592914 492658
0110010010100010100000100: 490708 592914 476323 520883 553133
0110010010100010100000100: 490708 592914 476323 570191 553133
0110010011100000100001000: 612496 570191 552777 592914 463114
0110010010100010100000100: 612496 552777 570191 497802 463114
0110010010100010100000100: 612496 552777 570191 497802 520883
0110010010100010100000100: 612496 552777 570191 497802 592914
0110010010100010100000100: 492658 509643 553133 463114 476323
0110010010100010100000100: 553133 476323 492658 490708 509643
