0110010010100010100000100: 554368 512730 556359 588759 533679
0110010010100010100000100: 554368 562853 556359 588759 533679
0111110000100001000010000: 554368 592022 562853 512730 556359
0111010110110011100000100: 554368 592022 522808 561428 533679
0111010110110011100000100: 554368 592022 522808 561428 553826
0111010110110011100000100: 554368 592022 522808 513622 553826
0111110110110001100010000: 554368 592022 561428 522808 556359
0111110110110001100010000: 554368 592022 561428 522808 512730
0111110110110001100010000: 554368 592022 561428 522808 562853
0111010110110011100000100: 554368 592022 561428 522808 588759
0111010110110011100000100: 554368 592022 561428 522808 584550
0111110110110001100010000: 554368 592022 513622 522808 556359
0111110110110001100010000: 554368 592022 513622 522808 512730
0111110110110001100010000: 554368 592022 513622 522808 562853
0111110110110001100010000: 554368 592022 513622 522808 586397
0111110110110001100010000: 554368 592022 513622 522808 645302
0111110110110001100010000: 554368 592022 513622 522808 625606
0111010110110011100100110: 554368 592022 513622 522808 533679
0111110111110101110011000: 554368 592022 513622 561428 522808
0110010011100100110001000: 554368 522808 556359 533679 553826
0110010010100010100000100: 554368 522808 512730 533679 588759
0110010011100000100001000: 554368 522808 512730 553826 533679
0110010010100010100000100: 554368 522808 512730 553826 588759
0111110000100001000010000: 554368 522808 562853 512730 556359
0110010010100010100000100: 554368 522808 562853 533679 588759
0110010011100000100001000: 554368 522808 562853 553826 533679
0110010010100010100000100: 554368 522808 562853 553826 588759
0110010011100000100001000: 554368 522808 586397 553826 533679
0110010011100000100001000: 554368 522808 645302 553826 533679
0110010011100000100001000: 554368 522808 625606 553826 533679
0110010011100000100001000: 554368 522808 561428 553826 533679
0110010011100100110001000: 554368 522808 513622 533679 553826
0111010101110001000001000: 554368 522808 592022 556359 553826
0111010101110001000101010: 554368 522808 592022 556359 533679
0111110100110001000010000: 554368 522808 592022 512730 556359
0111010101110001000001000: 554368 522808 592022 512730 533679
0111010101110001000001000: 554368 522808 592022 512730 553826
0111010100110001000100010: 554368 522808 592022 512730 588759
0111110100110001000010000: 554368 522808 592022 562853 556359
0111110100110001000010000: 554368 522808 592022 562853 512730
0111010101110001000001000: 554368 522808 592022 562853 533679
0111010101110001000001000: 554368 522808 592022 562853 553826
0111010100110001000100010: 554368 522808 592022 562853 588759
0111110100110001000010000: 554368 522808 592022 586397 556359
0111110100110001000010000: 554368 522808 592022 586397 512730
0111110100110001000010000: 554368 522808 592022 586397 562853
0111010101110001000001000: 554368 522808 592022 586397 533679
0111010101110001000001000: 554368 522808 592022 586397 553826
0111110100110001000010000: 554368 522808 592022 645302 556359
0111110100110001000010000: 554368 522808 592022 645302 512730
0111110100110001000010000: 554368 522808 592022 645302 562853
0111110100110001000010000: 554368 522808 592022 645302 586397
0111010101110001000001000: 554368 522808 592022 645302 533679
0111010101110001000001000: 554368 522808 592022 645302 553826
0111010100110001000100010: 554368 522808 592022 645302 584550
0111110100110001000010000: 554368 522808 592022 625606 556359
0111110100110001000010000: 554368 522808 592022 625606 512730
0111110100110001000010000: 554368 522808 592022 625606 562853
0111110100110001000010000: 554368 522808 592022 625606 645302
0111010101110001000001000: 554368 522808 592022 625606 533679
0111010101110001000001000: 554368 522808 592022 625606 553826
0111110000100001000010000: 554368 586397 562853 512730 556359
0111110000100001000010000: 554368 586397 592022 512730 556359
0111110000100001000010000: 554368 586397 592022 562853 556359
0111110000100001000010000: 554368 586397 592022 562853 512730
0111110000100001000010000: 554368 586397 522808 512730 556359
0111110000100001000010000: 554368 586397 522808 562853 556359
0111110000100001000010000: 554368 586397 522808 562853 512730
0110010010100010100000100: 554368 645302 556359 584550 533679
0110010010100010100000100: 554368 645302 512730 584550 588759
0111110000100001000010000: 554368 645302 562853 512730 556359
0110010010100010100000100: 554368 645302 562853 584550 588759
0111110000100001000010000: 554368 645302 592022 512730 556359
0111110000100001000010000: 554368 645302 592022 562853 556359
0111110000100001000010000: 554368 645302 592022 562853 512730
0111110000100001000010000: 554368 645302 522808 512730 556359
0111110000100001000010000: 554368 645302 522808 562853 556359
0111110000100001000010000: 554368 645302 522808 562853 512730
0110010010100010100000100: 554368 645302 522808 584550 533679
0110010010100010100100110: 554368 645302 522808 584550 553826
0111110000100001000010000: 554368 645302 586397 512730 556359
0111110000100001000010000: 554368 645302 586397 562853 556359
0111110000100001000010000: 554368 645302 586397 562853 512730
0111110000100001000010000: 554368 645302 586397 592022 556359
0111110000100001000010000: 554368 645302 586397 592022 512730
0111110000100001000010000: 554368 645302 586397 592022 562853
0111110000100001000010000: 554368 645302 586397 522808 556359
0111110000100001000010000: 554368 645302 586397 522808 512730
0111110000100001000010000: 554368 645302 586397 522808 562853
0111110000100001000010000: 554368 625606 562853 512730 556359
0111110000100001000010000: 554368 625606 592022 512730 556359
0111110000100001000010000: 554368 625606 592022 562853 556359
0111110000100001000010000: 554368 625606 592022 562853 512730
0111110000100001000010000: 554368 625606 522808 512730 556359
0111110000100001000010000: 554368 625606 522808 562853 556359
0111110000100001000010000: 554368 625606 522808 562853 512730
0111110000100001000010000: 554368 625606 645302 512730 556359
0111110000100001000010000: 554368 625606 645302 562853 556359
0111110000100001000010000: 554368 625606 645302 562853 512730
0111110000100001000010000: 554368 625606 645302 592022 556359
0111110000100001000010000: 554368 625606 645302 592022 512730
0111110000100001000010000: 554368 625606 645302 592022 562853
0111110000100001000010000: 554368 625606 645302 522808 556359
0111110000100001000010000: 554368 625606 645302 522808 512730
0111110000100001000010000: 554368 625606 645302 522808 562853
0111010100110001000100010: 554368 625606 586397 556359 533679
0111110100110001000010000: 554368 625606 586397 512730 556359
0111010100110001000100010: 554368 625606 586397 512730 588759
0111110100110001000010000: 554368 625606 586397 562853 556359
0111110100110001000010000: 554368 625606 586397 562853 512730
0111010100110001000100010: 554368 625606 586397 562853 588759
0111110100110001000010000: 554368 625606 586397 592022 556359
0111110100110001000010000: 554368 625606 586397 592022 512730
0111110100110001000010000: 554368 625606 586397 592022 562853
0111110100110001000010000: 554368 625606 586397 522808 556359
0111110100110001000010000: 554368 625606 586397 522808 512730
0111110100110001000010000: 554368 625606 586397 522808 562853
0111010100110001000100010: 554368 625606 586397 522808 533679
0111010100110001000100010: 554368 625606 586397 522808 553826
0111110100110001000110010: 554368 625606 586397 522808 592022
0111110100110001000010000: 554368 625606 586397 645302 556359
0111110100110001000010000: 554368 625606 586397 645302 512730
0111110100110001000010000: 554368 625606 586397 645302 562853
0111110100110001000010000: 554368 625606 586397 645302 592022
0111110100110001000010000: 554368 625606 586397 645302 522808
0111010100110001000100010: 554368 625606 586397 645302 584550
0111110100110001000010000: 554368 625606 586397 513622 556359
0111110100110001000010000: 554368 625606 586397 513622 512730
0111110100110001000010000: 554368 625606 586397 513622 562853
0111110100110001000010000: 554368 625606 586397 513622 522808
0111110100110001000010000: 554368 625606 586397 513622 645302
0111010100110001000100010: 554368 625606 586397 513622 533679
0110010010100010100000100: 554368 561428 556359 588759 533679
0110010011100000100001000: 554368 561428 556359 584550 588759
0110010010100010100000100: 554368 561428 556359 584550 533679
0110010011100100110001000: 554368 561428 512730 588759 584550
0111110000100001000010000: 554368 561428 562853 512730 556359
0110010011100100110001000: 554368 561428 562853 588759 584550
0111110000100001000010000: 554368 561428 522808 512730 556359
0111110000100001000010000: 554368 561428 522808 562853 556359
0111110000100001000010000: 554368 561428 522808 562853 512730
0110010010100010100000100: 554368 561428 522808 588759 533679
0110010010100010100000100: 554368 561428 522808 588759 553826
0110010011100000100001000: 554368 561428 522808 584550 588759
0110010010100010100000100: 554368 561428 522808 584550 533679
0110010010100010100100110: 554368 561428 522808 584550 553826
0111010101110001000001000: 554368 561428 592022 556359 588759
0111010101110001000001000: 554368 561428 592022 556359 584550
0111010100110001000100010: 554368 561428 592022 556359 533679
0111110100110001000010000: 554368 561428 592022 512730 556359
0111010101110001000001000: 554368 561428 592022 512730 584550
0111010101110001000101010: 554368 561428 592022 512730 588759
0111110100110001000010000: 554368 561428 592022 562853 556359
0111110100110001000010000: 554368 561428 592022 562853 512730
0111010101110001000001000: 554368 561428 592022 562853 584550
0111010101110001000101010: 554368 561428 592022 562853 588759
0111110110110011100010100: 554368 561428 592022 586397 522808
0111110110110011100010100: 554368 561428 592022 645302 522808
0111110110110011100010100: 554368 561428 592022 625606 522808
0111010101110001000001000: 554368 561428 586397 556359 588759
0111010101110001000001000: 554368 561428 586397 556359 584550
0111010100110001000100010: 554368 561428 586397 556359 533679
0111110100110001000010000: 554368 561428 586397 512730 556359
0111010101110001000001000: 554368 561428 586397 512730 584550
0111010101110001000101010: 554368 561428 586397 512730 588759
0111110100110001000010000: 554368 561428 586397 562853 556359
0111110100110001000010000: 554368 561428 586397 562853 512730
0111010101110001000001000: 554368 561428 586397 562853 584550
0111010101110001000101010: 554368 561428 586397 562853 588759
0111110100110001000010000: 554368 561428 586397 522808 556359
0111110100110001000010000: 554368 561428 586397 522808 512730
0111110100110001000010000: 554368 561428 586397 522808 562853
0111010101110001000001000: 554368 561428 586397 522808 588759
0111010101110001000001000: 554368 561428 586397 522808 584550
0111010100110001000100010: 554368 561428 586397 522808 533679
0111010100110001000100010: 554368 561428 586397 522808 553826
0111110110110001100010000: 554368 561428 586397 592022 556359
0111110110110001100010000: 554368 561428 586397 592022 512730
0111110110110001100010000: 554368 561428 586397 592022 562853
0111010101110001000001000: 554368 561428 645302 556359 588759
0111010100110001000100010: 554368 561428 645302 556359 533679
0111110100110001000010000: 554368 561428 645302 512730 556359
0111010101110001000101010: 554368 561428 645302 512730 588759
0111110100110001000010000: 554368 561428 645302 562853 556359
0111110100110001000010000: 554368 561428 645302 562853 512730
0111010101110001000101010: 554368 561428 645302 562853 588759
0111110100110001000010000: 554368 561428 645302 522808 556359
0111110100110001000010000: 554368 561428 645302 522808 512730
0111110100110001000010000: 554368 561428 645302 522808 562853
0111010101110001000001000: 554368 561428 645302 522808 588759
0111010100110001000100010: 554368 561428 645302 522808 533679
0111010100110001000100010: 554368 561428 645302 522808 553826
0111110110110001100010000: 554368 561428 645302 592022 556359
0111110110110001100010000: 554368 561428 645302 592022 512730
0111110110110001100010000: 554368 561428 645302 592022 562853
0111110110110001100010000: 554368 561428 645302 586397 556359
0111110110110001100010000: 554368 561428 645302 586397 512730
0111110110110001100010000: 554368 561428 645302 586397 562853
0111110110110001100010000: 554368 561428 645302 586397 522808
0111110111110001100011000: 554368 561428 645302 586397 592022
0111010101110001000001000: 554368 561428 625606 556359 588759
0111010101110001000001000: 554368 561428 625606 556359 584550
0111010100110001000100010: 554368 561428 625606 556359 533679
0111110100110001000010000: 554368 561428 625606 512730 556359
0111010101110001000001000: 554368 561428 625606 512730 584550
0111010101110001000101010: 554368 561428 625606 512730 588759
0111110100110001000010000: 554368 561428 625606 562853 556359
0111110100110001000010000: 554368 561428 625606 562853 512730
0111010101110001000001000: 554368 561428 625606 562853 584550
0111010101110001000101010: 554368 561428 625606 562853 588759
0111110100110001000010000: 554368 561428 625606 522808 556359
0111110100110001000010000: 554368 561428 625606 522808 512730
0111110100110001000010000: 554368 561428 625606 522808 562853
0111010101110001000001000: 554368 561428 625606 522808 588759
0111010101110001000001000: 554368 561428 625606 522808 584550
0111010100110001000100010: 554368 561428 625606 522808 533679
0111010100110001000100010: 554368 561428 625606 522808 553826
0111110110110001100010000: 554368 561428 625606 592022 556359
0111110110110001100010000: 554368 561428 625606 592022 512730
0111110110110001100010000: 554368 561428 625606 592022 562853
0111110110110001100010000: 554368 561428 625606 645302 556359
0111110110110001100010000: 554368 561428 625606 645302 512730
0111110110110001100010000: 554368 561428 625606 645302 562853
0111110110110001100010000: 554368 561428 625606 645302 522808
0111110111110001100011000: 554368 561428 625606 645302 592022
0111110110110101110010000: 554368 561428 625606 586397 556359
0111110110110101110010000: 554368 561428 625606 586397 512730
0111110110110101110010000: 554368 561428 625606 586397 562853
0111110110110101110010000: 554368 561428 625606 586397 522808
0111110111110101110011000: 554368 561428 625606 586397 592022
0111110111110101110011000: 554368 561428 625606 586397 645302
0111110111110101110011000: 554368 561428 625606 586397 513622
0111010101110001000001000: 554368 561428 513622 556359 588759
0111010101110001000001000: 554368 561428 513622 556359 584550
0111010101110001000001000: 554368 561428 513622 512730 584550
0111010101110001000101010: 554368 561428 513622 512730 588759
0111010101110001000001000: 554368 561428 513622 562853 584550
0111010101110001000101010: 554368 561428 513622 562853 588759
0111010101110001000001000: 554368 561428 513622 522808 588759
0111010101110001000001000: 554368 561428 513622 522808 584550
0111110110110001100010000: 554368 561428 513622 586397 556359
0111110110110001100010000: 554368 561428 513622 586397 512730
0111110110110001100010000: 554368 561428 513622 586397 562853
0111110110110001100010000: 554368 561428 513622 586397 522808
0111010110110011100000100: 554368 561428 513622 586397 533679
0111110110110001100010000: 554368 561428 513622 645302 556359
0111110110110001100010000: 554368 561428 513622 645302 512730
0111110110110001100010000: 554368 561428 513622 645302 562853
0111110110110001100010000: 554368 561428 513622 645302 522808
0111110111110001100011000: 554368 561428 513622 645302 586397
0111010110110011100000100: 554368 561428 513622 645302 533679
0111110110110001100010000: 554368 561428 513622 625606 556359
0111110110110001100010000: 554368 561428 513622 625606 512730
0111110110110001100010000: 554368 561428 513622 625606 562853
0111110110110001100010000: 554368 561428 513622 625606 522808
0111110111110001100011000: 554368 561428 513622 625606 645302
0111010110110011100000100: 554368 561428 513622 625606 533679
0111110111110101110011000: 554368 561428 513622 592022 586397
0111110111110101110011000: 554368 561428 513622 592022 645302
0111110111110101110011000: 554368 561428 513622 592022 625606
0110010010100010100000100: 554368 513622 512730 533679 588759
0111110000100001000010000: 554368 513622 562853 512730 556359
0110010010100010100000100: 554368 513622 562853 533679 588759
0111110000100001000010000: 554368 513622 522808 512730 556359
0111110000100001000010000: 554368 513622 522808 562853 556359
0111110000100001000010000: 554368 513622 522808 562853 512730
0111110000100001000010000: 554368 513622 586397 512730 556359
0111110000100001000010000: 554368 513622 586397 562853 556359
0111110000100001000010000: 554368 513622 586397 562853 512730
0111110000100001000010000: 554368 513622 586397 522808 556359
0111110000100001000010000: 554368 513622 586397 522808 512730
0111110000100001000010000: 554368 513622 586397 522808 562853
0111110000100001000010000: 554368 513622 645302 512730 556359
0111110000100001000010000: 554368 513622 645302 562853 556359
0111110000100001000010000: 554368 513622 645302 562853 512730
0111110000100001000010000: 554368 513622 645302 522808 556359
0111110000100001000010000: 554368 513622 645302 522808 512730
0111110000100001000010000: 554368 513622 645302 522808 562853
0111110000100001000010000: 554368 513622 645302 586397 556359
0111110000100001000010000: 554368 513622 645302 586397 512730
0111110000100001000010000: 554368 513622 645302 586397 562853
0111110000100001000010000: 554368 513622 645302 586397 522808
0110010010100010100000100: 554368 513622 645302 533679 584550
0111110000100001000010000: 554368 513622 625606 512730 556359
0111110000100001000010000: 554368 513622 625606 562853 556359
0111110000100001000010000: 554368 513622 625606 562853 512730
0111110000100001000010000: 554368 513622 625606 522808 556359
0111110000100001000010000: 554368 513622 625606 522808 512730
0111110000100001000010000: 554368 513622 625606 522808 562853
0111110000100001000010000: 554368 513622 625606 645302 556359
0111110000100001000010000: 554368 513622 625606 645302 512730
0111110000100001000010000: 554368 513622 625606 645302 562853
0111110000100001000010000: 554368 513622 625606 645302 522808
0111010101110001000101010: 554368 513622 592022 556359 533679
0111110100110001000010000: 554368 513622 592022 512730 556359
0111010101110001000001000: 554368 513622 592022 512730 533679
0111010100110001000100010: 554368 513622 592022 512730 588759
0111110100110001000010000: 554368 513622 592022 562853 556359
0111110100110001000010000: 554368 513622 592022 562853 512730
0111010101110001000001000: 554368 513622 592022 562853 533679
0111010100110001000100010: 554368 513622 592022 562853 588759
0111110100110001000010000: 554368 513622 592022 586397 556359
0111110100110001000010000: 554368 513622 592022 586397 512730
0111110100110001000010000: 554368 513622 592022 586397 562853
0111010101110001000001000: 554368 513622 592022 586397 533679
0111110100110001000010000: 554368 513622 592022 645302 556359
0111110100110001000010000: 554368 513622 592022 645302 512730
0111110100110001000010000: 554368 513622 592022 645302 562853
0111110100110001000010000: 554368 513622 592022 645302 586397
0111010101110001000001000: 554368 513622 592022 645302 533679
0111010100110001000100010: 554368 513622 592022 645302 584550
0111110100110001000010000: 554368 513622 592022 625606 556359
0111110100110001000010000: 554368 513622 592022 625606 512730
0111110100110001000010000: 554368 513622 592022 625606 562853
0111110100110001000010000: 554368 513622 592022 625606 645302
0111010101110001000001000: 554368 513622 592022 625606 533679
0111110100110001000110010: 554368 513622 592022 625606 586397
0111010101110001000101010: 554368 513622 561428 556359 533679
0111110100110001000010000: 554368 513622 561428 512730 556359
0111010101110001000001000: 554368 513622 561428 512730 533679
0111110100110001000010000: 554368 513622 561428 562853 556359
0111110100110001000010000: 554368 513622 561428 562853 512730
0111010101110001000001000: 554368 513622 561428 562853 533679
0111110100110001000010000: 554368 513622 561428 522808 556359
0111110100110001000010000: 554368 513622 561428 522808 512730
0111110100110001000010000: 554368 513622 561428 522808 562853
0111010100110001000100010: 554368 513622 561428 522808 553826
0111010101110001000101010: 554368 513622 561428 522808 533679
0111110110110101110010000: 554368 513622 561428 592022 556359
0111110110110101110010000: 554368 513622 561428 592022 512730
0111110110110101110010000: 554368 513622 561428 592022 562853
0111010101110001000101010: 513622 592022 561428 533679 522808
0110010011100100110001000: 513622 533679 592022 522808 556359
0110010011100000100001000: 513622 533679 561428 522808 556359
0110010010100010100000100: 513622 561428 533679 588759 556359
0110010010100010100000100: 513622 561428 533679 588759 522808
0110010011100000100001000: 513622 561428 533679 584550 588759
0110010010100010100000100: 513622 561428 533679 584550 556359
0110010010100010100000100: 513622 561428 533679 584550 522808
0110010011100000100001000: 513622 561428 533679 586397 588759
0110010011100000100001000: 513622 561428 533679 586397 584550
0110010010100010100000100: 513622 561428 533679 586397 556359
0110010010100010100000100: 513622 561428 533679 586397 522808
0110010011100000100001000: 513622 561428 533679 645302 588759
0110010011100000100001000: 513622 561428 533679 645302 586397
0110010010100010100000100: 513622 561428 533679 645302 556359
0110010010100010100000100: 513622 561428 533679 645302 522808
0110010011100000100001000: 513622 561428 533679 625606 588759
0110010011100000100001000: 513622 561428 533679 625606 584550
0110010011100000100001000: 513622 561428 533679 625606 645302
0110010010100010100000100: 513622 561428 533679 625606 556359
0110010010100010100000100: 513622 561428 533679 625606 522808
0111010101110001000001000: 513622 561428 592022 533679 588759
0111010101110001000001000: 513622 561428 592022 533679 584550
0111010101110001000001000: 513622 561428 592022 533679 586397
0111010101110001000001000: 513622 561428 592022 533679 645302
0111010101110001000001000: 513622 561428 592022 533679 625606
0111010100110001000100010: 513622 561428 592022 533679 556359
0111010101110001000001000: 513622 561428 554368 533679 588759
0111010101110001000001000: 513622 561428 554368 533679 584550
0110010011100000100001000: 513622 554368 533679 562853 512730
0110010011100000100001000: 513622 554368 533679 586397 512730
0110010011100000100001000: 513622 554368 533679 586397 562853
0110010011100000100001000: 513622 554368 533679 645302 512730
0110010011100000100001000: 513622 554368 533679 645302 562853
0110010011100000100001000: 513622 554368 533679 645302 586397
0110010011100000100001000: 513622 554368 533679 625606 512730
0110010011100000100001000: 513622 554368 533679 625606 562853
0110010011100000100001000: 513622 554368 533679 625606 645302
0110010011100100110001000: 513622 554368 533679 556359 512730
0110010011100100110001000: 513622 554368 533679 556359 562853
0110010011100100110001000: 513622 554368 533679 556359 586397
0110010011100100110001000: 513622 554368 533679 556359 645302
0110010011100100110001000: 513622 554368 533679 556359 625606
0110010011100100110001000: 513622 554368 533679 522808 512730
0110010011100100110001000: 513622 554368 533679 522808 562853
0110010011100100110001000: 513622 554368 533679 522808 586397
0110010011100100110001000: 513622 554368 533679 522808 645302
0110010011100100110001000: 513622 554368 533679 522808 625606
0110010011100110110001100: 513622 554368 533679 522808 556359
0111110110110101110010000: 513622 554368 561428 592022 533679
0110010011100000100001000: 561428 588759 592022 562853 512730
0110010011100000100001000: 561428 588759 584550 562853 512730
0110010011100000100001000: 561428 588759 586397 562853 512730
0110010011100000100001000: 561428 588759 645302 562853 512730
0110010011100000100001000: 561428 588759 625606 562853 512730
0110010011100000100001000: 561428 588759 513622 562853 512730
0110010010100010100000100: 561428 592022 588759 522808 512730
0110010010100010100000100: 561428 592022 588759 522808 562853
0111010101110001000001000: 561428 592022 513622 588759 522808
0111010101110001000001000: 561428 592022 513622 584550 522808
0111010101110001000001000: 561428 592022 513622 586397 522808
0111010101110001000001000: 561428 592022 513622 645302 522808
0111010101110001000001000: 561428 592022 513622 625606 522808
0110010010100010100000100: 561428 584550 588759 553826 512730
0110010010100010100000100: 561428 584550 588759 553826 562853
0110010010100010100100110: 561428 584550 592022 553826 522808
0111010101110001000001000: 561428 584550 645302 588759 553826
0111010101110001000001000: 561428 584550 645302 592022 553826
0111010101110001000001000: 561428 584550 645302 586397 553826
0111010101110001000001000: 561428 584550 645302 625606 553826
0111010101110001000001000: 561428 584550 645302 513622 553826
0111110000100001000010000: 561428 586397 584550 592022 588759
0111110000100001000010000: 561428 645302 586397 592022 588759
0111010100110001000100010: 561428 645302 584550 588759 512730
0111010100110001000100010: 561428 645302 584550 588759 562853
0111110100110001000010000: 561428 645302 584550 592022 588759
0111010100110001000100010: 561428 645302 584550 592022 522808
0111110100110001000010000: 561428 645302 584550 586397 588759
0111110100110001000010000: 561428 645302 584550 586397 592022
0111110100110001000010000: 561428 645302 584550 625606 588759
0111110100110001000010000: 561428 645302 584550 625606 592022
0111110100110001000010000: 561428 645302 584550 513622 588759
0111110100110001000010000: 561428 645302 584550 513622 586397
0111110100110001000010000: 561428 645302 584550 513622 625606
0111010100110001000100010: 561428 645302 584550 513622 533679
0111010110110011100000100: 561428 645302 584550 554368 553826
0111110110110001100010000: 561428 645302 554368 584550 588759
0111010110110011100000100: 561428 645302 554368 584550 556359
0111010110110011100000100: 561428 645302 554368 584550 512730
0111010110110011100000100: 561428 645302 554368 584550 562853
0111010110110011100000100: 561428 645302 554368 584550 522808
0111110000100001000010000: 561428 625606 584550 592022 588759
0111110000100001000010000: 561428 625606 645302 592022 588759
0111010100110001000100010: 561428 625606 586397 588759 512730
0111010100110001000100010: 561428 625606 586397 588759 562853
0111110100110001000010000: 561428 625606 586397 592022 588759
0111010100110001000100010: 561428 625606 586397 592022 522808
0111110100110001000010000: 561428 625606 586397 584550 588759
0111110100110001000010000: 561428 625606 586397 584550 592022
0111010100110001000100010: 561428 625606 586397 584550 553826
0111110100110001000010000: 561428 625606 586397 645302 588759
0111110100110001000010000: 561428 625606 586397 645302 592022
0111110100110001000110010: 561428 625606 586397 645302 584550
0111110100110001000010000: 561428 625606 586397 513622 588759
0111110100110001000010000: 561428 625606 586397 513622 584550
0111110100110001000010000: 561428 625606 586397 513622 645302
0111010100110001000100010: 561428 625606 586397 513622 533679
0110010010100010100000100: 561428 513622 588759 533679 512730
0110010010100010100000100: 561428 513622 588759 533679 562853
0110010010100010100000100: 561428 513622 584550 533679 553826
0111110000100001000010000: 561428 513622 586397 584550 588759
0111110000100001000010000: 561428 513622 645302 586397 588759
0111110000100001000010000: 561428 513622 625606 584550 588759
0111110000100001000010000: 561428 513622 625606 645302 588759
0111010100110001000100010: 561428 513622 592022 588759 512730
0111010100110001000100010: 561428 513622 592022 588759 562853
0111110100110001000010000: 561428 513622 592022 584550 588759
0111010100110001000100010: 561428 513622 592022 584550 553826
0111110100110001000010000: 561428 513622 592022 586397 588759
0111110100110001000010000: 561428 513622 592022 586397 584550
0111110100110001000010000: 561428 513622 592022 645302 588759
0111110100110001000010000: 561428 513622 592022 645302 586397
0111110100110001000110010: 561428 513622 592022 645302 584550
0111110100110001000010000: 561428 513622 592022 625606 588759
0111110100110001000010000: 561428 513622 592022 625606 584550
0111110100110001000010000: 561428 513622 592022 625606 645302
0111110100110001000110010: 561428 513622 592022 625606 586397
0110010011100000100001000: 561428 554368 588759 522808 556359
0110010011100100110001000: 561428 554368 588759 512730 556359
0110010011100100110001000: 561428 554368 588759 512730 522808
0110010011100100110001000: 561428 554368 588759 562853 556359
0110010011100100110001000: 561428 554368 588759 562853 522808
0110010011100110110001100: 561428 554368 588759 562853 512730
0110010010100010100000100: 561428 554368 584550 556359 553826
0110010011100000100001000: 561428 554368 584550 512730 556359
0110010010100010100000100: 561428 554368 584550 512730 553826
0110010011100000100001000: 561428 554368 584550 562853 556359
0110010011100000100001000: 561428 554368 584550 562853 512730
0110010010100010100000100: 561428 554368 584550 562853 553826
0110010011100000100001000: 561428 554368 584550 522808 556359
0110010011100000100001000: 561428 554368 584550 522808 512730
0110010011100000100001000: 561428 554368 584550 522808 562853
0111110100110001000010000: 561428 554368 592022 584550 588759
0111010100110001000100010: 561428 554368 592022 584550 553826
0111110100110001000010000: 561428 554368 586397 584550 588759
0111010100110001000100010: 561428 554368 586397 584550 553826
0111110110110001100010000: 561428 554368 586397 592022 588759
0111110110110001100010000: 561428 554368 586397 592022 584550
0111110110110001100010000: 561428 554368 645302 592022 588759
0111110110110011100010100: 561428 554368 645302 592022 584550
0111110110110001100010000: 561428 554368 645302 586397 588759
0111110110110011100010100: 561428 554368 645302 586397 584550
0111110110110011100010100: 561428 554368 645302 625606 584550
0111110110110011100010100: 561428 554368 645302 513622 584550
0111110100110001000010000: 561428 554368 625606 584550 588759
0111010100110001000100010: 561428 554368 625606 584550 553826
0111110110110001100010000: 561428 554368 625606 592022 588759
0111110110110001100010000: 561428 554368 625606 592022 584550
0111110110110001100010000: 561428 554368 625606 645302 588759
0111110110110101110010000: 561428 554368 625606 586397 588759
0111110110110101110010000: 561428 554368 625606 586397 584550
0111110100110001000010000: 561428 554368 513622 584550 588759
0111010100110001000100010: 561428 554368 513622 584550 553826
0111110110110001100010000: 561428 554368 513622 586397 588759
0111110110110001100010000: 561428 554368 513622 586397 584550
0111110110110001100010000: 561428 554368 513622 645302 588759
0111110110110001100010000: 561428 554368 513622 625606 588759
0111110110110001100010000: 561428 554368 513622 625606 584550
0111110110110101110010000: 561428 554368 513622 592022 588759
0111110110110101110010000: 561428 554368 513622 592022 584550
0110010010100010100000100: 645302 554368 584550 556359 553826
0110010011100000100001000: 645302 554368 584550 512730 556359
0110010010100010100000100: 645302 554368 584550 512730 553826
0110010011100000100001000: 645302 554368 584550 562853 556359
0110010011100000100001000: 645302 554368 584550 562853 512730
0110010010100010100000100: 645302 554368 584550 562853 553826
0110010011100000100001000: 645302 554368 584550 592022 556359
0110010011100000100001000: 645302 554368 584550 592022 512730
0110010011100000100001000: 645302 554368 584550 592022 562853
0110010010100010100000100: 645302 554368 584550 592022 553826
0110010011100000100001000: 645302 554368 584550 522808 556359
0110010011100000100001000: 645302 554368 584550 522808 512730
0110010011100000100001000: 645302 554368 584550 522808 562853
0110010011100000100001000: 645302 554368 584550 586397 556359
0110010011100000100001000: 645302 554368 584550 586397 512730
0110010011100000100001000: 645302 554368 584550 586397 562853
0110010011100000100001000: 645302 554368 584550 586397 592022
0110010011100000100001000: 645302 554368 584550 586397 522808
0110010010100010100000100: 645302 554368 584550 586397 553826
0110010011100000100001000: 645302 554368 584550 625606 556359
0110010011100000100001000: 645302 554368 584550 625606 512730
0110010011100000100001000: 645302 554368 584550 625606 562853
0110010011100000100001000: 645302 554368 584550 625606 592022
0110010011100000100001000: 645302 554368 584550 625606 522808
0110010010100010100000100: 645302 554368 584550 625606 553826
0110010011100000100001000: 645302 554368 584550 513622 556359
0110010011100000100001000: 645302 554368 584550 513622 512730
0110010011100000100001000: 645302 554368 584550 513622 562853
0110010011100000100001000: 645302 554368 584550 513622 522808
0110010011100000100001000: 645302 554368 584550 513622 586397
0110010011100000100001000: 645302 554368 584550 513622 625606
0110010010100010100000100: 645302 554368 584550 513622 553826
0110010010100010100000100: 522808 533679 592022 556359 561428
0110010011100000100001000: 522808 533679 553826 513622 556359
0110010010100010100000100: 522808 553826 592022 584550 513622
0110010010100010100000100: 522808 553826 533679 584550 556359
0110010010100010100000100: 522808 553826 533679 584550 513622
0110010011100000100001000: 522808 554368 533679 562853 512730
0110010011100000100001000: 522808 554368 533679 586397 512730
0110010011100000100001000: 522808 554368 533679 586397 562853
0110010011100000100001000: 522808 554368 533679 645302 512730
0110010011100000100001000: 522808 554368 533679 645302 562853
0110010011100000100001000: 522808 554368 533679 645302 586397
0110010011100000100001000: 522808 554368 533679 625606 512730
0110010011100000100001000: 522808 554368 533679 625606 562853
0110010011100000100001000: 522808 554368 533679 625606 645302
0110010011100000100001000: 522808 554368 533679 561428 512730
0110010011100000100001000: 522808 554368 533679 561428 562853
0110010011100100110001000: 522808 554368 533679 556359 512730
0110010011100100110001000: 522808 554368 533679 556359 562853
0110010011100100110001000: 522808 554368 533679 556359 586397
0110010011100100110001000: 522808 554368 533679 556359 645302
0110010011100100110001000: 522808 554368 533679 556359 625606
0110010011100100110001000: 522808 554368 533679 556359 561428
0110010010100010100000100: 522808 554368 553826 556359 584550
0110010011100000100001000: 522808 554368 553826 512730 556359
0110010010100010100000100: 522808 554368 553826 512730 584550
0110010011100000100001000: 522808 554368 553826 562853 556359
0110010011100000100001000: 522808 554368 553826 562853 512730
0110010010100010100000100: 522808 554368 553826 562853 584550
0110010011100000100001000: 522808 554368 553826 586397 556359
0110010011100000100001000: 522808 554368 553826 586397 512730
0110010011100000100001000: 522808 554368 553826 586397 562853
0110010010100010100000100: 522808 554368 553826 586397 584550
0110010011100000100001000: 522808 554368 553826 645302 556359
0110010011100000100001000: 522808 554368 553826 645302 512730
0110010011100000100001000: 522808 554368 553826 645302 562853
0110010011100000100001000: 522808 554368 553826 645302 586397
0110010011100000100001000: 522808 554368 553826 625606 556359
0110010011100000100001000: 522808 554368 553826 625606 512730
0110010011100000100001000: 522808 554368 553826 625606 562853
0110010011100000100001000: 522808 554368 553826 625606 645302
0110010010100010100000100: 522808 554368 553826 625606 584550
0110010011100000100001000: 522808 554368 553826 561428 556359
0110010011100000100001000: 522808 554368 553826 561428 512730
0110010011100000100001000: 522808 554368 553826 561428 562853
0110010011100000100001000: 522808 554368 553826 513622 556359
0110010011100000100001000: 522808 554368 553826 513622 512730
0110010011100000100001000: 522808 554368 553826 513622 562853
0110010011100000100001000: 522808 554368 553826 513622 586397
0110010011100000100001000: 522808 554368 553826 513622 645302
0110010011100000100001000: 522808 554368 553826 513622 625606
0110010010100010100000100: 522808 554368 553826 513622 584550
0111110100110001000010000: 522808 554368 592022 553826 533679
0111010100110001000100010: 522808 554368 592022 553826 584550
0110010010100010100000100: 553826 522808 584550 592022 645302
0110010011100000100001000: 553826 522808 584550 533679 592022
0110010010100010100000100: 553826 522808 584550 533679 645302
0110010010100010100000100: 553826 522808 584550 533679 561428
0110010011100000100001000: 553826 522808 584550 554368 533679
0110010010100010100000100: 584550 561428 553826 588759 522808
0110010011100000100001000: 584550 561428 553826 592022 588759
0110010011100000100001000: 584550 561428 553826 586397 588759
0110010011100000100001000: 584550 561428 553826 586397 592022
0110010010100010100000100: 584550 561428 553826 586397 522808
0110010011100000100001000: 584550 561428 553826 625606 588759
0110010011100000100001000: 584550 561428 553826 625606 592022
0110010010100010100000100: 584550 561428 553826 625606 522808
0110010011100000100001000: 584550 561428 553826 513622 588759
0110010011100000100001000: 584550 561428 553826 513622 586397
0110010011100000100001000: 584550 561428 553826 513622 625606
0110010010100010100000100: 584550 561428 553826 513622 522808
0110010011100000100001000: 584550 561428 553826 554368 588759
0111010100110001000100010: 584550 561428 645302 553826 522808
0110010011100000100001000: 533679 522808 556359 553826 592022
0110010011100100110001000: 533679 522808 513622 592022 553826
0110010010100010100000100: 533679 513622 522808 561428 553826
0110010011100000100001000: 592022 522808 561428 553826 533679
0110010010100010100000100: 592022 561428 522808 588759 533679
0110010010100010100000100: 592022 561428 522808 588759 553826
0110010011100000100001000: 592022 561428 522808 584550 588759
0110010010100010100000100: 592022 561428 522808 584550 533679
0110010011100000100001000: 592022 561428 522808 586397 588759
0110010011100000100001000: 592022 561428 522808 586397 584550
0110010010100010100000100: 592022 561428 522808 586397 533679
0110010010100010100000100: 592022 561428 522808 586397 553826
0110010011100000100001000: 592022 561428 522808 645302 588759
0110010011100000100001000: 592022 561428 522808 645302 586397
0110010010100010100000100: 592022 561428 522808 645302 533679
0110010010100010100000100: 592022 561428 522808 645302 553826
0110010011100000100001000: 592022 561428 522808 625606 588759
0110010011100000100001000: 592022 561428 522808 625606 584550
0110010011100000100001000: 592022 561428 522808 625606 645302
0110010010100010100000100: 592022 561428 522808 625606 533679
0110010010100010100000100: 592022 561428 522808 625606 553826
0111010100110001000100010: 592022 513622 561428 522808 553826
0110010011100000100001000: 562853 554368 588759 592022 556359
0110010011100000100001000: 562853 554368 588759 522808 556359
0110010011100000100001000: 562853 554368 588759 586397 556359
0110010011100000100001000: 562853 554368 588759 586397 592022
0110010011100000100001000: 562853 554368 588759 586397 522808
0110010011100000100001000: 562853 554368 588759 645302 556359
0110010011100000100001000: 562853 554368 588759 645302 592022
0110010011100000100001000: 562853 554368 588759 645302 522808
0110010011100000100001000: 562853 554368 588759 645302 586397
0110010011100000100001000: 562853 554368 588759 625606 556359
0110010011100000100001000: 562853 554368 588759 625606 592022
0110010011100000100001000: 562853 554368 588759 625606 522808
0110010011100000100001000: 562853 554368 588759 625606 645302
0110010011100000100001000: 562853 554368 588759 513622 556359
0110010011100000100001000: 562853 554368 588759 513622 522808
0110010011100000100001000: 562853 554368 588759 513622 586397
0110010011100000100001000: 562853 554368 588759 513622 645302
0110010011100000100001000: 562853 554368 588759 513622 625606
0110010011100100110001000: 562853 554368 588759 512730 556359
0110010011100100110001000: 562853 554368 588759 512730 592022
0110010011100100110001000: 562853 554368 588759 512730 522808
0110010011100100110001000: 562853 554368 588759 512730 586397
0110010011100100110001000: 562853 554368 588759 512730 645302
0110010011100100110001000: 562853 554368 588759 512730 625606
0110010011100100110001000: 562853 554368 588759 512730 513622
0110010011100000100001000: 588759 561428 512730 584550 592022
0110010011100000100001000: 588759 561428 512730 586397 592022
0110010011100000100001000: 588759 561428 512730 586397 584550
0110010011100000100001000: 588759 561428 512730 645302 592022
0110010011100000100001000: 588759 561428 512730 645302 586397
0110010011100000100001000: 588759 561428 512730 625606 592022
0110010011100000100001000: 588759 561428 512730 625606 584550
0110010011100000100001000: 588759 561428 512730 625606 645302
0110010011100000100001000: 588759 561428 512730 513622 584550
0110010011100000100001000: 588759 561428 512730 513622 586397
0110010011100000100001000: 588759 561428 512730 513622 645302
0110010011100000100001000: 588759 561428 512730 513622 625606
0110010011100000100001000: 588759 561428 562853 584550 592022
0110010011100000100001000: 588759 561428 562853 586397 592022
0110010011100000100001000: 588759 561428 562853 586397 584550
0110010011100000100001000: 588759 561428 562853 645302 592022
0110010011100000100001000: 588759 561428 562853 645302 586397
0110010011100000100001000: 588759 561428 562853 625606 592022
0110010011100000100001000: 588759 561428 562853 625606 584550
0110010011100000100001000: 588759 561428 562853 625606 645302
0110010011100000100001000: 588759 561428 562853 513622 584550
0110010011100000100001000: 588759 561428 562853 513622 586397
0110010011100000100001000: 588759 561428 562853 513622 645302
0110010011100000100001000: 588759 561428 562853 513622 625606
0110010011100000100001000: 512730 554368 588759 592022 556359
0110010011100000100001000: 512730 554368 588759 522808 556359
0110010011100000100001000: 512730 554368 588759 586397 556359
0110010011100000100001000: 512730 554368 588759 586397 592022
0110010011100000100001000: 512730 554368 588759 586397 522808
0110010011100000100001000: 512730 554368 588759 645302 556359
0110010011100000100001000: 512730 554368 588759 645302 592022
0110010011100000100001000: 512730 554368 588759 645302 522808
0110010011100000100001000: 512730 554368 588759 645302 586397
0110010011100000100001000: 512730 554368 588759 625606 556359
0110010011100000100001000: 512730 554368 588759 625606 592022
0110010011100000100001000: 512730 554368 588759 625606 522808
0110010011100000100001000: 512730 554368 588759 625606 645302
0110010011100000100001000: 512730 554368 588759 513622 556359
0110010011100000100001000: 512730 554368 588759 513622 522808
0110010011100000100001000: 512730 554368 588759 513622 586397
0110010011100000100001000: 512730 554368 588759 513622 645302
0110010011100000100001000: 512730 554368 588759 513622 625606
0110010011100000100001000: 556359 554368 533679 562853 512730
0110010011100000100001000: 556359 554368 533679 592022 512730
0110010011100000100001000: 556359 554368 533679 592022 562853
0110010011100000100001000: 556359 554368 533679 586397 512730
0110010011100000100001000: 556359 554368 533679 586397 562853
0110010011100000100001000: 556359 554368 533679 586397 592022
0110010011100000100001000: 556359 554368 533679 645302 512730
0110010011100000100001000: 556359 554368 533679 645302 562853
0110010011100000100001000: 556359 554368 533679 645302 592022
0110010011100000100001000: 556359 554368 533679 645302 586397
0110010011100000100001000: 556359 554368 533679 625606 512730
0110010011100000100001000: 556359 554368 533679 625606 562853
0110010011100000100001000: 556359 554368 533679 625606 592022
0110010011100000100001000: 556359 554368 533679 625606 645302
0110010011100000100001000: 556359 554368 533679 561428 512730
0110010011100000100001000: 556359 554368 533679 561428 562853
