Vertex,0110010010100010100000100,0111010101110001000001000,0110010010100010100100110,0110010011100100110001000,0111110110110001100010000,0111110100110001000010000,0110010011100110110001100,0111110000100001000010000,0111010110110011100000100,0111010100110001000100010,0110010011100000100001000,0111010101110001000101010
476924,161.0,10.0,5.0,65.0,2.0,9.0,6.0,17.0,4.0,15.0,170.0,5.0
591933,75.0,7.0,4.0,37.0,0.0,6.0,4.0,15.0,1.0,4.0,118.0,1.0
525791,85.0,9.0,0.0,8.0,2.0,6.0,0.0,4.0,4.0,21.0,62.0,1.0
655963,118.0,0.0,7.0,22.0,0.0,0.0,1.0,2.0,0.0,6.0,88.0,0.0
515291,168.0,27.0,7.0,70.0,0.0,16.0,7.0,21.0,0.0,24.0,206.0,7.0
596726,80.0,7.0,1.0,27.0,0.0,6.0,3.0,14.0,1.0,4.0,120.0,1.0
512282,76.0,16.0,3.0,16.0,2.0,7.0,0.0,4.0,4.0,20.0,65.0,2.0
631159,157.0,26.0,5.0,72.0,0.0,16.0,5.0,20.0,1.0,21.0,192.0,8.0
634633,68.0,8.0,0.0,3.0,1.0,3.0,0.0,7.0,0.0,4.0,67.0,0.0
495508,36.0,1.0,0.0,1.0,2.0,0.0,0.0,0.0,4.0,5.0,24.0,0.0
475678,105.0,6.0,5.0,51.0,0.0,6.0,5.0,16.0,1.0,5.0,139.0,2.0
591332,81.0,5.0,1.0,26.0,0.0,3.0,1.0,8.0,0.0,3.0,94.0,1.0
526433,46.0,0.0,0.0,3.0,0.0,0.0,0.0,0.0,0.0,2.0,26.0,0.0
587104,108.0,30.0,3.0,14.0,1.0,13.0,0.0,8.0,0.0,19.0,120.0,8.0
653025,76.0,7.0,0.0,23.0,0.0,6.0,1.0,14.0,0.0,4.0,114.0,1.0
543969,96.0,7.0,7.0,25.0,0.0,6.0,1.0,15.0,0.0,4.0,135.0,1.0
622391,185.0,13.0,2.0,34.0,0.0,9.0,1.0,16.0,0.0,17.0,176.0,2.0
476206,21.0,0.0,0.0,2.0,0.0,0.0,0.0,0.0,0.0,2.0,24.0,0.0
461174,43.0,8.0,0.0,1.0,0.0,1.0,0.0,0.0,0.0,3.0,27.0,0.0
655927,41.0,0.0,0.0,2.0,0.0,0.0,0.0,0.0,0.0,2.0,17.0,0.0
533898,28.0,5.0,0.0,0.0,0.0,0.0,0.0,0.0,0.0,1.0,7.0,0.0
598854,44.0,9.0,0.0,3.0,0.0,6.0,0.0,4.0,0.0,13.0,41.0,0.0
650401,50.0,0.0,0.0,2.0,0.0,0.0,0.0,1.0,0.0,0.0,19.0,0.0
482043,43.0,9.0,0.0,3.0,0.0,6.0,0.0,4.0,0.0,13.0,41.0,0.0
641717,22.0,5.0,0.0,0.0,0.0,0.0,0.0,0.0,0.0,1.0,6.0,0.0
516359,22.0,0.0,0.0,0.0,0.0,0.0,0.0,0.0,0.0,2.0,2.0,0.0
graph,407.0,43.0,10.0,102.0,2.0,25.0,7.0,38.0,4.0,43.0,420.0,8.0
