Vertex,0111110100110001000010000,0111010100110001000100010,0111010101110001000101010,0111010110110011100000100,0111110110110001100010000,0111110000100001000010000,0111110110110011100010100,0111110100110001000110010,0110010010100010100000100,0111110111110001100011000,0111010101110001000001000,0110010011100100110001000,0110010011100000100001000
513861,46.0,12.0,0.0,1.0,11.0,20.0,2.0,5.0,10.0,0.0,15.0,2.0,46.0
554368,104.0,30.0,6.0,9.0,45.0,38.0,9.0,18.0,10.0,1.0,52.0,11.0,97.0
554146,0.0,7.0,0.0,1.0,0.0,0.0,0.0,0.0,7.0,0.0,7.0,0.0,21.0
499770,38.0,9.0,0.0,3.0,18.0,16.0,6.0,5.0,13.0,1.0,6.0,2.0,35.0
567431,43.0,8.0,2.0,3.0,13.0,21.0,1.0,6.0,13.0,0.0,11.0,7.0,40.0
502569,44.0,4.0,2.0,3.0,19.0,12.0,2.0,11.0,10.0,0.0,21.0,0.0,21.0
641321,38.0,13.0,4.0,5.0,23.0,16.0,3.0,9.0,27.0,0.0,24.0,6.0,58.0
561972,30.0,12.0,1.0,4.0,29.0,10.0,7.0,8.0,20.0,1.0,9.0,1.0,27.0
468434,43.0,7.0,1.0,2.0,19.0,14.0,5.0,7.0,13.0,0.0,16.0,1.0,25.0
479947,42.0,8.0,5.0,3.0,17.0,13.0,4.0,8.0,24.0,1.0,21.0,5.0,37.0
529244,46.0,8.0,3.0,1.0,12.0,20.0,2.0,5.0,15.0,0.0,18.0,6.0,37.0
558603,42.0,9.0,0.0,2.0,16.0,13.0,4.0,8.0,8.0,1.0,14.0,2.0,25.0
550535,0.0,12.0,2.0,2.0,0.0,0.0,0.0,0.0,17.0,0.0,13.0,6.0,31.0
541080,2.0,6.0,4.0,4.0,2.0,1.0,0.0,0.0,21.0,0.0,21.0,5.0,42.0
561063,2.0,5.0,0.0,2.0,1.0,1.0,0.0,0.0,7.0,0.0,12.0,1.0,28.0
graph,104.0,30.0,6.0,9.0,45.0,39.0,9.0,18.0,43.0,1.0,52.0,11.0,114.0
