Vertex,0101101001001000,0111100010001000,0110101111000100,0111100110011110,0111100110001100,0101101101011110,0100101001010010,0111101011001000,0110101011010010,0101101101001100,0111100010011010,0100101101000100,0110101111010110,0110100010010010,0101101001011010,0111101011011010,0111101111011110,0100101101010110,0111101111001100,0110100110010110,0110100110000100
609446,28.0,32.0,118.0,4.0,94.0,4.0,8.0,274.0,71.0,14.0,83.0,2.0,44.0,66.0,6.0,45.0,0.0,6.0,54.0,37.0,140.0
650032,10.0,39.0,50.0,0.0,39.0,0.0,5.0,121.0,26.0,4.0,35.0,0.0,10.0,27.0,0.0,12.0,0.0,0.0,18.0,0.0,76.0
617770,54.0,100.0,176.0,4.0,140.0,4.0,26.0,409.0,105.0,22.0,88.0,4.0,34.0,129.0,17.0,33.0,155.0,2.0,36.0,74.0,243.0
631173,73.0,171.0,68.0,4.0,64.0,4.0,38.0,167.0,37.0,6.0,51.0,12.0,34.0,149.0,33.0,33.0,0.0,6.0,36.0,109.0,276.0
473930,25.0,46.0,34.0,0.0,32.0,0.0,5.0,82.0,18.0,4.0,24.0,4.0,10.0,46.0,0.0,12.0,0.0,4.0,18.0,0.0,85.0
645833,45.0,101.0,72.0,4.0,55.0,4.0,18.0,162.0,47.0,10.0,38.0,8.0,44.0,80.0,11.0,45.0,0.0,2.0,54.0,37.0,165.0
506567,18.0,24.0,24.0,0.0,16.0,0.0,4.0,42.0,24.0,8.0,4.0,4.0,0.0,35.0,0.0,0.0,0.0,0.0,0.0,0.0,63.0
463267,56.0,185.0,132.0,0.0,114.0,0.0,7.0,322.0,72.0,12.0,73.0,8.0,0.0,129.0,44.0,0.0,155.0,4.0,0.0,144.0,261.0
598204,36.0,62.0,40.0,0.0,34.0,0.0,22.0,91.0,26.0,8.0,10.0,6.0,0.0,80.0,16.0,0.0,0.0,0.0,0.0,35.0,140.0
527803,33.0,32.0,110.0,0.0,86.0,0.0,9.0,265.0,60.0,12.0,38.0,0.0,0.0,66.0,11.0,0.0,155.0,0.0,0.0,35.0,121.0
620865,40.0,32.0,110.0,0.0,86.0,0.0,18.0,266.0,60.0,12.0,38.0,0.0,0.0,82.0,16.0,0.0,155.0,0.0,0.0,35.0,143.0
649039,22.0,70.0,14.0,0.0,12.0,0.0,4.0,38.0,6.0,0.0,6.0,0.0,0.0,53.0,11.0,0.0,0.0,0.0,0.0,35.0,101.0
599067,22.0,0.0,30.0,0.0,24.0,0.0,4.0,63.0,22.0,8.0,6.0,0.0,0.0,51.0,11.0,0.0,0.0,0.0,0.0,35.0,85.0
580981,14.0,70.0,14.0,0.0,12.0,0.0,0.0,38.0,6.0,0.0,6.0,0.0,0.0,27.0,0.0,0.0,0.0,0.0,0.0,0.0,73.0
graph,119.0,241.0,248.0,4.0,202.0,4.0,42.0,585.0,145.0,30.0,125.0,12.0,44.0,255.0,44.0,45.0,155.0,6.0,54.0,144.0,493.0
