0111010101110001000001000: 465627 567679 561428 517839 568289
0110010011100000100001000: 465627 517839 457098 470074 609900
0110010010100010100100110: 465627 517839 567679 609900 568289
0110010011100000100001000: 465627 517839 567679 470074 609900
0110010010100010100000100: 465627 517839 567679 470074 568289
0110010011100100110001000: 465627 517839 561428 470074 609900
0110010010100010100000100: 465627 561428 517839 513463 609900
0110010011100000100001000: 465627 561428 517839 609157 513463
0110010010100010100100110: 465627 561428 517839 609157 609900
0110010011100000100001000: 465627 561428 517839 595598 513463
0110010010100010100000100: 465627 561428 517839 595598 609900
0110010011100100110001000: 465627 561428 517839 470074 513463
0110010011100100110001000: 465627 561428 517839 470074 609157
0110010011100100110001000: 465627 561428 517839 470074 595598
0111010101110001000001000: 465627 561428 457098 517839 513463
0111010101110001000001000: 465627 561428 457098 517839 609157
0111010101110001000001000: 465627 561428 457098 517839 595598
0111010100110001000100010: 465627 561428 457098 517839 609900
0111010101110001000101010: 465627 561428 457098 517839 470074
0111010101110001000001000: 465627 561428 567679 517839 513463
0111010101110001000001000: 465627 561428 567679 517839 609157
0111010101110001000001000: 465627 561428 567679 517839 595598
0111010100110001000100010: 465627 561428 567679 517839 609900
0111010101110001000101010: 465627 561428 567679 517839 470074
0111110110110001100010000: 465627 561428 567679 457098 517839
0111010110110011100000100: 465627 561428 567679 457098 568289
0111010101110001000001000: 561428 567679 465627 513463 568289
0111010101110001000001000: 561428 567679 465627 609157 568289
0111010101110001000001000: 561428 567679 465627 470074 568289
0111010101110001000001000: 561428 567679 465627 595598 568289
0110010011100000100001000: 561428 609157 513463 609900 559046
0110010011100000100001000: 561428 609157 457098 609900 559046
0111110000100001000010000: 561428 609157 567679 457098 513463
0110010010100010100000100: 561428 609157 567679 559046 568289
0110010011100000100001000: 561428 609157 567679 609900 559046
0110010010100010100100110: 561428 609157 567679 609900 568289
0110010011100000100001000: 561428 609157 470074 609900 559046
0110010011100000100001000: 561428 609157 465627 609900 559046
0111010101110001000001000: 561428 609157 595598 513463 559046
0111010101110001000001000: 561428 609157 595598 513463 609900
0111010101110001000001000: 561428 609157 595598 457098 559046
0111010101110001000001000: 561428 609157 595598 457098 609900
0111010101110001000001000: 561428 609157 595598 567679 559046
0111010101110001000001000: 561428 609157 595598 567679 609900
0111010101110001000001000: 561428 609157 595598 470074 559046
0111010101110001000001000: 561428 609157 595598 470074 609900
0111010101110001000001000: 561428 609157 595598 465627 559046
0111010101110001000001000: 561428 609157 595598 465627 609900
0110010011100000100001000: 561428 470074 513463 517839 572578
0110010011100000100001000: 561428 470074 457098 517839 572578
0111110000100001000010000: 561428 470074 567679 457098 513463
0110010010100010100000100: 561428 470074 567679 572578 568289
0110010011100000100001000: 561428 470074 567679 517839 572578
0110010010100010100000100: 561428 470074 567679 517839 568289
0111110000100001000010000: 561428 470074 609157 457098 513463
0111110000100001000010000: 561428 470074 609157 567679 513463
0111110000100001000010000: 561428 470074 609157 567679 457098
0110010010100010100000100: 561428 470074 609157 572578 559046
0110010010100010100000100: 561428 470074 609157 572578 609900
0110010011100000100001000: 561428 470074 609157 517839 572578
0110010010100010100000100: 561428 470074 609157 517839 559046
0110010010100010100100110: 561428 470074 609157 517839 609900
0110010011100000100001000: 561428 470074 595598 517839 572578
0110010011100100110001000: 561428 470074 465627 517839 572578
0111110000100001000010000: 561428 595598 567679 457098 513463
0110010010100010100000100: 561428 595598 567679 507373 568289
0111110000100001000010000: 561428 595598 470074 457098 513463
0111110000100001000010000: 561428 595598 470074 567679 513463
0111110000100001000010000: 561428 595598 470074 567679 457098
0110010010100010100000100: 561428 595598 470074 507373 572578
0110010010100010100000100: 561428 595598 470074 507373 517839
0111010101110001000001000: 561428 595598 609157 513463 507373
0111110100110001000010000: 561428 595598 609157 457098 513463
0111010101110001000001000: 561428 595598 609157 457098 507373
0111110100110001000010000: 561428 595598 609157 567679 513463
0111110100110001000010000: 561428 595598 609157 567679 457098
0111010101110001000001000: 561428 595598 609157 567679 507373
0111010100110001000100010: 561428 595598 609157 567679 568289
0111110100110001000010000: 561428 595598 609157 470074 513463
0111110100110001000010000: 561428 595598 609157 470074 457098
0111110100110001000010000: 561428 595598 609157 470074 567679
0111010101110001000001000: 561428 595598 609157 470074 507373
0111010100110001000100010: 561428 595598 609157 470074 572578
0111010100110001000100010: 561428 595598 609157 470074 517839
0111110100110001000010000: 561428 595598 609157 465627 513463
0111110100110001000010000: 561428 595598 609157 465627 470074
0111010101110001000001000: 561428 595598 609157 465627 507373
0111010100110001000100010: 561428 595598 609157 465627 517839
0110010010100010100000100: 561428 465627 609157 517839 559046
0111110000100001000010000: 561428 465627 470074 609157 513463
0111110000100001000010000: 561428 465627 595598 470074 513463
0110010010100010100000100: 561428 465627 595598 517839 507373
0111110100110001000010000: 561428 465627 457098 609157 513463
0111010100110001000100010: 561428 465627 457098 609157 559046
0111010100110001000100010: 561428 465627 457098 609157 609900
0111110100110001000010000: 561428 465627 457098 470074 513463
0111110100110001000010000: 561428 465627 457098 470074 609157
0111010100110001000100010: 561428 465627 457098 470074 572578
0111110100110001000010000: 561428 465627 457098 595598 513463
0111110100110001000010000: 561428 465627 457098 595598 470074
0111010100110001000100010: 561428 465627 457098 595598 507373
0111110100110001000110010: 561428 465627 457098 595598 609157
0111110100110001000010000: 561428 465627 567679 609157 513463
0111010100110001000100010: 561428 465627 567679 609157 559046
0111010100110001000100010: 561428 465627 567679 609157 609900
0111110100110001000010000: 561428 465627 567679 470074 513463
0111110100110001000010000: 561428 465627 567679 470074 609157
0111010100110001000100010: 561428 465627 567679 470074 572578
0111110100110001000010000: 561428 465627 567679 595598 513463
0111110100110001000010000: 561428 465627 567679 595598 470074
0111010100110001000100010: 561428 465627 567679 595598 507373
0111110100110001000110010: 561428 465627 567679 595598 609157
0111110110110001100010000: 561428 465627 567679 457098 513463
0111110110110001100010000: 561428 465627 567679 457098 609157
0111110110110001100010000: 561428 465627 567679 457098 470074
0111110110110001100010000: 561428 465627 567679 457098 595598
0110010011100000100001000: 595598 609157 507373 609900 559046
0111010101110001000001000: 595598 609157 561428 507373 559046
0111010101110001000001000: 595598 609157 561428 507373 609900
0110010010100010100000100: 595598 507373 609157 469603 559046
0110010010100010100000100: 595598 507373 609157 469603 609900
0110010010100010100000100: 595598 561428 507373 513463 469603
0110010011100000100001000: 595598 561428 507373 457098 513463
0110010010100010100000100: 595598 561428 507373 457098 469603
0110010011100000100001000: 595598 561428 507373 567679 513463
0110010011100000100001000: 595598 561428 507373 567679 457098
0110010010100010100000100: 595598 561428 507373 567679 469603
0110010011100000100001000: 595598 561428 507373 470074 513463
0110010011100000100001000: 595598 561428 507373 470074 457098
0110010011100000100001000: 595598 561428 507373 470074 567679
0110010010100010100000100: 595598 561428 507373 470074 469603
0110010011100000100001000: 595598 561428 507373 465627 513463
0110010011100000100001000: 595598 561428 507373 465627 470074
0110010010100010100000100: 595598 561428 507373 465627 469603
0111010100110001000100010: 595598 561428 609157 507373 469603
0110010010100010100000100: 507373 595598 469603 609157 518991
0110010010100010100000100: 507373 595598 469603 561428 518991
0110010011100000100001000: 517839 609900 470074 609157 568289
0110010011100000100001000: 517839 609900 465627 609157 568289
0110010010100010100000100: 517839 470074 609900 572578 568289
0110010010100010100000100: 517839 470074 609900 572578 609157
0110010011100000100001000: 517839 470074 609900 561428 572578
0110010010100010100000100: 517839 470074 609900 561428 568289
0110010010100010100000100: 517839 465627 609900 457098 568289
0110010010100010100000100: 517839 465627 609900 457098 609157
0110010011100000100001000: 517839 465627 609900 567679 457098
0110010010100010100000100: 517839 465627 609900 567679 609157
0110010010100010100000100: 517839 465627 609900 561428 568289
0110010010100010100000100: 517839 465627 470074 457098 572578
0110010011100000100001000: 517839 465627 470074 567679 457098
0110010010100010100000100: 517839 465627 470074 567679 572578
0110010010100010100000100: 470074 517839 572578 609900 518991
0110010011100000100001000: 470074 517839 572578 465627 609900
0110010010100010100000100: 470074 517839 572578 465627 518991
0110010010100010100000100: 470074 561428 572578 513463 518991
0110010011100000100001000: 470074 561428 572578 457098 513463
0110010010100010100000100: 470074 561428 572578 457098 518991
0110010011100000100001000: 470074 561428 572578 567679 513463
0110010011100000100001000: 470074 561428 572578 567679 457098
0110010010100010100000100: 470074 561428 572578 567679 518991
0110010011100000100001000: 470074 561428 572578 609157 513463
0110010011100000100001000: 470074 561428 572578 609157 457098
0110010011100000100001000: 470074 561428 572578 609157 567679
0110010010100010100000100: 470074 561428 572578 609157 518991
0110010011100000100001000: 470074 561428 572578 595598 513463
0110010011100000100001000: 470074 561428 572578 595598 457098
0110010011100000100001000: 470074 561428 572578 595598 567679
0110010010100010100000100: 470074 561428 572578 595598 518991
0110010011100000100001000: 470074 561428 572578 465627 513463
0110010011100000100001000: 470074 561428 572578 465627 609157
0110010011100000100001000: 470074 561428 572578 465627 595598
0110010010100010100000100: 470074 561428 572578 465627 518991
0110010010100010100000100: 470074 561428 517839 513463 609900
0110010011100000100001000: 470074 561428 517839 457098 513463
0110010010100010100000100: 470074 561428 517839 457098 609900
0110010011100000100001000: 470074 561428 517839 567679 513463
0110010011100000100001000: 470074 561428 517839 567679 457098
0110010010100010100000100: 470074 561428 517839 567679 609900
0110010011100000100001000: 470074 561428 517839 609157 513463
0110010011100000100001000: 470074 561428 517839 609157 457098
0110010011100000100001000: 470074 561428 517839 609157 567679
0110010011100000100001000: 470074 561428 517839 595598 513463
0110010011100000100001000: 470074 561428 517839 595598 457098
0110010011100000100001000: 470074 561428 517839 595598 567679
0110010010100010100000100: 470074 561428 517839 595598 609900
0110010010100010100000100: 609900 609157 568289 559046 567679
0110010011100000100001000: 609900 609157 568289 595598 559046
0110010010100010100000100: 609900 609157 568289 595598 567679
0110010011100000100001000: 609900 609157 568289 561428 559046
0110010011100000100001000: 609900 609157 517839 595598 559046
0110010011100000100001000: 609900 609157 517839 561428 559046
0110010010100010100000100: 609900 517839 568289 470074 567679
0110010011100000100001000: 609900 517839 568289 465627 470074
0110010010100010100000100: 609900 517839 609157 470074 559046
0110010010100010100000100: 609900 517839 609157 470074 595598
0110010011100000100001000: 609900 517839 609157 465627 470074
0110010010100010100000100: 609900 517839 609157 465627 559046
0110010010100010100000100: 609900 517839 609157 465627 595598
0110010011100000100001000: 609157 609900 559046 517839 568289
0110010011100000100001000: 609157 609900 595598 517839 568289
0110010011100000100001000: 609157 609900 561428 517839 568289
0110010010100010100000100: 609157 595598 609900 507373 568289
0110010010100010100000100: 609157 595598 609900 507373 517839
0110010011100000100001000: 609157 561428 559046 457098 513463
0110010011100000100001000: 609157 561428 559046 567679 513463
0110010011100000100001000: 609157 561428 559046 567679 457098
0110010011100000100001000: 609157 561428 559046 470074 513463
0110010011100000100001000: 609157 561428 559046 470074 457098
0110010011100000100001000: 609157 561428 559046 470074 567679
0110010011100000100001000: 609157 561428 559046 465627 513463
0110010011100000100001000: 609157 561428 559046 465627 470074
0110010010100010100000100: 609157 561428 609900 513463 568289
0110010010100010100000100: 609157 561428 609900 513463 517839
0110010011100000100001000: 609157 561428 609900 457098 513463
0110010010100010100000100: 609157 561428 609900 457098 568289
0110010010100010100000100: 609157 561428 609900 457098 517839
0110010011100000100001000: 609157 561428 609900 567679 513463
0110010011100000100001000: 609157 561428 609900 567679 457098
0110010010100010100000100: 609157 561428 609900 567679 517839
0110010011100000100001000: 609157 561428 609900 470074 513463
0110010011100000100001000: 609157 561428 609900 470074 457098
0110010011100000100001000: 609157 561428 609900 470074 567679
0110010010100010100000100: 609157 561428 609900 470074 568289
0110010011100000100001000: 609157 561428 609900 465627 513463
0110010011100000100001000: 609157 561428 609900 465627 470074
0110010010100010100000100: 609157 561428 609900 465627 568289
0111110100110001000010000: 609157 561428 595598 609900 559046
0111010100110001000100010: 609157 561428 595598 609900 568289
0111010100110001000100010: 609157 561428 595598 609900 517839
0110010010100010100000100: 568289 609900 567679 609157 465627
0110010011100000100001000: 568289 609900 567679 517839 609157
0110010010100010100000100: 568289 609900 567679 517839 561428
0110010010100010100000100: 567679 561428 568289 513463 609900
0110010011100000100001000: 567679 561428 568289 457098 513463
0110010010100010100000100: 567679 561428 568289 457098 609900
0110010011100000100001000: 567679 561428 568289 609157 513463
0110010011100000100001000: 567679 561428 568289 609157 457098
0110010011100000100001000: 567679 561428 568289 470074 513463
0110010011100000100001000: 567679 561428 568289 470074 457098
0110010011100000100001000: 567679 561428 568289 470074 609157
0110010010100010100000100: 567679 561428 568289 470074 609900
0110010011100000100001000: 567679 561428 568289 595598 513463
0110010011100000100001000: 567679 561428 568289 595598 457098
0110010011100000100001000: 567679 561428 568289 595598 470074
0110010010100010100000100: 567679 561428 568289 595598 609900
0110010010100010100000100: 567679 465627 568289 457098 609900
0110010011100000100001000: 567679 465627 568289 517839 457098
0111010100110001000100010: 567679 465627 561428 568289 609900
0110010010100010100000100: 572578 470074 518991 517839 469603
0110010011100000100001000: 572578 470074 518991 561428 517839
0110010010100010100000100: 572578 470074 518991 561428 469603
0110010010100010100000100: 518991 572578 469603 470074 507373
0110010010100010100000100: 469603 507373 518991 595598 572578
