0110010011100000100001000: 594721 554368 574539 545211 495196
0110010011100000100001000: 594721 554368 574539 539571 495196
0110010011100000100001000: 594721 554368 574539 598931 495196
0110010011100000100001000: 594721 554368 574539 598931 545211
0110010011100000100001000: 594721 554368 574539 598931 539571
0110010011100000100001000: 594721 554368 574539 635653 495196
0110010011100000100001000: 594721 554368 574539 635653 545211
0110010011100000100001000: 594721 554368 574539 635653 539571
0110010011100000100001000: 594721 554368 574539 635653 598931
0110010011100000100001000: 594721 554368 574539 474868 545211
0110010011100000100001000: 594721 554368 574539 474868 539571
0110010011100000100001000: 594721 554368 574539 474868 598931
0110010011100000100001000: 594721 554368 574539 550157 495196
0110010011100000100001000: 594721 554368 574539 550157 474868
0110010011100000100001000: 594721 554368 574539 511933 495196
0110010011100000100001000: 594721 554368 574539 511933 545211
0110010011100000100001000: 594721 554368 574539 511933 539571
0110010011100000100001000: 594721 554368 574539 511933 635653
0110010011100000100001000: 594721 554368 574539 511933 474868
0110010011100000100001000: 594721 554368 574539 511933 550157
0110010011100100110001000: 594721 554368 574539 650941 495196
0110010011100100110001000: 594721 554368 574539 650941 539571
0110010011100100110001000: 594721 554368 574539 650941 635653
0110010011100100110001000: 594721 554368 574539 650941 474868
0110010011100100110001000: 594721 554368 574539 650941 550157
0110010011100100110001000: 594721 554368 574539 650941 511933
0110010011100100110001000: 594721 554368 574539 621421 495196
0110010011100100110001000: 594721 554368 574539 621421 545211
0110010011100100110001000: 594721 554368 574539 621421 539571
0110010011100100110001000: 594721 554368 574539 621421 598931
0110010011100100110001000: 594721 554368 574539 621421 635653
0110010011100100110001000: 594721 554368 574539 621421 474868
0110010011100100110001000: 594721 554368 574539 621421 511933
0110010011100110110001100: 594721 574539 554368 621421 650941
0110010011100000100001000: 574539 650941 621421 545211 587335
0110010011100000100001000: 574539 650941 621421 598931 587335
0110010011100000100001000: 574539 650941 621421 598931 545211
0110010011100100110001000: 574539 650941 621421 554368 587335
0110010011100000100001000: 574539 650941 594721 545211 587335
0110010011100000100001000: 574539 650941 594721 598931 587335
0110010011100000100001000: 574539 650941 594721 598931 545211
0110010011100100110001000: 574539 650941 594721 554368 587335
0110010010100010100000100: 574539 621421 650941 550157 587335
0110010010100010100100110: 574539 621421 650941 550157 545211
0110010010100010100100110: 574539 621421 650941 550157 598931
0110010011100000100001000: 621421 550157 574539 598931 545211
0110010011100000100001000: 621421 550157 574539 598931 539571
0110010011100000100001000: 621421 550157 574539 475832 545211
0110010011100000100001000: 621421 550157 574539 475832 598931
0110010011100000100001000: 621421 550157 574539 635653 545211
0110010011100000100001000: 621421 550157 574539 635653 539571
0110010011100000100001000: 621421 550157 574539 635653 598931
0110010011100000100001000: 621421 550157 574539 635653 475832
0110010011100000100001000: 621421 550157 574539 472580 545211
0110010011100000100001000: 621421 550157 574539 472580 539571
0110010011100000100001000: 621421 550157 574539 472580 598931
0110010011100000100001000: 621421 550157 574539 472580 635653
0111010101110001000001000: 621421 550157 554368 574539 475832
0111010101110001000001000: 621421 550157 554368 574539 472580
0110010011100000100001000: 621421 554368 574539 545211 495196
0110010011100000100001000: 621421 554368 574539 539571 495196
0110010011100000100001000: 621421 554368 574539 598931 495196
0110010011100000100001000: 621421 554368 574539 598931 545211
0110010011100000100001000: 621421 554368 574539 598931 539571
0110010011100000100001000: 621421 554368 574539 635653 495196
0110010011100000100001000: 621421 554368 574539 635653 545211
0110010011100000100001000: 621421 554368 574539 635653 539571
0110010011100000100001000: 621421 554368 574539 635653 598931
0110010011100000100001000: 621421 554368 574539 474868 545211
0110010011100000100001000: 621421 554368 574539 474868 539571
0110010011100000100001000: 621421 554368 574539 474868 598931
0110010011100000100001000: 621421 554368 574539 511933 495196
0110010011100000100001000: 621421 554368 574539 511933 545211
0110010011100000100001000: 621421 554368 574539 511933 539571
0110010011100000100001000: 621421 554368 574539 511933 635653
0110010011100000100001000: 621421 554368 574539 511933 474868
0110010011100100110001000: 621421 554368 574539 650941 495196
0110010011100100110001000: 621421 554368 574539 650941 539571
0110010011100100110001000: 621421 554368 574539 650941 635653
0110010011100100110001000: 621421 554368 574539 650941 474868
0110010011100100110001000: 621421 554368 574539 650941 511933
0111010101110001000001000: 621421 554368 550157 574539 495196
0111010101110001000001000: 621421 554368 550157 574539 474868
0111010101110001000001000: 621421 554368 550157 574539 511933
0111010101110001000101010: 621421 554368 550157 574539 650941
0111010101110001000101010: 621421 554368 550157 574539 594721
0110010010100010100000100: 621421 574539 550157 650941 539571
0110010010100010100000100: 621421 574539 550157 650941 475832
0110010010100010100000100: 621421 574539 550157 650941 635653
0110010010100010100000100: 621421 574539 550157 650941 472580
0110010011100000100001000: 621421 574539 550157 594721 650941
0110010010100010100000100: 621421 574539 550157 594721 545211
0110010010100010100000100: 621421 574539 550157 594721 539571
0110010010100010100000100: 621421 574539 550157 594721 598931
0110010010100010100000100: 621421 574539 550157 594721 475832
0110010010100010100000100: 621421 574539 550157 594721 635653
0110010010100010100000100: 621421 574539 550157 594721 472580
0110010011100000100001000: 554368 650941 495196 574539 587335
0110010011100000100001000: 554368 650941 539571 574539 587335
0110010011100100110001000: 554368 650941 635653 587335 574539
0110010011100000100001000: 554368 650941 474868 574539 587335
0110010011100000100001000: 554368 650941 550157 574539 587335
0110010011100000100001000: 554368 650941 511933 574539 587335
0111010101110001000001000: 554368 650941 545211 495196 587335
0111010101110001000001000: 554368 650941 545211 495196 574539
0111010101110001000001000: 554368 650941 545211 635653 574539
0111010101110001000101010: 554368 650941 545211 635653 587335
0111010101110001000001000: 554368 650941 545211 474868 587335
0111010101110001000001000: 554368 650941 545211 474868 574539
0111010101110001000001000: 554368 650941 545211 511933 587335
0111010101110001000001000: 554368 650941 545211 511933 574539
0111010101110001000001000: 554368 650941 545211 621421 587335
0111010101110001000101010: 554368 650941 545211 621421 574539
0111010101110001000001000: 554368 650941 545211 594721 587335
0111010101110001000101010: 554368 650941 545211 594721 574539
0111010101110001000001000: 554368 650941 598931 495196 587335
0111010101110001000001000: 554368 650941 598931 495196 574539
0111010101110001000001000: 554368 650941 598931 539571 587335
0111010101110001000001000: 554368 650941 598931 539571 574539
0111010101110001000001000: 554368 650941 598931 635653 574539
0111010101110001000101010: 554368 650941 598931 635653 587335
0111010101110001000001000: 554368 650941 598931 474868 587335
0111010101110001000001000: 554368 650941 598931 474868 574539
0111010101110001000001000: 554368 650941 598931 621421 587335
0111010101110001000101010: 554368 650941 598931 621421 574539
0111010101110001000001000: 554368 650941 598931 594721 587335
0111010101110001000101010: 554368 650941 598931 594721 574539
0111110110110001100010000: 554368 650941 598931 545211 495196
0111110110110001100010000: 554368 650941 598931 545211 635653
0111110110110001100010000: 554368 650941 598931 545211 474868
0111110110110001100010000: 554368 650941 598931 545211 621421
0111110110110001100010000: 554368 650941 598931 545211 594721
0111110100110001000010000: 554368 545211 650941 635653 495196
0111110100110001000010000: 554368 545211 650941 511933 495196
0111110100110001000010000: 554368 545211 650941 511933 635653
0111110100110001000010000: 554368 545211 650941 511933 474868
0111110100110001000010000: 554368 545211 650941 621421 495196
0111110100110001000010000: 554368 545211 650941 621421 635653
0111110100110001000010000: 554368 545211 650941 621421 474868
0111110100110001000010000: 554368 545211 650941 621421 511933
0111110100110001000010000: 554368 545211 650941 594721 495196
0111110100110001000010000: 554368 545211 650941 594721 635653
0111110100110001000010000: 554368 545211 650941 594721 474868
0111110100110001000010000: 554368 545211 650941 594721 511933
0111110100110001000010000: 554368 545211 650941 594721 621421
0111110110110011100010100: 554368 545211 650941 539571 598931
0111010110110011100000100: 554368 545211 650941 539571 587335
0111010110110011100000100: 554368 545211 650941 539571 574539
0111010110110011100000100: 554368 545211 650941 550157 587335
0111010110110011100000100: 554368 545211 650941 550157 574539
0111110110110001100010000: 554368 545211 539571 650941 495196
0111110110110001100010000: 554368 545211 539571 650941 635653
0111110110110001100010000: 554368 545211 539571 650941 474868
0111110110110001100010000: 554368 545211 539571 650941 511933
0111110110110001100010000: 554368 545211 539571 650941 621421
0111110110110001100010000: 554368 545211 539571 650941 594721
0111010110110011100000100: 554368 545211 539571 650941 475832
0111110110110001100010000: 554368 545211 550157 650941 495196
0111110110110001100010000: 554368 545211 550157 650941 474868
0111110110110001100010000: 554368 545211 550157 650941 511933
0111110110110001100010000: 554368 545211 550157 650941 594721
0111010110110011100000100: 554368 545211 550157 650941 475832
0111010110110011100000100: 554368 545211 550157 650941 472580
0111110111110101110011000: 554368 545211 550157 539571 650941
0110010010100010100000100: 554368 539571 650941 475832 587335
0110010010100010100000100: 554368 539571 650941 475832 574539
0111010101110001000001000: 554368 539571 545211 495196 475832
0111110100110001000010000: 554368 539571 545211 598931 495196
0111010101110001000001000: 554368 539571 545211 598931 475832
0111110100110001000010000: 554368 539571 545211 635653 495196
0111110100110001000010000: 554368 539571 545211 635653 598931
0111010101110001000001000: 554368 539571 545211 635653 475832
0111010100110001000100010: 554368 539571 545211 635653 587335
0111110100110001000010000: 554368 539571 545211 474868 598931
0111010101110001000001000: 554368 539571 545211 474868 475832
0111110100110001000010000: 554368 539571 545211 511933 495196
0111110100110001000010000: 554368 539571 545211 511933 635653
0111110100110001000010000: 554368 539571 545211 511933 474868
0111010101110001000001000: 554368 539571 545211 511933 475832
0111110100110001000010000: 554368 539571 545211 621421 495196
0111110100110001000010000: 554368 539571 545211 621421 598931
0111110100110001000010000: 554368 539571 545211 621421 635653
0111110100110001000010000: 554368 539571 545211 621421 474868
0111110100110001000010000: 554368 539571 545211 621421 511933
0111010101110001000001000: 554368 539571 545211 621421 475832
0111010100110001000100010: 554368 539571 545211 621421 574539
0111110100110001000010000: 554368 539571 545211 594721 495196
0111110100110001000010000: 554368 539571 545211 594721 598931
0111110100110001000010000: 554368 539571 545211 594721 635653
0111110100110001000010000: 554368 539571 545211 594721 474868
0111110100110001000010000: 554368 539571 545211 594721 511933
0111110100110001000010000: 554368 539571 545211 594721 621421
0111010101110001000001000: 554368 539571 545211 594721 475832
0111010100110001000100010: 554368 539571 545211 594721 574539
0111110100110001000010000: 554368 598931 650941 539571 495196
0111010100110001000100010: 554368 598931 650941 539571 475832
0111110100110001000010000: 554368 598931 650941 635653 495196
0111110100110001000010000: 554368 598931 650941 635653 539571
0111110100110001000010000: 554368 598931 650941 474868 539571
0111110100110001000010000: 554368 598931 650941 621421 495196
0111110100110001000010000: 554368 598931 650941 621421 539571
0111110100110001000010000: 554368 598931 650941 621421 635653
0111110100110001000010000: 554368 598931 650941 621421 474868
0111110100110001000010000: 554368 598931 650941 594721 495196
0111110100110001000010000: 554368 598931 650941 594721 539571
0111110100110001000010000: 554368 598931 650941 594721 635653
0111110100110001000010000: 554368 598931 650941 594721 474868
0111110100110001000010000: 554368 598931 650941 594721 621421
0111010110110011100000100: 554368 598931 650941 550157 587335
0111010110110011100000100: 554368 598931 650941 550157 574539
0111110110110011100010100: 554368 598931 650941 511933 545211
0111010110110011100000100: 554368 598931 650941 511933 587335
0111010110110011100000100: 554368 598931 650941 511933 574539
0111110110110001100010000: 554368 598931 550157 650941 495196
0111110110110001100010000: 554368 598931 550157 650941 474868
0111110110110001100010000: 554368 598931 550157 650941 594721
0111010110110011100000100: 554368 598931 550157 650941 475832
0111010110110011100000100: 554368 598931 550157 650941 472580
0111010110110011100000100: 554368 598931 550157 511933 475832
0111010110110011100000100: 554368 598931 550157 511933 472580
0111110110110001100010000: 554368 598931 511933 650941 495196
0111110110110001100010000: 554368 598931 511933 650941 539571
0111110110110001100010000: 554368 598931 511933 650941 635653
0111110110110001100010000: 554368 598931 511933 650941 474868
0111110110110001100010000: 554368 598931 511933 650941 621421
0111110110110001100010000: 554368 598931 511933 650941 594721
0111110110110001100010000: 554368 598931 511933 550157 495196
0111110110110001100010000: 554368 598931 511933 550157 474868
0111110110110001100010000: 554368 598931 511933 550157 594721
0111110111110001100011000: 554368 598931 511933 550157 650941
0111110000100001000010000: 554368 635653 539571 650941 495196
0110010010100010100000100: 554368 635653 539571 587335 475832
0111110000100001000010000: 554368 635653 598931 545211 495196
0111110000100001000010000: 554368 635653 598931 539571 495196
0111010101110001000101010: 554368 635653 474868 650941 587335
0111010101110001000001000: 554368 635653 474868 545211 587335
0111010101110001000001000: 554368 635653 474868 539571 587335
0111010101110001000001000: 554368 635653 474868 598931 587335
0111010101110001000001000: 554368 635653 474868 511933 587335
0111010101110001000001000: 554368 635653 474868 621421 587335
0111010101110001000001000: 554368 635653 474868 594721 587335
0111010101110001000001000: 554368 635653 550157 495196 587335
0111010101110001000101010: 554368 635653 550157 650941 587335
0111010101110001000001000: 554368 635653 550157 511933 587335
0111010101110001000001000: 554368 635653 550157 594721 587335
0111110110110001100010000: 554368 635653 550157 474868 650941
0111110110110001100010000: 554368 635653 550157 474868 511933
0111110110110001100010000: 554368 635653 550157 474868 594721
0111010110110011100000100: 554368 635653 550157 474868 475832
0111010110110011100000100: 554368 635653 550157 474868 472580
0111010100110001000100010: 554368 474868 495196 650941 587335
0111010100110001000100010: 554368 474868 495196 650941 574539
0111110100110001000110010: 554368 474868 495196 545211 650941
0111110100110001000010000: 554368 474868 495196 539571 650941
0111010100110001000100010: 554368 474868 495196 539571 475832
0111110100110001000110010: 554368 474868 495196 539571 545211
0111110100110001000010000: 554368 474868 495196 598931 545211
0111110100110001000010000: 554368 474868 495196 598931 539571
0111110100110001000110010: 554368 474868 495196 598931 650941
0111110100110001000010000: 554368 474868 495196 550157 650941
0111010100110001000100010: 554368 474868 495196 550157 475832
0111010100110001000100010: 554368 474868 495196 550157 472580
0111110100110001000010000: 554368 474868 495196 511933 650941
0111110100110001000010000: 554368 474868 495196 511933 545211
0111110100110001000010000: 554368 474868 495196 511933 539571
0111110100110001000010000: 554368 474868 495196 511933 550157
0111110100110001000010000: 554368 474868 495196 621421 650941
0111110100110001000010000: 554368 474868 495196 621421 545211
0111110100110001000010000: 554368 474868 495196 621421 539571
0111110100110001000010000: 554368 474868 495196 621421 598931
0111110100110001000010000: 554368 474868 495196 621421 511933
0111010100110001000100010: 554368 474868 495196 621421 574539
0111110100110001000010000: 554368 474868 495196 594721 650941
0111110100110001000010000: 554368 474868 495196 594721 545211
0111110100110001000010000: 554368 474868 495196 594721 539571
0111110100110001000010000: 554368 474868 495196 594721 598931
0111110100110001000010000: 554368 474868 495196 594721 550157
0111110100110001000010000: 554368 474868 495196 594721 511933
0111110100110001000010000: 554368 474868 495196 594721 621421
0111010100110001000100010: 554368 474868 495196 594721 574539
0111010100110001000100010: 554368 474868 635653 650941 574539
0111110100110001000110010: 554368 474868 635653 545211 650941
0111110100110001000010000: 554368 474868 635653 539571 650941
0111010100110001000100010: 554368 474868 635653 539571 475832
0111110100110001000110010: 554368 474868 635653 539571 545211
0111110100110001000010000: 554368 474868 635653 598931 545211
0111110100110001000010000: 554368 474868 635653 598931 539571
0111110100110001000110010: 554368 474868 635653 598931 650941
0111110100110001000010000: 554368 474868 635653 511933 650941
0111110100110001000010000: 554368 474868 635653 511933 545211
0111110100110001000010000: 554368 474868 635653 511933 539571
0111110100110001000010000: 554368 474868 635653 621421 650941
0111110100110001000010000: 554368 474868 635653 621421 545211
0111110100110001000010000: 554368 474868 635653 621421 539571
0111110100110001000010000: 554368 474868 635653 621421 598931
0111110100110001000010000: 554368 474868 635653 621421 511933
0111010100110001000100010: 554368 474868 635653 621421 574539
0111110100110001000010000: 554368 474868 635653 594721 650941
0111110100110001000010000: 554368 474868 635653 594721 545211
0111110100110001000010000: 554368 474868 635653 594721 539571
0111110100110001000010000: 554368 474868 635653 594721 598931
0111110100110001000010000: 554368 474868 635653 594721 511933
0111110100110001000010000: 554368 474868 635653 594721 621421
0111010100110001000100010: 554368 474868 635653 594721 574539
0111110110110001100010000: 554368 474868 635653 495196 650941
0111110110110001100010000: 554368 474868 635653 495196 545211
0111110110110001100010000: 554368 474868 635653 495196 539571
0111110110110001100010000: 554368 474868 635653 495196 598931
0111110110110001100010000: 554368 474868 635653 495196 511933
0111110110110001100010000: 554368 474868 635653 495196 621421
0111110110110001100010000: 554368 474868 635653 495196 594721
0111110110110011100010100: 554368 474868 635653 495196 550157
0111010110110011100000100: 554368 474868 635653 495196 587335
0110010010100010100000100: 554368 550157 650941 475832 587335
0110010010100010100000100: 554368 550157 650941 475832 574539
0110010010100010100000100: 554368 550157 650941 472580 587335
0110010010100010100000100: 554368 550157 650941 472580 574539
0111010101110001000001000: 554368 550157 545211 495196 475832
0111010101110001000001000: 554368 550157 545211 495196 472580
0111010101110001000001000: 554368 550157 545211 474868 475832
0111010101110001000001000: 554368 550157 545211 474868 472580
0111110100110001000110010: 554368 550157 545211 474868 495196
0111110100110001000010000: 554368 550157 545211 511933 495196
0111110100110001000010000: 554368 550157 545211 511933 474868
0111010101110001000001000: 554368 550157 545211 511933 475832
0111010101110001000001000: 554368 550157 545211 511933 472580
0111110100110001000010000: 554368 550157 545211 594721 495196
0111110100110001000010000: 554368 550157 545211 594721 474868
0111110100110001000010000: 554368 550157 545211 594721 511933
0111010101110001000001000: 554368 550157 545211 594721 475832
0111010101110001000001000: 554368 550157 545211 594721 472580
0111010100110001000100010: 554368 550157 545211 594721 574539
0111110110110011100010100: 554368 550157 545211 635653 650941
0111110110110011100010100: 554368 550157 545211 621421 650941
0111010101110001000001000: 554368 550157 539571 495196 472580
0111110100110001000010000: 554368 550157 539571 650941 495196
0111010101110001000001000: 554368 550157 539571 650941 472580
0111010100110001000100010: 554368 550157 539571 650941 587335
0111010100110001000100010: 554368 550157 539571 650941 574539
0111110100110001000010000: 554368 550157 539571 474868 650941
0111010101110001000001000: 554368 550157 539571 474868 472580
0111110100110001000110010: 554368 550157 539571 474868 495196
0111110100110001000010000: 554368 550157 539571 511933 495196
0111110100110001000010000: 554368 550157 539571 511933 650941
0111110100110001000010000: 554368 550157 539571 511933 474868
0111010101110001000001000: 554368 550157 539571 511933 472580
0111110100110001000010000: 554368 550157 539571 594721 495196
0111110100110001000010000: 554368 550157 539571 594721 650941
0111110100110001000010000: 554368 550157 539571 594721 474868
0111110100110001000010000: 554368 550157 539571 594721 511933
0111010101110001000001000: 554368 550157 539571 594721 472580
0111010100110001000100010: 554368 550157 539571 594721 574539
0111110110110101110010000: 554368 550157 539571 545211 495196
0111110110110101110010000: 554368 550157 539571 545211 474868
0111110110110101110010000: 554368 550157 539571 545211 511933
0111110110110101110010000: 554368 550157 539571 545211 594721
0111110111110101110011000: 554368 550157 539571 545211 598931
0111110111110101110011000: 554368 550157 539571 545211 635653
0111110111110101110011000: 554368 550157 539571 545211 621421
0111010101110001000001000: 554368 550157 598931 495196 475832
0111010101110001000001000: 554368 550157 598931 495196 472580
0111010101110001000001000: 554368 550157 598931 474868 475832
0111010101110001000001000: 554368 550157 598931 474868 472580
0111110100110001000110010: 554368 550157 598931 474868 495196
0111110100110001000010000: 554368 550157 598931 594721 495196
0111110100110001000010000: 554368 550157 598931 594721 474868
0111010101110001000001000: 554368 550157 598931 594721 475832
0111010101110001000001000: 554368 550157 598931 594721 472580
0111010100110001000100010: 554368 550157 598931 594721 574539
0111110110110001100010000: 554368 550157 598931 545211 495196
0111110110110001100010000: 554368 550157 598931 545211 474868
0111110110110001100010000: 554368 550157 598931 545211 594721
0111110110110011100010100: 554368 550157 598931 545211 511933
0111110110110011100110110: 554368 550157 598931 545211 650941
0111110110110001100010000: 554368 550157 598931 539571 495196
0111110110110001100010000: 554368 550157 598931 539571 474868
0111110110110001100010000: 554368 550157 598931 539571 594721
0111110110110011100010100: 554368 550157 598931 539571 650941
0111110110110011100010100: 554368 550157 598931 539571 511933
0111110110110011100010100: 554368 550157 598931 635653 650941
0111110110110011100010100: 554368 550157 598931 635653 511933
0111110110110011100010100: 554368 550157 598931 621421 650941
0111110110110011100010100: 554368 550157 598931 621421 511933
0111010101110001000001000: 554368 550157 635653 495196 475832
0111010101110001000001000: 554368 550157 635653 495196 472580
0111110100110001000010000: 554368 550157 635653 650941 495196
0111010101110001000001000: 554368 550157 635653 650941 475832
0111010101110001000001000: 554368 550157 635653 650941 472580
0111010100110001000100010: 554368 550157 635653 650941 574539
0111110100110001000010000: 554368 550157 635653 511933 495196
0111110100110001000010000: 554368 550157 635653 511933 650941
0111010101110001000001000: 554368 550157 635653 511933 475832
0111010101110001000001000: 554368 550157 635653 511933 472580
0111110100110001000010000: 554368 550157 635653 594721 495196
0111110100110001000010000: 554368 550157 635653 594721 650941
0111110100110001000010000: 554368 550157 635653 594721 511933
0111010101110001000001000: 554368 550157 635653 594721 475832
0111010101110001000001000: 554368 550157 635653 594721 472580
0111010100110001000100010: 554368 550157 635653 594721 574539
0111110110110001100010000: 554368 550157 635653 545211 495196
0111110110110001100010000: 554368 550157 635653 545211 511933
0111110110110001100010000: 554368 550157 635653 545211 594721
0111110110110011100010100: 554368 550157 635653 545211 474868
0111010110110011100000100: 554368 550157 635653 545211 587335
0111110110110001100010000: 554368 550157 635653 539571 495196
0111110110110001100010000: 554368 550157 635653 539571 650941
0111110110110001100010000: 554368 550157 635653 539571 511933
0111110110110001100010000: 554368 550157 635653 539571 594721
0111110110110011100010100: 554368 550157 635653 539571 474868
0111010110110011100000100: 554368 550157 635653 539571 587335
0111110110110001100010000: 554368 550157 635653 598931 495196
0111110110110001100010000: 554368 550157 635653 598931 594721
0111110111110001100011000: 554368 550157 635653 598931 545211
0111110111110001100011000: 554368 550157 635653 598931 539571
0111110110110011100010100: 554368 550157 635653 598931 474868
0111010110110011100000100: 554368 550157 635653 598931 587335
0111110110110011100010100: 554368 550157 635653 621421 474868
0111010110110011100000100: 554368 550157 635653 621421 587335
0111010101110001000001000: 554368 550157 621421 495196 475832
0111010101110001000001000: 554368 550157 621421 495196 472580
0111010101110001000001000: 554368 550157 621421 650941 475832
0111010101110001000001000: 554368 550157 621421 650941 472580
0111010101110001000001000: 554368 550157 621421 474868 475832
0111010101110001000001000: 554368 550157 621421 474868 472580
0111010101110001000001000: 554368 550157 621421 511933 475832
0111010101110001000001000: 554368 550157 621421 511933 472580
0111010101110001000001000: 554368 550157 621421 594721 475832
0111010101110001000001000: 554368 550157 621421 594721 472580
0111110110110001100010000: 554368 550157 621421 545211 495196
0111110110110001100010000: 554368 550157 621421 545211 474868
0111110110110001100010000: 554368 550157 621421 545211 511933
0111110110110001100010000: 554368 550157 621421 545211 594721
0111010110110011100000100: 554368 550157 621421 545211 574539
0111110110110001100010000: 554368 550157 621421 539571 495196
0111110110110001100010000: 554368 550157 621421 539571 650941
0111110110110001100010000: 554368 550157 621421 539571 474868
0111110110110001100010000: 554368 550157 621421 539571 511933
0111110110110001100010000: 554368 550157 621421 539571 594721
0111010110110011100000100: 554368 550157 621421 539571 574539
0111110110110001100010000: 554368 550157 621421 598931 495196
0111110110110001100010000: 554368 550157 621421 598931 474868
0111110110110001100010000: 554368 550157 621421 598931 594721
0111110111110001100011000: 554368 550157 621421 598931 545211
0111110111110001100011000: 554368 550157 621421 598931 539571
0111010110110011100000100: 554368 550157 621421 598931 574539
0111110110110001100010000: 554368 550157 621421 635653 495196
0111110110110001100010000: 554368 550157 621421 635653 650941
0111110110110001100010000: 554368 550157 621421 635653 511933
0111110110110001100010000: 554368 550157 621421 635653 594721
0111110111110001100011000: 554368 550157 621421 635653 545211
0111110111110001100011000: 554368 550157 621421 635653 539571
0111110111110001100011000: 554368 550157 621421 635653 598931
0111010110110011100000100: 554368 550157 621421 635653 574539
0111110000100001000010000: 554368 511933 539571 650941 495196
0111110000100001000010000: 554368 511933 635653 650941 495196
0111110000100001000010000: 554368 511933 635653 545211 495196
0111110000100001000010000: 554368 511933 635653 539571 495196
0111110000100001000010000: 554368 511933 635653 539571 650941
0111110000100001000010000: 554368 511933 474868 539571 650941
0111110000100001000010000: 554368 511933 550157 650941 495196
0111110000100001000010000: 554368 511933 550157 474868 650941
0111110100110001000010000: 554368 511933 598931 545211 495196
0111110100110001000010000: 554368 511933 598931 539571 495196
0111010100110001000100010: 554368 511933 598931 539571 475832
0111110100110001000110010: 554368 511933 598931 539571 545211
0111110100110001000010000: 554368 511933 598931 635653 495196
0111110100110001000010000: 554368 511933 598931 635653 545211
0111110100110001000010000: 554368 511933 598931 635653 539571
0111010100110001000100010: 554368 511933 598931 635653 587335
0111110100110001000010000: 554368 511933 598931 474868 545211
0111110100110001000010000: 554368 511933 598931 474868 539571
0111110100110001000110010: 554368 511933 598931 474868 495196
0111110100110001000110010: 554368 511933 598931 474868 635653
0111110100110001000010000: 554368 511933 598931 621421 495196
0111110100110001000010000: 554368 511933 598931 621421 545211
0111110100110001000010000: 554368 511933 598931 621421 539571
0111110100110001000010000: 554368 511933 598931 621421 635653
0111110100110001000010000: 554368 511933 598931 621421 474868
0111010100110001000100010: 554368 511933 598931 621421 574539
0111110100110001000010000: 554368 511933 598931 594721 495196
0111110100110001000010000: 554368 511933 598931 594721 545211
0111110100110001000010000: 554368 511933 598931 594721 539571
0111110100110001000010000: 554368 511933 598931 594721 635653
0111110100110001000010000: 554368 511933 598931 594721 474868
0111110100110001000010000: 554368 511933 598931 594721 621421
0111010100110001000100010: 554368 511933 598931 594721 574539
0111110000100001000010000: 554368 621421 539571 650941 495196
0110010010100010100000100: 554368 621421 539571 574539 475832
0111110000100001000010000: 554368 621421 598931 545211 495196
0111110000100001000010000: 554368 621421 598931 539571 495196
0111110000100001000010000: 554368 621421 635653 650941 495196
0111110000100001000010000: 554368 621421 635653 545211 495196
0111110000100001000010000: 554368 621421 635653 539571 495196
0111110000100001000010000: 554368 621421 635653 539571 650941
0111110000100001000010000: 554368 621421 635653 598931 495196
0111110000100001000010000: 554368 621421 635653 598931 545211
0111110000100001000010000: 554368 621421 635653 598931 539571
0110010010100010100000100: 554368 621421 635653 574539 587335
0111110000100001000010000: 554368 621421 474868 539571 650941
0111110000100001000010000: 554368 621421 474868 598931 545211
0111110000100001000010000: 554368 621421 474868 598931 539571
0111110000100001000010000: 554368 621421 511933 650941 495196
0111110000100001000010000: 554368 621421 511933 545211 495196
0111110000100001000010000: 554368 621421 511933 539571 495196
0111110000100001000010000: 554368 621421 511933 539571 650941
0111110000100001000010000: 554368 621421 511933 635653 495196
0111110000100001000010000: 554368 621421 511933 635653 650941
0111110000100001000010000: 554368 621421 511933 635653 545211
0111110000100001000010000: 554368 621421 511933 635653 539571
0111110000100001000010000: 554368 621421 511933 474868 650941
0111110000100001000010000: 554368 621421 511933 474868 545211
0111110000100001000010000: 554368 621421 511933 474868 539571
0111110100110001000010000: 554368 621421 550157 650941 495196
0111010100110001000100010: 554368 621421 550157 650941 587335
0111110100110001000010000: 554368 621421 550157 474868 650941
0111110100110001000110010: 554368 621421 550157 474868 495196
0111110100110001000010000: 554368 621421 550157 511933 495196
0111110100110001000010000: 554368 621421 550157 511933 650941
0111110100110001000010000: 554368 621421 550157 511933 474868
0111110100110001000010000: 554368 621421 550157 594721 495196
0111110100110001000010000: 554368 621421 550157 594721 650941
0111110100110001000010000: 554368 621421 550157 594721 474868
0111110100110001000010000: 554368 621421 550157 594721 511933
0111110000100001000010000: 554368 594721 539571 650941 495196
0110010010100010100000100: 554368 594721 539571 574539 475832
0111110000100001000010000: 554368 594721 598931 545211 495196
0111110000100001000010000: 554368 594721 598931 539571 495196
0111110000100001000010000: 554368 594721 635653 650941 495196
0111110000100001000010000: 554368 594721 635653 545211 495196
0111110000100001000010000: 554368 594721 635653 539571 495196
0111110000100001000010000: 554368 594721 635653 539571 650941
0111110000100001000010000: 554368 594721 635653 598931 495196
0111110000100001000010000: 554368 594721 635653 598931 545211
0111110000100001000010000: 554368 594721 635653 598931 539571
0110010010100010100000100: 554368 594721 635653 574539 587335
0111110000100001000010000: 554368 594721 474868 539571 650941
0111110000100001000010000: 554368 594721 474868 598931 545211
0111110000100001000010000: 554368 594721 474868 598931 539571
0111110000100001000010000: 554368 594721 550157 650941 495196
0111110000100001000010000: 554368 594721 550157 474868 650941
0110010010100010100000100: 554368 594721 550157 574539 475832
0110010010100010100000100: 554368 594721 550157 574539 472580
0111110000100001000010000: 554368 594721 511933 650941 495196
0111110000100001000010000: 554368 594721 511933 545211 495196
0111110000100001000010000: 554368 594721 511933 539571 495196
0111110000100001000010000: 554368 594721 511933 539571 650941
0111110000100001000010000: 554368 594721 511933 635653 495196
0111110000100001000010000: 554368 594721 511933 635653 650941
0111110000100001000010000: 554368 594721 511933 635653 545211
0111110000100001000010000: 554368 594721 511933 635653 539571
0111110000100001000010000: 554368 594721 511933 474868 650941
0111110000100001000010000: 554368 594721 511933 474868 545211
0111110000100001000010000: 554368 594721 511933 474868 539571
0111110000100001000010000: 554368 594721 511933 550157 495196
0111110000100001000010000: 554368 594721 511933 550157 650941
0111110000100001000010000: 554368 594721 511933 550157 474868
0111110000100001000010000: 554368 594721 621421 650941 495196
0111110000100001000010000: 554368 594721 621421 545211 495196
0111110000100001000010000: 554368 594721 621421 539571 495196
0111110000100001000010000: 554368 594721 621421 539571 650941
0111110000100001000010000: 554368 594721 621421 598931 495196
0111110000100001000010000: 554368 594721 621421 598931 545211
0111110000100001000010000: 554368 594721 621421 598931 539571
0111110000100001000010000: 554368 594721 621421 635653 495196
0111110000100001000010000: 554368 594721 621421 635653 650941
0111110000100001000010000: 554368 594721 621421 635653 545211
0111110000100001000010000: 554368 594721 621421 635653 539571
0111110000100001000010000: 554368 594721 621421 635653 598931
0111110000100001000010000: 554368 594721 621421 474868 650941
0111110000100001000010000: 554368 594721 621421 474868 545211
0111110000100001000010000: 554368 594721 621421 474868 539571
0111110000100001000010000: 554368 594721 621421 474868 598931
0111110000100001000010000: 554368 594721 621421 511933 495196
0111110000100001000010000: 554368 594721 621421 511933 650941
0111110000100001000010000: 554368 594721 621421 511933 545211
0111110000100001000010000: 554368 594721 621421 511933 539571
0111110000100001000010000: 554368 594721 621421 511933 635653
0111110000100001000010000: 554368 594721 621421 511933 474868
0111010101110001000101010: 550157 545211 539571 598931 650941
0111010101110001000001000: 550157 545211 539571 635653 650941
0111010101110001000001000: 550157 545211 539571 472580 650941
0111010101110001000001000: 550157 545211 539571 621421 650941
0111010100110001000100010: 550157 539571 545211 598931 511933
0111110100110001000010000: 550157 539571 545211 635653 598931
0111010100110001000100010: 550157 539571 545211 635653 587335
0111010100110001000100010: 550157 539571 545211 635653 474868
0111110100110001000010000: 550157 539571 545211 472580 598931
0111110100110001000010000: 550157 539571 545211 472580 635653
0111110100110001000010000: 550157 539571 545211 621421 598931
0111110100110001000010000: 550157 539571 545211 621421 635653
0111110100110001000010000: 550157 539571 545211 621421 472580
0111010100110001000100010: 550157 539571 545211 621421 574539
0111010110110011100000100: 550157 539571 545211 475832 650941
0111110110110001100010000: 550157 539571 475832 545211 598931
0111110110110001100010000: 550157 539571 475832 545211 635653
0111110110110001100010000: 550157 539571 475832 545211 621421
0111010110110011100000100: 550157 539571 554368 475832 495196
0111010110110011100000100: 550157 539571 554368 475832 650941
0111010110110011100000100: 550157 539571 554368 475832 474868
0111010110110011100000100: 550157 539571 554368 475832 511933
0111010110110011100000100: 550157 539571 554368 475832 594721
0111110111110101110011000: 550157 539571 554368 545211 475832
0110010011100100110001000: 550157 598931 545211 650941 511933
0110010011100000100001000: 550157 598931 539571 511933 650941
0110010011100000100001000: 550157 598931 475832 511933 650941
0110010011100000100001000: 550157 598931 635653 511933 650941
0110010011100000100001000: 550157 598931 472580 511933 650941
0110010011100000100001000: 550157 598931 621421 511933 650941
0111010100110001000100010: 550157 475832 539571 598931 650941
0111010100110001000100010: 550157 475832 539571 598931 511933
0111110100110001000010000: 550157 475832 539571 635653 598931
0111010100110001000100010: 550157 475832 539571 635653 587335
0111010100110001000100010: 550157 475832 539571 635653 474868
0111110100110001000010000: 550157 475832 539571 621421 598931
0111110100110001000010000: 550157 475832 539571 621421 635653
0111010100110001000100010: 550157 475832 539571 621421 574539
0111110110110011100010100: 550157 475832 539571 472580 545211
0111110110110011100010100: 550157 475832 539571 472580 554368
0111110110110001100010000: 550157 475832 472580 539571 598931
0111110110110001100010000: 550157 475832 472580 539571 635653
0111110110110001100010000: 550157 475832 472580 539571 621421
0110010010100010100100110: 550157 635653 545211 587335 650941
0110010011100000100001000: 550157 635653 545211 474868 587335
0110010010100010100000100: 550157 635653 545211 474868 650941
0110010011100000100001000: 550157 635653 539571 474868 587335
0110010010100010100000100: 550157 635653 598931 587335 511933
0110010010100010100100110: 550157 635653 598931 587335 650941
0110010011100000100001000: 550157 635653 598931 474868 587335
0110010010100010100000100: 550157 635653 598931 474868 650941
0110010010100010100000100: 550157 635653 598931 474868 511933
0111110000100001000010000: 550157 635653 475832 598931 545211
0110010011100000100001000: 550157 635653 475832 474868 587335
0110010011100000100001000: 550157 635653 472580 474868 587335
0110010011100000100001000: 550157 635653 621421 474868 587335
0111010101110001000001000: 550157 635653 554368 475832 587335
0111010101110001000001000: 550157 635653 554368 472580 587335
0111110000100001000010000: 550157 472580 635653 598931 545211
0111110000100001000010000: 550157 472580 635653 598931 539571
0111010100110001000100010: 550157 472580 475832 545211 650941
0111110100110001000010000: 550157 472580 475832 598931 545211
0111010100110001000100010: 550157 472580 475832 598931 650941
0111010100110001000100010: 550157 472580 475832 598931 511933
0111110100110001000010000: 550157 472580 475832 635653 545211
0111110100110001000010000: 550157 472580 475832 635653 598931
0111010100110001000100010: 550157 472580 475832 635653 587335
0111010100110001000100010: 550157 472580 475832 635653 474868
0111010100110001000100010: 550157 472580 475832 554368 495196
0111010100110001000100010: 550157 472580 475832 554368 650941
0111010100110001000100010: 550157 472580 475832 554368 474868
0111010100110001000100010: 550157 472580 475832 554368 511933
0111010100110001000100010: 550157 472580 475832 554368 594721
0111110100110001000010000: 550157 472580 475832 621421 545211
0111110100110001000010000: 550157 472580 475832 621421 598931
0111110100110001000010000: 550157 472580 475832 621421 635653
0111010100110001000100010: 550157 472580 475832 621421 574539
0110010011100000100001000: 550157 554368 475832 650941 495196
0110010011100000100001000: 550157 554368 475832 474868 650941
0110010011100000100001000: 550157 554368 475832 511933 495196
0110010011100000100001000: 550157 554368 475832 511933 650941
0110010011100000100001000: 550157 554368 475832 511933 474868
0110010011100000100001000: 550157 554368 475832 594721 495196
0110010011100000100001000: 550157 554368 475832 594721 650941
0110010011100000100001000: 550157 554368 475832 594721 474868
0110010011100000100001000: 550157 554368 475832 594721 511933
0110010011100000100001000: 550157 554368 472580 650941 495196
0110010011100000100001000: 550157 554368 472580 474868 650941
0110010011100000100001000: 550157 554368 472580 511933 495196
0110010011100000100001000: 550157 554368 472580 511933 650941
0110010011100000100001000: 550157 554368 472580 511933 474868
0110010011100000100001000: 550157 554368 472580 594721 495196
0110010011100000100001000: 550157 554368 472580 594721 650941
0110010011100000100001000: 550157 554368 472580 594721 474868
0110010011100000100001000: 550157 554368 472580 594721 511933
0111110100110001000110010: 550157 554368 545211 472580 475832
0111110110110011100010100: 550157 554368 539571 598931 475832
0111110110110011100010100: 550157 554368 539571 635653 475832
0111110110110011100010100: 550157 554368 539571 621421 475832
0111110110110101110010000: 550157 554368 539571 545211 472580
0111110100110001000110010: 550157 554368 598931 472580 475832
0111110110110001100010000: 550157 554368 598931 545211 475832
0111110110110001100010000: 550157 554368 598931 545211 472580
0111110110110001100010000: 550157 554368 598931 539571 472580
0111110100110001000110010: 550157 554368 635653 472580 475832
0111110110110001100010000: 550157 554368 635653 545211 475832
0111110110110001100010000: 550157 554368 635653 545211 472580
0111110110110001100010000: 550157 554368 635653 539571 472580
0111110110110001100010000: 550157 554368 635653 598931 475832
0111110110110001100010000: 550157 554368 635653 598931 472580
0111110110110001100010000: 550157 554368 621421 545211 475832
0111110110110001100010000: 550157 554368 621421 545211 472580
0111110110110001100010000: 550157 554368 621421 539571 472580
0111110110110001100010000: 550157 554368 621421 598931 475832
0111110110110001100010000: 550157 554368 621421 598931 472580
0111110110110001100010000: 550157 554368 621421 635653 475832
0111110110110001100010000: 550157 554368 621421 635653 472580
0110010010100010100000100: 550157 621421 598931 574539 511933
0111110000100001000010000: 550157 621421 475832 598931 545211
0111110000100001000010000: 550157 621421 635653 598931 545211
0111110000100001000010000: 550157 621421 635653 598931 539571
0111110000100001000010000: 550157 621421 635653 475832 545211
0111110000100001000010000: 550157 621421 635653 475832 598931
0110010010100010100000100: 550157 621421 635653 574539 587335
0110010010100010100000100: 550157 621421 635653 574539 474868
0111110000100001000010000: 550157 621421 472580 598931 545211
0111110000100001000010000: 550157 621421 472580 598931 539571
0111110000100001000010000: 550157 621421 472580 635653 545211
0111110000100001000010000: 550157 621421 472580 635653 539571
0111110000100001000010000: 550157 621421 472580 635653 598931
0111110100110001000110010: 550157 621421 554368 472580 475832
0110010011100000100001000: 474868 635653 495196 550157 587335
0110010010100010100000100: 635653 474868 587335 495196 650941
0110010010100010100000100: 635653 550157 587335 539571 650941
0110010011100000100001000: 635653 550157 587335 598931 545211
0110010011100000100001000: 635653 550157 587335 598931 539571
0110010011100000100001000: 635653 550157 587335 475832 545211
0110010011100000100001000: 635653 550157 587335 475832 598931
0110010010100010100000100: 635653 550157 587335 475832 650941
0110010011100000100001000: 635653 550157 587335 472580 545211
0110010011100000100001000: 635653 550157 587335 472580 539571
0110010011100000100001000: 635653 550157 587335 472580 598931
0110010010100010100000100: 635653 550157 587335 472580 650941
0110010011100000100001000: 635653 550157 587335 621421 545211
0110010011100000100001000: 635653 550157 587335 621421 539571
0110010011100000100001000: 635653 550157 587335 621421 598931
0110010011100000100001000: 635653 550157 587335 621421 475832
0110010011100000100001000: 635653 550157 587335 621421 472580
0110010010100010100000100: 635653 550157 587335 621421 650941
0110010010100010100000100: 635653 550157 474868 545211 495196
0110010010100010100000100: 635653 550157 474868 539571 495196
0110010011100000100001000: 635653 550157 474868 598931 545211
0110010011100000100001000: 635653 550157 474868 598931 539571
0110010010100010100000100: 635653 550157 474868 598931 495196
0110010011100000100001000: 635653 550157 474868 475832 545211
0110010011100000100001000: 635653 550157 474868 475832 598931
0110010010100010100000100: 635653 550157 474868 475832 495196
0110010011100000100001000: 635653 550157 474868 472580 545211
0110010011100000100001000: 635653 550157 474868 472580 539571
0110010011100000100001000: 635653 550157 474868 472580 598931
0110010010100010100000100: 635653 550157 474868 472580 495196
0110010011100000100001000: 635653 550157 474868 621421 545211
0110010011100000100001000: 635653 550157 474868 621421 539571
0110010011100000100001000: 635653 550157 474868 621421 598931
0110010011100000100001000: 635653 550157 474868 621421 475832
0110010011100000100001000: 635653 550157 474868 621421 472580
0110010010100010100000100: 635653 550157 474868 621421 495196
0110010011100000100001000: 635653 554368 587335 545211 495196
0110010011100000100001000: 635653 554368 587335 539571 495196
0110010011100000100001000: 635653 554368 587335 598931 495196
0110010011100000100001000: 635653 554368 587335 598931 545211
0110010011100000100001000: 635653 554368 587335 598931 539571
0110010011100000100001000: 635653 554368 587335 511933 495196
0110010011100000100001000: 635653 554368 587335 511933 545211
0110010011100000100001000: 635653 554368 587335 511933 539571
0110010011100000100001000: 635653 554368 587335 621421 495196
0110010011100000100001000: 635653 554368 587335 621421 545211
0110010011100000100001000: 635653 554368 587335 621421 539571
0110010011100000100001000: 635653 554368 587335 621421 598931
0110010011100000100001000: 635653 554368 587335 621421 511933
0110010011100000100001000: 635653 554368 587335 594721 495196
0110010011100000100001000: 635653 554368 587335 594721 545211
0110010011100000100001000: 635653 554368 587335 594721 539571
0110010011100000100001000: 635653 554368 587335 594721 598931
0110010011100000100001000: 635653 554368 587335 594721 511933
0110010011100000100001000: 635653 554368 587335 594721 621421
0110010011100100110001000: 635653 554368 587335 650941 495196
0110010011100100110001000: 635653 554368 587335 650941 539571
0110010011100100110001000: 635653 554368 587335 650941 511933
0110010011100100110001000: 635653 554368 587335 650941 621421
0110010011100100110001000: 635653 554368 587335 650941 594721
0111110110110001100010000: 635653 554368 550157 474868 587335
0110010011100000100001000: 598931 650941 550157 574539 587335
0110010011100100110001000: 598931 650941 550157 545211 587335
0110010011100100110001000: 598931 650941 550157 545211 574539
0110010011100000100001000: 598931 650941 511933 545211 587335
0110010011100000100001000: 598931 650941 511933 574539 587335
0110010011100000100001000: 598931 650941 511933 574539 545211
0110010010100010100000100: 598931 550157 650941 539571 587335
0110010010100010100000100: 598931 550157 650941 539571 574539
0110010010100010100000100: 598931 550157 650941 475832 587335
0110010010100010100000100: 598931 550157 650941 475832 574539
0110010011100000100001000: 598931 550157 650941 635653 539571
0110010011100000100001000: 598931 550157 650941 635653 475832
0110010010100010100000100: 598931 550157 650941 635653 574539
0110010011100000100001000: 598931 550157 650941 472580 539571
0110010011100000100001000: 598931 550157 650941 472580 635653
0110010010100010100000100: 598931 550157 650941 472580 587335
0110010010100010100000100: 598931 550157 650941 472580 574539
0110010011100000100001000: 598931 550157 650941 621421 539571
0110010011100000100001000: 598931 550157 650941 621421 475832
0110010011100000100001000: 598931 550157 650941 621421 635653
0110010011100000100001000: 598931 550157 650941 621421 472580
0110010010100010100000100: 598931 550157 650941 621421 587335
0110010011100100110001000: 598931 550157 650941 545211 475832
0110010011100100110001000: 598931 550157 650941 545211 635653
0110010011100100110001000: 598931 550157 650941 545211 472580
0110010011100100110001000: 598931 550157 650941 545211 621421
0110010011100000100001000: 598931 550157 511933 475832 545211
0110010011100000100001000: 598931 550157 511933 635653 545211
0110010011100000100001000: 598931 550157 511933 635653 539571
0110010011100000100001000: 598931 550157 511933 635653 475832
0110010011100000100001000: 598931 550157 511933 472580 545211
0110010011100000100001000: 598931 550157 511933 472580 539571
0110010011100000100001000: 598931 550157 511933 472580 635653
0110010011100000100001000: 598931 550157 511933 621421 545211
0110010011100000100001000: 598931 550157 511933 621421 539571
0110010011100000100001000: 598931 550157 511933 621421 475832
0110010011100000100001000: 598931 550157 511933 621421 635653
0110010011100000100001000: 598931 550157 511933 621421 472580
0110010010100010100000100: 539571 475832 545211 472580 650941
0110010010100010100000100: 539571 554368 475832 495196 472580
0110010011100000100001000: 539571 554368 475832 650941 495196
0110010010100010100000100: 539571 554368 475832 650941 472580
0110010011100000100001000: 539571 554368 475832 598931 495196
0110010010100010100000100: 539571 554368 475832 598931 472580
0110010011100000100001000: 539571 554368 475832 635653 495196
0110010011100000100001000: 539571 554368 475832 635653 650941
0110010011100000100001000: 539571 554368 475832 635653 598931
0110010010100010100000100: 539571 554368 475832 635653 472580
0110010011100000100001000: 539571 554368 475832 474868 650941
0110010011100000100001000: 539571 554368 475832 474868 598931
0110010010100010100000100: 539571 554368 475832 474868 472580
0110010011100000100001000: 539571 554368 475832 511933 495196
0110010011100000100001000: 539571 554368 475832 511933 650941
0110010011100000100001000: 539571 554368 475832 511933 635653
0110010011100000100001000: 539571 554368 475832 511933 474868
0110010010100010100000100: 539571 554368 475832 511933 472580
0110010011100000100001000: 539571 554368 475832 621421 495196
0110010011100000100001000: 539571 554368 475832 621421 650941
0110010011100000100001000: 539571 554368 475832 621421 598931
0110010011100000100001000: 539571 554368 475832 621421 635653
0110010011100000100001000: 539571 554368 475832 621421 474868
0110010011100000100001000: 539571 554368 475832 621421 511933
0110010010100010100000100: 539571 554368 475832 621421 472580
0110010011100000100001000: 539571 554368 475832 594721 495196
0110010011100000100001000: 539571 554368 475832 594721 650941
0110010011100000100001000: 539571 554368 475832 594721 598931
0110010011100000100001000: 539571 554368 475832 594721 635653
0110010011100000100001000: 539571 554368 475832 594721 474868
0110010011100000100001000: 539571 554368 475832 594721 511933
0110010011100000100001000: 539571 554368 475832 594721 621421
0110010010100010100000100: 539571 554368 475832 594721 472580
0111010100110001000100010: 539571 554368 545211 475832 472580
0110010011100000100001000: 545211 650941 539571 598931 587335
0110010011100000100001000: 545211 650941 539571 574539 587335
0110010011100000100001000: 545211 650941 539571 574539 598931
0110010011100000100001000: 545211 650941 550157 574539 587335
0110010010100010100000100: 545211 539571 650941 475832 587335
0110010010100010100000100: 545211 539571 650941 475832 598931
0110010010100010100000100: 545211 539571 650941 475832 574539
0110010010100010100000100: 545211 550157 650941 475832 587335
0110010010100010100000100: 545211 550157 650941 475832 574539
0110010011100000100001000: 545211 550157 650941 635653 475832
0110010010100010100000100: 545211 550157 650941 635653 574539
0110010011100000100001000: 545211 550157 650941 472580 635653
0110010010100010100000100: 545211 550157 650941 472580 587335
0110010010100010100000100: 545211 550157 650941 472580 574539
0110010011100000100001000: 545211 550157 650941 621421 475832
0110010011100000100001000: 545211 550157 650941 621421 635653
0110010011100000100001000: 545211 550157 650941 621421 472580
0110010010100010100000100: 545211 550157 650941 621421 587335
0111010100110001000100010: 545211 550157 539571 650941 587335
0111010100110001000100010: 545211 550157 539571 650941 574539
0110010010100010100000100: 650941 545211 587335 539571 635653
0110010011100000100001000: 650941 598931 587335 511933 550157
0110010010100010100000100: 650941 598931 587335 511933 635653
0110010010100010100000100: 650941 598931 545211 511933 539571
0110010011100000100001000: 650941 598931 574539 511933 550157
0110010011100000100001000: 650941 554368 587335 539571 495196
0110010011100000100001000: 650941 554368 587335 474868 539571
0110010011100000100001000: 650941 554368 587335 550157 495196
0110010011100000100001000: 650941 554368 587335 550157 474868
0110010011100000100001000: 650941 554368 587335 511933 495196
0110010011100000100001000: 650941 554368 587335 511933 539571
0110010011100000100001000: 650941 554368 587335 511933 474868
0110010011100000100001000: 650941 554368 587335 511933 550157
0110010011100000100001000: 650941 554368 587335 621421 495196
0110010011100000100001000: 650941 554368 587335 621421 539571
0110010011100000100001000: 650941 554368 587335 621421 474868
0110010011100000100001000: 650941 554368 587335 621421 511933
0110010011100000100001000: 650941 554368 587335 594721 495196
0110010011100000100001000: 650941 554368 587335 594721 539571
0110010011100000100001000: 650941 554368 587335 594721 474868
0110010011100000100001000: 650941 554368 587335 594721 550157
0110010011100000100001000: 650941 554368 587335 594721 511933
0110010011100000100001000: 650941 554368 587335 594721 621421
0110010011100000100001000: 650941 554368 574539 539571 495196
0110010011100000100001000: 650941 554368 574539 635653 495196
0110010011100000100001000: 650941 554368 574539 635653 539571
0110010011100000100001000: 650941 554368 574539 474868 539571
0110010011100000100001000: 650941 554368 574539 550157 495196
0110010011100000100001000: 650941 554368 574539 550157 474868
0110010011100000100001000: 650941 554368 574539 511933 495196
0110010011100000100001000: 650941 554368 574539 511933 539571
0110010011100000100001000: 650941 554368 574539 511933 635653
0110010011100000100001000: 650941 554368 574539 511933 474868
0110010011100000100001000: 650941 554368 574539 511933 550157
0111110100110001000010000: 650941 554368 545211 574539 587335
0111110100110001000010000: 650941 554368 598931 574539 587335
0111110110110001100010000: 650941 554368 598931 545211 587335
0111110110110001100010000: 650941 554368 598931 545211 574539
0110010010100010100000100: 650941 574539 587335 621421 635653
0110010011100000100001000: 650941 574539 587335 594721 621421
0110010010100010100000100: 650941 574539 587335 594721 635653
0110010010100010100000100: 650941 574539 545211 621421 539571
0110010011100000100001000: 650941 574539 545211 594721 621421
0110010010100010100000100: 650941 574539 545211 594721 539571
0110010010100010100000100: 650941 574539 545211 594721 550157
0111110000100001000010000: 650941 574539 598931 545211 587335
0110010010100010100000100: 650941 574539 598931 621421 511933
0110010011100000100001000: 650941 574539 598931 594721 621421
0110010010100010100000100: 650941 574539 598931 594721 550157
0110010010100010100000100: 650941 574539 598931 594721 511933
0110010011100000100001000: 587335 650941 635653 598931 545211
0110010011100000100001000: 587335 650941 635653 574539 545211
0110010011100000100001000: 587335 650941 635653 574539 598931
0110010010100010100000100: 587335 635653 650941 474868 545211
0110010010100010100000100: 587335 635653 650941 474868 598931
0110010010100010100000100: 587335 635653 650941 474868 574539
0110010011100000100001000: 587335 635653 650941 550157 474868
0110010010100010100000100: 587335 635653 650941 550157 574539
