Vertex,0100101101000100,0111100010001000,0110100110000100,0110101111000100,0101101101001100,0111100110011110,0101101101011110,0100101001010010,0110100110010110,0110100010010010,0111101011001000,0111101111011110,0111101111001100,0111100010011010,0101101001011010,0110101111010110,0111101011011010,0110101011010010,0101101001001000,0111100110001100
647424,6.0,165.0,154.0,130.0,16.0,8.0,9.0,8.0,70.0,72.0,292.0,155.0,162.0,52.0,28.0,139.0,139.0,80.0,44.0,76.0
554368,2.0,407.0,315.0,294.0,40.0,14.0,16.0,12.0,35.0,160.0,651.0,465.0,522.0,112.0,16.0,374.0,402.0,192.0,90.0,172.0
457529,6.0,181.0,252.0,253.0,42.0,12.0,15.0,12.0,35.0,128.0,542.0,465.0,288.0,90.0,14.0,216.0,228.0,173.0,72.0,153.0
521181,8.0,212.0,245.0,174.0,28.0,8.0,8.0,12.0,35.0,126.0,374.0,310.0,306.0,62.0,14.0,219.0,235.0,120.0,70.0,104.0
636672,0.0,232.0,154.0,75.0,6.0,4.0,5.0,8.0,70.0,67.0,174.0,0.0,144.0,32.0,28.0,108.0,115.0,45.0,44.0,41.0
561428,8.0,268.0,350.0,235.0,46.0,12.0,15.0,20.0,105.0,173.0,486.0,310.0,432.0,76.0,44.0,303.0,329.0,173.0,100.0,145.0
617551,2.0,127.0,227.0,102.0,24.0,2.0,2.0,24.0,0.0,120.0,206.0,0.0,54.0,32.0,0.0,37.0,40.0,72.0,62.0,68.0
649504,4.0,46.0,168.0,68.0,16.0,4.0,7.0,0.0,0.0,74.0,137.0,0.0,36.0,20.0,0.0,34.0,35.0,52.0,48.0,44.0
601541,6.0,213.0,119.0,67.0,6.0,2.0,2.0,0.0,0.0,51.0,155.0,0.0,72.0,28.0,0.0,54.0,58.0,41.0,34.0,37.0
653783,0.0,264.0,168.0,71.0,6.0,0.0,0.0,2.0,70.0,79.0,164.0,0.0,90.0,30.0,32.0,50.0,60.0,43.0,48.0,39.0
514866,0.0,264.0,168.0,71.0,6.0,0.0,0.0,2.0,70.0,79.0,165.0,0.0,90.0,30.0,32.0,50.0,60.0,43.0,48.0,39.0
648645,6.0,213.0,213.0,79.0,10.0,2.0,2.0,22.0,0.0,114.0,173.0,0.0,72.0,30.0,0.0,54.0,56.0,53.0,58.0,45.0
536245,0.0,232.0,182.0,109.0,10.0,4.0,7.0,2.0,0.0,88.0,250.0,155.0,180.0,46.0,0.0,114.0,131.0,65.0,52.0,61.0
604505,0.0,0.0,122.0,12.0,4.0,0.0,0.0,30.0,0.0,83.0,20.0,0.0,0.0,2.0,0.0,0.0,0.0,12.0,32.0,8.0
643047,0.0,0.0,115.0,12.0,4.0,0.0,0.0,30.0,0.0,80.0,21.0,0.0,0.0,2.0,0.0,0.0,0.0,12.0,30.0,8.0
540482,0.0,0.0,168.0,24.0,8.0,0.0,0.0,0.0,70.0,86.0,42.0,0.0,0.0,4.0,32.0,0.0,0.0,24.0,48.0,16.0
graph,12.0,706.0,780.0,444.0,68.0,18.0,22.0,46.0,140.0,395.0,963.0,465.0,612.0,162.0,60.0,438.0,472.0,300.0,220.0,264.0
