0110100110000100: 589255 465847 613719 512742
0110100010010010: 589255 465847 613719 535022
0110100110000100: 589255 465847 613719 512742
0110100110000100: 589255 465847 613719 512742
0110100110000100: 589255 465847 613719 512742
0110100110000100: 589255 465847 613719 512742
0110100110000100: 589255 465847 613719 512742
0110100110000100: 589255 613719 465847 535022
0110100010010010: 589255 613719 465847 512742
0110100110000100: 589255 613719 465847 535022
0110100110000100: 589255 613719 465847 535022
0110100110000100: 589255 613719 465847 535022
0110100110000100: 589255 613719 465847 535022
0110100110000100: 589255 613719 465847 535022
0110100110000100: 613719 535022 589255 468349
0110100010010010: 613719 535022 589255 465847
0110100110000100: 613719 535022 589255 468349
0110100110000100: 613719 535022 589255 468349
0110100110000100: 613719 535022 589255 468349
0110100110000100: 613719 535022 589255 468349
0110100110000100: 613719 535022 589255 468349
0110100010010010: 613719 589255 535022 468349
0110100110000100: 613719 589255 535022 465847
0110100110000100: 613719 589255 535022 465847
0110100110000100: 613719 589255 535022 465847
0110100110000100: 613719 589255 535022 465847
0110100110000100: 504893 587029 514781 641049
0110100010010010: 504893 587029 514781 556285
0110100110000100: 504893 587029 514781 641049
0110100110000100: 504893 587029 514781 641049
0110100110000100: 504893 587029 514781 641049
0110100110000100: 504893 587029 514781 641049
0110100110000100: 504893 587029 514781 641049
0110100110000100: 504893 514781 587029 556285
0110100010010010: 504893 514781 587029 641049
0110100110000100: 504893 514781 587029 556285
0110100110000100: 504893 514781 587029 556285
0110100110000100: 504893 514781 587029 556285
0110100110000100: 504893 514781 587029 556285
0110100110000100: 504893 514781 587029 556285
0110100010010010: 514781 556285 504893 587029
0110100110000100: 514781 504893 556285 587029
0110100110000100: 514781 504893 556285 587029
0110100110000100: 514781 504893 556285 587029
0110100110000100: 535022 468349 613719 457250
0110100010010010: 535022 468349 613719 589255
0110100110000100: 535022 468349 613719 457250
0110100110000100: 535022 468349 613719 457250
0110100110000100: 535022 468349 613719 457250
0110100110000100: 535022 468349 613719 457250
0110100110000100: 535022 468349 613719 457250
0110100010010010: 535022 613719 468349 457250
0110100110000100: 535022 613719 468349 589255
0110100110000100: 535022 613719 468349 589255
0110100110000100: 535022 613719 468349 589255
0110100110000100: 535022 613719 468349 589255
0110100110000100: 468349 457250 535022 641049
0110100010010010: 468349 457250 535022 613719
0110100110000100: 468349 457250 535022 641049
0110100110000100: 468349 457250 535022 641049
0110100110000100: 468349 457250 535022 641049
0110100110000100: 468349 457250 535022 641049
0110100110000100: 468349 457250 535022 641049
0110100010010010: 468349 535022 457250 641049
0110100110000100: 468349 535022 457250 613719
0110100110000100: 468349 535022 457250 613719
0110100110000100: 468349 535022 457250 613719
0110100110000100: 468349 535022 457250 613719
0110100110000100: 457250 641049 468349 587029
0110100010010010: 457250 641049 468349 535022
0110100110000100: 457250 641049 468349 587029
0110100110000100: 457250 641049 468349 587029
0110100110000100: 457250 641049 468349 587029
0110100110000100: 457250 641049 468349 587029
0110100110000100: 457250 641049 468349 587029
0110100010010010: 457250 468349 641049 587029
0110100110000100: 457250 468349 641049 535022
0110100110000100: 457250 468349 641049 535022
0110100110000100: 457250 468349 641049 535022
0110100110000100: 457250 468349 641049 535022
0110100110000100: 641049 587029 457250 504893
0110100010010010: 641049 587029 457250 468349
0110100110000100: 641049 587029 457250 504893
0110100110000100: 641049 587029 457250 504893
0110100110000100: 641049 587029 457250 504893
0110100110000100: 641049 587029 457250 504893
0110100110000100: 641049 587029 457250 504893
0110100010010010: 641049 457250 587029 504893
0110100110000100: 641049 457250 587029 468349
0110100110000100: 641049 457250 587029 468349
0110100110000100: 641049 457250 587029 468349
0110100110000100: 641049 457250 587029 468349
0110100010010010: 512742 514357 465847 589255
0110100110000100: 512742 465847 514357 589255
0110100110000100: 512742 465847 514357 589255
0110100110000100: 512742 465847 514357 589255
0110100110000100: 512742 465847 514357 589255
0110100110000100: 512742 465847 514357 589255
0110100010010010: 465847 512742 589255 613719
0110100110000100: 465847 512742 589255 514357
0110100110000100: 465847 512742 589255 514357
0110100110000100: 465847 512742 589255 514357
0110100110000100: 465847 512742 589255 514357
0110100010010010: 465847 589255 512742 514357
0110100110000100: 465847 589255 512742 613719
0110100110000100: 465847 589255 512742 613719
0110100110000100: 465847 589255 512742 613719
0110100110000100: 465847 589255 512742 613719
0110100010010010: 587029 641049 504893 514781
0110100110000100: 587029 641049 504893 457250
0110100110000100: 587029 641049 504893 457250
0110100110000100: 587029 641049 504893 457250
0110100110000100: 587029 641049 504893 457250
0110100010010010: 587029 504893 641049 457250
0110100110000100: 587029 504893 641049 514781
0110100110000100: 587029 504893 641049 514781
0110100110000100: 587029 504893 641049 514781
0110100110000100: 587029 504893 641049 514781
