0111010101110001000001000: 470751 461858 587598 562338 560989
0111010101110001000101010: 470751 461858 587598 580492 560989
0111010101110001000001000: 470751 461858 587598 496553 560989
0111010101110001000001000: 470751 461858 587598 613488 560989
0111010101110001000001000: 470751 461858 587598 493584 560989
0111010110110011100000100: 470751 461858 587598 566580 490843
0111010110110011100000100: 470751 461858 587598 566580 528343
0111010101110001000001000: 470751 461858 566580 562338 560989
0111010101110001000001000: 470751 461858 566580 496553 560989
0111010101110001000001000: 470751 461858 566580 613488 560989
0111010101110001000001000: 470751 461858 566580 493584 560989
0111110110110001100010000: 470751 461858 566580 587598 562338
0111110110110001100010000: 470751 461858 566580 587598 496553
0111110110110001100010000: 470751 461858 566580 587598 613488
0111110110110001100010000: 470751 461858 566580 587598 493584
0111010110110011100000100: 470751 461858 566580 587598 607812
0111010110110011100000100: 470751 461858 566580 587598 602794
0111010110110011100000100: 470751 461858 566580 587598 482970
0110010010100010100000100: 470751 562338 461858 549254 560989
0110010011100000100001000: 470751 562338 461858 602794 549254
0110010010100010100100110: 470751 562338 461858 602794 560989
0110010011100000100001000: 470751 562338 461858 566696 549254
0110010010100010100000100: 470751 562338 461858 566696 560989
0110010011100000100001000: 470751 562338 587598 602794 549254
0110010011100000100001000: 470751 562338 587598 566696 549254
0110010011100000100001000: 470751 562338 580492 566696 549254
0110010011100100110001000: 470751 562338 580492 602794 549254
0110010011100000100001000: 470751 562338 496553 602794 549254
0110010011100000100001000: 470751 562338 496553 566696 549254
0110010011100000100001000: 470751 562338 613488 602794 549254
0110010011100000100001000: 470751 562338 613488 566696 549254
0110010011100000100001000: 470751 562338 566580 566696 549254
0110010011100100110001000: 470751 562338 566580 602794 549254
0110010011100000100001000: 470751 562338 493584 602794 549254
0110010011100000100001000: 470751 562338 493584 566696 549254
0110010010100010100000100: 470751 587598 562338 490843 549254
0110010010100010100000100: 470751 587598 562338 490843 602794
0110010010100010100000100: 470751 587598 562338 490843 566696
0110010011100000100001000: 470751 587598 562338 528343 490843
0110010010100010100000100: 470751 587598 562338 528343 549254
0110010010100010100000100: 470751 587598 562338 528343 602794
0110010010100010100000100: 470751 587598 562338 528343 566696
0110010011100000100001000: 470751 587598 580492 528343 490843
0110010011100100110001000: 470751 587598 496553 490843 528343
0110010011100100110001000: 470751 587598 613488 528343 490843
0110010011100000100001000: 470751 587598 566580 528343 490843
0110010011100000100001000: 470751 587598 493584 528343 490843
0111010101110001000001000: 470751 587598 461858 562338 490843
0111010101110001000001000: 470751 587598 461858 562338 528343
0111010100110001000100010: 470751 587598 461858 562338 549254
0111010100110001000100010: 470751 587598 461858 562338 602794
0111010100110001000100010: 470751 587598 461858 562338 566696
0111110100110001000010000: 470751 587598 461858 580492 562338
0111010101110001000001000: 470751 587598 461858 580492 490843
0111010101110001000001000: 470751 587598 461858 580492 528343
0111010100110001000100010: 470751 587598 461858 580492 607812
0111010100110001000100010: 470751 587598 461858 580492 570377
0111010100110001000100010: 470751 587598 461858 580492 602794
0111010100110001000100010: 470751 587598 461858 580492 561932
0111110100110001000010000: 470751 587598 461858 496553 562338
0111110100110001000010000: 470751 587598 461858 496553 580492
0111010101110001000001000: 470751 587598 461858 496553 528343
0111010100110001000100010: 470751 587598 461858 496553 570377
0111010100110001000100010: 470751 587598 461858 496553 457239
0111010101110001000101010: 470751 587598 461858 496553 490843
0111110100110001000010000: 470751 587598 461858 613488 562338
0111110100110001000010000: 470751 587598 461858 613488 580492
0111110100110001000010000: 470751 587598 461858 613488 496553
0111010101110001000001000: 470751 587598 461858 613488 490843
0111010101110001000101010: 470751 587598 461858 613488 528343
0111110100110001000010000: 470751 587598 461858 493584 562338
0111110100110001000010000: 470751 587598 461858 493584 580492
0111110100110001000010000: 470751 587598 461858 493584 496553
0111010101110001000001000: 470751 587598 461858 493584 490843
0111010101110001000001000: 470751 587598 461858 493584 528343
0110010011100000100001000: 470751 580492 461858 570377 607812
0110010011100000100001000: 470751 580492 461858 602794 607812
0110010011100000100001000: 470751 580492 461858 602794 570377
0110010011100000100001000: 470751 580492 461858 561932 607812
0110010011100000100001000: 470751 580492 461858 561932 570377
0110010011100000100001000: 470751 580492 461858 561932 602794
0110010011100100110001000: 470751 580492 461858 560989 607812
0110010011100100110001000: 470751 580492 461858 560989 570377
0110010011100100110001000: 470751 580492 461858 560989 561932
0110010010100010100000100: 470751 580492 562338 607812 549254
0110010010100010100000100: 470751 580492 562338 607812 566696
0110010011100000100001000: 470751 580492 562338 570377 607812
0110010010100010100000100: 470751 580492 562338 570377 549254
0110010010100010100100110: 470751 580492 562338 570377 566696
0110010011100000100001000: 470751 580492 562338 560989 607812
0110010011100000100001000: 470751 580492 562338 560989 570377
0110010010100010100000100: 470751 580492 562338 560989 549254
0110010010100010100000100: 470751 580492 562338 560989 566696
0110010011100000100001000: 470751 580492 562338 561932 607812
0110010011100000100001000: 470751 580492 562338 561932 570377
0110010011100000100001000: 470751 580492 562338 561932 560989
0110010010100010100000100: 470751 580492 562338 561932 549254
0110010010100010100100110: 470751 580492 562338 561932 566696
0110010011100100110001000: 470751 580492 562338 602794 607812
0110010011100100110001000: 470751 580492 562338 602794 570377
0110010011100100110001000: 470751 580492 562338 602794 561932
0110010010100010100000100: 470751 580492 587598 607812 490843
0110010010100010100000100: 470751 580492 587598 607812 528343
0110010011100000100001000: 470751 580492 587598 570377 607812
0110010010100010100000100: 470751 580492 587598 570377 490843
0110010010100010100000100: 470751 580492 587598 570377 528343
0110010011100000100001000: 470751 580492 587598 560989 607812
0110010011100000100001000: 470751 580492 587598 560989 570377
0110010010100010100000100: 470751 580492 587598 560989 490843
0110010010100010100000100: 470751 580492 587598 560989 528343
0110010011100000100001000: 470751 580492 587598 602794 607812
0110010011100000100001000: 470751 580492 587598 602794 570377
0110010010100010100000100: 470751 580492 587598 602794 490843
0110010010100010100000100: 470751 580492 587598 602794 528343
0110010011100000100001000: 470751 580492 587598 561932 607812
0110010011100000100001000: 470751 580492 587598 561932 570377
0110010011100000100001000: 470751 580492 587598 561932 560989
0110010011100000100001000: 470751 580492 587598 561932 602794
0110010010100010100000100: 470751 580492 587598 561932 490843
0110010010100010100000100: 470751 580492 587598 561932 528343
0110010011100000100001000: 470751 580492 496553 560989 607812
0110010011100000100001000: 470751 580492 496553 602794 607812
0110010011100000100001000: 470751 580492 496553 561932 607812
0110010011100000100001000: 470751 580492 496553 561932 560989
0110010011100000100001000: 470751 580492 496553 561932 602794
0110010011100100110001000: 470751 580492 496553 570377 607812
0110010011100100110001000: 470751 580492 496553 570377 560989
0110010011100100110001000: 470751 580492 496553 570377 602794
0110010011100100110001000: 470751 580492 496553 570377 561932
0110010011100000100001000: 470751 580492 613488 570377 607812
0110010011100000100001000: 470751 580492 613488 560989 607812
0110010011100000100001000: 470751 580492 613488 560989 570377
0110010011100000100001000: 470751 580492 613488 602794 607812
0110010011100000100001000: 470751 580492 613488 602794 570377
0110010011100000100001000: 470751 580492 613488 561932 607812
0110010011100000100001000: 470751 580492 613488 561932 570377
0110010011100000100001000: 470751 580492 613488 561932 560989
0110010011100000100001000: 470751 580492 613488 561932 602794
0110010011100000100001000: 470751 580492 493584 570377 607812
0110010011100000100001000: 470751 580492 493584 560989 607812
0110010011100000100001000: 470751 580492 493584 560989 570377
0110010011100000100001000: 470751 580492 493584 602794 607812
0110010011100000100001000: 470751 580492 493584 602794 570377
0110010011100000100001000: 470751 580492 493584 561932 607812
0110010011100000100001000: 470751 580492 493584 561932 570377
0110010011100000100001000: 470751 580492 493584 561932 560989
0110010011100000100001000: 470751 580492 493584 561932 602794
0111010101110001000001000: 470751 580492 566580 562338 570377
0111010101110001000001000: 470751 580492 566580 562338 560989
0111010101110001000001000: 470751 580492 566580 562338 561932
0111010101110001000001000: 470751 580492 566580 587598 570377
0111010101110001000001000: 470751 580492 566580 587598 560989
0111010101110001000001000: 470751 580492 566580 587598 561932
0111010101110001000001000: 470751 580492 566580 496553 560989
0111010101110001000001000: 470751 580492 566580 496553 561932
0111010101110001000101010: 470751 580492 566580 496553 570377
0111010101110001000001000: 470751 580492 566580 613488 570377
0111010101110001000001000: 470751 580492 566580 613488 560989
0111010101110001000001000: 470751 580492 566580 613488 561932
0111010101110001000001000: 470751 580492 566580 493584 570377
0111010101110001000001000: 470751 580492 566580 493584 560989
0111010101110001000001000: 470751 580492 566580 493584 561932
0110010010100010100000100: 470751 496553 461858 570377 560989
0110010011100000100001000: 470751 496553 461858 490843 570377
0110010010100010100000100: 470751 496553 461858 490843 560989
0110010011100000100001000: 470751 496553 461858 457239 570377
0110010011100000100001000: 470751 496553 461858 457239 490843
0110010010100010100100110: 470751 496553 461858 457239 560989
0110010010100010100000100: 470751 496553 562338 570377 549254
0110010010100010100000100: 470751 496553 562338 570377 602794
0110010010100010100100110: 470751 496553 562338 570377 566696
0110010011100000100001000: 470751 496553 562338 490843 570377
0110010010100010100000100: 470751 496553 562338 490843 549254
0110010010100010100000100: 470751 496553 562338 490843 602794
0110010010100010100000100: 470751 496553 562338 490843 566696
0110010011100000100001000: 470751 496553 562338 457239 570377
0110010011100000100001000: 470751 496553 562338 457239 490843
0110010010100010100000100: 470751 496553 562338 457239 549254
0110010010100010100000100: 470751 496553 562338 457239 602794
0110010010100010100000100: 470751 496553 562338 457239 566696
0110010010100010100000100: 470751 496553 587598 570377 528343
0110010011100000100001000: 470751 496553 587598 457239 570377
0110010010100010100000100: 470751 496553 587598 457239 528343
0110010011100100110001000: 470751 496553 587598 490843 570377
0110010011100100110001000: 470751 496553 587598 490843 457239
0111110000100001000010000: 470751 496553 580492 562338 461858
0111110000100001000010000: 470751 496553 580492 587598 562338
0110010010100010100000100: 470751 496553 580492 490843 607812
0110010010100010100000100: 470751 496553 580492 490843 560989
0110010010100010100000100: 470751 496553 580492 490843 602794
0110010010100010100000100: 470751 496553 580492 490843 561932
0110010011100000100001000: 470751 496553 580492 457239 490843
0110010010100010100000100: 470751 496553 580492 457239 607812
0110010010100010100000100: 470751 496553 580492 457239 602794
0110010010100010100000100: 470751 496553 580492 457239 561932
0110010010100010100100110: 470751 496553 580492 457239 560989
0110010011100100110001000: 470751 496553 580492 570377 490843
0110010011100100110001000: 470751 496553 580492 570377 457239
0110010011100000100001000: 470751 496553 613488 490843 570377
0110010011100000100001000: 470751 496553 613488 457239 570377
0110010011100000100001000: 470751 496553 613488 457239 490843
0110010011100000100001000: 470751 496553 566580 490843 570377
0110010011100000100001000: 470751 496553 566580 457239 570377
0110010011100000100001000: 470751 496553 566580 457239 490843
0110010011100000100001000: 470751 496553 493584 490843 570377
0110010011100000100001000: 470751 496553 493584 457239 570377
0110010011100000100001000: 470751 496553 493584 457239 490843
0110010010100010100000100: 470751 613488 461858 528343 560989
0110010010100010100000100: 470751 613488 562338 528343 549254
0110010010100010100000100: 470751 613488 562338 528343 602794
0110010010100010100000100: 470751 613488 562338 528343 566696
0111110000100001000010000: 470751 613488 580492 562338 461858
0111110000100001000010000: 470751 613488 580492 587598 562338
0110010010100010100000100: 470751 613488 580492 528343 607812
0110010010100010100000100: 470751 613488 580492 528343 570377
0110010010100010100000100: 470751 613488 580492 528343 560989
0110010010100010100000100: 470751 613488 580492 528343 602794
0110010010100010100000100: 470751 613488 580492 528343 561932
0111110000100001000010000: 470751 613488 496553 562338 461858
0111110000100001000010000: 470751 613488 496553 587598 562338
0111110000100001000010000: 470751 613488 496553 580492 461858
0111110000100001000010000: 470751 613488 496553 580492 562338
0111110000100001000010000: 470751 613488 496553 580492 587598
0110010010100010100000100: 470751 613488 496553 528343 570377
0110010010100010100000100: 470751 613488 496553 528343 490843
0110010010100010100000100: 470751 613488 496553 528343 457239
0111010101110001000001000: 470751 613488 493584 461858 528343
0111010101110001000001000: 470751 613488 493584 562338 528343
0111010101110001000101010: 470751 613488 493584 587598 528343
0111010101110001000001000: 470751 613488 493584 580492 528343
0111010101110001000001000: 470751 613488 493584 496553 528343
0111010101110001000001000: 470751 613488 493584 566580 528343
0110010010100010100000100: 470751 566580 562338 607812 549254
0110010010100010100000100: 470751 566580 562338 607812 566696
0110010011100000100001000: 470751 566580 562338 482970 607812
0110010010100010100000100: 470751 566580 562338 482970 549254
0110010010100010100000100: 470751 566580 562338 482970 566696
0110010011100100110001000: 470751 566580 562338 602794 607812
0110010011100100110001000: 470751 566580 562338 602794 482970
0110010010100010100000100: 470751 566580 587598 607812 490843
0110010010100010100000100: 470751 566580 587598 607812 528343
0110010011100000100001000: 470751 566580 587598 602794 607812
0110010010100010100000100: 470751 566580 587598 602794 490843
0110010010100010100000100: 470751 566580 587598 602794 528343
0110010011100000100001000: 470751 566580 587598 482970 607812
0110010011100000100001000: 470751 566580 587598 482970 602794
0110010010100010100000100: 470751 566580 587598 482970 490843
0110010010100010100000100: 470751 566580 587598 482970 528343
0111110000100001000010000: 470751 566580 496553 587598 562338
0110010010100010100000100: 470751 566580 496553 607812 570377
0110010010100010100000100: 470751 566580 496553 607812 490843
0110010010100010100000100: 470751 566580 496553 607812 457239
0110010011100000100001000: 470751 566580 496553 602794 607812
0110010010100010100000100: 470751 566580 496553 602794 570377
0110010010100010100000100: 470751 566580 496553 602794 490843
0110010010100010100000100: 470751 566580 496553 602794 457239
0110010011100000100001000: 470751 566580 496553 482970 607812
0110010011100000100001000: 470751 566580 496553 482970 602794
0110010010100010100000100: 470751 566580 496553 482970 570377
0110010010100010100000100: 470751 566580 496553 482970 490843
0110010010100010100000100: 470751 566580 496553 482970 457239
0111110000100001000010000: 470751 566580 613488 587598 562338
0111110000100001000010000: 470751 566580 613488 496553 562338
0111110000100001000010000: 470751 566580 613488 496553 587598
0110010010100010100000100: 470751 566580 613488 607812 528343
0110010011100000100001000: 470751 566580 613488 602794 607812
0110010010100010100000100: 470751 566580 613488 602794 528343
0110010011100000100001000: 470751 566580 613488 482970 607812
0110010011100000100001000: 470751 566580 613488 482970 602794
0110010010100010100000100: 470751 566580 613488 482970 528343
0110010011100000100001000: 470751 566580 493584 602794 607812
0110010011100000100001000: 470751 566580 493584 482970 607812
0110010011100000100001000: 470751 566580 493584 482970 602794
0111010101110001000001000: 470751 566580 461858 562338 607812
0111010101110001000001000: 470751 566580 461858 562338 482970
0111010100110001000100010: 470751 566580 461858 562338 549254
0111010100110001000100010: 470751 566580 461858 562338 566696
0111010101110001000101010: 470751 566580 461858 562338 602794
0111110100110001000010000: 470751 566580 461858 496553 562338
0111010101110001000001000: 470751 566580 461858 496553 607812
0111010101110001000001000: 470751 566580 461858 496553 602794
0111010101110001000001000: 470751 566580 461858 496553 482970
0111010100110001000100010: 470751 566580 461858 496553 570377
0111010100110001000100010: 470751 566580 461858 496553 490843
0111010100110001000100010: 470751 566580 461858 496553 457239
0111110100110001000010000: 470751 566580 461858 613488 562338
0111110100110001000010000: 470751 566580 461858 613488 496553
0111010101110001000001000: 470751 566580 461858 613488 607812
0111010101110001000001000: 470751 566580 461858 613488 602794
0111010101110001000001000: 470751 566580 461858 613488 482970
0111010100110001000100010: 470751 566580 461858 613488 528343
0111110100110001000010000: 470751 566580 461858 493584 562338
0111110100110001000010000: 470751 566580 461858 493584 496553
0111010101110001000001000: 470751 566580 461858 493584 607812
0111010101110001000001000: 470751 566580 461858 493584 602794
0111010101110001000001000: 470751 566580 461858 493584 482970
0111110110110011100010100: 470751 566580 461858 580492 587598
0111010101110001000001000: 470751 566580 580492 562338 482970
0111010100110001000100010: 470751 566580 580492 562338 549254
0111010100110001000100010: 470751 566580 580492 562338 566696
0111110100110001000010000: 470751 566580 580492 587598 562338
0111010101110001000001000: 470751 566580 580492 587598 482970
0111010100110001000100010: 470751 566580 580492 587598 490843
0111010100110001000100010: 470751 566580 580492 587598 528343
0111110100110001000010000: 470751 566580 580492 496553 562338
0111110100110001000010000: 470751 566580 580492 496553 587598
0111010101110001000001000: 470751 566580 580492 496553 482970
0111010100110001000100010: 470751 566580 580492 496553 490843
0111010100110001000100010: 470751 566580 580492 496553 457239
0111110100110001000010000: 470751 566580 580492 613488 562338
0111110100110001000010000: 470751 566580 580492 613488 587598
0111110100110001000010000: 470751 566580 580492 613488 496553
0111010101110001000001000: 470751 566580 580492 613488 482970
0111010100110001000100010: 470751 566580 580492 613488 528343
0111110100110001000010000: 470751 566580 580492 493584 562338
0111110100110001000010000: 470751 566580 580492 493584 587598
0111110100110001000010000: 470751 566580 580492 493584 496553
0111010101110001000001000: 470751 566580 580492 493584 482970
0111110110110001100010000: 470751 566580 580492 461858 562338
0111110110110001100010000: 470751 566580 580492 461858 496553
0111110110110001100010000: 470751 566580 580492 461858 613488
0111110110110001100010000: 470751 566580 580492 461858 493584
0111010110110011100000100: 470751 566580 580492 461858 570377
0111010110110011100000100: 470751 566580 580492 461858 561932
0111010110110011100100110: 470751 566580 580492 461858 560989
0111110000100001000010000: 470751 493584 580492 562338 461858
0111110000100001000010000: 470751 493584 580492 587598 562338
0111110000100001000010000: 470751 493584 496553 562338 461858
0111110000100001000010000: 470751 493584 496553 587598 562338
0111110000100001000010000: 470751 493584 496553 580492 461858
0111110000100001000010000: 470751 493584 496553 580492 562338
0111110000100001000010000: 470751 493584 496553 580492 587598
0111110000100001000010000: 470751 493584 566580 587598 562338
0111110000100001000010000: 470751 493584 566580 496553 562338
0111110000100001000010000: 470751 493584 566580 496553 587598
0111010100110001000100010: 470751 493584 613488 461858 560989
0111110100110001000010000: 470751 493584 613488 562338 461858
0111010100110001000100010: 470751 493584 613488 562338 549254
0111010100110001000100010: 470751 493584 613488 562338 602794
0111010100110001000100010: 470751 493584 613488 562338 566696
0111110100110001000010000: 470751 493584 613488 587598 562338
0111010100110001000100010: 470751 493584 613488 587598 490843
0111110100110001000110010: 470751 493584 613488 587598 461858
0111110100110001000010000: 470751 493584 613488 580492 461858
0111110100110001000010000: 470751 493584 613488 580492 562338
0111110100110001000010000: 470751 493584 613488 580492 587598
0111010100110001000100010: 470751 493584 613488 580492 607812
0111010100110001000100010: 470751 493584 613488 580492 570377
0111010100110001000100010: 470751 493584 613488 580492 560989
0111010100110001000100010: 470751 493584 613488 580492 602794
0111010100110001000100010: 470751 493584 613488 580492 561932
0111110100110001000010000: 470751 493584 613488 496553 461858
0111110100110001000010000: 470751 493584 613488 496553 562338
0111110100110001000010000: 470751 493584 613488 496553 587598
0111110100110001000010000: 470751 493584 613488 496553 580492
0111010100110001000100010: 470751 493584 613488 496553 570377
0111010100110001000100010: 470751 493584 613488 496553 490843
0111010100110001000100010: 470751 493584 613488 496553 457239
0111110100110001000010000: 470751 493584 613488 566580 562338
0111110100110001000010000: 470751 493584 613488 566580 587598
0111110100110001000010000: 470751 493584 613488 566580 496553
0111010100110001000100010: 470751 493584 613488 566580 607812
0111010100110001000100010: 470751 493584 613488 566580 602794
0111010100110001000100010: 470751 493584 613488 566580 482970
0111110100110001000110010: 470751 493584 613488 566580 461858
0111110100110001000110010: 470751 493584 613488 566580 580492
0110010011100000100001000: 566580 461858 607812 587598 560989
0110010011100100110001000: 566580 461858 580492 560989 587598
0110010011100100110001000: 566580 461858 602794 560989 587598
0110010011100000100001000: 566580 461858 482970 587598 560989
0111010101110001000001000: 566580 461858 470751 607812 560989
0111010101110001000101010: 566580 461858 470751 602794 560989
0111010101110001000001000: 566580 461858 470751 482970 560989
0110010010100010100000100: 566580 580492 461858 570377 587598
0110010011100000100001000: 566580 580492 461858 561932 570377
0110010010100010100000100: 566580 580492 461858 561932 587598
0110010011100100110001000: 566580 580492 461858 560989 570377
0110010011100100110001000: 566580 580492 461858 560989 561932
0110010011100000100001000: 566580 580492 482970 560989 570377
0110010011100000100001000: 566580 580492 482970 561932 570377
0110010011100000100001000: 566580 580492 482970 561932 560989
0111010101110001000001000: 566580 580492 607812 461858 570377
0111010101110001000001000: 566580 580492 607812 461858 561932
0111010100110001000100010: 566580 580492 607812 461858 587598
0111010101110001000101010: 566580 580492 607812 461858 560989
0111110100110001000010000: 566580 580492 607812 482970 461858
0111010101110001000001000: 566580 580492 607812 482970 570377
0111010101110001000001000: 566580 580492 607812 482970 560989
0111010101110001000001000: 566580 580492 607812 482970 561932
0111010100110001000100010: 566580 580492 607812 482970 538854
0111010100110001000100010: 566580 580492 607812 482970 565855
0111010101110001000001000: 566580 580492 602794 461858 570377
0111010101110001000001000: 566580 580492 602794 461858 561932
0111010101110001000001000: 566580 580492 602794 482970 570377
0111010101110001000001000: 566580 580492 602794 482970 561932
0111110110110001100010000: 566580 580492 602794 607812 461858
0111110110110001100010000: 566580 580492 602794 607812 482970
0111010110110011100000100: 566580 580492 602794 607812 562338
0111010110110011100000100: 566580 580492 602794 607812 538854
0111010110110011100000100: 566580 580492 602794 607812 566696
0111010110110011100000100: 566580 580492 602794 470751 538854
0111010110110011100000100: 566580 580492 602794 470751 566696
0111010101110001000001000: 566580 580492 470751 482970 570377
0111010101110001000001000: 566580 580492 470751 482970 560989
0111010101110001000001000: 566580 580492 470751 482970 561932
0111110110110001100010000: 566580 580492 470751 607812 482970
0111010110110011100000100: 566580 580492 470751 607812 562338
0111010110110011100000100: 566580 580492 470751 607812 587598
0111010110110011100000100: 566580 580492 470751 607812 496553
0111010110110011100000100: 566580 580492 470751 607812 613488
0111010110110011100000100: 566580 580492 470751 607812 493584
0111110110110001100010000: 566580 580492 470751 602794 482970
0111110111110001100011000: 566580 580492 470751 602794 607812
0111010110110011100000100: 566580 580492 470751 602794 587598
0111010110110011100000100: 566580 580492 470751 602794 496553
0111010110110011100000100: 566580 580492 470751 602794 613488
0111010110110011100000100: 566580 580492 470751 602794 493584
0111010110110011100100110: 566580 580492 470751 602794 562338
0110010011100000100001000: 566580 602794 607812 562338 560989
0110010011100000100001000: 566580 602794 607812 538854 560989
0110010011100000100001000: 566580 602794 607812 538854 562338
0110010011100000100001000: 566580 602794 607812 566696 560989
0110010011100000100001000: 566580 602794 607812 566696 538854
0110010010100010100000100: 566580 602794 461858 562338 587598
0110010011100000100001000: 566580 602794 461858 538854 562338
0110010010100010100000100: 566580 602794 461858 538854 587598
0110010011100000100001000: 566580 602794 461858 566696 538854
0110010010100010100000100: 566580 602794 461858 566696 587598
0110010011100100110001000: 566580 602794 461858 560989 562338
0110010011100100110001000: 566580 602794 461858 560989 538854
0110010011100100110001000: 566580 602794 461858 560989 566696
0110010011100000100001000: 566580 602794 482970 562338 560989
0110010011100000100001000: 566580 602794 482970 566696 560989
0110010011100100110001000: 566580 602794 482970 538854 560989
0110010011100100110001000: 566580 602794 482970 538854 562338
0110010011100100110001000: 566580 602794 482970 538854 566696
0110010011100000100001000: 566580 602794 470751 538854 560989
0110010011100000100001000: 566580 602794 470751 566696 560989
0110010011100000100001000: 566580 602794 470751 566696 538854
0110010011100100110001000: 566580 602794 470751 562338 560989
0110010011100100110001000: 566580 602794 470751 562338 538854
0111010101110001000001000: 566580 602794 580492 461858 562338
0111010101110001000001000: 566580 602794 580492 461858 538854
0111010101110001000001000: 566580 602794 580492 461858 566696
0111010100110001000100010: 566580 602794 580492 461858 587598
0111110100110001000010000: 566580 602794 580492 482970 461858
0111010101110001000001000: 566580 602794 580492 482970 562338
0111010101110001000001000: 566580 602794 580492 482970 566696
0111010100110001000100010: 566580 602794 580492 482970 565855
0111010101110001000101010: 566580 602794 580492 482970 538854
0110010011100000100001000: 566580 482970 607812 565855 538854
0110010010100010100000100: 566580 482970 461858 538854 560989
0110010010100010100000100: 566580 482970 461858 538854 587598
0110010011100000100001000: 566580 482970 461858 565855 538854
0110010010100010100000100: 566580 482970 461858 565855 560989
0110010010100010100000100: 566580 482970 461858 565855 587598
0110010010100010100000100: 566580 482970 580492 538854 570377
0110010010100010100000100: 566580 482970 580492 538854 560989
0110010010100010100000100: 566580 482970 580492 538854 561932
0110010011100000100001000: 566580 482970 580492 565855 538854
0110010010100010100000100: 566580 482970 580492 565855 570377
0110010010100010100000100: 566580 482970 580492 565855 560989
0110010010100010100000100: 566580 482970 580492 565855 561932
0111110000100001000010000: 566580 482970 602794 461858 607812
0110010010100010100000100: 566580 482970 602794 565855 560989
0110010010100010100000100: 566580 482970 602794 565855 562338
0110010010100010100000100: 566580 482970 602794 565855 566696
0110010011100100110001000: 566580 482970 602794 538854 565855
0110010011100000100001000: 566580 482970 470751 565855 538854
0110010011100000100001000: 566580 470751 607812 587598 562338
0110010011100000100001000: 566580 470751 607812 496553 562338
0110010011100000100001000: 566580 470751 607812 496553 587598
0110010011100000100001000: 566580 470751 607812 613488 562338
0110010011100000100001000: 566580 470751 607812 613488 587598
0110010011100000100001000: 566580 470751 607812 613488 496553
0110010011100000100001000: 566580 470751 607812 493584 562338
0110010011100000100001000: 566580 470751 607812 493584 587598
0110010011100000100001000: 566580 470751 607812 493584 496553
0110010010100010100000100: 566580 470751 602794 587598 560989
0110010010100010100000100: 566580 470751 602794 587598 538854
0110010010100010100000100: 566580 470751 602794 587598 566696
0110010011100000100001000: 566580 470751 602794 496553 587598
0110010010100010100000100: 566580 470751 602794 496553 560989
0110010010100010100000100: 566580 470751 602794 496553 538854
0110010010100010100000100: 566580 470751 602794 496553 566696
0110010011100000100001000: 566580 470751 602794 613488 587598
0110010011100000100001000: 566580 470751 602794 613488 496553
0110010010100010100000100: 566580 470751 602794 613488 560989
0110010010100010100000100: 566580 470751 602794 613488 538854
0110010010100010100000100: 566580 470751 602794 613488 566696
0110010011100000100001000: 566580 470751 602794 493584 587598
0110010011100000100001000: 566580 470751 602794 493584 496553
0110010010100010100000100: 566580 470751 602794 493584 560989
0110010010100010100000100: 566580 470751 602794 493584 538854
0110010010100010100000100: 566580 470751 602794 493584 566696
0110010011100100110001000: 566580 470751 602794 562338 587598
0110010011100100110001000: 566580 470751 602794 562338 496553
0110010011100100110001000: 566580 470751 602794 562338 613488
0110010011100100110001000: 566580 470751 602794 562338 493584
0111110000100001000010000: 566580 470751 482970 602794 607812
0110010010100010100000100: 566580 470751 482970 562338 538854
0110010010100010100000100: 566580 470751 482970 562338 565855
0110010011100000100001000: 566580 470751 482970 587598 562338
0110010010100010100000100: 566580 470751 482970 587598 538854
0110010010100010100000100: 566580 470751 482970 587598 565855
0110010011100000100001000: 566580 470751 482970 496553 562338
0110010011100000100001000: 566580 470751 482970 496553 587598
0110010010100010100000100: 566580 470751 482970 496553 538854
0110010010100010100000100: 566580 470751 482970 496553 565855
0110010011100000100001000: 566580 470751 482970 613488 562338
0110010011100000100001000: 566580 470751 482970 613488 587598
0110010011100000100001000: 566580 470751 482970 613488 496553
0110010010100010100000100: 566580 470751 482970 613488 538854
0110010010100010100000100: 566580 470751 482970 613488 565855
0110010011100000100001000: 566580 470751 482970 493584 562338
0110010011100000100001000: 566580 470751 482970 493584 587598
0110010011100000100001000: 566580 470751 482970 493584 496553
0110010010100010100000100: 566580 470751 482970 493584 538854
0110010010100010100000100: 566580 470751 482970 493584 565855
0111110100110001000010000: 566580 470751 461858 602794 607812
0111010100110001000100010: 566580 470751 461858 602794 538854
0111010100110001000100010: 566580 470751 461858 602794 566696
0111110100110001000010000: 566580 470751 461858 482970 607812
0111110100110001000010000: 566580 470751 461858 482970 602794
0111010100110001000100010: 566580 470751 461858 482970 538854
0111010100110001000100010: 566580 470751 461858 482970 565855
0111010100110001000100010: 566580 470751 580492 482970 538854
0111010100110001000100010: 566580 470751 580492 482970 565855
0111110110110001100010000: 566580 470751 580492 461858 482970
0111110110110011100010100: 566580 470751 580492 461858 607812
0111110110110011100010100: 566580 470751 580492 461858 602794
0110010011100000100001000: 482970 538854 565855 457239 602794
0110010011100100110001000: 482970 538854 566580 602794 457239
0110010010100010100000100: 482970 565855 538854 516231 602794
0110010010100010100000100: 482970 565855 538854 516231 457239
0110010010100010100000100: 482970 566580 538854 607812 457239
0110010011100000100001000: 482970 566580 538854 461858 607812
0110010010100010100000100: 482970 566580 538854 461858 457239
0110010011100000100001000: 482970 566580 538854 580492 461858
0110010010100010100000100: 482970 566580 538854 580492 457239
0110010011100000100001000: 482970 566580 538854 470751 607812
0110010010100010100000100: 482970 566580 538854 470751 457239
0110010011100100110001000: 482970 566580 538854 602794 607812
0110010011100100110001000: 482970 566580 538854 602794 461858
0110010011100100110001000: 482970 566580 538854 602794 470751
0110010010100010100000100: 482970 566580 565855 607812 516231
0110010011100000100001000: 482970 566580 565855 461858 607812
0110010010100010100000100: 482970 566580 565855 461858 516231
0110010011100000100001000: 482970 566580 565855 580492 461858
0110010010100010100000100: 482970 566580 565855 580492 516231
0110010011100000100001000: 482970 566580 565855 602794 607812
0110010011100000100001000: 482970 566580 565855 602794 461858
0110010010100010100000100: 482970 566580 565855 602794 516231
0110010011100000100001000: 482970 566580 565855 470751 607812
0110010011100000100001000: 482970 566580 565855 470751 602794
0110010010100010100000100: 482970 566580 565855 470751 516231
0110010011100000100001000: 566696 570377 562338 496553 580492
0110010011100100110001000: 566696 570377 602794 580492 496553
0110010011100100110001000: 566696 570377 561932 580492 496553
0110010010100010100000100: 566696 562338 570377 549254 580492
0110010010100010100000100: 566696 562338 570377 549254 496553
0110010011100000100001000: 566696 562338 570377 470751 549254
0110010011100000100001000: 566696 562338 561932 470751 549254
0111010101110001000001000: 566696 562338 602794 570377 549254
0111010101110001000001000: 566696 562338 602794 570377 470751
0111010101110001000001000: 566696 562338 602794 561932 549254
0111010101110001000001000: 566696 562338 602794 561932 470751
0110010010100010100000100: 566696 602794 570377 560989 496553
0110010011100000100001000: 566696 602794 570377 538854 560989
0110010010100010100000100: 566696 602794 570377 538854 496553
0110010011100000100001000: 566696 602794 570377 566580 560989
0110010011100000100001000: 566696 602794 570377 566580 538854
0110010010100010100000100: 566696 602794 570377 566580 496553
0110010011100100110001000: 566696 602794 570377 580492 538854
0110010011100000100001000: 566696 602794 561932 538854 560989
0110010011100000100001000: 566696 602794 561932 566580 560989
0110010011100000100001000: 566696 602794 561932 566580 538854
0110010011100100110001000: 566696 602794 561932 580492 538854
0111010101110001000001000: 566696 602794 562338 570377 560989
0111010101110001000001000: 566696 602794 562338 570377 538854
0111010101110001000001000: 566696 602794 562338 570377 566580
0111010100110001000100010: 566696 602794 562338 570377 496553
0111010101110001000101010: 566696 602794 562338 570377 580492
0111110100110001000010000: 566696 602794 562338 561932 570377
0111010101110001000001000: 566696 602794 562338 561932 560989
0111010101110001000001000: 566696 602794 562338 561932 538854
0111010101110001000001000: 566696 602794 562338 561932 566580
0111010101110001000101010: 566696 602794 562338 561932 580492
0110010010100010100000100: 566696 561932 562338 580492 549254
0110010011100000100001000: 561932 580492 566696 560989 607812
0110010011100000100001000: 561932 580492 566696 566580 560989
0110010011100000100001000: 561932 580492 566696 470751 607812
0110010011100000100001000: 561932 580492 566696 470751 560989
0110010011100100110001000: 561932 580492 566696 570377 607812
0110010011100100110001000: 561932 580492 566696 570377 560989
0110010011100100110001000: 561932 580492 566696 570377 566580
0110010011100100110001000: 561932 580492 566696 570377 470751
0110010011100100110001000: 561932 580492 566696 602794 607812
0110010011100100110001000: 561932 580492 566696 602794 470751
0110010010100010100000100: 561932 566696 580492 562338 607812
0110010010100010100000100: 561932 566696 580492 562338 560989
0110010010100010100000100: 561932 566696 580492 562338 566580
0110010011100100110001000: 561932 566696 580492 570377 562338
0110010011100110110001100: 561932 566696 580492 602794 570377
0110010010100010100000100: 565855 482970 516231 538854 528343
0110010011100000100001000: 565855 482970 516231 566580 538854
0110010010100010100000100: 565855 482970 516231 566580 528343
0110010011100000100001000: 538854 602794 457239 580492 562338
0110010011100000100001000: 538854 602794 457239 566696 580492
0110010011100000100001000: 538854 602794 457239 566580 562338
0110010011100000100001000: 538854 602794 457239 566580 566696
0110010011100100110001000: 538854 602794 457239 560989 562338
0110010011100100110001000: 538854 602794 457239 560989 566696
0110010011100100110001000: 538854 602794 457239 560989 566580
0110010011100000100001000: 538854 602794 482970 562338 560989
0110010011100000100001000: 538854 602794 482970 580492 562338
0110010011100000100001000: 538854 602794 482970 566696 560989
0110010011100000100001000: 538854 602794 482970 566696 580492
0110010010100010100000100: 538854 457239 602794 496553 562338
0110010010100010100000100: 538854 457239 602794 496553 580492
0110010010100010100000100: 538854 457239 602794 496553 566696
0110010010100010100000100: 538854 457239 602794 496553 566580
0110010011100100110001000: 538854 457239 602794 560989 496553
0110010011100000100001000: 538854 457239 482970 496553 560989
0110010010100010100000100: 538854 482970 602794 565855 560989
0110010010100010100000100: 538854 482970 602794 565855 562338
0110010010100010100000100: 538854 482970 602794 565855 580492
0110010010100010100000100: 538854 482970 602794 565855 566696
0110010010100010100000100: 538854 482970 457239 565855 560989
0110010010100010100000100: 538854 482970 457239 565855 496553
0110010011100000100001000: 538854 482970 457239 566580 565855
0110010010100010100000100: 538854 482970 457239 566580 560989
0110010010100010100000100: 538854 482970 457239 566580 496553
0110010011100000100001000: 457239 560989 496553 580492 461858
0110010011100000100001000: 457239 560989 496553 602794 461858
0110010011100000100001000: 457239 560989 538854 580492 461858
0110010011100100110001000: 457239 560989 538854 602794 461858
0110010010100010100000100: 457239 496553 560989 570377 461858
0110010010100010100000100: 457239 496553 560989 570377 602794
0110010010100010100100110: 457239 496553 560989 570377 580492
0110010011100000100001000: 457239 496553 560989 490843 570377
0110010010100010100000100: 457239 496553 560989 490843 461858
0110010010100010100000100: 457239 496553 560989 490843 580492
0110010010100010100000100: 457239 496553 560989 490843 602794
0110010011100000100001000: 457239 496553 560989 470751 570377
0110010011100000100001000: 457239 496553 560989 470751 490843
0110010010100010100000100: 457239 496553 560989 470751 602794
0110010011100000100001000: 457239 496553 538854 490843 570377
0110010011100000100001000: 457239 496553 538854 470751 570377
0110010011100000100001000: 457239 496553 538854 470751 490843
0110010010100010100000100: 457239 538854 560989 482970 461858
0110010010100010100000100: 457239 538854 560989 482970 580492
0110010011100100110001000: 457239 538854 560989 602794 482970
0110010010100010100000100: 457239 538854 496553 602794 570377
0110010010100010100000100: 457239 538854 496553 602794 490843
0110010010100010100000100: 457239 538854 496553 602794 470751
0110010011100000100001000: 457239 538854 496553 482970 602794
0110010010100010100000100: 457239 538854 496553 482970 570377
0110010010100010100000100: 457239 538854 496553 482970 490843
0110010010100010100000100: 457239 538854 496553 482970 470751
0110010011100100110001000: 613488 528343 470751 587598 516231
0110010011100000100001000: 613488 528343 493584 516231 587598
0110010010100010100000100: 613488 470751 528343 461858 516231
0110010011100000100001000: 613488 470751 528343 562338 461858
0110010010100010100000100: 613488 470751 528343 562338 516231
0110010011100000100001000: 613488 470751 528343 580492 461858
0110010011100000100001000: 613488 470751 528343 580492 562338
0110010010100010100000100: 613488 470751 528343 580492 516231
0110010011100000100001000: 613488 470751 528343 496553 461858
0110010011100000100001000: 613488 470751 528343 496553 562338
0110010011100000100001000: 613488 470751 528343 496553 580492
0110010010100010100000100: 613488 470751 528343 496553 516231
0110010011100000100001000: 613488 470751 528343 566580 562338
0110010011100000100001000: 613488 470751 528343 566580 496553
0110010010100010100000100: 613488 470751 528343 566580 516231
0110010011100100110001000: 613488 470751 528343 587598 562338
0110010011100100110001000: 613488 470751 528343 587598 580492
0110010011100100110001000: 613488 470751 528343 587598 496553
0110010011100100110001000: 613488 470751 528343 587598 566580
0111010100110001000100010: 613488 493584 470751 528343 516231
0110010011100000100001000: 516231 528343 565855 613488 587598
0110010010100010100000100: 516231 565855 528343 482970 587598
0110010010100010100000100: 516231 565855 528343 482970 613488
0110010011100000100001000: 528343 587598 516231 490843 461858
0110010011100000100001000: 528343 587598 516231 470751 490843
0110010011100000100001000: 528343 587598 613488 490843 461858
0110010010100010100000100: 528343 516231 587598 565855 461858
0110010010100010100000100: 528343 516231 587598 565855 490843
0110010010100010100000100: 528343 516231 587598 565855 470751
0110010010100010100000100: 528343 613488 587598 493584 461858
0110010010100010100000100: 528343 613488 587598 493584 490843
0110010010100010100000100: 528343 613488 516231 470751 565855
0110010010100010100000100: 528343 613488 516231 493584 565855
0110010011100000100001000: 602794 560989 562338 457239 461858
0110010011100000100001000: 602794 560989 566696 457239 461858
0110010011100100110001000: 602794 560989 566580 461858 457239
0111010101110001000001000: 602794 560989 580492 562338 461858
0111010101110001000001000: 602794 560989 580492 562338 457239
0111010101110001000001000: 602794 560989 580492 538854 461858
0111010101110001000101010: 602794 560989 580492 538854 457239
0111010101110001000001000: 602794 560989 580492 566696 461858
0111010101110001000001000: 602794 560989 580492 566696 457239
0110010010100010100000100: 602794 562338 560989 549254 461858
0110010010100010100000100: 602794 562338 560989 549254 457239
0110010011100000100001000: 602794 562338 560989 470751 549254
0110010010100010100000100: 602794 562338 560989 470751 457239
0110010011100000100001000: 602794 562338 538854 470751 549254
0111010101110001000001000: 602794 562338 566696 560989 549254
0111010101110001000001000: 602794 562338 566696 560989 470751
0111010101110001000001000: 602794 562338 566696 580492 549254
0111010101110001000101010: 602794 562338 566696 580492 470751
0111010101110001000001000: 602794 562338 566696 538854 549254
0111010101110001000001000: 602794 562338 566696 538854 470751
0111010101110001000001000: 602794 562338 566696 566580 549254
0111010101110001000101010: 602794 562338 566696 566580 470751
0110010010100010100000100: 602794 580492 562338 607812 549254
0110010011100000100001000: 602794 580492 562338 570377 607812
0110010010100010100000100: 602794 580492 562338 570377 549254
0110010011100000100001000: 602794 580492 562338 561932 607812
0110010011100000100001000: 602794 580492 562338 561932 570377
0110010010100010100000100: 602794 580492 562338 561932 549254
0110010011100000100001000: 602794 580492 538854 570377 607812
0110010011100000100001000: 602794 580492 538854 561932 607812
0110010011100000100001000: 602794 580492 538854 561932 570377
0110010011100000100001000: 602794 580492 538854 470751 607812
0110010011100000100001000: 602794 580492 538854 470751 570377
0110010011100000100001000: 602794 580492 538854 470751 561932
0110010011100000100001000: 602794 580492 566696 470751 607812
0110010011100100110001000: 602794 580492 566696 570377 607812
0110010011100100110001000: 602794 580492 566696 570377 470751
0111010101110001000001000: 602794 580492 560989 562338 607812
0111010101110001000001000: 602794 580492 560989 562338 570377
0111010101110001000001000: 602794 580492 560989 562338 561932
0111010100110001000100010: 602794 580492 560989 562338 549254
0111010101110001000101010: 602794 580492 560989 562338 470751
0111110100110001000010000: 602794 580492 560989 538854 562338
0111010101110001000001000: 602794 580492 560989 538854 607812
0111010101110001000001000: 602794 580492 560989 538854 570377
0111010101110001000001000: 602794 580492 560989 538854 561932
0111010101110001000001000: 602794 580492 560989 538854 470751
0111010100110001000100010: 602794 580492 560989 538854 482970
0111110100110001000010000: 602794 580492 560989 566696 538854
0111010101110001000001000: 602794 580492 560989 566696 607812
0111010101110001000001000: 602794 580492 560989 566696 470751
0111010101110001000101010: 602794 580492 560989 566696 570377
0111010101110001000101010: 602794 580492 560989 566696 561932
0111010110110011100000100: 602794 580492 560989 566580 457239
0111010101110001000001000: 602794 580492 566580 562338 570377
0111010101110001000001000: 602794 580492 566580 562338 561932
0111010101110001000001000: 602794 580492 566580 538854 570377
0111010101110001000001000: 602794 580492 566580 538854 561932
0111010101110001000101010: 602794 580492 566580 566696 570377
0111010101110001000101010: 602794 580492 566580 566696 561932
0111110110110001100010000: 602794 580492 566580 560989 562338
0111110110110001100010000: 602794 580492 566580 560989 538854
0111110110110001100010000: 602794 580492 566580 560989 566696
0111010110110011100000100: 602794 580492 566580 560989 482970
0111010110110011100100110: 602794 580492 566580 560989 461858
0110010010100010100000100: 602794 538854 560989 482970 461858
0110010010100010100000100: 602794 538854 562338 457239 549254
0110010010100010100000100: 602794 538854 562338 457239 470751
0110010011100000100001000: 602794 538854 562338 482970 457239
0110010010100010100000100: 602794 538854 562338 482970 549254
0110010010100010100000100: 602794 538854 562338 482970 470751
0110010010100010100000100: 602794 538854 580492 457239 607812
0110010010100010100000100: 602794 538854 580492 457239 570377
0110010010100010100000100: 602794 538854 580492 457239 561932
0110010010100010100000100: 602794 538854 580492 457239 470751
0110010011100000100001000: 602794 538854 580492 482970 457239
0110010010100010100000100: 602794 538854 580492 482970 607812
0110010010100010100000100: 602794 538854 580492 482970 570377
0110010010100010100000100: 602794 538854 580492 482970 561932
0110010010100010100000100: 602794 538854 580492 482970 470751
0110010011100000100001000: 602794 538854 566696 482970 457239
0110010010100010100000100: 602794 566696 560989 570377 461858
0110010010100010100000100: 602794 566696 560989 570377 457239
0110010011100000100001000: 602794 566696 560989 561932 570377
0110010010100010100000100: 602794 566696 560989 561932 461858
0110010010100010100000100: 602794 566696 560989 561932 457239
0110010010100010100000100: 602794 566696 538854 570377 457239
0110010010100010100000100: 602794 566696 538854 570377 482970
0110010011100000100001000: 602794 566696 538854 561932 570377
0110010010100010100000100: 602794 566696 538854 561932 457239
0110010010100010100000100: 602794 566696 538854 561932 482970
0110010011100000100001000: 602794 566696 566580 561932 570377
0111010100110001000100010: 602794 566696 562338 560989 461858
0111010100110001000100010: 602794 566696 562338 560989 457239
0111010100110001000100010: 602794 566696 562338 580492 607812
0111110100110001000110010: 602794 566696 562338 580492 560989
0111110100110001000010000: 602794 566696 562338 538854 560989
0111110100110001000010000: 602794 566696 562338 538854 580492
0111010100110001000100010: 602794 566696 562338 538854 457239
0111010100110001000100010: 602794 566696 562338 538854 482970
0111110100110001000010000: 602794 566696 562338 566580 560989
0111110100110001000010000: 602794 566696 562338 566580 538854
0111010100110001000100010: 602794 566696 562338 566580 607812
0111010100110001000100010: 602794 566696 562338 566580 461858
0111010100110001000100010: 602794 566696 562338 566580 482970
0110010010100010100000100: 602794 566580 560989 607812 457239
0110010011100000100001000: 602794 566580 560989 482970 607812
0110010010100010100000100: 602794 566580 560989 482970 457239
0110010011100000100001000: 602794 566580 560989 470751 607812
0110010011100000100001000: 602794 566580 560989 470751 482970
0110010010100010100000100: 602794 566580 560989 470751 457239
0110010011100100110001000: 602794 566580 560989 461858 607812
0110010011100100110001000: 602794 566580 560989 461858 482970
0110010010100010100000100: 602794 566580 562338 607812 549254
0110010011100000100001000: 602794 566580 562338 461858 607812
0110010010100010100000100: 602794 566580 562338 461858 549254
0110010011100000100001000: 602794 566580 562338 482970 607812
0110010011100000100001000: 602794 566580 562338 482970 461858
0110010010100010100000100: 602794 566580 562338 482970 549254
0111110000100001000010000: 602794 566580 538854 562338 560989
0110010010100010100000100: 602794 566580 538854 607812 457239
0110010011100000100001000: 602794 566580 538854 461858 607812
0110010010100010100000100: 602794 566580 538854 461858 457239
0110010011100000100001000: 602794 566580 538854 470751 607812
0110010010100010100000100: 602794 566580 538854 470751 457239
0111110000100001000010000: 602794 566580 566696 538854 560989
0110010010100010100000100: 602794 566580 566696 607812 570377
0110010010100010100000100: 602794 566580 566696 607812 561932
0110010011100000100001000: 602794 566580 566696 461858 607812
0110010010100010100000100: 602794 566580 566696 461858 570377
0110010010100010100000100: 602794 566580 566696 461858 561932
0110010011100000100001000: 602794 566580 566696 482970 607812
0110010011100000100001000: 602794 566580 566696 482970 461858
0110010010100010100000100: 602794 566580 566696 482970 570377
0110010010100010100000100: 602794 566580 566696 482970 561932
0110010011100000100001000: 602794 566580 566696 470751 607812
0110010011100000100001000: 602794 566580 566696 470751 482970
0110010010100010100000100: 602794 566580 566696 470751 570377
0110010010100010100000100: 602794 566580 566696 470751 561932
0111010100110001000100010: 602794 566580 580492 562338 549254
0111110100110001000010000: 602794 566580 580492 538854 562338
0111010100110001000100010: 602794 566580 580492 538854 457239
0111110100110001000010000: 602794 566580 580492 566696 538854
0111110100110001000110010: 602794 566580 580492 566696 562338
0110010011100000100001000: 496553 570377 490843 566696 580492
0110010011100000100001000: 496553 570377 457239 566696 580492
0110010011100100110001000: 496553 570377 470751 580492 566696
0110010010100010100000100: 496553 490843 570377 587598 580492
0110010010100010100000100: 496553 490843 570377 587598 566696
0110010010100010100000100: 496553 457239 570377 560989 566696
0110010011100000100001000: 496553 457239 570377 538854 560989
0110010010100010100000100: 496553 457239 570377 538854 580492
0110010010100010100000100: 496553 457239 570377 538854 566696
0110010010100010100000100: 496553 457239 490843 560989 587598
0110010011100000100001000: 496553 457239 490843 538854 560989
0110010010100010100000100: 496553 457239 490843 538854 587598
0110010011100000100001000: 496553 457239 470751 538854 560989
0110010010100010100000100: 496553 470751 570377 461858 566696
0110010011100000100001000: 496553 470751 570377 562338 461858
0110010011100000100001000: 496553 470751 570377 587598 562338
0110010010100010100000100: 496553 470751 570377 587598 566696
0110010011100000100001000: 496553 470751 570377 613488 461858
0110010011100000100001000: 496553 470751 570377 613488 562338
0110010011100000100001000: 496553 470751 570377 613488 587598
0110010010100010100000100: 496553 470751 570377 613488 566696
0110010011100000100001000: 496553 470751 570377 566580 562338
0110010011100000100001000: 496553 470751 570377 566580 587598
0110010011100000100001000: 496553 470751 570377 566580 613488
0110010010100010100000100: 496553 470751 570377 566580 566696
0110010011100000100001000: 496553 470751 570377 493584 461858
0110010011100000100001000: 496553 470751 570377 493584 562338
0110010011100000100001000: 496553 470751 570377 493584 587598
0110010011100000100001000: 496553 470751 570377 493584 566580
0110010010100010100000100: 496553 470751 570377 493584 566696
0110010011100100110001000: 496553 470751 570377 580492 461858
0110010011100100110001000: 496553 470751 570377 580492 562338
0110010011100100110001000: 496553 470751 570377 580492 587598
0110010011100100110001000: 496553 470751 570377 580492 613488
0110010011100100110001000: 496553 470751 570377 580492 493584
0110010011100000100001000: 496553 470751 490843 562338 461858
0110010011100000100001000: 496553 470751 490843 580492 461858
0110010011100000100001000: 496553 470751 490843 580492 562338
0110010011100000100001000: 496553 470751 490843 613488 461858
0110010011100000100001000: 496553 470751 490843 613488 562338
0110010011100000100001000: 496553 470751 490843 613488 580492
0110010011100000100001000: 496553 470751 490843 566580 562338
0110010011100000100001000: 496553 470751 490843 566580 613488
0110010011100000100001000: 496553 470751 490843 493584 461858
0110010011100000100001000: 496553 470751 490843 493584 562338
0110010011100000100001000: 496553 470751 490843 493584 580492
0110010011100000100001000: 496553 470751 490843 493584 566580
0110010011100100110001000: 496553 470751 490843 587598 562338
0110010011100100110001000: 496553 470751 490843 587598 580492
0110010011100100110001000: 496553 470751 490843 587598 613488
0110010011100100110001000: 496553 470751 490843 587598 566580
0110010011100100110001000: 496553 470751 490843 587598 493584
0111110000100001000010000: 496553 470751 457239 490843 570377
0110010010100010100000100: 496553 470751 457239 461858 538854
0110010011100000100001000: 496553 470751 457239 562338 461858
0110010010100010100000100: 496553 470751 457239 562338 560989
0110010010100010100000100: 496553 470751 457239 562338 538854
0110010011100000100001000: 496553 470751 457239 587598 562338
0110010010100010100000100: 496553 470751 457239 587598 560989
0110010010100010100000100: 496553 470751 457239 587598 538854
0110010011100000100001000: 496553 470751 457239 580492 461858
0110010011100000100001000: 496553 470751 457239 580492 562338
0110010011100000100001000: 496553 470751 457239 580492 587598
0110010010100010100000100: 496553 470751 457239 580492 538854
0110010011100000100001000: 496553 470751 457239 613488 461858
0110010011100000100001000: 496553 470751 457239 613488 562338
0110010011100000100001000: 496553 470751 457239 613488 587598
0110010011100000100001000: 496553 470751 457239 613488 580492
0110010010100010100000100: 496553 470751 457239 613488 560989
0110010010100010100000100: 496553 470751 457239 613488 538854
0110010011100000100001000: 496553 470751 457239 566580 562338
0110010011100000100001000: 496553 470751 457239 566580 587598
0110010011100000100001000: 496553 470751 457239 566580 613488
0110010010100010100000100: 496553 470751 457239 566580 560989
0110010010100010100000100: 496553 470751 457239 566580 538854
0110010011100000100001000: 496553 470751 457239 493584 461858
0110010011100000100001000: 496553 470751 457239 493584 562338
0110010011100000100001000: 496553 470751 457239 493584 587598
0110010011100000100001000: 496553 470751 457239 493584 580492
0110010011100000100001000: 496553 470751 457239 493584 566580
0110010010100010100000100: 496553 470751 457239 493584 560989
0110010010100010100000100: 496553 470751 457239 493584 538854
0110010011100000100001000: 580492 570377 607812 566696 496553
0110010011100000100001000: 580492 570377 560989 566696 496553
0110010011100000100001000: 580492 570377 566580 566696 496553
0110010011100000100001000: 580492 560989 607812 457239 461858
0110010010100010100000100: 580492 560989 570377 461858 496553
0110010010100010100000100: 580492 560989 570377 461858 566696
0110010011100000100001000: 580492 560989 570377 457239 461858
0110010010100010100000100: 580492 560989 570377 457239 566696
0110010011100000100001000: 580492 560989 561932 457239 461858
0110010011100100110001000: 580492 560989 566580 461858 457239
0110010011100100110001000: 580492 560989 470751 461858 457239
0111010101110001000001000: 580492 560989 602794 607812 461858
0111010101110001000001000: 580492 560989 602794 607812 457239
0111010101110001000001000: 580492 560989 602794 570377 461858
0111010101110001000001000: 580492 560989 602794 570377 457239
0111010101110001000001000: 580492 560989 602794 561932 461858
0111010101110001000001000: 580492 560989 602794 561932 457239
0111010101110001000001000: 580492 560989 602794 470751 457239
0111010101110001000101010: 580492 560989 602794 470751 461858
0110010011100000100001000: 580492 602794 607812 538854 562338
0110010011100000100001000: 580492 602794 607812 566696 538854
0110010010100010100000100: 580492 602794 570377 562338 496553
0110010011100000100001000: 580492 602794 570377 538854 562338
0110010010100010100000100: 580492 602794 570377 538854 496553
0110010011100000100001000: 580492 602794 561932 538854 562338
0110010011100000100001000: 580492 602794 470751 566696 538854
0110010011100100110001000: 580492 602794 470751 562338 538854
0111110100110001000010000: 580492 602794 560989 570377 607812
0111010100110001000100010: 580492 602794 560989 570377 496553
0111110100110001000010000: 580492 602794 560989 561932 607812
0111110100110001000010000: 580492 602794 560989 561932 570377
0111110100110001000010000: 580492 602794 560989 470751 607812
0111110100110001000010000: 580492 602794 560989 470751 570377
0111110100110001000010000: 580492 602794 560989 470751 561932
0111010100110001000100010: 580492 602794 560989 470751 587598
0111010100110001000100010: 580492 602794 560989 470751 496553
0111010100110001000100010: 580492 602794 560989 470751 613488
0111010100110001000100010: 580492 602794 560989 470751 493584
0111110110110001100010000: 580492 602794 566580 560989 570377
0111110110110001100010000: 580492 602794 566580 560989 561932
0111110000100001000010000: 580492 561932 560989 570377 607812
0110010010100010100000100: 580492 561932 560989 566696 461858
0110010010100010100000100: 580492 561932 560989 566696 457239
0111110000100001000010000: 580492 561932 602794 570377 607812
0110010010100010100000100: 580492 566580 570377 461858 496553
0110010010100010100000100: 580492 566580 570377 461858 566696
0110010011100000100001000: 580492 566580 570377 482970 461858
0110010010100010100000100: 580492 566580 570377 482970 496553
0110010010100010100000100: 580492 566580 570377 482970 566696
0110010010100010100000100: 580492 566580 560989 482970 457239
0110010011100100110001000: 580492 566580 560989 461858 482970
0111110000100001000010000: 580492 566580 561932 560989 570377
0110010010100010100000100: 580492 566580 561932 461858 566696
0110010011100000100001000: 580492 566580 561932 482970 461858
0110010010100010100000100: 580492 566580 561932 482970 566696
0111010100110001000100010: 580492 566580 607812 570377 496553
0111010100110001000100010: 580492 566580 607812 570377 566696
0111110100110001000010000: 580492 566580 607812 560989 570377
0111010100110001000100010: 580492 566580 607812 560989 457239
0111110100110001000010000: 580492 566580 607812 561932 570377
0111110100110001000010000: 580492 566580 607812 561932 560989
0111010100110001000100010: 580492 566580 607812 561932 566696
0111010100110001000100010: 580492 566580 602794 570377 496553
0111110100110001000010000: 580492 566580 602794 561932 570377
0111110110110001100010000: 580492 566580 602794 607812 570377
0111110110110001100010000: 580492 566580 602794 607812 561932
0111110110110011100010100: 580492 566580 602794 607812 560989
0111110110110011100010100: 580492 566580 602794 470751 560989
0111110110110001100010000: 580492 566580 470751 607812 570377
0111110110110001100010000: 580492 566580 470751 607812 560989
0111110110110001100010000: 580492 566580 470751 607812 561932
0111110110110001100010000: 580492 566580 470751 602794 570377
0111110110110001100010000: 580492 566580 470751 602794 561932
0110010011100000100001000: 580492 470751 607812 562338 461858
0110010011100000100001000: 580492 470751 607812 587598 562338
0110010011100000100001000: 580492 470751 607812 496553 461858
0110010011100000100001000: 580492 470751 607812 496553 562338
0110010011100000100001000: 580492 470751 607812 496553 587598
0110010011100000100001000: 580492 470751 607812 613488 461858
0110010011100000100001000: 580492 470751 607812 613488 562338
0110010011100000100001000: 580492 470751 607812 613488 587598
0110010011100000100001000: 580492 470751 607812 613488 496553
0110010011100000100001000: 580492 470751 607812 493584 461858
0110010011100000100001000: 580492 470751 607812 493584 562338
0110010011100000100001000: 580492 470751 607812 493584 587598
0110010011100000100001000: 580492 470751 607812 493584 496553
0110010010100010100000100: 580492 470751 570377 461858 566696
0110010011100000100001000: 580492 470751 570377 562338 461858
0110010011100000100001000: 580492 470751 570377 587598 562338
0110010010100010100000100: 580492 470751 570377 587598 566696
0110010011100000100001000: 580492 470751 570377 613488 461858
0110010011100000100001000: 580492 470751 570377 613488 562338
0110010011100000100001000: 580492 470751 570377 613488 587598
0110010010100010100000100: 580492 470751 570377 613488 566696
0110010011100000100001000: 580492 470751 570377 493584 461858
0110010011100000100001000: 580492 470751 570377 493584 562338
0110010011100000100001000: 580492 470751 570377 493584 587598
0110010010100010100000100: 580492 470751 570377 493584 566696
0111110000100001000010000: 580492 470751 560989 570377 607812
0110010010100010100000100: 580492 470751 560989 562338 457239
0110010011100000100001000: 580492 470751 560989 587598 562338
0110010010100010100000100: 580492 470751 560989 587598 457239
0110010011100000100001000: 580492 470751 560989 496553 562338
0110010011100000100001000: 580492 470751 560989 496553 587598
0110010011100000100001000: 580492 470751 560989 613488 562338
0110010011100000100001000: 580492 470751 560989 613488 587598
0110010011100000100001000: 580492 470751 560989 613488 496553
0110010010100010100000100: 580492 470751 560989 613488 457239
0110010011100000100001000: 580492 470751 560989 493584 562338
0110010011100000100001000: 580492 470751 560989 493584 587598
0110010011100000100001000: 580492 470751 560989 493584 496553
0110010010100010100000100: 580492 470751 560989 493584 457239
0110010011100100110001000: 580492 470751 560989 461858 562338
0110010011100100110001000: 580492 470751 560989 461858 496553
0110010011100100110001000: 580492 470751 560989 461858 613488
0110010011100100110001000: 580492 470751 560989 461858 493584
0111110000100001000010000: 580492 470751 602794 570377 607812
0110010010100010100000100: 580492 470751 602794 461858 538854
0110010010100010100000100: 580492 470751 602794 461858 566696
0110010010100010100000100: 580492 470751 602794 587598 538854
0110010010100010100000100: 580492 470751 602794 587598 566696
0110010011100000100001000: 580492 470751 602794 496553 461858
0110010011100000100001000: 580492 470751 602794 496553 587598
0110010010100010100000100: 580492 470751 602794 496553 538854
0110010010100010100000100: 580492 470751 602794 496553 566696
0110010011100000100001000: 580492 470751 602794 613488 461858
0110010011100000100001000: 580492 470751 602794 613488 587598
0110010011100000100001000: 580492 470751 602794 613488 496553
0110010010100010100000100: 580492 470751 602794 613488 538854
0110010010100010100000100: 580492 470751 602794 613488 566696
0110010011100000100001000: 580492 470751 602794 493584 461858
0110010011100000100001000: 580492 470751 602794 493584 587598
0110010011100000100001000: 580492 470751 602794 493584 496553
0110010010100010100000100: 580492 470751 602794 493584 538854
0110010010100010100000100: 580492 470751 602794 493584 566696
0110010011100100110001000: 580492 470751 602794 562338 461858
0110010011100100110001000: 580492 470751 602794 562338 587598
0110010011100100110001000: 580492 470751 602794 562338 496553
0110010011100100110001000: 580492 470751 602794 562338 613488
0110010011100100110001000: 580492 470751 602794 562338 493584
0111110000100001000010000: 580492 470751 561932 570377 607812
0111110000100001000010000: 580492 470751 561932 560989 607812
0111110000100001000010000: 580492 470751 561932 560989 570377
0111110000100001000010000: 580492 470751 561932 602794 607812
0111110000100001000010000: 580492 470751 561932 602794 570377
0110010010100010100000100: 580492 470751 561932 461858 566696
0110010011100000100001000: 580492 470751 561932 562338 461858
0110010011100000100001000: 580492 470751 561932 587598 562338
0110010010100010100000100: 580492 470751 561932 587598 566696
0110010011100000100001000: 580492 470751 561932 496553 461858
0110010011100000100001000: 580492 470751 561932 496553 562338
0110010011100000100001000: 580492 470751 561932 496553 587598
0110010010100010100000100: 580492 470751 561932 496553 566696
0110010011100000100001000: 580492 470751 561932 613488 461858
0110010011100000100001000: 580492 470751 561932 613488 562338
0110010011100000100001000: 580492 470751 561932 613488 587598
0110010011100000100001000: 580492 470751 561932 613488 496553
0110010010100010100000100: 580492 470751 561932 613488 566696
0110010011100000100001000: 580492 470751 561932 493584 461858
0110010011100000100001000: 580492 470751 561932 493584 562338
0110010011100000100001000: 580492 470751 561932 493584 587598
0110010011100000100001000: 580492 470751 561932 493584 496553
0110010010100010100000100: 580492 470751 561932 493584 566696
0111010100110001000100010: 580492 470751 566580 570377 566696
0111110100110001000010000: 580492 470751 566580 560989 570377
0111010100110001000100010: 580492 470751 566580 560989 457239
0111110100110001000010000: 580492 470751 566580 561932 570377
0111110100110001000010000: 580492 470751 566580 561932 560989
0111010100110001000100010: 580492 470751 566580 561932 566696
0110010011100000100001000: 587598 461858 490843 566580 560989
0110010011100000100001000: 587598 461858 528343 566580 560989
0111010101110001000001000: 587598 461858 470751 490843 560989
0111010101110001000001000: 587598 461858 470751 528343 560989
0110010010100010100000100: 587598 490843 461858 496553 560989
0110010010100010100000100: 587598 490843 461858 496553 566580
0110010010100010100000100: 587598 528343 461858 516231 560989
0110010010100010100000100: 587598 528343 461858 516231 566580
0110010011100000100001000: 587598 528343 461858 613488 516231
0110010010100010100000100: 587598 528343 461858 613488 560989
0110010010100010100000100: 587598 528343 461858 613488 566580
0110010010100010100000100: 587598 528343 490843 516231 496553
0110010011100000100001000: 587598 528343 490843 613488 516231
0110010010100010100000100: 587598 528343 490843 613488 496553
0110010011100000100001000: 587598 470751 490843 580492 562338
0110010011100000100001000: 587598 470751 490843 613488 562338
0110010011100000100001000: 587598 470751 490843 613488 580492
0110010011100000100001000: 587598 470751 490843 566580 562338
0110010011100000100001000: 587598 470751 490843 566580 613488
0110010011100000100001000: 587598 470751 490843 493584 562338
0110010011100000100001000: 587598 470751 490843 493584 580492
0110010011100000100001000: 587598 470751 490843 493584 566580
0110010010100010100000100: 587598 470751 528343 562338 516231
0110010011100000100001000: 587598 470751 528343 580492 562338
0110010010100010100000100: 587598 470751 528343 580492 516231
0110010011100000100001000: 587598 470751 528343 496553 562338
0110010011100000100001000: 587598 470751 528343 496553 580492
0110010010100010100000100: 587598 470751 528343 496553 516231
0110010011100000100001000: 587598 470751 528343 566580 562338
0110010011100000100001000: 587598 470751 528343 566580 496553
0110010010100010100000100: 587598 470751 528343 566580 516231
0110010011100000100001000: 587598 470751 528343 493584 562338
0110010011100000100001000: 587598 470751 528343 493584 580492
0110010011100000100001000: 587598 470751 528343 493584 496553
0110010011100000100001000: 587598 470751 528343 493584 566580
0110010010100010100000100: 587598 470751 528343 493584 516231
0111110100110001000010000: 587598 470751 461858 528343 490843
0111010100110001000100010: 587598 470751 461858 528343 516231
0110010011100000100001000: 490843 587598 496553 528343 461858
0110010010100010100000100: 490843 496553 587598 570377 461858
0110010010100010100000100: 490843 496553 587598 570377 528343
0110010011100000100001000: 490843 496553 587598 457239 570377
0110010010100010100000100: 490843 496553 587598 457239 461858
0110010010100010100000100: 490843 496553 587598 457239 528343
0110010011100000100001000: 562338 602794 549254 538854 560989
0110010011100000100001000: 562338 602794 549254 538854 580492
0110010011100000100001000: 562338 602794 549254 566580 560989
0110010011100000100001000: 562338 602794 549254 566580 538854
0110010011100000100001000: 562338 602794 470751 538854 560989
0110010011100000100001000: 562338 566696 549254 561932 570377
0110010011100000100001000: 562338 566696 470751 561932 570377
0111110100110001000010000: 562338 566696 602794 470751 549254
0111010100110001000100010: 562338 566696 602794 470751 461858
0111010100110001000100010: 562338 566696 602794 470751 587598
0111010100110001000100010: 562338 566696 602794 470751 496553
0111010100110001000100010: 562338 566696 602794 470751 613488
0111010100110001000100010: 562338 566696 602794 470751 493584
0110010011100000100001000: 562338 470751 549254 580492 461858
0110010011100000100001000: 562338 470751 549254 580492 587598
0110010011100000100001000: 562338 470751 549254 496553 461858
0110010011100000100001000: 562338 470751 549254 496553 587598
0110010011100000100001000: 562338 470751 549254 496553 580492
0110010011100000100001000: 562338 470751 549254 613488 461858
0110010011100000100001000: 562338 470751 549254 613488 587598
0110010011100000100001000: 562338 470751 549254 613488 580492
0110010011100000100001000: 562338 470751 549254 613488 496553
0110010011100000100001000: 562338 470751 549254 566580 587598
0110010011100000100001000: 562338 470751 549254 566580 496553
0110010011100000100001000: 562338 470751 549254 566580 613488
0110010011100000100001000: 562338 470751 549254 493584 461858
0110010011100000100001000: 562338 470751 549254 493584 587598
0110010011100000100001000: 562338 470751 549254 493584 580492
0110010011100000100001000: 562338 470751 549254 493584 496553
0110010011100000100001000: 562338 470751 549254 493584 566580
0110010010100010100000100: 562338 470751 602794 461858 538854
0110010010100010100000100: 562338 470751 602794 587598 560989
0110010010100010100000100: 562338 470751 602794 587598 538854
0110010011100000100001000: 562338 470751 602794 496553 461858
0110010011100000100001000: 562338 470751 602794 496553 587598
0110010010100010100000100: 562338 470751 602794 496553 560989
0110010010100010100000100: 562338 470751 602794 496553 538854
0110010011100000100001000: 562338 470751 602794 613488 461858
0110010011100000100001000: 562338 470751 602794 613488 587598
0110010011100000100001000: 562338 470751 602794 613488 496553
0110010010100010100000100: 562338 470751 602794 613488 560989
0110010010100010100000100: 562338 470751 602794 613488 538854
0110010011100000100001000: 562338 470751 602794 493584 461858
0110010011100000100001000: 562338 470751 602794 493584 587598
0110010011100000100001000: 562338 470751 602794 493584 496553
0110010010100010100000100: 562338 470751 602794 493584 560989
0110010010100010100000100: 562338 470751 602794 493584 538854
0110010010100010100000100: 562338 470751 566696 461858 570377
0110010010100010100000100: 562338 470751 566696 461858 561932
0110010010100010100000100: 562338 470751 566696 587598 570377
0110010010100010100000100: 562338 470751 566696 587598 561932
0110010011100000100001000: 562338 470751 566696 580492 461858
0110010011100000100001000: 562338 470751 566696 580492 587598
0110010011100000100001000: 562338 470751 566696 496553 461858
0110010011100000100001000: 562338 470751 566696 496553 587598
0110010011100000100001000: 562338 470751 566696 496553 580492
0110010010100010100000100: 562338 470751 566696 496553 561932
0110010011100000100001000: 562338 470751 566696 613488 461858
0110010011100000100001000: 562338 470751 566696 613488 587598
0110010011100000100001000: 562338 470751 566696 613488 580492
0110010011100000100001000: 562338 470751 566696 613488 496553
0110010010100010100000100: 562338 470751 566696 613488 570377
0110010010100010100000100: 562338 470751 566696 613488 561932
0110010011100000100001000: 562338 470751 566696 566580 587598
0110010011100000100001000: 562338 470751 566696 566580 496553
0110010011100000100001000: 562338 470751 566696 566580 613488
0110010010100010100000100: 562338 470751 566696 566580 570377
0110010010100010100000100: 562338 470751 566696 566580 561932
0110010011100000100001000: 562338 470751 566696 493584 461858
0110010011100000100001000: 562338 470751 566696 493584 587598
0110010011100000100001000: 562338 470751 566696 493584 580492
0110010011100000100001000: 562338 470751 566696 493584 496553
0110010011100000100001000: 562338 470751 566696 493584 566580
0110010010100010100000100: 562338 470751 566696 493584 570377
0110010010100010100000100: 562338 470751 566696 493584 561932
0110010011100000100001000: 560989 461858 457239 566580 587598
0110010010100010100000100: 560989 580492 461858 607812 587598
0110010011100000100001000: 560989 580492 461858 570377 607812
0110010010100010100000100: 560989 580492 461858 570377 587598
0110010011100000100001000: 560989 580492 461858 561932 607812
0110010011100000100001000: 560989 580492 461858 561932 570377
0110010010100010100000100: 560989 580492 461858 561932 587598
0110010011100000100001000: 560989 580492 457239 570377 607812
0110010011100000100001000: 560989 580492 457239 561932 607812
0110010011100000100001000: 560989 580492 457239 561932 570377
0110010011100000100001000: 560989 580492 457239 566580 570377
0110010011100000100001000: 560989 580492 457239 566580 561932
0110010011100000100001000: 560989 580492 457239 470751 607812
0110010011100000100001000: 560989 580492 457239 470751 570377
0110010011100000100001000: 560989 580492 457239 470751 561932
0110010010100010100000100: 560989 602794 461858 562338 587598
0110010011100000100001000: 560989 602794 461858 538854 562338
0110010010100010100000100: 560989 602794 461858 538854 587598
0110010010100010100000100: 560989 602794 461858 538854 470751
0110010011100000100001000: 560989 602794 461858 566696 538854
0110010010100010100000100: 560989 602794 461858 566696 587598
0110010010100010100000100: 560989 602794 461858 566696 470751
0110010011100000100001000: 560989 602794 457239 566580 562338
0110010011100000100001000: 560989 602794 457239 566580 566696
0111010100110001000100010: 560989 602794 580492 461858 587598
0111110100110001000010000: 560989 602794 580492 457239 461858
0111010100110001000100010: 560989 602794 580492 457239 496553
0110010010100010100000100: 560989 457239 461858 496553 587598
0110010010100010100000100: 560989 457239 461858 496553 566580
0110010011100000100001000: 560989 457239 461858 538854 496553
0110010010100010100000100: 560989 457239 461858 538854 587598
0110010010100010100000100: 560989 457239 461858 538854 566580
0110010010100010100000100: 560989 457239 461858 538854 470751
0110010010100010100000100: 560989 457239 580492 496553 607812
0110010010100010100000100: 560989 457239 580492 496553 561932
0110010010100010100000100: 560989 457239 580492 496553 566580
0110010011100000100001000: 560989 457239 580492 538854 496553
0110010010100010100000100: 560989 457239 580492 538854 607812
0110010010100010100000100: 560989 457239 580492 538854 570377
0110010010100010100000100: 560989 457239 580492 538854 561932
0110010010100010100000100: 560989 457239 580492 538854 566580
0110010010100010100000100: 560989 457239 580492 538854 470751
0110010010100010100000100: 560989 457239 602794 496553 562338
0110010010100010100000100: 560989 457239 602794 496553 566696
0110010010100010100000100: 560989 457239 602794 496553 566580
0110010011100000100001000: 461858 560989 587598 457239 580492
0110010011100000100001000: 461858 560989 587598 457239 602794
0110010011100000100001000: 461858 560989 470751 457239 602794
0110010010100010100000100: 461858 587598 560989 490843 580492
0110010010100010100000100: 461858 587598 560989 490843 602794
0110010010100010100000100: 461858 587598 560989 490843 457239
0110010011100000100001000: 461858 587598 560989 528343 490843
0110010010100010100000100: 461858 587598 560989 528343 580492
0110010010100010100000100: 461858 587598 560989 528343 602794
0110010010100010100000100: 461858 587598 560989 528343 457239
0110010011100000100001000: 461858 587598 566580 528343 490843
0110010010100010100000100: 461858 566580 560989 607812 457239
0110010011100000100001000: 461858 566580 560989 482970 607812
0110010010100010100000100: 461858 566580 560989 482970 457239
0110010010100010100000100: 461858 566580 587598 607812 490843
0110010010100010100000100: 461858 566580 587598 607812 528343
0110010010100010100000100: 461858 566580 587598 580492 490843
0110010010100010100000100: 461858 566580 587598 580492 528343
0110010011100000100001000: 461858 566580 587598 602794 607812
0110010010100010100000100: 461858 566580 587598 602794 490843
0110010010100010100000100: 461858 566580 587598 602794 528343
0110010011100000100001000: 461858 566580 587598 482970 607812
0110010011100000100001000: 461858 566580 587598 482970 580492
0110010011100000100001000: 461858 566580 587598 482970 602794
0110010010100010100000100: 461858 566580 587598 482970 490843
0110010010100010100000100: 461858 566580 587598 482970 528343
0110010010100010100000100: 461858 470751 560989 562338 457239
0110010011100000100001000: 461858 470751 560989 496553 562338
0110010010100010100000100: 461858 470751 560989 496553 602794
0110010011100000100001000: 461858 470751 560989 613488 562338
0110010011100000100001000: 461858 470751 560989 613488 496553
0110010010100010100000100: 461858 470751 560989 613488 602794
0110010010100010100000100: 461858 470751 560989 613488 457239
0110010011100000100001000: 461858 470751 560989 493584 562338
0110010011100000100001000: 461858 470751 560989 493584 496553
0110010010100010100000100: 461858 470751 560989 493584 602794
0110010010100010100000100: 461858 470751 560989 493584 457239
0111010100110001000100010: 461858 470751 587598 560989 602794
0111010100110001000100010: 461858 470751 587598 560989 457239
0111010100110001000100010: 461858 470751 566580 560989 457239
0111110110110001100010000: 461858 470751 566580 587598 560989
0110010011100000100001000: 570377 580492 496553 560989 607812
0110010011100000100001000: 570377 580492 496553 602794 607812
0110010011100000100001000: 570377 580492 496553 561932 607812
0110010011100000100001000: 570377 580492 496553 561932 560989
0110010011100000100001000: 570377 580492 496553 561932 602794
0110010011100000100001000: 570377 580492 496553 566580 560989
0110010011100000100001000: 570377 580492 496553 566580 561932
0110010011100000100001000: 570377 580492 566696 560989 607812
0110010011100000100001000: 570377 580492 566696 566580 560989
0110010011100000100001000: 570377 580492 566696 470751 607812
0110010011100000100001000: 570377 580492 566696 470751 560989
0110010010100010100000100: 570377 496553 580492 490843 607812
0110010010100010100000100: 570377 496553 580492 490843 560989
0110010010100010100000100: 570377 496553 580492 490843 602794
0110010010100010100000100: 570377 496553 580492 490843 561932
0110010010100010100000100: 570377 496553 580492 490843 566580
0110010011100000100001000: 570377 496553 580492 457239 490843
0110010010100010100000100: 570377 496553 580492 457239 607812
0110010010100010100000100: 570377 496553 580492 457239 602794
0110010010100010100000100: 570377 496553 580492 457239 561932
0110010010100010100000100: 570377 496553 580492 457239 566580
0110010011100000100001000: 570377 496553 566696 457239 490843
0110010011100000100001000: 570377 496553 566696 470751 490843
0110010011100000100001000: 570377 496553 566696 470751 457239
0110010010100010100000100: 570377 566696 580492 562338 607812
0110010010100010100000100: 570377 566696 580492 562338 560989
0110010010100010100000100: 570377 566696 580492 562338 566580
0110010010100010100000100: 570377 566696 496553 562338 490843
0110010010100010100000100: 570377 566696 496553 562338 457239
0110010010100010100000100: 570377 566696 496553 602794 490843
0110010010100010100000100: 570377 566696 496553 602794 457239
0110010010100010100000100: 570377 566696 496553 602794 470751
0110010011100000100001000: 570377 566696 496553 561932 562338
0110010011100000100001000: 570377 566696 496553 561932 602794
0110010010100010100000100: 570377 566696 496553 561932 490843
0110010010100010100000100: 570377 566696 496553 561932 457239
0110010010100010100000100: 570377 566696 496553 561932 470751
