0110010011100000100001000: 460836 648339 584174 629685 624722
0110010011100000100001000: 460836 648339 584174 505984 624722
0110010011100000100001000: 460836 648339 584174 505984 608504
0111010101110001000001000: 460836 648339 466926 584174 624722
0111010101110001000001000: 460836 648339 466926 584174 629685
0111010101110001000001000: 460836 648339 466926 584174 608504
0111010101110001000001000: 460836 648339 466926 584174 505984
0111010101110001000001000: 648339 624722 608504 466926 461736
0111010101110001000001000: 648339 624722 608504 505984 461736
0111010101110001000001000: 648339 624722 608504 460836 461736
0110010010100010100000100: 648339 629685 624722 525852 605280
0110010010100010100000100: 648339 629685 624722 525852 461736
0111010101110001000001000: 648339 629685 608504 466926 525852
0111010101110001000001000: 648339 629685 608504 460836 525852
0111010110110011100000100: 648339 629685 608504 505984 605280
0111010101110001000001000: 648339 629685 505984 466926 525852
0111010101110001000001000: 648339 629685 505984 624722 525852
0111010101110001000001000: 648339 629685 505984 460836 525852
0111110110110001100010000: 648339 629685 505984 608504 466926
0111110110110001100010000: 648339 629685 505984 608504 460836
0111110100110001000010000: 648339 608504 624722 505984 466926
0111110100110001000010000: 648339 608504 624722 460836 505984
0111010100110001000100010: 648339 608504 624722 460836 584174
0111010110110011100000100: 648339 608504 624722 629685 461736
0111010101110001000001000: 648339 608504 629685 466926 605280
0111010101110001000001000: 648339 608504 629685 460836 605280
0111010100110001000100010: 648339 608504 629685 460836 584174
0111110110110001100010000: 648339 608504 629685 624722 466926
0111110110110001100010000: 648339 608504 629685 624722 460836
0111110110110011100010100: 648339 608504 629685 624722 505984
0111010110110011100000100: 648339 608504 629685 624722 525852
0111110100110001000010000: 648339 505984 629685 624722 466926
0111010100110001000100010: 648339 505984 629685 624722 605280
0111010100110001000100010: 648339 505984 629685 624722 461736
0111110100110001000010000: 648339 505984 629685 460836 624722
0111010100110001000100010: 648339 505984 629685 460836 584174
0110010010100010100000100: 648339 460836 624722 584174 605280
0110010010100010100000100: 648339 460836 624722 584174 461736
0110010010100010100000100: 648339 460836 629685 584174 525852
0110010010100010100000100: 648339 460836 608504 584174 605280
0111010100110001000100010: 648339 460836 466926 624722 605280
0111010100110001000100010: 648339 460836 466926 624722 461736
0111110100110001000010000: 648339 460836 466926 629685 624722
0111010100110001000100010: 648339 460836 466926 629685 525852
0111010100110001000100010: 648339 460836 466926 608504 605280
0111110100110001000110010: 648339 460836 466926 608504 624722
0111110100110001000110010: 648339 460836 466926 608504 629685
0111110100110001000010000: 648339 460836 466926 505984 624722
0111110100110001000010000: 648339 460836 466926 505984 608504
0111110100110001000110010: 648339 460836 466926 505984 629685
0111010100110001000100010: 608504 624722 605280 629685 525852
0111010100110001000100010: 608504 624722 605280 629685 505984
0111010110110011100000100: 608504 624722 648339 605280 466926
0111010110110011100000100: 608504 624722 648339 605280 505984
0111010110110011100000100: 608504 624722 648339 605280 460836
0110010010100010100000100: 608504 629685 605280 525852 461736
0110010011100000100001000: 608504 629685 605280 505984 525852
0110010010100010100000100: 608504 629685 605280 505984 461736
0110010010100010100000100: 608504 629685 624722 525852 461736
0110010011100000100001000: 608504 629685 624722 505984 525852
0110010010100010100000100: 608504 629685 624722 505984 461736
0111010101110001000001000: 608504 629685 648339 605280 525852
0110010010100010100000100: 608504 648339 605280 466926 461736
0110010011100000100001000: 608504 648339 605280 505984 466926
0110010010100010100000100: 608504 648339 605280 505984 461736
0110010011100000100001000: 608504 648339 605280 460836 505984
0110010010100010100000100: 608504 648339 605280 460836 461736
0111110110110011100010100: 608504 648339 624722 629685 605280
0111010100110001000100010: 608504 648339 629685 605280 461736
0110010010100010100000100: 629685 608504 525852 605280 643442
0110010010100010100000100: 629685 608504 525852 605280 588121
0110010010100010100000100: 629685 608504 525852 624722 643442
0110010010100010100000100: 629685 608504 525852 624722 588121
0110010010100010100000100: 629685 648339 525852 466926 643442
0110010010100010100000100: 629685 648339 525852 466926 588121
0110010011100000100001000: 629685 648339 525852 624722 466926
0110010010100010100000100: 629685 648339 525852 624722 643442
0110010010100010100000100: 629685 648339 525852 624722 588121
0110010011100000100001000: 629685 648339 525852 460836 624722
0110010010100010100000100: 629685 648339 525852 460836 643442
0110010010100010100000100: 629685 648339 525852 460836 588121
0111010100110001000100010: 629685 648339 608504 525852 643442
0111010100110001000100010: 629685 648339 608504 525852 588121
0111010100110001000100010: 629685 648339 505984 525852 643442
0111010100110001000100010: 629685 648339 505984 525852 588121
0111110110110001100010000: 629685 648339 505984 608504 525852
0110010010100010100000100: 595709 606310 461736 643442 605280
0110010010100010100000100: 595709 606310 461736 643442 624722
0110010010100010100000100: 595709 606310 461736 588121 605280
0110010010100010100000100: 595709 606310 461736 588121 624722
0111010100110001000100010: 606310 588121 643442 595709 461736
0110010010100010100000100: 606310 595709 643442 461736 525852
0110010010100010100000100: 606310 595709 588121 461736 525852
0111010110110011100000100: 588121 643442 525852 606310 629685
0111010110110011100000100: 588121 643442 606310 525852 595709
0110010010100010100000100: 588121 606310 525852 595709 629685
0111010100110001000100010: 525852 588121 643442 629685 608504
0111010100110001000100010: 525852 588121 643442 629685 505984
0111010100110001000100010: 525852 588121 643442 629685 648339
0110010010100010100000100: 525852 629685 643442 608504 606310
0110010011100000100001000: 525852 629685 643442 505984 608504
0110010010100010100000100: 525852 629685 643442 505984 606310
0110010010100010100000100: 525852 629685 643442 648339 606310
0110010010100010100000100: 525852 629685 588121 608504 606310
0110010011100000100001000: 525852 629685 588121 505984 608504
0110010010100010100000100: 525852 629685 588121 505984 606310
0110010010100010100000100: 525852 629685 588121 648339 606310
0111010110110011100000100: 624722 605280 461736 608504 595709
0111010110110011100000100: 624722 605280 608504 461736 629685
0111010101110001000001000: 624722 461736 605280 648339 595709
0111010100110001000100010: 624722 461736 605280 648339 466926
0111010100110001000100010: 624722 461736 605280 648339 629685
0111010100110001000100010: 624722 461736 605280 648339 505984
0111010100110001000100010: 624722 461736 605280 648339 460836
0110010010100010100000100: 624722 608504 461736 629685 595709
0111110110110011100010100: 624722 608504 605280 648339 461736
0110010011100000100001000: 624722 648339 605280 629685 466926
0110010011100000100001000: 624722 648339 605280 505984 466926
0110010011100000100001000: 624722 648339 605280 460836 629685
0110010011100000100001000: 624722 648339 605280 460836 505984
0110010010100010100000100: 624722 648339 461736 466926 595709
0110010011100000100001000: 624722 648339 461736 629685 466926
0110010010100010100000100: 624722 648339 461736 629685 595709
0110010011100000100001000: 624722 648339 461736 505984 466926
0110010010100010100000100: 624722 648339 461736 505984 595709
0110010011100000100001000: 624722 648339 461736 460836 629685
0110010011100000100001000: 624722 648339 461736 460836 505984
0110010010100010100000100: 624722 648339 461736 460836 595709
0111010100110001000100010: 624722 648339 608504 461736 595709
0110010010100010100000100: 643442 606310 525852 595709 629685
0111010100110001000100010: 461736 624722 605280 595709 606310
0110010010100010100000100: 461736 595709 605280 606310 608504
0110010010100010100000100: 461736 595709 624722 606310 608504
0110010010100010100000100: 461736 595709 624722 606310 648339
0110010010100010100000100: 605280 608504 461736 629685 595709
0110010010100010100000100: 605280 608504 461736 648339 595709
