0110010011100100110001000: 598883 580499 554663 639123 642455
0110010011100000100001000: 598883 580499 563075 642455 639123
0111010101110001000001000: 598883 580499 554368 563075 642455
0110010010100010100000100: 598883 554663 580499 464356 642455
0110010011100100110001000: 598883 554663 580499 639123 464356
0110010011100000100001000: 598883 554663 563075 639123 464356
0111010101110001000001000: 598883 554663 554368 563075 464356
0110010011100000100001000: 598883 554368 563075 616836 639123
0110010011100000100001000: 598883 554368 563075 595533 639123
0110010011100000100001000: 598883 554368 563075 595533 616836
0110010011100000100001000: 598883 554368 563075 640126 639123
0110010011100000100001000: 598883 554368 563075 640126 616836
0110010011100000100001000: 598883 554368 563075 640126 464555
0110010011100000100001000: 598883 554368 563075 640126 595533
0111010101110001000001000: 598883 554368 580499 563075 616836
0111010101110001000001000: 598883 554368 580499 563075 464555
0111010101110001000001000: 598883 554368 580499 563075 595533
0111010101110001000001000: 598883 554368 580499 563075 640126
0111010100110001000100010: 598883 554368 580499 563075 635387
0111010100110001000100010: 598883 554368 580499 563075 573416
0111010110110011100000100: 598883 554368 580499 554663 642455
0111010101110001000001000: 598883 554368 554663 563075 616836
0111010101110001000001000: 598883 554368 554663 563075 464555
0111010101110001000001000: 598883 554368 554663 563075 595533
0111010101110001000001000: 598883 554368 554663 563075 640126
0111010100110001000100010: 598883 554368 554663 563075 635387
0111010100110001000100010: 598883 554368 554663 563075 573416
0111110110110001100010000: 598883 554368 554663 580499 563075
0111010110110011100000100: 598883 554368 554663 580499 464356
0110010010100010100000100: 598883 563075 580499 635387 639123
0110010010100010100000100: 598883 563075 580499 635387 642455
0110010010100010100000100: 598883 563075 580499 573416 639123
0110010010100010100000100: 598883 563075 580499 573416 642455
0110010010100010100000100: 598883 563075 554663 635387 464356
0110010010100010100000100: 598883 563075 554663 635387 639123
0110010010100010100000100: 598883 563075 554663 573416 464356
0110010010100010100000100: 598883 563075 554663 573416 639123
0110010010100010100000100: 598883 563075 554368 635387 639123
0110010010100010100000100: 598883 563075 554368 635387 616836
0110010010100010100000100: 598883 563075 554368 635387 464555
0110010010100010100000100: 598883 563075 554368 635387 595533
0110010010100010100000100: 598883 563075 554368 635387 640126
0110010010100010100000100: 598883 563075 554368 573416 639123
0110010010100010100000100: 598883 563075 554368 573416 464555
0110010010100010100000100: 598883 563075 554368 573416 595533
0110010010100010100000100: 598883 563075 554368 573416 640126
0110010010100010100100110: 598883 563075 554368 573416 616836
0111010101110001000001000: 563075 573416 635387 598883 616836
0111010100110001000100010: 563075 573416 635387 598883 580499
0111010100110001000100010: 563075 573416 635387 598883 554663
0111010100110001000100010: 563075 573416 635387 598883 554368
0110010011100000100001000: 563075 598883 635387 554663 580499
0110010010100010100000100: 563075 598883 573416 580499 616836
0110010011100000100001000: 563075 598883 573416 554663 580499
0110010010100010100000100: 563075 598883 573416 554663 616836
0110010011100000100001000: 640126 554368 534630 616836 639123
0110010011100000100001000: 640126 554368 534630 595533 639123
0110010011100000100001000: 640126 554368 534630 595533 616836
0110010011100000100001000: 640126 554368 534630 580499 616836
0110010011100000100001000: 640126 554368 534630 580499 464555
0110010011100000100001000: 640126 554368 534630 580499 595533
0110010011100000100001000: 640126 554368 534630 554663 616836
0110010011100000100001000: 640126 554368 534630 554663 464555
0110010011100000100001000: 640126 554368 534630 554663 595533
0110010011100000100001000: 640126 554368 534630 554663 580499
0110010011100000100001000: 640126 554368 534630 598883 639123
0110010011100000100001000: 640126 554368 534630 598883 616836
0110010011100000100001000: 640126 554368 534630 598883 464555
0110010011100000100001000: 640126 554368 534630 598883 595533
0111110110110001100010000: 554368 639123 580499 464555 640126
0111010110110011100000100: 554368 639123 580499 464555 642455
0111010110110011100000100: 554368 639123 580499 554663 642455
0111110110110001100010000: 554368 639123 554663 464555 640126
0111010110110011100000100: 554368 639123 554663 464555 464356
0111110110110001100010000: 554368 639123 554663 580499 616836
0111110110110001100010000: 554368 639123 554663 580499 595533
0111110110110001100010000: 554368 639123 554663 580499 640126
0111110111110001100011000: 554368 639123 554663 580499 464555
0111010110110011100000100: 554368 639123 554663 580499 464356
0110010011100000100001000: 554368 616836 639123 642455 573416
0110010011100000100001000: 554368 616836 595533 642455 573416
0110010011100100110001000: 554368 616836 580499 642455 573416
0110010011100000100001000: 554368 616836 554663 642455 573416
0110010011100000100001000: 554368 616836 640126 642455 573416
0110010011100000100001000: 554368 616836 598883 642455 573416
0111010101110001000001000: 554368 616836 464555 580499 573416
0111010101110001000101010: 554368 616836 464555 580499 642455
0111010101110001000001000: 554368 616836 464555 554663 573416
0111010101110001000001000: 554368 616836 464555 554663 642455
0111010101110001000001000: 554368 616836 464555 640126 573416
0111010101110001000001000: 554368 616836 464555 640126 642455
0111010101110001000001000: 554368 616836 464555 598883 573416
0111010101110001000001000: 554368 616836 464555 598883 642455
0111010100110001000100010: 554368 464555 639123 640126 534630
0111110100110001000010000: 554368 464555 639123 598883 640126
0111010100110001000100010: 554368 464555 639123 598883 563075
0111110110110011100010100: 554368 464555 639123 616836 580499
0111110110110011100010100: 554368 464555 639123 616836 554663
0111110110110011100010100: 554368 464555 639123 595533 580499
0111110110110011100010100: 554368 464555 639123 595533 554663
0111110100110001000010000: 554368 464555 616836 554663 580499
0111010100110001000100010: 554368 464555 616836 554663 464356
0111110100110001000010000: 554368 464555 616836 640126 580499
0111110100110001000010000: 554368 464555 616836 640126 554663
0111010100110001000100010: 554368 464555 616836 640126 534630
0111110100110001000010000: 554368 464555 616836 598883 640126
0111010100110001000100010: 554368 464555 616836 598883 563075
0111110110110001100010000: 554368 464555 616836 639123 640126
0111110110110001100010000: 554368 464555 616836 639123 598883
0111010110110011100000100: 554368 464555 616836 639123 573416
0111010110110011100000100: 554368 464555 616836 639123 642455
0111010110110011100000100: 554368 464555 616836 595533 573416
0111010110110011100000100: 554368 464555 616836 595533 642455
0111110110110001100010000: 554368 464555 595533 639123 640126
0111110110110001100010000: 554368 464555 595533 639123 598883
0111010110110011100000100: 554368 464555 595533 639123 512894
0111110110110001100010000: 554368 464555 595533 616836 580499
0111110110110001100010000: 554368 464555 595533 616836 554663
0111110110110001100010000: 554368 464555 595533 616836 640126
0111110110110001100010000: 554368 464555 595533 616836 598883
0111110111110001100011000: 554368 464555 595533 616836 639123
0111010110110011100000100: 554368 464555 595533 616836 512894
0110010010100010100000100: 554368 595533 616836 512894 573416
0110010010100010100000100: 554368 595533 616836 512894 642455
0111010101110001000001000: 554368 595533 464555 580499 512894
0111010100110001000100010: 554368 595533 464555 580499 642455
0111110100110001000010000: 554368 595533 464555 554663 580499
0111010101110001000001000: 554368 595533 464555 554663 512894
0111010100110001000100010: 554368 595533 464555 554663 464356
0111110100110001000010000: 554368 595533 464555 640126 580499
0111110100110001000010000: 554368 595533 464555 640126 554663
0111010101110001000001000: 554368 595533 464555 640126 512894
0111010100110001000100010: 554368 595533 464555 640126 534630
0111110100110001000010000: 554368 595533 464555 598883 640126
0111010101110001000001000: 554368 595533 464555 598883 512894
0111010100110001000100010: 554368 595533 464555 598883 563075
0110010010100010100000100: 554368 580499 595533 642455 512894
0111010100110001000100010: 554368 580499 639123 616836 573416
0111010101110001000101010: 554368 580499 639123 616836 642455
0111110100110001000010000: 554368 580499 639123 595533 616836
0111010101110001000001000: 554368 580499 639123 595533 642455
0111010100110001000100010: 554368 580499 639123 595533 512894
0111110100110001000010000: 554368 580499 639123 640126 616836
0111110100110001000010000: 554368 580499 639123 640126 595533
0111010101110001000001000: 554368 580499 639123 640126 642455
0111010100110001000100010: 554368 580499 639123 640126 534630
0111110110110011100010100: 554368 580499 639123 598883 464555
0111010101110001000101010: 554368 580499 598883 616836 642455
0111010101110001000001000: 554368 580499 598883 464555 642455
0111010101110001000001000: 554368 580499 598883 595533 642455
0111010101110001000001000: 554368 580499 598883 640126 642455
0111110110110001100010000: 554368 580499 598883 639123 616836
0111110110110001100010000: 554368 580499 598883 639123 595533
0111110110110001100010000: 554368 580499 598883 639123 640126
0111010110110011100000100: 554368 580499 598883 639123 563075
0110010010100010100000100: 554368 554663 616836 464356 573416
0110010010100010100000100: 554368 554663 616836 464356 642455
0110010010100010100100110: 554368 554663 595533 464356 512894
0111110000100001000010000: 554368 554663 580499 595533 616836
0110010010100010100000100: 554368 554663 580499 464356 642455
0111010101110001000001000: 554368 554663 639123 616836 464356
0111010100110001000100010: 554368 554663 639123 616836 573416
0111010100110001000100010: 554368 554663 639123 616836 642455
0111110100110001000010000: 554368 554663 639123 595533 616836
0111010101110001000001000: 554368 554663 639123 595533 464356
0111010100110001000100010: 554368 554663 639123 595533 512894
0111110100110001000010000: 554368 554663 639123 640126 616836
0111110100110001000010000: 554368 554663 639123 640126 595533
0111010101110001000001000: 554368 554663 639123 640126 464356
0111010100110001000100010: 554368 554663 639123 640126 534630
0111110110110011100010100: 554368 554663 639123 598883 464555
0111010101110001000001000: 554368 554663 598883 616836 464356
0111010101110001000001000: 554368 554663 598883 464555 464356
0111010101110001000001000: 554368 554663 598883 595533 464356
0111010101110001000001000: 554368 554663 598883 640126 464356
0111110110110001100010000: 554368 554663 598883 639123 616836
0111110110110001100010000: 554368 554663 598883 639123 595533
0111110110110001100010000: 554368 554663 598883 639123 640126
0111010110110011100000100: 554368 554663 598883 639123 563075
0110010010100010100000100: 554368 640126 616836 534630 573416
0110010010100010100000100: 554368 640126 616836 534630 642455
0111110000100001000010000: 554368 640126 595533 616836 639123
0110010010100010100000100: 554368 640126 595533 534630 512894
0111110000100001000010000: 554368 640126 580499 595533 616836
0110010010100010100000100: 554368 640126 580499 534630 642455
0111110000100001000010000: 554368 640126 554663 595533 616836
0111110000100001000010000: 554368 640126 554663 580499 616836
0111110000100001000010000: 554368 640126 554663 580499 464555
0111110000100001000010000: 554368 640126 554663 580499 595533
0110010010100010100000100: 554368 640126 554663 534630 464356
0110010010100010100000100: 554368 598883 616836 563075 642455
0111110000100001000010000: 554368 598883 595533 616836 639123
0110010010100010100000100: 554368 598883 595533 563075 512894
0111110000100001000010000: 554368 598883 640126 616836 639123
0111110000100001000010000: 554368 598883 640126 595533 639123
0111110000100001000010000: 554368 598883 640126 595533 616836
0110010010100010100000100: 554368 598883 640126 563075 534630
0111010100110001000100010: 554368 598883 580499 616836 573416
0111110100110001000110010: 554368 598883 580499 464555 616836
0111110100110001000010000: 554368 598883 580499 595533 616836
0111010100110001000100010: 554368 598883 580499 595533 512894
0111110100110001000110010: 554368 598883 580499 595533 464555
0111110100110001000010000: 554368 598883 580499 640126 616836
0111110100110001000010000: 554368 598883 580499 640126 464555
0111110100110001000010000: 554368 598883 580499 640126 595533
0111010100110001000100010: 554368 598883 580499 640126 534630
0111010100110001000100010: 554368 598883 554663 616836 573416
0111010100110001000100010: 554368 598883 554663 616836 642455
0111110100110001000110010: 554368 598883 554663 464555 616836
0111110100110001000010000: 554368 598883 554663 595533 616836
0111010100110001000100010: 554368 598883 554663 595533 512894
0111110100110001000110010: 554368 598883 554663 595533 464555
0111110100110001000010000: 554368 598883 554663 640126 616836
0111110100110001000010000: 554368 598883 554663 640126 464555
0111110100110001000010000: 554368 598883 554663 640126 595533
0111010100110001000100010: 554368 598883 554663 640126 534630
0111110110110001100010000: 554368 598883 554663 580499 616836
0111110110110001100010000: 554368 598883 554663 580499 464555
0111110110110001100010000: 554368 598883 554663 580499 595533
0111110110110001100010000: 554368 598883 554663 580499 640126
0111110110110011100110110: 554368 598883 554663 580499 639123
0110010010100010100000100: 554663 639123 464356 464555 512894
0110010011100000100001000: 554663 639123 464356 580499 464555
0110010010100010100000100: 554663 639123 464356 580499 512894
0110010011100100110001000: 554663 639123 598883 580499 464555
0110010010100010100000100: 554663 554368 464356 616836 512894
0110010010100010100000100: 554663 554368 464356 464555 512894
0110010011100000100001000: 554663 554368 464356 595533 616836
0110010011100000100001000: 554663 554368 464356 580499 616836
0110010011100000100001000: 554663 554368 464356 580499 464555
0110010011100000100001000: 554663 554368 464356 580499 595533
0110010010100010100000100: 554663 554368 464356 580499 512894
0110010011100000100001000: 554663 554368 464356 640126 616836
0110010011100000100001000: 554663 554368 464356 640126 464555
0110010011100000100001000: 554663 554368 464356 640126 595533
0110010011100000100001000: 554663 554368 464356 640126 580499
0110010010100010100000100: 554663 554368 464356 640126 512894
0111010100110001000100010: 554663 554368 639123 464356 512894
0111110110110001100010000: 554663 554368 598883 639123 464356
0110010010100010100000100: 554663 598883 464356 580499 512894
0110010011100000100001000: 554663 598883 464356 563075 580499
0110010010100010100000100: 554663 598883 464356 563075 512894
0110010010100010100000100: 554663 598883 639123 563075 464555
0110010011100100110001000: 554663 598883 639123 580499 563075
0111010100110001000100010: 554663 598883 554368 464356 512894
0110010011100000100001000: 580499 639123 642455 554663 464555
0110010010100010100000100: 580499 642455 639123 616836 554663
0110010010100010100100110: 580499 642455 639123 616836 464555
0110010011100000100001000: 580499 554368 642455 554663 464555
0110010011100000100001000: 580499 554368 642455 554663 595533
0110010011100000100001000: 580499 554368 642455 640126 464555
0110010011100000100001000: 580499 554368 642455 640126 595533
0110010011100000100001000: 580499 554368 642455 640126 554663
0110010011100100110001000: 580499 554368 642455 616836 595533
0110010011100100110001000: 580499 554368 642455 616836 554663
0110010011100100110001000: 580499 554368 642455 616836 640126
0111110110110001100010000: 580499 554368 598883 639123 642455
0110010010100010100000100: 580499 598883 639123 563075 464555
0110010010100010100000100: 580499 598883 642455 554663 616836
0110010011100000100001000: 580499 598883 642455 563075 554663
0110010010100010100000100: 580499 598883 642455 563075 616836
0110010010100010100000100: 595533 464555 512894 639123 464356
0110010011100000100001000: 595533 464555 512894 616836 639123
0110010010100010100000100: 595533 464555 512894 616836 464356
0110010010100010100000100: 595533 554368 512894 639123 464356
0110010011100000100001000: 595533 554368 512894 616836 639123
0110010010100010100000100: 595533 554368 512894 616836 464356
0110010011100000100001000: 595533 554368 512894 580499 616836
0110010010100010100000100: 595533 554368 512894 580499 464356
0110010011100000100001000: 595533 554368 512894 554663 616836
0110010011100000100001000: 595533 554368 512894 554663 580499
0110010011100000100001000: 595533 554368 512894 640126 639123
0110010011100000100001000: 595533 554368 512894 640126 616836
0110010011100000100001000: 595533 554368 512894 640126 580499
0110010011100000100001000: 595533 554368 512894 640126 554663
0110010010100010100000100: 595533 554368 512894 640126 464356
0110010011100000100001000: 595533 554368 512894 598883 639123
0110010011100000100001000: 595533 554368 512894 598883 616836
0110010011100000100001000: 595533 554368 512894 598883 640126
0110010010100010100000100: 595533 554368 512894 598883 464356
0111010100110001000100010: 595533 554368 464555 512894 464356
0110010011100000100001000: 464555 639123 616836 554663 580499
0110010011100000100001000: 464555 639123 595533 554663 580499
0110010010100010100000100: 464555 616836 639123 573416 580499
0110010010100010100000100: 464555 616836 639123 573416 554663
0110010011100000100001000: 464555 616836 639123 642455 573416
0110010010100010100000100: 464555 616836 639123 642455 554663
0110010011100000100001000: 464555 616836 595533 642455 573416
0110010010100010100000100: 464555 595533 639123 512894 580499
0110010010100010100000100: 464555 595533 639123 512894 554663
0110010010100010100000100: 464555 595533 616836 512894 573416
0110010010100010100000100: 464555 595533 616836 512894 642455
0110010010100010100000100: 616836 642455 573416 580499 635387
0110010010100010100000100: 616836 642455 573416 580499 563075
0110010010100010100000100: 616836 464555 573416 639123 635387
0110010010100010100000100: 616836 464555 573416 639123 563075
0110010011100000100001000: 616836 464555 573416 595533 639123
0110010010100010100000100: 616836 464555 573416 595533 635387
0110010010100010100000100: 616836 464555 573416 595533 563075
0110010011100000100001000: 616836 464555 642455 595533 639123
0110010010100010100000100: 616836 464555 642455 595533 580499
0110010010100010100000100: 616836 554368 573416 639123 635387
0110010010100010100000100: 616836 554368 573416 639123 563075
0110010011100000100001000: 616836 554368 573416 595533 639123
0110010010100010100000100: 616836 554368 573416 595533 635387
0110010010100010100000100: 616836 554368 573416 595533 563075
0110010011100000100001000: 616836 554368 573416 580499 595533
0110010010100010100000100: 616836 554368 573416 580499 635387
0110010010100010100000100: 616836 554368 573416 580499 563075
0110010011100000100001000: 616836 554368 573416 554663 595533
0110010011100000100001000: 616836 554368 573416 554663 580499
0110010010100010100000100: 616836 554368 573416 554663 635387
0110010010100010100000100: 616836 554368 573416 554663 563075
0110010011100000100001000: 616836 554368 573416 640126 639123
0110010011100000100001000: 616836 554368 573416 640126 595533
0110010011100000100001000: 616836 554368 573416 640126 580499
0110010011100000100001000: 616836 554368 573416 640126 554663
0110010010100010100000100: 616836 554368 573416 640126 635387
0110010010100010100000100: 616836 554368 573416 640126 563075
0110010011100000100001000: 616836 554368 573416 598883 639123
0110010011100000100001000: 616836 554368 573416 598883 595533
0110010011100000100001000: 616836 554368 573416 598883 640126
0110010010100010100000100: 616836 554368 573416 598883 635387
0110010011100000100001000: 616836 554368 642455 595533 639123
0110010011100000100001000: 616836 554368 642455 554663 595533
0110010011100000100001000: 616836 554368 642455 640126 639123
0110010011100000100001000: 616836 554368 642455 640126 595533
0110010011100000100001000: 616836 554368 642455 640126 554663
0110010011100000100001000: 616836 554368 642455 598883 639123
0110010011100000100001000: 616836 554368 642455 598883 595533
0110010011100000100001000: 616836 554368 642455 598883 640126
0111010100110001000100010: 616836 554368 464555 573416 635387
0111010100110001000100010: 616836 554368 464555 573416 563075
0111110100110001000010000: 616836 554368 464555 642455 573416
0110010011100000100001000: 642455 616836 580499 464555 573416
0110010010100010100000100: 642455 580499 616836 639123 573416
0110010011100000100001000: 642455 580499 616836 598883 639123
0110010010100010100000100: 642455 580499 616836 598883 573416
0110010010100010100000100: 642455 580499 616836 598883 464555
0110010011100000100001000: 573416 616836 635387 464555 642455
0110010011100000100001000: 573416 616836 635387 554368 642455
0110010011100000100001000: 573416 616836 563075 464555 642455
0110010011100000100001000: 573416 616836 563075 554368 642455
0110010010100010100000100: 573416 563075 616836 598883 642455
0110010010100010100000100: 573416 563075 616836 598883 464555
0111010100110001000100010: 573416 563075 635387 616836 642455
0111010100110001000100010: 573416 563075 635387 616836 464555
0111010100110001000100010: 573416 563075 635387 616836 554368
0110010011100000100001000: 639123 464555 580499 595533 616836
0110010011100000100001000: 639123 464555 554663 595533 616836
0110010010100010100000100: 639123 580499 464555 642455 595533
0110010011100000100001000: 639123 580499 464555 598883 642455
0110010010100010100000100: 639123 580499 464555 598883 616836
0110010010100010100000100: 639123 580499 464555 598883 595533
0110010010100010100000100: 639123 554663 464555 464356 616836
0110010010100010100000100: 639123 554663 464555 464356 595533
0110010011100000100001000: 639123 554663 464555 598883 464356
0110010010100010100000100: 639123 554663 464555 598883 616836
0110010010100010100000100: 639123 554663 464555 598883 595533
0110010010100010100000100: 639123 554663 580499 464356 642455
0110010010100010100000100: 464356 554663 512894 639123 595533
0110010011100000100001000: 464356 554663 512894 598883 639123
0110010010100010100000100: 464356 554663 512894 598883 595533
0110010010100010100000100: 512894 595533 464356 464555 554663
