Vertex,0111110000100001000010000,0111110100110001000110010,0110010010100010100000100,0111110110110101110010000,0111010110110011100100110,0111010110110011100000100,0111110110110011100010100,0110010010100010100100110,0111110110110011100110110,0110010011100100110001000,0110010011100000100001000,0111110111110101110011000,0111110111110111110011100,0111110110110001100010000,0111110111110001100011000,0111010101110001000001000,0111010100110001000100010,0111010101110001000101010,0111110100110001000010000
473800,26.0,8.0,65.0,3.0,0.0,3.0,4.0,2.0,0.0,7.0,126.0,0.0,0.0,24.0,0.0,35.0,30.0,7.0,56.0
554368,57.0,15.0,49.0,19.0,2.0,37.0,24.0,2.0,1.0,16.0,164.0,12.0,2.0,110.0,15.0,127.0,64.0,13.0,128.0
532178,0.0,0.0,20.0,0.0,0.0,1.0,0.0,0.0,0.0,1.0,37.0,0.0,0.0,0.0,0.0,8.0,12.0,0.0,1.0
635157,27.0,4.0,44.0,1.0,1.0,12.0,11.0,2.0,1.0,21.0,107.0,2.0,0.0,32.0,4.0,42.0,15.0,7.0,54.0
651541,25.0,7.0,40.0,3.0,0.0,3.0,5.0,3.0,0.0,3.0,85.0,0.0,0.0,22.0,0.0,34.0,23.0,0.0,58.0
570191,38.0,5.0,85.0,19.0,1.0,29.0,16.0,4.0,1.0,25.0,189.0,12.0,2.0,81.0,11.0,95.0,44.0,15.0,60.0
461625,45.0,8.0,24.0,0.0,0.0,7.0,8.0,1.0,0.0,5.0,102.0,3.0,0.0,36.0,7.0,34.0,15.0,1.0,59.0
484555,23.0,4.0,63.0,12.0,1.0,27.0,17.0,2.0,1.0,19.0,123.0,9.0,2.0,69.0,8.0,75.0,30.0,9.0,51.0
610693,41.0,4.0,15.0,7.0,0.0,7.0,8.0,0.0,0.0,5.0,92.0,4.0,1.0,35.0,5.0,32.0,18.0,2.0,64.0
460854,34.0,5.0,34.0,13.0,1.0,14.0,8.0,1.0,0.0,12.0,100.0,7.0,2.0,46.0,6.0,52.0,29.0,7.0,63.0
594410,47.0,4.0,41.0,0.0,1.0,11.0,9.0,2.0,1.0,22.0,123.0,3.0,0.0,39.0,7.0,37.0,15.0,7.0,58.0
509602,52.0,2.0,29.0,6.0,1.0,11.0,6.0,1.0,0.0,14.0,110.0,6.0,1.0,44.0,8.0,49.0,18.0,6.0,56.0
485165,22.0,0.0,68.0,3.0,0.0,5.0,0.0,4.0,0.0,8.0,131.0,0.0,0.0,14.0,0.0,34.0,20.0,7.0,18.0
608727,26.0,9.0,35.0,1.0,0.0,9.0,9.0,1.0,0.0,5.0,78.0,2.0,0.0,31.0,4.0,47.0,12.0,1.0,53.0
542046,0.0,0.0,47.0,0.0,0.0,1.0,0.0,3.0,0.0,1.0,55.0,0.0,0.0,0.0,0.0,8.0,23.0,0.0,0.0
490249,22.0,0.0,33.0,3.0,0.0,4.0,0.0,0.0,0.0,9.0,76.0,0.0,0.0,14.0,0.0,30.0,11.0,3.0,17.0
587089,0.0,0.0,39.0,2.0,1.0,10.0,0.0,1.0,0.0,11.0,55.0,0.0,0.0,3.0,0.0,39.0,9.0,4.0,0.0
585195,5.0,0.0,34.0,2.0,0.0,7.0,0.0,0.0,0.0,8.0,63.0,0.0,0.0,9.0,0.0,32.0,11.0,3.0,4.0
483232,0.0,0.0,35.0,1.0,1.0,12.0,0.0,1.0,0.0,13.0,69.0,0.0,0.0,1.0,0.0,30.0,11.0,3.0,0.0
graph,98.0,15.0,160.0,19.0,2.0,42.0,25.0,6.0,1.0,41.0,377.0,12.0,2.0,122.0,15.0,168.0,82.0,19.0,160.0
