Vertex,0111010100110001000100010,0111010101110001000001000,0111110111110001100011000,0111010110110011100000100,0111110110110011100010100,0110010010100010100100110,0110010011100110110001100,0111110110110001100010000,0111010110110011100100110,0110010010100010100000100,0111110110110011100110110,0111110000100001000010000,0111010101110001000101010,0111110100110001000010000,0111110111110111110011100,0111110100110001000110010,0110010011100100110001000,0111110110110101110010000,0110010011100000100001000,0111110111110101110011000
545925,30.0,62.0,0.0,7.0,0.0,3.0,3.0,26.0,0.0,140.0,0.0,74.0,6.0,62.0,0.0,0.0,55.0,4.0,296.0,0.0
631159,146.0,360.0,11.0,111.0,41.0,10.0,22.0,200.0,26.0,319.0,11.0,164.0,89.0,253.0,3.0,9.0,260.0,42.0,765.0,21.0
642427,17.0,0.0,0.0,0.0,0.0,3.0,0.0,0.0,0.0,107.0,0.0,0.0,0.0,0.0,0.0,0.0,5.0,0.0,78.0,0.0
468184,88.0,167.0,6.0,46.0,24.0,6.0,1.0,102.0,7.0,192.0,1.0,78.0,42.0,129.0,2.0,7.0,73.0,23.0,397.0,11.0
626072,38.0,19.0,0.0,10.0,0.0,6.0,1.0,2.0,0.0,193.0,0.0,14.0,3.0,8.0,0.0,0.0,51.0,0.0,279.0,0.0
631064,148.0,271.0,13.0,105.0,41.0,5.0,12.0,168.0,29.0,277.0,10.0,70.0,71.0,166.0,3.0,10.0,172.0,35.0,455.0,22.0
567398,48.0,78.0,0.0,9.0,0.0,18.0,14.0,34.0,6.0,289.0,0.0,89.0,36.0,73.0,0.0,0.0,186.0,5.0,480.0,0.0
546218,116.0,168.0,10.0,99.0,40.0,3.0,20.0,130.0,30.0,214.0,14.0,43.0,43.0,100.0,1.0,5.0,182.0,12.0,304.0,15.0
543381,51.0,145.0,8.0,36.0,16.0,5.0,7.0,101.0,7.0,151.0,4.0,107.0,36.0,109.0,2.0,6.0,80.0,20.0,387.0,12.0
566580,34.0,95.0,2.0,22.0,9.0,5.0,8.0,33.0,6.0,197.0,0.0,64.0,26.0,74.0,0.0,1.0,120.0,4.0,324.0,1.0
500690,28.0,77.0,1.0,22.0,6.0,0.0,0.0,35.0,0.0,69.0,0.0,61.0,1.0,63.0,0.0,2.0,33.0,2.0,251.0,2.0
548667,26.0,66.0,0.0,11.0,0.0,1.0,5.0,27.0,2.0,143.0,0.0,78.0,15.0,66.0,0.0,0.0,85.0,4.0,335.0,0.0
613916,74.0,151.0,7.0,50.0,16.0,13.0,17.0,92.0,15.0,386.0,5.0,133.0,43.0,105.0,0.0,1.0,193.0,0.0,707.0,5.0
529662,72.0,166.0,9.0,59.0,27.0,11.0,16.0,103.0,20.0,246.0,6.0,85.0,51.0,115.0,1.0,2.0,163.0,11.0,433.0,8.0
509879,94.0,309.0,9.0,88.0,27.0,14.0,31.0,172.0,32.0,336.0,10.0,160.0,82.0,182.0,3.0,6.0,299.0,34.0,749.0,15.0
593497,50.0,50.0,0.0,11.0,0.0,8.0,7.0,16.0,1.0,224.0,0.0,67.0,19.0,40.0,0.0,0.0,131.0,3.0,388.0,0.0
497210,107.0,146.0,4.0,49.0,26.0,15.0,12.0,46.0,19.0,319.0,3.0,24.0,55.0,61.0,0.0,11.0,175.0,7.0,417.0,8.0
582292,47.0,109.0,8.0,40.0,12.0,11.0,17.0,62.0,10.0,277.0,3.0,87.0,43.0,68.0,0.0,1.0,192.0,1.0,526.0,4.0
605266,53.0,108.0,7.0,43.0,14.0,7.0,13.0,67.0,14.0,183.0,3.0,77.0,36.0,62.0,0.0,3.0,130.0,5.0,380.0,10.0
539846,19.0,54.0,0.0,10.0,0.0,0.0,1.0,16.0,0.0,88.0,0.0,62.0,6.0,39.0,0.0,0.0,54.0,3.0,259.0,0.0
565598,20.0,54.0,0.0,10.0,0.0,2.0,1.0,16.0,0.0,93.0,0.0,63.0,6.0,39.0,0.0,0.0,57.0,3.0,259.0,0.0
522119,31.0,87.0,0.0,15.0,0.0,8.0,1.0,7.0,3.0,192.0,0.0,2.0,10.0,2.0,0.0,0.0,48.0,4.0,166.0,0.0
467913,39.0,73.0,0.0,13.0,0.0,7.0,5.0,27.0,3.0,234.0,0.0,30.0,22.0,44.0,0.0,0.0,92.0,4.0,347.0,0.0
538529,45.0,101.0,0.0,12.0,6.0,1.0,0.0,34.0,0.0,168.0,0.0,19.0,8.0,34.0,0.0,6.0,23.0,3.0,194.0,1.0
534121,20.0,50.0,0.0,20.0,0.0,6.0,1.0,7.0,0.0,126.0,0.0,9.0,6.0,13.0,0.0,0.0,48.0,1.0,209.0,0.0
506712,30.0,23.0,0.0,10.0,0.0,1.0,0.0,2.0,0.0,140.0,0.0,10.0,0.0,8.0,0.0,0.0,18.0,0.0,192.0,0.0
507909,27.0,10.0,0.0,2.0,0.0,1.0,0.0,0.0,0.0,106.0,0.0,0.0,0.0,0.0,0.0,0.0,0.0,0.0,36.0,0.0
470349,12.0,1.0,0.0,0.0,0.0,0.0,0.0,0.0,0.0,46.0,0.0,0.0,0.0,0.0,0.0,0.0,0.0,0.0,12.0,0.0
graph,302.0,600.0,19.0,182.0,61.0,34.0,43.0,305.0,46.0,1091.0,14.0,334.0,151.0,383.0,3.0,14.0,585.0,46.0,1925.0,27.0
