Vertex,0111010100110001000100010,0110010011100100110001000,0111110100110001000010000,0111110000100001000010000,0111010101110001000001000,0111010101110001000101010,0111110110110001100010000,0110010011100000100001000,0110010010100010100000100,0110010010100010100100110,0111010110110011100000100,0111110100110001000110010
543881,13.0,3.0,8.0,1.0,28.0,3.0,4.0,32.0,45.0,2.0,5.0,3.0
596508,22.0,12.0,11.0,3.0,29.0,5.0,4.0,58.0,72.0,4.0,5.0,3.0
578444,3.0,3.0,0.0,0.0,10.0,1.0,1.0,10.0,25.0,0.0,0.0,0.0
497158,4.0,11.0,7.0,6.0,7.0,1.0,1.0,51.0,37.0,1.0,0.0,0.0
627013,2.0,4.0,2.0,2.0,3.0,1.0,0.0,37.0,29.0,0.0,1.0,0.0
565813,11.0,6.0,8.0,3.0,11.0,3.0,1.0,35.0,41.0,1.0,0.0,2.0
620759,11.0,1.0,6.0,1.0,10.0,1.0,1.0,20.0,17.0,0.0,0.0,2.0
558301,17.0,6.0,7.0,3.0,19.0,4.0,4.0,47.0,53.0,5.0,5.0,2.0
648005,12.0,14.0,7.0,8.0,14.0,2.0,4.0,104.0,80.0,7.0,5.0,1.0
507267,18.0,11.0,3.0,2.0,15.0,4.0,0.0,48.0,87.0,5.0,1.0,1.0
644881,15.0,8.0,3.0,5.0,13.0,2.0,0.0,50.0,45.0,4.0,1.0,1.0
490243,10.0,20.0,2.0,7.0,7.0,2.0,0.0,99.0,98.0,5.0,1.0,0.0
539086,5.0,4.0,4.0,4.0,7.0,0.0,0.0,60.0,35.0,5.0,1.0,0.0
464033,2.0,7.0,0.0,4.0,0.0,0.0,0.0,37.0,38.0,0.0,0.0,0.0
543563,4.0,13.0,2.0,6.0,2.0,1.0,0.0,54.0,56.0,1.0,0.0,0.0
532043,1.0,6.0,0.0,0.0,0.0,0.0,0.0,19.0,23.0,0.0,0.0,0.0
457963,0.0,1.0,0.0,0.0,0.0,0.0,0.0,9.0,9.0,0.0,0.0,0.0
graph,30.0,26.0,14.0,11.0,35.0,6.0,4.0,154.0,158.0,8.0,5.0,3.0
