Vertex,0111100110011110,0110100010010010,0110101011010010,0111101111011110,0110101111000100,0111101011011010,0111100010001000,0111100110001100,0111101111001100,0110101111010110,0110100110010110,0110100110000100,0100101101010110,0101101001011010,0101101001001000,0111101011001000,0100101101000100,0101101101001100,0101101101011110,0111100010011010,0100101001010010
555620,0.0,192.0,79.0,0.0,121.0,0.0,237.0,84.0,0.0,0.0,70.0,375.0,4.0,19.0,89.0,254.0,8.0,22.0,0.0,79.0,52.0
474758,8.0,314.0,245.0,155.0,403.0,195.0,699.0,238.0,252.0,182.0,70.0,635.0,2.0,21.0,177.0,903.0,18.0,50.0,9.0,175.0,64.0
605214,0.0,51.0,57.0,0.0,93.0,0.0,189.0,58.0,0.0,0.0,0.0,118.0,2.0,0.0,27.0,203.0,4.0,14.0,0.0,49.0,11.0
630680,3.0,153.0,24.0,0.0,38.0,19.0,47.0,29.0,18.0,17.0,35.0,282.0,2.0,9.0,76.0,80.0,2.0,8.0,3.0,20.0,38.0
632071,3.0,148.0,71.0,0.0,121.0,62.0,319.0,71.0,72.0,54.0,70.0,311.0,0.0,19.0,69.0,280.0,4.0,10.0,4.0,75.0,28.0
494508,3.0,102.0,41.0,0.0,81.0,43.0,304.0,46.0,54.0,37.0,0.0,200.0,2.0,0.0,55.0,199.0,0.0,2.0,3.0,46.0,13.0
585830,6.0,158.0,99.0,0.0,167.0,95.0,240.0,98.0,108.0,88.0,35.0,304.0,2.0,9.0,86.0,386.0,6.0,14.0,8.0,86.0,56.0
554368,12.0,339.0,319.0,155.0,523.0,255.0,1106.0,311.0,324.0,229.0,105.0,716.0,2.0,35.0,194.0,1175.0,12.0,62.0,14.0,238.0,33.0
560633,0.0,159.0,38.0,0.0,60.0,0.0,261.0,43.0,0.0,0.0,35.0,314.0,0.0,11.0,76.0,131.0,8.0,12.0,0.0,26.0,25.0
519503,2.0,146.0,89.0,0.0,139.0,94.0,496.0,81.0,126.0,84.0,0.0,318.0,0.0,0.0,93.0,308.0,4.0,18.0,3.0,54.0,27.0
635828,0.0,45.0,81.0,155.0,147.0,48.0,400.0,81.0,72.0,40.0,0.0,106.0,0.0,0.0,32.0,346.0,0.0,10.0,0.0,66.0,4.0
625642,0.0,45.0,52.0,0.0,92.0,48.0,504.0,52.0,72.0,40.0,0.0,105.0,0.0,0.0,30.0,213.0,0.0,8.0,0.0,40.0,2.0
481896,4.0,147.0,72.0,0.0,120.0,85.0,479.0,68.0,108.0,81.0,35.0,306.0,0.0,14.0,88.0,275.0,2.0,12.0,4.0,50.0,20.0
612723,4.0,74.0,84.0,155.0,156.0,85.0,360.0,84.0,108.0,81.0,35.0,163.0,0.0,14.0,50.0,373.0,0.0,8.0,4.0,72.0,6.0
591063,6.0,99.0,49.0,0.0,83.0,65.0,172.0,49.0,72.0,68.0,35.0,226.0,0.0,14.0,68.0,186.0,8.0,10.0,6.0,34.0,6.0
636810,3.0,71.0,60.0,0.0,116.0,38.0,248.0,66.0,36.0,34.0,0.0,159.0,0.0,0.0,30.0,284.0,2.0,4.0,4.0,68.0,13.0
601941,0.0,60.0,24.0,0.0,24.0,0.0,24.0,16.0,0.0,0.0,0.0,140.0,0.0,0.0,40.0,42.0,4.0,8.0,0.0,4.0,0.0
534574,2.0,125.0,41.0,0.0,81.0,20.0,312.0,46.0,18.0,17.0,35.0,248.0,0.0,11.0,60.0,201.0,2.0,2.0,2.0,44.0,13.0
649532,0.0,36.0,22.0,0.0,44.0,0.0,352.0,22.0,0.0,0.0,0.0,84.0,0.0,0.0,24.0,110.0,0.0,0.0,0.0,22.0,0.0
498049,0.0,93.0,17.0,0.0,19.0,0.0,15.0,13.0,0.0,0.0,0.0,172.0,0.0,0.0,48.0,35.0,2.0,6.0,0.0,4.0,20.0
523316,0.0,79.0,0.0,0.0,0.0,0.0,24.0,0.0,0.0,0.0,0.0,126.0,0.0,0.0,28.0,0.0,2.0,0.0,0.0,0.0,25.0
graph,14.0,659.0,391.0,155.0,657.0,288.0,1697.0,389.0,360.0,263.0,140.0,1352.0,4.0,44.0,360.0,1496.0,22.0,70.0,16.0,313.0,114.0
