Vertex,0111010110110011100100110,0111110100110001000110010,0111010101110001000001000,0111110100110001000010000,0110010011100000100001000,0111010110110011100000100,0111110110110101110010000,0111110110110011100010100,0111110000100001000010000,0110010010100010100100110,0111110111110101110011000,0111010100110001000100010,0111010101110001000101010,0110010010100010100000100,0111110110110001100010000,0110010011100100110001000
554368,1.0,3.0,18.0,30.0,53.0,9.0,4.0,7.0,10.0,1.0,3.0,22.0,2.0,16.0,22.0,11.0
588904,0.0,1.0,11.0,15.0,31.0,5.0,0.0,2.0,7.0,1.0,1.0,10.0,0.0,19.0,9.0,2.0
563094,0.0,3.0,17.0,16.0,11.0,4.0,4.0,4.0,2.0,0.0,3.0,12.0,1.0,11.0,12.0,1.0
578976,1.0,2.0,10.0,18.0,17.0,3.0,0.0,4.0,7.0,0.0,1.0,9.0,0.0,6.0,12.0,6.0
544093,0.0,0.0,4.0,0.0,12.0,2.0,0.0,0.0,0.0,1.0,0.0,6.0,0.0,25.0,0.0,0.0
471773,0.0,3.0,6.0,16.0,20.0,1.0,1.0,2.0,6.0,0.0,0.0,7.0,0.0,6.0,7.0,2.0
554618,0.0,3.0,8.0,15.0,18.0,3.0,0.0,4.0,3.0,0.0,1.0,12.0,0.0,8.0,9.0,2.0
592167,1.0,0.0,7.0,18.0,36.0,0.0,1.0,0.0,9.0,1.0,0.0,13.0,2.0,17.0,7.0,11.0
657413,1.0,1.0,9.0,5.0,27.0,5.0,1.0,2.0,0.0,0.0,0.0,13.0,2.0,13.0,1.0,11.0
474368,0.0,0.0,0.0,0.0,20.0,0.0,0.0,0.0,0.0,1.0,0.0,9.0,0.0,21.0,0.0,2.0
611953,1.0,3.0,24.0,18.0,22.0,8.0,4.0,5.0,2.0,0.0,3.0,13.0,2.0,18.0,14.0,5.0
513093,0.0,0.0,13.0,6.0,14.0,2.0,1.0,0.0,0.0,0.0,0.0,1.0,0.0,5.0,3.0,1.0
641877,0.0,1.0,13.0,13.0,14.0,3.0,4.0,5.0,4.0,0.0,3.0,13.0,1.0,10.0,14.0,1.0
graph,1.0,4.0,28.0,34.0,59.0,9.0,4.0,7.0,10.0,1.0,3.0,28.0,2.0,35.0,22.0,11.0
