Vertex,0111100010011010,0101101001001000,0101101101011110,0111101111011110,0110100010010010,0111100110011110,0110101011010010,0110101111010110,0111101111001100,0101101001011010,0111101011001000,0111101011011010,0101101101001100,0100101001010010,0111100010001000,0100101101000100,0100101101010110,0111100110001100,0110100110000100,0110101111000100,0110100110010110
554492,111.0,58.0,16.0,465.0,159.0,24.0,110.0,263.0,360.0,28.0,498.0,319.0,16.0,15.0,266.0,6.0,2.0,147.0,297.0,206.0,105.0
497799,67.0,40.0,16.0,310.0,73.0,15.0,60.0,149.0,180.0,10.0,313.0,170.0,0.0,4.0,222.0,6.0,0.0,73.0,164.0,124.0,35.0
546821,119.0,50.0,16.0,620.0,121.0,18.0,116.0,189.0,252.0,0.0,545.0,225.0,12.0,28.0,126.0,2.0,0.0,141.0,231.0,224.0,0.0
459311,104.0,51.0,9.0,310.0,102.0,7.0,107.0,125.0,162.0,0.0,489.0,138.0,10.0,16.0,142.0,4.0,2.0,126.0,186.0,201.0,0.0
550157,139.0,90.0,8.0,310.0,200.0,12.0,137.0,135.0,180.0,58.0,559.0,160.0,22.0,45.0,299.0,18.0,6.0,159.0,376.0,239.0,173.0
554368,252.0,106.0,26.0,930.0,197.0,27.0,290.0,405.0,540.0,43.0,1255.0,466.0,32.0,47.0,663.0,2.0,4.0,291.0,365.0,528.0,105.0
632227,70.0,36.0,10.0,310.0,66.0,12.0,79.0,118.0,162.0,10.0,360.0,146.0,6.0,8.0,215.0,0.0,0.0,79.0,143.0,149.0,35.0
525852,131.0,142.0,22.0,310.0,267.0,18.0,148.0,227.0,270.0,69.0,588.0,248.0,28.0,63.0,371.0,24.0,6.0,160.0,489.0,255.0,208.0
576021,58.0,31.0,4.0,155.0,62.0,4.0,64.0,64.0,90.0,0.0,297.0,75.0,4.0,15.0,253.0,2.0,0.0,64.0,126.0,122.0,0.0
534073,46.0,22.0,4.0,0.0,41.0,2.0,59.0,44.0,54.0,0.0,245.0,47.0,6.0,6.0,263.0,2.0,0.0,55.0,77.0,103.0,0.0
547166,77.0,70.0,6.0,0.0,133.0,5.0,99.0,101.0,144.0,21.0,385.0,114.0,14.0,24.0,286.0,0.0,2.0,95.0,257.0,166.0,68.0
611337,69.0,149.0,0.0,0.0,290.0,0.0,83.0,0.0,0.0,64.0,256.0,0.0,26.0,74.0,249.0,22.0,8.0,87.0,518.0,124.0,173.0
467743,31.0,78.0,3.0,0.0,154.0,2.0,56.0,17.0,18.0,0.0,157.0,17.0,16.0,25.0,47.0,2.0,2.0,49.0,283.0,76.0,0.0
531501,74.0,36.0,5.0,0.0,81.0,4.0,81.0,71.0,90.0,0.0,357.0,78.0,10.0,30.0,222.0,2.0,2.0,88.0,138.0,150.0,0.0
514054,95.0,88.0,3.0,0.0,176.0,2.0,88.0,24.0,18.0,29.0,354.0,21.0,12.0,57.0,286.0,8.0,8.0,86.0,297.0,152.0,70.0
510194,2.0,18.0,0.0,0.0,57.0,0.0,12.0,0.0,0.0,0.0,21.0,0.0,4.0,23.0,0.0,0.0,0.0,8.0,83.0,12.0,0.0
639773,2.0,30.0,0.0,0.0,58.0,0.0,2.0,0.0,0.0,0.0,10.0,0.0,0.0,11.0,84.0,12.0,0.0,2.0,99.0,4.0,0.0
556601,35.0,59.0,0.0,0.0,132.0,0.0,33.0,0.0,0.0,0.0,91.0,0.0,10.0,34.0,54.0,8.0,6.0,30.0,214.0,45.0,0.0
567003,0.0,4.0,0.0,0.0,24.0,0.0,0.0,0.0,0.0,0.0,0.0,0.0,0.0,14.0,0.0,0.0,0.0,0.0,44.0,0.0,0.0
547642,2.0,14.0,0.0,0.0,47.0,0.0,12.0,0.0,0.0,0.0,20.0,0.0,4.0,23.0,0.0,0.0,0.0,8.0,69.0,12.0,0.0
568861,0.0,4.0,0.0,0.0,24.0,0.0,0.0,0.0,0.0,0.0,0.0,0.0,0.0,14.0,0.0,0.0,0.0,0.0,44.0,0.0,0.0
graph,371.0,294.0,37.0,930.0,616.0,38.0,409.0,483.0,630.0,83.0,1700.0,556.0,58.0,144.0,1012.0,30.0,12.0,437.0,1125.0,723.0,243.0
