0110010010100010100100110: 507346 466289 574384 638887 477062
0110010010100010100000100: 507346 520434 574384 513839 477062
0110010011100000100001000: 507346 520434 574384 589505 513839
0110010010100010100000100: 507346 520434 574384 589505 477062
0110010010100010100000100: 507346 520434 466289 513839 638887
0110010011100000100001000: 507346 520434 466289 589505 513839
0110010010100010100000100: 507346 520434 466289 589505 638887
0110010010100010100000100: 520434 589505 513839 475838 564808
0110010010100010100000100: 520434 507346 513839 574384 564808
0110010011100000100001000: 520434 507346 513839 466289 574384
0110010010100010100000100: 520434 507346 513839 466289 564808
0110010010100010100000100: 520434 507346 589505 574384 475838
0110010011100000100001000: 520434 507346 589505 466289 574384
0110010010100010100000100: 520434 507346 589505 466289 475838
0110010010100010100000100: 589505 520434 475838 513839 575011
0110010011100000100001000: 589505 520434 475838 507346 513839
0110010010100010100000100: 589505 520434 475838 507346 575011
0110010010100010100000100: 475838 589505 575011 520434 574522
0110010011100000100001000: 466289 507346 638887 520434 574384
0110010010100010100000100: 466289 507346 638887 520434 477062
0110010011100000100001000: 638887 477062 466289 574384 493466
0110010010100010100000100: 638887 466289 477062 507346 493466
0110010010100010100000100: 477062 574384 493466 507346 574833
0110010010100010100000100: 477062 638887 493466 466289 574833
0110010011100000100001000: 574384 477062 507346 638887 493466
0110010010100010100000100: 574384 507346 477062 466289 493466
0110010011100000100001000: 574384 507346 477062 520434 466289
0110010010100010100000100: 574384 507346 477062 520434 493466
0110010010100010100000100: 574384 507346 477062 520434 638887
0110010010100010100000100: 493466 477062 574833 574384 564808
0110010011100000100001000: 493466 477062 574833 638887 574384
0110010010100010100000100: 493466 477062 574833 638887 564808
0110010010100010100000100: 575011 475838 574522 589505 623396
0110010010100010100000100: 564808 513839 574833 520434 493466
0110010010100010100000100: 513839 520434 564808 589505 574833
0110010011100000100001000: 513839 520434 564808 507346 589505
0110010010100010100000100: 513839 520434 564808 507346 574833
0110010010100010100000100: 574833 493466 564808 477062 513839
