Vertex,0101101001011010,0110100110000100,0110100010010010,0100101001010010,0101101001001000,0101101101001100,0111100110001100,0111100010001000,0110100110010110,0111100010011010,0111101011001000,0100101101000100,0110101111000100,0110101011010010
507641,0.0,40.0,12.0,6.0,0.0,0.0,0.0,0.0,0.0,0.0,0.0,0.0,0.0,0.0
589275,0.0,44.0,22.0,11.0,4.0,0.0,0.0,0.0,0.0,0.0,0.0,0.0,0.0,0.0
536529,0.0,44.0,18.0,3.0,4.0,0.0,0.0,0.0,0.0,0.0,0.0,0.0,0.0,0.0
593347,0.0,76.0,46.0,19.0,16.0,0.0,0.0,24.0,0.0,0.0,0.0,4.0,0.0,0.0
514184,0.0,59.0,25.0,6.0,6.0,0.0,0.0,15.0,0.0,0.0,0.0,0.0,0.0,0.0
505705,0.0,132.0,62.0,18.0,16.0,0.0,0.0,50.0,0.0,0.0,0.0,2.0,0.0,0.0
501888,0.0,78.0,33.0,2.0,23.0,4.0,16.0,32.0,0.0,10.0,58.0,0.0,26.0,16.0
560514,40.0,250.0,141.0,36.0,68.0,4.0,16.0,175.0,140.0,10.0,58.0,12.0,26.0,16.0
649313,14.0,205.0,112.0,37.0,56.0,4.0,16.0,95.0,35.0,10.0,58.0,8.0,26.0,16.0
620773,14.0,175.0,89.0,27.0,50.0,2.0,5.0,85.0,35.0,2.0,14.0,10.0,7.0,5.0
472756,0.0,167.0,97.0,38.0,37.0,2.0,5.0,71.0,0.0,2.0,14.0,6.0,7.0,5.0
596836,16.0,170.0,76.0,9.0,30.0,0.0,2.0,125.0,70.0,2.0,10.0,4.0,4.0,2.0
577968,34.0,260.0,133.0,45.0,68.0,0.0,2.0,176.0,105.0,2.0,10.0,14.0,4.0,2.0
498467,16.0,151.0,78.0,19.0,42.0,0.0,2.0,99.0,70.0,2.0,10.0,4.0,4.0,2.0
597733,0.0,76.0,49.0,17.0,14.0,0.0,0.0,24.0,0.0,0.0,0.0,2.0,0.0,0.0
580453,0.0,195.0,114.0,42.0,53.0,0.0,0.0,86.0,0.0,0.0,0.0,8.0,0.0,0.0
635057,26.0,163.0,67.0,10.0,33.0,0.0,0.0,132.0,105.0,0.0,0.0,10.0,0.0,0.0
478674,0.0,63.0,39.0,13.0,10.0,0.0,0.0,15.0,0.0,0.0,0.0,0.0,0.0,0.0
525667,0.0,116.0,67.0,26.0,30.0,0.0,0.0,48.0,0.0,0.0,0.0,4.0,0.0,0.0
graph,40.0,616.0,320.0,96.0,140.0,4.0,16.0,313.0,140.0,10.0,58.0,22.0,26.0,16.0
