0110010011100000100001000: 474344 462278 620208 556426 577129
0110010011100000100001000: 474344 462278 620208 528030 577129
0110010011100000100001000: 474344 462278 620208 528030 556426
0110010011100000100001000: 474344 462278 620208 513558 577129
0110010011100000100001000: 474344 462278 620208 513558 556426
0110010011100000100001000: 474344 462278 620208 513558 528030
0110010011100000100001000: 474344 462278 620208 649391 577129
0110010011100000100001000: 474344 462278 620208 649391 556426
0110010011100000100001000: 474344 462278 620208 649391 528030
0110010011100000100001000: 474344 462278 620208 462318 577129
0110010011100000100001000: 474344 462278 620208 462318 556426
0110010011100000100001000: 474344 462278 620208 462318 528030
0110010011100000100001000: 474344 462278 620208 462318 513558
0110010011100000100001000: 474344 462278 620208 462318 649391
0111010101110001000001000: 474344 462278 468193 620208 577129
0111010101110001000001000: 474344 462278 468193 620208 556426
0111010101110001000001000: 474344 462278 468193 620208 513558
0111010101110001000001000: 474344 462278 468193 620208 649391
0111010101110001000001000: 474344 462278 468193 620208 462318
0110010011100000100001000: 474344 468193 620208 528030 600831
0110010011100000100001000: 474344 468193 620208 501829 528030
0110010011100100110001000: 474344 468193 620208 567239 600831
0110010011100100110001000: 474344 468193 620208 567239 528030
0110010011100100110001000: 474344 468193 620208 567239 501829
0111010101110001000001000: 474344 468193 462278 620208 600831
0111010101110001000001000: 474344 468193 462278 620208 501829
0111010101110001000101010: 474344 468193 462278 620208 567239
0110010010100010100000100: 474344 620208 462278 567239 577129
0110010010100010100000100: 474344 620208 462278 567239 556426
0110010010100010100000100: 474344 620208 462278 567239 528030
0110010010100010100000100: 474344 620208 462278 567239 513558
0110010010100010100000100: 474344 620208 462278 567239 649391
0110010010100010100100110: 474344 620208 462278 567239 462318
0110010011100100110001000: 620208 567239 474344 468193 517958
0110010011100100110001000: 620208 567239 474344 468193 462318
0110010010100010100000100: 620208 474344 567239 462278 517958
0110010011100000100001000: 468193 528030 600831 583340 581687
0110010011100100110001000: 468193 528030 501829 583340 581687
0110010011100000100001000: 468193 528030 567239 583340 581687
0110010011100000100001000: 468193 528030 474344 583340 581687
0111010101110001000001000: 468193 528030 462278 600831 581687
0111010101110001000001000: 468193 528030 462278 600831 583340
0111010101110001000001000: 468193 528030 462278 501829 581687
0111010101110001000101010: 468193 528030 462278 501829 583340
0111010101110001000001000: 468193 528030 462278 567239 581687
0111010101110001000001000: 468193 528030 462278 567239 583340
0110010010100010100000100: 468193 501829 528030 547479 581687
0110010010100010100000100: 468193 501829 528030 556426 581687
0110010011100000100001000: 468193 501829 528030 513558 547479
0110010011100000100001000: 468193 501829 528030 513558 556426
0110010010100010100000100: 468193 501829 528030 513558 581687
0110010011100000100001000: 468193 501829 528030 462318 547479
0110010011100000100001000: 468193 501829 528030 462318 556426
0110010011100000100001000: 468193 501829 528030 462318 513558
0110010010100010100100110: 468193 501829 528030 462318 581687
0110010011100100110001000: 468193 501829 528030 583340 547479
0110010011100100110001000: 468193 501829 528030 583340 556426
0110010011100100110001000: 468193 501829 528030 583340 513558
0110010011100100110001000: 468193 501829 528030 583340 462318
0110010011100000100001000: 468193 501829 462278 583340 547479
0110010011100100110001000: 468193 501829 462278 556426 583340
0110010011100100110001000: 468193 501829 462278 513558 547479
0110010011100100110001000: 468193 501829 462278 513558 583340
0110010011100100110001000: 468193 501829 462278 462318 547479
0110010011100100110001000: 468193 501829 462278 462318 583340
0110010011100000100001000: 468193 501829 567239 513558 547479
0110010011100000100001000: 468193 501829 567239 513558 556426
0110010011100000100001000: 468193 501829 567239 583340 547479
0110010011100000100001000: 468193 501829 567239 583340 556426
0110010011100000100001000: 468193 501829 567239 583340 513558
0110010011100100110001000: 468193 501829 567239 462318 547479
0110010011100100110001000: 468193 501829 567239 462318 556426
0110010011100100110001000: 468193 501829 567239 462318 513558
0110010011100100110001000: 468193 501829 567239 462318 583340
0110010011100000100001000: 468193 501829 474344 513558 547479
0110010011100000100001000: 468193 501829 474344 513558 556426
0110010011100000100001000: 468193 501829 474344 583340 547479
0110010011100000100001000: 468193 501829 474344 583340 556426
0110010011100000100001000: 468193 501829 474344 583340 513558
0110010011100000100001000: 468193 501829 474344 462318 547479
0110010011100000100001000: 468193 501829 474344 462318 556426
0110010011100000100001000: 468193 501829 474344 462318 513558
0110010011100000100001000: 468193 501829 474344 462318 583340
0111010101110001000001000: 468193 501829 600831 528030 547479
0111010101110001000001000: 468193 501829 600831 528030 556426
0111010101110001000001000: 468193 501829 600831 528030 513558
0111010101110001000001000: 468193 501829 600831 528030 462318
0111010100110001000100010: 468193 501829 600831 528030 581687
0111010101110001000101010: 468193 501829 600831 528030 583340
0111010101110001000001000: 468193 501829 600831 462278 547479
0111010101110001000001000: 468193 501829 600831 462278 583340
0111010100110001000100010: 468193 501829 600831 462278 577129
0111010100110001000100010: 468193 501829 600831 462278 649391
0111010101110001000101010: 468193 501829 600831 462278 556426
0111010101110001000101010: 468193 501829 600831 462278 513558
0111010101110001000101010: 468193 501829 600831 462278 462318
0111110100110001000010000: 468193 501829 600831 567239 528030
0111110100110001000010000: 468193 501829 600831 567239 462278
0111010101110001000001000: 468193 501829 600831 567239 547479
0111010101110001000001000: 468193 501829 600831 567239 556426
0111010101110001000001000: 468193 501829 600831 567239 513558
0111010101110001000001000: 468193 501829 600831 567239 583340
0111010100110001000100010: 468193 501829 600831 567239 517958
0111010100110001000100010: 468193 501829 600831 567239 620208
0111010101110001000101010: 468193 501829 600831 567239 462318
0111110100110001000010000: 468193 501829 600831 474344 528030
0111110100110001000010000: 468193 501829 600831 474344 567239
0111010101110001000001000: 468193 501829 600831 474344 547479
0111010101110001000001000: 468193 501829 600831 474344 556426
0111010101110001000001000: 468193 501829 600831 474344 513558
0111010101110001000001000: 468193 501829 600831 474344 583340
0111010101110001000001000: 468193 501829 600831 474344 462318
0111010100110001000100010: 468193 501829 600831 474344 620208
0110010011100000100001000: 468193 462278 600831 556426 577129
0110010011100000100001000: 468193 462278 600831 513558 577129
0110010011100000100001000: 468193 462278 600831 513558 556426
0110010011100000100001000: 468193 462278 600831 649391 577129
0110010011100000100001000: 468193 462278 600831 649391 556426
0110010011100000100001000: 468193 462278 600831 462318 577129
0110010011100000100001000: 468193 462278 600831 462318 556426
0110010011100000100001000: 468193 462278 600831 462318 513558
0110010011100000100001000: 468193 462278 600831 462318 649391
0110010010100010100000100: 468193 462278 501829 577129 547479
0110010010100010100000100: 468193 462278 501829 577129 583340
0110010011100000100001000: 468193 462278 501829 649391 577129
0110010010100010100000100: 468193 462278 501829 649391 547479
0110010010100010100100110: 468193 462278 501829 649391 583340
0110010011100100110001000: 468193 462278 501829 556426 577129
0110010011100100110001000: 468193 462278 501829 556426 649391
0110010011100100110001000: 468193 462278 501829 513558 577129
0110010011100110110001100: 468193 462278 501829 513558 556426
0110010011100100110001000: 468193 462278 501829 462318 577129
0110010011100100110001000: 468193 462278 501829 462318 649391
0110010011100110110001100: 468193 462278 501829 462318 556426
0110010011100110110001100: 468193 462278 501829 462318 513558
0110010011100000100001000: 468193 462278 567239 556426 577129
0110010011100000100001000: 468193 462278 567239 513558 577129
0110010011100000100001000: 468193 462278 567239 513558 556426
0110010011100000100001000: 468193 462278 567239 649391 577129
0110010011100000100001000: 468193 462278 567239 649391 556426
0110010011100100110001000: 468193 462278 567239 462318 577129
0110010011100100110001000: 468193 462278 567239 462318 556426
0110010011100100110001000: 468193 462278 567239 462318 513558
0110010011100100110001000: 468193 462278 567239 462318 649391
0111010101110001000001000: 468193 462278 528030 600831 577129
0111010101110001000001000: 468193 462278 528030 600831 556426
0111010101110001000001000: 468193 462278 528030 600831 513558
0111010101110001000001000: 468193 462278 528030 600831 649391
0111010101110001000001000: 468193 462278 528030 600831 462318
0111010101110001000001000: 468193 462278 528030 501829 577129
0111010101110001000001000: 468193 462278 528030 501829 649391
0111010100110001000100010: 468193 462278 528030 501829 547479
0111110100110001000110010: 468193 462278 528030 501829 600831
0111010101110001000101010: 468193 462278 528030 501829 556426
0111010101110001000101010: 468193 462278 528030 501829 513558
0111010101110001000101010: 468193 462278 528030 501829 462318
0111110100110001000010000: 468193 462278 528030 567239 600831
0111110100110001000010000: 468193 462278 528030 567239 501829
0111010101110001000001000: 468193 462278 528030 567239 577129
0111010101110001000001000: 468193 462278 528030 567239 556426
0111010101110001000001000: 468193 462278 528030 567239 513558
0111010101110001000001000: 468193 462278 528030 567239 649391
0111010100110001000100010: 468193 462278 528030 567239 517958
0111010100110001000100010: 468193 462278 528030 567239 620208
0111010101110001000101010: 468193 462278 528030 567239 462318
0111010110110011100000100: 468193 462278 528030 474344 581687
0111010110110011100000100: 468193 462278 528030 474344 583340
0111010101110001000001000: 468193 462278 474344 600831 577129
0111010101110001000001000: 468193 462278 474344 600831 556426
0111010101110001000001000: 468193 462278 474344 600831 513558
0111010101110001000001000: 468193 462278 474344 600831 649391
0111010101110001000001000: 468193 462278 474344 600831 462318
0111010101110001000001000: 468193 462278 474344 501829 577129
0111010101110001000001000: 468193 462278 474344 501829 649391
0111010101110001000101010: 468193 462278 474344 501829 556426
0111010101110001000101010: 468193 462278 474344 501829 513558
0111010101110001000101010: 468193 462278 474344 501829 462318
0111010101110001000001000: 468193 462278 474344 567239 577129
0111010101110001000001000: 468193 462278 474344 567239 556426
0111010101110001000001000: 468193 462278 474344 567239 513558
0111010101110001000001000: 468193 462278 474344 567239 649391
0111010101110001000101010: 468193 462278 474344 567239 462318
0111110110110001100010000: 468193 462278 474344 528030 600831
0111110110110001100010000: 468193 462278 474344 528030 501829
0111110110110001100010000: 468193 462278 474344 528030 567239
0111010110110011100000100: 468193 462278 474344 528030 620208
0110010011100000100001000: 468193 567239 600831 620208 517958
0110010011100000100001000: 468193 567239 600831 620208 462318
0110010010100010100000100: 468193 567239 528030 517958 581687
0110010010100010100000100: 468193 567239 528030 517958 583340
0110010010100010100000100: 468193 567239 528030 462318 583340
0110010010100010100100110: 468193 567239 528030 462318 581687
0110010011100000100001000: 468193 567239 528030 620208 517958
0110010011100000100001000: 468193 567239 528030 620208 462318
0110010010100010100000100: 468193 567239 528030 620208 581687
0110010010100010100000100: 468193 567239 528030 620208 583340
0110010010100010100000100: 468193 567239 501829 517958 547479
0110010010100010100000100: 468193 567239 501829 517958 556426
0110010010100010100000100: 468193 567239 501829 517958 513558
0110010010100010100000100: 468193 567239 501829 517958 583340
0110010011100000100001000: 468193 567239 501829 620208 517958
0110010010100010100000100: 468193 567239 501829 620208 547479
0110010010100010100000100: 468193 567239 501829 620208 556426
0110010010100010100000100: 468193 567239 501829 620208 513558
0110010010100010100000100: 468193 567239 501829 620208 583340
0110010011100100110001000: 468193 567239 501829 462318 620208
0110010010100010100000100: 468193 567239 462278 517958 577129
0110010010100010100000100: 468193 567239 462278 517958 556426
0110010010100010100000100: 468193 567239 462278 517958 513558
0110010010100010100000100: 468193 567239 462278 517958 649391
0110010011100000100001000: 468193 567239 462278 620208 517958
0110010010100010100000100: 468193 567239 462278 620208 577129
0110010010100010100000100: 468193 567239 462278 620208 556426
0110010010100010100000100: 468193 567239 462278 620208 513558
0110010010100010100000100: 468193 567239 462278 620208 649391
0110010011100100110001000: 468193 567239 462278 462318 620208
0110010010100010100000100: 468193 474344 528030 620208 581687
0110010010100010100000100: 468193 474344 528030 620208 583340
0110010010100010100000100: 468193 474344 501829 620208 547479
0110010010100010100000100: 468193 474344 501829 620208 556426
0110010010100010100000100: 468193 474344 501829 620208 513558
0110010010100010100000100: 468193 474344 501829 620208 583340
0110010010100010100000100: 468193 474344 501829 620208 462318
0111110000100001000010000: 468193 474344 567239 528030 600831
0111110000100001000010000: 468193 474344 567239 501829 528030
0111010100110001000100010: 468193 474344 462278 501829 547479
0111010100110001000100010: 468193 474344 462278 501829 583340
0111110100110001000110010: 468193 474344 462278 501829 600831
0111110100110001000010000: 468193 474344 462278 567239 600831
0111110100110001000010000: 468193 474344 462278 567239 501829
0111010100110001000100010: 468193 474344 462278 567239 517958
0110010011100000100001000: 462318 501829 517958 547479 600831
0110010011100000100001000: 462318 501829 517958 556426 600831
0110010011100000100001000: 462318 501829 517958 513558 600831
0110010011100000100001000: 462318 501829 517958 513558 547479
0110010011100000100001000: 462318 501829 517958 513558 556426
0110010011100000100001000: 462318 501829 517958 583340 600831
0110010011100000100001000: 462318 501829 517958 583340 547479
0110010011100000100001000: 462318 501829 517958 583340 556426
0110010011100000100001000: 462318 501829 517958 583340 513558
0110010011100000100001000: 462318 501829 517958 468193 547479
0110010011100000100001000: 462318 501829 517958 468193 556426
0110010011100000100001000: 462318 501829 517958 468193 513558
0110010011100000100001000: 462318 501829 517958 468193 583340
0110010011100000100001000: 462318 501829 581687 547479 600831
0110010011100000100001000: 462318 501829 581687 556426 600831
0110010011100000100001000: 462318 501829 581687 513558 600831
0110010011100000100001000: 462318 501829 581687 513558 547479
0110010011100000100001000: 462318 501829 581687 513558 556426
0110010011100000100001000: 462318 501829 581687 583340 600831
0110010011100000100001000: 462318 501829 581687 583340 547479
0110010011100000100001000: 462318 501829 581687 583340 556426
0110010011100000100001000: 462318 501829 581687 583340 513558
0110010011100000100001000: 462318 501829 581687 468193 547479
0110010011100000100001000: 462318 501829 581687 468193 556426
0110010011100000100001000: 462318 501829 581687 468193 513558
0110010011100000100001000: 462318 501829 581687 468193 583340
0110010011100000100001000: 462318 501829 462278 547479 600831
0110010011100000100001000: 462318 501829 462278 583340 600831
0110010011100000100001000: 462318 501829 462278 583340 547479
0110010011100100110001000: 462318 501829 462278 556426 600831
0110010011100100110001000: 462318 501829 462278 556426 583340
0110010011100100110001000: 462318 501829 462278 513558 600831
0110010011100100110001000: 462318 501829 462278 513558 547479
0110010011100100110001000: 462318 501829 462278 513558 583340
0110010011100000100001000: 462318 501829 567239 547479 600831
0110010011100000100001000: 462318 501829 567239 556426 600831
0110010011100000100001000: 462318 501829 567239 513558 600831
0110010011100000100001000: 462318 501829 567239 513558 547479
0110010011100000100001000: 462318 501829 567239 513558 556426
0110010011100000100001000: 462318 501829 567239 583340 600831
0110010011100000100001000: 462318 501829 567239 583340 547479
0110010011100000100001000: 462318 501829 567239 583340 556426
0110010011100000100001000: 462318 501829 567239 583340 513558
0110010010100010100000100: 462318 581687 501829 528030 600831
0110010010100010100000100: 462318 581687 501829 528030 547479
0110010010100010100000100: 462318 581687 501829 528030 556426
0110010010100010100000100: 462318 581687 501829 528030 513558
0110010010100010100100110: 462318 581687 501829 528030 583340
0110010011100000100001000: 462318 462278 517958 556426 577129
0110010011100000100001000: 462318 462278 517958 528030 577129
0110010011100000100001000: 462318 462278 517958 528030 556426
0110010011100000100001000: 462318 462278 517958 513558 577129
0110010011100000100001000: 462318 462278 517958 513558 556426
0110010011100000100001000: 462318 462278 517958 513558 528030
0110010011100000100001000: 462318 462278 517958 649391 577129
0110010011100000100001000: 462318 462278 517958 649391 556426
0110010011100000100001000: 462318 462278 517958 649391 528030
0110010011100000100001000: 462318 462278 517958 468193 577129
0110010011100000100001000: 462318 462278 517958 468193 556426
0110010011100000100001000: 462318 462278 517958 468193 513558
0110010011100000100001000: 462318 462278 517958 468193 649391
0110010011100000100001000: 462318 462278 517958 474344 577129
0110010011100000100001000: 462318 462278 517958 474344 556426
0110010011100000100001000: 462318 462278 517958 474344 528030
0110010011100000100001000: 462318 462278 517958 474344 513558
0110010011100000100001000: 462318 462278 517958 474344 649391
0110010010100010100000100: 462318 462278 501829 577129 600831
0110010010100010100000100: 462318 462278 501829 577129 547479
0110010010100010100000100: 462318 462278 501829 577129 583340
0110010011100000100001000: 462318 462278 501829 528030 577129
0110010010100010100000100: 462318 462278 501829 528030 600831
0110010010100010100000100: 462318 462278 501829 528030 547479
0110010010100010100100110: 462318 462278 501829 528030 583340
0110010011100000100001000: 462318 462278 501829 649391 577129
0110010011100000100001000: 462318 462278 501829 649391 528030
0110010010100010100000100: 462318 462278 501829 649391 600831
0110010010100010100000100: 462318 462278 501829 649391 547479
0110010010100010100100110: 462318 462278 501829 649391 583340
0110010011100000100001000: 462318 462278 501829 474344 577129
0110010011100000100001000: 462318 462278 501829 474344 528030
0110010011100000100001000: 462318 462278 501829 474344 649391
0110010010100010100000100: 462318 462278 501829 474344 600831
0110010010100010100000100: 462318 462278 501829 474344 547479
0110010010100010100000100: 462318 462278 501829 474344 583340
0110010011100100110001000: 462318 462278 501829 556426 577129
0110010011100100110001000: 462318 462278 501829 556426 528030
0110010011100100110001000: 462318 462278 501829 556426 649391
0110010011100100110001000: 462318 462278 501829 556426 474344
0110010011100100110001000: 462318 462278 501829 513558 577129
0110010011100100110001000: 462318 462278 501829 513558 528030
0110010011100100110001000: 462318 462278 501829 513558 474344
0110010011100110110001100: 462318 462278 501829 513558 556426
0111110000100001000010000: 462318 462278 581687 501829 517958
0110010011100000100001000: 462318 462278 581687 556426 577129
0110010011100000100001000: 462318 462278 581687 513558 577129
0110010011100000100001000: 462318 462278 581687 513558 556426
0110010011100000100001000: 462318 462278 581687 649391 577129
0110010011100000100001000: 462318 462278 581687 649391 556426
0110010011100000100001000: 462318 462278 581687 468193 577129
0110010011100000100001000: 462318 462278 581687 468193 556426
0110010011100000100001000: 462318 462278 581687 468193 513558
0110010011100000100001000: 462318 462278 581687 468193 649391
0110010011100000100001000: 462318 462278 581687 474344 577129
0110010011100000100001000: 462318 462278 581687 474344 556426
0110010011100000100001000: 462318 462278 581687 474344 513558
0110010011100000100001000: 462318 462278 581687 474344 649391
0110010011100100110001000: 462318 462278 581687 528030 577129
0110010011100100110001000: 462318 462278 581687 528030 556426
0110010011100100110001000: 462318 462278 581687 528030 513558
0110010011100100110001000: 462318 462278 581687 528030 649391
0110010011100100110001000: 462318 462278 581687 528030 474344
0110010011100000100001000: 462318 462278 567239 556426 577129
0110010011100000100001000: 462318 462278 567239 528030 577129
0110010011100000100001000: 462318 462278 567239 528030 556426
0110010011100000100001000: 462318 462278 567239 513558 577129
0110010011100000100001000: 462318 462278 567239 513558 556426
0110010011100000100001000: 462318 462278 567239 513558 528030
0110010011100000100001000: 462318 462278 567239 649391 577129
0110010011100000100001000: 462318 462278 567239 649391 556426
0110010011100000100001000: 462318 462278 567239 649391 528030
0110010011100000100001000: 462318 462278 567239 474344 577129
0110010011100000100001000: 462318 462278 567239 474344 556426
0110010011100000100001000: 462318 462278 567239 474344 528030
0110010011100000100001000: 462318 462278 567239 474344 513558
0110010011100000100001000: 462318 462278 567239 474344 649391
0110010010100010100000100: 462318 567239 501829 620208 600831
0110010010100010100000100: 462318 567239 501829 620208 547479
0110010010100010100000100: 462318 567239 501829 620208 556426
0110010010100010100000100: 462318 567239 501829 620208 513558
0110010010100010100000100: 462318 567239 501829 620208 583340
0110010011100000100001000: 462318 567239 581687 620208 468193
0110010010100010100000100: 462318 567239 581687 620208 528030
0111110000100001000010000: 462318 567239 462278 581687 501829
0110010010100010100000100: 462318 567239 462278 620208 577129
0110010010100010100000100: 462318 567239 462278 620208 556426
0110010010100010100000100: 462318 567239 462278 620208 528030
0110010010100010100000100: 462318 567239 462278 620208 513558
0110010010100010100000100: 462318 567239 462278 620208 649391
0111010101110001000001000: 462318 567239 517958 501829 620208
0111010100110001000100010: 462318 567239 517958 501829 600831
0111010100110001000100010: 462318 567239 517958 501829 547479
0111010100110001000100010: 462318 567239 517958 501829 556426
0111010100110001000100010: 462318 567239 517958 501829 513558
0111010100110001000100010: 462318 567239 517958 501829 583340
0111010101110001000101010: 462318 567239 517958 501829 468193
0111110100110001000010000: 462318 567239 517958 581687 501829
0111010101110001000001000: 462318 567239 517958 581687 468193
0111010101110001000001000: 462318 567239 517958 581687 620208
0111010100110001000100010: 462318 567239 517958 581687 528030
0111110100110001000010000: 462318 567239 517958 462278 501829
0111110100110001000010000: 462318 567239 517958 462278 581687
0111010101110001000001000: 462318 567239 517958 462278 620208
0111010100110001000100010: 462318 567239 517958 462278 577129
0111010100110001000100010: 462318 567239 517958 462278 556426
0111010100110001000100010: 462318 567239 517958 462278 528030
0111010100110001000100010: 462318 567239 517958 462278 513558
0111010100110001000100010: 462318 567239 517958 462278 649391
0111010100110001000100010: 462318 567239 517958 462278 474344
0111010101110001000101010: 462318 567239 517958 462278 468193
0110010011100100110001000: 567239 462318 468193 501829 581687
0110010011100100110001000: 567239 462318 468193 462278 581687
0110010011100000100001000: 567239 462318 620208 581687 501829
0110010011100000100001000: 567239 462318 620208 462278 501829
0110010011100000100001000: 567239 462318 620208 462278 581687
0111010100110001000100010: 567239 462318 517958 468193 600831
0111010100110001000100010: 567239 462318 517958 468193 528030
0111010100110001000100010: 567239 462318 517958 468193 474344
0111110100110001000010000: 567239 462318 517958 620208 468193
0111010100110001000100010: 567239 462318 517958 620208 474344
0110010011100000100001000: 567239 468193 517958 528030 600831
0110010011100000100001000: 567239 468193 517958 501829 528030
0110010011100000100001000: 567239 468193 517958 462278 600831
0110010011100000100001000: 567239 468193 517958 462278 501829
0110010011100000100001000: 567239 468193 517958 474344 600831
0110010011100000100001000: 567239 468193 517958 474344 528030
0110010011100000100001000: 567239 468193 517958 474344 501829
0110010010100010100000100: 567239 468193 462318 600831 581687
0110010011100000100001000: 567239 468193 462318 528030 600831
0110010011100000100001000: 567239 468193 462318 474344 600831
0110010011100000100001000: 567239 468193 462318 474344 528030
0110010010100010100000100: 567239 468193 462318 474344 581687
0110010011100100110001000: 567239 468193 462318 501829 528030
0110010011100100110001000: 567239 468193 462318 501829 474344
0110010011100100110001000: 567239 468193 462318 462278 600831
0110010011100110110001100: 567239 468193 462318 462278 501829
0110010011100000100001000: 567239 468193 620208 528030 600831
0110010011100000100001000: 567239 468193 620208 501829 528030
0110010011100000100001000: 567239 468193 620208 462278 600831
0110010011100000100001000: 567239 468193 620208 462278 501829
0110010010100010100000100: 567239 620208 462318 474344 501829
0110010010100010100000100: 567239 620208 462318 474344 581687
0111010101110001000101010: 649391 513558 462278 583340 501829
0110010011100000100001000: 649391 462278 583340 556426 577129
0110010011100000100001000: 649391 462278 583340 462318 577129
0110010011100000100001000: 649391 462278 583340 462318 556426
0110010011100000100001000: 649391 462278 583340 468193 577129
0110010011100000100001000: 649391 462278 583340 468193 556426
0110010011100000100001000: 649391 462278 583340 468193 462318
0110010011100000100001000: 649391 462278 583340 474344 577129
0110010011100000100001000: 649391 462278 583340 474344 556426
0110010011100000100001000: 649391 462278 583340 474344 462318
0110010011100100110001000: 649391 462278 583340 528030 577129
0110010011100100110001000: 649391 462278 583340 528030 556426
0110010011100100110001000: 649391 462278 583340 528030 462318
0110010011100100110001000: 649391 462278 583340 528030 474344
0111010101110001000001000: 649391 462278 513558 583340 577129
0111010101110001000001000: 649391 462278 513558 583340 556426
0111010101110001000001000: 649391 462278 513558 583340 462318
0111010101110001000001000: 649391 462278 513558 583340 468193
0111010101110001000001000: 649391 462278 513558 583340 474344
0111010100110001000100010: 649391 462278 513558 583340 522328
0111010101110001000101010: 649391 462278 513558 583340 528030
0110010011100000100001000: 649391 583340 513558 528030 522328
0110010011100100110001000: 649391 583340 513558 501829 522328
0110010011100100110001000: 649391 583340 513558 501829 528030
0110010010100010100000100: 649391 583340 462278 522328 556426
0110010010100010100000100: 649391 583340 462278 522328 462318
0110010010100010100000100: 649391 583340 462278 522328 468193
0110010010100010100000100: 649391 583340 462278 522328 474344
0110010010100010100100110: 649391 583340 462278 522328 577129
0110010011100000100001000: 649391 583340 462278 501829 522328
0110010010100010100000100: 649391 583340 462278 501829 577129
0110010010100010100000100: 649391 583340 462278 501829 474344
0110010010100010100100110: 649391 583340 462278 501829 556426
0110010011100100110001000: 649391 583340 462278 528030 522328
0110010011100100110001000: 649391 583340 462278 528030 501829
0110010010100010100000100: 583340 528030 522328 581687 577129
0110010011100000100001000: 583340 528030 522328 462278 581687
0110010010100010100100110: 583340 528030 522328 462278 577129
0110010011100000100001000: 583340 528030 522328 468193 581687
0110010010100010100000100: 583340 528030 522328 468193 577129
0110010011100000100001000: 583340 528030 501829 462278 581687
0110010011100000100001000: 583340 528030 649391 468193 581687
0110010011100100110001000: 583340 528030 649391 462278 581687
0110010010100010100000100: 583340 501829 522328 600831 577129
0110010011100000100001000: 583340 501829 522328 547479 600831
0110010010100010100000100: 583340 501829 522328 547479 577129
0110010011100000100001000: 583340 501829 522328 556426 600831
0110010010100010100000100: 583340 501829 522328 556426 577129
0110010011100000100001000: 583340 501829 522328 513558 600831
0110010011100000100001000: 583340 501829 522328 513558 547479
0110010011100000100001000: 583340 501829 522328 513558 556426
0110010010100010100000100: 583340 501829 522328 513558 577129
0110010011100000100001000: 583340 501829 522328 462318 600831
0110010011100000100001000: 583340 501829 522328 462318 547479
0110010011100000100001000: 583340 501829 522328 462318 556426
0110010011100000100001000: 583340 501829 522328 462318 513558
0110010010100010100000100: 583340 501829 522328 462318 577129
0110010011100000100001000: 583340 501829 522328 468193 547479
0110010011100000100001000: 583340 501829 522328 468193 556426
0110010011100000100001000: 583340 501829 522328 468193 513558
0110010011100000100001000: 583340 501829 522328 468193 462318
0110010010100010100000100: 583340 501829 522328 468193 577129
0110010010100010100000100: 583340 501829 528030 600831 581687
0110010010100010100000100: 583340 501829 528030 600831 462278
0110010011100000100001000: 583340 501829 528030 547479 600831
0110010010100010100000100: 583340 501829 528030 547479 581687
0110010010100010100000100: 583340 501829 528030 547479 462278
0110010011100000100001000: 583340 501829 528030 556426 600831
0110010010100010100000100: 583340 501829 528030 556426 581687
0110010010100010100100110: 583340 501829 528030 556426 462278
0110010011100000100001000: 583340 501829 528030 513558 600831
0110010011100000100001000: 583340 501829 528030 513558 547479
0110010011100000100001000: 583340 501829 528030 513558 556426
0110010010100010100000100: 583340 501829 528030 513558 581687
0110010010100010100100110: 583340 501829 528030 513558 462278
0110010011100000100001000: 583340 501829 528030 462318 600831
0110010011100000100001000: 583340 501829 528030 462318 547479
0110010011100000100001000: 583340 501829 528030 462318 556426
0110010011100000100001000: 583340 501829 528030 462318 513558
0110010011100000100001000: 583340 501829 649391 547479 600831
0110010011100000100001000: 583340 501829 649391 556426 600831
0110010011100000100001000: 583340 501829 649391 462318 600831
0110010011100000100001000: 583340 501829 649391 462318 547479
0110010011100000100001000: 583340 501829 649391 462318 556426
0110010011100000100001000: 583340 501829 649391 468193 547479
0110010011100000100001000: 583340 501829 649391 468193 556426
0110010011100000100001000: 583340 501829 649391 468193 462318
0110010011100100110001000: 583340 501829 649391 513558 600831
0110010011100100110001000: 583340 501829 649391 513558 547479
0110010011100100110001000: 583340 501829 649391 513558 556426
0110010011100100110001000: 583340 501829 649391 513558 462318
0110010011100100110001000: 583340 501829 649391 513558 468193
0110010010100010100000100: 583340 649391 522328 513558 577129
0110010010100010100000100: 583340 649391 528030 513558 581687
0110010010100010100000100: 583340 649391 528030 513558 468193
0111110000100001000010000: 583340 649391 501829 528030 522328
0110010010100010100000100: 583340 649391 501829 462278 600831
0110010010100010100000100: 583340 649391 501829 462278 547479
0110010010100010100000100: 462278 556426 577129 547479 522328
0110010010100010100000100: 462278 556426 577129 501829 522328
0110010010100010100000100: 462278 528030 577129 581687 522328
0110010011100000100001000: 462278 528030 577129 583340 581687
0110010010100010100000100: 462278 528030 556426 581687 547479
0110010010100010100000100: 462278 528030 556426 581687 501829
0110010011100000100001000: 462278 528030 556426 583340 581687
0110010010100010100000100: 462278 528030 556426 583340 547479
0110010011100000100001000: 462278 528030 513558 583340 581687
0110010011100100110001000: 462278 528030 462318 581687 583340
0110010011100000100001000: 462278 528030 474344 583340 581687
0111010101110001000001000: 462278 528030 468193 577129 581687
0111010101110001000001000: 462278 528030 468193 577129 583340
0111010101110001000001000: 462278 528030 468193 556426 581687
0111010101110001000001000: 462278 528030 468193 556426 583340
0111010101110001000001000: 462278 528030 468193 513558 581687
0111010101110001000001000: 462278 528030 468193 513558 583340
0111010101110001000001000: 462278 528030 468193 649391 581687
0111010101110001000101010: 462278 528030 468193 649391 583340
0111010101110001000001000: 462278 528030 468193 462318 583340
0111010101110001000101010: 462278 528030 468193 462318 581687
0110010010100010100000100: 462278 513558 577129 501829 522328
0111110000100001000010000: 462278 513558 528030 556426 577129
0110010010100010100000100: 462278 513558 528030 501829 581687
0111010101110001000001000: 462278 513558 649391 577129 501829
0111010101110001000101010: 462278 513558 649391 556426 501829
0111010101110001000001000: 462278 513558 649391 528030 501829
0111010101110001000101010: 462278 513558 649391 462318 501829
0111010101110001000101010: 462278 513558 649391 468193 501829
0111010101110001000001000: 462278 513558 649391 474344 501829
0110010010100010100000100: 462278 649391 556426 583340 547479
0111110000100001000010000: 462278 649391 528030 556426 577129
0111010100110001000100010: 462278 649391 513558 577129 522328
0111110100110001000010000: 462278 649391 513558 556426 577129
0111010100110001000100010: 462278 649391 513558 556426 547479
0111110100110001000010000: 462278 649391 513558 528030 577129
0111110100110001000010000: 462278 649391 513558 528030 556426
0111010100110001000100010: 462278 649391 513558 528030 581687
0111110100110001000010000: 462278 649391 513558 462318 577129
0111110100110001000010000: 462278 649391 513558 462318 556426
0111110100110001000010000: 462278 649391 513558 462318 528030
0111010100110001000100010: 462278 649391 513558 462318 517958
0111010100110001000100010: 462278 649391 513558 462318 581687
0111010100110001000100010: 462278 649391 513558 462318 567239
0111110100110001000010000: 462278 649391 513558 468193 577129
0111110100110001000010000: 462278 649391 513558 468193 556426
0111110100110001000010000: 462278 649391 513558 468193 462318
0111010100110001000100010: 462278 649391 513558 468193 600831
0111010100110001000100010: 462278 649391 513558 468193 567239
0111110100110001000010000: 462278 649391 513558 474344 577129
0111110100110001000010000: 462278 649391 513558 474344 556426
0111110100110001000010000: 462278 649391 513558 474344 528030
0111110100110001000010000: 462278 649391 513558 474344 462318
0111010100110001000100010: 462278 649391 513558 474344 620208
0110010010100010100000100: 462278 462318 577129 517958 522328
0110010011100000100001000: 462278 462318 577129 501829 517958
0110010010100010100000100: 462278 462318 577129 501829 522328
0110010011100000100001000: 462278 462318 577129 581687 517958
0110010011100000100001000: 462278 462318 577129 581687 501829
0110010010100010100000100: 462278 462318 577129 581687 522328
0110010011100000100001000: 462278 462318 577129 567239 501829
0110010011100000100001000: 462278 462318 577129 567239 581687
0110010010100010100000100: 462278 462318 577129 567239 522328
0110010010100010100000100: 462278 462318 556426 517958 547479
0110010011100000100001000: 462278 462318 556426 581687 517958
0110010010100010100000100: 462278 462318 556426 581687 547479
0110010011100000100001000: 462278 462318 556426 567239 581687
0110010010100010100000100: 462278 462318 556426 567239 547479
0110010011100100110001000: 462278 462318 556426 501829 517958
0110010011100100110001000: 462278 462318 556426 501829 581687
0110010011100100110001000: 462278 462318 556426 501829 567239
0111110000100001000010000: 462278 462318 528030 556426 577129
0110010010100010100000100: 462278 462318 528030 517958 583340
0110010011100000100001000: 462278 462318 528030 501829 517958
0110010011100000100001000: 462278 462318 528030 567239 501829
0110010010100010100000100: 462278 462318 528030 567239 583340
0110010011100100110001000: 462278 462318 528030 581687 517958
0110010011100100110001000: 462278 462318 528030 581687 501829
0110010011100100110001000: 462278 462318 528030 581687 567239
0111110000100001000010000: 462278 462318 513558 556426 577129
0111110000100001000010000: 462278 462318 513558 528030 577129
0111110000100001000010000: 462278 462318 513558 528030 556426
0110010011100000100001000: 462278 462318 513558 581687 517958
0110010011100000100001000: 462278 462318 513558 567239 581687
0110010011100100110001000: 462278 462318 513558 501829 517958
0110010011100100110001000: 462278 462318 513558 501829 581687
0110010011100100110001000: 462278 462318 513558 501829 567239
0111110000100001000010000: 462278 462318 649391 556426 577129
0111110000100001000010000: 462278 462318 649391 528030 577129
0111110000100001000010000: 462278 462318 649391 528030 556426
0110010010100010100000100: 462278 462318 649391 517958 583340
0110010011100000100001000: 462278 462318 649391 501829 517958
0110010011100000100001000: 462278 462318 649391 581687 517958
0110010011100000100001000: 462278 462318 649391 581687 501829
0110010010100010100000100: 462278 462318 649391 581687 583340
0110010011100000100001000: 462278 462318 649391 567239 501829
0110010011100000100001000: 462278 462318 649391 567239 581687
0110010010100010100000100: 462278 462318 649391 567239 583340
0110010011100000100001000: 462278 462318 468193 581687 517958
0110010011100100110001000: 462278 462318 468193 501829 517958
0110010011100100110001000: 462278 462318 468193 501829 581687
0110010011100000100001000: 462278 462318 474344 501829 517958
0110010011100000100001000: 462278 462318 474344 581687 517958
0110010011100000100001000: 462278 462318 474344 581687 501829
0110010011100000100001000: 462278 462318 474344 567239 501829
0110010011100000100001000: 462278 462318 474344 567239 581687
0110010010100010100000100: 462278 468193 577129 600831 522328
0110010010100010100000100: 462278 468193 577129 501829 522328
0110010011100000100001000: 462278 468193 577129 567239 600831
0110010011100000100001000: 462278 468193 577129 567239 501829
0110010010100010100000100: 462278 468193 577129 567239 522328
0110010010100010100000100: 462278 468193 556426 600831 547479
0110010011100000100001000: 462278 468193 556426 567239 600831
0110010010100010100000100: 462278 468193 556426 567239 547479
0110010011100100110001000: 462278 468193 556426 501829 567239
0111110000100001000010000: 462278 468193 513558 556426 577129
0110010011100000100001000: 462278 468193 513558 567239 600831
0110010011100100110001000: 462278 468193 513558 501829 567239
0111110000100001000010000: 462278 468193 649391 556426 577129
0110010010100010100000100: 462278 468193 649391 600831 583340
0110010011100000100001000: 462278 468193 649391 567239 600831
0110010011100000100001000: 462278 468193 649391 567239 501829
0110010010100010100000100: 462278 468193 649391 567239 583340
0111110000100001000010000: 462278 468193 462318 556426 577129
0111110000100001000010000: 462278 468193 462318 513558 577129
0111110000100001000010000: 462278 468193 462318 513558 556426
0111110000100001000010000: 462278 468193 462318 649391 577129
0111110000100001000010000: 462278 468193 462318 649391 556426
0110010010100010100000100: 462278 468193 462318 600831 517958
0110010010100010100000100: 462278 468193 462318 600831 581687
0111010100110001000100010: 462278 468193 528030 577129 522328
0111110100110001000010000: 462278 468193 528030 556426 577129
0111010100110001000100010: 462278 468193 528030 556426 547479
0111110100110001000010000: 462278 468193 528030 513558 577129
0111110100110001000010000: 462278 468193 528030 513558 556426
0111110100110001000010000: 462278 468193 528030 649391 577129
0111110100110001000010000: 462278 468193 528030 649391 556426
0111110100110001000110010: 462278 468193 528030 649391 513558
0111110100110001000010000: 462278 468193 528030 462318 577129
0111110100110001000010000: 462278 468193 528030 462318 556426
0111110100110001000010000: 462278 468193 528030 462318 513558
0111110100110001000010000: 462278 468193 528030 462318 649391
0111010100110001000100010: 462278 468193 528030 462318 517958
0111110110110001100010000: 462278 468193 474344 528030 577129
0111110110110001100010000: 462278 468193 474344 528030 556426
0111110110110001100010000: 462278 468193 474344 528030 513558
0111110110110001100010000: 462278 468193 474344 528030 649391
0111110110110001100010000: 462278 468193 474344 528030 462318
0110010010100010100000100: 462278 474344 577129 620208 522328
0110010010100010100000100: 462278 474344 556426 620208 547479
0110010010100010100000100: 462278 474344 556426 620208 501829
0111110000100001000010000: 462278 474344 528030 556426 577129
0110010010100010100000100: 462278 474344 528030 620208 581687
0110010010100010100000100: 462278 474344 528030 620208 583340
0111110000100001000010000: 462278 474344 513558 556426 577129
0111110000100001000010000: 462278 474344 513558 528030 577129
0111110000100001000010000: 462278 474344 513558 528030 556426
0110010010100010100000100: 462278 474344 513558 620208 501829
0111110000100001000010000: 462278 474344 649391 556426 577129
0111110000100001000010000: 462278 474344 649391 528030 577129
0111110000100001000010000: 462278 474344 649391 528030 556426
0110010010100010100000100: 462278 474344 649391 620208 583340
0111110000100001000010000: 462278 474344 462318 556426 577129
0111110000100001000010000: 462278 474344 462318 528030 577129
0111110000100001000010000: 462278 474344 462318 528030 556426
0111110000100001000010000: 462278 474344 462318 513558 577129
0111110000100001000010000: 462278 474344 462318 513558 556426
0111110000100001000010000: 462278 474344 462318 513558 528030
0111110000100001000010000: 462278 474344 462318 649391 577129
0111110000100001000010000: 462278 474344 462318 649391 556426
0111110000100001000010000: 462278 474344 462318 649391 528030
0110010010100010100000100: 462278 474344 462318 620208 517958
0110010010100010100000100: 462278 474344 462318 620208 501829
0110010010100010100000100: 462278 474344 462318 620208 581687
0111010100110001000100010: 462278 474344 468193 577129 522328
0111110100110001000010000: 462278 474344 468193 556426 577129
0111010100110001000100010: 462278 474344 468193 556426 547479
0111110100110001000010000: 462278 474344 468193 513558 577129
0111110100110001000010000: 462278 474344 468193 513558 556426
0111110100110001000010000: 462278 474344 468193 649391 577129
0111110100110001000010000: 462278 474344 468193 649391 556426
0111010100110001000100010: 462278 474344 468193 649391 583340
0111110100110001000110010: 462278 474344 468193 649391 513558
0111110100110001000010000: 462278 474344 468193 462318 577129
0111110100110001000010000: 462278 474344 468193 462318 556426
0111110100110001000010000: 462278 474344 468193 462318 513558
0111110100110001000010000: 462278 474344 468193 462318 649391
0111010100110001000100010: 462278 474344 468193 462318 517958
0111010100110001000100010: 462278 474344 468193 462318 581687
0110010011100000100001000: 513558 501829 462278 547479 600831
0110010011100000100001000: 513558 501829 462278 583340 600831
0110010011100000100001000: 513558 501829 462278 583340 547479
0110010011100100110001000: 513558 501829 462278 556426 600831
0110010011100100110001000: 513558 501829 462278 556426 583340
0110010011100000100001000: 513558 501829 649391 547479 600831
0110010011100000100001000: 513558 501829 649391 556426 600831
0110010011100000100001000: 513558 501829 649391 462318 600831
0110010011100000100001000: 513558 501829 649391 462318 547479
0110010011100000100001000: 513558 501829 649391 462318 556426
0110010011100000100001000: 513558 501829 649391 468193 547479
0110010011100000100001000: 513558 501829 649391 468193 556426
0110010011100000100001000: 513558 501829 649391 468193 462318
0110010010100010100000100: 513558 462278 501829 577129 600831
0110010010100010100000100: 513558 462278 501829 577129 547479
0110010010100010100000100: 513558 462278 501829 577129 583340
0110010011100000100001000: 513558 462278 501829 528030 577129
0110010010100010100000100: 513558 462278 501829 528030 600831
0110010010100010100000100: 513558 462278 501829 528030 547479
0110010011100000100001000: 513558 462278 501829 474344 577129
0110010011100000100001000: 513558 462278 501829 474344 528030
0110010010100010100000100: 513558 462278 501829 474344 600831
0110010010100010100000100: 513558 462278 501829 474344 547479
0110010010100010100000100: 513558 462278 501829 474344 583340
0110010011100100110001000: 513558 462278 501829 556426 577129
0110010011100100110001000: 513558 462278 501829 556426 528030
0110010011100100110001000: 513558 462278 501829 556426 474344
0111010100110001000100010: 513558 649391 462278 501829 600831
0111010100110001000100010: 513558 649391 462278 501829 547479
0110010011100000100001000: 581687 528030 462318 468193 583340
0110010010100010100000100: 581687 462318 528030 517958 583340
0110010010100010100000100: 581687 462318 528030 517958 468193
0110010011100000100001000: 581687 462318 528030 501829 517958
0110010011100000100001000: 581687 462318 528030 567239 501829
0110010010100010100000100: 581687 462318 528030 567239 583340
0111010101110001000001000: 501829 556426 547479 600831 462278
0111110100110001000010000: 501829 556426 547479 513558 600831
0111010100110001000100010: 501829 556426 547479 513558 649391
0111010101110001000101010: 501829 556426 547479 513558 462278
0111110100110001000010000: 501829 556426 547479 583340 600831
0111110100110001000010000: 501829 556426 547479 583340 513558
0111010101110001000001000: 501829 556426 547479 583340 462278
0111010100110001000100010: 501829 556426 547479 583340 522328
0111010100110001000100010: 501829 556426 547479 583340 528030
0111010100110001000100010: 501829 556426 547479 583340 649391
0111110100110001000010000: 501829 556426 547479 462318 600831
0111110100110001000010000: 501829 556426 547479 462318 513558
0111110100110001000010000: 501829 556426 547479 462318 583340
0111010100110001000100010: 501829 556426 547479 462318 517958
0111010100110001000100010: 501829 556426 547479 462318 581687
0111010100110001000100010: 501829 556426 547479 462318 567239
0111010101110001000101010: 501829 556426 547479 462318 462278
0111110100110001000010000: 501829 556426 547479 468193 513558
0111110100110001000010000: 501829 556426 547479 468193 583340
0111110100110001000010000: 501829 556426 547479 468193 462318
0111010100110001000100010: 501829 556426 547479 468193 528030
0111010100110001000100010: 501829 556426 547479 468193 567239
0111010100110001000100010: 501829 556426 547479 468193 474344
0111010101110001000101010: 501829 556426 547479 468193 462278
0110010011100000100001000: 501829 583340 600831 528030 522328
0110010011100000100001000: 501829 583340 600831 649391 522328
0110010011100000100001000: 501829 583340 600831 649391 528030
0110010011100000100001000: 501829 583340 547479 528030 522328
0110010011100000100001000: 501829 583340 547479 649391 522328
0110010011100000100001000: 501829 583340 547479 649391 528030
0110010010100010100000100: 501829 583340 556426 522328 462278
0110010011100000100001000: 501829 583340 556426 528030 522328
0110010011100000100001000: 501829 583340 556426 649391 522328
0110010011100000100001000: 501829 583340 556426 649391 528030
0111110000100001000010000: 501829 583340 513558 547479 600831
0111110000100001000010000: 501829 583340 513558 556426 600831
0110010010100010100000100: 501829 583340 513558 522328 462278
0110010011100000100001000: 501829 583340 513558 528030 522328
0110010011100000100001000: 501829 583340 462318 528030 522328
0110010011100000100001000: 501829 583340 462318 649391 522328
0110010011100000100001000: 501829 583340 462318 649391 528030
0110010011100000100001000: 501829 583340 468193 649391 522328
0110010011100100110001000: 501829 583340 468193 528030 522328
0110010011100100110001000: 501829 583340 468193 528030 649391
0110010011100000100001000: 501829 462318 600831 581687 517958
0110010011100000100001000: 501829 462318 600831 462278 517958
0110010011100000100001000: 501829 462318 600831 462278 581687
0110010011100000100001000: 501829 462318 600831 567239 581687
0110010011100000100001000: 501829 462318 600831 567239 462278
0110010011100000100001000: 501829 462318 547479 581687 517958
0110010011100000100001000: 501829 462318 547479 462278 517958
0110010011100000100001000: 501829 462318 547479 462278 581687
0110010011100000100001000: 501829 462318 547479 567239 581687
0110010011100000100001000: 501829 462318 547479 567239 462278
0110010011100000100001000: 501829 462318 556426 581687 517958
0110010011100000100001000: 501829 462318 556426 567239 581687
0111110000100001000010000: 501829 462318 513558 547479 600831
0111110000100001000010000: 501829 462318 513558 556426 600831
0110010010100010100000100: 501829 462318 513558 517958 649391
0110010011100000100001000: 501829 462318 513558 581687 517958
0110010010100010100000100: 501829 462318 513558 581687 649391
0110010011100000100001000: 501829 462318 513558 567239 581687
0110010010100010100000100: 501829 462318 513558 567239 649391
0111110000100001000010000: 501829 462318 583340 547479 600831
0111110000100001000010000: 501829 462318 583340 556426 600831
0111110000100001000010000: 501829 462318 583340 513558 600831
0111110000100001000010000: 501829 462318 583340 513558 547479
0111110000100001000010000: 501829 462318 583340 513558 556426
0110010010100010100000100: 501829 462318 583340 517958 522328
0110010010100010100000100: 501829 462318 583340 517958 528030
0110010010100010100000100: 501829 462318 583340 517958 649391
0110010011100000100001000: 501829 462318 583340 581687 517958
0110010010100010100000100: 501829 462318 583340 581687 522328
0110010010100010100000100: 501829 462318 583340 581687 649391
0110010011100000100001000: 501829 462318 583340 462278 517958
0110010011100000100001000: 501829 462318 583340 462278 581687
0110010010100010100000100: 501829 462318 583340 462278 522328
0110010011100000100001000: 501829 462318 583340 567239 581687
0110010011100000100001000: 501829 462318 583340 567239 462278
0110010010100010100000100: 501829 462318 583340 567239 522328
0110010010100010100000100: 501829 462318 583340 567239 528030
0110010010100010100000100: 501829 462318 583340 567239 649391
0110010011100000100001000: 501829 462318 468193 581687 517958
0110010011100000100001000: 501829 468193 547479 567239 528030
0110010011100000100001000: 501829 468193 547479 567239 462278
0110010011100000100001000: 501829 468193 547479 474344 528030
0110010011100000100001000: 501829 468193 547479 474344 567239
0110010011100000100001000: 501829 468193 556426 567239 528030
0110010011100000100001000: 501829 468193 556426 474344 528030
0110010011100000100001000: 501829 468193 556426 474344 567239
0110010010100010100000100: 501829 468193 513558 528030 649391
0110010011100000100001000: 501829 468193 513558 567239 528030
0110010010100010100000100: 501829 468193 513558 567239 649391
0110010011100000100001000: 501829 468193 513558 474344 528030
0110010011100000100001000: 501829 468193 513558 474344 567239
0110010010100010100000100: 501829 468193 513558 474344 649391
0111110000100001000010000: 501829 468193 583340 513558 547479
0111110000100001000010000: 501829 468193 583340 513558 556426
0110010010100010100000100: 501829 468193 583340 462278 522328
0110010011100000100001000: 501829 468193 583340 567239 462278
0110010010100010100000100: 501829 468193 583340 567239 522328
0110010010100010100000100: 501829 468193 583340 567239 649391
0110010011100000100001000: 501829 468193 583340 474344 567239
0110010010100010100000100: 501829 468193 583340 474344 522328
0110010010100010100000100: 501829 468193 583340 474344 649391
0110010011100100110001000: 501829 468193 583340 528030 567239
0110010011100100110001000: 501829 468193 583340 528030 474344
0111110000100001000010000: 501829 468193 462318 513558 547479
0111110000100001000010000: 501829 468193 462318 513558 556426
0111110000100001000010000: 501829 468193 462318 583340 547479
0111110000100001000010000: 501829 468193 462318 583340 556426
0111110000100001000010000: 501829 468193 462318 583340 513558
0110010010100010100000100: 501829 468193 462318 528030 517958
0110010011100000100001000: 501829 468193 462318 474344 528030
0110010010100010100000100: 501829 468193 462318 474344 517958
0110010010100010100000100: 501829 468193 462318 474344 581687
0111110100110001000110010: 501829 468193 600831 556426 547479
0111110100110001000010000: 501829 468193 600831 513558 547479
0111110100110001000010000: 501829 468193 600831 513558 556426
0111010100110001000100010: 501829 468193 600831 513558 649391
0111110100110001000010000: 501829 468193 600831 583340 547479
0111110100110001000010000: 501829 468193 600831 583340 556426
0111110100110001000010000: 501829 468193 600831 583340 513558
0111010100110001000100010: 501829 468193 600831 583340 522328
0111010100110001000100010: 501829 468193 600831 583340 649391
0111110100110001000010000: 501829 468193 600831 462318 547479
0111110100110001000010000: 501829 468193 600831 462318 556426
0111110100110001000010000: 501829 468193 600831 462318 513558
0111110100110001000010000: 501829 468193 600831 462318 583340
0111010100110001000100010: 501829 468193 600831 462318 517958
0111010100110001000100010: 501829 468193 600831 462318 581687
0110010011100000100001000: 528030 462278 581687 556426 577129
0110010011100000100001000: 528030 462278 581687 513558 577129
0110010011100000100001000: 528030 462278 581687 513558 556426
0110010011100000100001000: 528030 462278 581687 649391 577129
0110010011100000100001000: 528030 462278 581687 649391 556426
0110010011100000100001000: 528030 462278 581687 474344 577129
0110010011100000100001000: 528030 462278 581687 474344 556426
0110010011100000100001000: 528030 462278 581687 474344 513558
0110010011100000100001000: 528030 462278 581687 474344 649391
0110010011100000100001000: 528030 462278 583340 556426 577129
0110010011100000100001000: 528030 462278 583340 513558 577129
0110010011100000100001000: 528030 462278 583340 513558 556426
0110010011100000100001000: 528030 462278 583340 462318 577129
0110010011100000100001000: 528030 462278 583340 462318 556426
0110010011100000100001000: 528030 462278 583340 462318 513558
0110010011100000100001000: 528030 462278 583340 474344 577129
0110010011100000100001000: 528030 462278 583340 474344 556426
0110010011100000100001000: 528030 462278 583340 474344 513558
0110010011100000100001000: 528030 462278 583340 474344 462318
0110010010100010100000100: 528030 583340 581687 522328 462318
0110010011100000100001000: 528030 583340 581687 501829 522328
0110010011100000100001000: 528030 583340 581687 649391 522328
0110010011100000100001000: 528030 583340 581687 649391 501829
0110010010100010100000100: 528030 583340 581687 649391 462318
0110010010100010100000100: 528030 583340 462278 522328 556426
0110010010100010100000100: 528030 583340 462278 522328 513558
0110010010100010100000100: 528030 583340 462278 522328 462318
0110010010100010100000100: 528030 583340 462278 522328 474344
0110010011100000100001000: 528030 583340 462278 501829 522328
0110010010100010100000100: 528030 583340 462278 501829 577129
0110010010100010100000100: 528030 583340 462278 501829 474344
0110010011100000100001000: 528030 583340 468193 649391 522328
0110010010100010100000100: 528030 468193 581687 600831 462318
0110010011100000100001000: 528030 468193 581687 567239 600831
0110010011100000100001000: 528030 468193 581687 567239 501829
0110010011100000100001000: 528030 468193 581687 474344 600831
0110010011100000100001000: 528030 468193 581687 474344 501829
0110010011100000100001000: 528030 468193 581687 474344 567239
0110010010100010100000100: 528030 468193 581687 474344 462318
0110010010100010100000100: 528030 468193 583340 600831 522328
0110010010100010100000100: 528030 468193 583340 600831 649391
0110010011100000100001000: 528030 468193 583340 567239 600831
0110010010100010100000100: 528030 468193 583340 567239 522328
0110010010100010100000100: 528030 468193 583340 567239 649391
0110010011100000100001000: 528030 468193 583340 474344 600831
0110010011100000100001000: 528030 468193 583340 474344 567239
0110010010100010100000100: 528030 468193 583340 474344 522328
0110010010100010100000100: 528030 468193 583340 474344 649391
0111110100110001000010000: 528030 468193 462278 583340 581687
0111010100110001000100010: 528030 468193 462278 583340 522328
0110010011100000100001000: 556426 501829 462278 583340 600831
0111010100110001000100010: 556426 501829 547479 462278 577129
0111010100110001000100010: 556426 501829 547479 462278 528030
0111010100110001000100010: 556426 501829 547479 462278 649391
0111010100110001000100010: 556426 501829 547479 462278 474344
0110010011100000100001000: 556426 462278 547479 528030 577129
0110010011100000100001000: 556426 462278 547479 513558 577129
0110010011100000100001000: 556426 462278 547479 513558 528030
0110010011100000100001000: 556426 462278 547479 649391 577129
0110010011100000100001000: 556426 462278 547479 649391 528030
0110010011100000100001000: 556426 462278 547479 462318 577129
0110010011100000100001000: 556426 462278 547479 462318 528030
0110010011100000100001000: 556426 462278 547479 462318 513558
0110010011100000100001000: 556426 462278 547479 462318 649391
0110010011100000100001000: 556426 462278 547479 468193 577129
0110010011100000100001000: 556426 462278 547479 468193 513558
0110010011100000100001000: 556426 462278 547479 468193 649391
0110010011100000100001000: 556426 462278 547479 468193 462318
0110010011100000100001000: 556426 462278 547479 474344 577129
0110010011100000100001000: 556426 462278 547479 474344 528030
0110010011100000100001000: 556426 462278 547479 474344 513558
0110010011100000100001000: 556426 462278 547479 474344 649391
0110010011100000100001000: 556426 462278 547479 474344 462318
0110010010100010100000100: 556426 462278 501829 577129 600831
0110010010100010100000100: 556426 462278 501829 577129 583340
0110010011100000100001000: 556426 462278 501829 528030 577129
0110010010100010100000100: 556426 462278 501829 528030 600831
0110010011100000100001000: 556426 462278 501829 649391 577129
0110010011100000100001000: 556426 462278 501829 649391 528030
0110010010100010100000100: 556426 462278 501829 649391 600831
0110010011100000100001000: 556426 462278 501829 474344 577129
0110010011100000100001000: 556426 462278 501829 474344 528030
0110010011100000100001000: 556426 462278 501829 474344 649391
0110010010100010100000100: 556426 462278 501829 474344 600831
0110010010100010100000100: 556426 462278 501829 474344 583340
0110010010100010100000100: 577129 462278 522328 556426 583340
0110010011100000100001000: 577129 462278 522328 528030 556426
0110010011100000100001000: 577129 462278 522328 513558 556426
0110010011100000100001000: 577129 462278 522328 513558 528030
0110010010100010100000100: 577129 462278 522328 513558 583340
0110010011100000100001000: 577129 462278 522328 649391 556426
0110010011100000100001000: 577129 462278 522328 649391 528030
0110010011100000100001000: 577129 462278 522328 462318 556426
0110010011100000100001000: 577129 462278 522328 462318 528030
0110010011100000100001000: 577129 462278 522328 462318 513558
0110010011100000100001000: 577129 462278 522328 462318 649391
0110010010100010100000100: 577129 462278 522328 462318 583340
0110010011100000100001000: 577129 462278 522328 468193 556426
0110010011100000100001000: 577129 462278 522328 468193 513558
0110010011100000100001000: 577129 462278 522328 468193 649391
0110010011100000100001000: 577129 462278 522328 468193 462318
0110010010100010100000100: 577129 462278 522328 468193 583340
0110010011100000100001000: 577129 462278 522328 474344 556426
0110010011100000100001000: 577129 462278 522328 474344 528030
0110010011100000100001000: 577129 462278 522328 474344 513558
0110010011100000100001000: 577129 462278 522328 474344 649391
0110010011100000100001000: 577129 462278 522328 474344 462318
0110010010100010100000100: 577129 462278 522328 474344 583340
0110010011100000100001000: 522328 583340 577129 501829 528030
0110010010100010100000100: 522328 583340 577129 501829 462278
0110010011100000100001000: 522328 583340 577129 649391 528030
0110010011100000100001000: 522328 583340 577129 649391 501829
