0110010010100010100000100: 516490 530065 609356 588366 501997
0110010011100000100001000: 516490 530065 609356 468068 588366
0110010010100010100000100: 516490 530065 609356 468068 501997
0110010011100000100001000: 530065 588366 468068 474884 564617
0110010011100100110001000: 530065 588366 468068 578154 564617
0110010011100100110001000: 530065 588366 468068 578154 474884
0110010011100100110001000: 530065 588366 468068 578154 462691
0110010011100000100001000: 530065 588366 516490 474884 564617
0110010011100000100001000: 530065 588366 516490 578154 564617
0110010011100000100001000: 530065 588366 516490 578154 474884
0110010011100000100001000: 530065 588366 516490 462691 578154
0110010010100010100000100: 530065 516490 588366 609356 564617
0110010010100010100000100: 530065 516490 588366 609356 474884
0110010010100010100000100: 530065 516490 588366 609356 578154
0110010010100010100000100: 530065 516490 588366 609356 462691
0110010010100010100000100: 530065 516490 468068 609356 578154
0110010010100010100000100: 462691 564617 601936 491574 634130
0111010101110001000001000: 462691 564617 588366 601936 491574
0111010101110001000101010: 462691 564617 588366 475701 491574
0111010101110001000001000: 462691 564617 588366 616269 491574
0111010110110011100000100: 462691 564617 588366 501997 578154
0111010110110011100000100: 462691 564617 588366 501997 530065
0111010101110001000001000: 462691 564617 501997 601936 491574
0111010101110001000001000: 462691 564617 501997 474884 491574
0111010101110001000001000: 462691 564617 501997 616269 491574
0111110110110001100010000: 462691 564617 501997 588366 601936
0111110110110001100010000: 462691 564617 501997 588366 616269
0111010110110011100000100: 462691 564617 501997 588366 634130
0111010110110011100000100: 462691 564617 501997 588366 609356
0111010110110011100000100: 462691 564617 501997 588366 606361
0110010010100010100000100: 462691 588366 601936 578154 634130
0110010011100000100001000: 462691 588366 601936 530065 578154
0110010010100010100000100: 462691 588366 601936 530065 634130
0110010011100000100001000: 462691 588366 501997 530065 578154
0110010011100000100001000: 462691 588366 475701 530065 578154
0110010011100000100001000: 462691 588366 616269 530065 578154
0111010101110001000001000: 462691 588366 564617 601936 578154
0111010101110001000001000: 462691 588366 564617 601936 530065
0111010100110001000100010: 462691 588366 564617 601936 634130
0111110100110001000010000: 462691 588366 564617 475701 601936
0111010101110001000001000: 462691 588366 564617 475701 578154
0111010101110001000001000: 462691 588366 564617 475701 530065
0111010100110001000100010: 462691 588366 564617 475701 606361
0111110100110001000010000: 462691 588366 564617 616269 601936
0111110100110001000010000: 462691 588366 564617 616269 475701
0111010101110001000001000: 462691 588366 564617 616269 578154
0111010101110001000001000: 462691 588366 564617 616269 530065
0111110110110011100010100: 462691 588366 564617 474884 501997
0111010110110011100000100: 462691 588366 564617 474884 491574
0111010101110001000001000: 462691 588366 474884 601936 578154
0111010101110001000001000: 462691 588366 474884 601936 530065
0111010101110001000001000: 462691 588366 474884 501997 578154
0111010101110001000001000: 462691 588366 474884 501997 530065
0111010101110001000001000: 462691 588366 474884 475701 578154
0111010101110001000001000: 462691 588366 474884 475701 530065
0111110110110001100010000: 462691 588366 474884 564617 601936
0111110110110001100010000: 462691 588366 474884 564617 475701
0111010110110011100000100: 462691 588366 474884 564617 606361
0110010011100000100001000: 462691 501997 601936 606361 609356
0110010011100100110001000: 462691 501997 601936 634130 609356
0110010011100100110001000: 462691 501997 601936 634130 606361
0110010010100010100000100: 462691 501997 588366 634130 578154
0110010010100010100000100: 462691 501997 588366 634130 530065
0110010011100000100001000: 462691 501997 588366 609356 634130
0110010010100010100000100: 462691 501997 588366 609356 578154
0110010010100010100000100: 462691 501997 588366 609356 530065
0110010011100000100001000: 462691 501997 588366 606361 634130
0110010011100000100001000: 462691 501997 588366 606361 609356
0110010010100010100000100: 462691 501997 588366 606361 578154
0110010010100010100000100: 462691 501997 588366 606361 530065
0110010011100000100001000: 462691 501997 474884 609356 634130
0110010011100100110001000: 462691 501997 474884 606361 634130
0110010011100100110001000: 462691 501997 474884 606361 609356
0110010011100000100001000: 462691 501997 616269 609356 634130
0110010011100000100001000: 462691 501997 616269 606361 634130
0110010011100000100001000: 462691 501997 616269 606361 609356
0111010101110001000001000: 462691 501997 564617 601936 609356
0111010101110001000001000: 462691 501997 564617 601936 606361
0111010101110001000101010: 462691 501997 564617 601936 634130
0111110100110001000010000: 462691 501997 564617 474884 601936
0111010101110001000001000: 462691 501997 564617 474884 634130
0111010101110001000001000: 462691 501997 564617 474884 609356
0111010101110001000101010: 462691 501997 564617 474884 606361
0111110100110001000010000: 462691 501997 564617 616269 601936
0111010101110001000001000: 462691 501997 564617 616269 634130
0111010101110001000001000: 462691 501997 564617 616269 609356
0111010101110001000001000: 462691 501997 564617 616269 606361
0111110110110011100010100: 462691 501997 564617 475701 588366
0111010101110001000001000: 462691 501997 475701 601936 609356
0111010101110001000101010: 462691 501997 475701 601936 634130
0111010101110001000001000: 462691 501997 475701 588366 634130
0111010101110001000001000: 462691 501997 475701 588366 609356
0111010101110001000001000: 462691 501997 475701 474884 634130
0111010101110001000001000: 462691 501997 475701 474884 609356
0111010101110001000001000: 462691 501997 475701 616269 634130
0111010101110001000001000: 462691 501997 475701 616269 609356
0111110110110001100010000: 462691 501997 475701 564617 601936
0111110110110001100010000: 462691 501997 475701 564617 474884
0111110110110001100010000: 462691 501997 475701 564617 616269
0111010110110011100100110: 462691 501997 475701 564617 491574
0110010010100010100000100: 462691 475701 601936 491574 634130
0110010011100000100001000: 462691 475701 601936 606361 491574
0110010010100010100000100: 462691 475701 601936 606361 634130
0110010011100100110001000: 462691 475701 564617 491574 606361
0110010010100010100000100: 462691 475701 588366 491574 578154
0110010010100010100000100: 462691 475701 588366 491574 530065
0110010011100000100001000: 462691 475701 588366 606361 491574
0110010010100010100000100: 462691 475701 588366 606361 578154
0110010010100010100000100: 462691 475701 588366 606361 530065
0110010011100100110001000: 462691 475701 474884 606361 491574
0110010011100000100001000: 462691 475701 616269 606361 491574
0111010101110001000001000: 462691 475701 501997 601936 491574
0111110100110001000010000: 462691 475701 501997 588366 601936
0111010101110001000001000: 462691 475701 501997 588366 491574
0111010100110001000100010: 462691 475701 501997 588366 578154
0111010100110001000100010: 462691 475701 501997 588366 530065
0111110100110001000010000: 462691 475701 501997 474884 601936
0111010101110001000001000: 462691 475701 501997 474884 491574
0111110100110001000010000: 462691 475701 501997 616269 601936
0111110100110001000010000: 462691 475701 501997 616269 588366
0111010101110001000001000: 462691 475701 501997 616269 491574
0110010010100010100000100: 462691 474884 601936 606361 634130
0110010010100010100000100: 462691 474884 564617 606361 491574
0111110000100001000010000: 462691 474884 475701 564617 601936
0111010101110001000001000: 462691 474884 588366 601936 606361
0111010100110001000100010: 462691 474884 588366 601936 634130
0111110100110001000010000: 462691 474884 588366 501997 601936
0111010100110001000100010: 462691 474884 588366 501997 634130
0111010100110001000100010: 462691 474884 588366 501997 609356
0111010101110001000101010: 462691 474884 588366 501997 606361
0111110100110001000010000: 462691 474884 588366 475701 601936
0111010100110001000100010: 462691 474884 588366 475701 491574
0111110100110001000110010: 462691 474884 588366 475701 501997
0111010101110001000101010: 462691 474884 588366 475701 606361
0111110110110011100010100: 462691 474884 588366 616269 564617
0111010110110011100000100: 462691 474884 588366 616269 578154
0111010110110011100000100: 462691 474884 588366 616269 530065
0111010101110001000001000: 462691 474884 616269 601936 606361
0111010101110001000001000: 462691 474884 616269 564617 606361
0111010101110001000101010: 462691 474884 616269 501997 606361
0111010101110001000101010: 462691 474884 616269 475701 606361
0111110110110001100010000: 462691 474884 616269 588366 601936
0111110110110001100010000: 462691 474884 616269 588366 501997
0111110110110001100010000: 462691 474884 616269 588366 475701
0111110000100001000010000: 462691 616269 501997 588366 601936
0111110000100001000010000: 462691 616269 475701 564617 601936
0111110000100001000010000: 462691 616269 475701 588366 601936
0111010100110001000100010: 462691 616269 474884 601936 634130
0111110100110001000010000: 462691 616269 474884 564617 601936
0111010100110001000100010: 462691 616269 474884 564617 491574
0111110100110001000010000: 462691 616269 474884 501997 601936
0111010100110001000100010: 462691 616269 474884 501997 634130
0111010100110001000100010: 462691 616269 474884 501997 609356
0111110100110001000110010: 462691 616269 474884 501997 564617
0111110100110001000010000: 462691 616269 474884 475701 601936
0111110100110001000010000: 462691 616269 474884 475701 564617
0111010100110001000100010: 462691 616269 474884 475701 491574
0111110100110001000110010: 462691 616269 474884 475701 501997
0110010011100100110001000: 468068 530065 578154 588366 516490
0110010011100000100001000: 578154 588366 468068 474884 564617
0110010011100000100001000: 474884 588366 606361 578154 564617
0110010011100000100001000: 474884 588366 606361 530065 564617
0110010011100000100001000: 474884 588366 606361 530065 578154
0110010011100000100001000: 474884 588366 616269 578154 564617
0110010011100000100001000: 474884 588366 616269 530065 564617
0110010011100000100001000: 474884 588366 616269 530065 578154
0111010101110001000001000: 474884 588366 462691 606361 578154
0111010101110001000001000: 474884 588366 462691 606361 530065
0110010010100010100000100: 474884 606361 588366 501997 578154
0110010010100010100000100: 474884 606361 588366 501997 530065
0110010010100010100100110: 474884 606361 588366 501997 564617
0110010010100010100000100: 474884 606361 588366 475701 564617
0110010010100010100000100: 474884 606361 588366 475701 578154
0110010010100010100000100: 474884 606361 588366 475701 530065
0110010011100000100001000: 474884 462691 606361 564617 601936
0110010011100100110001000: 474884 462691 606361 501997 601936
0110010011100100110001000: 474884 462691 606361 475701 601936
0110010011100100110001000: 474884 462691 606361 475701 564617
0111110110110001100010000: 474884 462691 616269 588366 606361
0110010011100000100001000: 606361 501997 474884 564617 634130
0110010011100000100001000: 606361 501997 474884 609356 634130
0110010011100000100001000: 606361 501997 474884 609356 564617
0111010101110001000001000: 606361 501997 475701 474884 634130
0111010101110001000001000: 606361 501997 475701 474884 564617
0111010101110001000001000: 606361 501997 475701 474884 609356
0111010101110001000001000: 606361 475701 501997 474884 491574
0111010100110001000100010: 606361 475701 501997 474884 588366
0111010100110001000100010: 606361 475701 501997 474884 616269
0110010010100010100000100: 606361 474884 501997 588366 634130
0110010010100010100000100: 606361 474884 501997 588366 609356
0110010011100000100001000: 606361 474884 501997 616269 588366
0110010010100010100000100: 606361 474884 501997 616269 634130
0110010010100010100000100: 606361 474884 501997 616269 564617
0110010010100010100000100: 606361 474884 501997 616269 609356
0110010010100010100000100: 606361 474884 475701 588366 491574
0110010011100000100001000: 606361 474884 475701 616269 588366
0110010010100010100000100: 606361 474884 475701 616269 491574
0110010011100000100001000: 475701 501997 491574 609356 634130
0110010011100100110001000: 475701 501997 491574 564617 634130
0110010011100100110001000: 475701 501997 491574 564617 609356
0111010101110001000001000: 475701 501997 606361 491574 634130
0111010101110001000001000: 475701 501997 606361 491574 609356
0111010101110001000101010: 475701 501997 606361 491574 564617
0111010101110001000001000: 475701 501997 462691 491574 634130
0111010101110001000001000: 475701 501997 462691 491574 609356
0111110110110001100010000: 475701 501997 462691 606361 491574
0111010110110011100000100: 475701 501997 462691 606361 601936
0111010110110011100000100: 475701 501997 462691 606361 588366
0111010110110011100000100: 475701 501997 462691 606361 616269
0111010110110011100100110: 475701 501997 462691 606361 474884
0110010010100010100000100: 475701 606361 491574 474884 564617
0110010011100000100001000: 475701 462691 491574 588366 601936
0110010011100000100001000: 475701 462691 491574 474884 601936
0110010011100000100001000: 475701 462691 491574 616269 601936
0110010011100000100001000: 475701 462691 491574 616269 588366
0110010011100100110001000: 475701 462691 491574 564617 601936
0110010011100100110001000: 475701 462691 491574 564617 474884
0110010011100100110001000: 475701 462691 491574 564617 616269
0110010011100000100001000: 475701 462691 606361 564617 601936
0110010011100000100001000: 475701 462691 606361 588366 601936
0110010011100000100001000: 475701 462691 606361 616269 601936
0110010011100000100001000: 475701 462691 606361 616269 564617
0110010011100000100001000: 475701 462691 606361 616269 588366
0110010010100010100000100: 501997 564617 634130 491574 601936
0110010011100000100001000: 501997 564617 634130 588366 491574
0110010010100010100000100: 501997 564617 634130 588366 601936
0110010011100000100001000: 501997 564617 609356 588366 491574
0110010011100100110001000: 501997 564617 475701 491574 588366
0110010011100000100001000: 501997 564617 606361 588366 491574
0111010101110001000001000: 501997 564617 462691 634130 491574
0111010101110001000001000: 501997 564617 462691 609356 491574
0111010101110001000001000: 501997 564617 462691 606361 491574
0110010010100010100000100: 501997 609356 634130 516490 601936
0110010010100010100000100: 501997 609356 564617 516490 491574
0110010010100010100000100: 501997 609356 564617 516490 588366
0110010010100010100000100: 501997 475701 634130 491574 601936
0111110000100001000010000: 501997 475701 609356 564617 634130
0110010010100010100000100: 501997 475701 609356 491574 516490
0111110110110001100010000: 501997 475701 462691 606361 634130
0111110110110001100010000: 501997 475701 462691 606361 609356
0110010010100010100000100: 501997 606361 634130 474884 601936
0110010010100010100000100: 501997 606361 564617 474884 491574
0111110000100001000010000: 501997 606361 609356 564617 634130
0110010010100010100000100: 501997 606361 609356 474884 516490
0111010100110001000100010: 501997 606361 475701 634130 601936
0111110100110001000010000: 501997 606361 475701 564617 634130
0111010100110001000100010: 501997 606361 475701 564617 588366
0111110100110001000010000: 501997 606361 475701 609356 634130
0111110100110001000010000: 501997 606361 475701 609356 564617
0111010100110001000100010: 501997 606361 475701 609356 516490
0110010011100000100001000: 501997 462691 634130 616269 588366
0110010011100100110001000: 501997 462691 634130 601936 588366
0110010011100100110001000: 501997 462691 634130 601936 474884
0110010011100100110001000: 501997 462691 634130 601936 616269
0110010010100010100000100: 501997 462691 609356 601936 516490
0110010011100000100001000: 501997 462691 609356 588366 601936
0110010010100010100000100: 501997 462691 609356 588366 516490
0110010011100000100001000: 501997 462691 609356 474884 601936
0110010010100010100000100: 501997 462691 609356 474884 516490
0110010011100000100001000: 501997 462691 609356 616269 601936
0110010011100000100001000: 501997 462691 609356 616269 588366
0110010010100010100000100: 501997 462691 609356 616269 516490
0111110000100001000010000: 501997 462691 606361 609356 634130
0110010011100000100001000: 501997 462691 606361 588366 601936
0110010011100000100001000: 501997 462691 606361 616269 601936
0110010011100000100001000: 501997 462691 606361 616269 588366
0111110100110001000010000: 501997 462691 564617 609356 634130
0111010100110001000100010: 501997 462691 564617 609356 516490
0111110100110001000010000: 501997 462691 564617 606361 634130
0111110100110001000010000: 501997 462691 564617 606361 609356
0111110100110001000010000: 501997 462691 475701 609356 634130
0111010100110001000100010: 501997 462691 475701 609356 516490
0111110110110001100010000: 501997 462691 475701 564617 634130
0111110110110001100010000: 501997 462691 475701 564617 609356
0111110110110011100010100: 501997 462691 475701 564617 606361
0110010011100000100001000: 588366 564617 474884 501997 491574
0110010011100000100001000: 588366 564617 578154 501997 491574
0110010011100000100001000: 588366 564617 530065 501997 491574
0111010101110001000001000: 588366 564617 462691 578154 491574
0111010101110001000001000: 588366 564617 462691 530065 491574
0110010010100010100000100: 588366 474884 564617 606361 491574
0110010011100000100001000: 588366 474884 564617 616269 606361
0110010010100010100000100: 588366 474884 564617 616269 491574
0110010010100010100000100: 588366 474884 564617 616269 501997
0110010011100000100001000: 588366 474884 578154 616269 606361
0110010011100000100001000: 588366 474884 530065 616269 606361
0110010010100010100000100: 588366 578154 564617 468068 491574
0110010010100010100000100: 588366 578154 564617 468068 501997
0110010010100010100000100: 588366 578154 474884 468068 606361
0110010010100010100000100: 588366 578154 474884 468068 616269
0110010010100010100000100: 588366 462691 578154 601936 468068
0110010011100000100001000: 588366 462691 578154 501997 601936
0110010010100010100000100: 588366 462691 578154 501997 468068
0110010011100000100001000: 588366 462691 578154 475701 601936
0110010010100010100000100: 588366 462691 578154 475701 468068
0110010011100000100001000: 588366 462691 578154 616269 601936
0110010011100000100001000: 588366 462691 578154 616269 501997
0110010011100000100001000: 588366 462691 578154 616269 475701
0110010010100010100000100: 588366 462691 578154 616269 468068
0110010011100000100001000: 588366 462691 530065 501997 601936
0110010011100000100001000: 588366 462691 530065 475701 601936
0110010011100000100001000: 588366 462691 530065 616269 601936
0110010011100000100001000: 588366 462691 530065 616269 501997
0110010011100000100001000: 588366 462691 530065 616269 475701
0111010100110001000100010: 588366 462691 564617 578154 468068
0111110100110001000010000: 588366 462691 564617 530065 578154
0111010100110001000100010: 588366 462691 564617 530065 468068
0111010100110001000100010: 588366 462691 564617 530065 516490
0111010100110001000100010: 588366 462691 474884 578154 468068
0111110100110001000010000: 588366 462691 474884 530065 578154
0111010100110001000100010: 588366 462691 474884 530065 468068
0111010100110001000100010: 588366 462691 474884 530065 516490
0111110110110001100010000: 588366 462691 474884 564617 578154
0111110110110001100010000: 588366 462691 474884 564617 530065
0110010010100010100000100: 588366 530065 564617 468068 491574
0110010010100010100000100: 588366 530065 564617 468068 501997
0110010011100000100001000: 588366 530065 564617 516490 468068
0110010010100010100000100: 588366 530065 564617 516490 491574
0110010010100010100000100: 588366 530065 564617 516490 501997
0110010010100010100000100: 588366 530065 474884 468068 606361
0110010010100010100000100: 588366 530065 474884 468068 616269
0110010011100000100001000: 588366 530065 474884 516490 468068
0110010010100010100000100: 588366 530065 474884 516490 606361
0110010010100010100000100: 588366 530065 474884 516490 616269
0111110000100001000010000: 588366 530065 578154 474884 564617
0110010010100010100000100: 588366 530065 462691 468068 601936
0110010010100010100000100: 588366 530065 462691 468068 501997
0110010010100010100000100: 588366 530065 462691 468068 475701
0110010010100010100000100: 588366 530065 462691 468068 616269
0110010011100000100001000: 588366 530065 462691 516490 468068
0110010010100010100000100: 588366 530065 462691 516490 601936
0110010010100010100000100: 588366 530065 462691 516490 501997
0110010010100010100000100: 588366 530065 462691 516490 475701
0110010010100010100000100: 588366 530065 462691 516490 616269
0110010011100000100001000: 609356 501997 516490 564617 634130
0110010011100000100001000: 609356 501997 516490 475701 634130
0110010011100000100001000: 609356 501997 516490 475701 564617
0110010011100000100001000: 609356 501997 516490 606361 634130
0110010011100000100001000: 609356 501997 516490 606361 564617
0110010011100000100001000: 609356 501997 516490 462691 634130
0110010011100000100001000: 609356 501997 516490 462691 606361
0110010010100010100000100: 609356 516490 501997 530065 634130
0110010010100010100000100: 609356 516490 501997 530065 564617
0110010010100010100000100: 609356 516490 501997 530065 475701
0110010010100010100000100: 609356 516490 501997 530065 606361
0110010010100010100000100: 609356 516490 501997 530065 462691
0110010010100010100000100: 564617 588366 491574 474884 475701
0110010011100000100001000: 564617 588366 491574 578154 474884
0110010010100010100000100: 564617 588366 491574 578154 475701
0110010011100000100001000: 564617 588366 491574 530065 474884
0110010011100000100001000: 564617 588366 491574 530065 578154
0110010010100010100000100: 564617 588366 491574 530065 475701
0110010011100000100001000: 564617 588366 501997 578154 474884
0110010011100000100001000: 564617 588366 501997 530065 474884
0110010011100000100001000: 564617 588366 501997 530065 578154
0110010011100000100001000: 564617 501997 491574 609356 634130
0110010011100000100001000: 564617 501997 491574 606361 634130
0110010011100000100001000: 564617 501997 491574 606361 609356
0110010010100010100000100: 564617 501997 588366 634130 474884
0110010010100010100000100: 564617 501997 588366 634130 578154
0110010010100010100000100: 564617 501997 588366 634130 530065
0110010011100000100001000: 564617 501997 588366 609356 634130
0110010010100010100000100: 564617 501997 588366 609356 474884
0110010010100010100000100: 564617 501997 588366 609356 578154
0110010010100010100000100: 564617 501997 588366 609356 530065
0110010011100000100001000: 564617 501997 588366 475701 634130
0110010011100000100001000: 564617 501997 588366 475701 609356
0110010010100010100000100: 564617 501997 588366 475701 474884
0110010010100010100000100: 564617 501997 588366 475701 578154
0110010010100010100000100: 564617 501997 588366 475701 530065
0110010011100000100001000: 564617 501997 588366 606361 634130
0110010011100000100001000: 564617 501997 588366 606361 609356
0110010010100010100000100: 564617 501997 588366 606361 578154
0110010010100010100000100: 564617 501997 588366 606361 530065
0110010011100000100001000: 564617 462691 491574 474884 601936
0110010011100000100001000: 564617 462691 491574 616269 601936
0111110110110001100010000: 564617 462691 501997 588366 491574
0110010010100010100000100: 491574 475701 564617 606361 588366
0110010011100000100001000: 634130 501997 601936 609356 564617
0110010011100000100001000: 634130 501997 601936 475701 564617
0110010011100000100001000: 634130 501997 601936 475701 609356
0110010011100000100001000: 634130 501997 601936 606361 564617
0110010011100000100001000: 634130 501997 601936 606361 609356
0110010011100000100001000: 601936 462691 634130 475701 564617
0110010011100000100001000: 601936 462691 634130 475701 588366
0110010011100000100001000: 601936 462691 634130 474884 564617
0110010011100000100001000: 601936 462691 634130 474884 475701
0110010011100000100001000: 601936 462691 634130 616269 564617
0110010011100000100001000: 601936 462691 634130 616269 588366
0110010011100000100001000: 601936 462691 634130 616269 475701
