Vertex,0101101001011010,0101101101001100,0110100110010110,0111100110001100,0100101001010010,0101101001001000,0110101111000100,0100101101000100,0111100010001000,0110100010010010,0111100010011010,0110101011010010,0110100110000100,0111101011001000
520948,0.0,0.0,0.0,2.0,0.0,20.0,4.0,0.0,40.0,34.0,2.0,2.0,70.0,10.0
561428,32.0,4.0,140.0,24.0,4.0,38.0,30.0,4.0,104.0,65.0,17.0,16.0,133.0,71.0
651400,0.0,0.0,0.0,0.0,0.0,8.0,0.0,0.0,0.0,16.0,0.0,0.0,28.0,0.0
523881,14.0,4.0,35.0,24.0,4.0,18.0,30.0,0.0,24.0,39.0,17.0,16.0,87.0,71.0
573372,12.0,4.0,70.0,24.0,2.0,11.0,30.0,0.0,59.0,30.0,17.0,16.0,83.0,71.0
644581,12.0,0.0,70.0,2.0,4.0,22.0,4.0,2.0,99.0,50.0,2.0,2.0,114.0,10.0
512769,26.0,0.0,105.0,2.0,4.0,20.0,4.0,2.0,99.0,44.0,2.0,2.0,102.0,10.0
473114,14.0,2.0,35.0,8.0,4.0,16.0,9.0,2.0,24.0,35.0,2.0,5.0,78.0,21.0
591715,18.0,2.0,105.0,10.0,2.0,15.0,9.0,4.0,83.0,43.0,9.0,5.0,115.0,20.0
618290,0.0,0.0,0.0,0.0,4.0,12.0,0.0,2.0,24.0,30.0,0.0,0.0,60.0,0.0
613176,0.0,0.0,0.0,0.0,4.0,4.0,0.0,0.0,0.0,14.0,0.0,0.0,14.0,0.0
graph,32.0,4.0,140.0,24.0,8.0,46.0,30.0,4.0,139.0,100.0,17.0,16.0,221.0,71.0
