Vertex,0111110000100001000010000,0111110100110001000110010,0111010101110001000001000,0110010010100010100100110,0111110110110101110010000,0111010101110001000101010,0111110111110101110011000,0111110111110001100011000,0110010011100000100001000,0111110110110011100110110,0111010110110011100100110,0111110111110111110111110,0111010100110001000100010,0111110111110111110011100,0110010011100100110001000,0111110110110001100010000,0111110100110001000010000,0110010010100010100000100,0111110110110011100010100,0111010110110011100000100,0110010011100110110001100
505818,0.0,0.0,9.0,0.0,0.0,0.0,0.0,0.0,48.0,0.0,0.0,0.0,25.0,0.0,8.0,0.0,1.0,98.0,0.0,2.0,0.0
650875,27.0,4.0,150.0,4.0,11.0,29.0,0.0,1.0,353.0,0.0,10.0,0.0,78.0,0.0,102.0,37.0,52.0,234.0,7.0,51.0,5.0
465896,0.0,0.0,0.0,0.0,0.0,0.0,0.0,0.0,2.0,0.0,0.0,0.0,1.0,0.0,0.0,0.0,0.0,20.0,0.0,0.0,0.0
549840,86.0,10.0,221.0,7.0,4.0,79.0,14.0,19.0,510.0,16.0,32.0,0.0,88.0,0.0,205.0,162.0,127.0,255.0,55.0,91.0,20.0
544636,98.0,20.0,234.0,4.0,67.0,53.0,49.0,25.0,404.0,8.0,32.0,2.0,116.0,14.0,146.0,207.0,169.0,191.0,50.0,105.0,13.0
501997,134.0,18.0,286.0,4.0,17.0,82.0,22.0,26.0,657.0,18.0,58.0,0.0,159.0,6.0,322.0,193.0,198.0,285.0,68.0,155.0,30.0
472180,51.0,9.0,100.0,2.0,12.0,28.0,2.0,4.0,288.0,0.0,8.0,0.0,79.0,0.0,122.0,63.0,79.0,216.0,9.0,39.0,7.0
550157,115.0,29.0,391.0,5.0,93.0,91.0,76.0,40.0,507.0,21.0,49.0,2.0,174.0,20.0,198.0,353.0,288.0,219.0,120.0,202.0,19.0
517961,98.0,4.0,151.0,5.0,13.0,41.0,12.0,15.0,422.0,0.0,25.0,0.0,53.0,3.0,187.0,97.0,115.0,194.0,24.0,75.0,11.0
497691,61.0,14.0,144.0,4.0,13.0,36.0,2.0,1.0,355.0,0.0,14.0,0.0,82.0,0.0,109.0,76.0,130.0,140.0,15.0,44.0,11.0
463470,73.0,7.0,136.0,0.0,14.0,10.0,9.0,13.0,341.0,0.0,0.0,0.0,42.0,3.0,49.0,96.0,103.0,84.0,29.0,63.0,0.0
579486,141.0,16.0,194.0,9.0,12.0,42.0,28.0,28.0,478.0,7.0,13.0,0.0,76.0,5.0,115.0,192.0,160.0,192.0,43.0,78.0,12.0
573922,76.0,24.0,337.0,5.0,54.0,60.0,50.0,43.0,441.0,30.0,44.0,1.0,127.0,16.0,173.0,327.0,194.0,195.0,108.0,174.0,21.0
603584,89.0,34.0,140.0,0.0,17.0,13.0,14.0,6.0,292.0,0.0,0.0,0.0,84.0,1.0,36.0,133.0,170.0,105.0,31.0,34.0,0.0
604199,80.0,11.0,285.0,5.0,82.0,49.0,59.0,29.0,335.0,13.0,41.0,2.0,109.0,19.0,132.0,253.0,186.0,180.0,73.0,146.0,11.0
475061,94.0,7.0,203.0,6.0,16.0,46.0,11.0,15.0,484.0,5.0,33.0,0.0,71.0,3.0,212.0,121.0,140.0,220.0,34.0,71.0,18.0
561428,235.0,29.0,426.0,3.0,100.0,76.0,85.0,49.0,789.0,18.0,48.0,2.0,158.0,22.0,225.0,401.0,364.0,212.0,107.0,225.0,18.0
521154,56.0,18.0,256.0,6.0,52.0,60.0,40.0,27.0,333.0,25.0,50.0,1.0,93.0,14.0,193.0,250.0,181.0,175.0,79.0,136.0,26.0
582608,105.0,0.0,106.0,2.0,14.0,30.0,0.0,0.0,340.0,0.0,7.0,0.0,45.0,0.0,108.0,70.0,118.0,133.0,0.0,24.0,9.0
571719,79.0,34.0,189.0,3.0,18.0,36.0,23.0,14.0,332.0,4.0,15.0,0.0,92.0,4.0,112.0,166.0,155.0,192.0,57.0,68.0,7.0
622551,16.0,10.0,134.0,3.0,9.0,21.0,2.0,1.0,282.0,0.0,1.0,0.0,82.0,0.0,38.0,39.0,46.0,125.0,15.0,54.0,0.0
474085,80.0,15.0,88.0,0.0,13.0,0.0,1.0,0.0,214.0,0.0,0.0,0.0,37.0,0.0,25.0,68.0,103.0,52.0,6.0,25.0,0.0
639561,123.0,3.0,135.0,0.0,12.0,4.0,5.0,10.0,310.0,0.0,0.0,0.0,11.0,0.0,42.0,96.0,125.0,42.0,17.0,31.0,0.0
590960,128.0,4.0,166.0,1.0,7.0,11.0,11.0,19.0,437.0,5.0,8.0,0.0,47.0,0.0,78.0,126.0,115.0,124.0,18.0,59.0,8.0
609419,28.0,0.0,92.0,5.0,4.0,12.0,0.0,0.0,296.0,0.0,2.0,0.0,51.0,0.0,76.0,21.0,41.0,188.0,0.0,41.0,4.0
472496,2.0,0.0,28.0,2.0,1.0,1.0,0.0,0.0,135.0,0.0,0.0,0.0,49.0,0.0,36.0,2.0,5.0,154.0,0.0,15.0,0.0
611170,0.0,0.0,14.0,0.0,0.0,0.0,0.0,0.0,85.0,0.0,0.0,0.0,31.0,0.0,6.0,1.0,0.0,65.0,0.0,12.0,0.0
graph,415.0,64.0,923.0,17.0,131.0,182.0,103.0,77.0,1894.0,34.0,98.0,2.0,412.0,26.0,611.0,710.0,673.0,858.0,193.0,404.0,50.0
