Vertex,0110101011010010,0110101111000100,0101101001001000,0110100110000100,0100101001010010,0111100110001100,0100101101000100,0110100010010010,0110100110010110,0111101011001000,0101101001011010,0100101101010110,0111100010001000,0101101101001100,0111100010011010
473800,45.0,59.0,105.0,343.0,77.0,47.0,10.0,180.0,103.0,117.0,30.0,6.0,143.0,14.0,44.0
551436,32.0,46.0,49.0,169.0,21.0,31.0,0.0,73.0,68.0,96.0,21.0,2.0,71.0,8.0,32.0
509516,35.0,49.0,54.0,250.0,38.0,35.0,4.0,130.0,35.0,100.0,9.0,2.0,94.0,10.0,38.0
481897,2.0,4.0,51.0,170.0,34.0,2.0,2.0,92.0,0.0,10.0,0.0,0.0,55.0,0.0,2.0
635193,30.0,56.0,69.0,250.0,28.0,44.0,6.0,131.0,68.0,129.0,21.0,2.0,119.0,8.0,26.0
612976,33.0,47.0,60.0,196.0,37.0,35.0,2.0,96.0,35.0,98.0,9.0,2.0,69.0,10.0,26.0
612385,54.0,86.0,97.0,341.0,76.0,67.0,10.0,182.0,33.0,185.0,12.0,4.0,119.0,16.0,50.0
482164,33.0,45.0,64.0,296.0,59.0,33.0,6.0,159.0,35.0,92.0,9.0,2.0,137.0,10.0,34.0
612913,0.0,0.0,30.0,113.0,19.0,0.0,4.0,62.0,0.0,0.0,0.0,0.0,39.0,0.0,0.0
498882,0.0,0.0,21.0,81.0,16.0,0.0,2.0,51.0,0.0,0.0,0.0,0.0,15.0,0.0,0.0
518245,5.0,9.0,20.0,95.0,11.0,8.0,6.0,50.0,0.0,21.0,0.0,0.0,48.0,2.0,2.0
475406,40.0,64.0,75.0,263.0,50.0,52.0,6.0,151.0,35.0,140.0,9.0,4.0,94.0,12.0,32.0
627806,5.0,7.0,39.0,229.0,43.0,5.0,8.0,125.0,0.0,14.0,0.0,0.0,122.0,2.0,2.0
543490,5.0,7.0,20.0,99.0,20.0,5.0,2.0,56.0,0.0,14.0,0.0,0.0,39.0,2.0,2.0
517220,4.0,8.0,50.0,217.0,39.0,4.0,4.0,114.0,0.0,20.0,0.0,0.0,91.0,0.0,4.0
524557,0.0,0.0,6.0,30.0,11.0,0.0,0.0,25.0,0.0,0.0,0.0,0.0,0.0,0.0,0.0
531968,5.0,9.0,32.0,174.0,35.0,8.0,6.0,96.0,0.0,20.0,0.0,0.0,89.0,2.0,2.0
621530,0.0,0.0,6.0,39.0,7.0,0.0,2.0,23.0,0.0,0.0,0.0,0.0,24.0,0.0,0.0
619864,0.0,0.0,0.0,9.0,3.0,0.0,0.0,4.0,0.0,0.0,0.0,0.0,0.0,0.0,0.0
graph,82.0,124.0,212.0,841.0,156.0,94.0,20.0,450.0,103.0,264.0,30.0,6.0,342.0,24.0,74.0
