0110010010100010100100110: 593593 546020 558128 517190 611491
0110010010100010100100110: 593593 581878 558128 623692 611491
0110010011100000100001000: 593593 581878 558128 517190 623692
0110010010100010100100110: 593593 581878 558128 517190 611491
0110010011100000100001000: 593593 581878 558128 564617 623692
0110010010100010100000100: 593593 581878 558128 564617 611491
0110010011100000100001000: 593593 581878 546020 564617 623692
0110010011100100110001000: 593593 581878 546020 517190 623692
0110010011100000100001000: 581878 517190 623692 546020 631903
0110010011100100110001000: 581878 517190 623692 611491 631903
0110010011100100110001000: 581878 517190 623692 611491 546020
0110010011100000100001000: 581878 517190 593593 611491 631903
0110010011100100110001000: 581878 517190 593593 546020 631903
0110010011100100110001000: 581878 517190 593593 546020 611491
0111010101110001000001000: 581878 517190 564617 623692 546020
0111010101110001000101010: 581878 517190 564617 623692 611491
0111010101110001000001000: 581878 517190 564617 593593 611491
0111010101110001000101010: 581878 517190 564617 593593 546020
0110010010100010100000100: 581878 564617 623692 650908 611491
0110010010100010100000100: 581878 564617 623692 631903 611491
0110010011100000100001000: 581878 564617 623692 628504 650908
0110010011100000100001000: 581878 564617 623692 628504 631903
0110010010100010100000100: 581878 564617 623692 628504 611491
0110010011100000100001000: 581878 564617 623692 647945 650908
0110010011100000100001000: 581878 564617 623692 647945 631903
0110010011100000100001000: 581878 564617 623692 647945 628504
0110010010100010100000100: 581878 564617 623692 647945 611491
0110010011100000100001000: 581878 564617 623692 638591 650908
0110010011100000100001000: 581878 564617 623692 638591 631903
0110010011100000100001000: 581878 564617 623692 638591 628504
0110010010100010100000100: 581878 564617 623692 638591 611491
0110010011100000100001000: 581878 564617 593593 628504 650908
0110010011100000100001000: 581878 564617 593593 628504 631903
0110010011100000100001000: 581878 564617 593593 647945 650908
0110010011100000100001000: 581878 564617 593593 647945 631903
0110010011100000100001000: 581878 564617 593593 647945 628504
0110010011100000100001000: 581878 564617 593593 638591 650908
0110010011100000100001000: 581878 564617 593593 638591 631903
0110010011100000100001000: 581878 564617 593593 638591 628504
0111010101110001000001000: 581878 564617 517190 623692 650908
0111010101110001000001000: 581878 564617 517190 623692 628504
0111010101110001000001000: 581878 564617 517190 623692 647945
0111010101110001000001000: 581878 564617 517190 623692 638591
0111110100110001000010000: 581878 564617 517190 593593 623692
0111010101110001000001000: 581878 564617 517190 593593 650908
0111010101110001000001000: 581878 564617 517190 593593 628504
0111010101110001000001000: 581878 564617 517190 593593 647945
0111010101110001000001000: 581878 564617 517190 593593 638591
0111010100110001000100010: 581878 564617 517190 593593 558128
0110010011100000100001000: 581878 593593 623692 546020 558128
0110010010100010100000100: 581878 593593 623692 546020 611491
0110010010100010100000100: 581878 593593 517190 558128 631903
0110010011100100110001000: 581878 593593 517190 546020 558128
0110010010100010100000100: 581878 593593 564617 558128 650908
0110010010100010100000100: 581878 593593 564617 558128 631903
0110010010100010100000100: 581878 593593 564617 558128 628504
0110010010100010100000100: 581878 593593 564617 558128 647945
0110010010100010100000100: 581878 593593 564617 558128 638591
0110010011100000100001000: 581878 593593 564617 546020 558128
0110010010100010100000100: 581878 593593 564617 546020 650908
0110010010100010100000100: 581878 593593 564617 546020 631903
0110010010100010100000100: 581878 593593 564617 546020 628504
0110010010100010100000100: 581878 593593 564617 546020 647945
0110010010100010100000100: 581878 593593 564617 546020 638591
0110010010100010100000100: 638591 565819 591628 628504 650908
0110010010100010100000100: 638591 647945 591628 609581 650908
0110010011100000100001000: 638591 647945 591628 576620 609581
0110010010100010100000100: 638591 647945 591628 576620 650908
0110010010100010100000100: 638591 647945 565819 609581 628504
0110010011100000100001000: 638591 647945 565819 576620 609581
0110010010100010100000100: 638591 647945 565819 576620 628504
0111010101110001000001000: 638591 647945 564617 591628 609581
0111010101110001000001000: 638591 647945 564617 591628 576620
0111010101110001000001000: 638591 647945 564617 565819 609581
0111010101110001000001000: 638591 647945 564617 565819 576620
0110010011100000100001000: 638591 564617 591628 628504 631903
0110010011100000100001000: 638591 564617 591628 628504 517190
0110010011100000100001000: 638591 564617 591628 581878 631903
0110010011100000100001000: 638591 564617 591628 581878 628504
0110010011100100110001000: 638591 564617 591628 650908 517190
0110010011100100110001000: 638591 564617 591628 650908 628504
0110010011100100110001000: 638591 564617 591628 650908 581878
0110010011100000100001000: 638591 564617 565819 517190 650908
0110010011100000100001000: 638591 564617 565819 581878 650908
0110010011100000100001000: 638591 564617 565819 581878 631903
0110010011100100110001000: 638591 564617 565819 628504 650908
0110010011100100110001000: 638591 564617 565819 628504 631903
0110010011100100110001000: 638591 564617 565819 628504 517190
0110010011100100110001000: 638591 564617 565819 628504 581878
0111010101110001000001000: 638591 564617 647945 591628 631903
0111010101110001000001000: 638591 564617 647945 591628 517190
0111010101110001000001000: 638591 564617 647945 591628 628504
0111010101110001000001000: 638591 564617 647945 591628 581878
0111010101110001000101010: 638591 564617 647945 591628 650908
0111110100110001000010000: 638591 564617 647945 565819 591628
0111010101110001000001000: 638591 564617 647945 565819 650908
0111010101110001000001000: 638591 564617 647945 565819 631903
0111010101110001000001000: 638591 564617 647945 565819 517190
0111010101110001000001000: 638591 564617 647945 565819 581878
0111010101110001000101010: 638591 564617 647945 565819 628504
0111010101110001000001000: 564617 650908 631903 628504 591628
0111010101110001000001000: 564617 650908 631903 647945 591628
0111010101110001000101010: 564617 650908 631903 638591 591628
0111010101110001000001000: 564617 650908 631903 581878 591628
0111010101110001000001000: 564617 631903 650908 628504 606527
0111010100110001000100010: 564617 631903 650908 628504 565819
0111110100110001000010000: 564617 631903 650908 647945 628504
0111010101110001000001000: 564617 631903 650908 647945 606527
0111010100110001000100010: 564617 631903 650908 647945 609581
0111010100110001000100010: 564617 631903 650908 647945 576620
0111110100110001000010000: 564617 631903 650908 638591 628504
0111010101110001000001000: 564617 631903 650908 638591 606527
0111010100110001000100010: 564617 631903 650908 638591 565819
0111110100110001000010000: 564617 631903 650908 581878 628504
0111110100110001000010000: 564617 631903 650908 581878 647945
0111110100110001000010000: 564617 631903 650908 581878 638591
0111010101110001000001000: 564617 631903 650908 581878 606527
0111010100110001000100010: 564617 631903 650908 581878 623692
0111010100110001000100010: 564617 631903 650908 581878 593593
0111010110110011100000100: 564617 631903 650908 517190 591628
0111010101110001000001000: 564617 631903 517190 628504 606527
0111010101110001000001000: 564617 631903 517190 647945 606527
0111010101110001000001000: 564617 631903 517190 638591 606527
0111110110110001100010000: 564617 631903 517190 650908 628504
0111110110110001100010000: 564617 631903 517190 650908 647945
0111110110110001100010000: 564617 631903 517190 650908 638591
0111010110110011100000100: 564617 631903 517190 650908 611491
0111010110110011100000100: 564617 631903 517190 650908 546020
0110010010100010100000100: 564617 517190 650908 611491 591628
0110010011100000100001000: 564617 517190 650908 546020 611491
0110010010100010100000100: 564617 517190 650908 546020 591628
0110010011100000100001000: 564617 517190 628504 546020 611491
0110010011100000100001000: 564617 517190 647945 546020 611491
0110010011100000100001000: 564617 517190 638591 546020 611491
0111010101110001000001000: 564617 517190 631903 628504 611491
0111010101110001000001000: 564617 517190 631903 628504 546020
0111010100110001000100010: 564617 517190 631903 628504 565819
0111110100110001000010000: 564617 517190 631903 647945 628504
0111010101110001000001000: 564617 517190 631903 647945 611491
0111010101110001000001000: 564617 517190 631903 647945 546020
0111010100110001000100010: 564617 517190 631903 647945 609581
0111010100110001000100010: 564617 517190 631903 647945 576620
0111110100110001000010000: 564617 517190 631903 638591 628504
0111010101110001000001000: 564617 517190 631903 638591 611491
0111010101110001000001000: 564617 517190 631903 638591 546020
0111010100110001000100010: 564617 517190 631903 638591 591628
0111010100110001000100010: 564617 517190 631903 638591 565819
0111110110110011100010100: 564617 517190 631903 581878 650908
0111010110110011100000100: 564617 517190 631903 581878 606527
0111010101110001000001000: 564617 517190 581878 650908 611491
0111010101110001000001000: 564617 517190 581878 650908 546020
0111010101110001000001000: 564617 517190 581878 628504 611491
0111010101110001000001000: 564617 517190 581878 628504 546020
0111010101110001000001000: 564617 517190 581878 647945 611491
0111010101110001000001000: 564617 517190 581878 647945 546020
0111010101110001000001000: 564617 517190 581878 638591 611491
0111010101110001000001000: 564617 517190 581878 638591 546020
0111110110110001100010000: 564617 517190 581878 631903 628504
0111110110110001100010000: 564617 517190 581878 631903 647945
0111110110110001100010000: 564617 517190 581878 631903 638591
0111010110110011100000100: 564617 517190 581878 631903 623692
0111010110110011100000100: 564617 517190 581878 631903 593593
0110010010100010100000100: 564617 628504 650908 565819 591628
0110010010100010100000100: 564617 628504 631903 565819 606527
0110010010100010100000100: 564617 628504 517190 565819 611491
0110010010100010100000100: 564617 628504 517190 565819 546020
0110010010100010100000100: 564617 647945 650908 609581 591628
0110010011100000100001000: 564617 647945 650908 576620 609581
0110010010100010100000100: 564617 647945 650908 576620 591628
0110010010100010100100110: 564617 647945 631903 609581 606527
0110010011100000100001000: 564617 647945 631903 576620 609581
0110010010100010100000100: 564617 647945 631903 576620 606527
0110010010100010100000100: 564617 647945 517190 609581 611491
0110010010100010100000100: 564617 647945 517190 609581 546020
0110010011100000100001000: 564617 647945 517190 576620 609581
0110010010100010100000100: 564617 647945 517190 576620 611491
0110010010100010100000100: 564617 647945 517190 576620 546020
0111110000100001000010000: 564617 647945 628504 517190 650908
0110010010100010100000100: 564617 647945 628504 609581 565819
0110010011100000100001000: 564617 647945 628504 576620 609581
0110010010100010100000100: 564617 647945 628504 576620 565819
0110010011100000100001000: 564617 647945 581878 576620 609581
0111010101110001000001000: 564617 647945 638591 650908 609581
0111010101110001000001000: 564617 647945 638591 650908 576620
0111010101110001000001000: 564617 647945 638591 631903 609581
0111010101110001000001000: 564617 647945 638591 631903 576620
0111010101110001000001000: 564617 647945 638591 517190 609581
0111010101110001000001000: 564617 647945 638591 517190 576620
0111010101110001000001000: 564617 647945 638591 628504 609581
0111010101110001000001000: 564617 647945 638591 628504 576620
0111010101110001000001000: 564617 647945 638591 581878 609581
0111010101110001000001000: 564617 647945 638591 581878 576620
0110010011100100110001000: 564617 638591 650908 591628 565819
0110010010100010100000100: 564617 638591 631903 591628 606527
0110010011100000100001000: 564617 638591 631903 565819 591628
0110010010100010100000100: 564617 638591 631903 565819 606527
0110010010100010100000100: 564617 638591 517190 591628 611491
0110010010100010100000100: 564617 638591 517190 591628 546020
0110010011100000100001000: 564617 638591 517190 565819 591628
0110010010100010100000100: 564617 638591 517190 565819 611491
0110010010100010100000100: 564617 638591 517190 565819 546020
0111110000100001000010000: 564617 638591 628504 517190 650908
0110010011100100110001000: 564617 638591 628504 565819 591628
0110010011100000100001000: 564617 638591 581878 565819 591628
0111010100110001000100010: 564617 638591 647945 631903 606527
0111110100110001000110010: 564617 638591 647945 631903 650908
0111110100110001000010000: 564617 638591 647945 517190 650908
0111010100110001000100010: 564617 638591 647945 517190 611491
0111010100110001000100010: 564617 638591 647945 517190 546020
0111110100110001000110010: 564617 638591 647945 517190 631903
0111110100110001000010000: 564617 638591 647945 628504 650908
0111110100110001000010000: 564617 638591 647945 628504 631903
0111110100110001000010000: 564617 638591 647945 628504 517190
0111110100110001000010000: 564617 638591 647945 581878 650908
0111110100110001000010000: 564617 638591 647945 581878 631903
0111110100110001000010000: 564617 638591 647945 581878 628504
0111010100110001000100010: 564617 638591 647945 581878 623692
0111010100110001000100010: 564617 638591 647945 581878 593593
0110010010100010100000100: 564617 581878 650908 623692 591628
0110010011100000100001000: 564617 581878 650908 593593 623692
0110010010100010100000100: 564617 581878 650908 593593 591628
0110010010100010100000100: 564617 581878 631903 623692 606527
0110010011100000100001000: 564617 581878 631903 593593 623692
0110010010100010100000100: 564617 581878 631903 593593 606527
0110010010100010100000100: 564617 581878 628504 623692 565819
0110010011100000100001000: 564617 581878 628504 593593 623692
0110010010100010100000100: 564617 581878 628504 593593 565819
0111110000100001000010000: 564617 581878 647945 628504 650908
0111110000100001000010000: 564617 581878 647945 628504 631903
0110010010100010100000100: 564617 581878 647945 623692 609581
0110010010100010100000100: 564617 581878 647945 623692 576620
0110010011100000100001000: 564617 581878 647945 593593 623692
0110010010100010100000100: 564617 581878 647945 593593 609581
0110010010100010100000100: 564617 581878 647945 593593 576620
0111110000100001000010000: 564617 581878 638591 628504 650908
0111110000100001000010000: 564617 581878 638591 628504 631903
0110010010100010100000100: 564617 581878 638591 623692 591628
0110010010100010100000100: 564617 581878 638591 623692 565819
0110010011100000100001000: 564617 581878 638591 593593 623692
0110010010100010100000100: 564617 581878 638591 593593 591628
0110010010100010100000100: 564617 581878 638591 593593 565819
0111010100110001000100010: 564617 581878 517190 650908 591628
0111110100110001000010000: 564617 581878 517190 628504 650908
0111010100110001000100010: 564617 581878 517190 628504 565819
0111110100110001000010000: 564617 581878 517190 647945 650908
0111110100110001000010000: 564617 581878 517190 647945 628504
0111010100110001000100010: 564617 581878 517190 647945 609581
0111010100110001000100010: 564617 581878 517190 647945 576620
0111110100110001000010000: 564617 581878 517190 638591 650908
0111110100110001000010000: 564617 581878 517190 638591 628504
0111010100110001000100010: 564617 581878 517190 638591 591628
0111010100110001000100010: 564617 581878 517190 638591 565819
0111110100110001000110010: 564617 581878 517190 638591 647945
0110010010100010100000100: 647945 564617 609581 650908 606527
0110010011100000100001000: 647945 564617 609581 517190 650908
0110010010100010100000100: 647945 564617 609581 517190 606527
0110010011100000100001000: 647945 564617 609581 628504 650908
0110010011100000100001000: 647945 564617 609581 628504 631903
0110010011100000100001000: 647945 564617 609581 628504 517190
0110010010100010100000100: 647945 564617 609581 628504 606527
0110010011100000100001000: 647945 564617 609581 581878 650908
0110010011100000100001000: 647945 564617 609581 581878 631903
0110010011100000100001000: 647945 564617 609581 581878 628504
0110010010100010100000100: 647945 564617 609581 581878 606527
0110010011100000100001000: 647945 564617 576620 517190 650908
0110010011100000100001000: 647945 564617 576620 628504 650908
0110010011100000100001000: 647945 564617 576620 628504 631903
0110010011100000100001000: 647945 564617 576620 628504 517190
0110010011100000100001000: 647945 564617 576620 581878 650908
0110010011100000100001000: 647945 564617 576620 581878 631903
0110010011100000100001000: 647945 564617 576620 581878 628504
0110010010100010100000100: 647945 638591 609581 591628 606527
0110010011100000100001000: 647945 638591 609581 565819 591628
0110010010100010100000100: 647945 638591 609581 565819 606527
0110010011100000100001000: 647945 638591 576620 565819 591628
0111010100110001000100010: 647945 638591 564617 609581 606527
0111110100110001000010000: 647945 638591 564617 576620 609581
0110010011100000100001000: 565819 638591 628504 647945 591628
0110010011100000100001000: 628504 564617 565819 517190 650908
0110010011100000100001000: 628504 564617 565819 647945 650908
0110010011100000100001000: 628504 564617 565819 647945 631903
0110010011100000100001000: 628504 564617 565819 647945 517190
0110010011100000100001000: 628504 564617 565819 581878 650908
0110010011100000100001000: 628504 564617 565819 581878 631903
0110010011100000100001000: 628504 564617 565819 581878 647945
0110010011100100110001000: 517190 631903 611491 606527 650908
0110010011100000100001000: 517190 631903 546020 650908 606527
0110010011100000100001000: 517190 631903 581878 650908 606527
0111010101110001000101010: 517190 631903 564617 611491 606527
0111010101110001000001000: 517190 631903 564617 546020 606527
0110010010100010100000100: 517190 611491 631903 623692 650908
0110010011100000100001000: 517190 611491 631903 558128 623692
0110010010100010100000100: 517190 611491 631903 558128 650908
0110010011100100110001000: 517190 611491 631903 606527 623692
0110010011100100110001000: 517190 611491 631903 606527 558128
0110010011100000100001000: 517190 611491 546020 623692 606527
0110010011100000100001000: 517190 611491 546020 558128 606527
0110010011100000100001000: 517190 611491 546020 558128 623692
0110010011100000100001000: 517190 611491 564617 623692 606527
0110010011100000100001000: 517190 611491 564617 558128 606527
0110010011100000100001000: 517190 611491 564617 558128 623692
0110010011100000100001000: 517190 611491 581878 558128 606527
0110010011100100110001000: 517190 611491 581878 623692 606527
0110010011100100110001000: 517190 611491 581878 623692 558128
0110010010100010100000100: 517190 546020 631903 593593 606527
0110010010100010100000100: 517190 546020 631903 593593 650908
0110010010100010100000100: 517190 546020 611491 593593 606527
0110010010100010100000100: 517190 546020 611491 593593 623692
0110010010100010100000100: 517190 564617 611491 650908 606527
0110010010100010100000100: 517190 564617 611491 650908 623692
0110010010100010100000100: 517190 564617 611491 650908 558128
0110010011100000100001000: 517190 564617 611491 628504 650908
0110010010100010100000100: 517190 564617 611491 628504 606527
0110010010100010100000100: 517190 564617 611491 628504 623692
0110010010100010100000100: 517190 564617 611491 628504 558128
0110010011100000100001000: 517190 564617 611491 647945 650908
0110010011100000100001000: 517190 564617 611491 647945 628504
0110010010100010100000100: 517190 564617 611491 647945 606527
0110010010100010100000100: 517190 564617 611491 647945 623692
0110010010100010100000100: 517190 564617 611491 647945 558128
0110010011100000100001000: 517190 564617 611491 638591 650908
0110010011100000100001000: 517190 564617 611491 638591 628504
0110010010100010100000100: 517190 564617 611491 638591 606527
0110010010100010100000100: 517190 564617 611491 638591 623692
0110010010100010100000100: 517190 564617 611491 638591 558128
0110010010100010100000100: 517190 564617 546020 650908 593593
0110010011100000100001000: 517190 564617 546020 628504 650908
0110010010100010100000100: 517190 564617 546020 628504 593593
0110010011100000100001000: 517190 564617 546020 647945 650908
0110010011100000100001000: 517190 564617 546020 647945 628504
0110010010100010100000100: 517190 564617 546020 647945 593593
0110010011100000100001000: 517190 564617 546020 638591 650908
0110010011100000100001000: 517190 564617 546020 638591 628504
0110010010100010100000100: 517190 564617 546020 638591 593593
0111010100110001000100010: 517190 564617 631903 611491 623692
0111010100110001000100010: 517190 564617 631903 611491 558128
0111110100110001000010000: 517190 564617 631903 546020 611491
0111010100110001000100010: 517190 564617 631903 546020 593593
0111110110110001100010000: 517190 564617 581878 631903 611491
0111110110110001100010000: 517190 564617 581878 631903 546020
0110010010100010100000100: 517190 581878 631903 623692 606527
0110010010100010100000100: 517190 581878 631903 623692 650908
0110010011100000100001000: 517190 581878 631903 593593 623692
0110010010100010100000100: 517190 581878 631903 593593 606527
0110010010100010100000100: 517190 581878 631903 593593 650908
0110010010100010100000100: 517190 581878 611491 593593 606527
0110010011100100110001000: 517190 581878 611491 623692 593593
0111110000100001000010000: 517190 581878 546020 611491 631903
0111010100110001000100010: 517190 581878 564617 611491 606527
0111010100110001000100010: 517190 581878 564617 611491 558128
0111110100110001000010000: 517190 581878 564617 546020 611491
0110010011100000100001000: 546020 517190 593593 611491 631903
0110010011100000100001000: 546020 517190 593593 564617 611491
0110010010100010100000100: 546020 593593 517190 558128 631903
0110010010100010100000100: 546020 593593 517190 558128 564617
0110010011100000100001000: 611491 606527 623692 631903 609581
0110010011100000100001000: 611491 606527 558128 631903 609581
0110010011100100110001000: 611491 606527 517190 631903 609581
0110010010100010100000100: 611491 623692 606527 581878 609581
0110010010100010100000100: 611491 623692 606527 581878 631903
0110010010100010100000100: 611491 558128 606527 593593 609581
0110010010100010100000100: 611491 558128 606527 593593 631903
0110010010100010100000100: 611491 517190 606527 546020 609581
0110010011100000100001000: 611491 517190 606527 564617 546020
0110010010100010100000100: 611491 517190 606527 564617 609581
0110010011100000100001000: 611491 517190 606527 581878 546020
0110010010100010100000100: 611491 517190 606527 581878 609581
0110010011100100110001000: 611491 517190 606527 631903 546020
0110010011100100110001000: 611491 517190 606527 631903 581878
0110010011100000100001000: 611491 517190 623692 546020 631903
0110010011100000100001000: 611491 517190 623692 564617 546020
0111110000100001000010000: 611491 517190 558128 623692 606527
0110010010100010100000100: 611491 517190 558128 631903 593593
0110010011100000100001000: 611491 517190 558128 546020 631903
0110010011100000100001000: 611491 517190 558128 564617 546020
0110010010100010100000100: 611491 517190 558128 564617 593593
0110010011100000100001000: 611491 517190 558128 581878 631903
0110010011100000100001000: 611491 517190 558128 581878 546020
0110010011100000100001000: 558128 611491 593593 623692 606527
0110010011100000100001000: 558128 611491 593593 517190 606527
0110010011100000100001000: 558128 611491 593593 517190 623692
0110010010100010100000100: 558128 593593 611491 546020 606527
0110010010100010100000100: 558128 593593 611491 546020 623692
0110010011100000100001000: 558128 593593 611491 581878 546020
0110010010100010100000100: 558128 593593 611491 581878 606527
0110010011100000100001000: 631903 606527 650908 611491 609581
0110010011100000100001000: 631903 606527 564617 611491 609581
0110010010100010100000100: 631903 650908 606527 591628 609581
0110010010100010100000100: 631903 650908 606527 591628 611491
0111010101110001000001000: 631903 650908 564617 606527 591628
0110010010100010100000100: 631903 517190 606527 546020 609581
0110010011100000100001000: 631903 517190 606527 581878 546020
0110010010100010100000100: 631903 517190 606527 581878 609581
0110010010100010100000100: 631903 517190 650908 611491 591628
0110010011100000100001000: 631903 517190 650908 546020 611491
0110010010100010100000100: 631903 517190 650908 546020 591628
0110010011100000100001000: 631903 517190 650908 581878 611491
0110010011100000100001000: 631903 517190 650908 581878 546020
0110010010100010100000100: 631903 517190 650908 581878 591628
0110010010100010100000100: 631903 564617 606527 628504 609581
0110010010100010100000100: 631903 564617 606527 628504 611491
0110010011100000100001000: 631903 564617 606527 647945 628504
0110010010100010100000100: 631903 564617 606527 647945 611491
0110010011100000100001000: 631903 564617 606527 638591 628504
0110010010100010100000100: 631903 564617 606527 638591 609581
0110010010100010100000100: 631903 564617 606527 638591 611491
0110010011100000100001000: 631903 564617 606527 581878 628504
0110010011100000100001000: 631903 564617 606527 581878 647945
0110010011100000100001000: 631903 564617 606527 581878 638591
0110010010100010100000100: 631903 564617 606527 581878 609581
0110010010100010100000100: 631903 564617 606527 581878 611491
0111010100110001000100010: 631903 564617 650908 606527 609581
0111010100110001000100010: 631903 564617 650908 606527 611491
0111010100110001000100010: 631903 564617 517190 606527 609581
0111110110110001100010000: 631903 564617 517190 650908 606527
0110010010100010100000100: 650908 631903 591628 606527 638591
0110010011100000100001000: 650908 631903 591628 517190 606527
0110010010100010100000100: 650908 631903 591628 517190 638591
0110010011100000100001000: 650908 564617 591628 628504 517190
0110010011100000100001000: 650908 564617 591628 647945 517190
0110010011100000100001000: 650908 564617 591628 647945 628504
0110010011100000100001000: 650908 564617 591628 581878 628504
0110010011100000100001000: 650908 564617 591628 581878 647945
0110010011100000100001000: 623692 611491 581878 558128 606527
0110010010100010100000100: 623692 581878 611491 564617 606527
0110010010100010100000100: 623692 581878 611491 564617 558128
0110010011100000100001000: 623692 581878 611491 593593 564617
0110010010100010100000100: 623692 581878 611491 593593 606527
0110010010100010100000100: 591628 638591 650908 565819 631903
0110010011100000100001000: 591628 638591 650908 647945 565819
0110010010100010100000100: 591628 638591 650908 647945 631903
0110010010100010100000100: 606527 631903 609581 650908 647945
0110010011100000100001000: 606527 631903 609581 517190 650908
0110010010100010100000100: 606527 631903 609581 517190 647945
0110010010100010100000100: 606527 611491 609581 623692 647945
0110010011100000100001000: 606527 611491 609581 558128 623692
0110010010100010100000100: 606527 611491 609581 558128 647945
0110010011100000100001000: 606527 611491 609581 517190 623692
0110010011100000100001000: 606527 611491 609581 517190 558128
0110010010100010100000100: 606527 611491 609581 517190 647945
0110010010100010100000100: 606527 611491 631903 623692 650908
0110010010100010100000100: 606527 611491 631903 623692 564617
0110010011100000100001000: 606527 611491 631903 558128 623692
0110010010100010100000100: 606527 611491 631903 558128 650908
0110010010100010100000100: 606527 611491 631903 558128 564617
0110010011100000100001000: 609581 606527 647945 611491 631903
0110010010100010100000100: 609581 647945 606527 576620 631903
0110010010100010100000100: 609581 647945 606527 576620 611491
0110010011100000100001000: 609581 647945 606527 564617 576620
0110010010100010100000100: 609581 647945 606527 564617 611491
0110010011100000100001000: 609581 647945 606527 638591 576620
0110010010100010100000100: 609581 647945 606527 638591 631903
0110010010100010100000100: 609581 647945 606527 638591 611491
