Vertex,0111010100110001000100010,0110010011100000100001000,0111110100110001000010000,0110010011100100110001000,0111010101110001000101010,0111110100110001000110010,0110010010100010100000100,0111010101110001000001000,0110010010100010100100110
483619,6.0,19.0,6.0,4.0,3.0,1.0,19.0,13.0,1.0
645997,3.0,18.0,5.0,6.0,3.0,1.0,17.0,13.0,1.0
588246,5.0,6.0,3.0,1.0,0.0,1.0,6.0,4.0,0.0
505506,2.0,16.0,1.0,6.0,1.0,0.0,22.0,4.0,1.0
500683,1.0,11.0,1.0,3.0,1.0,0.0,14.0,4.0,0.0
623692,5.0,6.0,3.0,1.0,0.0,1.0,6.0,4.0,0.0
639113,1.0,13.0,4.0,5.0,1.0,0.0,11.0,3.0,1.0
650961,3.0,10.0,5.0,10.0,3.0,1.0,13.0,13.0,0.0
519353,1.0,9.0,1.0,4.0,1.0,0.0,12.0,4.0,0.0
547962,2.0,14.0,1.0,9.0,2.0,0.0,17.0,3.0,1.0
540995,1.0,7.0,0.0,1.0,0.0,0.0,13.0,0.0,0.0
514649,0.0,1.0,0.0,0.0,0.0,0.0,5.0,0.0,0.0
graph,6.0,26.0,6.0,10.0,3.0,1.0,31.0,13.0,1.0
