Vertex,0101101101011110,0110100110010110,0111100110011110,0110101011010010,0110101111000100,0110100010010010,0110101111010110,0100101001010010,0100101101000100,0101101001011010,0111100110001100,0110100110000100,0111101011001000,0101101001001000,0111101011011010,0101101101001100,0111100010001000,0111100010011010,0111101111001100
579517,5.0,70.0,4.0,37.0,53.0,82.0,34.0,15.0,6.0,29.0,34.0,173.0,112.0,46.0,37.0,10.0,109.0,25.0,36.0
556202,0.0,35.0,0.0,7.0,11.0,50.0,0.0,12.0,6.0,14.0,7.0,100.0,24.0,31.0,0.0,2.0,61.0,4.0,0.0
519997,0.0,70.0,0.0,4.0,8.0,79.0,0.0,18.0,2.0,30.0,4.0,149.0,20.0,45.0,0.0,0.0,79.0,4.0,0.0
591178,0.0,0.0,0.0,7.0,11.0,21.0,0.0,2.0,4.0,0.0,7.0,49.0,24.0,14.0,0.0,2.0,46.0,4.0,0.0
624522,3.0,70.0,2.0,26.0,36.0,47.0,17.0,8.0,4.0,30.0,26.0,100.0,75.0,24.0,17.0,8.0,38.0,17.0,18.0
523710,5.0,35.0,4.0,58.0,92.0,61.0,34.0,10.0,0.0,15.0,64.0,111.0,205.0,22.0,37.0,16.0,47.0,37.0,36.0
572355,0.0,70.0,0.0,16.0,20.0,45.0,0.0,6.0,0.0,30.0,12.0,91.0,41.0,26.0,0.0,4.0,64.0,6.0,0.0
561428,5.0,175.0,4.0,37.0,65.0,110.0,34.0,6.0,10.0,71.0,46.0,231.0,151.0,66.0,37.0,10.0,179.0,22.0,36.0
517222,2.0,70.0,2.0,26.0,46.0,87.0,17.0,15.0,2.0,27.0,36.0,168.0,106.0,39.0,20.0,8.0,78.0,21.0,18.0
487558,0.0,35.0,0.0,4.0,8.0,49.0,0.0,2.0,0.0,11.0,4.0,98.0,20.0,28.0,0.0,0.0,64.0,4.0,0.0
561672,0.0,35.0,0.0,5.0,9.0,53.0,0.0,13.0,4.0,16.0,8.0,103.0,21.0,27.0,0.0,2.0,45.0,2.0,0.0
559147,0.0,35.0,0.0,5.0,9.0,44.0,0.0,5.0,2.0,11.0,8.0,87.0,21.0,20.0,0.0,2.0,30.0,2.0,0.0
graph,5.0,175.0,4.0,58.0,92.0,182.0,34.0,28.0,10.0,71.0,64.0,365.0,205.0,97.0,37.0,16.0,210.0,37.0,36.0
