0110010010100010100000100: 636346 548547 478065 521421 526848
0110010011100000100001000: 548547 521421 636346 468192 513523
0110010010100010100000100: 548547 636346 521421 478065 513523
0110010010100010100000100: 548547 636346 521421 478065 468192
0110010011100000100001000: 646984 564124 507154 468192 500817
0110010011100100110001000: 646984 564124 526848 468192 500817
0110010010100010100000100: 646984 526848 564124 478065 500817
0110010011100100110001000: 646984 526848 564124 468192 478065
0110010011100000100001000: 646984 526848 507154 478065 468192
0110010011100000100001000: 526848 468192 478065 532280 564124
0110010011100000100001000: 526848 468192 478065 521421 564124
0110010011100000100001000: 526848 468192 478065 521421 532280
0110010011100000100001000: 526848 468192 646984 521421 532280
0110010011100100110001000: 526848 468192 646984 564124 532280
0110010011100100110001000: 526848 468192 646984 564124 521421
0110010010100010100000100: 526848 478065 468192 636346 564124
0110010010100010100000100: 526848 478065 468192 636346 532280
0110010010100010100000100: 526848 478065 468192 636346 521421
0110010010100010100000100: 526848 646984 468192 507154 532280
0110010010100010100000100: 526848 646984 468192 507154 521421
0110010011100100110001000: 526848 646984 468192 564124 507154
0110010010100010100000100: 526848 646984 478065 564124 636346
0110010011100000100001000: 526848 646984 478065 507154 564124
0110010010100010100000100: 526848 646984 478065 507154 636346
0110010011100000100001000: 478065 526848 636346 646984 468192
0110010010100010100000100: 478065 636346 526848 548547 468192
0110010010100010100000100: 478065 636346 526848 548547 646984
0110010011100000100001000: 521421 468192 513523 526848 564124
0110010011100100110001000: 521421 468192 513523 532280 564124
0110010011100100110001000: 521421 468192 513523 532280 526848
0110010011100000100001000: 521421 468192 548547 532280 564124
0110010011100000100001000: 521421 468192 548547 526848 564124
0110010011100000100001000: 521421 468192 548547 526848 532280
0110010010100010100000100: 521421 548547 513523 636346 532280
0110010010100010100000100: 521421 548547 468192 636346 564124
0110010010100010100000100: 521421 548547 468192 636346 532280
0110010010100010100000100: 521421 548547 468192 636346 526848
0110010011100000100001000: 532280 468192 513523 526848 564124
0110010011100000100001000: 468192 564124 532280 646984 500817
0110010011100000100001000: 468192 564124 521421 646984 500817
0110010010100010100000100: 468192 532280 564124 513523 500817
0110010010100010100000100: 468192 532280 564124 513523 646984
0110010010100010100000100: 468192 521421 564124 513523 500817
0110010010100010100000100: 468192 521421 564124 513523 646984
0110010011100000100001000: 468192 521421 564124 548547 513523
0110010010100010100000100: 468192 521421 564124 548547 500817
0110010010100010100000100: 468192 521421 564124 548547 646984
0110010011100100110001000: 468192 521421 532280 513523 548547
0110010011100000100001000: 468192 521421 526848 548547 513523
0110010010100010100000100: 468192 526848 564124 478065 500817
0110010010100010100000100: 468192 526848 532280 478065 513523
0110010011100000100001000: 468192 526848 532280 646984 478065
0110010010100010100000100: 468192 526848 532280 646984 513523
0111110000100001000010000: 468192 526848 521421 532280 564124
0110010010100010100000100: 468192 526848 521421 478065 513523
0110010010100010100000100: 468192 526848 521421 478065 548547
0110010011100000100001000: 468192 526848 521421 646984 478065
0110010010100010100000100: 468192 526848 521421 646984 513523
0110010010100010100000100: 468192 526848 521421 646984 548547
0110010011100000100001000: 564124 468192 500817 521421 532280
0110010011100000100001000: 564124 468192 500817 526848 532280
0110010011100000100001000: 564124 468192 500817 526848 521421
0110010011100000100001000: 564124 468192 646984 521421 532280
0110010011100000100001000: 564124 646984 500817 526848 507154
0110010010100010100000100: 564124 646984 468192 507154 532280
0110010010100010100000100: 564124 646984 468192 507154 521421
