Vertex,0111010101110001000001000,0111110100110001000110010,0111010100110001000100010,0110010010100010100000100
651128,3.0,1.0,3.0,7.0
561428,4.0,1.0,4.0,7.0
469369,2.0,0.0,2.0,7.0
622564,3.0,1.0,2.0,2.0
538262,0.0,0.0,1.0,7.0
607468,3.0,1.0,3.0,7.0
567530,3.0,1.0,2.0,2.0
492472,2.0,0.0,2.0,7.0
591823,0.0,0.0,1.0,7.0
618585,0.0,0.0,0.0,7.0
graph,4.0,1.0,4.0,12.0
