0101101001001000: 631236 637912 496371 577334
0101101001001000: 631236 637912 496371 498833
0101101001001000: 631236 637912 509118 577334
0101101001001000: 631236 637912 509118 498833
0100101101000100: 631236 637912 509118 496371
0101101001001000: 631236 577334 645529 637912
0101101001001000: 631236 577334 645529 570191
0101101001001000: 631236 577334 645529 498833
0110100110010110: 631236 570191 637912 496371
0110100110010110: 631236 570191 637912 509118
0111100010001000: 631236 570191 577334 637912
0111101011001000: 631236 570191 498833 637912
0111101011001000: 631236 570191 498833 577334
0111100010001000: 631236 498833 577334 637912
0111101011001000: 631236 498833 570191 637912
0111101011001000: 631236 498833 570191 577334
0110100110000100: 631236 637912 577334 496371
0110100110000100: 631236 637912 577334 509118
0110100010010010: 631236 637912 577334 645529
0110100010010010: 631236 637912 577334 645529
0111100010001000: 631236 637912 570191 577334
0110100010010010: 631236 637912 570191 627327
0110100010010010: 631236 637912 570191 535445
0111100010011010: 631236 637912 570191 498833
0110100110010110: 631236 637912 570191 496371
0110100110010110: 631236 637912 570191 509118
0110100110010110: 631236 637912 570191 496371
0110100110010110: 631236 637912 570191 509118
0111100010001000: 631236 637912 498833 577334
0110100110000100: 631236 637912 498833 496371
0110100110000100: 631236 637912 498833 509118
0111100010011010: 631236 637912 498833 570191
0110100110000100: 631236 637912 577334 496371
0110100110000100: 631236 637912 577334 509118
0110100110000100: 631236 637912 577334 496371
0110100110000100: 631236 637912 577334 509118
0110100110000100: 631236 637912 577334 496371
0110100110000100: 631236 637912 577334 509118
0110100010010010: 631236 637912 577334 645529
0110100110010110: 631236 637912 570191 496371
0110100110010110: 631236 637912 570191 509118
0110100110000100: 631236 637912 498833 496371
0110100110000100: 631236 637912 498833 509118
0110100110000100: 631236 637912 498833 496371
0110100110000100: 631236 637912 498833 509118
0110100110000100: 631236 637912 498833 496371
0110100110000100: 631236 637912 498833 509118
0101101001001000: 631236 637912 496371 577334
0101101001001000: 631236 637912 496371 498833
0100101001010010: 631236 637912 496371 490783
0100101001010010: 631236 637912 496371 490783
0101101001011010: 631236 637912 496371 570191
0101101001011010: 631236 637912 496371 570191
0101101001011010: 631236 637912 496371 570191
0100101001010010: 631236 637912 496371 490783
0101101001001000: 631236 637912 509118 577334
0101101001001000: 631236 637912 509118 498833
0100101101000100: 631236 637912 509118 496371
0101101001011010: 631236 637912 509118 570191
0101101001011010: 631236 637912 509118 570191
0101101001011010: 631236 637912 509118 570191
0101101001011010: 631236 637912 509118 570191
0101101001011010: 631236 637912 509118 570191
0110100110000100: 631236 577334 637912 645529
0110100010010010: 631236 577334 637912 496371
0110100010010010: 631236 577334 637912 509118
0110100010010010: 631236 577334 637912 496371
0110100010010010: 631236 577334 637912 509118
0111100010001000: 631236 577334 570191 637912
0110100110000100: 631236 577334 570191 645529
0110100010010010: 631236 577334 570191 496371
0110100010010010: 631236 577334 570191 509118
0110100010010010: 631236 577334 570191 627327
0110100010010010: 631236 577334 570191 535445
0111100010011010: 631236 577334 570191 498833
0111100010001000: 631236 577334 498833 637912
0110100110000100: 631236 577334 498833 645529
0111100010011010: 631236 577334 498833 570191
0111100010001000: 631236 577334 637912 570191
0111100010001000: 631236 577334 637912 498833
0110100110000100: 631236 577334 637912 645529
0110100110000100: 631236 577334 637912 645529
0110100110000100: 631236 577334 637912 645529
0110100110000100: 631236 577334 570191 645529
0110100110000100: 631236 577334 570191 645529
0110100110000100: 631236 577334 570191 645529
0110100110000100: 631236 577334 498833 645529
0110100110000100: 631236 577334 498833 645529
0110100110000100: 631236 577334 498833 645529
0101101001001000: 631236 577334 645529 637912
0101101001001000: 631236 577334 645529 570191
0101101001001000: 631236 577334 645529 498833
0100101001010010: 631236 577334 645529 480185
0100101001010010: 631236 577334 645529 480185
0100101001010010: 631236 577334 645529 480185
0110100110000100: 631236 570191 637912 627327
0110100110000100: 631236 570191 637912 535445
0110100110010110: 631236 570191 637912 496371
0110100110010110: 631236 570191 637912 509118
0110100110010110: 631236 570191 637912 496371
0110100110010110: 631236 570191 637912 509118
0111100010001000: 631236 570191 577334 637912
0110100110000100: 631236 570191 577334 496371
0110100110000100: 631236 570191 577334 509118
0110100110000100: 631236 570191 577334 627327
0110100110000100: 631236 570191 577334 535445
0110100010010010: 631236 570191 577334 645529
0110100010010010: 631236 570191 577334 645529
0111100010001000: 631236 570191 637912 577334
0110100110000100: 631236 570191 637912 627327
0110100110000100: 631236 570191 637912 535445
0110100110000100: 631236 570191 637912 627327
0110100110000100: 631236 570191 637912 535445
0111100110001100: 631236 570191 637912 498833
0110100110010110: 631236 570191 637912 496371
0110100110010110: 631236 570191 637912 509118
0110100110010110: 631236 570191 637912 496371
0110100110010110: 631236 570191 637912 509118
0110100110010110: 631236 570191 637912 496371
0110100110010110: 631236 570191 637912 509118
0111100010001000: 631236 570191 577334 637912
0111100010001000: 631236 570191 577334 637912
0110100110000100: 631236 570191 577334 496371
0110100110000100: 631236 570191 577334 509118
0110100110000100: 631236 570191 577334 627327
0110100110000100: 631236 570191 577334 535445
0110100110000100: 631236 570191 577334 496371
0110100110000100: 631236 570191 577334 509118
0110100110000100: 631236 570191 577334 627327
0110100110000100: 631236 570191 577334 535445
0111100110001100: 631236 570191 577334 498833
0110100010010010: 631236 570191 577334 645529
0111101011001000: 631236 570191 498833 637912
0111101011001000: 631236 570191 498833 577334
0111100010001000: 631236 570191 637912 577334
0111100010001000: 631236 570191 637912 577334
0111100010001000: 631236 570191 577334 637912
0111100010001000: 631236 570191 577334 637912
0110100010010010: 631236 570191 577334 645529
0111101011001000: 631236 570191 498833 637912
0111101011001000: 631236 570191 498833 577334
0111101011001000: 631236 570191 498833 637912
0111101011001000: 631236 570191 498833 577334
0110101111000100: 631236 570191 498833 496371
0110101111000100: 631236 570191 498833 509118
0110101111000100: 631236 570191 498833 627327
0110101111000100: 631236 570191 498833 535445
0110101111000100: 631236 570191 498833 496371
0110101111000100: 631236 570191 498833 509118
0110101111000100: 631236 570191 498833 627327
0110101111000100: 631236 570191 498833 535445
0111101011001000: 631236 570191 498833 637912
0111101011001000: 631236 570191 498833 577334
0110100110000100: 631236 570191 637912 627327
0110100110000100: 631236 570191 637912 535445
0110100110000100: 631236 570191 637912 627327
0110100110000100: 631236 570191 637912 535445
0111100110001100: 631236 570191 637912 498833
0111100110001100: 631236 570191 637912 498833
0111100110001100: 631236 570191 637912 498833
0111100010001000: 631236 570191 637912 577334
0110100110010110: 631236 570191 637912 496371
0110100110010110: 631236 570191 637912 509118
0110100110010110: 631236 570191 637912 496371
0110100110010110: 631236 570191 637912 509118
0110100110000100: 631236 570191 577334 496371
0110100110000100: 631236 570191 577334 509118
0110100110000100: 631236 570191 577334 627327
0110100110000100: 631236 570191 577334 535445
0110100110000100: 631236 570191 577334 496371
0110100110000100: 631236 570191 577334 509118
0110100110000100: 631236 570191 577334 627327
0110100110000100: 631236 570191 577334 535445
0111100110001100: 631236 570191 577334 498833
0111100110001100: 631236 570191 577334 498833
0111100110001100: 631236 570191 577334 498833
0111100010001000: 631236 570191 577334 637912
0111100010001000: 631236 570191 577334 637912
0110100010010010: 631236 570191 577334 645529
0110100010010010: 631236 570191 577334 645529
0111101011001000: 631236 570191 498833 637912
0111101011001000: 631236 570191 498833 577334
0110100010010010: 631236 498833 637912 496371
0110100010010010: 631236 498833 637912 509118
0110100010010010: 631236 498833 637912 496371
0110100010010010: 631236 498833 637912 509118
0111100010001000: 631236 498833 577334 637912
0110100010010010: 631236 498833 577334 645529
0110100010010010: 631236 498833 577334 645529
0111100010001000: 631236 498833 637912 577334
0111100110001100: 631236 498833 637912 570191
0111100010001000: 631236 498833 577334 637912
0111100010001000: 631236 498833 577334 637912
0111100110001100: 631236 498833 577334 570191
0111101011001000: 631236 498833 570191 637912
0111101011001000: 631236 498833 570191 577334
0110101011010010: 631236 498833 570191 496371
0110101011010010: 631236 498833 570191 509118
0110101011010010: 631236 498833 570191 627327
0110101011010010: 631236 498833 570191 535445
0110101011010010: 631236 498833 570191 496371
0110101011010010: 631236 498833 570191 509118
0110101011010010: 631236 498833 570191 627327
0110101011010010: 631236 498833 570191 535445
0111101011001000: 631236 498833 570191 637912
0111101011001000: 631236 498833 570191 577334
0111101011001000: 631236 498833 570191 637912
0111101011001000: 631236 498833 570191 577334
0111101011001000: 631236 498833 570191 637912
0111101011001000: 631236 498833 570191 577334
0111101011001000: 631236 498833 570191 637912
0111101011001000: 631236 498833 570191 577334
0111101011001000: 631236 498833 570191 637912
0111101011001000: 631236 498833 570191 577334
0111101011001000: 631236 498833 570191 637912
0111101011001000: 631236 498833 570191 577334
0110101011010010: 498833 570191 631236 637912
0110101011010010: 498833 570191 631236 577334
0110101011010010: 498833 570191 631236 637912
0110101011010010: 498833 570191 631236 577334
0110101111000100: 498833 570191 631236 496371
0110101111000100: 498833 570191 631236 509118
0110101111000100: 498833 570191 631236 627327
0110101111000100: 498833 570191 631236 535445
0110101111000100: 498833 570191 631236 496371
0110101111000100: 498833 570191 631236 509118
0110101111000100: 498833 570191 631236 627327
0110101111000100: 498833 570191 631236 535445
0110101011010010: 498833 570191 631236 637912
0110101011010010: 498833 570191 631236 577334
0110101111000100: 498833 631236 570191 637912
0110101111000100: 498833 631236 570191 577334
0110101111000100: 498833 631236 570191 637912
0110101111000100: 498833 631236 570191 577334
0110101111000100: 498833 631236 570191 637912
0110101111000100: 498833 631236 570191 577334
0101101001001000: 570191 496371 490783 509118
0101101001001000: 570191 496371 490783 627327
0101101001001000: 570191 496371 490783 535445
0101101001001000: 570191 496371 490783 498833
0101101001001000: 570191 496371 490783 631236
0101101001001000: 570191 496371 637912 627327
0101101001001000: 570191 496371 637912 535445
0101101001001000: 570191 496371 637912 498833
0100101101000100: 570191 496371 637912 490783
0110100110010110: 570191 509118 496371 637912
0101101001001000: 570191 509118 637912 627327
0101101001001000: 570191 509118 637912 535445
0101101001001000: 570191 509118 637912 498833
0111100010001000: 570191 627327 509118 496371
0111100010001000: 570191 535445 509118 496371
0111100010001000: 570191 535445 627327 496371
0111100010001000: 570191 535445 627327 509118
0101101001001000: 570191 535445 480185 496371
0101101001001000: 570191 535445 480185 509118
0101101001001000: 570191 535445 480185 627327
0101101001001000: 570191 535445 480185 498833
0101101001001000: 570191 535445 480185 631236
0111100010001000: 570191 498833 509118 496371
0111100010001000: 570191 498833 627327 496371
0111100010001000: 570191 498833 627327 509118
0111100010001000: 570191 498833 535445 496371
0111100010001000: 570191 498833 535445 509118
0111100010001000: 570191 498833 535445 627327
0111101011001000: 570191 498833 631236 496371
0111101011001000: 570191 498833 631236 509118
0111101011001000: 570191 498833 631236 627327
0111101011001000: 570191 498833 631236 535445
0110100110010110: 570191 631236 496371 637912
0111100010001000: 570191 631236 509118 496371
0110100110010110: 570191 631236 509118 637912
0111100010001000: 570191 631236 627327 496371
0111100010001000: 570191 631236 627327 509118
0111100010001000: 570191 631236 535445 496371
0111100010001000: 570191 631236 535445 509118
0111100010001000: 570191 631236 535445 627327
0111101011001000: 570191 631236 498833 496371
0111101011001000: 570191 631236 498833 509118
0111101011001000: 570191 631236 498833 627327
0111101011001000: 570191 631236 498833 535445
0101101001001000: 570191 631236 637912 627327
0101101001001000: 570191 631236 637912 535445
0101101101001100: 570191 631236 637912 498833
0101101001001000: 570191 631236 577334 496371
0101101001001000: 570191 631236 577334 509118
0101101001001000: 570191 631236 577334 627327
0101101001001000: 570191 631236 577334 535445
0101101101001100: 570191 631236 577334 498833
0100101101000100: 570191 631236 577334 637912
0110100110000100: 570191 496371 509118 490783
0110100110010110: 570191 496371 509118 637912
0110100110010110: 570191 496371 509118 637912
0111100010001000: 570191 496371 627327 509118
0110100110000100: 570191 496371 627327 490783
0110100110000100: 570191 496371 627327 637912
0111100010001000: 570191 496371 535445 509118
0111100010001000: 570191 496371 535445 627327
0110100110000100: 570191 496371 535445 490783
0110100110000100: 570191 496371 535445 637912
0110100010010010: 570191 496371 535445 480185
0110100010010010: 570191 496371 535445 480185
0111100010001000: 570191 496371 498833 509118
0111100010001000: 570191 496371 498833 627327
0111100010001000: 570191 496371 498833 535445
0110100110000100: 570191 496371 498833 490783
0110100110000100: 570191 496371 498833 637912
0111100010011010: 570191 496371 498833 631236
0111100010001000: 570191 496371 631236 509118
0111100010001000: 570191 496371 631236 627327
0111100010001000: 570191 496371 631236 535445
0110100110000100: 570191 496371 631236 490783
0110100010010010: 570191 496371 631236 577334
0111100010011010: 570191 496371 631236 498833
0110100010010010: 570191 496371 631236 577334
0110100110010110: 570191 496371 631236 637912
0110100110010110: 570191 496371 631236 637912
0110100110000100: 570191 496371 509118 490783
0110100110000100: 570191 496371 509118 490783
0110100110000100: 570191 496371 509118 490783
0110100110010110: 570191 496371 509118 637912
0110100110000100: 570191 496371 627327 490783
0110100110000100: 570191 496371 627327 637912
0110100110000100: 570191 496371 627327 490783
0110100110000100: 570191 496371 627327 637912
0110100110000100: 570191 496371 627327 490783
0110100110000100: 570191 496371 627327 637912
0110100110000100: 570191 496371 535445 490783
0110100110000100: 570191 496371 535445 637912
0110100110000100: 570191 496371 535445 490783
0110100110000100: 570191 496371 535445 637912
0110100110000100: 570191 496371 535445 490783
0110100110000100: 570191 496371 535445 637912
0110100010010010: 570191 496371 535445 480185
0110100110000100: 570191 496371 498833 490783
0110100110000100: 570191 496371 498833 637912
0110100110000100: 570191 496371 498833 490783
0110100110000100: 570191 496371 498833 637912
0110100110000100: 570191 496371 498833 490783
0110100110000100: 570191 496371 498833 637912
0110100110000100: 570191 496371 631236 490783
0110100110000100: 570191 496371 631236 490783
0110100110000100: 570191 496371 631236 490783
0110100110010110: 570191 496371 631236 637912
0101101001001000: 570191 496371 490783 509118
0101101001001000: 570191 496371 490783 627327
0101101001001000: 570191 496371 490783 535445
0101101001001000: 570191 496371 490783 498833
0101101001001000: 570191 496371 490783 631236
0101101001001000: 570191 496371 637912 627327
0101101001001000: 570191 496371 637912 535445
0101101001001000: 570191 496371 637912 498833
0100101101000100: 570191 496371 637912 490783
0101101001011010: 570191 496371 637912 509118
0101101001011010: 570191 496371 637912 631236
0101101001011010: 570191 496371 637912 509118
0101101001011010: 570191 496371 637912 631236
0101101001011010: 570191 496371 637912 509118
0101101001011010: 570191 496371 637912 631236
0110100010010010: 570191 509118 496371 490783
0110100010010010: 570191 509118 496371 490783
0110100110010110: 570191 509118 496371 637912
0110100110010110: 570191 509118 496371 637912
0111100010001000: 570191 509118 627327 496371
0110100110000100: 570191 509118 627327 637912
0111100010001000: 570191 509118 535445 496371
0111100010001000: 570191 509118 535445 627327
0110100110000100: 570191 509118 535445 637912
0110100010010010: 570191 509118 535445 480185
0110100010010010: 570191 509118 535445 480185
0111100010001000: 570191 509118 498833 496371
0111100010001000: 570191 509118 498833 627327
0111100010001000: 570191 509118 498833 535445
0110100110000100: 570191 509118 498833 637912
0111100010011010: 570191 509118 498833 631236
0111100010001000: 570191 509118 631236 496371
0111100010001000: 570191 509118 631236 627327
0111100010001000: 570191 509118 631236 535445
0110100010010010: 570191 509118 631236 577334
0111100010011010: 570191 509118 631236 498833
0110100010010010: 570191 509118 631236 577334
0110100110010110: 570191 509118 631236 637912
0110100110010110: 570191 509118 631236 637912
0111100010001000: 570191 509118 496371 627327
0111100010001000: 570191 509118 496371 535445
0111100010001000: 570191 509118 496371 498833
0111100010001000: 570191 509118 496371 631236
0110100110010110: 570191 509118 496371 637912
0110100110010110: 570191 509118 496371 637912
0110100110010110: 570191 509118 496371 637912
0110100110000100: 570191 509118 627327 637912
0110100110000100: 570191 509118 627327 637912
0110100110000100: 570191 509118 627327 637912
0110100110000100: 570191 509118 535445 637912
0110100110000100: 570191 509118 535445 637912
0110100110000100: 570191 509118 535445 637912
0110100110000100: 570191 509118 498833 637912
0110100110000100: 570191 509118 498833 637912
0110100110000100: 570191 509118 498833 637912
0110100110010110: 570191 509118 631236 637912
0101101001001000: 570191 509118 637912 627327
0101101001001000: 570191 509118 637912 535445
0101101001001000: 570191 509118 637912 498833
0101101001011010: 570191 509118 637912 496371
0101101001011010: 570191 509118 637912 631236
0101101001011010: 570191 509118 637912 496371
0101101001011010: 570191 509118 637912 631236
0101101001011010: 570191 509118 637912 496371
0101101001011010: 570191 509118 637912 631236
0110100010010010: 570191 627327 496371 490783
0110100010010010: 570191 627327 496371 637912
0110100010010010: 570191 627327 496371 490783
0110100010010010: 570191 627327 496371 637912
0111100010001000: 570191 627327 509118 496371
0110100010010010: 570191 627327 509118 637912
0110100010010010: 570191 627327 509118 637912
0111100010001000: 570191 627327 535445 496371
0111100010001000: 570191 627327 535445 509118
0110100010010010: 570191 627327 535445 480185
0110100010010010: 570191 627327 535445 480185
0111100010001000: 570191 627327 498833 496371
0111100010001000: 570191 627327 498833 509118
0111100010001000: 570191 627327 498833 535445
0111100010011010: 570191 627327 498833 631236
0111100010001000: 570191 627327 631236 496371
0111100010001000: 570191 627327 631236 509118
0111100010001000: 570191 627327 631236 535445
0110100010010010: 570191 627327 631236 637912
0110100010010010: 570191 627327 631236 577334
0111100010011010: 570191 627327 631236 498833
0110100010010010: 570191 627327 631236 637912
0110100010010010: 570191 627327 631236 577334
0111100010001000: 570191 627327 496371 509118
0111100010001000: 570191 627327 496371 535445
0111100010001000: 570191 627327 496371 498833
0111100010001000: 570191 627327 496371 631236
0111100010001000: 570191 627327 509118 496371
0111100010001000: 570191 627327 509118 535445
0111100010001000: 570191 627327 509118 498833
0111100010001000: 570191 627327 509118 631236
0111100010001000: 570191 627327 509118 496371
0110100110000100: 570191 535445 496371 480185
0110100010010010: 570191 535445 496371 490783
0110100010010010: 570191 535445 496371 637912
0110100010010010: 570191 535445 496371 490783
0110100010010010: 570191 535445 496371 637912
0111100010001000: 570191 535445 509118 496371
0110100110000100: 570191 535445 509118 480185
0110100010010010: 570191 535445 509118 637912
0110100010010010: 570191 535445 509118 637912
0111100010001000: 570191 535445 627327 496371
0111100010001000: 570191 535445 627327 509118
0110100110000100: 570191 535445 627327 480185
0111100010001000: 570191 535445 498833 496371
0111100010001000: 570191 535445 498833 509118
0111100010001000: 570191 535445 498833 627327
0110100110000100: 570191 535445 498833 480185
0111100010011010: 570191 535445 498833 631236
0111100010001000: 570191 535445 631236 496371
0111100010001000: 570191 535445 631236 509118
0111100010001000: 570191 535445 631236 627327
0110100110000100: 570191 535445 631236 480185
0110100010010010: 570191 535445 631236 637912
0110100010010010: 570191 535445 631236 577334
0111100010011010: 570191 535445 631236 498833
0110100010010010: 570191 535445 631236 637912
0110100010010010: 570191 535445 631236 577334
0111100010001000: 570191 535445 496371 509118
0111100010001000: 570191 535445 496371 627327
0111100010001000: 570191 535445 496371 498833
0111100010001000: 570191 535445 496371 631236
0110100110000100: 570191 535445 496371 480185
0110100110000100: 570191 535445 496371 480185
0110100110000100: 570191 535445 496371 480185
0111100010001000: 570191 535445 509118 496371
0111100010001000: 570191 535445 509118 627327
0111100010001000: 570191 535445 509118 498833
0111100010001000: 570191 535445 509118 631236
0111100010001000: 570191 535445 509118 496371
0110100110000100: 570191 535445 509118 480185
0110100110000100: 570191 535445 509118 480185
0110100110000100: 570191 535445 509118 480185
0111100010001000: 570191 535445 627327 496371
0111100010001000: 570191 535445 627327 509118
0111100010001000: 570191 535445 627327 498833
0111100010001000: 570191 535445 627327 631236
0111100010001000: 570191 535445 627327 496371
0111100010001000: 570191 535445 627327 509118
0110100110000100: 570191 535445 627327 480185
0110100110000100: 570191 535445 627327 480185
0110100110000100: 570191 535445 627327 480185
0110100110000100: 570191 535445 498833 480185
0110100110000100: 570191 535445 498833 480185
0110100110000100: 570191 535445 498833 480185
0110100110000100: 570191 535445 631236 480185
0110100110000100: 570191 535445 631236 480185
0110100110000100: 570191 535445 631236 480185
0101101001001000: 570191 535445 480185 496371
0101101001001000: 570191 535445 480185 509118
0101101001001000: 570191 535445 480185 627327
0101101001001000: 570191 535445 480185 498833
0101101001001000: 570191 535445 480185 631236
0100101001010010: 570191 535445 480185 645529
0100101001010010: 570191 535445 480185 645529
0100101001010010: 570191 535445 480185 645529
0110100010010010: 570191 498833 496371 490783
0110100010010010: 570191 498833 496371 637912
0110100010010010: 570191 498833 496371 490783
0110100010010010: 570191 498833 496371 637912
0111100010001000: 570191 498833 509118 496371
0110100010010010: 570191 498833 509118 637912
0110100010010010: 570191 498833 509118 637912
0111100010001000: 570191 498833 627327 496371
0111100010001000: 570191 498833 627327 509118
0111100010001000: 570191 498833 535445 496371
0111100010001000: 570191 498833 535445 509118
0111100010001000: 570191 498833 535445 627327
0110100010010010: 570191 498833 535445 480185
0110100010010010: 570191 498833 535445 480185
0111100010001000: 570191 498833 496371 509118
0111100010001000: 570191 498833 496371 627327
0111100010001000: 570191 498833 496371 535445
0111100110001100: 570191 498833 496371 631236
0111100010001000: 570191 498833 509118 496371
0111100010001000: 570191 498833 509118 627327
0111100010001000: 570191 498833 509118 535445
0111100010001000: 570191 498833 509118 496371
0111100110001100: 570191 498833 509118 631236
0111100010001000: 570191 498833 627327 496371
0111100010001000: 570191 498833 627327 509118
0111100010001000: 570191 498833 627327 535445
0111100010001000: 570191 498833 627327 496371
0111100010001000: 570191 498833 627327 509118
0111100110001100: 570191 498833 627327 631236
0111100010001000: 570191 498833 535445 496371
0111100010001000: 570191 498833 535445 509118
0111100010001000: 570191 498833 535445 627327
0111100010001000: 570191 498833 535445 496371
0111100010001000: 570191 498833 535445 509118
0111100010001000: 570191 498833 535445 627327
0111100110001100: 570191 498833 535445 631236
0111101011001000: 570191 498833 631236 496371
0111101011001000: 570191 498833 631236 509118
0111101011001000: 570191 498833 631236 627327
0111101011001000: 570191 498833 631236 535445
0110101011010010: 570191 498833 631236 637912
0110101011010010: 570191 498833 631236 577334
0110101011010010: 570191 498833 631236 637912
0110101011010010: 570191 498833 631236 577334
0111101011001000: 570191 498833 631236 496371
0111101011001000: 570191 498833 631236 509118
0111101011001000: 570191 498833 631236 627327
0111101011001000: 570191 498833 631236 535445
0111101011001000: 570191 498833 631236 496371
0111101011001000: 570191 498833 631236 509118
0111101011001000: 570191 498833 631236 627327
0111101011001000: 570191 498833 631236 535445
0110100010010010: 570191 631236 496371 490783
0110100010010010: 570191 631236 496371 490783
0110100110010110: 570191 631236 496371 637912
0111100010001000: 570191 631236 509118 496371
0110100110010110: 570191 631236 509118 637912
0111100010001000: 570191 631236 627327 496371
0111100010001000: 570191 631236 627327 509118
0111100010001000: 570191 631236 535445 496371
0111100010001000: 570191 631236 535445 509118
0111100010001000: 570191 631236 535445 627327
0110100010010010: 570191 631236 535445 480185
0110100010010010: 570191 631236 535445 480185
0111100010001000: 570191 631236 496371 509118
0111100010001000: 570191 631236 496371 627327
0111100010001000: 570191 631236 496371 535445
0110100110000100: 570191 631236 496371 577334
0111100110001100: 570191 631236 496371 498833
0110100110000100: 570191 631236 496371 577334
0110100110010110: 570191 631236 496371 637912
0110100010010010: 570191 631236 496371 490783
0110100110010110: 570191 631236 496371 637912
0111100010001000: 570191 631236 509118 496371
0111100010001000: 570191 631236 509118 627327
0111100010001000: 570191 631236 509118 535445
0111100010001000: 570191 631236 509118 496371
0110100110000100: 570191 631236 509118 577334
0111100110001100: 570191 631236 509118 498833
0110100110000100: 570191 631236 509118 577334
0110100110010110: 570191 631236 509118 637912
0110100110010110: 570191 631236 509118 637912
0111100010001000: 570191 631236 627327 496371
0111100010001000: 570191 631236 627327 509118
0111100010001000: 570191 631236 627327 535445
0111100010001000: 570191 631236 627327 496371
0111100010001000: 570191 631236 627327 509118
0110100110000100: 570191 631236 627327 637912
0110100110000100: 570191 631236 627327 577334
0111100110001100: 570191 631236 627327 498833
0110100110000100: 570191 631236 627327 637912
0110100110000100: 570191 631236 627327 577334
0111100010001000: 570191 631236 535445 496371
0111100010001000: 570191 631236 535445 509118
0111100010001000: 570191 631236 535445 627327
0111100010001000: 570191 631236 535445 496371
0111100010001000: 570191 631236 535445 509118
0111100010001000: 570191 631236 535445 627327
0110100110000100: 570191 631236 535445 637912
0110100110000100: 570191 631236 535445 577334
0111100110001100: 570191 631236 535445 498833
0110100110000100: 570191 631236 535445 637912
0110100110000100: 570191 631236 535445 577334
0110100010010010: 570191 631236 535445 480185
0111101011001000: 570191 631236 498833 496371
0111101011001000: 570191 631236 498833 509118
0111101011001000: 570191 631236 498833 627327
0111101011001000: 570191 631236 498833 535445
0101101001001000: 570191 631236 637912 627327
0101101001001000: 570191 631236 637912 535445
0101101101001100: 570191 631236 637912 498833
0101101001011010: 570191 631236 637912 496371
0101101001011010: 570191 631236 637912 509118
0101101001011010: 570191 631236 637912 496371
0101101001011010: 570191 631236 637912 509118
0101101001011010: 570191 631236 637912 496371
0101101001011010: 570191 631236 637912 509118
0101101001011010: 570191 631236 637912 496371
0101101001011010: 570191 631236 637912 509118
0101101001001000: 570191 631236 577334 496371
0101101001001000: 570191 631236 577334 509118
0101101001001000: 570191 631236 577334 627327
0101101001001000: 570191 631236 577334 535445
0100101001010010: 570191 631236 577334 645529
0100101001010010: 570191 631236 577334 645529
0101101101001100: 570191 631236 577334 498833
0100101101000100: 570191 631236 577334 637912
0100101001010010: 570191 631236 577334 645529
0100101001010010: 570191 631236 577334 645529
0111101011001000: 570191 631236 498833 496371
0111101011001000: 570191 631236 498833 509118
0111101011001000: 570191 631236 498833 627327
0111101011001000: 570191 631236 498833 535445
0111101011001000: 570191 631236 498833 496371
0111101011001000: 570191 631236 498833 509118
0111101011001000: 570191 631236 498833 627327
0111101011001000: 570191 631236 498833 535445
0110101111000100: 570191 631236 498833 637912
0110101111000100: 570191 631236 498833 577334
0110101111000100: 570191 631236 498833 637912
0110101111000100: 570191 631236 498833 577334
0110101111000100: 570191 631236 498833 637912
0110101111000100: 570191 631236 498833 577334
0111101011001000: 570191 631236 498833 496371
0111101011001000: 570191 631236 498833 509118
0111101011001000: 570191 631236 498833 627327
0111101011001000: 570191 631236 498833 535445
0111101011001000: 570191 631236 498833 496371
0111101011001000: 570191 631236 498833 509118
0111101011001000: 570191 631236 498833 627327
0111101011001000: 570191 631236 498833 535445
0110101111000100: 570191 631236 498833 637912
0110101111000100: 570191 631236 498833 577334
0110100110000100: 535445 480185 570191 645529
0110100010010010: 535445 480185 570191 496371
0110100010010010: 535445 480185 570191 509118
0110100010010010: 535445 480185 570191 627327
0110100010010010: 535445 480185 570191 498833
0110100010010010: 535445 480185 570191 631236
0110100110000100: 535445 480185 570191 645529
0110100110000100: 535445 480185 570191 645529
0110100110000100: 535445 480185 570191 645529
0110100110000100: 535445 480185 570191 645529
0110100110000100: 535445 480185 570191 645529
0110100010010010: 535445 570191 480185 645529
0110100110000100: 535445 570191 480185 496371
0110100110000100: 535445 570191 480185 509118
0110100110000100: 535445 570191 480185 627327
0110100110000100: 535445 570191 480185 498833
0110100110000100: 535445 570191 480185 631236
0110100010010010: 535445 570191 480185 645529
0110100110000100: 535445 570191 480185 496371
0110100110000100: 535445 570191 480185 509118
0110100110000100: 535445 570191 480185 627327
0110100110000100: 535445 570191 480185 498833
0110100110000100: 535445 570191 480185 631236
0110100110000100: 535445 570191 480185 496371
0110100110000100: 535445 570191 480185 509118
0110100110000100: 535445 570191 480185 627327
0110100110000100: 535445 570191 480185 498833
0110100110000100: 535445 570191 480185 631236
0110100010010010: 535445 570191 480185 645529
0110100110000100: 645529 480185 577334 535445
0110100010010010: 645529 480185 577334 631236
0110100110000100: 645529 480185 577334 535445
0110100110000100: 645529 480185 577334 535445
0110100110000100: 645529 480185 577334 535445
0110100110000100: 645529 480185 577334 535445
0110100110000100: 645529 480185 577334 535445
0110100110000100: 645529 577334 480185 631236
0110100010010010: 645529 577334 480185 535445
0110100110000100: 645529 577334 480185 631236
0110100110000100: 645529 577334 480185 631236
0110100110000100: 645529 577334 480185 631236
0110100110000100: 645529 577334 480185 631236
0110100110000100: 645529 577334 480185 631236
0110100010010010: 577334 645529 631236 637912
0110100010010010: 577334 645529 631236 570191
0110100010010010: 577334 645529 631236 498833
0110100110000100: 577334 645529 631236 480185
0110100110000100: 577334 645529 631236 480185
0110100110000100: 577334 645529 631236 480185
0110100110000100: 577334 645529 631236 480185
0110100010010010: 577334 631236 645529 480185
0110100110000100: 577334 631236 645529 637912
0110100110000100: 577334 631236 645529 570191
0110100110000100: 577334 631236 645529 498833
0110100010010010: 577334 631236 645529 480185
0110100110000100: 577334 631236 645529 637912
0110100110000100: 577334 631236 645529 570191
0110100110000100: 577334 631236 645529 498833
0110100110000100: 577334 631236 645529 637912
0110100110000100: 577334 631236 645529 570191
0110100110000100: 577334 631236 645529 498833
0110100010010010: 577334 631236 645529 480185
0110100110010110: 637912 509118 496371 570191
0110100110010110: 637912 631236 496371 570191
0111100010001000: 637912 631236 509118 496371
0110100110010110: 637912 631236 509118 570191
0110100110000100: 637912 496371 509118 490783
0110100110010110: 637912 496371 509118 570191
0110100110010110: 637912 496371 509118 570191
0111100010001000: 637912 496371 631236 509118
0110100110000100: 637912 496371 631236 490783
0110100010010010: 637912 496371 631236 577334
0110100010010010: 637912 496371 631236 498833
0110100110010110: 637912 496371 631236 570191
0110100110010110: 637912 496371 631236 570191
0110100110000100: 637912 496371 509118 490783
0110100110000100: 637912 496371 509118 490783
0110100110010110: 637912 496371 509118 570191
0110100110000100: 637912 496371 631236 490783
0110100110000100: 637912 496371 631236 490783
0110100110010110: 637912 496371 631236 570191
0111100010001000: 637912 496371 509118 631236
0111100010001000: 637912 496371 509118 631236
0111100010001000: 637912 496371 631236 509118
0111100010001000: 637912 496371 631236 509118
0111100010001000: 637912 496371 631236 509118
0110100110000100: 637912 496371 509118 490783
0110100110000100: 637912 496371 509118 490783
0111100010001000: 637912 496371 509118 631236
0110100110010110: 637912 496371 509118 570191
0110100110010110: 637912 496371 509118 570191
0110100110000100: 637912 496371 631236 490783
0110100110000100: 637912 496371 631236 490783
0111100010001000: 637912 496371 631236 509118
0111100010001000: 637912 496371 631236 509118
0110100110010110: 637912 496371 631236 570191
0110100110000100: 637912 496371 631236 490783
0110100010010010: 637912 509118 496371 490783
0110100110010110: 637912 509118 496371 570191
0110100110010110: 637912 509118 496371 570191
0111100010001000: 637912 509118 631236 496371
0110100010010010: 637912 509118 631236 577334
0110100010010010: 637912 509118 631236 498833
0110100110010110: 637912 509118 631236 570191
0110100110010110: 637912 509118 631236 570191
0111100010001000: 637912 509118 496371 631236
0110100110010110: 637912 509118 496371 570191
0110100110010110: 637912 509118 496371 570191
0110100110010110: 637912 509118 631236 570191
0100101001010010: 637912 509118 570191 627327
0100101001010010: 637912 509118 570191 535445
0100101001010010: 637912 509118 570191 498833
0100101001010010: 637912 509118 570191 627327
0100101001010010: 637912 509118 570191 535445
0100101001010010: 637912 509118 570191 498833
0101101001011010: 637912 509118 570191 496371
0101101001011010: 637912 509118 570191 631236
0101101001011010: 637912 509118 570191 496371
0101101001011010: 637912 509118 570191 631236
0101101001011010: 637912 509118 570191 496371
0101101001011010: 637912 509118 570191 631236
0110100010010010: 637912 631236 496371 490783
0110100110010110: 637912 631236 496371 570191
0111100010001000: 637912 631236 509118 496371
0110100110010110: 637912 631236 509118 570191
0111100010001000: 637912 631236 496371 509118
0110100110000100: 637912 631236 496371 577334
0110100110000100: 637912 631236 496371 498833
0110100110010110: 637912 631236 496371 570191
0110100010010010: 637912 631236 496371 490783
0110100110010110: 637912 631236 496371 570191
0111100010001000: 637912 631236 509118 496371
0111100010001000: 637912 631236 509118 496371
0110100110000100: 637912 631236 509118 577334
0110100110000100: 637912 631236 509118 498833
0110100110010110: 637912 631236 509118 570191
0110100110010110: 637912 631236 509118 570191
0111100010001000: 637912 631236 496371 509118
0111100010001000: 637912 631236 496371 509118
0111100010001000: 637912 631236 496371 509118
0111100010001000: 637912 631236 509118 496371
0111100010001000: 637912 631236 509118 496371
0110100110000100: 637912 631236 496371 577334
0110100110000100: 637912 631236 496371 498833
0110100110000100: 637912 631236 496371 577334
0110100110000100: 637912 631236 496371 498833
0111100010001000: 637912 631236 496371 509118
0110100010010010: 637912 631236 496371 490783
0110100110010110: 637912 631236 496371 570191
0110100110000100: 637912 631236 509118 577334
0110100110000100: 637912 631236 509118 498833
0110100110000100: 637912 631236 509118 577334
0110100110000100: 637912 631236 509118 498833
0111100010001000: 637912 631236 509118 496371
0111100010001000: 637912 631236 509118 496371
0110100110010110: 637912 631236 509118 570191
0110100110010110: 637912 631236 509118 570191
0110100110010110: 509118 570191 637912 496371
0110100110010110: 509118 570191 637912 631236
0110100010010010: 509118 637912 570191 627327
0110100010010010: 509118 637912 570191 535445
0110100010010010: 509118 637912 570191 498833
0110100110010110: 509118 637912 570191 496371
0110100110010110: 509118 637912 570191 631236
0110100110010110: 509118 637912 570191 496371
0110100110010110: 509118 637912 570191 631236
0110100110010110: 509118 637912 570191 496371
0110100110010110: 509118 637912 570191 631236
0110100110010110: 509118 570191 637912 496371
0110100110010110: 509118 570191 637912 631236
0110100110000100: 509118 570191 637912 627327
0110100110000100: 509118 570191 637912 535445
0110100110000100: 509118 570191 637912 498833
0110100110010110: 509118 570191 637912 496371
0110100110010110: 509118 570191 637912 631236
0110100110010110: 509118 570191 637912 496371
0110100110010110: 509118 570191 637912 631236
0110100110000100: 509118 570191 637912 627327
0110100110000100: 509118 570191 637912 535445
0110100110000100: 509118 570191 637912 498833
0110100110000100: 509118 570191 637912 627327
0110100110000100: 509118 570191 637912 535445
0110100110000100: 509118 570191 637912 498833
0110100110010110: 509118 570191 637912 496371
0110100110010110: 509118 570191 637912 631236
0110100010010010: 480185 645529 535445 570191
0110100110000100: 480185 645529 535445 577334
0110100110000100: 480185 645529 535445 577334
0110100110000100: 480185 645529 535445 577334
0110100110000100: 480185 645529 535445 577334
0110100010010010: 480185 535445 645529 577334
0110100110000100: 480185 535445 645529 570191
0110100110000100: 480185 535445 645529 570191
0110100110000100: 480185 535445 645529 570191
0110100110000100: 480185 535445 645529 570191
0111100010001000: 496371 570191 637912 490783
0110100110010110: 496371 570191 637912 509118
0110100110010110: 496371 570191 637912 631236
0110100010010010: 496371 490783 637912 509118
0110100010010010: 496371 490783 637912 631236
0111100010001000: 496371 490783 570191 637912
0110100010010010: 496371 490783 570191 509118
0110100010010010: 496371 490783 570191 627327
0110100010010010: 496371 490783 570191 535445
0110100010010010: 496371 490783 570191 498833
0110100010010010: 496371 490783 570191 631236
0111100010001000: 496371 637912 570191 490783
0110100010010010: 496371 637912 570191 627327
0110100010010010: 496371 637912 570191 535445
0110100010010010: 496371 637912 570191 498833
0110100110010110: 496371 637912 570191 509118
0110100110010110: 496371 637912 570191 631236
0111100010001000: 496371 637912 490783 570191
0110100110000100: 496371 637912 490783 509118
0110100110000100: 496371 637912 490783 631236
0110100110010110: 496371 637912 570191 509118
0110100110010110: 496371 637912 570191 631236
0111100010001000: 496371 637912 490783 570191
0111100010001000: 496371 637912 490783 570191
0111100010001000: 496371 637912 570191 490783
0111100010001000: 496371 637912 570191 490783
0111100010001000: 496371 637912 570191 490783
0110100110000100: 496371 637912 490783 509118
0110100110000100: 496371 637912 490783 631236
0110100110000100: 496371 637912 490783 509118
0110100110000100: 496371 637912 490783 631236
0111100010001000: 496371 637912 490783 570191
0111100010001000: 496371 637912 570191 490783
0111100010001000: 496371 637912 570191 490783
0110100110010110: 496371 637912 570191 509118
0110100110010110: 496371 637912 570191 631236
0111100010001000: 496371 570191 637912 490783
0110100110010110: 496371 570191 637912 509118
0110100110010110: 496371 570191 637912 631236
0111100010001000: 496371 570191 490783 637912
0110100110000100: 496371 570191 490783 509118
0110100110000100: 496371 570191 490783 627327
0110100110000100: 496371 570191 490783 535445
0110100110000100: 496371 570191 490783 498833
0110100110000100: 496371 570191 490783 631236
0111100010001000: 496371 570191 637912 490783
0111100010001000: 496371 570191 637912 490783
0110100110000100: 496371 570191 637912 627327
0110100110000100: 496371 570191 637912 535445
0110100110000100: 496371 570191 637912 498833
0110100110010110: 496371 570191 637912 509118
0110100110010110: 496371 570191 637912 631236
0110100110010110: 496371 570191 637912 509118
0110100110010110: 496371 570191 637912 631236
0111100010001000: 496371 570191 490783 637912
0111100010001000: 496371 570191 490783 637912
0111100010001000: 496371 570191 637912 490783
0111100010001000: 496371 570191 637912 490783
0111100010001000: 496371 570191 637912 490783
0110100110000100: 496371 570191 490783 509118
0110100110000100: 496371 570191 490783 627327
0110100110000100: 496371 570191 490783 535445
0110100110000100: 496371 570191 490783 498833
0110100110000100: 496371 570191 490783 631236
0110100110000100: 496371 570191 490783 509118
0110100110000100: 496371 570191 490783 627327
0110100110000100: 496371 570191 490783 535445
0110100110000100: 496371 570191 490783 498833
0110100110000100: 496371 570191 490783 631236
0111100010001000: 496371 570191 490783 637912
0110100110000100: 496371 570191 637912 627327
0110100110000100: 496371 570191 637912 535445
0110100110000100: 496371 570191 637912 498833
0110100110000100: 496371 570191 637912 627327
0110100110000100: 496371 570191 637912 535445
0110100110000100: 496371 570191 637912 498833
0111100010001000: 496371 570191 637912 490783
0111100010001000: 496371 570191 637912 490783
0110100110010110: 496371 570191 637912 509118
0110100110010110: 496371 570191 637912 631236
