0110010010100010100000100: 501440 575751 592080 657389 633030
0110010010100010100100110: 501440 575751 592080 657389 587163
0110010010100010100000100: 501440 538002 592080 478738 633030
0110010010100010100000100: 501440 538002 592080 478738 587163
0110010011100000100001000: 501440 538002 592080 657389 478738
0110010010100010100000100: 501440 538002 592080 657389 633030
0110010010100010100100110: 501440 538002 592080 657389 587163
0110010011100100110001000: 501440 538002 575751 657389 478738
0110010011100000100001000: 501440 538002 654464 657389 478738
0111010101110001000001000: 501440 538002 512656 592080 478738
0111010101110001000001000: 501440 538002 512656 592080 657389
0111010101110001000001000: 501440 538002 512656 575751 478738
0111010101110001000101010: 501440 538002 512656 575751 657389
0110010010100010100100110: 501440 512656 592080 593884 587163
0110010011100000100001000: 501440 512656 592080 623920 593884
0110010010100010100000100: 501440 512656 592080 623920 587163
0110010011100100110001000: 501440 512656 592080 633030 623920
0110010010100010100000100: 501440 512656 575751 593884 657389
0110010010100010100000100: 501440 512656 575751 633030 657389
0110010011100000100001000: 501440 512656 575751 623920 593884
0110010011100000100001000: 501440 512656 575751 623920 633030
0110010010100010100000100: 501440 512656 575751 623920 657389
0111010101110001000001000: 501440 512656 538002 592080 593884
0111010101110001000001000: 501440 512656 538002 592080 623920
0111010100110001000100010: 501440 512656 538002 592080 587163
0111010101110001000101010: 501440 512656 538002 592080 633030
0111110100110001000010000: 501440 512656 538002 575751 592080
0111010101110001000001000: 501440 512656 538002 575751 593884
0111010101110001000001000: 501440 512656 538002 575751 633030
0111010101110001000001000: 501440 512656 538002 575751 623920
0111010110110011100000100: 501440 512656 538002 654464 478738
0111010110110011100000100: 501440 512656 538002 654464 657389
0111010101110001000001000: 501440 512656 654464 592080 623920
0111010101110001000101010: 501440 512656 654464 592080 633030
0111010101110001000001000: 501440 512656 654464 575751 633030
0111010101110001000001000: 501440 512656 654464 575751 623920
0111110110110001100010000: 501440 512656 654464 538002 592080
0111110110110001100010000: 501440 512656 654464 538002 575751
0111010110110011100000100: 501440 512656 654464 538002 618615
0111010110110011100000100: 501440 512656 654464 538002 512090
0111010110110011100000100: 501440 512656 654464 538002 587163
0110010010100010100100110: 501440 654464 592080 593884 633030
0110010011100000100001000: 501440 654464 592080 618615 593884
0110010010100010100000100: 501440 654464 592080 618615 633030
0110010011100000100001000: 501440 654464 592080 512090 618615
0110010010100010100000100: 501440 654464 592080 512090 633030
0110010011100100110001000: 501440 654464 592080 587163 618615
0110010010100010100000100: 501440 654464 575751 593884 657389
0110010011100000100001000: 501440 654464 575751 618615 593884
0110010010100010100000100: 501440 654464 575751 618615 657389
0110010011100000100001000: 501440 654464 575751 512090 618615
0110010010100010100000100: 501440 654464 575751 512090 657389
0110010011100000100001000: 501440 654464 575751 587163 618615
0110010010100010100100110: 501440 654464 575751 587163 657389
0111110000100001000010000: 501440 654464 538002 575751 592080
0110010010100010100000100: 501440 654464 538002 593884 478738
0110010010100010100000100: 501440 654464 538002 593884 657389
0110010011100000100001000: 501440 654464 538002 618615 593884
0110010010100010100000100: 501440 654464 538002 618615 478738
0110010010100010100000100: 501440 654464 538002 618615 657389
0110010011100000100001000: 501440 654464 538002 512090 618615
0110010010100010100000100: 501440 654464 538002 512090 478738
0110010010100010100000100: 501440 654464 538002 512090 657389
0110010011100000100001000: 501440 654464 538002 587163 618615
0110010010100010100000100: 501440 654464 538002 587163 478738
0110010010100010100100110: 501440 654464 538002 587163 657389
0111010101110001000001000: 501440 654464 512656 592080 618615
0111010101110001000001000: 501440 654464 512656 592080 512090
0111010101110001000101010: 501440 654464 512656 592080 587163
0111110100110001000010000: 501440 654464 512656 575751 592080
0111010101110001000001000: 501440 654464 512656 575751 618615
0111010101110001000001000: 501440 654464 512656 575751 512090
0111010101110001000001000: 501440 654464 512656 575751 587163
0111010100110001000100010: 501440 654464 512656 575751 657389
0110010011100000100001000: 654464 593884 618615 574828 633030
0110010011100000100001000: 654464 593884 501440 574828 633030
0111010101110001000001000: 654464 593884 512656 618615 574828
0111010110110011100000100: 654464 593884 512656 512090 538002
0111010110110011100000100: 654464 593884 512656 512090 623920
0111010110110011100000100: 654464 593884 512656 587163 538002
0111010110110011100000100: 654464 593884 512656 587163 623920
0111010101110001000001000: 654464 593884 512090 618615 633030
0111010101110001000001000: 654464 593884 512090 618615 574828
0111010101110001000001000: 654464 593884 512090 501440 633030
0111010101110001000001000: 654464 593884 512090 501440 574828
0111110110110001100010000: 654464 593884 512090 512656 618615
0111010101110001000001000: 654464 593884 587163 618615 574828
0111010101110001000001000: 654464 593884 587163 501440 574828
0111110110110001100010000: 654464 593884 587163 512656 618615
0111010110110011100000100: 654464 593884 587163 512656 592080
0111010110110011100000100: 654464 593884 587163 512656 657389
0111110111110101110011000: 654464 593884 587163 512090 512656
0110010010100010100000100: 654464 618615 593884 474857 574828
0110010010100010100100110: 654464 618615 593884 474857 633030
0110010011100000100001000: 654464 618615 593884 457777 474857
0110010010100010100000100: 654464 618615 593884 457777 633030
0110010010100010100100110: 654464 618615 593884 457777 574828
0110010011100000100001000: 654464 618615 512656 457777 474857
0110010011100000100001000: 654464 618615 512090 457777 474857
0110010011100000100001000: 654464 618615 587163 457777 474857
0110010011100000100001000: 654464 618615 501440 457777 474857
0110010010100010100000100: 654464 512656 618615 538002 474857
0110010010100010100000100: 654464 512656 618615 538002 457777
0110010011100000100001000: 654464 512656 618615 633030 538002
0110010010100010100000100: 654464 512656 618615 633030 457777
0110010010100010100100110: 654464 512656 618615 633030 474857
0110010011100000100001000: 654464 512656 618615 623920 538002
0110010011100000100001000: 654464 512656 618615 623920 633030
0110010010100010100000100: 654464 512656 618615 623920 474857
0110010010100010100000100: 654464 512656 618615 623920 457777
0110010011100000100001000: 654464 512656 512090 633030 538002
0110010011100000100001000: 654464 512656 512090 623920 538002
0110010011100000100001000: 654464 512656 512090 623920 633030
0110010011100000100001000: 654464 512656 587163 623920 538002
0110010011100100110001000: 654464 512656 587163 633030 538002
0110010011100100110001000: 654464 512656 587163 633030 623920
0111010101110001000001000: 654464 512656 593884 618615 538002
0111010101110001000001000: 654464 512656 593884 618615 623920
0111010100110001000100010: 654464 512656 593884 618615 474857
0111010100110001000100010: 654464 512656 593884 618615 457777
0111110110110011100010100: 654464 512656 593884 501440 512090
0111110110110011100010100: 654464 512656 593884 501440 587163
0111010110110011100000100: 654464 512656 593884 501440 574828
0111010101110001000001000: 654464 512656 501440 618615 633030
0111010101110001000001000: 654464 512656 501440 618615 623920
0111010101110001000001000: 654464 512656 501440 512090 633030
0111010101110001000001000: 654464 512656 501440 512090 623920
0111010101110001000001000: 654464 512656 501440 587163 623920
0111010101110001000101010: 654464 512656 501440 587163 633030
0111110110110001100010000: 654464 512656 501440 593884 618615
0111010110110011100000100: 654464 512656 501440 593884 592080
0111010110110011100000100: 654464 512656 501440 593884 575751
0111010100110001000100010: 654464 512090 593884 618615 474857
0111010100110001000100010: 654464 512090 593884 618615 457777
0111110100110001000010000: 654464 512090 593884 501440 618615
0111010100110001000100010: 654464 512090 593884 501440 592080
0111010100110001000100010: 654464 512090 593884 501440 575751
0111010100110001000100010: 654464 512090 593884 501440 538002
0110010010100010100000100: 654464 587163 618615 592080 474857
0110010010100010100000100: 654464 587163 618615 592080 457777
0110010011100000100001000: 654464 587163 618615 657389 592080
0110010010100010100000100: 654464 587163 618615 657389 474857
0110010010100010100000100: 654464 587163 618615 657389 457777
0110010011100000100001000: 654464 587163 618615 633030 657389
0110010010100010100000100: 654464 587163 618615 633030 457777
0110010010100010100100110: 654464 587163 618615 633030 474857
0110010010100010100000100: 654464 587163 512656 592080 538002
0110010010100010100000100: 654464 587163 512656 592080 623920
0110010011100000100001000: 654464 587163 512656 657389 592080
0110010010100010100000100: 654464 587163 512656 657389 623920
0110010010100010100100110: 654464 587163 512656 657389 538002
0110010011100100110001000: 654464 587163 512656 633030 657389
0110010011100000100001000: 654464 587163 501440 633030 657389
0110010011100100110001000: 654464 587163 501440 592080 657389
0111010101110001000001000: 654464 587163 593884 618615 592080
0111010101110001000001000: 654464 587163 593884 618615 657389
0111010100110001000100010: 654464 587163 593884 618615 474857
0111010100110001000100010: 654464 587163 593884 618615 457777
0111110100110001000010000: 654464 587163 593884 501440 618615
0111010101110001000001000: 654464 587163 593884 501440 657389
0111010100110001000100010: 654464 587163 593884 501440 575751
0111010100110001000100010: 654464 587163 593884 501440 538002
0111010101110001000101010: 654464 587163 593884 501440 592080
0111010101110001000001000: 654464 587163 512090 618615 592080
0111010101110001000001000: 654464 587163 512090 618615 657389
0111010101110001000001000: 654464 587163 512090 618615 633030
0111010100110001000100010: 654464 587163 512090 618615 474857
0111010100110001000100010: 654464 587163 512090 618615 457777
0111110100110001000010000: 654464 587163 512090 512656 618615
0111010101110001000001000: 654464 587163 512090 512656 592080
0111010101110001000001000: 654464 587163 512090 512656 657389
0111010100110001000100010: 654464 587163 512090 512656 538002
0111010100110001000100010: 654464 587163 512090 512656 623920
0111010101110001000101010: 654464 587163 512090 512656 633030
0111110100110001000010000: 654464 587163 512090 501440 618615
0111010101110001000001000: 654464 587163 512090 501440 657389
0111010101110001000001000: 654464 587163 512090 501440 633030
0111010100110001000100010: 654464 587163 512090 501440 575751
0111010100110001000100010: 654464 587163 512090 501440 538002
0111010101110001000101010: 654464 587163 512090 501440 592080
0111110110110101110010000: 654464 587163 512090 593884 618615
0111110110110101110010000: 654464 587163 512090 593884 501440
0110010010100010100000100: 654464 501440 593884 592080 574828
0110010011100000100001000: 654464 501440 593884 575751 592080
0110010010100010100000100: 654464 501440 593884 575751 633030
0110010010100010100000100: 654464 501440 593884 575751 574828
0110010011100000100001000: 654464 501440 593884 538002 592080
0110010011100000100001000: 654464 501440 593884 538002 575751
0110010010100010100000100: 654464 501440 593884 538002 633030
0110010010100010100000100: 654464 501440 593884 538002 574828
0110010010100010100000100: 654464 501440 618615 592080 474857
0110010010100010100000100: 654464 501440 618615 592080 457777
0110010011100000100001000: 654464 501440 618615 575751 592080
0110010010100010100000100: 654464 501440 618615 575751 474857
0110010010100010100000100: 654464 501440 618615 575751 457777
0110010011100000100001000: 654464 501440 618615 538002 592080
0110010011100000100001000: 654464 501440 618615 538002 575751
0110010010100010100000100: 654464 501440 618615 538002 474857
0110010010100010100000100: 654464 501440 618615 538002 457777
0110010011100000100001000: 654464 501440 512090 575751 592080
0110010011100000100001000: 654464 501440 512090 538002 592080
0110010011100000100001000: 654464 501440 512090 538002 575751
0110010010100010100000100: 654464 501440 587163 575751 633030
0110010011100000100001000: 654464 501440 587163 538002 575751
0110010010100010100000100: 654464 501440 587163 538002 633030
0110010011100100110001000: 654464 501440 587163 592080 575751
0110010011100100110001000: 654464 501440 587163 592080 538002
0111010100110001000100010: 654464 501440 512656 618615 474857
0111010100110001000100010: 654464 501440 512656 618615 457777
0111110100110001000010000: 654464 501440 512656 512090 618615
0111110100110001000010000: 654464 501440 512656 587163 618615
0111010100110001000100010: 654464 501440 512656 587163 657389
0111110100110001000110010: 654464 501440 512656 587163 512090
0111010101110001000001000: 587163 592080 633030 657389 501440
0111010101110001000001000: 587163 592080 633030 512090 501440
0111010101110001000101010: 587163 592080 633030 654464 501440
0110010011100000100001000: 587163 593884 592080 574828 512656
0110010010100010100000100: 587163 593884 592080 574828 501440
0110010011100000100001000: 587163 593884 657389 574828 512656
0111010101110001000001000: 587163 593884 633030 657389 574828
0111010110110011100000100: 587163 593884 633030 512090 474857
0111010110110011100000100: 587163 593884 633030 654464 474857
0111010101110001000001000: 587163 593884 512090 592080 512656
0111010101110001000001000: 587163 593884 512090 592080 574828
0111010101110001000001000: 587163 593884 512090 657389 512656
0111010101110001000001000: 587163 593884 512090 657389 574828
0111110110110001100010000: 587163 593884 512090 633030 657389
0111010101110001000001000: 587163 593884 654464 592080 574828
0111010101110001000001000: 587163 593884 654464 657389 574828
0111110110110001100010000: 587163 593884 654464 633030 657389
0111010110110011100000100: 587163 593884 654464 633030 618615
0111010110110011100000100: 587163 593884 654464 633030 501440
0111110111110101110011000: 587163 593884 654464 512090 633030
0110010011100000100001000: 587163 657389 592080 538002 575751
0110010010100010100000100: 587163 657389 593884 575751 512656
0110010010100010100000100: 587163 657389 593884 575751 574828
0110010011100000100001000: 587163 657389 593884 538002 575751
0110010010100010100000100: 587163 657389 593884 538002 574828
0110010010100010100100110: 587163 657389 593884 538002 512656
0110010011100000100001000: 587163 657389 633030 538002 575751
0110010011100000100001000: 587163 657389 512090 538002 575751
0110010011100000100001000: 587163 657389 654464 538002 575751
0110010010100010100000100: 587163 633030 657389 474857 575751
0110010010100010100000100: 587163 633030 657389 474857 538002
0110010011100000100001000: 587163 633030 657389 512656 474857
0110010010100010100000100: 587163 633030 657389 512656 575751
0110010010100010100100110: 587163 633030 657389 512656 538002
0110010011100000100001000: 587163 633030 512090 512656 474857
0110010011100100110001000: 587163 633030 654464 512656 474857
0111010101110001000001000: 587163 633030 592080 657389 474857
0111010101110001000001000: 587163 633030 592080 657389 512656
0111010100110001000100010: 587163 633030 592080 657389 575751
0111010100110001000100010: 587163 633030 592080 657389 538002
0111110100110001000010000: 587163 633030 592080 512090 657389
0111010101110001000001000: 587163 633030 592080 512090 474857
0111010101110001000001000: 587163 633030 592080 512090 512656
0111110100110001000010000: 587163 633030 592080 654464 657389
0111010101110001000001000: 587163 633030 592080 654464 474857
0111010100110001000100010: 587163 633030 592080 654464 618615
0111010101110001000101010: 587163 633030 592080 654464 512656
0111010110110011100000100: 587163 633030 592080 593884 501440
0111010101110001000001000: 587163 633030 593884 657389 474857
0111010100110001000100010: 587163 633030 593884 657389 575751
0111010100110001000100010: 587163 633030 593884 657389 538002
0111110110110001100010000: 587163 633030 593884 592080 657389
0111110110110011100010100: 587163 633030 593884 592080 512090
0111110110110011100010100: 587163 633030 593884 592080 654464
0111010110110011100000100: 587163 633030 593884 592080 574828
0111010100110001000100010: 587163 512090 593884 592080 501440
0111110100110001000010000: 587163 512090 593884 657389 592080
0111010100110001000100010: 587163 512090 593884 657389 575751
0111010100110001000100010: 587163 512090 593884 657389 538002
0110010011100000100001000: 587163 654464 592080 512656 618615
0110010010100010100000100: 587163 654464 657389 618615 575751
0110010010100010100000100: 587163 654464 657389 618615 538002
0110010011100000100001000: 587163 654464 657389 512656 618615
0110010010100010100000100: 587163 654464 657389 512656 575751
0110010011100000100001000: 587163 654464 657389 501440 618615
0110010011100000100001000: 587163 654464 633030 501440 618615
0110010010100010100000100: 587163 654464 633030 501440 474857
0110010011100100110001000: 587163 654464 633030 512656 618615
0111110100110001000010000: 587163 654464 593884 657389 592080
0111010100110001000100010: 587163 654464 593884 657389 575751
0111010100110001000100010: 587163 654464 593884 657389 538002
0111110100110001000010000: 587163 654464 512090 657389 592080
0111010100110001000100010: 587163 654464 512090 657389 575751
0111010100110001000100010: 587163 654464 512090 657389 538002
0111110100110001000010000: 587163 654464 512090 633030 657389
0111010100110001000100010: 587163 654464 512090 633030 474857
0111110100110001000110010: 587163 654464 512090 633030 592080
0111110110110101110010000: 587163 654464 512090 593884 592080
0111110110110101110010000: 587163 654464 512090 593884 657389
0110010011100000100001000: 457777 618615 574828 654464 474857
0110010010100010100000100: 457777 574828 618615 593884 474857
0110010011100000100001000: 457777 574828 618615 478738 593884
0110010010100010100000100: 457777 574828 618615 478738 474857
0110010010100010100000100: 457777 574828 618615 478738 654464
0110010011100000100001000: 457777 574828 618615 623920 593884
0110010011100000100001000: 457777 574828 618615 623920 478738
0110010010100010100000100: 457777 574828 618615 623920 474857
0110010010100010100000100: 457777 574828 618615 623920 654464
0110010011100000100001000: 574828 593884 478738 512090 633030
0110010011100000100001000: 574828 593884 478738 512090 512656
0110010011100000100001000: 574828 593884 478738 587163 512656
0110010011100000100001000: 574828 593884 478738 654464 633030
0110010011100000100001000: 574828 593884 623920 512090 633030
0110010011100000100001000: 574828 593884 623920 654464 633030
0110010011100100110001000: 574828 593884 623920 512656 512090
0110010011100100110001000: 574828 593884 623920 512656 587163
0110010011100000100001000: 574828 593884 457777 512090 633030
0110010011100000100001000: 574828 593884 457777 512090 512656
0110010011100000100001000: 574828 593884 457777 587163 512656
0110010011100000100001000: 574828 593884 457777 654464 633030
0110010010100010100000100: 574828 478738 593884 538002 633030
0110010010100010100000100: 574828 478738 593884 538002 512090
0110010010100010100000100: 574828 478738 593884 538002 587163
0110010010100010100000100: 574828 478738 593884 538002 654464
0110010010100010100100110: 574828 478738 593884 538002 512656
0110010010100010100100110: 574828 623920 478738 512656 538002
0110010010100010100000100: 574828 457777 593884 618615 633030
0110010010100010100000100: 574828 457777 593884 618615 512656
0110010010100010100000100: 574828 457777 593884 618615 512090
0110010010100010100000100: 574828 457777 593884 618615 587163
0110010010100010100000100: 574828 457777 478738 618615 538002
0111110000100001000010000: 574828 457777 623920 478738 593884
0110010010100010100000100: 574828 457777 623920 618615 512656
0110010011100000100001000: 623920 512656 574828 633030 538002
0110010011100000100001000: 623920 512656 574828 654464 538002
0110010011100000100001000: 623920 512656 574828 654464 633030
0110010011100000100001000: 623920 512656 574828 501440 633030
0110010011100100110001000: 623920 512656 574828 593884 538002
0110010011100100110001000: 623920 512656 574828 593884 501440
0110010010100010100000100: 623920 574828 512656 478738 633030
0110010010100010100000100: 623920 574828 512656 478738 654464
0110010010100010100000100: 623920 574828 512656 478738 501440
0110010011100000100001000: 623920 574828 512656 457777 478738
0110010010100010100000100: 623920 574828 512656 457777 538002
0110010010100010100000100: 623920 574828 512656 457777 633030
0110010010100010100000100: 623920 574828 512656 457777 654464
0110010010100010100000100: 623920 574828 512656 457777 501440
0110010011100100110001000: 623920 574828 512656 593884 478738
0110010011100100110001000: 623920 574828 512656 593884 457777
0110010011100000100001000: 512656 593884 538002 512090 574828
0110010011100000100001000: 512656 593884 538002 587163 574828
0110010011100000100001000: 512656 593884 501440 512090 574828
0110010011100000100001000: 512656 593884 501440 587163 574828
0111010101110001000001000: 512656 593884 633030 538002 574828
0111010101110001000001000: 512656 593884 633030 538002 512090
0111010101110001000001000: 512656 593884 633030 623920 512090
0111010101110001000101010: 512656 593884 633030 623920 574828
0111010101110001000001000: 512656 593884 633030 501440 574828
0111010101110001000001000: 512656 593884 633030 501440 512090
0111010110110011100000100: 512656 593884 633030 654464 592080
0111010110110011100000100: 512656 593884 633030 654464 474857
0111010101110001000001000: 512656 593884 654464 538002 574828
0111010101110001000101010: 512656 593884 654464 623920 574828
0111110110110001100010000: 512656 593884 654464 633030 538002
0111110110110001100010000: 512656 593884 654464 633030 623920
0111010110110011100000100: 512656 593884 654464 633030 618615
0110010010100010100000100: 512656 538002 593884 478738 512090
0110010010100010100000100: 512656 538002 593884 478738 587163
0110010011100000100001000: 512656 538002 593884 657389 478738
0110010010100010100000100: 512656 538002 593884 657389 574828
0110010010100010100000100: 512656 538002 593884 657389 512090
0110010011100000100001000: 512656 538002 633030 657389 478738
0110010011100000100001000: 512656 538002 623920 657389 478738
0110010011100000100001000: 512656 538002 654464 657389 478738
0111010101110001000001000: 512656 538002 501440 593884 478738
0111010101110001000001000: 512656 538002 501440 593884 657389
0111010101110001000001000: 512656 538002 501440 633030 478738
0111010101110001000001000: 512656 538002 501440 633030 657389
0111010101110001000001000: 512656 538002 501440 623920 478738
0111010101110001000001000: 512656 538002 501440 623920 657389
0110010010100010100000100: 512656 633030 538002 592080 478738
0110010010100010100000100: 512656 633030 538002 592080 657389
0110010011100000100001000: 512656 633030 538002 474857 592080
0110010010100010100000100: 512656 633030 538002 474857 478738
0110010010100010100000100: 512656 633030 538002 474857 657389
0110010011100000100001000: 512656 633030 538002 587163 474857
0110010010100010100000100: 512656 633030 538002 587163 478738
0110010011100000100001000: 512656 633030 623920 474857 592080
0110010011100000100001000: 512656 633030 623920 587163 474857
0110010011100000100001000: 512656 633030 654464 474857 592080
0110010011100000100001000: 512656 633030 501440 587163 474857
0110010011100100110001000: 512656 633030 501440 592080 474857
0111010101110001000001000: 512656 633030 593884 538002 592080
0111010101110001000001000: 512656 633030 593884 538002 474857
0111010100110001000100010: 512656 633030 593884 538002 478738
0111010100110001000100010: 512656 633030 593884 538002 657389
0111110100110001000010000: 512656 633030 593884 623920 538002
0111010101110001000001000: 512656 633030 593884 623920 592080
0111010101110001000001000: 512656 633030 593884 623920 474857
0111110100110001000010000: 512656 633030 593884 501440 623920
0111010101110001000001000: 512656 633030 593884 501440 474857
0111010100110001000100010: 512656 633030 593884 501440 575751
0111010101110001000101010: 512656 633030 593884 501440 592080
0110010010100010100000100: 512656 623920 538002 574828 657389
0110010010100010100000100: 512656 623920 633030 574828 592080
0110010010100010100000100: 512656 623920 633030 574828 474857
0110010010100010100000100: 512656 623920 633030 574828 587163
0110010010100010100000100: 512656 654464 538002 618615 478738
0110010010100010100000100: 512656 654464 538002 618615 657389
0110010011100000100001000: 512656 654464 538002 512090 618615
0110010010100010100000100: 512656 654464 538002 512090 478738
0110010010100010100000100: 512656 654464 538002 512090 657389
0110010011100000100001000: 512656 654464 538002 587163 618615
0110010010100010100000100: 512656 654464 538002 587163 478738
0110010010100010100000100: 512656 654464 633030 618615 592080
0110010011100000100001000: 512656 654464 633030 512090 618615
0110010010100010100000100: 512656 654464 633030 512090 592080
0110010010100010100000100: 512656 654464 633030 512090 474857
0111110000100001000010000: 512656 654464 623920 633030 538002
0110010010100010100000100: 512656 654464 623920 618615 574828
0110010011100000100001000: 512656 654464 623920 512090 618615
0110010010100010100000100: 512656 654464 623920 512090 574828
0110010011100000100001000: 512656 654464 623920 587163 618615
0110010010100010100000100: 512656 654464 623920 587163 574828
0111010100110001000100010: 512656 654464 593884 538002 478738
0111010100110001000100010: 512656 654464 593884 538002 657389
0111110100110001000010000: 512656 654464 593884 623920 538002
0111110110110011100010100: 512656 654464 593884 501440 633030
0111110110110001100010000: 512656 654464 501440 593884 623920
0110010010100010100000100: 512656 501440 593884 592080 574828
0110010010100010100000100: 512656 501440 593884 592080 512090
0110010011100000100001000: 512656 501440 593884 575751 592080
0110010010100010100000100: 512656 501440 593884 575751 574828
0110010010100010100000100: 512656 501440 593884 575751 512090
0110010010100010100000100: 512656 501440 593884 575751 587163
0110010010100010100000100: 512656 501440 633030 575751 474857
0110010010100010100000100: 512656 501440 633030 575751 587163
0110010011100100110001000: 512656 501440 633030 592080 575751
0110010010100010100000100: 512656 501440 623920 592080 574828
0110010011100000100001000: 512656 501440 623920 575751 592080
0110010010100010100000100: 512656 501440 623920 575751 574828
0111010100110001000100010: 512656 501440 538002 593884 574828
0111010100110001000100010: 512656 501440 538002 593884 512090
0111010100110001000100010: 512656 501440 538002 593884 587163
0111010100110001000100010: 512656 501440 538002 633030 474857
0111010100110001000100010: 512656 501440 538002 633030 587163
0111110100110001000110010: 512656 501440 538002 633030 593884
0111110100110001000010000: 512656 501440 538002 623920 593884
0111110100110001000010000: 512656 501440 538002 623920 633030
0111010100110001000100010: 512656 501440 538002 623920 574828
0111010100110001000100010: 512656 501440 654464 633030 474857
0111110100110001000010000: 512656 501440 654464 623920 633030
0111010100110001000100010: 512656 501440 654464 623920 574828
0111110110110001100010000: 512656 501440 654464 538002 633030
0111110110110001100010000: 512656 501440 654464 538002 623920
0111110110110011100010100: 512656 501440 654464 538002 593884
0111010101110001000001000: 633030 592080 587163 474857 501440
0111010101110001000101010: 633030 592080 587163 512656 501440
0110010010100010100000100: 633030 593884 592080 574828 501440
0110010011100000100001000: 633030 593884 592080 512090 574828
0110010010100010100000100: 633030 593884 592080 512090 501440
0110010011100000100001000: 633030 593884 592080 654464 574828
0110010011100000100001000: 633030 593884 474857 512090 574828
0110010011100000100001000: 633030 593884 474857 654464 574828
0111010101110001000001000: 633030 593884 512656 592080 574828
0111010101110001000001000: 633030 593884 512656 592080 512090
0111010101110001000001000: 633030 593884 512656 474857 574828
0111010101110001000001000: 633030 593884 512656 474857 512090
0111010110110011100000100: 633030 593884 512656 587163 538002
0111010110110011100000100: 633030 593884 512656 587163 623920
0111010110110011100000100: 633030 593884 512656 587163 501440
0111010101110001000001000: 633030 593884 587163 474857 574828
0111110110110001100010000: 633030 593884 587163 512656 474857
0111010110110011100000100: 633030 593884 587163 512656 657389
0110010010100010100000100: 633030 474857 592080 549019 501440
0110010011100000100001000: 633030 474857 592080 618615 549019
0110010010100010100000100: 633030 474857 592080 618615 501440
0110010010100010100000100: 633030 474857 593884 549019 574828
0110010010100010100000100: 633030 474857 593884 549019 512090
0110010010100010100000100: 633030 474857 593884 549019 654464
0110010011100000100001000: 633030 474857 593884 618615 549019
0110010010100010100000100: 633030 474857 593884 618615 574828
0110010010100010100000100: 633030 474857 593884 618615 512090
0110010011100000100001000: 633030 474857 512656 618615 549019
0110010011100000100001000: 633030 474857 587163 618615 549019
0110010011100000100001000: 633030 512656 592080 623920 538002
0110010011100000100001000: 633030 512656 592080 654464 538002
0110010011100000100001000: 633030 512656 592080 654464 623920
0110010010100010100000100: 633030 512656 474857 538002 549019
0110010010100010100000100: 633030 512656 474857 538002 618615
0110010011100000100001000: 633030 512656 474857 623920 538002
0110010010100010100000100: 633030 512656 474857 623920 549019
0110010010100010100000100: 633030 512656 474857 623920 618615
0110010011100000100001000: 633030 512656 474857 654464 538002
0110010011100000100001000: 633030 512656 474857 654464 623920
0110010010100010100000100: 633030 512656 474857 654464 549019
0110010011100000100001000: 633030 512656 474857 501440 623920
0110010010100010100000100: 633030 512656 474857 501440 549019
0110010010100010100000100: 633030 512656 474857 501440 618615
0110010011100000100001000: 633030 512656 587163 623920 538002
0110010011100000100001000: 633030 512656 587163 501440 623920
0111110100110001000010000: 633030 512656 593884 474857 592080
0111010100110001000100010: 633030 512656 593884 474857 549019
0111010100110001000100010: 633030 512656 593884 474857 618615
0110010010100010100000100: 633030 587163 474857 657389 549019
0110010010100010100000100: 633030 587163 474857 657389 618615
0110010011100000100001000: 633030 587163 474857 512090 657389
0110010010100010100000100: 633030 587163 474857 512090 549019
0110010010100010100000100: 633030 587163 474857 512090 618615
0110010011100000100001000: 633030 587163 474857 654464 657389
0110010010100010100000100: 633030 587163 474857 654464 549019
0110010010100010100000100: 633030 587163 512656 657389 623920
0110010010100010100000100: 633030 587163 512656 657389 501440
0110010011100000100001000: 633030 587163 512656 512090 657389
0110010010100010100000100: 633030 587163 512656 512090 538002
0110010010100010100000100: 633030 587163 512656 512090 623920
0110010010100010100000100: 633030 587163 512656 512090 501440
0111010100110001000100010: 633030 587163 592080 474857 549019
0111010100110001000100010: 633030 587163 592080 474857 618615
0111110100110001000010000: 633030 587163 592080 512656 474857
0111010100110001000100010: 633030 587163 592080 512656 538002
0111010100110001000100010: 633030 587163 592080 512656 623920
0111010100110001000100010: 633030 587163 593884 474857 549019
0111010100110001000100010: 633030 587163 593884 474857 618615
0111110110110001100010000: 633030 587163 593884 592080 474857
0111110110110011100010100: 633030 587163 593884 592080 512656
0110010011100000100001000: 618615 474857 457777 633030 549019
0110010011100000100001000: 618615 474857 654464 633030 549019
0110010010100010100000100: 618615 457777 474857 574828 549019
0110010010100010100000100: 618615 457777 474857 574828 633030
0110010010100010100000100: 618615 654464 474857 593884 549019
0110010010100010100000100: 618615 654464 474857 512656 549019
0110010011100000100001000: 618615 654464 474857 512090 512656
0110010010100010100000100: 618615 654464 474857 512090 549019
0110010010100010100000100: 618615 654464 474857 512090 633030
0110010011100000100001000: 618615 654464 474857 587163 512656
0110010010100010100000100: 618615 654464 474857 587163 549019
0110010011100000100001000: 618615 654464 474857 501440 593884
0110010011100000100001000: 618615 654464 474857 501440 512090
0110010011100000100001000: 618615 654464 474857 501440 587163
0110010010100010100000100: 618615 654464 474857 501440 549019
0110010010100010100000100: 618615 654464 474857 501440 633030
0110010010100010100000100: 618615 654464 457777 512656 574828
0110010011100000100001000: 618615 654464 457777 512090 512656
0110010010100010100000100: 618615 654464 457777 512090 574828
0110010011100000100001000: 618615 654464 457777 587163 512656
0110010010100010100000100: 618615 654464 457777 587163 574828
0110010011100000100001000: 618615 654464 457777 501440 593884
0110010011100000100001000: 618615 654464 457777 501440 512090
0110010011100000100001000: 618615 654464 457777 501440 587163
0110010010100010100000100: 618615 654464 457777 501440 574828
0110010011100000100001000: 474857 618615 549019 654464 457777
0110010011100000100001000: 474857 618615 633030 654464 457777
0110010011100000100001000: 474857 633030 549019 593884 592080
0110010011100000100001000: 474857 633030 549019 512656 592080
0110010011100000100001000: 474857 633030 549019 587163 512656
0110010010100010100000100: 474857 633030 618615 592080 457777
0110010010100010100000100: 474857 633030 618615 592080 654464
0110010011100000100001000: 474857 633030 618615 593884 592080
0110010010100010100000100: 474857 633030 618615 593884 457777
0110010011100000100001000: 474857 633030 618615 512656 592080
0110010010100010100000100: 474857 633030 618615 512656 457777
0110010011100000100001000: 474857 633030 618615 587163 512656
0110010010100010100000100: 474857 633030 618615 587163 457777
0110010010100010100000100: 538002 657389 478738 575751 574828
0110010011100000100001000: 538002 657389 478738 587163 575751
0110010010100010100000100: 538002 657389 478738 587163 574828
0110010011100000100001000: 538002 657389 512656 587163 575751
0110010011100100110001000: 538002 657389 501440 575751 587163
0110010010100010100000100: 538002 512656 478738 633030 574828
0110010011100000100001000: 538002 512656 478738 623920 593884
0110010011100000100001000: 538002 512656 478738 623920 633030
0110010011100000100001000: 538002 512656 478738 654464 633030
0110010011100000100001000: 538002 512656 478738 654464 623920
0110010010100010100000100: 538002 512656 478738 654464 574828
0110010010100010100000100: 538002 512656 657389 593884 575751
0110010010100010100000100: 538002 512656 657389 633030 575751
0110010011100000100001000: 538002 512656 657389 623920 593884
0110010011100000100001000: 538002 512656 657389 623920 633030
0110010010100010100000100: 538002 512656 657389 623920 575751
0110010010100010100000100: 538002 512656 657389 623920 587163
0110010011100000100001000: 538002 512656 657389 654464 633030
0110010011100000100001000: 538002 512656 657389 654464 623920
0110010010100010100000100: 538002 512656 657389 654464 575751
0110010010100010100000100: 538002 501440 478738 592080 574828
0110010011100000100001000: 538002 501440 478738 575751 592080
0110010010100010100000100: 538002 501440 478738 575751 574828
0110010011100000100001000: 538002 501440 478738 654464 592080
0110010011100000100001000: 538002 501440 478738 654464 575751
0110010010100010100000100: 538002 501440 478738 654464 574828
0110010011100000100001000: 538002 501440 657389 654464 592080
0110010011100100110001000: 538002 501440 657389 575751 592080
0110010011100100110001000: 538002 501440 657389 575751 654464
0111010100110001000100010: 538002 501440 512656 478738 574828
0111110100110001000010000: 538002 501440 512656 657389 478738
0111010100110001000100010: 538002 501440 512656 657389 587163
0110010011100000100001000: 657389 538002 575751 512656 478738
0110010011100000100001000: 657389 538002 587163 512656 478738
0110010011100000100001000: 657389 538002 587163 501440 478738
0110010011100000100001000: 657389 587163 575751 593884 592080
0110010010100010100000100: 657389 587163 575751 593884 501440
0110010010100010100000100: 657389 587163 575751 633030 501440
0110010011100000100001000: 657389 587163 575751 512090 592080
0110010011100000100001000: 657389 587163 575751 512090 633030
0110010010100010100000100: 657389 587163 575751 512090 501440
0110010011100000100001000: 657389 587163 575751 654464 592080
0110010011100000100001000: 657389 587163 575751 654464 633030
0110010010100010100000100: 657389 587163 538002 592080 478738
0110010010100010100000100: 657389 587163 538002 592080 512656
0110010011100000100001000: 657389 587163 538002 593884 592080
0110010010100010100000100: 657389 587163 538002 593884 478738
0110010010100010100000100: 657389 587163 538002 593884 501440
0110010010100010100000100: 657389 587163 538002 633030 478738
0110010010100010100000100: 657389 587163 538002 633030 501440
0110010011100000100001000: 657389 587163 538002 512090 592080
0110010011100000100001000: 657389 587163 538002 512090 633030
0110010010100010100000100: 657389 587163 538002 512090 478738
0110010010100010100000100: 657389 587163 538002 512090 512656
0110010010100010100000100: 657389 587163 538002 512090 501440
0110010011100000100001000: 657389 587163 538002 654464 592080
0110010011100000100001000: 657389 587163 538002 654464 633030
0110010010100010100000100: 657389 587163 538002 654464 478738
0110010011100000100001000: 478738 538002 574828 512656 657389
0110010011100000100001000: 478738 538002 574828 501440 657389
0110010010100010100000100: 478738 574828 538002 593884 657389
0110010010100010100000100: 478738 574828 538002 593884 501440
0110010011100000100001000: 478738 574828 538002 623920 593884
0110010010100010100000100: 478738 574828 538002 623920 657389
0110010010100010100000100: 478738 574828 538002 623920 501440
0110010011100000100001000: 478738 574828 538002 457777 593884
0110010011100000100001000: 478738 574828 538002 457777 623920
0110010010100010100000100: 478738 574828 538002 457777 657389
0110010010100010100000100: 478738 574828 538002 457777 512656
0110010010100010100000100: 478738 574828 538002 457777 501440
0110010011100000100001000: 575751 501440 657389 512656 592080
0110010010100010100000100: 575751 501440 657389 512656 587163
0110010011100000100001000: 575751 501440 657389 654464 592080
0110010011100000100001000: 593884 633030 574828 474857 592080
0110010011100000100001000: 593884 633030 512090 474857 592080
0110010011100000100001000: 593884 633030 654464 474857 592080
0111110110110001100010000: 593884 633030 587163 512656 574828
0110010011100000100001000: 593884 512656 512090 623920 538002
0110010011100000100001000: 593884 512656 512090 501440 623920
0110010011100000100001000: 593884 512656 587163 623920 538002
0110010011100000100001000: 593884 512656 587163 501440 623920
0111010100110001000100010: 593884 512656 633030 574828 478738
0111010100110001000100010: 593884 512656 633030 574828 457777
0111110100110001000010000: 593884 512656 633030 512090 574828
0111110110110001100010000: 593884 512656 654464 633030 574828
0110010010100010100000100: 593884 574828 633030 478738 592080
0110010010100010100000100: 593884 574828 633030 478738 474857
0110010011100000100001000: 593884 574828 633030 623920 478738
0110010010100010100000100: 593884 574828 633030 623920 592080
0110010010100010100000100: 593884 574828 633030 623920 474857
0110010011100000100001000: 593884 574828 633030 457777 478738
0110010011100000100001000: 593884 574828 633030 457777 623920
0110010010100010100000100: 593884 574828 633030 457777 592080
0110010010100010100000100: 593884 574828 633030 457777 474857
0110010010100010100000100: 593884 574828 512656 478738 501440
0110010011100000100001000: 593884 574828 512656 457777 478738
0110010010100010100000100: 593884 574828 512656 457777 538002
0110010010100010100000100: 593884 574828 512656 457777 501440
0110010011100000100001000: 593884 574828 512090 623920 478738
0110010011100000100001000: 593884 574828 512090 457777 478738
0110010011100000100001000: 593884 574828 512090 457777 623920
0110010011100000100001000: 593884 574828 587163 623920 478738
0110010011100000100001000: 593884 574828 587163 457777 478738
0110010011100000100001000: 593884 574828 587163 457777 623920
0110010011100000100001000: 593884 574828 654464 623920 478738
0110010011100000100001000: 593884 574828 654464 457777 478738
0110010011100000100001000: 593884 574828 654464 457777 623920
0110010010100010100000100: 593884 587163 512656 592080 538002
0110010010100010100000100: 593884 587163 512656 592080 623920
0110010011100000100001000: 593884 587163 512656 657389 592080
0110010010100010100000100: 593884 587163 512656 657389 623920
0110010010100010100000100: 593884 587163 512656 657389 501440
0110010010100010100000100: 593884 587163 574828 592080 478738
0110010010100010100000100: 593884 587163 574828 592080 623920
0110010010100010100000100: 593884 587163 574828 592080 457777
0110010011100000100001000: 593884 587163 574828 657389 592080
0110010010100010100000100: 593884 587163 574828 657389 478738
0110010010100010100000100: 593884 587163 574828 657389 623920
0110010010100010100000100: 593884 587163 574828 657389 457777
0111010100110001000100010: 593884 587163 633030 574828 478738
0111010100110001000100010: 593884 587163 633030 574828 623920
0111010100110001000100010: 593884 587163 633030 574828 457777
0111110110110011100010100: 593884 587163 633030 512090 512656
0111010100110001000100010: 593884 587163 512090 512656 538002
0111010100110001000100010: 593884 587163 512090 512656 623920
0111010100110001000100010: 593884 587163 512090 512656 501440
0111110100110001000010000: 593884 587163 512090 574828 512656
0111010100110001000100010: 593884 587163 512090 574828 478738
0111010100110001000100010: 593884 587163 512090 574828 623920
0111010100110001000100010: 593884 587163 512090 574828 457777
0111110110110001100010000: 593884 587163 512090 633030 574828
0111110110110001100010000: 593884 587163 654464 633030 574828
0110010010100010100000100: 593884 654464 633030 618615 592080
0110010011100000100001000: 593884 654464 633030 501440 618615
0110010010100010100000100: 593884 654464 633030 501440 474857
0110010010100010100000100: 593884 654464 574828 618615 478738
0110010010100010100000100: 593884 654464 574828 618615 623920
0110010011100000100001000: 593884 654464 574828 501440 618615
0110010010100010100000100: 593884 654464 574828 501440 478738
0110010010100010100000100: 593884 654464 574828 501440 623920
0110010010100010100000100: 593884 654464 574828 501440 457777
0111010100110001000100010: 593884 654464 512656 574828 478738
0111010100110001000100010: 593884 654464 512656 574828 457777
0111110110110011100010100: 593884 654464 512656 512090 633030
0111010100110001000100010: 593884 654464 512090 633030 592080
0111010100110001000100010: 593884 654464 512090 633030 474857
0111110100110001000010000: 593884 654464 512090 574828 633030
0111010100110001000100010: 593884 654464 512090 574828 478738
0111010100110001000100010: 593884 654464 512090 574828 623920
0111010100110001000100010: 593884 654464 512090 574828 457777
0111110110110001100010000: 593884 654464 512090 512656 574828
0111010100110001000100010: 593884 654464 587163 574828 478738
0111010100110001000100010: 593884 654464 587163 574828 623920
0111010100110001000100010: 593884 654464 587163 574828 457777
0111110110110001100010000: 593884 654464 587163 512656 574828
0111110110110011100110110: 593884 654464 587163 512656 633030
0111110110110101110010000: 593884 654464 587163 512090 574828
0110010011100000100001000: 592080 633030 501440 474857 593884
0110010011100000100001000: 592080 587163 501440 657389 593884
0110010011100000100001000: 592080 587163 501440 512090 657389
0111010100110001000100010: 592080 587163 633030 501440 575751
0111010100110001000100010: 592080 587163 633030 501440 538002
0110010010100010100000100: 592080 501440 633030 575751 593884
0110010010100010100000100: 592080 501440 633030 575751 474857
0110010011100000100001000: 592080 501440 633030 538002 575751
0110010010100010100000100: 592080 501440 633030 538002 593884
0110010010100010100000100: 592080 501440 633030 538002 474857
0110010011100000100001000: 592080 501440 633030 654464 575751
0110010011100000100001000: 592080 501440 633030 654464 538002
0110010010100010100000100: 592080 501440 633030 654464 474857
0110010010100010100000100: 592080 501440 587163 575751 593884
0110010010100010100000100: 592080 501440 587163 575751 512090
0110010011100000100001000: 592080 501440 587163 538002 575751
0110010010100010100000100: 592080 501440 587163 538002 593884
0110010010100010100000100: 592080 501440 587163 538002 512090
0110010011100000100001000: 592080 501440 587163 512656 575751
0110010010100010100000100: 592080 501440 587163 512656 657389
0110010010100010100000100: 592080 501440 587163 512656 512090
