0110100110010110: 562182 505659 477687 554368
0110100110000100: 562182 477687 505659 643434
0110100010010010: 562182 477687 505659 619163
0110100110010110: 562182 477687 505659 554368
0110100110010110: 562182 477687 505659 554368
0110100110000100: 562182 477687 505659 643434
0110100110000100: 562182 477687 505659 643434
0110100110010110: 562182 477687 505659 554368
0110100110000100: 562182 477687 505659 643434
0110100110000100: 562182 477687 505659 643434
0110100110010110: 562182 477687 505659 554368
0110100110000100: 562182 477687 505659 643434
0110100110000100: 562182 505659 477687 619163
0110100010010010: 562182 505659 477687 643434
0110100110010110: 562182 505659 477687 554368
0110100110010110: 562182 505659 477687 554368
0110100110000100: 562182 505659 477687 619163
0110100110000100: 562182 505659 477687 619163
0110100110010110: 562182 505659 477687 554368
0110100110010110: 562182 505659 477687 554368
0110100110010110: 562182 505659 477687 554368
0110100110000100: 562182 505659 477687 619163
0110100110000100: 562182 505659 477687 619163
0110100110010110: 562182 505659 477687 554368
0110100110000100: 562182 505659 477687 619163
0101101001001000: 505659 619163 609500 562182
0110100110010110: 505659 554368 619163 609500
0111100010001000: 505659 562182 554368 619163
0110100110010110: 505659 562182 554368 477687
0101101001001000: 505659 562182 477687 619163
0110100010010010: 505659 619163 554368 477687
0110100010010010: 505659 619163 554368 542906
0110100010010010: 505659 619163 554368 562720
0110100010010010: 505659 619163 554368 597843
0110100110010110: 505659 619163 554368 609500
0110100110010110: 505659 619163 554368 609500
0111100010001000: 505659 619163 562182 554368
0110100110000100: 505659 619163 562182 609500
0110100010010010: 505659 619163 562182 477687
0110100010010010: 505659 619163 562182 477687
0110100110010110: 505659 619163 554368 609500
0110100110000100: 505659 619163 562182 609500
0110100110000100: 505659 619163 562182 609500
0110100110000100: 505659 619163 562182 609500
0101101001001000: 505659 619163 609500 562182
0100101001010010: 505659 619163 609500 542906
0100101001010010: 505659 619163 609500 615613
0100101001010010: 505659 619163 609500 542906
0100101001010010: 505659 619163 609500 615613
0101101001011010: 505659 619163 609500 554368
0101101001011010: 505659 619163 609500 554368
0101101001011010: 505659 619163 609500 554368
0101101001001000: 505659 619163 609500 562182
0110100110000100: 505659 554368 619163 477687
0110100110000100: 505659 554368 619163 542906
0110100110000100: 505659 554368 619163 562720
0110100110000100: 505659 554368 619163 597843
0110100110010110: 505659 554368 619163 609500
0110100110010110: 505659 554368 619163 609500
0111100010001000: 505659 554368 562182 619163
0110100110000100: 505659 554368 562182 542906
0110100110000100: 505659 554368 562182 609500
0110100110000100: 505659 554368 562182 562720
0110100110000100: 505659 554368 562182 597843
0110100110010110: 505659 554368 562182 477687
0110100110010110: 505659 554368 562182 477687
0111100010001000: 505659 554368 619163 562182
0110100110000100: 505659 554368 619163 477687
0110100110000100: 505659 554368 619163 542906
0110100110000100: 505659 554368 619163 562720
0110100110000100: 505659 554368 619163 597843
0110100110000100: 505659 554368 619163 477687
0110100110000100: 505659 554368 619163 542906
0110100110000100: 505659 554368 619163 562720
0110100110000100: 505659 554368 619163 597843
0110100110010110: 505659 554368 619163 609500
0110100110010110: 505659 554368 619163 609500
0110100110010110: 505659 554368 619163 609500
0110100110000100: 505659 554368 562182 542906
0110100110000100: 505659 554368 562182 609500
0110100110000100: 505659 554368 562182 562720
0110100110000100: 505659 554368 562182 597843
0110100110000100: 505659 554368 562182 542906
0110100110000100: 505659 554368 562182 609500
0110100110000100: 505659 554368 562182 562720
0110100110000100: 505659 554368 562182 597843
0110100110010110: 505659 554368 562182 477687
0111100010001000: 505659 554368 619163 562182
0111100010001000: 505659 554368 619163 562182
0111100010001000: 505659 554368 562182 619163
0111100010001000: 505659 554368 562182 619163
0110100110000100: 505659 554368 619163 477687
0110100110000100: 505659 554368 619163 542906
0110100110000100: 505659 554368 619163 562720
0110100110000100: 505659 554368 619163 597843
0110100110000100: 505659 554368 619163 477687
0110100110000100: 505659 554368 619163 542906
0110100110000100: 505659 554368 619163 562720
0110100110000100: 505659 554368 619163 597843
0111100010001000: 505659 554368 619163 562182
0110100110010110: 505659 554368 619163 609500
0110100110010110: 505659 554368 619163 609500
0110100110000100: 505659 554368 562182 542906
0110100110000100: 505659 554368 562182 609500
0110100110000100: 505659 554368 562182 562720
0110100110000100: 505659 554368 562182 597843
0110100110000100: 505659 554368 562182 542906
0110100110000100: 505659 554368 562182 609500
0110100110000100: 505659 554368 562182 562720
0110100110000100: 505659 554368 562182 597843
0111100010001000: 505659 554368 562182 619163
0111100010001000: 505659 554368 562182 619163
0110100110010110: 505659 554368 562182 477687
0110100110010110: 505659 554368 562182 477687
0110100010010010: 505659 562182 619163 609500
0110100010010010: 505659 562182 619163 609500
0111100010001000: 505659 562182 554368 619163
0110100010010010: 505659 562182 554368 542906
0110100010010010: 505659 562182 554368 609500
0110100010010010: 505659 562182 554368 562720
0110100010010010: 505659 562182 554368 597843
0110100110010110: 505659 562182 554368 477687
0111100010001000: 505659 562182 619163 554368
0110100110000100: 505659 562182 619163 477687
0110100110000100: 505659 562182 619163 477687
0111100010001000: 505659 562182 554368 619163
0111100010001000: 505659 562182 554368 619163
0110100110010110: 505659 562182 554368 477687
0110100110010110: 505659 562182 554368 477687
0101101001001000: 505659 562182 477687 619163
0100101001010010: 505659 562182 477687 643434
0100101001010010: 505659 562182 477687 643434
0101101001011010: 505659 562182 477687 554368
0101101001011010: 505659 562182 477687 554368
0101101001011010: 505659 562182 477687 554368
0101101001001000: 505659 562182 477687 619163
0101101001001000: 505659 562182 477687 619163
0111100010001000: 597843 615613 554368 553385
0110100110010110: 597843 615613 554368 609500
0110100110010110: 597843 615613 554368 562720
0110100010010010: 597843 553385 554368 477687
0110100010010010: 597843 553385 554368 542906
0110100010010010: 597843 553385 554368 609500
0110100010010010: 597843 553385 554368 562720
0110100010010010: 597843 553385 554368 505659
0111100010001000: 597843 553385 615613 554368
0110100010010010: 597843 553385 615613 609500
0110100010010010: 597843 553385 615613 562720
0110100110000100: 597843 554368 553385 477687
0110100110000100: 597843 554368 553385 542906
0110100110000100: 597843 554368 553385 609500
0110100110000100: 597843 554368 553385 562720
0110100110000100: 597843 554368 553385 505659
0111100010001000: 597843 554368 615613 553385
0110100110000100: 597843 554368 615613 477687
0110100110000100: 597843 554368 615613 542906
0110100110000100: 597843 554368 615613 505659
0110100110010110: 597843 554368 615613 609500
0110100110010110: 597843 554368 615613 562720
0110100110010110: 597843 554368 615613 609500
0110100110010110: 597843 554368 615613 562720
0111100010001000: 597843 554368 553385 615613
0110100110000100: 597843 554368 553385 477687
0110100110000100: 597843 554368 553385 542906
0110100110000100: 597843 554368 553385 609500
0110100110000100: 597843 554368 553385 562720
0110100110000100: 597843 554368 553385 505659
0110100110000100: 597843 554368 553385 477687
0110100110000100: 597843 554368 553385 542906
0110100110000100: 597843 554368 553385 609500
0110100110000100: 597843 554368 553385 562720
0110100110000100: 597843 554368 553385 505659
0110100110000100: 597843 554368 615613 477687
0110100110000100: 597843 554368 615613 542906
0110100110000100: 597843 554368 615613 505659
0110100110000100: 597843 554368 615613 477687
0110100110000100: 597843 554368 615613 542906
0110100110000100: 597843 554368 615613 505659
0110100110010110: 597843 554368 615613 609500
0110100110010110: 597843 554368 615613 562720
0111100010001000: 597843 554368 553385 615613
0111100010001000: 597843 554368 553385 615613
0111100010001000: 597843 554368 615613 553385
0111100010001000: 597843 554368 615613 553385
0111100010001000: 597843 554368 615613 553385
0110100110000100: 597843 554368 553385 477687
0110100110000100: 597843 554368 553385 542906
0110100110000100: 597843 554368 553385 609500
0110100110000100: 597843 554368 553385 562720
0110100110000100: 597843 554368 553385 505659
0110100110000100: 597843 554368 553385 477687
0110100110000100: 597843 554368 553385 542906
0110100110000100: 597843 554368 553385 609500
0110100110000100: 597843 554368 553385 562720
0110100110000100: 597843 554368 553385 505659
0111100010001000: 597843 554368 553385 615613
0110100110000100: 597843 554368 615613 477687
0110100110000100: 597843 554368 615613 542906
0110100110000100: 597843 554368 615613 505659
0110100110000100: 597843 554368 615613 477687
0110100110000100: 597843 554368 615613 542906
0110100110000100: 597843 554368 615613 505659
0111100010001000: 597843 554368 615613 553385
0111100010001000: 597843 554368 615613 553385
0110100110010110: 597843 554368 615613 609500
0110100110010110: 597843 554368 615613 562720
0110100110000100: 597843 615613 553385 609500
0110100110000100: 597843 615613 553385 562720
0111100010001000: 597843 615613 554368 553385
0110100010010010: 597843 615613 554368 477687
0110100010010010: 597843 615613 554368 542906
0110100010010010: 597843 615613 554368 505659
0110100110010110: 597843 615613 554368 609500
0110100110010110: 597843 615613 554368 562720
0110100110010110: 597843 615613 554368 609500
0110100110010110: 597843 615613 554368 562720
0111100010001000: 597843 615613 553385 554368
0110100110000100: 597843 615613 553385 609500
0110100110000100: 597843 615613 553385 562720
0110100110000100: 597843 615613 553385 609500
0110100110000100: 597843 615613 553385 562720
0111100010001000: 597843 615613 554368 553385
0111100010001000: 597843 615613 554368 553385
0110100110010110: 597843 615613 554368 609500
0110100110010110: 597843 615613 554368 562720
0110100110010110: 597843 615613 554368 609500
0110100110010110: 597843 615613 554368 562720
0110100110010110: 597843 615613 554368 609500
0110100110010110: 597843 615613 554368 562720
0111100010001000: 597843 615613 553385 554368
0111100010001000: 597843 615613 553385 554368
0111100010001000: 597843 615613 554368 553385
0111100010001000: 597843 615613 554368 553385
0111100010001000: 597843 615613 554368 553385
0110100110000100: 597843 615613 553385 609500
0110100110000100: 597843 615613 553385 562720
0110100110000100: 597843 615613 553385 609500
0110100110000100: 597843 615613 553385 562720
0111100010001000: 597843 615613 553385 554368
0111100010001000: 597843 615613 554368 553385
0111100010001000: 597843 615613 554368 553385
0110100110010110: 597843 615613 554368 609500
0110100110010110: 597843 615613 554368 562720
0110100110010110: 615613 562720 609500 554368
0110100110010110: 615613 597843 609500 554368
0111100010001000: 615613 597843 562720 609500
0110100110010110: 615613 597843 562720 554368
0110100110000100: 615613 609500 562720 619163
0110100110000100: 615613 609500 562720 542906
0110100010010010: 615613 609500 562720 643434
0110100110010110: 615613 609500 562720 554368
0110100110010110: 615613 609500 562720 554368
0111100010001000: 615613 609500 597843 562720
0110100110000100: 615613 609500 597843 619163
0110100110000100: 615613 609500 597843 542906
0110100010010010: 615613 609500 597843 553385
0110100110010110: 615613 609500 597843 554368
0110100110010110: 615613 609500 597843 554368
0110100110000100: 615613 609500 562720 619163
0110100110000100: 615613 609500 562720 542906
0110100110000100: 615613 609500 562720 619163
0110100110000100: 615613 609500 562720 542906
0110100010010010: 615613 609500 562720 643434
0110100110010110: 615613 609500 562720 554368
0110100110000100: 615613 609500 597843 619163
0110100110000100: 615613 609500 597843 542906
0110100110000100: 615613 609500 597843 619163
0110100110000100: 615613 609500 597843 542906
0110100010010010: 615613 609500 597843 553385
0110100110010110: 615613 609500 597843 554368
0111100010001000: 615613 609500 562720 597843
0111100010001000: 615613 609500 562720 597843
0111100010001000: 615613 609500 562720 597843
0111100010001000: 615613 609500 597843 562720
0111100010001000: 615613 609500 597843 562720
0111100010001000: 615613 609500 597843 562720
0110100110000100: 615613 609500 562720 619163
0110100110000100: 615613 609500 562720 542906
0110100110000100: 615613 609500 562720 619163
0110100110000100: 615613 609500 562720 542906
0111100010001000: 615613 609500 562720 597843
0110100010010010: 615613 609500 562720 643434
0110100110010110: 615613 609500 562720 554368
0110100110000100: 615613 609500 597843 619163
0110100110000100: 615613 609500 597843 542906
0110100110000100: 615613 609500 597843 619163
0110100110000100: 615613 609500 597843 542906
0111100010001000: 615613 609500 597843 562720
0111100010001000: 615613 609500 597843 562720
0110100010010010: 615613 609500 597843 553385
0110100110010110: 615613 609500 597843 554368
0110100110000100: 615613 562720 609500 643434
0110100010010010: 615613 562720 609500 619163
0110100010010010: 615613 562720 609500 542906
0110100110010110: 615613 562720 609500 554368
0110100110010110: 615613 562720 609500 554368
0111100010001000: 615613 562720 597843 609500
0110100110000100: 615613 562720 597843 643434
0110100010010010: 615613 562720 597843 553385
0110100110010110: 615613 562720 597843 554368
0110100110010110: 615613 562720 597843 554368
0111100010001000: 615613 562720 609500 597843
0110100110000100: 615613 562720 609500 643434
0110100110000100: 615613 562720 609500 643434
0110100110010110: 615613 562720 609500 554368
0110100110010110: 615613 562720 609500 554368
0110100110010110: 615613 562720 609500 554368
0110100110000100: 615613 562720 597843 643434
0110100110000100: 615613 562720 597843 643434
0110100110010110: 615613 562720 597843 554368
0111100010001000: 615613 562720 609500 597843
0111100010001000: 615613 562720 609500 597843
0111100010001000: 615613 562720 609500 597843
0111100010001000: 615613 562720 597843 609500
0111100010001000: 615613 562720 597843 609500
0111100010001000: 615613 562720 597843 609500
0110100110000100: 615613 562720 609500 643434
0110100110000100: 615613 562720 609500 643434
0111100010001000: 615613 562720 609500 597843
0110100110010110: 615613 562720 609500 554368
0110100110000100: 615613 562720 609500 643434
0110100110000100: 615613 562720 597843 643434
0110100110000100: 615613 562720 597843 643434
0111100010001000: 615613 562720 597843 609500
0111100010001000: 615613 562720 597843 609500
0110100110010110: 615613 562720 597843 554368
0110100110000100: 615613 562720 597843 643434
0110100010010010: 615613 597843 609500 619163
0110100010010010: 615613 597843 609500 542906
0110100110010110: 615613 597843 609500 554368
0111100010001000: 615613 597843 562720 609500
0110100010010010: 615613 597843 562720 643434
0110100110010110: 615613 597843 562720 554368
0111100010001000: 615613 597843 609500 562720
0110100110000100: 615613 597843 609500 553385
0110100110010110: 615613 597843 609500 554368
0110100110010110: 615613 597843 609500 554368
0111100010001000: 615613 597843 562720 609500
0111100010001000: 615613 597843 562720 609500
0110100110000100: 615613 597843 562720 553385
0110100110010110: 615613 597843 562720 554368
0110100110010110: 615613 597843 562720 554368
0111100010001000: 615613 597843 609500 562720
0111100010001000: 615613 597843 609500 562720
0111100010001000: 615613 597843 609500 562720
0111100010001000: 615613 597843 562720 609500
0111100010001000: 615613 597843 562720 609500
0111100010001000: 615613 597843 562720 609500
0110100110000100: 615613 597843 609500 553385
0110100110000100: 615613 597843 609500 553385
0111100010001000: 615613 597843 609500 562720
0110100110010110: 615613 597843 609500 554368
0110100110000100: 615613 597843 609500 553385
0110100110000100: 615613 597843 562720 553385
0110100110000100: 615613 597843 562720 553385
0111100010001000: 615613 597843 562720 609500
0111100010001000: 615613 597843 562720 609500
0110100110010110: 615613 597843 562720 554368
0110100110000100: 615613 597843 562720 553385
0110100110010110: 562720 643434 554368 477687
0101101001001000: 562720 643434 477687 615613
0110100110010110: 562720 615613 554368 609500
0110100110010110: 562720 615613 554368 597843
0111100010001000: 562720 615613 643434 554368
0110100110000100: 562720 554368 643434 542906
0110100110000100: 562720 554368 643434 609500
0110100110000100: 562720 554368 643434 597843
0110100110000100: 562720 554368 643434 505659
0110100110010110: 562720 554368 643434 477687
0110100110010110: 562720 554368 643434 477687
0111100010001000: 562720 554368 615613 643434
0110100110000100: 562720 554368 615613 477687
0110100110000100: 562720 554368 615613 542906
0110100110000100: 562720 554368 615613 505659
0110100110010110: 562720 554368 615613 609500
0110100110010110: 562720 554368 615613 597843
0110100110010110: 562720 554368 615613 609500
0110100110010110: 562720 554368 615613 597843
0110100110000100: 562720 554368 643434 542906
0110100110000100: 562720 554368 643434 609500
0110100110000100: 562720 554368 643434 597843
0110100110000100: 562720 554368 643434 505659
0110100110000100: 562720 554368 643434 542906
0110100110000100: 562720 554368 643434 609500
0110100110000100: 562720 554368 643434 597843
0110100110000100: 562720 554368 643434 505659
0110100110010110: 562720 554368 643434 477687
0110100110000100: 562720 554368 615613 477687
0110100110000100: 562720 554368 615613 542906
0110100110000100: 562720 554368 615613 505659
0110100110000100: 562720 554368 615613 477687
0110100110000100: 562720 554368 615613 542906
0110100110000100: 562720 554368 615613 505659
0110100110010110: 562720 554368 615613 609500
0110100110010110: 562720 554368 615613 597843
0111100010001000: 562720 554368 643434 615613
0111100010001000: 562720 554368 643434 615613
0111100010001000: 562720 554368 615613 643434
0111100010001000: 562720 554368 615613 643434
0111100010001000: 562720 554368 615613 643434
0110100110000100: 562720 554368 643434 542906
0110100110000100: 562720 554368 643434 609500
0110100110000100: 562720 554368 643434 597843
0110100110000100: 562720 554368 643434 505659
0110100110000100: 562720 554368 643434 542906
0110100110000100: 562720 554368 643434 609500
0110100110000100: 562720 554368 643434 597843
0110100110000100: 562720 554368 643434 505659
0111100010001000: 562720 554368 643434 615613
0110100110010110: 562720 554368 643434 477687
0110100110010110: 562720 554368 643434 477687
0110100110000100: 562720 554368 615613 477687
0110100110000100: 562720 554368 615613 542906
0110100110000100: 562720 554368 615613 505659
0110100110000100: 562720 554368 615613 477687
0110100110000100: 562720 554368 615613 542906
0110100110000100: 562720 554368 615613 505659
0111100010001000: 562720 554368 615613 643434
0111100010001000: 562720 554368 615613 643434
0110100110010110: 562720 554368 615613 609500
0110100110010110: 562720 554368 615613 597843
0110100010010010: 562720 643434 554368 542906
0110100010010010: 562720 643434 554368 609500
0110100010010010: 562720 643434 554368 597843
0110100010010010: 562720 643434 554368 505659
0110100110010110: 562720 643434 554368 477687
0110100110010110: 562720 643434 554368 477687
0111100010001000: 562720 643434 615613 554368
0110100110000100: 562720 643434 615613 477687
0110100010010010: 562720 643434 615613 609500
0110100010010010: 562720 643434 615613 597843
0111100010001000: 562720 643434 554368 615613
0110100110010110: 562720 643434 554368 477687
0110100110010110: 562720 643434 554368 477687
0110100110010110: 562720 643434 554368 477687
0110100110000100: 562720 643434 615613 477687
0110100110000100: 562720 643434 615613 477687
0110100110000100: 562720 643434 615613 477687
0101101001001000: 562720 643434 477687 615613
0100101001010010: 562720 643434 477687 562182
0100101001010010: 562720 643434 477687 562182
0101101001011010: 562720 643434 477687 554368
0101101001011010: 562720 643434 477687 554368
0101101001011010: 562720 643434 477687 554368
0101101001001000: 562720 643434 477687 615613
0110100010010010: 562720 615613 554368 477687
0110100010010010: 562720 615613 554368 542906
0110100010010010: 562720 615613 554368 505659
0110100110010110: 562720 615613 554368 609500
0110100110010110: 562720 615613 554368 597843
0111100010001000: 562720 615613 643434 554368
0110100010010010: 562720 615613 643434 477687
0110100010010010: 562720 615613 643434 477687
0111100010001000: 562720 615613 554368 643434
0110100110010110: 562720 615613 554368 609500
0110100110010110: 562720 615613 554368 597843
0110100110010110: 562720 615613 554368 609500
0110100110010110: 562720 615613 554368 597843
0111100010001000: 562720 615613 643434 554368
0111100010001000: 562720 615613 643434 554368
0110100110000100: 562720 615613 643434 609500
0110100110000100: 562720 615613 643434 597843
0110100010010010: 562720 615613 643434 477687
0111100010001000: 562720 615613 554368 643434
0111100010001000: 562720 615613 554368 643434
0111100010001000: 562720 615613 554368 643434
0111100010001000: 562720 615613 643434 554368
0111100010001000: 562720 615613 643434 554368
0110100010010010: 562720 615613 643434 477687
0111100010001000: 562720 615613 554368 643434
0110100110010110: 562720 615613 554368 609500
0110100110010110: 562720 615613 554368 597843
0110100110000100: 562720 615613 643434 609500
0110100110000100: 562720 615613 643434 597843
0110100110000100: 562720 615613 643434 609500
0110100110000100: 562720 615613 643434 597843
0111100010001000: 562720 615613 643434 554368
0111100010001000: 562720 615613 643434 554368
0110100010010010: 562720 615613 643434 477687
0110100010010010: 562720 615613 643434 477687
0110100110010110: 643434 562720 477687 554368
0110100110000100: 643434 477687 562720 562182
0110100010010010: 643434 477687 562720 615613
0110100110010110: 643434 477687 562720 554368
0110100110010110: 643434 477687 562720 554368
0110100110000100: 643434 477687 562720 562182
0110100110000100: 643434 477687 562720 562182
0110100110010110: 643434 477687 562720 554368
0110100110000100: 643434 477687 562720 562182
0110100110000100: 643434 477687 562720 562182
0110100110010110: 643434 477687 562720 554368
0110100110000100: 643434 477687 562720 562182
0110100010010010: 643434 562720 477687 562182
0110100110010110: 643434 562720 477687 554368
0110100110000100: 643434 562720 477687 615613
0110100110010110: 643434 562720 477687 554368
0110100110010110: 643434 562720 477687 554368
0110100110000100: 643434 562720 477687 615613
0110100110000100: 643434 562720 477687 615613
0110100110010110: 643434 562720 477687 554368
0110100110000100: 643434 562720 477687 615613
0101101001001000: 609500 619163 505659 542906
0101101001001000: 609500 619163 505659 615613
0110100110010110: 609500 554368 619163 505659
0111101011001000: 609500 554368 542906 619163
0111101011001000: 609500 554368 542906 615613
0111101011001000: 609500 542906 554368 619163
0111101011001000: 609500 542906 554368 615613
0111100010001000: 609500 615613 554368 619163
0110100110010110: 609500 615613 554368 562720
0110100110010110: 609500 615613 554368 597843
0111100010001000: 609500 615613 542906 619163
0101101001001000: 609500 615613 562720 619163
0101101001001000: 609500 615613 562720 542906
0101101001001000: 609500 615613 597843 619163
0101101001001000: 609500 615613 597843 542906
0100101101000100: 609500 615613 597843 562720
0110100010010010: 609500 619163 554368 477687
0110100010010010: 609500 619163 554368 562720
0110100010010010: 609500 619163 554368 597843
0111100010011010: 609500 619163 554368 542906
0110100110010110: 609500 619163 554368 505659
0110100110010110: 609500 619163 554368 505659
0110100110000100: 609500 619163 542906 505659
0111100010011010: 609500 619163 542906 554368
0111100010001000: 609500 619163 615613 554368
0111100010001000: 609500 619163 615613 542906
0110100110000100: 609500 619163 615613 505659
0110100010010010: 609500 619163 615613 562720
0110100010010010: 609500 619163 615613 597843
0110100010010010: 609500 619163 615613 562720
0110100010010010: 609500 619163 615613 597843
0110100110010110: 609500 619163 554368 505659
0110100110000100: 609500 619163 542906 505659
0110100110000100: 609500 619163 542906 505659
0110100110000100: 609500 619163 542906 505659
0110100110000100: 609500 619163 615613 505659
0110100110000100: 609500 619163 615613 505659
0110100110000100: 609500 619163 615613 505659
0101101001001000: 609500 619163 505659 542906
0101101001001000: 609500 619163 505659 615613
0100101001010010: 609500 619163 505659 562182
0100101001010010: 609500 619163 505659 562182
0101101001011010: 609500 619163 505659 554368
0101101001011010: 609500 619163 505659 554368
0101101001011010: 609500 619163 505659 554368
0100101001010010: 609500 619163 505659 562182
0110100110000100: 609500 554368 619163 477687
0110100110000100: 609500 554368 619163 562720
0110100110000100: 609500 554368 619163 597843
0110100110010110: 609500 554368 619163 505659
0110100110010110: 609500 554368 619163 505659
0111100010001000: 609500 554368 615613 619163
0110100110000100: 609500 554368 615613 477687
0110100110000100: 609500 554368 615613 505659
0110100110010110: 609500 554368 615613 562720
0110100110010110: 609500 554368 615613 597843
0110100110010110: 609500 554368 615613 562720
0110100110010110: 609500 554368 615613 597843
0111100010001000: 609500 554368 619163 615613
0110100110000100: 609500 554368 619163 477687
0110100110000100: 609500 554368 619163 562720
0110100110000100: 609500 554368 619163 597843
0110100110000100: 609500 554368 619163 477687
0110100110000100: 609500 554368 619163 562720
0110100110000100: 609500 554368 619163 597843
0111100110001100: 609500 554368 619163 542906
0110100110010110: 609500 554368 619163 505659
0110100110010110: 609500 554368 619163 505659
0110100110000100: 609500 554368 615613 477687
0110100110000100: 609500 554368 615613 505659
0110100110000100: 609500 554368 615613 477687
0110100110000100: 609500 554368 615613 505659
0111100110001100: 609500 554368 615613 542906
0110100110010110: 609500 554368 615613 562720
0110100110010110: 609500 554368 615613 597843
0111101011001000: 609500 554368 542906 619163
0111101011001000: 609500 554368 542906 615613
0111100010001000: 609500 554368 619163 615613
0111100010001000: 609500 554368 619163 615613
0111100010001000: 609500 554368 615613 619163
0111100010001000: 609500 554368 615613 619163
0111101011001000: 609500 554368 542906 619163
0111101011001000: 609500 554368 542906 615613
0111101011001000: 609500 554368 542906 619163
0111101011001000: 609500 554368 542906 615613
0110101111000100: 609500 554368 542906 477687
0110101111000100: 609500 554368 542906 562720
0110101111000100: 609500 554368 542906 597843
0110101111000100: 609500 554368 542906 505659
0110101111000100: 609500 554368 542906 477687
0110101111000100: 609500 554368 542906 562720
0110101111000100: 609500 554368 542906 597843
0110101111000100: 609500 554368 542906 505659
0111101011001000: 609500 554368 542906 619163
0111101011001000: 609500 554368 542906 615613
0110100110000100: 609500 554368 619163 477687
0110100110000100: 609500 554368 619163 562720
0110100110000100: 609500 554368 619163 597843
0110100110000100: 609500 554368 619163 477687
0110100110000100: 609500 554368 619163 562720
0110100110000100: 609500 554368 619163 597843
0111100110001100: 609500 554368 619163 542906
0111100110001100: 609500 554368 619163 542906
0111100110001100: 609500 554368 619163 542906
0111100010001000: 609500 554368 619163 615613
0110100110010110: 609500 554368 619163 505659
0110100110010110: 609500 554368 619163 505659
0110100110000100: 609500 554368 615613 477687
0110100110000100: 609500 554368 615613 505659
0110100110000100: 609500 554368 615613 477687
0110100110000100: 609500 554368 615613 505659
0111100110001100: 609500 554368 615613 542906
0111100110001100: 609500 554368 615613 542906
0111100110001100: 609500 554368 615613 542906
0111100010001000: 609500 554368 615613 619163
0111100010001000: 609500 554368 615613 619163
0110100110010110: 609500 554368 615613 562720
0110100110010110: 609500 554368 615613 597843
0110100110010110: 609500 554368 615613 562720
0110100110010110: 609500 554368 615613 597843
0111101011001000: 609500 554368 542906 619163
0111101011001000: 609500 554368 542906 615613
0110100010010010: 609500 542906 619163 505659
0110100010010010: 609500 542906 619163 505659
0111100010001000: 609500 542906 615613 619163
0110100010010010: 609500 542906 615613 562720
0110100010010010: 609500 542906 615613 597843
0110100010010010: 609500 542906 615613 562720
0110100010010010: 609500 542906 615613 597843
0111100010001000: 609500 542906 619163 615613
0111100110001100: 609500 542906 619163 554368
0111100110001100: 609500 542906 615613 554368
0111101011001000: 609500 542906 554368 619163
0111101011001000: 609500 542906 554368 615613
0110101011010010: 609500 542906 554368 477687
0110101011010010: 609500 542906 554368 562720
0110101011010010: 609500 542906 554368 597843
0110101011010010: 609500 542906 554368 505659
0110101011010010: 609500 542906 554368 477687
0110101011010010: 609500 542906 554368 562720
0110101011010010: 609500 542906 554368 597843
0110101011010010: 609500 542906 554368 505659
0111101011001000: 609500 542906 554368 619163
0111101011001000: 609500 542906 554368 615613
0111101011001000: 609500 542906 554368 619163
0111101011001000: 609500 542906 554368 619163
0111101011001000: 609500 542906 554368 615613
0111101011001000: 609500 542906 554368 619163
0111101011001000: 609500 542906 554368 615613
0111101011001000: 609500 542906 554368 619163
0111101011001000: 609500 542906 554368 615613
0111101011001000: 609500 542906 554368 619163
0111101011001000: 609500 542906 554368 615613
0110100010010010: 609500 615613 619163 505659
0110100010010010: 609500 615613 619163 505659
0111100010001000: 609500 615613 554368 619163
0110100010010010: 609500 615613 554368 477687
0110100010010010: 609500 615613 554368 505659
0111100010011010: 609500 615613 554368 542906
0110100110010110: 609500 615613 554368 562720
0110100110010110: 609500 615613 554368 597843
0111100010001000: 609500 615613 542906 619163
0111100010011010: 609500 615613 542906 554368
0111100010001000: 609500 615613 619163 554368
0111100010001000: 609500 615613 619163 542906
0110100110000100: 609500 615613 619163 562720
0110100110000100: 609500 615613 619163 597843
0110100110000100: 609500 615613 619163 562720
0110100110000100: 609500 615613 619163 597843
0110100010010010: 609500 615613 619163 505659
0111100010001000: 609500 615613 554368 619163
0111100010001000: 609500 615613 554368 619163
0110100110010110: 609500 615613 554368 562720
0110100110010110: 609500 615613 554368 597843
0110100110010110: 609500 615613 554368 562720
0110100110010110: 609500 615613 554368 597843
0111100010001000: 609500 615613 542906 619163
0111100010001000: 609500 615613 542906 619163
0110100110000100: 609500 615613 542906 562720
0110100110000100: 609500 615613 542906 597843
0110100110000100: 609500 615613 542906 562720
0110100110000100: 609500 615613 542906 597843
0101101001001000: 609500 615613 562720 619163
0101101001001000: 609500 615613 562720 542906
0100101001010010: 609500 615613 562720 643434
0100101001010010: 609500 615613 562720 643434
0101101001011010: 609500 615613 562720 554368
0101101001011010: 609500 615613 562720 554368
0101101001011010: 609500 615613 562720 554368
0100101001010010: 609500 615613 562720 643434
0101101001001000: 609500 615613 597843 619163
0101101001001000: 609500 615613 597843 542906
0100101001010010: 609500 615613 597843 553385
0100101001010010: 609500 615613 597843 553385
0100101101000100: 609500 615613 597843 562720
0101101001011010: 609500 615613 597843 554368
0101101001011010: 609500 615613 597843 554368
0101101001011010: 609500 615613 597843 554368
0100101001010010: 609500 615613 597843 553385
0110101011010010: 542906 554368 609500 619163
0110101011010010: 542906 554368 609500 615613
0110101011010010: 542906 554368 609500 619163
0110101011010010: 542906 554368 609500 615613
0110101111000100: 542906 554368 609500 477687
0110101111000100: 542906 554368 609500 562720
0110101111000100: 542906 554368 609500 597843
0110101111000100: 542906 554368 609500 505659
0110101111000100: 542906 554368 609500 477687
0110101111000100: 542906 554368 609500 562720
0110101111000100: 542906 554368 609500 597843
0110101111000100: 542906 554368 609500 505659
0110101011010010: 542906 554368 609500 619163
0110101011010010: 542906 554368 609500 615613
0110101111000100: 542906 609500 554368 619163
0110101111000100: 542906 609500 554368 615613
0110101111000100: 542906 609500 554368 619163
0110101111000100: 542906 609500 554368 615613
0110101111000100: 542906 609500 554368 619163
0110101111000100: 542906 609500 554368 615613
0101101001001000: 554368 477687 643434 542906
0101101001001000: 554368 477687 643434 609500
0101101001001000: 554368 477687 643434 597843
0101101001001000: 554368 477687 643434 505659
0101101001001000: 554368 477687 562182 542906
0101101001001000: 554368 477687 562182 609500
0101101001001000: 554368 477687 562182 562720
0101101001001000: 554368 477687 562182 597843
0100101101000100: 554368 477687 562182 643434
0111101011001000: 554368 542906 609500 477687
0111101011001000: 554368 542906 609500 562720
0111101011001000: 554368 542906 609500 597843
0111101011001000: 554368 542906 609500 505659
0111101011001000: 554368 609500 542906 477687
0111101011001000: 554368 609500 542906 562720
0111101011001000: 554368 609500 542906 597843
0111101011001000: 554368 609500 542906 505659
0101101001001000: 554368 609500 619163 477687
0101101001001000: 554368 609500 619163 562720
0101101001001000: 554368 609500 619163 597843
0101101101001100: 554368 609500 619163 542906
0101101001001000: 554368 609500 615613 477687
0101101001001000: 554368 609500 615613 505659
0101101101001100: 554368 609500 615613 542906
0100101101000100: 554368 609500 615613 619163
0110100110010110: 554368 562720 477687 643434
0111100010001000: 554368 562720 542906 477687
0111100010001000: 554368 562720 609500 477687
0110100110010110: 554368 562720 609500 615613
0101101001001000: 554368 562720 643434 542906
0101101001001000: 554368 562720 643434 609500
0101101001001000: 554368 562720 643434 597843
0101101001001000: 554368 562720 643434 505659
0101101001001000: 554368 562720 615613 477687
0101101001001000: 554368 562720 615613 542906
0101101001001000: 554368 562720 615613 505659
0100101101000100: 554368 562720 615613 643434
0111100010001000: 554368 597843 542906 477687
0111100010001000: 554368 597843 609500 477687
0110100110010110: 554368 597843 609500 615613
0111100010001000: 554368 597843 562720 477687
0111100010001000: 554368 597843 562720 542906
0111100010001000: 554368 597843 562720 609500
0110100110010110: 554368 597843 562720 615613
0101101001001000: 554368 597843 553385 477687
0101101001001000: 554368 597843 553385 542906
0101101001001000: 554368 597843 553385 609500
0101101001001000: 554368 597843 553385 562720
0101101001001000: 554368 597843 553385 505659
0101101001001000: 554368 597843 615613 477687
0101101001001000: 554368 597843 615613 542906
0101101001001000: 554368 597843 615613 505659
0100101101000100: 554368 597843 615613 553385
0110100110010110: 554368 505659 477687 562182
0111100010001000: 554368 505659 542906 477687
0111100010001000: 554368 505659 609500 477687
0110100110010110: 554368 505659 609500 619163
0111100010001000: 554368 505659 562720 477687
0111100010001000: 554368 505659 562720 542906
0111100010001000: 554368 505659 562720 609500
0111100010001000: 554368 505659 597843 477687
0111100010001000: 554368 505659 597843 542906
0111100010001000: 554368 505659 597843 609500
0111100010001000: 554368 505659 597843 562720
0101101001001000: 554368 505659 619163 477687
0101101001001000: 554368 505659 619163 542906
0101101001001000: 554368 505659 619163 562720
0101101001001000: 554368 505659 619163 597843
0101101001001000: 554368 505659 562182 542906
0101101001001000: 554368 505659 562182 609500
0101101001001000: 554368 505659 562182 562720
0101101001001000: 554368 505659 562182 597843
0100101101000100: 554368 505659 562182 619163
0110100110000100: 554368 477687 542906 643434
0110100110000100: 554368 477687 542906 562182
0111100010011010: 554368 477687 542906 609500
0110100110000100: 554368 477687 609500 643434
0110100110000100: 554368 477687 609500 562182
0110100010010010: 554368 477687 609500 619163
0110100010010010: 554368 477687 609500 615613
0111100010011010: 554368 477687 609500 542906
0110100010010010: 554368 477687 609500 619163
0110100010010010: 554368 477687 609500 615613
0111100010001000: 554368 477687 562720 542906
0111100010001000: 554368 477687 562720 609500
0110100110000100: 554368 477687 562720 562182
0110100010010010: 554368 477687 562720 615613
0110100010010010: 554368 477687 562720 615613
0110100110010110: 554368 477687 562720 643434
0110100110010110: 554368 477687 562720 643434
0111100010001000: 554368 477687 597843 542906
0111100010001000: 554368 477687 597843 609500
0111100010001000: 554368 477687 597843 562720
0110100110000100: 554368 477687 597843 643434
0110100110000100: 554368 477687 597843 562182
0110100010010010: 554368 477687 597843 553385
0110100010010010: 554368 477687 597843 615613
0110100010010010: 554368 477687 597843 553385
0110100010010010: 554368 477687 597843 615613
0111100010001000: 554368 477687 505659 542906
0111100010001000: 554368 477687 505659 609500
0111100010001000: 554368 477687 505659 562720
0111100010001000: 554368 477687 505659 597843
0110100110000100: 554368 477687 505659 643434
0110100010010010: 554368 477687 505659 619163
0110100010010010: 554368 477687 505659 619163
0110100110010110: 554368 477687 505659 562182
0110100110010110: 554368 477687 505659 562182
0110100110000100: 554368 477687 542906 643434
0110100110000100: 554368 477687 542906 562182
0110100110000100: 554368 477687 542906 643434
0110100110000100: 554368 477687 542906 562182
0110100110000100: 554368 477687 542906 643434
0110100110000100: 554368 477687 542906 562182
0110100110000100: 554368 477687 609500 643434
0110100110000100: 554368 477687 609500 562182
0110100110000100: 554368 477687 609500 643434
0110100110000100: 554368 477687 609500 562182
0110100110000100: 554368 477687 609500 643434
0110100110000100: 554368 477687 609500 562182
0110100110000100: 554368 477687 562720 562182
0110100110000100: 554368 477687 562720 562182
0110100110000100: 554368 477687 562720 562182
0110100110010110: 554368 477687 562720 643434
0110100110000100: 554368 477687 597843 643434
0110100110000100: 554368 477687 597843 562182
0110100110000100: 554368 477687 597843 643434
0110100110000100: 554368 477687 597843 562182
0110100110000100: 554368 477687 597843 643434
0110100110000100: 554368 477687 597843 562182
0110100110000100: 554368 477687 505659 643434
0110100110000100: 554368 477687 505659 643434
0110100110000100: 554368 477687 505659 643434
0110100110010110: 554368 477687 505659 562182
0101101001001000: 554368 477687 643434 542906
0101101001001000: 554368 477687 643434 609500
0101101001001000: 554368 477687 643434 597843
0101101001001000: 554368 477687 643434 505659
0101101001011010: 554368 477687 643434 562720
0101101001011010: 554368 477687 643434 562720
0101101001011010: 554368 477687 643434 562720
0101101001011010: 554368 477687 643434 562720
0101101001001000: 554368 477687 562182 542906
0101101001001000: 554368 477687 562182 609500
0101101001001000: 554368 477687 562182 562720
0101101001001000: 554368 477687 562182 597843
0100101101000100: 554368 477687 562182 643434
0101101001011010: 554368 477687 562182 505659
0101101001011010: 554368 477687 562182 505659
0101101001011010: 554368 477687 562182 505659
0101101001011010: 554368 477687 562182 505659
0110100010010010: 554368 542906 477687 643434
0110100010010010: 554368 542906 477687 562182
0110100010010010: 554368 542906 477687 643434
0110100010010010: 554368 542906 477687 562182
0111100010001000: 554368 542906 562720 477687
0110100010010010: 554368 542906 562720 643434
0110100010010010: 554368 542906 562720 615613
0110100010010010: 554368 542906 562720 643434
0110100010010010: 554368 542906 562720 615613
0111100010001000: 554368 542906 597843 477687
0111100010001000: 554368 542906 597843 562720
0110100010010010: 554368 542906 597843 553385
0110100010010010: 554368 542906 597843 615613
0110100010010010: 554368 542906 597843 553385
0110100010010010: 554368 542906 597843 615613
0111100010001000: 554368 542906 505659 477687
0111100010001000: 554368 542906 505659 562720
0111100010001000: 554368 542906 505659 597843
0110100010010010: 554368 542906 505659 619163
0110100010010010: 554368 542906 505659 562182
0110100010010010: 554368 542906 505659 619163
0110100010010010: 554368 542906 505659 562182
0111100010001000: 554368 542906 477687 562720
0111100010001000: 554368 542906 477687 597843
0111100010001000: 554368 542906 477687 505659
0111100110001100: 554368 542906 477687 609500
0111100110001100: 554368 542906 562720 609500
0111100110001100: 554368 542906 597843 609500
0111100110001100: 554368 542906 505659 609500
0111101011001000: 554368 542906 609500 477687
0111101011001000: 554368 542906 609500 562720
0111101011001000: 554368 542906 609500 597843
0111101011001000: 554368 542906 609500 505659
0110101011010010: 554368 542906 609500 619163
0110101011010010: 554368 542906 609500 615613
0110101011010010: 554368 542906 609500 619163
0110101011010010: 554368 542906 609500 615613
0111101011001000: 554368 542906 609500 477687
0111101011001000: 554368 542906 609500 562720
0111101011001000: 554368 542906 609500 597843
0111101011001000: 554368 542906 609500 505659
0111101011001000: 554368 542906 609500 477687
0111101011001000: 554368 542906 609500 562720
0111101011001000: 554368 542906 609500 597843
0111101011001000: 554368 542906 609500 505659
0110100010010010: 554368 609500 477687 643434
0110100010010010: 554368 609500 477687 562182
0110100010010010: 554368 609500 477687 643434
0110100010010010: 554368 609500 477687 562182
0111100010001000: 554368 609500 562720 477687
0110100010010010: 554368 609500 562720 643434
0110100010010010: 554368 609500 562720 643434
0110100110010110: 554368 609500 562720 615613
0111100010001000: 554368 609500 597843 477687
0111100010001000: 554368 609500 597843 562720
0110100010010010: 554368 609500 597843 553385
0110100010010010: 554368 609500 597843 553385
0110100110010110: 554368 609500 597843 615613
0111100010001000: 554368 609500 505659 477687
0111100010001000: 554368 609500 505659 562720
0111100010001000: 554368 609500 505659 597843
0110100010010010: 554368 609500 505659 562182
0110100010010010: 554368 609500 505659 562182
0110100110010110: 554368 609500 505659 619163
0111100010001000: 554368 609500 477687 562720
0111100010001000: 554368 609500 477687 597843
0111100010001000: 554368 609500 477687 505659
0110100110000100: 554368 609500 477687 619163
0110100110000100: 554368 609500 477687 615613
0111100110001100: 554368 609500 477687 542906
0110100110000100: 554368 609500 477687 619163
0110100110000100: 554368 609500 477687 615613
0110100010010010: 554368 609500 477687 643434
0110100010010010: 554368 609500 477687 562182
0110100110000100: 554368 609500 562720 619163
0111100110001100: 554368 609500 562720 542906
0110100110000100: 554368 609500 562720 619163
0110100010010010: 554368 609500 562720 643434
0110100110010110: 554368 609500 562720 615613
0110100110000100: 554368 609500 597843 619163
0111100110001100: 554368 609500 597843 542906
0110100110000100: 554368 609500 597843 619163
0110100010010010: 554368 609500 597843 553385
0110100110010110: 554368 609500 597843 615613
0110100110000100: 554368 609500 505659 615613
0111100110001100: 554368 609500 505659 542906
0110100110000100: 554368 609500 505659 615613
0110100010010010: 554368 609500 505659 562182
0110100110010110: 554368 609500 505659 619163
0111101011001000: 554368 609500 542906 477687
0111101011001000: 554368 609500 542906 562720
0111101011001000: 554368 609500 542906 597843
0111101011001000: 554368 609500 542906 505659
0101101001001000: 554368 609500 619163 477687
0101101001001000: 554368 609500 619163 562720
0101101001001000: 554368 609500 619163 597843
0101101101001100: 554368 609500 619163 542906
0101101001011010: 554368 609500 619163 505659
0101101001011010: 554368 609500 619163 505659
0101101001011010: 554368 609500 619163 505659
0101101001011010: 554368 609500 619163 505659
0101101001001000: 554368 609500 615613 477687
0101101001001000: 554368 609500 615613 505659
0101101101001100: 554368 609500 615613 542906
0100101101000100: 554368 609500 615613 619163
0101101001011010: 554368 609500 615613 562720
0101101001011010: 554368 609500 615613 597843
0101101001011010: 554368 609500 615613 562720
0101101001011010: 554368 609500 615613 597843
0101101001011010: 554368 609500 615613 562720
0101101001011010: 554368 609500 615613 597843
0101101001011010: 554368 609500 615613 562720
0101101001011010: 554368 609500 615613 597843
0111101011001000: 554368 609500 542906 477687
0111101011001000: 554368 609500 542906 562720
0111101011001000: 554368 609500 542906 597843
0111101011001000: 554368 609500 542906 505659
0111101011001000: 554368 609500 542906 477687
0111101011001000: 554368 609500 542906 562720
0111101011001000: 554368 609500 542906 597843
0111101011001000: 554368 609500 542906 505659
0110101111000100: 554368 609500 542906 619163
0110101111000100: 554368 609500 542906 615613
0110101111000100: 554368 609500 542906 619163
0110101111000100: 554368 609500 542906 615613
0110101111000100: 554368 609500 542906 619163
0110101111000100: 554368 609500 542906 615613
0111101011001000: 554368 609500 542906 477687
0111101011001000: 554368 609500 542906 562720
0111101011001000: 554368 609500 542906 597843
0111101011001000: 554368 609500 542906 505659
0111101011001000: 554368 609500 542906 477687
0111101011001000: 554368 609500 542906 562720
0111101011001000: 554368 609500 542906 597843
0111101011001000: 554368 609500 542906 505659
0110101111000100: 554368 609500 542906 619163
0110101111000100: 554368 609500 542906 615613
0110100010010010: 554368 562720 477687 562182
0110100010010010: 554368 562720 477687 562182
0110100110010110: 554368 562720 477687 643434
0111100010001000: 554368 562720 542906 477687
0111100010011010: 554368 562720 542906 609500
0111100010001000: 554368 562720 609500 477687
0110100010010010: 554368 562720 609500 619163
0111100010011010: 554368 562720 609500 542906
0110100010010010: 554368 562720 609500 619163
0110100110010110: 554368 562720 609500 615613
0111100010001000: 554368 562720 597843 477687
0111100010001000: 554368 562720 597843 542906
0111100010001000: 554368 562720 597843 609500
0110100010010010: 554368 562720 597843 553385
0110100010010010: 554368 562720 597843 553385
0110100110010110: 554368 562720 597843 615613
0111100010001000: 554368 562720 505659 477687
0111100010001000: 554368 562720 505659 542906
0111100010001000: 554368 562720 505659 609500
0111100010001000: 554368 562720 505659 597843
0110100010010010: 554368 562720 505659 619163
0110100010010010: 554368 562720 505659 562182
0110100010010010: 554368 562720 505659 619163
0110100010010010: 554368 562720 505659 562182
0111100010001000: 554368 562720 477687 542906
0111100010001000: 554368 562720 477687 609500
0111100010001000: 554368 562720 477687 597843
0111100010001000: 554368 562720 477687 505659
0110100110000100: 554368 562720 477687 615613
0110100110000100: 554368 562720 477687 615613
0110100110010110: 554368 562720 477687 643434
0110100110010110: 554368 562720 477687 643434
0111100010001000: 554368 562720 542906 477687
0111100010001000: 554368 562720 542906 597843
0111100010001000: 554368 562720 542906 505659
0111100010001000: 554368 562720 542906 477687
0110100110000100: 554368 562720 542906 643434
0110100110000100: 554368 562720 542906 615613
0110100110000100: 554368 562720 542906 643434
0110100110000100: 554368 562720 542906 615613
0111100010001000: 554368 562720 609500 477687
0111100010001000: 554368 562720 609500 597843
0111100010001000: 554368 562720 609500 505659
0111100010001000: 554368 562720 609500 477687
0110100110000100: 554368 562720 609500 643434
0110100110000100: 554368 562720 609500 643434
0110100110010110: 554368 562720 609500 615613
0110100110010110: 554368 562720 609500 615613
0110100110000100: 554368 562720 597843 643434
0110100110000100: 554368 562720 597843 643434
0110100110010110: 554368 562720 597843 615613
0110100110000100: 554368 562720 505659 643434
0110100110000100: 554368 562720 505659 615613
0110100110000100: 554368 562720 505659 643434
0110100110000100: 554368 562720 505659 615613
0101101001001000: 554368 562720 643434 542906
0101101001001000: 554368 562720 643434 609500
0101101001001000: 554368 562720 643434 597843
0101101001001000: 554368 562720 643434 505659
0101101001011010: 554368 562720 643434 477687
0101101001011010: 554368 562720 643434 477687
0101101001011010: 554368 562720 643434 477687
0101101001011010: 554368 562720 643434 477687
0101101001001000: 554368 562720 615613 477687
0101101001001000: 554368 562720 615613 542906
0101101001001000: 554368 562720 615613 505659
0100101101000100: 554368 562720 615613 643434
0101101001011010: 554368 562720 615613 609500
0101101001011010: 554368 562720 615613 597843
0101101001011010: 554368 562720 615613 609500
0101101001011010: 554368 562720 615613 597843
0101101001011010: 554368 562720 615613 609500
0101101001011010: 554368 562720 615613 597843
0110100010010010: 554368 597843 477687 643434
0110100010010010: 554368 597843 477687 562182
0110100010010010: 554368 597843 477687 643434
0110100010010010: 554368 597843 477687 562182
0111100010001000: 554368 597843 542906 477687
0111100010011010: 554368 597843 542906 609500
0111100010001000: 554368 597843 609500 477687
0110100010010010: 554368 597843 609500 619163
0111100010011010: 554368 597843 609500 542906
0110100010010010: 554368 597843 609500 619163
0110100110010110: 554368 597843 609500 615613
0111100010001000: 554368 597843 562720 477687
0111100010001000: 554368 597843 562720 542906
0111100010001000: 554368 597843 562720 609500
0110100010010010: 554368 597843 562720 643434
0110100010010010: 554368 597843 562720 643434
0110100110010110: 554368 597843 562720 615613
0111100010001000: 554368 597843 505659 477687
0111100010001000: 554368 597843 505659 542906
0111100010001000: 554368 597843 505659 609500
0111100010001000: 554368 597843 505659 562720
0110100010010010: 554368 597843 505659 619163
0110100010010010: 554368 597843 505659 562182
0110100010010010: 554368 597843 505659 619163
0110100010010010: 554368 597843 505659 562182
0111100010001000: 554368 597843 477687 542906
0111100010001000: 554368 597843 477687 609500
0111100010001000: 554368 597843 477687 562720
0111100010001000: 554368 597843 477687 505659
0110100110000100: 554368 597843 477687 553385
0110100110000100: 554368 597843 477687 615613
0110100110000100: 554368 597843 477687 553385
0110100110000100: 554368 597843 477687 615613
0111100010001000: 554368 597843 542906 477687
0111100010001000: 554368 597843 542906 562720
0111100010001000: 554368 597843 542906 505659
0111100010001000: 554368 597843 542906 477687
0110100110000100: 554368 597843 542906 553385
0110100110000100: 554368 597843 542906 615613
0110100110000100: 554368 597843 542906 553385
0110100110000100: 554368 597843 542906 615613
0111100010001000: 554368 597843 609500 477687
0111100010001000: 554368 597843 609500 562720
0111100010001000: 554368 597843 609500 505659
0111100010001000: 554368 597843 609500 477687
0110100110000100: 554368 597843 609500 553385
0110100110000100: 554368 597843 609500 553385
0110100110010110: 554368 597843 609500 615613
0110100110010110: 554368 597843 609500 615613
0111100010001000: 554368 597843 562720 477687
0111100010001000: 554368 597843 562720 542906
0111100010001000: 554368 597843 562720 609500
0111100010001000: 554368 597843 562720 505659
0111100010001000: 554368 597843 562720 477687
0111100010001000: 554368 597843 562720 542906
0111100010001000: 554368 597843 562720 609500
0110100110000100: 554368 597843 562720 553385
0110100110000100: 554368 597843 562720 553385
0110100110010110: 554368 597843 562720 615613
0110100110010110: 554368 597843 562720 615613
0110100110000100: 554368 597843 505659 553385
0110100110000100: 554368 597843 505659 615613
0110100110000100: 554368 597843 505659 553385
0110100110000100: 554368 597843 505659 615613
0101101001001000: 554368 597843 553385 477687
0101101001001000: 554368 597843 553385 542906
0101101001001000: 554368 597843 553385 609500
0101101001001000: 554368 597843 553385 562720
0101101001001000: 554368 597843 553385 505659
0101101001001000: 554368 597843 615613 477687
0101101001001000: 554368 597843 615613 542906
0101101001001000: 554368 597843 615613 505659
0100101101000100: 554368 597843 615613 553385
0101101001011010: 554368 597843 615613 609500
0101101001011010: 554368 597843 615613 562720
0101101001011010: 554368 597843 615613 609500
0101101001011010: 554368 597843 615613 562720
0101101001011010: 554368 597843 615613 609500
0101101001011010: 554368 597843 615613 562720
0110100010010010: 554368 505659 477687 643434
0110100010010010: 554368 505659 477687 643434
0110100110010110: 554368 505659 477687 562182
0111100010001000: 554368 505659 542906 477687
0111100010011010: 554368 505659 542906 609500
0111100010001000: 554368 505659 609500 477687
0110100010010010: 554368 505659 609500 615613
0111100010011010: 554368 505659 609500 542906
0110100010010010: 554368 505659 609500 615613
0110100110010110: 554368 505659 609500 619163
0111100010001000: 554368 505659 562720 477687
0111100010001000: 554368 505659 562720 542906
0111100010001000: 554368 505659 562720 609500
0110100010010010: 554368 505659 562720 643434
0110100010010010: 554368 505659 562720 615613
0110100010010010: 554368 505659 562720 643434
0110100010010010: 554368 505659 562720 615613
0111100010001000: 554368 505659 597843 477687
0111100010001000: 554368 505659 597843 542906
0111100010001000: 554368 505659 597843 609500
0111100010001000: 554368 505659 597843 562720
0110100010010010: 554368 505659 597843 553385
0110100010010010: 554368 505659 597843 615613
0110100010010010: 554368 505659 597843 553385
0110100010010010: 554368 505659 597843 615613
0111100010001000: 554368 505659 477687 542906
0111100010001000: 554368 505659 477687 609500
0111100010001000: 554368 505659 477687 562720
0111100010001000: 554368 505659 477687 597843
0110100110000100: 554368 505659 477687 619163
0110100110000100: 554368 505659 477687 619163
0110100110010110: 554368 505659 477687 562182
0110100110010110: 554368 505659 477687 562182
0111100010001000: 554368 505659 542906 477687
0111100010001000: 554368 505659 542906 562720
0111100010001000: 554368 505659 542906 597843
0111100010001000: 554368 505659 542906 477687
0110100110000100: 554368 505659 542906 619163
0110100110000100: 554368 505659 542906 562182
0110100110000100: 554368 505659 542906 619163
0110100110000100: 554368 505659 542906 562182
0111100010001000: 554368 505659 609500 477687
0111100010001000: 554368 505659 609500 562720
0111100010001000: 554368 505659 609500 597843
0111100010001000: 554368 505659 609500 477687
0110100110000100: 554368 505659 609500 562182
0110100110000100: 554368 505659 609500 562182
0110100110010110: 554368 505659 609500 619163
0110100110010110: 554368 505659 609500 619163
0111100010001000: 554368 505659 562720 477687
0111100010001000: 554368 505659 562720 542906
0111100010001000: 554368 505659 562720 609500
0111100010001000: 554368 505659 562720 597843
0111100010001000: 554368 505659 562720 477687
0111100010001000: 554368 505659 562720 542906
0111100010001000: 554368 505659 562720 609500
0110100110000100: 554368 505659 562720 619163
0110100110000100: 554368 505659 562720 562182
0110100110000100: 554368 505659 562720 619163
0110100110000100: 554368 505659 562720 562182
0111100010001000: 554368 505659 597843 477687
0111100010001000: 554368 505659 597843 542906
0111100010001000: 554368 505659 597843 609500
0111100010001000: 554368 505659 597843 562720
0111100010001000: 554368 505659 597843 477687
0111100010001000: 554368 505659 597843 542906
0111100010001000: 554368 505659 597843 609500
0111100010001000: 554368 505659 597843 562720
0110100110000100: 554368 505659 597843 619163
0110100110000100: 554368 505659 597843 562182
0110100110000100: 554368 505659 597843 619163
0110100110000100: 554368 505659 597843 562182
0101101001001000: 554368 505659 619163 477687
0101101001001000: 554368 505659 619163 542906
0101101001001000: 554368 505659 619163 562720
0101101001001000: 554368 505659 619163 597843
0101101001011010: 554368 505659 619163 609500
0101101001011010: 554368 505659 619163 609500
0101101001011010: 554368 505659 619163 609500
0101101001011010: 554368 505659 619163 609500
0101101001001000: 554368 505659 562182 542906
0101101001001000: 554368 505659 562182 609500
0101101001001000: 554368 505659 562182 562720
0101101001001000: 554368 505659 562182 597843
0100101101000100: 554368 505659 562182 619163
0101101001011010: 554368 505659 562182 477687
0101101001011010: 554368 505659 562182 477687
0101101001011010: 554368 505659 562182 477687
0101101001011010: 554368 505659 562182 477687
0110100110010110: 477687 643434 554368 562720
0101101001001000: 477687 643434 562720 562182
0110100110010110: 477687 562182 554368 505659
0111100010001000: 477687 562182 643434 554368
0101101001001000: 477687 562182 505659 643434
0110100110010110: 477687 554368 643434 562720
0111100010001000: 477687 554368 562182 643434
0110100110010110: 477687 554368 562182 505659
0110100110000100: 477687 554368 643434 542906
0110100110000100: 477687 554368 643434 609500
0110100110000100: 477687 554368 643434 597843
0110100110000100: 477687 554368 643434 505659
0110100110010110: 477687 554368 643434 562720
0110100110000100: 477687 554368 562182 542906
0110100110000100: 477687 554368 562182 609500
0110100110000100: 477687 554368 562182 562720
0110100110000100: 477687 554368 562182 597843
0110100110010110: 477687 554368 562182 505659
0111100010001000: 477687 554368 643434 562182
0111100010001000: 477687 554368 643434 562182
0111100010001000: 477687 554368 562182 643434
0111100010001000: 477687 554368 562182 643434
0110100110000100: 477687 554368 643434 542906
0110100110000100: 477687 554368 643434 609500
0110100110000100: 477687 554368 643434 597843
0110100110000100: 477687 554368 643434 505659
0110100110000100: 477687 554368 643434 542906
0110100110000100: 477687 554368 643434 609500
0110100110000100: 477687 554368 643434 597843
0110100110000100: 477687 554368 643434 505659
0111100010001000: 477687 554368 643434 562182
0110100110010110: 477687 554368 643434 562720
0110100110010110: 477687 554368 643434 562720
0110100110000100: 477687 554368 562182 542906
0110100110000100: 477687 554368 562182 609500
0110100110000100: 477687 554368 562182 562720
0110100110000100: 477687 554368 562182 597843
0110100110000100: 477687 554368 562182 542906
0110100110000100: 477687 554368 562182 609500
0110100110000100: 477687 554368 562182 562720
0110100110000100: 477687 554368 562182 597843
0111100010001000: 477687 554368 562182 643434
0111100010001000: 477687 554368 562182 643434
0110100110010110: 477687 554368 562182 505659
0110100110010110: 477687 554368 562182 505659
0110100010010010: 477687 643434 554368 542906
0110100010010010: 477687 643434 554368 609500
0110100010010010: 477687 643434 554368 597843
0110100010010010: 477687 643434 554368 505659
0110100110010110: 477687 643434 554368 562720
0111100010001000: 477687 643434 562182 554368
0110100010010010: 477687 643434 562182 505659
0110100010010010: 477687 643434 562182 505659
0111100010001000: 477687 643434 554368 562182
0110100110010110: 477687 643434 554368 562720
0110100110010110: 477687 643434 554368 562720
0110100110000100: 477687 643434 562182 562720
0110100110000100: 477687 643434 562182 562720
0101101001001000: 477687 643434 562720 562182
0100101001010010: 477687 643434 562720 615613
0100101001010010: 477687 643434 562720 615613
0101101001011010: 477687 643434 562720 554368
0101101001011010: 477687 643434 562720 554368
0101101001011010: 477687 643434 562720 554368
0101101001001000: 477687 643434 562720 562182
0110100010010010: 477687 562182 554368 542906
0110100010010010: 477687 562182 554368 609500
0110100010010010: 477687 562182 554368 562720
0110100010010010: 477687 562182 554368 597843
0110100110010110: 477687 562182 554368 505659
0111100010001000: 477687 562182 643434 554368
0110100010010010: 477687 562182 643434 562720
0110100010010010: 477687 562182 643434 562720
0111100010001000: 477687 562182 554368 643434
0110100110010110: 477687 562182 554368 505659
0110100110010110: 477687 562182 554368 505659
0111100010001000: 477687 562182 643434 554368
0111100010001000: 477687 562182 643434 554368
0110100110000100: 477687 562182 643434 505659
0110100110000100: 477687 562182 643434 505659
0101101001001000: 477687 562182 505659 643434
0100101001010010: 477687 562182 505659 619163
0100101001010010: 477687 562182 505659 619163
0101101001011010: 477687 562182 505659 554368
0101101001011010: 477687 562182 505659 554368
0101101001011010: 477687 562182 505659 554368
0101101001001000: 477687 562182 505659 643434
0101101001001000: 477687 562182 505659 643434
0110100110010110: 619163 505659 609500 554368
0110100010010010: 619163 609500 505659 562182
0110100110010110: 619163 609500 505659 554368
0110100110000100: 619163 609500 505659 542906
0110100110000100: 619163 609500 505659 615613
0110100010010010: 619163 609500 505659 562182
0110100110010110: 619163 609500 505659 554368
0110100110000100: 619163 609500 505659 542906
0110100110000100: 619163 609500 505659 615613
0110100110000100: 619163 609500 505659 542906
0110100110000100: 619163 609500 505659 615613
0110100010010010: 619163 609500 505659 562182
0110100110010110: 619163 609500 505659 554368
0110100010010010: 619163 505659 609500 542906
0110100010010010: 619163 505659 609500 615613
0110100110010110: 619163 505659 609500 554368
0110100110000100: 619163 505659 609500 562182
0110100110010110: 619163 505659 609500 554368
0110100110010110: 619163 505659 609500 554368
0110100110000100: 619163 505659 609500 562182
0110100110000100: 619163 505659 609500 562182
0110100110010110: 619163 505659 609500 554368
0110100110000100: 619163 505659 609500 562182
