0110010011100000100001000: 596653 464517 460219 491701 569970
0110010011100000100001000: 596653 464517 479469 491701 569970
0110010010100010100000100: 596653 460219 464517 456820 569970
0110010010100010100000100: 596653 460219 464517 456820 491701
0110010010100010100000100: 596653 479469 464517 492124 569970
0110010010100010100000100: 596653 479469 464517 492124 491701
0110010011100000100001000: 596653 479469 464517 614851 492124
0110010010100010100000100: 596653 479469 464517 614851 569970
0110010010100010100100110: 596653 479469 464517 614851 491701
0110010010100010100000100: 596653 479469 460219 492124 456820
0110010011100000100001000: 596653 479469 460219 614851 492124
0110010010100010100100110: 596653 479469 460219 614851 456820
0110010010100010100000100: 479469 614851 492124 456820 641772
0110010011100000100001000: 479469 614851 492124 491701 456820
0110010010100010100000100: 479469 614851 492124 491701 641772
0110010011100000100001000: 479469 614851 596653 491701 456820
0110010010100010100000100: 479469 596653 492124 464517 641772
0110010011100000100001000: 479469 596653 492124 460219 464517
0110010010100010100000100: 479469 596653 492124 460219 641772
0110010010100010100000100: 479469 596653 614851 464517 456820
0110010011100000100001000: 479469 596653 614851 460219 464517
0110010010100010100000100: 479469 596653 614851 460219 491701
0111010101110001000001000: 653421 607682 470751 630050 556579
0110010010100010100000100: 653421 630050 607682 569970 556579
0111010100110001000100010: 653421 470751 607682 630050 569970
0110010011100000100001000: 482019 641772 556579 520621 492124
0110010011100000100001000: 482019 641772 513072 520621 492124
0110010010100010100000100: 482019 556579 641772 607682 492124
0110010010100010100000100: 482019 556579 641772 607682 520621
0110010011100000100001000: 491701 464517 614851 596653 569970
0110010010100010100000100: 491701 614851 464517 456820 569970
0110010010100010100000100: 491701 614851 464517 456820 596653
0110010011100000100001000: 491701 614851 464517 479469 456820
0110010010100010100000100: 491701 614851 464517 479469 569970
0110010010100010100000100: 614851 491701 456820 464517 460219
0110010010100010100000100: 614851 479469 456820 492124 460219
0110010011100000100001000: 614851 479469 456820 596653 492124
0110010010100010100000100: 614851 479469 491701 492124 464517
0110010011100000100001000: 614851 479469 491701 596653 492124
0110010010100010100000100: 630050 653421 569970 607682 464517
0110010010100010100000100: 630050 653421 569970 470751 464517
0110010010100010100000100: 607682 653421 556579 630050 482019
0111010100110001000100010: 607682 470751 653421 556579 482019
0110010010100010100000100: 556579 482019 607682 641772 653421
0110010010100010100000100: 556579 482019 607682 641772 470751
0110010011100000100001000: 556579 482019 607682 513072 641772
0110010010100010100000100: 556579 482019 607682 513072 653421
0110010010100010100000100: 556579 482019 607682 513072 470751
0110010010100010100000100: 460219 596653 456820 464517 614851
0110010011100000100001000: 460219 596653 456820 479469 464517
0110010010100010100000100: 456820 614851 460219 491701 596653
0110010011100000100001000: 456820 614851 460219 479469 491701
0110010010100010100000100: 464517 491701 569970 614851 630050
0110010010100010100000100: 464517 596653 569970 460219 630050
0110010011100000100001000: 464517 596653 569970 479469 460219
0110010010100010100000100: 464517 596653 569970 479469 630050
0110010010100010100000100: 464517 596653 491701 460219 614851
0110010011100000100001000: 464517 596653 491701 479469 460219
0110010011100000100001000: 520621 641772 517813 482019 492124
0110010010100010100000100: 520621 517813 641772 626659 492124
0110010010100010100000100: 520621 517813 641772 626659 482019
0110010011100000100001000: 569970 464517 630050 596653 491701
0110010010100010100000100: 569970 630050 464517 653421 491701
0110010010100010100000100: 569970 630050 464517 653421 596653
0110010011100000100001000: 492124 641772 479469 482019 520621
0110010010100010100000100: 492124 479469 641772 614851 520621
0110010010100010100000100: 492124 479469 641772 614851 482019
0110010011100000100001000: 492124 479469 641772 596653 614851
0110010010100010100000100: 492124 479469 641772 596653 520621
0110010010100010100000100: 492124 479469 641772 596653 482019
0110010010100010100000100: 641772 520621 492124 517813 479469
0110010010100010100000100: 641772 482019 492124 556579 479469
0110010011100000100001000: 641772 482019 492124 513072 556579
0110010010100010100000100: 641772 482019 492124 513072 479469
0110010010100010100000100: 641772 482019 520621 556579 517813
0110010011100000100001000: 641772 482019 520621 513072 556579
0110010010100010100000100: 641772 482019 520621 513072 517813
