Vertex,0100101101000100,0110100110010110,0110100010010010,0111101011011010,0100101101010110,0110101111000100,0110101111010110,0101101101001100,0101101001001000,0111100110011110,0110100110000100,0100101001010010,0101101101011110,0111100110001100,0111100010001000,0111100010011010,0101101001011010,0111101111001100,0110101011010010,0111101011001000
516490,2.0,0.0,59.0,0.0,0.0,0.0,0.0,0.0,24.0,0.0,94.0,18.0,0.0,0.0,15.0,0.0,0.0,0.0,0.0,0.0
609356,4.0,0.0,65.0,0.0,0.0,18.0,0.0,4.0,32.0,0.0,122.0,18.0,0.0,12.0,70.0,6.0,0.0,0.0,12.0,37.0
530065,4.0,35.0,79.0,0.0,0.0,14.0,0.0,4.0,37.0,0.0,137.0,21.0,0.0,10.0,54.0,4.0,10.0,0.0,10.0,26.0
501997,10.0,105.0,147.0,51.0,2.0,126.0,51.0,24.0,82.0,4.0,281.0,43.0,7.0,80.0,157.0,50.0,41.0,54.0,90.0,263.0
588366,10.0,35.0,179.0,49.0,0.0,80.0,51.0,16.0,96.0,3.0,314.0,52.0,4.0,50.0,141.0,26.0,10.0,54.0,58.0,163.0
468068,2.0,35.0,36.0,0.0,0.0,0.0,0.0,0.0,16.0,0.0,56.0,8.0,0.0,0.0,15.0,0.0,10.0,0.0,0.0,0.0
578154,2.0,35.0,48.0,0.0,0.0,14.0,0.0,4.0,27.0,0.0,92.0,7.0,0.0,10.0,39.0,4.0,10.0,0.0,10.0,26.0
564617,4.0,70.0,105.0,45.0,0.0,91.0,44.0,18.0,63.0,2.0,208.0,27.0,3.0,57.0,128.0,30.0,30.0,54.0,65.0,188.0
474884,2.0,70.0,97.0,28.0,2.0,81.0,27.0,14.0,61.0,1.0,188.0,29.0,1.0,51.0,71.0,36.0,32.0,36.0,57.0,169.0
462691,10.0,140.0,144.0,79.0,0.0,186.0,78.0,36.0,80.0,5.0,280.0,16.0,8.0,116.0,187.0,62.0,59.0,90.0,132.0,387.0
601936,0.0,35.0,58.0,0.0,0.0,20.0,0.0,0.0,34.0,0.0,119.0,0.0,0.0,10.0,80.0,10.0,11.0,0.0,10.0,50.0
634130,4.0,35.0,58.0,0.0,0.0,18.0,0.0,4.0,34.0,0.0,119.0,4.0,0.0,12.0,70.0,6.0,11.0,0.0,12.0,38.0
475701,2.0,105.0,77.0,30.0,2.0,85.0,27.0,14.0,49.0,2.0,152.0,20.0,4.0,53.0,95.0,38.0,46.0,36.0,59.0,182.0
616269,2.0,0.0,44.0,16.0,0.0,35.0,17.0,2.0,30.0,1.0,100.0,5.0,1.0,19.0,71.0,16.0,0.0,18.0,19.0,84.0
491574,6.0,70.0,60.0,0.0,0.0,43.0,0.0,14.0,40.0,0.0,129.0,10.0,0.0,29.0,39.0,8.0,30.0,0.0,41.0,77.0
606361,8.0,70.0,92.0,18.0,2.0,57.0,17.0,14.0,59.0,2.0,181.0,30.0,4.0,39.0,84.0,24.0,32.0,18.0,45.0,110.0
graph,18.0,210.0,337.0,79.0,2.0,217.0,78.0,42.0,191.0,5.0,643.0,77.0,8.0,137.0,329.0,80.0,83.0,90.0,155.0,450.0
