0110100110010110: 637125 506896 626413 465710
0110100110010110: 637125 506896 626413 561428
0110100010010010: 637125 626413 506896 507964
0110100110010110: 637125 626413 506896 465710
0110100110010110: 637125 626413 506896 561428
0110100110010110: 637125 626413 506896 465710
0110100110010110: 637125 626413 506896 561428
0110100110010110: 637125 626413 506896 465710
0110100110010110: 637125 626413 506896 561428
0110100110010110: 637125 626413 506896 465710
0110100110010110: 637125 626413 506896 561428
0110100110000100: 637125 506896 626413 507964
0110100110010110: 637125 506896 626413 465710
0110100110010110: 637125 506896 626413 561428
0110100110010110: 637125 506896 626413 465710
0110100110010110: 637125 506896 626413 561428
0110100110000100: 637125 506896 626413 507964
0110100110000100: 637125 506896 626413 507964
0110100110010110: 637125 506896 626413 465710
0110100110010110: 637125 506896 626413 561428
0110100110010110: 637125 506896 626413 465710
0110100110010110: 637125 506896 626413 561428
0110100110010110: 637125 506896 626413 465710
0110100110010110: 637125 506896 626413 561428
0110100110000100: 637125 506896 626413 507964
0110100110000100: 637125 506896 626413 507964
0110100110010110: 637125 506896 626413 465710
0110100110010110: 637125 506896 626413 561428
0111101011001000: 506896 465710 561428 637125
0110101111010110: 506896 465710 561428 626413
0101101001001000: 506896 465710 626413 507964
0101101101011110: 506896 465710 626413 561428
0111101011001000: 506896 507964 561428 637125
0101101001001000: 506896 507964 477160 465710
0101101001001000: 506896 507964 477160 637125
0101101101001100: 506896 507964 477160 561428
0111101011001000: 506896 561428 465710 637125
0110101111010110: 506896 561428 465710 626413
0111101011001000: 506896 561428 507964 637125
0111101111001100: 506896 561428 507964 465710
0110100110010110: 506896 637125 465710 626413
0111100010001000: 506896 637125 507964 465710
0110100110010110: 506896 637125 561428 626413
0101101001001000: 506896 637125 626413 507964
0110100110000100: 506896 465710 507964 626413
0110100010010010: 506896 465710 507964 477160
0110100010010010: 506896 465710 507964 477160
0111100010001000: 506896 465710 637125 507964
0110100110010110: 506896 465710 637125 626413
0110100110010110: 506896 465710 637125 626413
0110100110000100: 506896 465710 507964 626413
0110100110000100: 506896 465710 507964 626413
0110100110000100: 506896 465710 507964 626413
0111100110001100: 506896 465710 637125 561428
0110100110010110: 506896 465710 637125 626413
0111101011001000: 506896 465710 561428 637125
0110101011010010: 506896 465710 561428 618889
0110101011010010: 506896 465710 561428 470074
0110101011010010: 506896 465710 561428 486715
0110101011010010: 506896 465710 561428 618889
0110101011010010: 506896 465710 561428 470074
0110101011010010: 506896 465710 561428 486715
0111101011011010: 506896 465710 561428 507964
0111101011011010: 506896 465710 561428 507964
0111101011011010: 506896 465710 561428 507964
0111101011001000: 506896 465710 561428 637125
0110101111010110: 506896 465710 561428 626413
0101101001001000: 506896 465710 626413 507964
0101101001011010: 506896 465710 626413 637125
0101101001011010: 506896 465710 626413 637125
0101101001011010: 506896 465710 626413 637125
0101101101011110: 506896 465710 626413 561428
0111101011001000: 506896 465710 561428 637125
0111101011001000: 506896 465710 561428 637125
0110101111010110: 506896 465710 561428 626413
0110101111010110: 506896 465710 561428 626413
0110101111010110: 506896 465710 561428 626413
0110101111010110: 506896 465710 561428 626413
0110100110000100: 506896 507964 465710 477160
0110100010010010: 506896 507964 465710 626413
0110100010010010: 506896 507964 465710 626413
0111100010001000: 506896 507964 637125 465710
0110100110000100: 506896 507964 637125 477160
0110100010010010: 506896 507964 637125 626413
0110100010010010: 506896 507964 637125 626413
0111100010001000: 506896 507964 465710 637125
0110100110000100: 506896 507964 465710 477160
0110100110000100: 506896 507964 465710 477160
0110100110000100: 506896 507964 465710 477160
0110100110000100: 506896 507964 637125 477160
0110100110000100: 506896 507964 637125 477160
0111100110001100: 506896 507964 637125 561428
0110100110000100: 506896 507964 637125 477160
0110100010010010: 506896 507964 637125 626413
0111101011001000: 506896 507964 561428 637125
0110101011010010: 506896 507964 561428 618889
0110101011010010: 506896 507964 561428 626413
0110101011010010: 506896 507964 561428 470074
0110101011010010: 506896 507964 561428 486715
0110101011010010: 506896 507964 561428 618889
0110101011010010: 506896 507964 561428 626413
0110101011010010: 506896 507964 561428 470074
0110101011010010: 506896 507964 561428 486715
0111101011011010: 506896 507964 561428 465710
0111101011011010: 506896 507964 561428 465710
0111101011011010: 506896 507964 561428 465710
0111101011001000: 506896 507964 561428 637125
0110101111000100: 506896 507964 561428 477160
0101101001001000: 506896 507964 477160 465710
0101101001001000: 506896 507964 477160 637125
0100101001010010: 506896 507964 477160 545699
0100101001010010: 506896 507964 477160 545699
0101101101001100: 506896 507964 477160 561428
0100101001010010: 506896 507964 477160 545699
0100101001010010: 506896 507964 477160 545699
0111101011001000: 506896 507964 561428 637125
0111101011001000: 506896 507964 561428 637125
0110101111000100: 506896 507964 561428 477160
0110101111000100: 506896 507964 561428 477160
0110101111000100: 506896 507964 561428 477160
0110101111000100: 506896 507964 561428 477160
0110101111000100: 506896 507964 561428 477160
0110100110000100: 506896 561428 637125 618889
0110100110000100: 506896 561428 637125 470074
0110100110000100: 506896 561428 637125 486715
0110100110010110: 506896 561428 637125 626413
0110100110010110: 506896 561428 637125 626413
0110100110000100: 506896 561428 637125 618889
0110100110000100: 506896 561428 637125 470074
0110100110000100: 506896 561428 637125 486715
0110100110000100: 506896 561428 637125 618889
0110100110000100: 506896 561428 637125 470074
0110100110000100: 506896 561428 637125 486715
0111100110001100: 506896 561428 637125 465710
0111100110001100: 506896 561428 637125 507964
0110100110010110: 506896 561428 637125 626413
0111101011001000: 506896 561428 465710 637125
0110101111010110: 506896 561428 465710 626413
0111101011001000: 506896 561428 507964 637125
0110101011010010: 506896 561428 507964 477160
0110101011010010: 506896 561428 507964 477160
0111101111001100: 506896 561428 507964 465710
0110101011010010: 506896 561428 507964 477160
0110101011010010: 506896 561428 507964 477160
0110101011010010: 506896 561428 507964 477160
0111101011001000: 506896 561428 465710 637125
0111101011001000: 506896 561428 465710 637125
0110101111000100: 506896 561428 465710 618889
0110101111000100: 506896 561428 465710 470074
0110101111000100: 506896 561428 465710 486715
0110101111000100: 506896 561428 465710 618889
0110101111000100: 506896 561428 465710 470074
0110101111000100: 506896 561428 465710 486715
0111101111001100: 506896 561428 465710 507964
0111101011001000: 506896 561428 465710 637125
0111101111001100: 506896 561428 465710 507964
0110101111010110: 506896 561428 465710 626413
0110101111010110: 506896 561428 465710 626413
0110101111010110: 506896 561428 465710 626413
0110101111010110: 506896 561428 465710 626413
0111101011001000: 506896 561428 507964 637125
0111101011001000: 506896 561428 507964 637125
0110101111000100: 506896 561428 507964 618889
0110101111000100: 506896 561428 507964 626413
0110101111000100: 506896 561428 507964 470074
0110101111000100: 506896 561428 507964 486715
0110101111000100: 506896 561428 507964 618889
0110101111000100: 506896 561428 507964 626413
0110101111000100: 506896 561428 507964 470074
0110101111000100: 506896 561428 507964 486715
0111101111001100: 506896 561428 507964 465710
0111101011001000: 506896 561428 507964 637125
0111101111001100: 506896 561428 507964 465710
0111101111001100: 506896 561428 507964 465710
0110101011010010: 506896 561428 507964 477160
0110101011010010: 506896 561428 507964 477160
0110100110000100: 506896 561428 637125 618889
0110100110000100: 506896 561428 637125 470074
0110100110000100: 506896 561428 637125 486715
0110100110000100: 506896 561428 637125 618889
0110100110000100: 506896 561428 637125 470074
0110100110000100: 506896 561428 637125 486715
0111100110001100: 506896 561428 637125 465710
0111100110001100: 506896 561428 637125 507964
0111100110001100: 506896 561428 637125 465710
0111100110001100: 506896 561428 637125 507964
0111100110001100: 506896 561428 637125 465710
0111100110001100: 506896 561428 637125 507964
0110100110010110: 506896 561428 637125 626413
0110100110010110: 506896 561428 637125 626413
0111101011001000: 506896 561428 465710 637125
0111101011001000: 506896 561428 465710 637125
0111101111001100: 506896 561428 465710 507964
0111101111001100: 506896 561428 465710 507964
0111101011001000: 506896 561428 465710 637125
0110101111010110: 506896 561428 465710 626413
0111101011001000: 506896 561428 507964 637125
0111101011001000: 506896 561428 507964 637125
0111101111001100: 506896 561428 507964 465710
0111101111001100: 506896 561428 507964 465710
0111101011001000: 506896 561428 507964 637125
0111101111001100: 506896 561428 507964 465710
0110101011010010: 506896 561428 507964 477160
0111100010011010: 506896 637125 465710 561428
0110100110010110: 506896 637125 465710 626413
0111100010001000: 506896 637125 507964 465710
0110100010010010: 506896 637125 507964 477160
0111100010011010: 506896 637125 507964 561428
0110100010010010: 506896 637125 507964 477160
0110100010010010: 506896 637125 561428 618889
0110100010010010: 506896 637125 561428 470074
0110100010010010: 506896 637125 561428 486715
0111100010011010: 506896 637125 561428 465710
0111100010011010: 506896 637125 561428 507964
0110100110010110: 506896 637125 561428 626413
0111100010001000: 506896 637125 465710 507964
0110100110010110: 506896 637125 465710 626413
0110100110010110: 506896 637125 465710 626413
0111100010001000: 506896 637125 507964 465710
0111100010001000: 506896 637125 507964 465710
0110100110000100: 506896 637125 507964 626413
0110100110000100: 506896 637125 507964 626413
0110100110010110: 506896 637125 561428 626413
0110100110010110: 506896 637125 561428 626413
0101101001001000: 506896 637125 626413 507964
0101101001011010: 506896 637125 626413 465710
0101101001011010: 506896 637125 626413 561428
0101101001011010: 506896 637125 626413 465710
0101101001011010: 506896 637125 626413 561428
0101101001011010: 506896 637125 626413 465710
0101101001011010: 506896 637125 626413 561428
0110100110010110: 528523 486715 470074 561428
0110100110000100: 528523 470074 486715 633893
0110100110010110: 528523 470074 486715 561428
0110100110010110: 528523 470074 486715 561428
0110100110000100: 528523 470074 486715 633893
0110100110000100: 528523 470074 486715 633893
0110100110010110: 528523 470074 486715 561428
0110100110000100: 528523 470074 486715 633893
0110100110000100: 528523 470074 486715 633893
0110100110010110: 528523 470074 486715 561428
0110100010010010: 528523 486715 470074 633893
0110100110010110: 528523 486715 470074 561428
0110100110010110: 528523 486715 470074 561428
0110100110010110: 528523 486715 470074 561428
0110100110010110: 528523 486715 470074 561428
0110100110010110: 528523 486715 470074 561428
0110100110010110: 528523 486715 470074 561428
0110100110010110: 486715 528523 561428 470074
0110100110000100: 486715 561428 528523 618889
0110100110000100: 486715 561428 528523 465710
0110100110000100: 486715 561428 528523 626413
0110100110000100: 486715 561428 528523 507964
0110100110000100: 486715 561428 528523 506896
0110100110010110: 486715 561428 528523 470074
0110100110010110: 486715 561428 528523 470074
0110100110000100: 486715 561428 528523 618889
0110100110000100: 486715 561428 528523 465710
0110100110000100: 486715 561428 528523 626413
0110100110000100: 486715 561428 528523 507964
0110100110000100: 486715 561428 528523 506896
0110100110000100: 486715 561428 528523 618889
0110100110000100: 486715 561428 528523 465710
0110100110000100: 486715 561428 528523 626413
0110100110000100: 486715 561428 528523 507964
0110100110000100: 486715 561428 528523 506896
0110100110010110: 486715 561428 528523 470074
0110100110000100: 486715 561428 528523 618889
0110100110000100: 486715 561428 528523 465710
0110100110000100: 486715 561428 528523 626413
0110100110000100: 486715 561428 528523 507964
0110100110000100: 486715 561428 528523 506896
0110100110000100: 486715 561428 528523 618889
0110100110000100: 486715 561428 528523 465710
0110100110000100: 486715 561428 528523 626413
0110100110000100: 486715 561428 528523 507964
0110100110000100: 486715 561428 528523 506896
0110100110010110: 486715 561428 528523 470074
0110100010010010: 486715 528523 561428 618889
0110100010010010: 486715 528523 561428 465710
0110100010010010: 486715 528523 561428 626413
0110100010010010: 486715 528523 561428 507964
0110100010010010: 486715 528523 561428 506896
0110100110010110: 486715 528523 561428 470074
0110100110010110: 486715 528523 561428 470074
0110100110010110: 486715 528523 561428 470074
0110100110010110: 486715 528523 561428 470074
0101101001001000: 561428 618889 633893 465710
0101101001001000: 561428 618889 633893 626413
0101101001001000: 561428 618889 633893 507964
0101101001001000: 561428 618889 633893 486715
0101101001001000: 561428 618889 633893 506896
0111101011001000: 561428 465710 626413 618889
0111101011001000: 561428 465710 626413 507964
0111101011001000: 561428 465710 626413 470074
0111101011001000: 561428 465710 626413 486715
0111101011001000: 561428 465710 506896 618889
0111101011001000: 561428 465710 506896 470074
0111101011001000: 561428 465710 506896 486715
0111101111001100: 561428 465710 506896 626413
0111101011001000: 561428 626413 465710 618889
0111101011001000: 561428 626413 465710 507964
0111101011001000: 561428 626413 465710 470074
0111101011001000: 561428 626413 465710 486715
0101101001001000: 561428 626413 637125 618889
0101101001001000: 561428 626413 637125 507964
0101101001001000: 561428 626413 637125 470074
0101101001001000: 561428 626413 637125 486715
0101101101001100: 561428 626413 637125 465710
0111100010001000: 561428 507964 465710 618889
0111100010001000: 561428 507964 626413 618889
0111101011001000: 561428 507964 506896 618889
0111101011001000: 561428 507964 506896 626413
0111101011001000: 561428 507964 506896 470074
0111101011001000: 561428 507964 506896 486715
0101101001001000: 561428 507964 477160 618889
0101101001001000: 561428 507964 477160 465710
0101101001001000: 561428 507964 477160 626413
0101101001001000: 561428 507964 477160 470074
0101101001001000: 561428 507964 477160 486715
0101101101001100: 561428 507964 477160 506896
0110100110010110: 561428 470074 618889 633893
0111100010001000: 561428 470074 465710 618889
0111100010001000: 561428 470074 626413 618889
0111100010001000: 561428 470074 507964 618889
0111100010001000: 561428 470074 507964 465710
0111100010001000: 561428 470074 507964 626413
0101101001001000: 561428 470074 633893 465710
0101101001001000: 561428 470074 633893 626413
0101101001001000: 561428 470074 633893 507964
0101101001001000: 561428 470074 633893 486715
0101101001001000: 561428 470074 633893 506896
0101101001001000: 561428 470074 528523 618889
0101101001001000: 561428 470074 528523 465710
0101101001001000: 561428 470074 528523 626413
0101101001001000: 561428 470074 528523 507964
0101101001001000: 561428 470074 528523 506896
0100101101000100: 561428 470074 528523 633893
0111100010001000: 561428 486715 465710 618889
0111100010001000: 561428 486715 626413 618889
0111100010001000: 561428 486715 507964 618889
0111100010001000: 561428 486715 507964 465710
0111100010001000: 561428 486715 507964 626413
0111100010001000: 561428 486715 470074 618889
0111100010001000: 561428 486715 470074 465710
0111100010001000: 561428 486715 470074 626413
0111100010001000: 561428 486715 470074 507964
0110100110010110: 561428 486715 470074 528523
0101101001001000: 561428 486715 528523 618889
0101101001001000: 561428 486715 528523 465710
0101101001001000: 561428 486715 528523 626413
0101101001001000: 561428 486715 528523 507964
0101101001001000: 561428 486715 528523 506896
0111100010001000: 561428 506896 626413 618889
0110100110010110: 561428 506896 626413 637125
0111100010001000: 561428 506896 470074 618889
0111100010001000: 561428 506896 470074 626413
0111100010001000: 561428 506896 486715 618889
0111100010001000: 561428 506896 486715 626413
0111100010001000: 561428 506896 486715 470074
0111101011001000: 561428 506896 465710 618889
0111101011001000: 561428 506896 465710 470074
0111101011001000: 561428 506896 465710 486715
0111101011001000: 561428 506896 507964 618889
0111101011001000: 561428 506896 507964 626413
0111101011001000: 561428 506896 507964 470074
0111101011001000: 561428 506896 507964 486715
0111101111001100: 561428 506896 507964 465710
0101101001001000: 561428 506896 637125 618889
0101101001001000: 561428 506896 637125 470074
0101101001001000: 561428 506896 637125 486715
0101101101001100: 561428 506896 637125 465710
0101101101001100: 561428 506896 637125 507964
0110100110000100: 561428 618889 465710 633893
0111100010011010: 561428 618889 465710 626413
0111100010011010: 561428 618889 465710 506896
0110100110000100: 561428 618889 626413 633893
0110100010010010: 561428 618889 626413 637125
0111100010011010: 561428 618889 626413 465710
0110100010010010: 561428 618889 626413 637125
0111100010001000: 561428 618889 507964 465710
0111100010001000: 561428 618889 507964 626413
0110100110000100: 561428 618889 507964 633893
0110100010010010: 561428 618889 507964 477160
0111100010011010: 561428 618889 507964 506896
0110100010010010: 561428 618889 507964 477160
0111100010001000: 561428 618889 470074 465710
0111100010001000: 561428 618889 470074 626413
0111100010001000: 561428 618889 470074 507964
0110100010010010: 561428 618889 470074 528523
0110100010010010: 561428 618889 470074 528523
0110100110010110: 561428 618889 470074 633893
0110100110010110: 561428 618889 470074 633893
0111100010001000: 561428 618889 486715 465710
0111100010001000: 561428 618889 486715 626413
0111100010001000: 561428 618889 486715 507964
0111100010001000: 561428 618889 486715 470074
0110100110000100: 561428 618889 486715 633893
0110100010010010: 561428 618889 486715 528523
0110100010010010: 561428 618889 486715 528523
0111100010001000: 561428 618889 506896 626413
0111100010001000: 561428 618889 506896 470074
0111100010001000: 561428 618889 506896 486715
0110100110000100: 561428 618889 506896 633893
0110100010010010: 561428 618889 506896 637125
0111100010011010: 561428 618889 506896 465710
0111100010011010: 561428 618889 506896 507964
0110100010010010: 561428 618889 506896 637125
0110100110000100: 561428 618889 465710 633893
0110100110000100: 561428 618889 465710 633893
0110100110000100: 561428 618889 465710 633893
0110100110000100: 561428 618889 626413 633893
0110100110000100: 561428 618889 626413 633893
0110100110000100: 561428 618889 626413 633893
0110100110000100: 561428 618889 507964 633893
0110100110000100: 561428 618889 507964 633893
0110100110000100: 561428 618889 507964 633893
0110100110010110: 561428 618889 470074 633893
0110100110000100: 561428 618889 486715 633893
0110100110000100: 561428 618889 486715 633893
0110100110000100: 561428 618889 486715 633893
0110100110000100: 561428 618889 506896 633893
0110100110000100: 561428 618889 506896 633893
0110100110000100: 561428 618889 506896 633893
0101101001001000: 561428 618889 633893 465710
0101101001001000: 561428 618889 633893 626413
0101101001001000: 561428 618889 633893 507964
0101101001001000: 561428 618889 633893 486715
0101101001001000: 561428 618889 633893 506896
0101101001011010: 561428 618889 633893 470074
0101101001011010: 561428 618889 633893 470074
0101101001011010: 561428 618889 633893 470074
0110100010010010: 561428 465710 618889 633893
0110100010010010: 561428 465710 618889 633893
0111100010001000: 561428 465710 507964 618889
0110100010010010: 561428 465710 507964 477160
0110100010010010: 561428 465710 507964 477160
0111100010001000: 561428 465710 470074 618889
0111100010001000: 561428 465710 470074 507964
0110100010010010: 561428 465710 470074 633893
0110100010010010: 561428 465710 470074 528523
0110100010010010: 561428 465710 470074 633893
0110100010010010: 561428 465710 470074 528523
0111100010001000: 561428 465710 486715 618889
0111100010001000: 561428 465710 486715 507964
0111100010001000: 561428 465710 486715 470074
0110100010010010: 561428 465710 486715 528523
0110100010010010: 561428 465710 486715 528523
0111100010001000: 561428 465710 618889 507964
0111100010001000: 561428 465710 618889 470074
0111100010001000: 561428 465710 618889 486715
0111100110001100: 561428 465710 618889 626413
0111100110001100: 561428 465710 618889 506896
0110100010010010: 561428 465710 618889 633893
0111100110001100: 561428 465710 507964 626413
0111100110001100: 561428 465710 470074 626413
0111100110001100: 561428 465710 470074 506896
0111100110001100: 561428 465710 486715 626413
0111100110001100: 561428 465710 486715 506896
0110100010010010: 561428 465710 486715 528523
0111101011001000: 561428 465710 626413 618889
0111101011001000: 561428 465710 626413 507964
0111101011001000: 561428 465710 626413 470074
0111101011001000: 561428 465710 626413 486715
0110101011010010: 561428 465710 626413 637125
0110101011010010: 561428 465710 626413 637125
0110101011010010: 561428 465710 626413 637125
0110101011010010: 561428 465710 626413 637125
0111101011001000: 561428 465710 506896 618889
0111101011001000: 561428 465710 506896 470074
0111101011001000: 561428 465710 506896 486715
0110101011010010: 561428 465710 506896 637125
0110101011010010: 561428 465710 506896 637125
0111101111001100: 561428 465710 506896 626413
0111101011011010: 561428 465710 506896 507964
0111101011011010: 561428 465710 506896 507964
0111101011011010: 561428 465710 506896 507964
0110101011010010: 561428 465710 506896 637125
0110101011010010: 561428 465710 506896 637125
0111101011001000: 561428 465710 626413 618889
0111101011001000: 561428 465710 626413 507964
0111101011001000: 561428 465710 626413 470074
0111101011001000: 561428 465710 626413 486715
0111101011001000: 561428 465710 626413 618889
0111101011001000: 561428 465710 626413 507964
0111101011001000: 561428 465710 626413 470074
0111101011001000: 561428 465710 626413 486715
0111101111001100: 561428 465710 626413 506896
0111101111001100: 561428 465710 626413 506896
0111101011001000: 561428 465710 506896 618889
0111101011001000: 561428 465710 506896 470074
0111101011001000: 561428 465710 506896 486715
0111101011001000: 561428 465710 506896 618889
0111101011001000: 561428 465710 506896 470074
0111101011001000: 561428 465710 506896 486715
0111101111001100: 561428 465710 506896 626413
0111101111001100: 561428 465710 506896 626413
0111101111001100: 561428 465710 506896 626413
0111101111001100: 561428 465710 626413 506896
0111101111001100: 561428 465710 626413 506896
0111101111001100: 561428 465710 506896 626413
0111101111001100: 561428 465710 506896 626413
0111101111001100: 561428 465710 506896 626413
0110100110000100: 561428 626413 618889 637125
0110100010010010: 561428 626413 618889 633893
0110100010010010: 561428 626413 618889 633893
0111100010001000: 561428 626413 507964 618889
0110100110000100: 561428 626413 507964 637125
0110100010010010: 561428 626413 507964 477160
0111100010011010: 561428 626413 507964 506896
0110100010010010: 561428 626413 507964 477160
0111100010001000: 561428 626413 470074 618889
0111100010001000: 561428 626413 470074 507964
0110100110000100: 561428 626413 470074 637125
0110100010010010: 561428 626413 470074 633893
0110100010010010: 561428 626413 470074 528523
0110100010010010: 561428 626413 470074 633893
0110100010010010: 561428 626413 470074 528523
0111100010001000: 561428 626413 486715 618889
0111100010001000: 561428 626413 486715 507964
0111100010001000: 561428 626413 486715 470074
0110100110000100: 561428 626413 486715 637125
0110100010010010: 561428 626413 486715 528523
0110100010010010: 561428 626413 486715 528523
0111100010001000: 561428 626413 506896 618889
0111100010001000: 561428 626413 506896 470074
0111100010001000: 561428 626413 506896 486715
0111100010011010: 561428 626413 506896 507964
0110100110010110: 561428 626413 506896 637125
0110100110010110: 561428 626413 506896 637125
0111100010001000: 561428 626413 618889 507964
0111100010001000: 561428 626413 618889 470074
0111100010001000: 561428 626413 618889 486715
0111100010001000: 561428 626413 618889 506896
0110100110000100: 561428 626413 618889 637125
0110100110000100: 561428 626413 618889 637125
0111100110001100: 561428 626413 618889 465710
0110100110000100: 561428 626413 618889 637125
0110100010010010: 561428 626413 618889 633893
0110100110000100: 561428 626413 507964 637125
0110100110000100: 561428 626413 507964 637125
0111100110001100: 561428 626413 507964 465710
0110100110000100: 561428 626413 507964 637125
0110100110000100: 561428 626413 470074 637125
0110100110000100: 561428 626413 470074 637125
0111100110001100: 561428 626413 470074 465710
0110100110000100: 561428 626413 470074 637125
0110100110000100: 561428 626413 486715 637125
0110100110000100: 561428 626413 486715 637125
0111100110001100: 561428 626413 486715 465710
0110100110000100: 561428 626413 486715 637125
0110100010010010: 561428 626413 486715 528523
0110100110010110: 561428 626413 506896 637125
0111101011001000: 561428 626413 465710 618889
0111101011001000: 561428 626413 465710 507964
0111101011001000: 561428 626413 465710 470074
0111101011001000: 561428 626413 465710 486715
0111101011011010: 561428 626413 465710 506896
0111101011011010: 561428 626413 465710 506896
0111101011011010: 561428 626413 465710 506896
0110101111000100: 561428 626413 465710 637125
0101101001001000: 561428 626413 637125 618889
0101101001001000: 561428 626413 637125 507964
0101101001001000: 561428 626413 637125 470074
0101101001001000: 561428 626413 637125 486715
0101101101001100: 561428 626413 637125 465710
0101101001011010: 561428 626413 637125 506896
0101101001011010: 561428 626413 637125 506896
0101101001011010: 561428 626413 637125 506896
0101101001011010: 561428 626413 637125 506896
0111101011001000: 561428 626413 465710 618889
0111101011001000: 561428 626413 465710 507964
0111101011001000: 561428 626413 465710 470074
0111101011001000: 561428 626413 465710 486715
0111101011001000: 561428 626413 465710 618889
0111101011001000: 561428 626413 465710 507964
0111101011001000: 561428 626413 465710 470074
0111101011001000: 561428 626413 465710 486715
0110101111000100: 561428 626413 465710 637125
0110101111000100: 561428 626413 465710 637125
0110101111000100: 561428 626413 465710 637125
0110101111000100: 561428 626413 465710 637125
0111101011001000: 561428 626413 465710 618889
0111101011001000: 561428 626413 465710 507964
0111101011001000: 561428 626413 465710 470074
0111101011001000: 561428 626413 465710 486715
0111101011001000: 561428 626413 465710 618889
0111101011001000: 561428 626413 465710 507964
0111101011001000: 561428 626413 465710 470074
0111101011001000: 561428 626413 465710 486715
0110101111000100: 561428 626413 465710 637125
0110100110000100: 561428 507964 618889 477160
0110100010010010: 561428 507964 618889 633893
0110100010010010: 561428 507964 618889 633893
0111100010001000: 561428 507964 465710 618889
0110100110000100: 561428 507964 465710 477160
0111100010011010: 561428 507964 465710 626413
0111100010001000: 561428 507964 626413 618889
0110100110000100: 561428 507964 626413 477160
0110100010010010: 561428 507964 626413 637125
0111100010011010: 561428 507964 626413 465710
0110100010010010: 561428 507964 626413 637125
0111100010001000: 561428 507964 470074 618889
0111100010001000: 561428 507964 470074 465710
0111100010001000: 561428 507964 470074 626413
0110100110000100: 561428 507964 470074 477160
0110100010010010: 561428 507964 470074 633893
0110100010010010: 561428 507964 470074 528523
0110100010010010: 561428 507964 470074 633893
0110100010010010: 561428 507964 470074 528523
0111100010001000: 561428 507964 486715 618889
0111100010001000: 561428 507964 486715 465710
0111100010001000: 561428 507964 486715 626413
0111100010001000: 561428 507964 486715 470074
0110100110000100: 561428 507964 486715 477160
0110100010010010: 561428 507964 486715 528523
0110100010010010: 561428 507964 486715 528523
0111100010001000: 561428 507964 618889 465710
0111100010001000: 561428 507964 618889 626413
0111100010001000: 561428 507964 618889 470074
0111100010001000: 561428 507964 618889 486715
0110100110000100: 561428 507964 618889 477160
0110100110000100: 561428 507964 618889 477160
0111100110001100: 561428 507964 618889 506896
0110100110000100: 561428 507964 618889 477160
0110100010010010: 561428 507964 618889 633893
0111100010001000: 561428 507964 465710 618889
0111100010001000: 561428 507964 465710 470074
0111100010001000: 561428 507964 465710 486715
0111100010001000: 561428 507964 465710 618889
0110100110000100: 561428 507964 465710 477160
0110100110000100: 561428 507964 465710 477160
0110100110000100: 561428 507964 465710 477160
0111100010001000: 561428 507964 626413 618889
0111100010001000: 561428 507964 626413 470074
0111100010001000: 561428 507964 626413 486715
0111100010001000: 561428 507964 626413 618889
0110100110000100: 561428 507964 626413 477160
0110100110000100: 561428 507964 626413 477160
0111100110001100: 561428 507964 626413 506896
0110100110000100: 561428 507964 626413 477160
0110100110000100: 561428 507964 470074 477160
0110100110000100: 561428 507964 470074 477160
0111100110001100: 561428 507964 470074 506896
0110100110000100: 561428 507964 470074 477160
0110100110000100: 561428 507964 486715 477160
0110100110000100: 561428 507964 486715 477160
0111100110001100: 561428 507964 486715 506896
0110100110000100: 561428 507964 486715 477160
0110100010010010: 561428 507964 486715 528523
0111101011001000: 561428 507964 506896 618889
0111101011001000: 561428 507964 506896 626413
0111101011001000: 561428 507964 506896 470074
0111101011001000: 561428 507964 506896 486715
0110101011010010: 561428 507964 506896 637125
0110101011010010: 561428 507964 506896 637125
0111101011011010: 561428 507964 506896 465710
0111101011011010: 561428 507964 506896 465710
0111101011011010: 561428 507964 506896 465710
0110101011010010: 561428 507964 506896 637125
0110101011010010: 561428 507964 506896 637125
0110101111000100: 561428 507964 506896 477160
0101101001001000: 561428 507964 477160 618889
0101101001001000: 561428 507964 477160 465710
0101101001001000: 561428 507964 477160 626413
0101101001001000: 561428 507964 477160 470074
0101101001001000: 561428 507964 477160 486715
0100101001010010: 561428 507964 477160 545699
0100101001010010: 561428 507964 477160 545699
0101101101001100: 561428 507964 477160 506896
0100101001010010: 561428 507964 477160 545699
0100101001010010: 561428 507964 477160 545699
0111101011001000: 561428 507964 506896 618889
0111101011001000: 561428 507964 506896 626413
0111101011001000: 561428 507964 506896 470074
0111101011001000: 561428 507964 506896 486715
0111101011001000: 561428 507964 506896 618889
0111101011001000: 561428 507964 506896 626413
0111101011001000: 561428 507964 506896 470074
0111101011001000: 561428 507964 506896 486715
0110101111000100: 561428 507964 506896 477160
0110101111000100: 561428 507964 506896 477160
0110101111000100: 561428 507964 506896 477160
0110101111000100: 561428 507964 506896 477160
0110101111000100: 561428 507964 506896 477160
0110100110000100: 561428 470074 618889 528523
0110100110010110: 561428 470074 618889 633893
0110100110010110: 561428 470074 618889 633893
0111100010001000: 561428 470074 465710 618889
0110100110000100: 561428 470074 465710 633893
0110100110000100: 561428 470074 465710 528523
0111100010011010: 561428 470074 465710 626413
0111100010011010: 561428 470074 465710 506896
0111100010001000: 561428 470074 626413 618889
0110100110000100: 561428 470074 626413 633893
0110100110000100: 561428 470074 626413 528523
0110100010010010: 561428 470074 626413 637125
0111100010011010: 561428 470074 626413 465710
0110100010010010: 561428 470074 626413 637125
0111100010001000: 561428 470074 507964 618889
0111100010001000: 561428 470074 507964 465710
0111100010001000: 561428 470074 507964 626413
0110100110000100: 561428 470074 507964 633893
0110100110000100: 561428 470074 507964 528523
0110100010010010: 561428 470074 507964 477160
0111100010011010: 561428 470074 507964 506896
0110100010010010: 561428 470074 507964 477160
0111100010001000: 561428 470074 486715 618889
0111100010001000: 561428 470074 486715 465710
0111100010001000: 561428 470074 486715 626413
0111100010001000: 561428 470074 486715 507964
0110100110000100: 561428 470074 486715 633893
0110100110010110: 561428 470074 486715 528523
0110100110010110: 561428 470074 486715 528523
0111100010001000: 561428 470074 506896 618889
0111100010001000: 561428 470074 506896 626413
0111100010001000: 561428 470074 506896 486715
0110100110000100: 561428 470074 506896 633893
0110100110000100: 561428 470074 506896 528523
0110100010010010: 561428 470074 506896 637125
0111100010011010: 561428 470074 506896 465710
0111100010011010: 561428 470074 506896 507964
0110100010010010: 561428 470074 506896 637125
0111100010001000: 561428 470074 618889 465710
0111100010001000: 561428 470074 618889 626413
0111100010001000: 561428 470074 618889 507964
0111100010001000: 561428 470074 618889 486715
0111100010001000: 561428 470074 618889 506896
0110100110000100: 561428 470074 618889 528523
0110100110000100: 561428 470074 618889 528523
0110100110000100: 561428 470074 618889 528523
0110100110010110: 561428 470074 618889 633893
0110100110010110: 561428 470074 618889 633893
0110100110010110: 561428 470074 618889 633893
0111100010001000: 561428 470074 465710 618889
0111100010001000: 561428 470074 465710 507964
0111100010001000: 561428 470074 465710 486715
0111100010001000: 561428 470074 465710 618889
0110100110000100: 561428 470074 465710 633893
0110100110000100: 561428 470074 465710 528523
0110100110000100: 561428 470074 465710 633893
0110100110000100: 561428 470074 465710 528523
0110100110000100: 561428 470074 465710 633893
0110100110000100: 561428 470074 465710 528523
0111100010001000: 561428 470074 626413 618889
0111100010001000: 561428 470074 626413 507964
0111100010001000: 561428 470074 626413 486715
0111100010001000: 561428 470074 626413 506896
0111100010001000: 561428 470074 626413 618889
0110100110000100: 561428 470074 626413 633893
0110100110000100: 561428 470074 626413 528523
0110100110000100: 561428 470074 626413 633893
0110100110000100: 561428 470074 626413 528523
0110100110000100: 561428 470074 626413 633893
0110100110000100: 561428 470074 626413 528523
0111100010001000: 561428 470074 507964 618889
0111100010001000: 561428 470074 507964 465710
0111100010001000: 561428 470074 507964 626413
0111100010001000: 561428 470074 507964 486715
0111100010001000: 561428 470074 507964 618889
0111100010001000: 561428 470074 507964 465710
0111100010001000: 561428 470074 507964 626413
0110100110000100: 561428 470074 507964 633893
0110100110000100: 561428 470074 507964 528523
0110100110000100: 561428 470074 507964 633893
0110100110000100: 561428 470074 507964 528523
0110100110000100: 561428 470074 507964 633893
0110100110000100: 561428 470074 507964 528523
0110100110000100: 561428 470074 486715 633893
0110100110000100: 561428 470074 486715 633893
0110100110000100: 561428 470074 486715 633893
0110100110010110: 561428 470074 486715 528523
0110100110000100: 561428 470074 506896 633893
0110100110000100: 561428 470074 506896 528523
0110100110000100: 561428 470074 506896 633893
0110100110000100: 561428 470074 506896 528523
0110100110000100: 561428 470074 506896 633893
0110100110000100: 561428 470074 506896 528523
0101101001001000: 561428 470074 633893 465710
0101101001001000: 561428 470074 633893 626413
0101101001001000: 561428 470074 633893 507964
0101101001001000: 561428 470074 633893 486715
0101101001001000: 561428 470074 633893 506896
0101101001011010: 561428 470074 633893 618889
0101101001011010: 561428 470074 633893 618889
0101101001011010: 561428 470074 633893 618889
0101101001011010: 561428 470074 633893 618889
0101101001011010: 561428 470074 633893 618889
0101101001001000: 561428 470074 528523 618889
0101101001001000: 561428 470074 528523 465710
0101101001001000: 561428 470074 528523 626413
0101101001001000: 561428 470074 528523 507964
0101101001001000: 561428 470074 528523 506896
0100101101000100: 561428 470074 528523 633893
0101101001011010: 561428 470074 528523 486715
0101101001011010: 561428 470074 528523 486715
0101101001011010: 561428 470074 528523 486715
0101101001011010: 561428 470074 528523 486715
0110100010010010: 561428 486715 618889 633893
0110100010010010: 561428 486715 618889 633893
0111100010001000: 561428 486715 465710 618889
0111100010011010: 561428 486715 465710 626413
0111100010011010: 561428 486715 465710 506896
0111100010001000: 561428 486715 626413 618889
0110100010010010: 561428 486715 626413 637125
0111100010011010: 561428 486715 626413 465710
0110100010010010: 561428 486715 626413 637125
0111100010001000: 561428 486715 507964 618889
0111100010001000: 561428 486715 507964 465710
0111100010001000: 561428 486715 507964 626413
0110100010010010: 561428 486715 507964 477160
0111100010011010: 561428 486715 507964 506896
0110100010010010: 561428 486715 507964 477160
0111100010001000: 561428 486715 470074 618889
0111100010001000: 561428 486715 470074 465710
0111100010001000: 561428 486715 470074 626413
0111100010001000: 561428 486715 470074 507964
0110100010010010: 561428 486715 470074 633893
0110100010010010: 561428 486715 470074 633893
0110100110010110: 561428 486715 470074 528523
0111100010001000: 561428 486715 506896 618889
0111100010001000: 561428 486715 506896 626413
0111100010001000: 561428 486715 506896 470074
0110100010010010: 561428 486715 506896 637125
0111100010011010: 561428 486715 506896 465710
0111100010011010: 561428 486715 506896 507964
0110100010010010: 561428 486715 506896 637125
0111100010001000: 561428 486715 618889 465710
0111100010001000: 561428 486715 618889 626413
0111100010001000: 561428 486715 618889 507964
0111100010001000: 561428 486715 618889 470074
0111100010001000: 561428 486715 618889 506896
0110100110000100: 561428 486715 618889 528523
0110100110000100: 561428 486715 618889 528523
0111100010001000: 561428 486715 465710 618889
0111100010001000: 561428 486715 465710 507964
0111100010001000: 561428 486715 465710 470074
0111100010001000: 561428 486715 465710 618889
0110100110000100: 561428 486715 465710 528523
0110100110000100: 561428 486715 465710 528523
0111100010001000: 561428 486715 626413 618889
0111100010001000: 561428 486715 626413 507964
0111100010001000: 561428 486715 626413 470074
0111100010001000: 561428 486715 626413 506896
0111100010001000: 561428 486715 626413 618889
0110100110000100: 561428 486715 626413 528523
0110100110000100: 561428 486715 626413 528523
0111100010001000: 561428 486715 507964 618889
0111100010001000: 561428 486715 507964 465710
0111100010001000: 561428 486715 507964 626413
0111100010001000: 561428 486715 507964 470074
0111100010001000: 561428 486715 507964 618889
0111100010001000: 561428 486715 507964 465710
0111100010001000: 561428 486715 507964 626413
0110100110000100: 561428 486715 507964 528523
0110100110000100: 561428 486715 507964 528523
0111100010001000: 561428 486715 470074 618889
0111100010001000: 561428 486715 470074 465710
0111100010001000: 561428 486715 470074 626413
0111100010001000: 561428 486715 470074 507964
0111100010001000: 561428 486715 470074 506896
0111100010001000: 561428 486715 470074 618889
0111100010001000: 561428 486715 470074 465710
0111100010001000: 561428 486715 470074 626413
0111100010001000: 561428 486715 470074 507964
0110100110010110: 561428 486715 470074 528523
0110100110010110: 561428 486715 470074 528523
0110100110000100: 561428 486715 506896 528523
0110100110000100: 561428 486715 506896 528523
0101101001001000: 561428 486715 528523 618889
0101101001001000: 561428 486715 528523 465710
0101101001001000: 561428 486715 528523 626413
0101101001001000: 561428 486715 528523 507964
0101101001001000: 561428 486715 528523 506896
0101101001011010: 561428 486715 528523 470074
0101101001011010: 561428 486715 528523 470074
0101101001011010: 561428 486715 528523 470074
0110100010010010: 561428 506896 618889 633893
0110100010010010: 561428 506896 618889 633893
0111100010001000: 561428 506896 626413 618889
0110100110010110: 561428 506896 626413 637125
0111100010001000: 561428 506896 470074 618889
0111100010001000: 561428 506896 470074 626413
0110100010010010: 561428 506896 470074 633893
0110100010010010: 561428 506896 470074 528523
0110100010010010: 561428 506896 470074 633893
0110100010010010: 561428 506896 470074 528523
0111100010001000: 561428 506896 486715 618889
0111100010001000: 561428 506896 486715 626413
0111100010001000: 561428 506896 486715 470074
0110100010010010: 561428 506896 486715 528523
0110100010010010: 561428 506896 486715 528523
0111100010001000: 561428 506896 618889 626413
0111100010001000: 561428 506896 618889 470074
0111100010001000: 561428 506896 618889 486715
0110100110000100: 561428 506896 618889 637125
0111100110001100: 561428 506896 618889 465710
0111100110001100: 561428 506896 618889 507964
0110100110000100: 561428 506896 618889 637125
0110100010010010: 561428 506896 618889 633893
0111100010001000: 561428 506896 626413 618889
0111100010001000: 561428 506896 626413 470074
0111100010001000: 561428 506896 626413 486715
0111100010001000: 561428 506896 626413 618889
0111100110001100: 561428 506896 626413 507964
0110100110010110: 561428 506896 626413 637125
0110100110010110: 561428 506896 626413 637125
0111100010001000: 561428 506896 470074 618889
0111100010001000: 561428 506896 470074 626413
0111100010001000: 561428 506896 470074 486715
0111100010001000: 561428 506896 470074 618889
0111100010001000: 561428 506896 470074 626413
0110100110000100: 561428 506896 470074 637125
0111100110001100: 561428 506896 470074 465710
0111100110001100: 561428 506896 470074 507964
0110100110000100: 561428 506896 470074 637125
0110100010010010: 561428 506896 470074 633893
0110100010010010: 561428 506896 470074 528523
0111100010001000: 561428 506896 486715 618889
0111100010001000: 561428 506896 486715 626413
0111100010001000: 561428 506896 486715 470074
0111100010001000: 561428 506896 486715 618889
0111100010001000: 561428 506896 486715 626413
0111100010001000: 561428 506896 486715 470074
0110100110000100: 561428 506896 486715 637125
0111100110001100: 561428 506896 486715 465710
0111100110001100: 561428 506896 486715 507964
0110100110000100: 561428 506896 486715 637125
0110100010010010: 561428 506896 486715 528523
0111101011001000: 561428 506896 465710 618889
0111101011001000: 561428 506896 465710 470074
0111101011001000: 561428 506896 465710 486715
0111101011011010: 561428 506896 465710 626413
0111101011011010: 561428 506896 465710 626413
0111101011011010: 561428 506896 465710 626413
0111101011001000: 561428 506896 507964 618889
0111101011001000: 561428 506896 507964 626413
0111101011001000: 561428 506896 507964 470074
0111101011001000: 561428 506896 507964 486715
0110101011010010: 561428 506896 507964 477160
0110101011010010: 561428 506896 507964 477160
0101101001001000: 561428 506896 637125 618889
0101101001001000: 561428 506896 637125 470074
0101101001001000: 561428 506896 637125 486715
0101101101001100: 561428 506896 637125 465710
0101101101001100: 561428 506896 637125 507964
0101101001011010: 561428 506896 637125 626413
0101101001011010: 561428 506896 637125 626413
0101101001011010: 561428 506896 637125 626413
0101101001011010: 561428 506896 637125 626413
0111101011001000: 561428 506896 465710 618889
0111101011001000: 561428 506896 465710 470074
0111101011001000: 561428 506896 465710 486715
0111101011001000: 561428 506896 465710 618889
0111101011001000: 561428 506896 465710 470074
0111101011001000: 561428 506896 465710 486715
0110101111000100: 561428 506896 465710 637125
0110101111000100: 561428 506896 465710 637125
0111101111001100: 561428 506896 465710 507964
0110101111000100: 561428 506896 465710 637125
0111101011011010: 561428 506896 465710 626413
0111101011011010: 561428 506896 465710 626413
0111101011001000: 561428 506896 507964 618889
0111101011001000: 561428 506896 507964 626413
0111101011001000: 561428 506896 507964 470074
0111101011001000: 561428 506896 507964 486715
0111101011001000: 561428 506896 507964 618889
0111101011001000: 561428 506896 507964 626413
0111101011001000: 561428 506896 507964 470074
0111101011001000: 561428 506896 507964 486715
0110101111000100: 561428 506896 507964 637125
0110101111000100: 561428 506896 507964 637125
0111101111001100: 561428 506896 507964 465710
0110101111000100: 561428 506896 507964 637125
0111101111001100: 561428 506896 507964 465710
0110101011010010: 561428 506896 507964 477160
0110101011010010: 561428 506896 507964 477160
0111101011001000: 561428 506896 465710 618889
0111101011001000: 561428 506896 465710 470074
0111101011001000: 561428 506896 465710 486715
0111101011001000: 561428 506896 465710 618889
0111101011001000: 561428 506896 465710 470074
0111101011001000: 561428 506896 465710 486715
0110101111000100: 561428 506896 465710 637125
0111101111001100: 561428 506896 465710 507964
0111101011011010: 561428 506896 465710 626413
0111101011001000: 561428 506896 507964 618889
0111101011001000: 561428 506896 507964 626413
0111101011001000: 561428 506896 507964 470074
0111101011001000: 561428 506896 507964 486715
0111101011001000: 561428 506896 507964 618889
0111101011001000: 561428 506896 507964 626413
0111101011001000: 561428 506896 507964 470074
0111101011001000: 561428 506896 507964 486715
0110101111000100: 561428 506896 507964 637125
0111101111001100: 561428 506896 507964 465710
0101101001001000: 470074 633893 618889 528523
0110100110010110: 470074 561428 633893 618889
0111100010001000: 470074 528523 561428 633893
0110100110010110: 470074 528523 561428 486715
0101101001001000: 470074 528523 486715 633893
0110100010010010: 470074 633893 561428 465710
0110100010010010: 470074 633893 561428 626413
0110100010010010: 470074 633893 561428 507964
0110100010010010: 470074 633893 561428 486715
0110100010010010: 470074 633893 561428 506896
0110100110010110: 470074 633893 561428 618889
0110100110010110: 470074 633893 561428 618889
0111100010001000: 470074 633893 528523 561428
0110100110000100: 470074 633893 528523 618889
0110100010010010: 470074 633893 528523 486715
0110100010010010: 470074 633893 528523 486715
0110100110010110: 470074 633893 561428 618889
0110100110000100: 470074 633893 528523 618889
0110100110000100: 470074 633893 528523 618889
0110100110000100: 470074 633893 528523 618889
0101101001001000: 470074 633893 618889 528523
0101101001011010: 470074 633893 618889 561428
0101101001011010: 470074 633893 618889 561428
0101101001011010: 470074 633893 618889 561428
0110100110010110: 470074 561428 633893 618889
0111100010001000: 470074 561428 528523 633893
0110100110010110: 470074 561428 528523 486715
0111100010001000: 470074 561428 633893 528523
0110100110000100: 470074 561428 633893 465710
0110100110000100: 470074 561428 633893 626413
0110100110000100: 470074 561428 633893 507964
0110100110000100: 470074 561428 633893 486715
0110100110000100: 470074 561428 633893 506896
0110100110010110: 470074 561428 633893 618889
0110100110010110: 470074 561428 633893 618889
0110100110000100: 470074 561428 528523 618889
0110100110000100: 470074 561428 528523 465710
0110100110000100: 470074 561428 528523 626413
0110100110000100: 470074 561428 528523 507964
0110100110000100: 470074 561428 528523 506896
0110100110010110: 470074 561428 528523 486715
0111100010001000: 470074 561428 633893 528523
0111100010001000: 470074 561428 633893 528523
0111100010001000: 470074 561428 528523 633893
0111100010001000: 470074 561428 528523 633893
0110100110000100: 470074 561428 633893 465710
0110100110000100: 470074 561428 633893 626413
0110100110000100: 470074 561428 633893 507964
0110100110000100: 470074 561428 633893 486715
0110100110000100: 470074 561428 633893 506896
0110100110000100: 470074 561428 633893 465710
0110100110000100: 470074 561428 633893 626413
0110100110000100: 470074 561428 633893 507964
0110100110000100: 470074 561428 633893 486715
0110100110000100: 470074 561428 633893 506896
0111100010001000: 470074 561428 633893 528523
0110100110010110: 470074 561428 633893 618889
0110100110010110: 470074 561428 633893 618889
0110100110000100: 470074 561428 528523 618889
0110100110000100: 470074 561428 528523 465710
0110100110000100: 470074 561428 528523 626413
0110100110000100: 470074 561428 528523 507964
0110100110000100: 470074 561428 528523 506896
0110100110000100: 470074 561428 528523 618889
0110100110000100: 470074 561428 528523 465710
0110100110000100: 470074 561428 528523 626413
0110100110000100: 470074 561428 528523 507964
0110100110000100: 470074 561428 528523 506896
0111100010001000: 470074 561428 528523 633893
0111100010001000: 470074 561428 528523 633893
0110100110010110: 470074 561428 528523 486715
0110100110010110: 470074 561428 528523 486715
0110100010010010: 470074 528523 633893 618889
0110100010010010: 470074 528523 633893 618889
0111100010001000: 470074 528523 561428 633893
0110100010010010: 470074 528523 561428 618889
0110100010010010: 470074 528523 561428 465710
0110100010010010: 470074 528523 561428 626413
0110100010010010: 470074 528523 561428 507964
0110100010010010: 470074 528523 561428 506896
0110100110010110: 470074 528523 561428 486715
0111100010001000: 470074 528523 633893 561428
0110100110000100: 470074 528523 633893 486715
0110100110000100: 470074 528523 633893 486715
0111100010001000: 470074 528523 561428 633893
0111100010001000: 470074 528523 561428 633893
0110100110010110: 470074 528523 561428 486715
0110100110010110: 470074 528523 561428 486715
0101101001001000: 470074 528523 486715 633893
0101101001011010: 470074 528523 486715 561428
0101101001011010: 470074 528523 486715 561428
0101101001011010: 470074 528523 486715 561428
0101101001001000: 507964 477160 545699 561428
0101101001001000: 507964 477160 545699 506896
0111101011001000: 507964 561428 506896 477160
0111101011001000: 507964 506896 561428 477160
0110100110000100: 507964 477160 561428 545699
0110100010010010: 507964 477160 561428 618889
0110100010010010: 507964 477160 561428 465710
0110100010010010: 507964 477160 561428 626413
0110100010010010: 507964 477160 561428 470074
0110100010010010: 507964 477160 561428 486715
0111100010011010: 507964 477160 561428 506896
0110100110000100: 507964 477160 506896 545699
0110100010010010: 507964 477160 506896 465710
0110100010010010: 507964 477160 506896 637125
0111100010011010: 507964 477160 506896 561428
0110100110000100: 507964 477160 561428 545699
0110100110000100: 507964 477160 561428 545699
0110100110000100: 507964 477160 561428 545699
0110100110000100: 507964 477160 506896 545699
0110100110000100: 507964 477160 506896 545699
0110100110000100: 507964 477160 506896 545699
0101101001001000: 507964 477160 545699 561428
0101101001001000: 507964 477160 545699 506896
0100101001010010: 507964 477160 545699 477017
0100101001010010: 507964 477160 545699 477017
0100101001010010: 507964 477160 545699 477017
0110100010010010: 507964 561428 477160 545699
0110100010010010: 507964 561428 477160 545699
0110100110000100: 507964 561428 477160 618889
0110100110000100: 507964 561428 477160 465710
0110100110000100: 507964 561428 477160 626413
0110100110000100: 507964 561428 477160 470074
0110100110000100: 507964 561428 477160 486715
0111100110001100: 507964 561428 477160 506896
0110100010010010: 507964 561428 477160 545699
0111101011001000: 507964 561428 506896 477160
0111101011001000: 507964 561428 506896 477160
0111101011001000: 507964 561428 506896 477160
0110100010010010: 507964 561428 477160 545699
0111101011001000: 507964 561428 506896 477160
0111101011001000: 507964 561428 506896 477160
0110101111000100: 507964 561428 506896 618889
0110101111000100: 507964 561428 506896 626413
0110101111000100: 507964 561428 506896 470074
0110101111000100: 507964 561428 506896 486715
0110101111000100: 507964 561428 506896 618889
0110101111000100: 507964 561428 506896 626413
0110101111000100: 507964 561428 506896 470074
0110101111000100: 507964 561428 506896 486715
0111101011001000: 507964 561428 506896 477160
0110101111010110: 507964 561428 506896 465710
0110101011010010: 507964 561428 506896 637125
0110101111010110: 507964 561428 506896 465710
0110101111010110: 507964 561428 506896 465710
0111101011001000: 507964 561428 506896 477160
0110100110000100: 507964 561428 477160 618889
0110100110000100: 507964 561428 477160 465710
0110100110000100: 507964 561428 477160 626413
0110100110000100: 507964 561428 477160 470074
0110100110000100: 507964 561428 477160 486715
0110100110000100: 507964 561428 477160 618889
0110100110000100: 507964 561428 477160 465710
0110100110000100: 507964 561428 477160 626413
0110100110000100: 507964 561428 477160 470074
0110100110000100: 507964 561428 477160 486715
0111100110001100: 507964 561428 477160 506896
0111100110001100: 507964 561428 477160 506896
0111100110001100: 507964 561428 477160 506896
0110100010010010: 507964 561428 477160 545699
0110100010010010: 507964 561428 477160 545699
0111101011001000: 507964 561428 506896 477160
0110100010010010: 507964 506896 477160 545699
0110100010010010: 507964 506896 477160 545699
0110100110000100: 507964 506896 477160 465710
0110100110000100: 507964 506896 477160 637125
0111100110001100: 507964 506896 477160 561428
0110100010010010: 507964 506896 477160 545699
0111101011001000: 507964 506896 561428 477160
0111101011001000: 507964 506896 561428 477160
0111101011001000: 507964 506896 561428 477160
0110100010010010: 507964 506896 477160 545699
0111101011001000: 507964 506896 561428 477160
0111101011001000: 507964 506896 561428 477160
0110101111000100: 507964 506896 561428 637125
0110101111000100: 507964 506896 561428 637125
0111101011001000: 507964 506896 561428 477160
0110101111010110: 507964 506896 561428 465710
0110101111010110: 507964 506896 561428 465710
0110101111000100: 507964 506896 561428 637125
0110101111010110: 507964 506896 561428 465710
0111101011001000: 507964 506896 561428 477160
0110100110000100: 507964 506896 477160 465710
0110100110000100: 507964 506896 477160 637125
0110100110000100: 507964 506896 477160 465710
0110100110000100: 507964 506896 477160 637125
0111100110001100: 507964 506896 477160 561428
0111100110001100: 507964 506896 477160 561428
0111100110001100: 507964 506896 477160 561428
0110100010010010: 507964 506896 477160 545699
0110100010010010: 507964 506896 477160 545699
0111101011001000: 507964 506896 561428 477160
0111101011001000: 507964 506896 561428 477160
0111101011001000: 507964 506896 561428 477160
0111101011001000: 507964 506896 561428 477160
0110100110000100: 477160 545699 507964 477017
0110100010010010: 477160 545699 507964 561428
0110100010010010: 477160 545699 507964 506896
0110100110000100: 477160 545699 507964 477017
0110100110000100: 477160 545699 507964 477017
0110100110000100: 477160 545699 507964 477017
0110100110000100: 477160 545699 507964 477017
0110100110000100: 477160 545699 507964 477017
0110100010010010: 477160 507964 545699 477017
0110100110000100: 477160 507964 545699 561428
0110100110000100: 477160 507964 545699 506896
0110100010010010: 477160 507964 545699 477017
0110100110000100: 477160 507964 545699 561428
0110100110000100: 477160 507964 545699 506896
0110100110000100: 477160 507964 545699 561428
0110100110000100: 477160 507964 545699 506896
0110100010010010: 477160 507964 545699 477017
0110100110000100: 545699 477017 477160 536008
0110100010010010: 545699 477017 477160 507964
0110100110000100: 545699 477017 477160 536008
0110100110000100: 545699 477017 477160 536008
0110100110000100: 545699 477017 477160 536008
0110100110000100: 545699 477017 477160 536008
0110100110000100: 545699 477017 477160 536008
0110100010010010: 545699 477160 477017 536008
0110100110000100: 545699 477160 477017 507964
0110100110000100: 545699 477160 477017 507964
0110100110000100: 545699 477160 477017 507964
0110100110000100: 545699 477160 477017 507964
0110100110000100: 477017 536008 545699 523732
0110100010010010: 477017 536008 545699 477160
0110100110000100: 477017 536008 545699 523732
0110100110000100: 477017 536008 545699 523732
0110100110000100: 477017 536008 545699 523732
0110100110000100: 477017 536008 545699 523732
0110100110000100: 477017 536008 545699 523732
0110100010010010: 477017 545699 536008 523732
0110100110000100: 477017 545699 536008 477160
0110100110000100: 477017 545699 536008 477160
0110100110000100: 477017 545699 536008 477160
0110100110000100: 477017 545699 536008 477160
0111101011001000: 626413 465710 561428 637125
0111101011001000: 626413 561428 465710 637125
0110100110010110: 626413 637125 465710 506896
0110100110010110: 626413 637125 561428 506896
0110100110010110: 626413 465710 637125 506896
0110100110010110: 626413 465710 637125 506896
0111100110001100: 626413 465710 637125 561428
0110100110010110: 626413 465710 637125 506896
0111101011001000: 626413 465710 561428 637125
0110101011010010: 626413 465710 561428 618889
0110101011010010: 626413 465710 561428 507964
0110101011010010: 626413 465710 561428 470074
0110101011010010: 626413 465710 561428 486715
0110101011010010: 626413 465710 561428 618889
0110101011010010: 626413 465710 561428 507964
0110101011010010: 626413 465710 561428 470074
0110101011010010: 626413 465710 561428 486715
0111101011001000: 626413 465710 561428 637125
0111101011001000: 626413 465710 561428 637125
0111101011001000: 626413 465710 561428 637125
0111101011001000: 626413 465710 561428 637125
0110101111010110: 626413 465710 561428 506896
0110101111010110: 626413 465710 561428 506896
0111101011001000: 626413 465710 561428 637125
0111100110001100: 626413 465710 637125 561428
0111100110001100: 626413 465710 637125 561428
0111100110001100: 626413 465710 637125 561428
0110100110010110: 626413 465710 637125 506896
0110100110010110: 626413 465710 637125 506896
0111101011001000: 626413 465710 561428 637125
0110100110010110: 626413 561428 637125 506896
0110100110000100: 626413 561428 637125 618889
0110100110000100: 626413 561428 637125 507964
0110100110000100: 626413 561428 637125 470074
0110100110000100: 626413 561428 637125 486715
0111100110001100: 626413 561428 637125 465710
0110100110010110: 626413 561428 637125 506896
0111101011001000: 626413 561428 465710 637125
0111101011001000: 626413 561428 465710 637125
0111101011001000: 626413 561428 465710 637125
0111101011001000: 626413 561428 465710 637125
0110101111000100: 626413 561428 465710 618889
0110101111000100: 626413 561428 465710 507964
0110101111000100: 626413 561428 465710 470074
0110101111000100: 626413 561428 465710 486715
0110101111000100: 626413 561428 465710 618889
0110101111000100: 626413 561428 465710 507964
0110101111000100: 626413 561428 465710 470074
0110101111000100: 626413 561428 465710 486715
0111101011001000: 626413 561428 465710 637125
0110101111010110: 626413 561428 465710 506896
0110101111010110: 626413 561428 465710 506896
0111101011001000: 626413 561428 465710 637125
0110100110000100: 626413 561428 637125 618889
0110100110000100: 626413 561428 637125 507964
0110100110000100: 626413 561428 637125 470074
0110100110000100: 626413 561428 637125 486715
0110100110000100: 626413 561428 637125 618889
0110100110000100: 626413 561428 637125 507964
0110100110000100: 626413 561428 637125 470074
0110100110000100: 626413 561428 637125 486715
0111100110001100: 626413 561428 637125 465710
0111100110001100: 626413 561428 637125 465710
0111100110001100: 626413 561428 637125 465710
0110100110010110: 626413 561428 637125 506896
0110100110010110: 626413 561428 637125 506896
0111101011001000: 626413 561428 465710 637125
0111101011001000: 626413 561428 465710 637125
0111101011001000: 626413 561428 465710 637125
0111101011001000: 626413 561428 465710 637125
0111100010011010: 626413 637125 465710 561428
0110100110010110: 626413 637125 465710 506896
0110100010010010: 626413 637125 561428 618889
0110100010010010: 626413 637125 561428 507964
0110100010010010: 626413 637125 561428 470074
0110100010010010: 626413 637125 561428 486715
0111100010011010: 626413 637125 561428 465710
0110100110010110: 626413 637125 561428 506896
0110100110010110: 626413 637125 465710 506896
0110100110010110: 626413 637125 465710 506896
0110100110010110: 626413 637125 561428 506896
0110100110010110: 626413 637125 561428 506896
0100101001010010: 626413 637125 506896 507964
0100101001010010: 626413 637125 506896 507964
0101101001011010: 626413 637125 506896 465710
0101101001011010: 626413 637125 506896 561428
0101101001011010: 626413 637125 506896 465710
0101101001011010: 626413 637125 506896 561428
0101101001011010: 626413 637125 506896 465710
0101101001011010: 626413 637125 506896 561428
0110100010010010: 536008 523732 477017 545699
0110100110000100: 536008 477017 523732 545699
0110100110000100: 536008 477017 523732 545699
0110100110000100: 536008 477017 523732 545699
0111101111001100: 465710 561428 506896 626413
0110100110010110: 465710 506896 626413 637125
0110100010010010: 465710 626413 506896 507964
0110100110010110: 465710 626413 506896 637125
0110100110010110: 465710 626413 506896 637125
0111101011011010: 465710 626413 561428 506896
0111101011011010: 465710 626413 561428 506896
0111101011011010: 465710 626413 561428 506896
0110101111000100: 465710 626413 561428 637125
0110101111000100: 465710 626413 561428 637125
0110101111000100: 465710 626413 561428 637125
0111101011011010: 465710 626413 561428 506896
0110100110010110: 465710 626413 506896 637125
0111100110011110: 465710 626413 506896 561428
0111101011011010: 465710 626413 561428 506896
0110101111000100: 465710 561428 626413 618889
0110101111000100: 465710 561428 626413 507964
0110101111000100: 465710 561428 626413 470074
0110101111000100: 465710 561428 626413 486715
0110101111000100: 465710 561428 626413 618889
0110101111000100: 465710 561428 626413 507964
0110101111000100: 465710 561428 626413 470074
0110101111000100: 465710 561428 626413 486715
0111101111001100: 465710 561428 626413 506896
0110101011010010: 465710 561428 626413 637125
0110101111000100: 465710 561428 506896 618889
0110101111000100: 465710 561428 506896 470074
0110101111000100: 465710 561428 506896 486715
0110101111000100: 465710 561428 506896 618889
0110101111000100: 465710 561428 506896 470074
0110101111000100: 465710 561428 506896 486715
0111101111001100: 465710 561428 506896 626413
0111101111001100: 465710 561428 506896 626413
0110101111010110: 465710 561428 506896 507964
0110101011010010: 465710 561428 506896 637125
0110101111010110: 465710 561428 506896 507964
0111101111001100: 465710 561428 626413 506896
0111101111001100: 465710 561428 506896 626413
0110100110010110: 465710 506896 626413 637125
0110100110000100: 465710 506896 626413 507964
0110100110010110: 465710 506896 626413 637125
0110100110010110: 465710 506896 626413 637125
0111101011011010: 465710 506896 561428 626413
0111101011011010: 465710 506896 561428 626413
0111101011011010: 465710 506896 561428 626413
0110101111000100: 465710 506896 561428 637125
0110101111000100: 465710 506896 561428 637125
0110101111010110: 465710 506896 561428 507964
0110101111010110: 465710 506896 561428 507964
0110101111000100: 465710 506896 561428 637125
0111101011011010: 465710 506896 561428 626413
0111101011011010: 465710 506896 561428 626413
0110100110000100: 465710 506896 626413 507964
0110100110000100: 465710 506896 626413 507964
0110100110010110: 465710 506896 626413 637125
0111100110011110: 465710 506896 626413 561428
0111101011011010: 465710 506896 561428 626413
0110100110010110: 633893 470074 618889 561428
0110100010010010: 633893 618889 470074 528523
0110100110010110: 633893 618889 470074 561428
0110100110010110: 633893 618889 470074 561428
0110100110010110: 633893 618889 470074 561428
0110100110010110: 633893 618889 470074 561428
0110100110010110: 633893 470074 618889 561428
0110100110000100: 633893 470074 618889 528523
0110100110010110: 633893 470074 618889 561428
0110100110010110: 633893 470074 618889 561428
0110100110000100: 633893 470074 618889 528523
0110100110000100: 633893 470074 618889 528523
0110100110010110: 633893 470074 618889 561428
0110100110010110: 618889 561428 633893 470074
0110100010010010: 618889 633893 561428 465710
0110100010010010: 618889 633893 561428 626413
0110100010010010: 618889 633893 561428 507964
0110100010010010: 618889 633893 561428 486715
0110100010010010: 618889 633893 561428 506896
0110100110010110: 618889 633893 561428 470074
0110100110010110: 618889 633893 561428 470074
0110100110010110: 618889 633893 561428 470074
0110100110010110: 618889 561428 633893 470074
0110100110000100: 618889 561428 633893 465710
0110100110000100: 618889 561428 633893 626413
0110100110000100: 618889 561428 633893 507964
0110100110000100: 618889 561428 633893 486715
0110100110000100: 618889 561428 633893 506896
0110100110010110: 618889 561428 633893 470074
0110100110010110: 618889 561428 633893 470074
0110100110000100: 618889 561428 633893 465710
0110100110000100: 618889 561428 633893 626413
0110100110000100: 618889 561428 633893 507964
0110100110000100: 618889 561428 633893 486715
0110100110000100: 618889 561428 633893 506896
0110100110000100: 618889 561428 633893 465710
0110100110000100: 618889 561428 633893 626413
0110100110000100: 618889 561428 633893 507964
0110100110000100: 618889 561428 633893 486715
0110100110000100: 618889 561428 633893 506896
0110100110010110: 618889 561428 633893 470074
