Vertex,0110010011100000100001000,0110010010100010100100110,0111010110110011100000100,0111110100110001000010000,0111110000100001000010000,0110010010100010100000100,0111010101110001000101010,0110010011100100110001000,0111110110110001100010000,0111010101110001000001000,0111110100110001000110010,0111010100110001000100010
534072,16.0,0.0,3.0,5.0,0.0,19.0,1.0,0.0,3.0,13.0,1.0,10.0
511282,29.0,1.0,3.0,5.0,1.0,20.0,2.0,4.0,3.0,12.0,1.0,10.0
583282,7.0,0.0,0.0,0.0,0.0,13.0,0.0,0.0,1.0,7.0,0.0,3.0
588069,12.0,0.0,1.0,3.0,0.0,7.0,1.0,0.0,0.0,5.0,1.0,6.0
483650,1.0,0.0,0.0,0.0,0.0,8.0,0.0,0.0,0.0,0.0,0.0,2.0
541841,18.0,1.0,1.0,4.0,0.0,14.0,0.0,1.0,0.0,4.0,0.0,2.0
618590,15.0,0.0,1.0,3.0,0.0,13.0,2.0,4.0,0.0,4.0,1.0,7.0
485602,19.0,0.0,3.0,1.0,1.0,6.0,0.0,1.0,3.0,2.0,0.0,6.0
561428,29.0,1.0,3.0,5.0,1.0,20.0,2.0,4.0,3.0,12.0,1.0,10.0
618723,20.0,0.0,0.0,2.0,1.0,17.0,2.0,4.0,1.0,6.0,0.0,4.0
605904,18.0,1.0,0.0,2.0,1.0,13.0,0.0,1.0,1.0,5.0,0.0,3.0
497596,8.0,0.0,0.0,0.0,0.0,6.0,0.0,1.0,0.0,0.0,0.0,3.0
522206,8.0,1.0,0.0,0.0,0.0,16.0,0.0,0.0,0.0,0.0,0.0,4.0
630644,0.0,0.0,0.0,0.0,0.0,3.0,0.0,0.0,0.0,0.0,0.0,0.0
graph,40.0,1.0,3.0,6.0,1.0,35.0,2.0,4.0,3.0,14.0,1.0,14.0
