0110010011100000100001000: 551195 480258 535391 485999 478243
0110010011100100110001000: 551195 480258 588486 478243 485999
0111010101110001000001000: 551195 480258 462691 535391 478243
0111010101110001000101010: 551195 480258 462691 588486 478243
0110010010100010100000100: 551195 535391 480258 582835 478243
0110010010100010100100110: 551195 535391 480258 582835 485999
0110010011100000100001000: 551195 462691 535391 635236 530618
0110010011100000100001000: 551195 462691 535391 536744 530618
0110010011100000100001000: 551195 462691 535391 536744 635236
0110010011100000100001000: 551195 462691 535391 570832 530618
0110010011100000100001000: 551195 462691 535391 570832 635236
0110010011100000100001000: 551195 462691 535391 570832 536744
0110010011100000100001000: 551195 462691 535391 597390 635236
0110010011100000100001000: 551195 462691 535391 597390 536744
0110010011100000100001000: 551195 462691 535391 592700 530618
0110010011100000100001000: 551195 462691 535391 565079 530618
0110010011100000100001000: 551195 462691 535391 565079 635236
0110010011100000100001000: 551195 462691 535391 565079 570832
0110010011100000100001000: 551195 462691 535391 565079 597390
0110010011100000100001000: 551195 462691 535391 485999 530618
0110010011100000100001000: 551195 462691 535391 485999 635236
0110010011100000100001000: 551195 462691 535391 485999 536744
0110010011100000100001000: 551195 462691 535391 485999 570832
0110010011100000100001000: 551195 462691 535391 485999 597390
0110010011100000100001000: 551195 462691 535391 485999 592700
0110010011100100110001000: 551195 462691 535391 582835 530618
0110010011100100110001000: 551195 462691 535391 582835 635236
0110010011100100110001000: 551195 462691 535391 582835 597390
0110010011100100110001000: 551195 462691 535391 582835 592700
0110010011100100110001000: 551195 462691 535391 582835 565079
0110010011100000100001000: 551195 462691 588486 582835 530618
0110010011100000100001000: 551195 462691 588486 635236 530618
0110010011100000100001000: 551195 462691 588486 635236 582835
0110010011100000100001000: 551195 462691 588486 536744 530618
0110010011100000100001000: 551195 462691 588486 536744 635236
0110010011100000100001000: 551195 462691 588486 570832 530618
0110010011100000100001000: 551195 462691 588486 570832 635236
0110010011100000100001000: 551195 462691 588486 570832 536744
0110010011100000100001000: 551195 462691 588486 597390 582835
0110010011100000100001000: 551195 462691 588486 597390 635236
0110010011100000100001000: 551195 462691 588486 597390 536744
0110010011100000100001000: 551195 462691 588486 592700 530618
0110010011100000100001000: 551195 462691 588486 592700 582835
0110010011100000100001000: 551195 462691 588486 565079 530618
0110010011100000100001000: 551195 462691 588486 565079 582835
0110010011100000100001000: 551195 462691 588486 565079 635236
0110010011100000100001000: 551195 462691 588486 565079 570832
0110010011100000100001000: 551195 462691 588486 565079 597390
0110010011100000100001000: 551195 462691 588486 485999 530618
0110010011100000100001000: 551195 462691 588486 485999 635236
0110010011100000100001000: 551195 462691 588486 485999 536744
0110010011100000100001000: 551195 462691 588486 485999 570832
0110010011100000100001000: 551195 462691 588486 485999 597390
0110010011100000100001000: 551195 462691 588486 485999 592700
0111010101110001000001000: 551195 462691 480258 535391 530618
0111010101110001000001000: 551195 462691 480258 535391 635236
0111010101110001000001000: 551195 462691 480258 535391 536744
0111010101110001000001000: 551195 462691 480258 535391 570832
0111010101110001000001000: 551195 462691 480258 535391 597390
0111010101110001000001000: 551195 462691 480258 535391 592700
0111010101110001000001000: 551195 462691 480258 535391 565079
0111010101110001000101010: 551195 462691 480258 535391 582835
0111110100110001000010000: 551195 462691 480258 588486 535391
0111010101110001000001000: 551195 462691 480258 588486 530618
0111010101110001000001000: 551195 462691 480258 588486 582835
0111010101110001000001000: 551195 462691 480258 588486 635236
0111010101110001000001000: 551195 462691 480258 588486 536744
0111010101110001000001000: 551195 462691 480258 588486 570832
0111010101110001000001000: 551195 462691 480258 588486 597390
0111010101110001000001000: 551195 462691 480258 588486 592700
0111010101110001000001000: 551195 462691 480258 588486 565079
0110010010100010100000100: 551195 588486 535391 478243 582835
0110010010100010100000100: 551195 588486 462691 478243 530618
0110010010100010100000100: 551195 588486 462691 478243 582835
0110010010100010100000100: 551195 588486 462691 478243 635236
0110010010100010100000100: 551195 588486 462691 478243 536744
0110010010100010100000100: 551195 588486 462691 478243 570832
0110010010100010100000100: 551195 588486 462691 478243 597390
0110010010100010100000100: 551195 588486 462691 478243 592700
0110010010100010100000100: 551195 588486 462691 478243 565079
0110010010100010100000100: 551195 588486 462691 478243 485999
0110010011100000100001000: 588486 551195 478243 462691 535391
0110010011100100110001000: 588486 551195 478243 480258 535391
0110010011100000100001000: 485999 480258 582835 551195 478243
0110010011100000100001000: 485999 480258 565079 551195 478243
0110010010100010100000100: 485999 582835 480258 535391 478243
0110010011100000100001000: 485999 582835 480258 536744 535391
0110010010100010100000100: 485999 582835 480258 536744 478243
0110010010100010100000100: 485999 582835 480258 536744 551195
0110010011100000100001000: 485999 582835 480258 570832 535391
0110010011100000100001000: 485999 582835 480258 570832 536744
0110010010100010100000100: 485999 582835 480258 570832 478243
0110010010100010100000100: 485999 582835 480258 570832 551195
0110010011100000100001000: 485999 582835 565079 570832 535391
0110010011100100110001000: 485999 582835 565079 536744 535391
0110010011100100110001000: 485999 582835 565079 536744 570832
0111010110110011100000100: 485999 462691 480258 582835 478243
0111010110110011100000100: 485999 462691 480258 565079 478243
0111010110110011100000100: 485999 462691 582835 480258 535391
0111010110110011100000100: 485999 462691 582835 565079 535391
0111110111110001100011000: 485999 462691 565079 582835 480258
0110010010100010100000100: 485999 565079 480258 536744 478243
0110010010100010100000100: 485999 565079 480258 536744 551195
0110010010100010100000100: 485999 565079 480258 592700 478243
0110010010100010100000100: 485999 565079 480258 592700 551195
0110010010100010100000100: 485999 565079 582835 592700 535391
0110010010100010100100110: 485999 565079 582835 592700 570832
0110010011100100110001000: 565079 536744 485999 582835 513685
0111010101110001000001000: 565079 536744 592700 485999 513685
0111010101110001000101010: 565079 536744 592700 485999 582835
0111010110110011100000100: 565079 462691 536744 485999 513685
0111110111110101110011000: 565079 462691 592700 536744 485999
0110010011100000100001000: 565079 592700 485999 570832 635236
0110010011100000100001000: 565079 592700 485999 597390 635236
0111010101110001000001000: 565079 592700 536744 485999 635236
0111010101110001000001000: 565079 592700 536744 485999 570832
0111010101110001000001000: 565079 592700 536744 485999 597390
0111010100110001000100010: 565079 592700 536744 485999 480258
0110010010100010100000100: 565079 485999 536744 480258 513685
0110010011100100110001000: 565079 485999 536744 582835 480258
0110010010100010100000100: 565079 485999 592700 480258 635236
0110010010100010100000100: 565079 485999 592700 480258 570832
0110010010100010100000100: 565079 485999 592700 480258 597390
0110010011100000100001000: 565079 485999 592700 582835 480258
0110010010100010100000100: 565079 485999 592700 582835 635236
0110010010100010100000100: 565079 485999 592700 582835 597390
0110010011100000100001000: 592700 536744 635236 513685 582835
0110010011100100110001000: 592700 536744 570832 582835 513685
0110010011100000100001000: 592700 536744 597390 513685 582835
0111010101110001000001000: 592700 536744 565079 635236 582835
0111010101110001000001000: 592700 536744 565079 635236 513685
0111010101110001000001000: 592700 536744 565079 570832 513685
0111010101110001000101010: 592700 536744 565079 570832 582835
0111010101110001000001000: 592700 536744 565079 597390 582835
0111010101110001000001000: 592700 536744 565079 597390 513685
0111010101110001000001000: 592700 570832 597390 635236 582835
0111010101110001000101010: 592700 570832 597390 536744 582835
0111010101110001000001000: 592700 570832 597390 565079 582835
0111010110110011100000100: 592700 462691 536744 635236 513685
0111010110110011100000100: 592700 462691 536744 570832 513685
0111010110110011100000100: 592700 462691 536744 597390 513685
0111110111110001100011000: 592700 462691 570832 536744 635236
0111110111110001100011000: 592700 462691 597390 536744 635236
0111110111110101110011000: 592700 462691 597390 570832 635236
0111110111110101110011000: 592700 462691 597390 570832 536744
0111110111110101110011000: 592700 462691 597390 570832 565079
0111110111110001100011000: 592700 462691 565079 570832 635236
0111110111110001100011000: 592700 462691 565079 597390 635236
0111110111110101110011000: 592700 462691 565079 536744 635236
0111110111110101110011000: 592700 462691 565079 536744 570832
0111110111110101110011000: 592700 462691 565079 536744 597390
0110010010100010100000100: 592700 597390 536744 530618 582835
0110010010100010100000100: 592700 597390 536744 530618 513685
0111010101110001000001000: 592700 597390 570832 635236 530618
0111110100110001000010000: 592700 597390 570832 536744 635236
0111010101110001000001000: 592700 597390 570832 536744 530618
0111010100110001000100010: 592700 597390 570832 536744 513685
0111110100110001000010000: 592700 597390 570832 565079 635236
0111010101110001000001000: 592700 597390 570832 565079 530618
0111010100110001000100010: 592700 597390 570832 565079 485999
0110010010100010100000100: 592700 565079 597390 485999 530618
0111110100110001000010000: 592700 565079 536744 570832 635236
0111110100110001000010000: 592700 565079 536744 597390 635236
0111010100110001000100010: 592700 565079 536744 597390 530618
0111110100110001000110010: 592700 565079 536744 597390 570832
0111010101110001000001000: 597390 570832 592700 530618 582835
0111110111110101110011000: 597390 462691 592700 570832 530618
0110010011100000100001000: 597390 592700 530618 536744 635236
0110010011100000100001000: 597390 592700 530618 565079 635236
0111010101110001000001000: 462691 480258 485999 530618 478243
0111010101110001000001000: 462691 480258 485999 635236 478243
0111010101110001000001000: 462691 480258 485999 536744 478243
0111010101110001000001000: 462691 480258 485999 570832 478243
0111010101110001000001000: 462691 480258 485999 597390 478243
0111010101110001000001000: 462691 480258 485999 592700 478243
0111010101110001000001000: 462691 480258 551195 530618 478243
0111010101110001000001000: 462691 480258 551195 582835 478243
0111010101110001000001000: 462691 480258 551195 635236 478243
0111010101110001000001000: 462691 480258 551195 536744 478243
0111010101110001000001000: 462691 480258 551195 570832 478243
0111010101110001000001000: 462691 480258 551195 597390 478243
0111010101110001000001000: 462691 480258 551195 592700 478243
0111010101110001000001000: 462691 480258 551195 565079 478243
0111110110110001100010000: 462691 480258 551195 485999 530618
0111110110110001100010000: 462691 480258 551195 485999 635236
0111110110110001100010000: 462691 480258 551195 485999 536744
0111110110110001100010000: 462691 480258 551195 485999 570832
0111110110110001100010000: 462691 480258 551195 485999 597390
0111110110110001100010000: 462691 480258 551195 485999 592700
0111010110110011100000100: 462691 480258 551195 485999 535391
0111010110110011100000100: 462691 480258 551195 485999 588486
0110010010100010100000100: 462691 582835 480258 535391 478243
0111010101110001000001000: 462691 582835 536744 480258 535391
0111010101110001000001000: 462691 582835 536744 530618 535391
0111010101110001000001000: 462691 582835 536744 635236 535391
0111010101110001000001000: 462691 582835 536744 597390 535391
0111010101110001000101010: 462691 582835 536744 551195 535391
0111010110110011100000100: 462691 582835 536744 570832 513685
0111010110110011100000100: 462691 582835 536744 485999 513685
0111010101110001000001000: 462691 582835 570832 480258 535391
0111010101110001000001000: 462691 582835 570832 530618 535391
0111010101110001000001000: 462691 582835 570832 635236 535391
0111010101110001000001000: 462691 582835 570832 565079 535391
0111010101110001000101010: 462691 582835 570832 551195 535391
0111110110110001100010000: 462691 582835 570832 536744 480258
0111110110110001100010000: 462691 582835 570832 536744 530618
0111110110110001100010000: 462691 582835 570832 536744 635236
0111110110110001100010000: 462691 582835 570832 536744 551195
0111010101110001000001000: 462691 582835 485999 530618 535391
0111010101110001000001000: 462691 582835 485999 635236 535391
0111010101110001000001000: 462691 582835 485999 597390 535391
0111010101110001000001000: 462691 582835 485999 592700 535391
0111010101110001000101010: 462691 582835 485999 551195 535391
0111110110110001100010000: 462691 582835 485999 536744 530618
0111110110110001100010000: 462691 582835 485999 536744 635236
0111110110110001100010000: 462691 582835 485999 536744 597390
0111110110110001100010000: 462691 582835 485999 536744 551195
0111110110110001100010000: 462691 582835 485999 570832 530618
0111110110110001100010000: 462691 582835 485999 570832 635236
0111110110110001100010000: 462691 582835 485999 570832 551195
0111110111110001100011000: 462691 582835 485999 570832 536744
0111110000100001000010000: 462691 635236 582835 530618 480258
0110010010100010100000100: 462691 536744 480258 513685 478243
0111110000100001000010000: 462691 536744 635236 530618 480258
0111010101110001000001000: 462691 536744 582835 480258 513685
0111010100110001000100010: 462691 536744 582835 480258 478243
0111110100110001000010000: 462691 536744 582835 530618 480258
0111010101110001000001000: 462691 536744 582835 530618 513685
0111110100110001000010000: 462691 536744 582835 635236 480258
0111110100110001000010000: 462691 536744 582835 635236 530618
0111010101110001000001000: 462691 536744 582835 635236 513685
0111110100110001000010000: 462691 536744 582835 597390 480258
0111110100110001000010000: 462691 536744 582835 597390 635236
0111010101110001000001000: 462691 536744 582835 597390 513685
0111110100110001000010000: 462691 536744 582835 551195 530618
0111110100110001000010000: 462691 536744 582835 551195 635236
0111110100110001000010000: 462691 536744 582835 551195 597390
0111010101110001000001000: 462691 536744 582835 551195 513685
0111010100110001000100010: 462691 536744 582835 551195 588486
0111110110110011100010100: 462691 536744 582835 592700 485999
0111010110110011100000100: 462691 536744 582835 592700 535391
0111110110110011100010100: 462691 536744 582835 565079 570832
0111010110110011100000100: 462691 536744 582835 565079 535391
0111010101110001000001000: 462691 536744 592700 480258 513685
0111010101110001000001000: 462691 536744 592700 530618 513685
0111010101110001000001000: 462691 536744 592700 485999 513685
0111010101110001000001000: 462691 536744 592700 551195 513685
0111110110110001100010000: 462691 536744 592700 582835 480258
0111110110110001100010000: 462691 536744 592700 582835 530618
0111110110110001100010000: 462691 536744 592700 582835 551195
0111010101110001000001000: 462691 536744 565079 480258 513685
0111010101110001000001000: 462691 536744 565079 530618 513685
0111010101110001000001000: 462691 536744 565079 635236 513685
0111010101110001000001000: 462691 536744 565079 570832 513685
0111010101110001000001000: 462691 536744 565079 597390 513685
0111010101110001000001000: 462691 536744 565079 551195 513685
0111110110110001100010000: 462691 536744 565079 582835 480258
0111110110110001100010000: 462691 536744 565079 582835 530618
0111110110110001100010000: 462691 536744 565079 582835 635236
0111110110110001100010000: 462691 536744 565079 582835 597390
0111110110110001100010000: 462691 536744 565079 582835 551195
0111110111110101110011000: 462691 536744 565079 592700 582835
0111110000100001000010000: 462691 570832 635236 530618 480258
0111110000100001000010000: 462691 570832 536744 530618 480258
0111110000100001000010000: 462691 570832 536744 635236 480258
0111110000100001000010000: 462691 570832 536744 635236 530618
0111010100110001000100010: 462691 570832 582835 480258 478243
0111110100110001000010000: 462691 570832 582835 530618 480258
0111110100110001000010000: 462691 570832 582835 635236 480258
0111110100110001000010000: 462691 570832 582835 635236 530618
0111110100110001000010000: 462691 570832 582835 565079 480258
0111110100110001000010000: 462691 570832 582835 565079 530618
0111110100110001000010000: 462691 570832 582835 565079 635236
0111110100110001000010000: 462691 570832 582835 551195 530618
0111110100110001000010000: 462691 570832 582835 551195 635236
0111110100110001000010000: 462691 570832 582835 551195 565079
0111010100110001000100010: 462691 570832 582835 551195 588486
0111110110110011100010100: 462691 570832 582835 597390 536744
0111110110110011100010100: 462691 570832 582835 597390 485999
0111010110110011100000100: 462691 570832 582835 597390 535391
0111110110110011100010100: 462691 570832 582835 592700 485999
0111010110110011100000100: 462691 570832 582835 592700 535391
0111110110110001100010000: 462691 570832 597390 582835 480258
0111110110110001100010000: 462691 570832 597390 582835 635236
0111110110110001100010000: 462691 570832 597390 582835 565079
0111110110110001100010000: 462691 570832 597390 582835 551195
0111110110110001100010000: 462691 570832 592700 582835 480258
0111110110110001100010000: 462691 570832 592700 582835 530618
0111110110110001100010000: 462691 570832 592700 582835 551195
0111110111110101110011000: 462691 570832 592700 597390 582835
0111110000100001000010000: 462691 597390 635236 582835 480258
0111110000100001000010000: 462691 597390 536744 635236 480258
0111010100110001000100010: 462691 597390 530618 480258 478243
0111110100110001000010000: 462691 597390 530618 582835 480258
0111010100110001000100010: 462691 597390 530618 582835 535391
0111110100110001000010000: 462691 597390 530618 635236 480258
0111110100110001000010000: 462691 597390 530618 635236 582835
0111110100110001000010000: 462691 597390 530618 536744 480258
0111110100110001000010000: 462691 597390 530618 536744 635236
0111010100110001000100010: 462691 597390 530618 536744 513685
0111110100110001000110010: 462691 597390 530618 536744 582835
0111110100110001000010000: 462691 597390 530618 565079 480258
0111110100110001000010000: 462691 597390 530618 565079 582835
0111110100110001000010000: 462691 597390 530618 565079 635236
0111110100110001000010000: 462691 597390 530618 485999 635236
0111110100110001000010000: 462691 597390 530618 485999 536744
0111110100110001000010000: 462691 597390 530618 551195 582835
0111110100110001000010000: 462691 597390 530618 551195 635236
0111110100110001000010000: 462691 597390 530618 551195 536744
0111110100110001000010000: 462691 597390 530618 551195 565079
0111110100110001000010000: 462691 597390 530618 551195 485999
0111010100110001000100010: 462691 597390 530618 551195 535391
0111010100110001000100010: 462691 597390 530618 551195 588486
0111010100110001000100010: 462691 597390 570832 480258 478243
0111110100110001000010000: 462691 597390 570832 635236 480258
0111110100110001000010000: 462691 597390 570832 536744 480258
0111110100110001000010000: 462691 597390 570832 536744 635236
0111010100110001000100010: 462691 597390 570832 536744 513685
0111110100110001000010000: 462691 597390 570832 565079 480258
0111110100110001000010000: 462691 597390 570832 565079 635236
0111110100110001000010000: 462691 597390 570832 485999 635236
0111110100110001000010000: 462691 597390 570832 485999 536744
0111110100110001000010000: 462691 597390 570832 551195 635236
0111110100110001000010000: 462691 597390 570832 551195 536744
0111110100110001000010000: 462691 597390 570832 551195 565079
0111110100110001000010000: 462691 597390 570832 551195 485999
0111010100110001000100010: 462691 597390 570832 551195 535391
0111010100110001000100010: 462691 597390 570832 551195 588486
0111110110110001100010000: 462691 597390 570832 530618 480258
0111110110110001100010000: 462691 597390 570832 530618 635236
0111110110110001100010000: 462691 597390 570832 530618 536744
0111110110110001100010000: 462691 597390 570832 530618 565079
0111110110110001100010000: 462691 597390 570832 530618 485999
0111110110110001100010000: 462691 597390 570832 530618 551195
0111110110110011100010100: 462691 597390 570832 530618 582835
0111110110110001100010000: 462691 597390 592700 530618 480258
0111110110110001100010000: 462691 597390 592700 530618 582835
0111110110110001100010000: 462691 597390 592700 530618 485999
0111110110110001100010000: 462691 597390 592700 530618 551195
0111110000100001000010000: 462691 592700 582835 530618 480258
0111010100110001000100010: 462691 592700 635236 480258 478243
0111110100110001000010000: 462691 592700 635236 530618 480258
0111110100110001000010000: 462691 592700 635236 582835 480258
0111110100110001000010000: 462691 592700 635236 582835 530618
0111010100110001000100010: 462691 592700 635236 582835 535391
0111110100110001000010000: 462691 592700 635236 485999 530618
0111110100110001000010000: 462691 592700 635236 551195 530618
0111110100110001000010000: 462691 592700 635236 551195 582835
0111110100110001000010000: 462691 592700 635236 551195 485999
0111010100110001000100010: 462691 592700 635236 551195 535391
0111010100110001000100010: 462691 592700 635236 551195 588486
0111010100110001000100010: 462691 592700 536744 480258 478243
0111110100110001000010000: 462691 592700 536744 530618 480258
0111110100110001000010000: 462691 592700 536744 485999 530618
0111110100110001000010000: 462691 592700 536744 551195 530618
0111110100110001000010000: 462691 592700 536744 551195 485999
0111010100110001000100010: 462691 592700 536744 551195 535391
0111010100110001000100010: 462691 592700 536744 551195 588486
0111110110110001100010000: 462691 592700 536744 635236 480258
0111110110110001100010000: 462691 592700 536744 635236 530618
0111110110110001100010000: 462691 592700 536744 635236 485999
0111110110110001100010000: 462691 592700 536744 635236 551195
0111110110110011100010100: 462691 592700 536744 635236 582835
0111110110110011100010100: 462691 592700 536744 597390 582835
0111010100110001000100010: 462691 592700 570832 480258 478243
0111110100110001000010000: 462691 592700 570832 530618 480258
0111110100110001000010000: 462691 592700 570832 485999 530618
0111110100110001000010000: 462691 592700 570832 551195 530618
0111110100110001000010000: 462691 592700 570832 551195 485999
0111010100110001000100010: 462691 592700 570832 551195 535391
0111010100110001000100010: 462691 592700 570832 551195 588486
0111110110110001100010000: 462691 592700 570832 635236 480258
0111110110110001100010000: 462691 592700 570832 635236 530618
0111110110110001100010000: 462691 592700 570832 635236 485999
0111110110110001100010000: 462691 592700 570832 635236 551195
0111110110110011100010100: 462691 592700 570832 635236 582835
0111110110110001100010000: 462691 592700 570832 536744 480258
0111110110110001100010000: 462691 592700 570832 536744 530618
0111110110110001100010000: 462691 592700 570832 536744 485999
0111110110110001100010000: 462691 592700 570832 536744 551195
0111110110110011100110110: 462691 592700 570832 536744 582835
0111110110110011100010100: 462691 592700 570832 565079 582835
0111010100110001000100010: 462691 592700 597390 480258 478243
0111110100110001000010000: 462691 592700 597390 582835 480258
0111010100110001000100010: 462691 592700 597390 582835 535391
0111110100110001000010000: 462691 592700 597390 551195 582835
0111110100110001000010000: 462691 592700 597390 551195 485999
0111010100110001000100010: 462691 592700 597390 551195 535391
0111010100110001000100010: 462691 592700 597390 551195 588486
0111110110110001100010000: 462691 592700 597390 635236 480258
0111110110110001100010000: 462691 592700 597390 635236 582835
0111110110110001100010000: 462691 592700 597390 635236 485999
0111110110110001100010000: 462691 592700 597390 635236 551195
0111110110110011100010100: 462691 592700 597390 635236 530618
0111110110110001100010000: 462691 592700 597390 536744 480258
0111110110110001100010000: 462691 592700 597390 536744 485999
0111110110110001100010000: 462691 592700 597390 536744 551195
0111110110110011100010100: 462691 592700 597390 536744 530618
0111110110110011100010100: 462691 592700 597390 565079 530618
0111110110110101110010000: 462691 592700 597390 570832 480258
0111110110110101110010000: 462691 592700 597390 570832 485999
0111110110110101110010000: 462691 592700 597390 570832 551195
0111110110110001100010000: 462691 592700 565079 635236 480258
0111110110110001100010000: 462691 592700 565079 635236 530618
0111110110110001100010000: 462691 592700 565079 635236 582835
0111110110110001100010000: 462691 592700 565079 635236 551195
0111110110110001100010000: 462691 592700 565079 570832 480258
0111110110110001100010000: 462691 592700 565079 570832 530618
0111110110110001100010000: 462691 592700 565079 570832 551195
0111110110110001100010000: 462691 592700 565079 597390 480258
0111110110110001100010000: 462691 592700 565079 597390 582835
0111110110110001100010000: 462691 592700 565079 597390 551195
0111110000100001000010000: 462691 565079 582835 530618 480258
0111110000100001000010000: 462691 565079 635236 530618 480258
0111110000100001000010000: 462691 565079 635236 582835 480258
0111110000100001000010000: 462691 565079 635236 582835 530618
0111110000100001000010000: 462691 565079 570832 530618 480258
0111110000100001000010000: 462691 565079 570832 635236 480258
0111110000100001000010000: 462691 565079 570832 635236 530618
0111110000100001000010000: 462691 565079 597390 582835 480258
0111110000100001000010000: 462691 565079 597390 635236 480258
0111110000100001000010000: 462691 565079 597390 635236 582835
0111010100110001000100010: 462691 565079 536744 480258 478243
0111110100110001000010000: 462691 565079 536744 530618 480258
0111110100110001000010000: 462691 565079 536744 635236 480258
0111110100110001000010000: 462691 565079 536744 635236 530618
0111110100110001000010000: 462691 565079 536744 570832 480258
0111110100110001000010000: 462691 565079 536744 570832 530618
0111110100110001000010000: 462691 565079 536744 570832 635236
0111110100110001000010000: 462691 565079 536744 597390 480258
0111110100110001000010000: 462691 565079 536744 597390 635236
0111110100110001000110010: 462691 565079 536744 597390 530618
0111110100110001000110010: 462691 565079 536744 597390 570832
0111110100110001000010000: 462691 565079 536744 551195 530618
0111110100110001000010000: 462691 565079 536744 551195 635236
0111110100110001000010000: 462691 565079 536744 551195 570832
0111110100110001000010000: 462691 565079 536744 551195 597390
0111010100110001000100010: 462691 565079 536744 551195 535391
0111010100110001000100010: 462691 565079 536744 551195 588486
0111010100110001000100010: 462691 565079 592700 480258 478243
0111110100110001000010000: 462691 565079 592700 530618 480258
0111110100110001000010000: 462691 565079 592700 582835 480258
0111110100110001000010000: 462691 565079 592700 582835 530618
0111010100110001000100010: 462691 565079 592700 582835 535391
0111110100110001000010000: 462691 565079 592700 551195 530618
0111110100110001000010000: 462691 565079 592700 551195 582835
0111010100110001000100010: 462691 565079 592700 551195 535391
0111010100110001000100010: 462691 565079 592700 551195 588486
0111110110110011100010100: 462691 565079 592700 485999 635236
0111110110110011100010100: 462691 565079 592700 485999 570832
0111110110110011100010100: 462691 565079 592700 485999 597390
0111110110110101110010000: 462691 565079 592700 536744 480258
0111110110110101110010000: 462691 565079 592700 536744 530618
0111110110110101110010000: 462691 565079 592700 536744 551195
0111110110110001100010000: 462691 565079 485999 536744 530618
0111110110110001100010000: 462691 565079 485999 536744 635236
0111110110110001100010000: 462691 565079 485999 536744 570832
0111110110110001100010000: 462691 565079 485999 536744 597390
0111110110110001100010000: 462691 565079 485999 536744 551195
0111110110110001100010000: 462691 565079 485999 592700 530618
0111110110110001100010000: 462691 565079 485999 592700 551195
0111110000100001000010000: 462691 485999 536744 635236 530618
0111110000100001000010000: 462691 485999 570832 635236 530618
0111110000100001000010000: 462691 485999 570832 536744 530618
0111110000100001000010000: 462691 485999 570832 536744 635236
0111110000100001000010000: 462691 485999 597390 536744 635236
0111110100110001000010000: 462691 485999 480258 635236 530618
0111110100110001000010000: 462691 485999 480258 536744 530618
0111110100110001000010000: 462691 485999 480258 536744 635236
0111010100110001000100010: 462691 485999 480258 536744 513685
0111110100110001000010000: 462691 485999 480258 570832 530618
0111110100110001000010000: 462691 485999 480258 570832 635236
0111110100110001000010000: 462691 485999 480258 570832 536744
0111110100110001000010000: 462691 485999 480258 597390 635236
0111110100110001000010000: 462691 485999 480258 597390 536744
0111110100110001000110010: 462691 485999 480258 597390 530618
0111110100110001000110010: 462691 485999 480258 597390 570832
0111110100110001000010000: 462691 485999 480258 592700 530618
0111110100110001000110010: 462691 485999 480258 592700 635236
0111110100110001000110010: 462691 485999 480258 592700 536744
0111110100110001000110010: 462691 485999 480258 592700 570832
0111110100110001000110010: 462691 485999 480258 592700 597390
0111110110110011100010100: 462691 485999 480258 582835 551195
0111110110110011100010100: 462691 485999 480258 565079 551195
0111110100110001000010000: 462691 485999 582835 635236 530618
0111110100110001000010000: 462691 485999 582835 597390 635236
0111110100110001000110010: 462691 485999 582835 597390 530618
0111110100110001000010000: 462691 485999 582835 592700 530618
0111110100110001000110010: 462691 485999 582835 592700 635236
0111110100110001000110010: 462691 485999 582835 592700 597390
0111110100110001000010000: 462691 485999 582835 551195 530618
0111110100110001000010000: 462691 485999 582835 551195 635236
0111110100110001000010000: 462691 485999 582835 551195 597390
0111110100110001000010000: 462691 485999 582835 551195 592700
0111010100110001000100010: 462691 485999 582835 551195 588486
0111110110110001100010000: 462691 485999 582835 480258 530618
0111110110110001100010000: 462691 485999 582835 480258 635236
0111110110110001100010000: 462691 485999 582835 480258 597390
0111110110110001100010000: 462691 485999 582835 480258 592700
0111110110110011100010100: 462691 485999 582835 480258 536744
0111110110110011100010100: 462691 485999 582835 480258 570832
0111110110110011100010100: 462691 485999 582835 565079 570832
0111110100110001000010000: 462691 485999 565079 635236 530618
0111110100110001000010000: 462691 485999 565079 570832 530618
0111110100110001000010000: 462691 485999 565079 570832 635236
0111110100110001000010000: 462691 485999 565079 597390 635236
0111110100110001000110010: 462691 485999 565079 597390 530618
0111110100110001000110010: 462691 485999 565079 597390 570832
0111110100110001000010000: 462691 485999 565079 551195 530618
0111110100110001000010000: 462691 485999 565079 551195 635236
0111110100110001000010000: 462691 485999 565079 551195 570832
0111110100110001000010000: 462691 485999 565079 551195 597390
0111010100110001000100010: 462691 485999 565079 551195 535391
0111010100110001000100010: 462691 485999 565079 551195 588486
0111110110110001100010000: 462691 485999 565079 480258 530618
0111110110110001100010000: 462691 485999 565079 480258 635236
0111110110110001100010000: 462691 485999 565079 480258 570832
0111110110110001100010000: 462691 485999 565079 480258 597390
0111110110110011100010100: 462691 485999 565079 480258 536744
0111110110110011100010100: 462691 485999 565079 480258 592700
0111110110110001100010000: 462691 485999 565079 582835 530618
0111110110110001100010000: 462691 485999 565079 582835 635236
0111110110110001100010000: 462691 485999 565079 582835 597390
0111110110110001100010000: 462691 485999 565079 582835 551195
0111110110110011100010100: 462691 485999 565079 582835 592700
0111110110110011100110110: 462691 485999 565079 582835 536744
0110010011100000100001000: 462691 551195 530618 588486 535391
0110010011100100110001000: 462691 551195 582835 535391 588486
0111110000100001000010000: 462691 551195 635236 582835 530618
0110010011100000100001000: 462691 551195 635236 588486 535391
0111110000100001000010000: 462691 551195 536744 635236 530618
0110010010100010100000100: 462691 551195 536744 535391 513685
0110010011100000100001000: 462691 551195 536744 588486 535391
0110010010100010100000100: 462691 551195 536744 588486 513685
0111110000100001000010000: 462691 551195 570832 635236 530618
0111110000100001000010000: 462691 551195 570832 536744 530618
0111110000100001000010000: 462691 551195 570832 536744 635236
0110010011100000100001000: 462691 551195 570832 588486 535391
0111110000100001000010000: 462691 551195 597390 635236 582835
0111110000100001000010000: 462691 551195 597390 536744 635236
0110010011100000100001000: 462691 551195 597390 588486 535391
0111110000100001000010000: 462691 551195 592700 582835 530618
0110010011100000100001000: 462691 551195 592700 588486 535391
0111110000100001000010000: 462691 551195 565079 582835 530618
0111110000100001000010000: 462691 551195 565079 635236 530618
0111110000100001000010000: 462691 551195 565079 635236 582835
0111110000100001000010000: 462691 551195 565079 570832 530618
0111110000100001000010000: 462691 551195 565079 570832 635236
0111110000100001000010000: 462691 551195 565079 597390 582835
0111110000100001000010000: 462691 551195 565079 597390 635236
0110010011100000100001000: 462691 551195 565079 588486 535391
0111110000100001000010000: 462691 551195 485999 635236 530618
0111110000100001000010000: 462691 551195 485999 536744 530618
0111110000100001000010000: 462691 551195 485999 536744 635236
0111110000100001000010000: 462691 551195 485999 570832 530618
0111110000100001000010000: 462691 551195 485999 570832 635236
0111110000100001000010000: 462691 551195 485999 570832 536744
0111110000100001000010000: 462691 551195 485999 597390 635236
0111110000100001000010000: 462691 551195 485999 597390 536744
0111110000100001000010000: 462691 551195 485999 592700 530618
0110010011100000100001000: 462691 551195 485999 588486 535391
0111110100110001000010000: 462691 551195 480258 582835 530618
0111110100110001000010000: 462691 551195 480258 635236 530618
0111110100110001000010000: 462691 551195 480258 635236 582835
0111110100110001000010000: 462691 551195 480258 536744 530618
0111110100110001000010000: 462691 551195 480258 536744 635236
0111010100110001000100010: 462691 551195 480258 536744 513685
0111110100110001000110010: 462691 551195 480258 536744 582835
0111110100110001000010000: 462691 551195 480258 570832 530618
0111110100110001000010000: 462691 551195 480258 570832 635236
0111110100110001000010000: 462691 551195 480258 570832 536744
0111110100110001000110010: 462691 551195 480258 570832 582835
0111110100110001000010000: 462691 551195 480258 597390 582835
0111110100110001000010000: 462691 551195 480258 597390 635236
0111110100110001000010000: 462691 551195 480258 597390 536744
0111110100110001000110010: 462691 551195 480258 597390 530618
0111110100110001000110010: 462691 551195 480258 597390 570832
0111110100110001000010000: 462691 551195 480258 592700 530618
0111110100110001000010000: 462691 551195 480258 592700 582835
0111110100110001000110010: 462691 551195 480258 592700 635236
0111110100110001000110010: 462691 551195 480258 592700 536744
0111110100110001000110010: 462691 551195 480258 592700 570832
0111110100110001000110010: 462691 551195 480258 592700 597390
0111110100110001000010000: 462691 551195 480258 565079 530618
0111110100110001000010000: 462691 551195 480258 565079 582835
0111110100110001000010000: 462691 551195 480258 565079 635236
0111110100110001000010000: 462691 551195 480258 565079 570832
0111110100110001000010000: 462691 551195 480258 565079 597390
0111110100110001000110010: 462691 551195 480258 565079 536744
0111110100110001000110010: 462691 551195 480258 565079 592700
0110010011100000100001000: 570832 582835 597390 536744 535391
0110010011100000100001000: 570832 582835 597390 485999 535391
0110010011100000100001000: 570832 582835 597390 485999 536744
0110010011100000100001000: 570832 582835 592700 485999 535391
0110010011100100110001000: 570832 582835 592700 536744 535391
0110010011100100110001000: 570832 582835 592700 536744 485999
0110010010100010100000100: 570832 597390 582835 530618 535391
0110010010100010100000100: 570832 597390 582835 530618 536744
0110010010100010100000100: 570832 597390 582835 530618 485999
0110010010100010100000100: 570832 592700 582835 635236 535391
0110010010100010100000100: 570832 592700 582835 635236 485999
0110010011100000100001000: 570832 592700 582835 565079 635236
0110010010100010100000100: 570832 592700 582835 565079 535391
0110010011100100110001000: 570832 592700 582835 536744 635236
0111010100110001000100010: 570832 592700 597390 582835 535391
0111010100110001000100010: 570832 592700 597390 582835 485999
0110010011100000100001000: 536744 582835 513685 570832 535391
0110010011100000100001000: 536744 582835 513685 485999 535391
0110010011100000100001000: 536744 582835 513685 485999 570832
0110010011100000100001000: 536744 582835 592700 485999 535391
0110010011100000100001000: 536744 582835 565079 570832 535391
0111010101110001000001000: 536744 582835 462691 513685 535391
0110010011100000100001000: 536744 462691 513685 530618 480258
0110010011100000100001000: 536744 462691 513685 635236 480258
0110010011100000100001000: 536744 462691 513685 635236 530618
0110010011100000100001000: 536744 462691 513685 570832 480258
0110010011100000100001000: 536744 462691 513685 570832 530618
0110010011100000100001000: 536744 462691 513685 570832 635236
0110010011100000100001000: 536744 462691 513685 597390 480258
0110010011100000100001000: 536744 462691 513685 597390 635236
0110010011100000100001000: 536744 462691 513685 485999 530618
0110010011100000100001000: 536744 462691 513685 485999 635236
0110010011100000100001000: 536744 462691 513685 485999 570832
0110010011100000100001000: 536744 462691 513685 485999 597390
0110010011100000100001000: 536744 462691 513685 551195 530618
0110010011100000100001000: 536744 462691 513685 551195 635236
0110010011100000100001000: 536744 462691 513685 551195 570832
0110010011100000100001000: 536744 462691 513685 551195 597390
0110010011100000100001000: 536744 462691 513685 551195 485999
0111110110110001100010000: 536744 462691 592700 582835 513685
0111110110110001100010000: 536744 462691 565079 582835 513685
0110010010100010100000100: 536744 592700 582835 635236 535391
0110010010100010100000100: 536744 592700 582835 635236 485999
0110010011100000100001000: 536744 592700 582835 597390 635236
0110010010100010100000100: 536744 592700 582835 597390 535391
0110010010100010100000100: 536744 592700 582835 597390 485999
0110010011100000100001000: 536744 592700 513685 570832 635236
0110010011100000100001000: 536744 592700 513685 597390 635236
0111010100110001000100010: 536744 565079 592700 582835 535391
0111110100110001000010000: 536744 565079 592700 513685 582835
0111110110110101110010000: 536744 565079 592700 462691 513685
0110010011100000100001000: 535391 582835 551195 570832 536744
0110010011100000100001000: 535391 582835 551195 485999 536744
0110010011100000100001000: 535391 582835 551195 485999 570832
0110010010100010100000100: 535391 551195 582835 480258 536744
0110010010100010100000100: 535391 551195 582835 480258 570832
0110010011100000100001000: 535391 551195 582835 588486 480258
0110010010100010100000100: 535391 551195 582835 588486 536744
0110010010100010100000100: 535391 551195 582835 588486 570832
0110010010100010100000100: 535391 551195 582835 588486 485999
0110010010100010100000100: 582835 536744 535391 513685 551195
0110010011100000100001000: 582835 536744 535391 592700 513685
0110010010100010100000100: 582835 536744 535391 592700 551195
0110010011100000100001000: 582835 536744 535391 565079 513685
0110010010100010100000100: 582835 536744 535391 565079 551195
0110010011100000100001000: 582835 536744 570832 565079 513685
0110010011100000100001000: 582835 536744 485999 592700 513685
0110010010100010100000100: 582835 570832 535391 597390 551195
0110010010100010100000100: 582835 570832 535391 592700 551195
0110010010100010100000100: 582835 570832 536744 597390 513685
0110010010100010100000100: 582835 570832 536744 597390 565079
0110010011100000100001000: 582835 462691 535391 530618 480258
0110010011100000100001000: 582835 462691 535391 635236 480258
0110010011100000100001000: 582835 462691 535391 635236 530618
0110010011100000100001000: 582835 462691 535391 597390 480258
0110010011100000100001000: 582835 462691 535391 597390 635236
0110010011100000100001000: 582835 462691 535391 592700 480258
0110010011100000100001000: 582835 462691 535391 592700 530618
0110010011100000100001000: 582835 462691 535391 565079 480258
0110010011100000100001000: 582835 462691 535391 565079 530618
0110010011100000100001000: 582835 462691 535391 565079 635236
0110010011100000100001000: 582835 462691 535391 565079 597390
0111110110110001100010000: 582835 462691 570832 536744 535391
0111110110110001100010000: 582835 462691 485999 536744 535391
0111110110110001100010000: 582835 462691 485999 570832 535391
0110010011100000100001000: 582835 485999 535391 565079 480258
0110010010100010100000100: 582835 485999 535391 565079 551195
0110010010100010100000100: 582835 485999 536744 480258 513685
0110010010100010100000100: 582835 485999 536744 480258 592700
0111110000100001000010000: 582835 485999 570832 536744 535391
0110010010100010100000100: 582835 485999 570832 480258 597390
0110010010100010100000100: 582835 485999 570832 480258 592700
0110010011100000100001000: 582835 485999 570832 565079 480258
0110010010100010100000100: 582835 485999 570832 565079 597390
0110010010100010100000100: 480258 462691 478243 530618 588486
0110010011100000100001000: 480258 462691 478243 582835 530618
0110010010100010100000100: 480258 462691 478243 582835 588486
0110010011100000100001000: 480258 462691 478243 635236 530618
0110010011100000100001000: 480258 462691 478243 635236 582835
0110010010100010100000100: 480258 462691 478243 635236 588486
0110010011100000100001000: 480258 462691 478243 536744 530618
0110010011100000100001000: 480258 462691 478243 536744 635236
0110010010100010100000100: 480258 462691 478243 536744 588486
0110010011100000100001000: 480258 462691 478243 570832 530618
0110010011100000100001000: 480258 462691 478243 570832 635236
0110010011100000100001000: 480258 462691 478243 570832 536744
0110010010100010100000100: 480258 462691 478243 570832 588486
0110010011100000100001000: 480258 462691 478243 597390 582835
0110010011100000100001000: 480258 462691 478243 597390 635236
0110010011100000100001000: 480258 462691 478243 597390 536744
0110010010100010100000100: 480258 462691 478243 597390 588486
0110010011100000100001000: 480258 462691 478243 592700 530618
0110010011100000100001000: 480258 462691 478243 592700 582835
0110010010100010100000100: 480258 462691 478243 592700 588486
0110010011100000100001000: 480258 462691 478243 565079 530618
0110010011100000100001000: 480258 462691 478243 565079 582835
0110010011100000100001000: 480258 462691 478243 565079 635236
0110010011100000100001000: 480258 462691 478243 565079 570832
0110010011100000100001000: 480258 462691 478243 565079 597390
0110010010100010100000100: 480258 462691 478243 565079 588486
0111110110110001100010000: 480258 462691 551195 485999 478243
0110010010100010100000100: 480258 485999 478243 582835 588486
0110010011100000100001000: 480258 485999 478243 565079 582835
0110010010100010100000100: 480258 485999 478243 565079 588486
0110010011100000100001000: 480258 485999 551195 565079 582835
0111010100110001000100010: 480258 485999 462691 478243 588486
0110010010100010100000100: 480258 551195 485999 535391 565079
0110010011100000100001000: 480258 551195 485999 588486 535391
0110010010100010100000100: 480258 551195 485999 588486 582835
0110010010100010100000100: 480258 551195 485999 588486 565079
