Vertex,0111110111110001100011000,0110010011100000100001000,0110010011100110110001100,0111110110110001100010000,0111110000100001000010000,0111110111110101110011000,0111010110110011100000100,0110010010100010100000100,0111110100110001000010000,0111110110110101110010000,0111010101110001000101010,0111110111110111110011100,0111010110110011100100110,0110010010100010100100110,0111010100110001000100010,0111010101110001000001000,0111110100110001000110010,0110010011100100110001000,0111110110110011100010100
621335,2.0,142.0,0.0,49.0,65.0,6.0,11.0,80.0,137.0,10.0,5.0,0.0,0.0,1.0,49.0,64.0,19.0,6.0,9.0
462580,2.0,111.0,4.0,57.0,77.0,6.0,7.0,70.0,122.0,10.0,11.0,0.0,3.0,0.0,43.0,56.0,17.0,41.0,10.0
604116,0.0,99.0,0.0,34.0,112.0,1.0,2.0,23.0,127.0,3.0,0.0,0.0,0.0,0.0,12.0,34.0,8.0,7.0,4.0
539717,0.0,95.0,0.0,40.0,78.0,1.0,2.0,32.0,142.0,3.0,4.0,0.0,1.0,0.0,19.0,39.0,19.0,9.0,6.0
558135,0.0,176.0,5.0,6.0,5.0,0.0,9.0,138.0,6.0,3.0,21.0,0.0,4.0,0.0,40.0,64.0,0.0,80.0,0.0
457646,0.0,51.0,0.0,2.0,0.0,0.0,4.0,58.0,1.0,1.0,0.0,0.0,0.0,1.0,19.0,32.0,0.0,0.0,0.0
504626,0.0,64.0,0.0,4.0,0.0,0.0,4.0,55.0,4.0,2.0,0.0,0.0,0.0,1.0,18.0,37.0,0.0,0.0,0.0
617770,6.0,93.0,1.0,85.0,38.0,11.0,23.0,85.0,119.0,15.0,8.0,1.0,3.0,1.0,50.0,79.0,13.0,18.0,23.0
561428,7.0,461.0,4.0,155.0,298.0,14.0,44.0,136.0,443.0,36.0,19.0,2.0,4.0,2.0,113.0,185.0,47.0,63.0,24.0
585823,4.0,195.0,4.0,34.0,126.0,2.0,10.0,82.0,118.0,2.0,11.0,0.0,2.0,1.0,27.0,30.0,3.0,52.0,6.0
508455,5.0,76.0,0.0,69.0,29.0,10.0,27.0,74.0,133.0,28.0,6.0,2.0,0.0,1.0,52.0,79.0,23.0,5.0,14.0
476746,3.0,163.0,4.0,63.0,87.0,8.0,33.0,99.0,116.0,17.0,14.0,2.0,2.0,0.0,48.0,72.0,13.0,44.0,11.0
463597,2.0,116.0,0.0,43.0,96.0,3.0,10.0,59.0,123.0,12.0,3.0,1.0,0.0,1.0,31.0,65.0,13.0,16.0,7.0
615984,3.0,165.0,0.0,43.0,124.0,3.0,11.0,57.0,108.0,1.0,0.0,0.0,0.0,1.0,22.0,35.0,5.0,7.0,3.0
588050,0.0,86.0,0.0,22.0,100.0,0.0,1.0,10.0,145.0,4.0,0.0,0.0,0.0,0.0,12.0,34.0,15.0,7.0,0.0
571221,1.0,166.0,0.0,45.0,65.0,4.0,26.0,104.0,144.0,22.0,5.0,2.0,0.0,1.0,61.0,91.0,18.0,5.0,12.0
462597,0.0,137.0,0.0,22.0,100.0,0.0,1.0,31.0,145.0,4.0,0.0,0.0,0.0,1.0,27.0,34.0,15.0,7.0,0.0
647715,0.0,124.0,3.0,28.0,111.0,0.0,1.0,46.0,133.0,4.0,8.0,0.0,1.0,0.0,22.0,24.0,12.0,36.0,2.0
540216,0.0,111.0,0.0,0.0,0.0,0.0,9.0,51.0,1.0,1.0,3.0,0.0,0.0,1.0,22.0,29.0,0.0,15.0,0.0
570364,0.0,58.0,0.0,0.0,0.0,0.0,4.0,46.0,0.0,0.0,0.0,0.0,0.0,1.0,16.0,8.0,0.0,0.0,0.0
625057,0.0,120.0,0.0,4.0,0.0,1.0,19.0,73.0,8.0,2.0,1.0,0.0,0.0,0.0,28.0,49.0,0.0,11.0,4.0
522173,0.0,51.0,0.0,0.0,0.0,0.0,0.0,38.0,0.0,0.0,0.0,0.0,0.0,1.0,17.0,12.0,0.0,0.0,0.0
596534,0.0,30.0,0.0,0.0,4.0,0.0,2.0,88.0,0.0,0.0,1.0,0.0,0.0,0.0,17.0,3.0,0.0,16.0,0.0
graph,7.0,578.0,5.0,161.0,303.0,14.0,52.0,307.0,455.0,36.0,24.0,2.0,4.0,3.0,153.0,231.0,48.0,89.0,27.0
