0101101001001000: 618835 615012 656286 554368
0101101001001000: 618835 615012 656286 554361
0110100110010110: 618835 573171 615012 656286
0111101011001000: 618835 573171 554368 615012
0111101011001000: 618835 573171 554361 615012
0111101111001100: 618835 573171 554361 554368
0111101011001000: 618835 554368 573171 615012
0111100010001000: 618835 554361 554368 615012
0111101011001000: 618835 554361 573171 615012
0101101001001000: 618835 554361 641539 615012
0101101001001000: 618835 554361 641539 554368
0101101101001100: 618835 554361 641539 573171
0110100010010010: 618835 615012 573171 616275
0111100010011010: 618835 615012 573171 554368
0111100010011010: 618835 615012 573171 554361
0110100110010110: 618835 615012 573171 656286
0110100110010110: 618835 615012 573171 656286
0110100110000100: 618835 615012 554368 656286
0110100010010010: 618835 615012 554368 616275
0110100010010010: 618835 615012 554368 532228
0111100010011010: 618835 615012 554368 573171
0111100010001000: 618835 615012 554361 554368
0110100110000100: 618835 615012 554361 656286
0110100010010010: 618835 615012 554361 641539
0111100010011010: 618835 615012 554361 573171
0110100010010010: 618835 615012 554361 641539
0110100110010110: 618835 615012 573171 656286
0110100110000100: 618835 615012 554368 656286
0110100110000100: 618835 615012 554368 656286
0110100110000100: 618835 615012 554368 656286
0110100110000100: 618835 615012 554361 656286
0110100110000100: 618835 615012 554361 656286
0110100110000100: 618835 615012 554361 656286
0101101001001000: 618835 615012 656286 554368
0101101001001000: 618835 615012 656286 554361
0101101001011010: 618835 615012 656286 573171
0101101001011010: 618835 615012 656286 573171
0101101001011010: 618835 615012 656286 573171
0110100110000100: 618835 573171 615012 616275
0110100110010110: 618835 573171 615012 656286
0110100110010110: 618835 573171 615012 656286
0110100110000100: 618835 573171 615012 616275
0110100110000100: 618835 573171 615012 616275
0111100110001100: 618835 573171 615012 554368
0111100110001100: 618835 573171 615012 554361
0110100110010110: 618835 573171 615012 656286
0110100110010110: 618835 573171 615012 656286
0110100110010110: 618835 573171 615012 656286
0111101011001000: 618835 573171 554368 615012
0110101011010010: 618835 573171 554368 532228
0110101011010010: 618835 573171 554368 532228
0111101011001000: 618835 573171 554368 615012
0111101011001000: 618835 573171 554368 615012
0111101011001000: 618835 573171 554361 615012
0110101011010010: 618835 573171 554361 641539
0110101011010010: 618835 573171 554361 641539
0111101111001100: 618835 573171 554361 554368
0110101011010010: 618835 573171 554361 641539
0110101011010010: 618835 573171 554361 641539
0110101011010010: 618835 573171 554361 641539
0111101011001000: 618835 573171 554368 615012
0111101011001000: 618835 573171 554368 615012
0110101111000100: 618835 573171 554368 656286
0110101111000100: 618835 573171 554368 656286
0111101111001100: 618835 573171 554368 554361
0111101011001000: 618835 573171 554368 615012
0111101111001100: 618835 573171 554368 554361
0110101111010110: 618835 573171 554368 616275
0110101011010010: 618835 573171 554368 532228
0110101111010110: 618835 573171 554368 616275
0110101111010110: 618835 573171 554368 616275
0111101011001000: 618835 573171 554368 615012
0111101011001000: 618835 573171 554361 615012
0111101011001000: 618835 573171 554361 615012
0110101111000100: 618835 573171 554361 616275
0110101111000100: 618835 573171 554361 656286
0110101111000100: 618835 573171 554361 616275
0110101111000100: 618835 573171 554361 656286
0111101111001100: 618835 573171 554361 554368
0111101011001000: 618835 573171 554361 615012
0111101111001100: 618835 573171 554361 554368
0111101111001100: 618835 573171 554361 554368
0110101011010010: 618835 573171 554361 641539
0110101011010010: 618835 573171 554361 641539
0110100110000100: 618835 573171 615012 616275
0110100110000100: 618835 573171 615012 616275
0111100110001100: 618835 573171 615012 554368
0111100110001100: 618835 573171 615012 554361
0111100110001100: 618835 573171 615012 554368
0111100110001100: 618835 573171 615012 554361
0111100110001100: 618835 573171 615012 554368
0111100110001100: 618835 573171 615012 554361
0110100110010110: 618835 573171 615012 656286
0110100110010110: 618835 573171 615012 656286
0111101111001100: 618835 573171 554368 554361
0111101111001100: 618835 573171 554368 554361
0111101011001000: 618835 573171 554368 615012
0111101111001100: 618835 573171 554361 554368
0111101111001100: 618835 573171 554361 554368
0111101011001000: 618835 573171 554361 615012
0111101111001100: 618835 573171 554361 554368
0110101011010010: 618835 573171 554361 641539
0110100110000100: 618835 554368 615012 616275
0110100110000100: 618835 554368 615012 532228
0110100010010010: 618835 554368 615012 656286
0110100010010010: 618835 554368 615012 656286
0111100010001000: 618835 554368 554361 615012
0110100110000100: 618835 554368 554361 616275
0110100110000100: 618835 554368 554361 532228
0110100010010010: 618835 554368 554361 641539
0110100010010010: 618835 554368 554361 641539
0111100010001000: 618835 554368 615012 554361
0110100110000100: 618835 554368 615012 616275
0110100110000100: 618835 554368 615012 532228
0110100110000100: 618835 554368 615012 616275
0110100110000100: 618835 554368 615012 532228
0111100110001100: 618835 554368 615012 573171
0110100010010010: 618835 554368 615012 656286
0110100110000100: 618835 554368 554361 616275
0110100110000100: 618835 554368 554361 532228
0110100110000100: 618835 554368 554361 616275
0110100110000100: 618835 554368 554361 532228
0110100010010010: 618835 554368 554361 641539
0111101011001000: 618835 554368 573171 615012
0110101011010010: 618835 554368 573171 656286
0110101011010010: 618835 554368 573171 656286
0111101011011010: 618835 554368 573171 554361
0111101011011010: 618835 554368 573171 554361
0111101011011010: 618835 554368 573171 554361
0111101011001000: 618835 554368 573171 615012
0111101011001000: 618835 554368 573171 615012
0111100010001000: 618835 554368 615012 554361
0111100010001000: 618835 554368 615012 554361
0110100010010010: 618835 554368 615012 656286
0111100010001000: 618835 554368 554361 615012
0111100010001000: 618835 554368 554361 615012
0110100010010010: 618835 554368 554361 641539
0111101011001000: 618835 554368 573171 615012
0111101011001000: 618835 554368 573171 615012
0110101111000100: 618835 554368 573171 532228
0110101111000100: 618835 554368 573171 532228
0111101011001000: 618835 554368 573171 615012
0110101111010110: 618835 554368 573171 616275
0110101111010110: 618835 554368 573171 616275
0110101111000100: 618835 554368 573171 532228
0110101111010110: 618835 554368 573171 616275
0111101011001000: 618835 554368 573171 615012
0111101011011010: 618835 554368 573171 554361
0110100110000100: 618835 554368 615012 616275
0110100110000100: 618835 554368 615012 532228
0110100110000100: 618835 554368 615012 616275
0110100110000100: 618835 554368 615012 532228
0111100110001100: 618835 554368 615012 573171
0111100110001100: 618835 554368 615012 573171
0111100110001100: 618835 554368 615012 573171
0111100010001000: 618835 554368 615012 554361
0110100010010010: 618835 554368 615012 656286
0110100010010010: 618835 554368 615012 656286
0110100110000100: 618835 554368 554361 616275
0110100110000100: 618835 554368 554361 532228
0110100110000100: 618835 554368 554361 616275
0110100110000100: 618835 554368 554361 532228
0111100010001000: 618835 554368 554361 615012
0111100010001000: 618835 554368 554361 615012
0110100010010010: 618835 554368 554361 641539
0110100010010010: 618835 554368 554361 641539
0111100110011110: 618835 554368 554361 573171
0111101011001000: 618835 554368 573171 615012
0111101011001000: 618835 554368 573171 615012
0111101011001000: 618835 554368 573171 615012
0111101011001000: 618835 554368 573171 615012
0111101011011010: 618835 554368 573171 554361
0110100110000100: 618835 554361 615012 641539
0110100010010010: 618835 554361 615012 656286
0110100010010010: 618835 554361 615012 656286
0111100010001000: 618835 554361 554368 615012
0110100110000100: 618835 554361 554368 641539
0110100010010010: 618835 554361 554368 616275
0110100010010010: 618835 554361 554368 532228
0111100010001000: 618835 554361 615012 554368
0110100110000100: 618835 554361 615012 641539
0110100110000100: 618835 554361 615012 641539
0111100110001100: 618835 554361 615012 573171
0110100110000100: 618835 554361 615012 641539
0110100010010010: 618835 554361 615012 656286
0111100010001000: 618835 554361 554368 615012
0111100010001000: 618835 554361 554368 615012
0110100110000100: 618835 554361 554368 641539
0110100110000100: 618835 554361 554368 641539
0110100110000100: 618835 554361 554368 641539
0111101011001000: 618835 554361 573171 615012
0110101011010010: 618835 554361 573171 616275
0110101011010010: 618835 554361 573171 656286
0110101011010010: 618835 554361 573171 616275
0110101011010010: 618835 554361 573171 656286
0111101011011010: 618835 554361 573171 554368
0111101011011010: 618835 554361 573171 554368
0111101011011010: 618835 554361 573171 554368
0111101011001000: 618835 554361 573171 615012
0111101011001000: 618835 554361 573171 615012
0110101111000100: 618835 554361 573171 641539
0101101001001000: 618835 554361 641539 615012
0101101001001000: 618835 554361 641539 554368
0100101001010010: 618835 554361 641539 488187
0100101001010010: 618835 554361 641539 488187
0101101101001100: 618835 554361 641539 573171
0100101001010010: 618835 554361 641539 488187
0100101001010010: 618835 554361 641539 488187
0111101011001000: 618835 554361 573171 615012
0111101011001000: 618835 554361 573171 615012
0110101111000100: 618835 554361 573171 641539
0110101111000100: 618835 554361 573171 641539
0110101111000100: 618835 554361 573171 641539
0110101111000100: 618835 554361 573171 641539
0111101011001000: 618835 554361 573171 615012
0111101011001000: 618835 554361 573171 615012
0110101111000100: 618835 554361 573171 641539
0101101001001000: 554361 641539 488187 573171
0101101001001000: 554361 641539 488187 618835
0111101011001000: 554361 573171 618835 641539
0111101011001000: 554361 618835 573171 641539
0110100110000100: 554361 641539 573171 488187
0110100010010010: 554361 641539 573171 616275
0110100010010010: 554361 641539 573171 656286
0110100010010010: 554361 641539 573171 554368
0111100010011010: 554361 641539 573171 618835
0110100110000100: 554361 641539 618835 488187
0110100010010010: 554361 641539 618835 615012
0110100010010010: 554361 641539 618835 554368
0111100010011010: 554361 641539 618835 573171
0110100110000100: 554361 641539 573171 488187
0110100110000100: 554361 641539 573171 488187
0110100110000100: 554361 641539 573171 488187
0110100110000100: 554361 641539 618835 488187
0110100110000100: 554361 641539 618835 488187
0110100110000100: 554361 641539 618835 488187
0101101001001000: 554361 641539 488187 573171
0101101001001000: 554361 641539 488187 618835
0110100110000100: 554361 573171 641539 616275
0110100110000100: 554361 573171 641539 656286
0110100110000100: 554361 573171 641539 554368
0110100010010010: 554361 573171 641539 488187
0110100010010010: 554361 573171 641539 488187
0110100110000100: 554361 573171 641539 616275
0110100110000100: 554361 573171 641539 656286
0110100110000100: 554361 573171 641539 554368
0110100110000100: 554361 573171 641539 616275
0110100110000100: 554361 573171 641539 656286
0110100110000100: 554361 573171 641539 554368
0111100110001100: 554361 573171 641539 618835
0110100010010010: 554361 573171 641539 488187
0111101011001000: 554361 573171 618835 641539
0110101011010010: 554361 573171 618835 615012
0110101011010010: 554361 573171 618835 615012
0111101011001000: 554361 573171 618835 641539
0111101011001000: 554361 573171 618835 641539
0110100010010010: 554361 573171 641539 488187
0111101011001000: 554361 573171 618835 641539
0111101011001000: 554361 573171 618835 641539
0110101111000100: 554361 573171 618835 616275
0110101111000100: 554361 573171 618835 656286
0110101111000100: 554361 573171 618835 616275
0110101111000100: 554361 573171 618835 656286
0111101011001000: 554361 573171 618835 641539
0110101111010110: 554361 573171 618835 554368
0110101011010010: 554361 573171 618835 615012
0110101111010110: 554361 573171 618835 554368
0110101111010110: 554361 573171 618835 554368
0111101011001000: 554361 573171 618835 641539
0110100110000100: 554361 573171 641539 616275
0110100110000100: 554361 573171 641539 656286
0110100110000100: 554361 573171 641539 554368
0110100110000100: 554361 573171 641539 616275
0110100110000100: 554361 573171 641539 656286
0110100110000100: 554361 573171 641539 554368
0111100110001100: 554361 573171 641539 618835
0111100110001100: 554361 573171 641539 618835
0111100110001100: 554361 573171 641539 618835
0110100010010010: 554361 573171 641539 488187
0110100010010010: 554361 573171 641539 488187
0111101011001000: 554361 573171 618835 641539
0110100010010010: 554361 618835 641539 488187
0110100010010010: 554361 618835 641539 488187
0110100110000100: 554361 618835 641539 615012
0110100110000100: 554361 618835 641539 554368
0111100110001100: 554361 618835 641539 573171
0110100010010010: 554361 618835 641539 488187
0111101011001000: 554361 618835 573171 641539
0111101011001000: 554361 618835 573171 641539
0111101011001000: 554361 618835 573171 641539
0110100010010010: 554361 618835 641539 488187
0111101011001000: 554361 618835 573171 641539
0111101011001000: 554361 618835 573171 641539
0110101111000100: 554361 618835 573171 615012
0110101111000100: 554361 618835 573171 615012
0111101011001000: 554361 618835 573171 641539
0110101111010110: 554361 618835 573171 554368
0110101111010110: 554361 618835 573171 554368
0110101111000100: 554361 618835 573171 615012
0110101111010110: 554361 618835 573171 554368
0111101011001000: 554361 618835 573171 641539
0110100110000100: 554361 618835 641539 615012
0110100110000100: 554361 618835 641539 554368
0110100110000100: 554361 618835 641539 615012
0110100110000100: 554361 618835 641539 554368
0111100110001100: 554361 618835 641539 573171
0111100110001100: 554361 618835 641539 573171
0111100110001100: 554361 618835 641539 573171
0110100010010010: 554361 618835 641539 488187
0110100010010010: 554361 618835 641539 488187
0111101011001000: 554361 618835 573171 641539
0111101011001000: 554361 618835 573171 641539
0111101011001000: 554361 618835 573171 641539
0111101011001000: 554361 618835 573171 641539
0111101011001000: 554368 616275 573171 532228
0111101011001000: 554368 573171 616275 532228
0111101011001000: 554368 573171 618835 532228
0111101111001100: 554368 573171 618835 616275
0111100010001000: 554368 618835 532228 616275
0111101011001000: 554368 618835 573171 532228
0111100010001000: 554368 616275 618835 532228
0110100010010010: 554368 616275 618835 615012
0110100010010010: 554368 616275 618835 554361
0111100110001100: 554368 616275 532228 573171
0111101011001000: 554368 616275 573171 532228
0110101011010010: 554368 616275 573171 656286
0110101011010010: 554368 616275 573171 554361
0110101011010010: 554368 616275 573171 656286
0110101011010010: 554368 616275 573171 554361
0111101011011010: 554368 616275 573171 618835
0111101011011010: 554368 616275 573171 618835
0111101011011010: 554368 616275 573171 618835
0111101011001000: 554368 616275 573171 532228
0111101011001000: 554368 616275 573171 532228
0111101011001000: 554368 616275 573171 532228
0111100010011010: 554368 532228 616275 573171
0110100010010010: 554368 532228 573171 656286
0110100010010010: 554368 532228 573171 554361
0111100010011010: 554368 532228 573171 616275
0111100010011010: 554368 532228 573171 618835
0111100010001000: 554368 532228 618835 616275
0110100010010010: 554368 532228 618835 615012
0110100010010010: 554368 532228 618835 554361
0111100010011010: 554368 532228 618835 573171
0111100010001000: 554368 532228 616275 618835
0110100110000100: 554368 573171 532228 656286
0110100110000100: 554368 573171 532228 554361
0110100110000100: 554368 573171 532228 656286
0110100110000100: 554368 573171 532228 554361
0110100110000100: 554368 573171 532228 656286
0110100110000100: 554368 573171 532228 554361
0111100110001100: 554368 573171 532228 616275
0111100110001100: 554368 573171 532228 618835
0111101011001000: 554368 573171 616275 532228
0111101011001000: 554368 573171 618835 532228
0110101011010010: 554368 573171 618835 615012
0110101011010010: 554368 573171 618835 615012
0111101111001100: 554368 573171 618835 616275
0111101011001000: 554368 573171 618835 532228
0111101011001000: 554368 573171 618835 532228
0111101011001000: 554368 573171 616275 532228
0111101011001000: 554368 573171 616275 532228
0110101111000100: 554368 573171 616275 656286
0110101111000100: 554368 573171 616275 554361
0110101111000100: 554368 573171 616275 656286
0110101111000100: 554368 573171 616275 554361
0111101111001100: 554368 573171 616275 618835
0111101011001000: 554368 573171 616275 532228
0111101111001100: 554368 573171 616275 618835
0111101011001000: 554368 573171 618835 532228
0111101011001000: 554368 573171 618835 532228
0110101111000100: 554368 573171 618835 656286
0110101111000100: 554368 573171 618835 656286
0111101111001100: 554368 573171 618835 616275
0111101011001000: 554368 573171 618835 532228
0111101111001100: 554368 573171 618835 616275
0111101111001100: 554368 573171 618835 616275
0110101111010110: 554368 573171 618835 554361
0110101011010010: 554368 573171 618835 615012
0110101111010110: 554368 573171 618835 554361
0111101011001000: 554368 573171 618835 532228
0110100110000100: 554368 573171 532228 656286
0110100110000100: 554368 573171 532228 554361
0110100110000100: 554368 573171 532228 656286
0110100110000100: 554368 573171 532228 554361
0111100110001100: 554368 573171 532228 616275
0111100110001100: 554368 573171 532228 618835
0111100110001100: 554368 573171 532228 616275
0111100110001100: 554368 573171 532228 618835
0111100110001100: 554368 573171 532228 616275
0111100110001100: 554368 573171 532228 618835
0111101011001000: 554368 573171 616275 532228
0111101011001000: 554368 573171 616275 532228
0111101111001100: 554368 573171 616275 618835
0111101111001100: 554368 573171 616275 618835
0111101011001000: 554368 573171 616275 532228
0111101111001100: 554368 573171 618835 616275
0111101111001100: 554368 573171 618835 616275
0111101011001000: 554368 573171 618835 532228
0111101111001100: 554368 573171 618835 616275
0111100010001000: 554368 618835 532228 616275
0111100010001000: 554368 618835 616275 532228
0110100110000100: 554368 618835 616275 615012
0110100110000100: 554368 618835 616275 554361
0111100010001000: 554368 618835 532228 616275
0111100010001000: 554368 618835 532228 616275
0110100110000100: 554368 618835 532228 615012
0110100110000100: 554368 618835 532228 554361
0111100110001100: 554368 618835 532228 573171
0111101011001000: 554368 618835 573171 532228
0111101011011010: 554368 618835 573171 616275
0111101011011010: 554368 618835 573171 616275
0111101011011010: 554368 618835 573171 616275
0111101011001000: 554368 618835 573171 532228
0111101011001000: 554368 618835 573171 532228
0111100010001000: 554368 618835 616275 532228
0111100010001000: 554368 618835 616275 532228
0111100010001000: 554368 618835 532228 616275
0111100010001000: 554368 618835 532228 616275
0111101011001000: 554368 618835 573171 532228
0111101011001000: 554368 618835 573171 532228
0110101111000100: 554368 618835 573171 615012
0110101111000100: 554368 618835 573171 615012
0111101011001000: 554368 618835 573171 532228
0110101111010110: 554368 618835 573171 554361
0110101111010110: 554368 618835 573171 554361
0110101111000100: 554368 618835 573171 615012
0111101011001000: 554368 618835 573171 532228
0111101011011010: 554368 618835 573171 616275
0111101011011010: 554368 618835 573171 616275
0110100110000100: 554368 618835 616275 615012
0110100110000100: 554368 618835 616275 554361
0110100110000100: 554368 618835 616275 615012
0110100110000100: 554368 618835 616275 554361
0111100010001000: 554368 618835 616275 532228
0111100110011110: 554368 618835 616275 573171
0110100110000100: 554368 618835 532228 615012
0110100110000100: 554368 618835 532228 554361
0110100110000100: 554368 618835 532228 615012
0110100110000100: 554368 618835 532228 554361
0111100110001100: 554368 618835 532228 573171
0111100110001100: 554368 618835 532228 573171
0111100110001100: 554368 618835 532228 573171
0111100010001000: 554368 618835 532228 616275
0111100010001000: 554368 618835 532228 616275
0111101011001000: 554368 618835 573171 532228
0111101011001000: 554368 618835 573171 532228
0111101011001000: 554368 618835 573171 532228
0111101011001000: 554368 618835 573171 532228
0111101011011010: 554368 618835 573171 616275
0111101011001000: 573171 616275 554368 656286
0111101011001000: 573171 616275 554368 554361
0101101001001000: 573171 656286 615012 616275
0101101001001000: 573171 656286 615012 554368
0101101001001000: 573171 656286 615012 554361
0111101011001000: 573171 554368 616275 656286
0111101011001000: 573171 554368 616275 554361
0111101011001000: 573171 554368 618835 656286
0111101111001100: 573171 554368 618835 616275
0101101001001000: 573171 554368 532228 656286
0101101001001000: 573171 554368 532228 554361
0101101101001100: 573171 554368 532228 616275
0101101101001100: 573171 554368 532228 618835
0111100010001000: 573171 554361 656286 616275
0111100010001000: 573171 554361 554368 656286
0111101011001000: 573171 554361 618835 616275
0111101011001000: 573171 554361 618835 656286
0101101001001000: 573171 554361 641539 616275
0101101001001000: 573171 554361 641539 656286
0101101001001000: 573171 554361 641539 554368
0101101101001100: 573171 554361 641539 618835
0111100010001000: 573171 618835 656286 616275
0110100110010110: 573171 618835 656286 615012
0111101011001000: 573171 618835 554368 656286
0111101011001000: 573171 618835 554361 616275
0111101011001000: 573171 618835 554361 656286
0111101111001100: 573171 618835 554361 554368
0101101001001000: 573171 618835 615012 616275
0101101101001100: 573171 618835 615012 554368
0101101101001100: 573171 618835 615012 554361
0110100010010010: 573171 616275 656286 615012
0110100010010010: 573171 616275 656286 615012
0111100010001000: 573171 616275 554361 656286
0110100010010010: 573171 616275 554361 641539
0111100010011010: 573171 616275 554361 618835
0110100010010010: 573171 616275 554361 641539
0111100010001000: 573171 616275 618835 656286
0110100010010010: 573171 616275 618835 615012
0111100010011010: 573171 616275 618835 554361
0110100010010010: 573171 616275 618835 615012
0111100110001100: 573171 616275 656286 554368
0111100110001100: 573171 616275 554361 554368
0111101011001000: 573171 616275 554368 656286
0111101011001000: 573171 616275 554368 554361
0110101011010010: 573171 616275 554368 532228
0110101011010010: 573171 616275 554368 532228
0111101011011010: 573171 616275 554368 618835
0111101011011010: 573171 616275 554368 618835
0111101011011010: 573171 616275 554368 618835
0110101011010010: 573171 616275 554368 532228
0110101011010010: 573171 616275 554368 532228
0111101011001000: 573171 616275 554368 656286
0111101011001000: 573171 616275 554368 554361
0111101011001000: 573171 616275 554368 656286
0111101011001000: 573171 616275 554368 554361
0110100110000100: 573171 656286 616275 615012
0111100010011010: 573171 656286 616275 554368
0110100110000100: 573171 656286 554368 615012
0110100010010010: 573171 656286 554368 532228
0111100010011010: 573171 656286 554368 616275
0111100010011010: 573171 656286 554368 618835
0110100010010010: 573171 656286 554368 532228
0111100010001000: 573171 656286 554361 616275
0111100010001000: 573171 656286 554361 554368
0110100110000100: 573171 656286 554361 615012
0110100010010010: 573171 656286 554361 641539
0111100010011010: 573171 656286 554361 618835
0110100010010010: 573171 656286 554361 641539
0111100010001000: 573171 656286 618835 616275
0111100010011010: 573171 656286 618835 554368
0111100010011010: 573171 656286 618835 554361
0110100110010110: 573171 656286 618835 615012
0110100110010110: 573171 656286 618835 615012
0111100010001000: 573171 656286 616275 554361
0111100010001000: 573171 656286 616275 618835
0110100110000100: 573171 656286 616275 615012
0110100110000100: 573171 656286 616275 615012
0110100110000100: 573171 656286 616275 615012
0110100110000100: 573171 656286 554368 615012
0110100110000100: 573171 656286 554368 615012
0110100110000100: 573171 656286 554368 615012
0110100110000100: 573171 656286 554361 615012
0110100110000100: 573171 656286 554361 615012
0110100110000100: 573171 656286 554361 615012
0110100110010110: 573171 656286 618835 615012
0101101001001000: 573171 656286 615012 616275
0101101001001000: 573171 656286 615012 554368
0101101001001000: 573171 656286 615012 554361
0101101001011010: 573171 656286 615012 618835
0101101001011010: 573171 656286 615012 618835
0101101001011010: 573171 656286 615012 618835
0110100010010010: 573171 554368 656286 615012
0110100010010010: 573171 554368 656286 615012
0111100010001000: 573171 554368 554361 656286
0110100010010010: 573171 554368 554361 641539
0110100010010010: 573171 554368 554361 641539
0111100010001000: 573171 554368 656286 554361
0110100110000100: 573171 554368 656286 532228
0111100110001100: 573171 554368 656286 616275
0111100110001100: 573171 554368 656286 618835
0110100110000100: 573171 554368 656286 532228
0110100010010010: 573171 554368 656286 615012
0110100110000100: 573171 554368 554361 532228
0111100110001100: 573171 554368 554361 616275
0110100110000100: 573171 554368 554361 532228
0110100010010010: 573171 554368 554361 641539
0111101011001000: 573171 554368 616275 656286
0111101011001000: 573171 554368 616275 554361
0111101011001000: 573171 554368 618835 656286
0111101011011010: 573171 554368 618835 554361
0111101011011010: 573171 554368 618835 554361
0111101011011010: 573171 554368 618835 554361
0110101011010010: 573171 554368 618835 615012
0110101011010010: 573171 554368 618835 615012
0110101111000100: 573171 554368 618835 532228
0101101001001000: 573171 554368 532228 656286
0101101001001000: 573171 554368 532228 554361
0101101101001100: 573171 554368 532228 616275
0101101101001100: 573171 554368 532228 618835
0111101011001000: 573171 554368 616275 656286
0111101011001000: 573171 554368 616275 554361
0111101011001000: 573171 554368 616275 656286
0111101011001000: 573171 554368 616275 554361
0110101111000100: 573171 554368 616275 532228
0110101111000100: 573171 554368 616275 532228
0111101111001100: 573171 554368 616275 618835
0110101111000100: 573171 554368 616275 532228
0111101011001000: 573171 554368 618835 656286
0111101011001000: 573171 554368 618835 656286
0110101111000100: 573171 554368 618835 532228
0110101111000100: 573171 554368 618835 532228
0111101111001100: 573171 554368 618835 616275
0110101111000100: 573171 554368 618835 532228
0111101111001100: 573171 554368 618835 616275
0110101111000100: 573171 554368 618835 532228
0111101011001000: 573171 554368 616275 656286
0111101011001000: 573171 554368 616275 554361
0111101011001000: 573171 554368 616275 656286
0111101011001000: 573171 554368 616275 554361
0110101111000100: 573171 554368 616275 532228
0111101111001100: 573171 554368 616275 618835
0110101111000100: 573171 554368 618835 532228
0111101111001100: 573171 554368 618835 616275
0111100010011010: 573171 554361 616275 554368
0111100010001000: 573171 554361 656286 616275
0110100010010010: 573171 554361 656286 615012
0110100010010010: 573171 554361 656286 615012
0111100010001000: 573171 554361 554368 656286
0110100010010010: 573171 554361 554368 532228
0111100010011010: 573171 554361 554368 616275
0110100010010010: 573171 554361 554368 532228
0111100010001000: 573171 554361 616275 656286
0110100110000100: 573171 554361 616275 641539
0111100110001100: 573171 554361 616275 618835
0110100110000100: 573171 554361 616275 641539
0111100010001000: 573171 554361 656286 616275
0111100010001000: 573171 554361 656286 554368
0111100010001000: 573171 554361 656286 616275
0110100110000100: 573171 554361 656286 641539
0111100110001100: 573171 554361 656286 618835
0110100110000100: 573171 554361 656286 641539
0110100010010010: 573171 554361 656286 615012
0111100010001000: 573171 554361 554368 656286
0111100010001000: 573171 554361 554368 656286
0110100110000100: 573171 554361 554368 641539
0110100110000100: 573171 554361 554368 641539
0111101011001000: 573171 554361 618835 616275
0111101011001000: 573171 554361 618835 656286
0111101011011010: 573171 554361 618835 554368
0111101011011010: 573171 554361 618835 554368
0111101011011010: 573171 554361 618835 554368
0110101011010010: 573171 554361 618835 615012
0110101011010010: 573171 554361 618835 615012
0110101111000100: 573171 554361 618835 641539
0101101001001000: 573171 554361 641539 616275
0101101001001000: 573171 554361 641539 656286
0101101001001000: 573171 554361 641539 554368
0100101001010010: 573171 554361 641539 488187
0100101001010010: 573171 554361 641539 488187
0101101101001100: 573171 554361 641539 618835
0100101001010010: 573171 554361 641539 488187
0100101001010010: 573171 554361 641539 488187
0111101011001000: 573171 554361 618835 616275
0111101011001000: 573171 554361 618835 656286
0111101011001000: 573171 554361 618835 616275
0111101011001000: 573171 554361 618835 656286
0110101111000100: 573171 554361 618835 641539
0110101111000100: 573171 554361 618835 641539
0110101111000100: 573171 554361 618835 641539
0110101111000100: 573171 554361 618835 641539
0110101111000100: 573171 554361 618835 641539
0111100010001000: 573171 618835 656286 616275
0110100110010110: 573171 618835 656286 615012
0111100010001000: 573171 618835 616275 656286
0110100110000100: 573171 618835 616275 615012
0111100110001100: 573171 618835 616275 554361
0110100110000100: 573171 618835 616275 615012
0111100010001000: 573171 618835 656286 616275
0111100010001000: 573171 618835 656286 616275
0111100110001100: 573171 618835 656286 554368
0111100110001100: 573171 618835 656286 554361
0110100110010110: 573171 618835 656286 615012
0110100110010110: 573171 618835 656286 615012
0111101011001000: 573171 618835 554368 656286
0111101011011010: 573171 618835 554368 616275
0111101011011010: 573171 618835 554368 616275
0111101011011010: 573171 618835 554368 616275
0110101011010010: 573171 618835 554368 532228
0110101011010010: 573171 618835 554368 532228
0110101111000100: 573171 618835 554368 615012
0111101011001000: 573171 618835 554361 616275
0111101011001000: 573171 618835 554361 656286
0110101011010010: 573171 618835 554361 641539
0110101011010010: 573171 618835 554361 641539
0101101001001000: 573171 618835 615012 616275
0101101101001100: 573171 618835 615012 554368
0101101101001100: 573171 618835 615012 554361
0101101001011010: 573171 618835 615012 656286
0101101001011010: 573171 618835 615012 656286
0101101001011010: 573171 618835 615012 656286
0101101001011010: 573171 618835 615012 656286
0111101011001000: 573171 618835 554368 656286
0111101011001000: 573171 618835 554368 656286
0110101111000100: 573171 618835 554368 615012
0110101111000100: 573171 618835 554368 615012
0111101111001100: 573171 618835 554368 554361
0110101111000100: 573171 618835 554368 615012
0110101111000100: 573171 618835 554368 615012
0111101011001000: 573171 618835 554361 616275
0111101011001000: 573171 618835 554361 656286
0111101011001000: 573171 618835 554361 616275
0111101011001000: 573171 618835 554361 656286
0110101111000100: 573171 618835 554361 615012
0110101111000100: 573171 618835 554361 615012
0111101111001100: 573171 618835 554361 554368
0110101111000100: 573171 618835 554361 615012
0111101111001100: 573171 618835 554361 554368
0110101011010010: 573171 618835 554361 641539
0110101011010010: 573171 618835 554361 641539
0111101011001000: 573171 618835 554368 656286
0111101011001000: 573171 618835 554368 656286
0110101111000100: 573171 618835 554368 615012
0111101111001100: 573171 618835 554368 554361
0111101011001000: 573171 618835 554361 616275
0111101011001000: 573171 618835 554361 656286
0111101011001000: 573171 618835 554361 616275
0111101011001000: 573171 618835 554361 656286
0110101111000100: 573171 618835 554361 615012
0111101111001100: 573171 618835 554361 554368
0110100110010110: 656286 573171 615012 618835
0110100010010010: 656286 615012 573171 616275
0110100010010010: 656286 615012 573171 554368
0110100010010010: 656286 615012 573171 554361
0110100110010110: 656286 615012 573171 618835
0110100110010110: 656286 615012 573171 618835
0110100110010110: 656286 615012 573171 618835
0110100110010110: 656286 615012 573171 618835
0110100110010110: 656286 573171 615012 618835
0110100110000100: 656286 573171 615012 616275
0110100110000100: 656286 573171 615012 554368
0110100110000100: 656286 573171 615012 554361
0110100110010110: 656286 573171 615012 618835
0110100110010110: 656286 573171 615012 618835
0110100110000100: 656286 573171 615012 616275
0110100110000100: 656286 573171 615012 554368
0110100110000100: 656286 573171 615012 554361
0110100110000100: 656286 573171 615012 616275
0110100110000100: 656286 573171 615012 554368
0110100110000100: 656286 573171 615012 554361
0110100110010110: 656286 573171 615012 618835
0110100110010110: 615012 618835 656286 573171
0110100010010010: 615012 656286 618835 554368
0110100010010010: 615012 656286 618835 554361
0110100110010110: 615012 656286 618835 573171
0110100110010110: 615012 656286 618835 573171
0110100110010110: 615012 656286 618835 573171
0110100110010110: 615012 618835 656286 573171
0110100110000100: 615012 618835 656286 554368
0110100110000100: 615012 618835 656286 554361
0110100110010110: 615012 618835 656286 573171
0110100110010110: 615012 618835 656286 573171
0110100110000100: 615012 618835 656286 554368
0110100110000100: 615012 618835 656286 554361
0110100110000100: 615012 618835 656286 554368
0110100110000100: 615012 618835 656286 554361
0110100110010110: 615012 618835 656286 573171
0110100010010010: 641539 488187 554361 573171
0110100010010010: 641539 488187 554361 618835
0110100110000100: 641539 554361 488187 573171
0110100110000100: 641539 554361 488187 618835
0110100110000100: 641539 554361 488187 573171
0110100110000100: 641539 554361 488187 618835
0110100110000100: 641539 554361 488187 573171
0110100110000100: 641539 554361 488187 618835
0110101111000100: 616275 573171 554368 656286
0110101111000100: 616275 573171 554368 554361
0110101111000100: 616275 573171 554368 656286
0110101111000100: 616275 573171 554368 554361
0110101111010110: 616275 573171 554368 618835
0110101011010010: 616275 573171 554368 532228
0110101111010110: 616275 573171 554368 618835
0110101111000100: 616275 554368 573171 532228
0110101111000100: 616275 554368 573171 532228
0110101111010110: 616275 554368 573171 618835
0110101111010110: 616275 554368 573171 618835
0110101111000100: 616275 554368 573171 532228
