0110010011100100110001000: 589380 634443 645138 551521 540824
0110010011100100110001000: 589380 634443 554368 551521 540824
0110010011100000100001000: 589380 634443 640476 551521 540824
0110010011100100110001000: 589380 634443 594989 551521 540824
0110010010100010100000100: 589380 554368 634443 507784 540824
0110010011100000100001000: 589380 554368 634443 611168 507784
0110010010100010100000100: 589380 554368 634443 611168 540824
0110010011100000100001000: 589380 554368 634443 493561 611168
0110010010100010100000100: 589380 554368 634443 493561 540824
0110010011100100110001000: 589380 554368 634443 551521 507784
0110010011100100110001000: 589380 554368 634443 551521 611168
0110010011100000100001000: 589380 554368 640476 551521 507784
0110010011100000100001000: 589380 554368 640476 611168 507784
0110010011100000100001000: 589380 554368 640476 611168 551521
0110010011100000100001000: 589380 554368 640476 493561 611168
0111010101110001000001000: 589380 554368 645138 634443 507784
0111010101110001000001000: 589380 554368 645138 634443 611168
0111010101110001000001000: 589380 554368 645138 634443 493561
0111010100110001000100010: 589380 554368 645138 634443 540824
0111110100110001000010000: 589380 554368 645138 640476 634443
0111010101110001000001000: 589380 554368 645138 640476 507784
0111010101110001000001000: 589380 554368 645138 640476 611168
0111010101110001000001000: 589380 554368 645138 640476 493561
0111010101110001000001000: 589380 554368 594989 634443 507784
0111010101110001000001000: 589380 554368 594989 640476 507784
0111110110110001100010000: 589380 554368 594989 645138 634443
0111110110110001100010000: 589380 554368 594989 645138 640476
0111010110110011100000100: 589380 554368 594989 645138 472469
0111010110110011100000100: 589380 554368 594989 645138 642694
0110010010100010100100110: 589380 594989 634443 472469 540824
0110010011100000100001000: 589380 594989 634443 611168 472469
0110010010100010100000100: 589380 594989 634443 611168 540824
0110010011100000100001000: 589380 594989 634443 493561 472469
0110010011100000100001000: 589380 594989 634443 493561 611168
0110010010100010100000100: 589380 594989 634443 493561 540824
0110010011100000100001000: 589380 594989 634443 642694 472469
0110010010100010100000100: 589380 594989 634443 642694 540824
0110010011100100110001000: 589380 594989 634443 551521 472469
0110010011100100110001000: 589380 594989 634443 551521 611168
0110010011100100110001000: 589380 594989 634443 551521 642694
0110010011100000100001000: 589380 594989 645138 611168 472469
0110010011100000100001000: 589380 594989 645138 493561 472469
0110010011100000100001000: 589380 594989 645138 493561 611168
0110010011100000100001000: 589380 594989 645138 642694 472469
0110010011100100110001000: 589380 594989 645138 551521 472469
0110010011100100110001000: 589380 594989 645138 551521 611168
0110010011100100110001000: 589380 594989 645138 551521 642694
0111110000100001000010000: 589380 594989 640476 645138 634443
0110010011100000100001000: 589380 594989 640476 551521 472469
0110010011100000100001000: 589380 594989 640476 611168 472469
0110010011100000100001000: 589380 594989 640476 611168 551521
0110010011100000100001000: 589380 594989 640476 493561 472469
0110010011100000100001000: 589380 594989 640476 493561 611168
0110010011100000100001000: 589380 594989 640476 642694 472469
0110010011100000100001000: 589380 594989 640476 642694 551521
0111010101110001000001000: 589380 594989 554368 634443 472469
0111010101110001000001000: 589380 594989 554368 634443 642694
0111010100110001000100010: 589380 594989 554368 634443 540824
0111110100110001000010000: 589380 594989 554368 640476 634443
0111010101110001000001000: 589380 594989 554368 640476 472469
0111010101110001000001000: 589380 594989 554368 640476 642694
0110010010100010100100110: 594989 551521 472469 634443 540824
0110010011100000100001000: 594989 551521 472469 645138 634443
0110010010100010100000100: 594989 551521 472469 645138 540824
0110010011100000100001000: 594989 551521 611168 645138 634443
0110010011100000100001000: 594989 551521 642694 645138 634443
0111010101110001000001000: 594989 551521 554368 472469 634443
0111010101110001000001000: 594989 551521 554368 642694 634443
0111010101110001000001000: 594989 551521 493561 472469 634443
0111010101110001000001000: 594989 551521 493561 472469 645138
0111010101110001000001000: 594989 551521 493561 611168 634443
0111010101110001000001000: 594989 551521 493561 611168 645138
0111010101110001000101010: 594989 551521 493561 589380 634443
0111010101110001000101010: 594989 551521 493561 589380 645138
0111010110110011100000100: 594989 611168 554368 642694 507784
0111010110110011100000100: 594989 611168 554368 642694 645138
0111110110110001100010000: 594989 611168 642694 554368 472469
0110010010100010100000100: 594989 554368 472469 507784 540824
0110010011100000100001000: 594989 554368 472469 645138 507784
0110010010100010100000100: 594989 554368 472469 645138 540824
0110010011100000100001000: 594989 554368 642694 645138 507784
0111010101110001000001000: 594989 554368 551521 472469 507784
0111010100110001000100010: 594989 554368 551521 472469 540824
0111110100110001000010000: 594989 554368 551521 642694 472469
0111010101110001000001000: 594989 554368 551521 642694 507784
0111010110110011100000100: 594989 554368 551521 611168 634443
0111010101110001000001000: 594989 554368 611168 472469 507784
0111010101110001000001000: 594989 554368 611168 472469 645138
0111010100110001000100010: 594989 554368 611168 472469 540824
0111110110110001100010000: 594989 554368 611168 551521 472469
0111110110110011100010100: 594989 554368 611168 551521 642694
0111110110110011100010100: 594989 554368 611168 589380 642694
0111010101110001000001000: 594989 554368 493561 472469 645138
0111110110110001100010000: 594989 554368 493561 611168 472469
0111110111110101110011000: 594989 554368 493561 551521 611168
0111110111110101110011000: 594989 554368 493561 551521 589380
0111010101110001000001000: 594989 554368 589380 472469 507784
0111010101110001000001000: 594989 554368 589380 642694 507784
0111110110110001100010000: 594989 554368 589380 551521 472469
0111110110110001100010000: 594989 554368 589380 551521 642694
0111010110110011100000100: 594989 554368 589380 551521 640476
0111010110110011100100110: 594989 554368 589380 551521 634443
0111110110110001100010000: 594989 554368 589380 611168 472469
0111110111110001100011000: 594989 554368 589380 611168 551521
0111010110110011100000100: 594989 554368 589380 611168 634443
0111010110110011100000100: 594989 554368 589380 611168 640476
0111110110110001100010000: 594989 554368 589380 493561 472469
0111110111110001100011000: 594989 554368 589380 493561 611168
0111010110110011100000100: 594989 554368 589380 493561 634443
0111010110110011100000100: 594989 554368 589380 493561 640476
0110010010100010100000100: 594989 493561 472469 507784 540824
0111010101110001000001000: 594989 493561 551521 472469 507784
0111010100110001000100010: 594989 493561 551521 472469 540824
0111110100110001000010000: 594989 493561 551521 611168 472469
0111010101110001000001000: 594989 493561 551521 611168 507784
0111110100110001000010000: 594989 493561 551521 589380 472469
0111110100110001000010000: 594989 493561 551521 589380 611168
0111010101110001000001000: 594989 493561 551521 589380 507784
0111010100110001000100010: 594989 493561 551521 589380 640476
0111010110110011100000100: 594989 493561 551521 642694 634443
0111010110110011100000100: 594989 493561 551521 642694 645138
0111010100110001000100010: 594989 493561 554368 472469 540824
0111110110110011100010100: 594989 493561 554368 642694 589380
0111010110110011100000100: 594989 493561 554368 642694 645138
0111110110110101110010000: 594989 493561 554368 551521 472469
0111110111110101110011000: 594989 493561 554368 551521 642694
0111010101110001000001000: 594989 493561 642694 472469 507784
0111010101110001000001000: 594989 493561 642694 589380 507784
0111110110110001100010000: 594989 493561 642694 551521 472469
0111110110110001100010000: 594989 493561 642694 551521 589380
0111110110110001100010000: 594989 493561 642694 554368 472469
0111010100110001000100010: 594989 642694 611168 472469 540824
0111110100110001000010000: 594989 642694 611168 551521 472469
0111010100110001000100010: 594989 642694 611168 551521 634443
0111010100110001000100010: 594989 642694 611168 551521 645138
0111110100110001000010000: 594989 642694 611168 589380 472469
0111110100110001000010000: 594989 642694 611168 589380 551521
0111010100110001000100010: 594989 642694 611168 589380 634443
0111010100110001000100010: 594989 642694 611168 589380 645138
0111010100110001000100010: 594989 642694 611168 589380 640476
0111010100110001000100010: 594989 642694 493561 472469 540824
0111110100110001000010000: 594989 642694 493561 589380 472469
0111010100110001000100010: 594989 642694 493561 589380 634443
0111010100110001000100010: 594989 642694 493561 589380 645138
0111010100110001000100010: 594989 642694 493561 589380 640476
0111110110110001100010000: 594989 642694 493561 611168 472469
0111110110110001100010000: 594989 642694 493561 611168 589380
0111110110110011100010100: 594989 642694 493561 611168 551521
0111010110110011100000100: 594989 642694 493561 611168 507784
0111110110110011100110110: 594989 642694 493561 611168 554368
0110010011100000100001000: 594989 589380 472469 645138 634443
0110010010100010100000100: 594989 589380 472469 645138 540824
0110010011100000100001000: 594989 589380 472469 640476 634443
0110010011100000100001000: 594989 589380 472469 640476 645138
0110010010100010100000100: 594989 589380 472469 640476 540824
0110010011100100110001000: 594989 589380 551521 634443 640476
0110010011100100110001000: 594989 589380 551521 645138 640476
0110010011100110110001100: 594989 589380 551521 645138 634443
0111110000100001000010000: 594989 589380 611168 551521 472469
0110010011100000100001000: 594989 589380 611168 645138 634443
0110010011100000100001000: 594989 589380 611168 640476 634443
0110010011100000100001000: 594989 589380 611168 640476 645138
0111110000100001000010000: 594989 589380 493561 611168 472469
0110010010100010100000100: 594989 589380 493561 634443 507784
0110010011100000100001000: 594989 589380 493561 645138 634443
0110010010100010100000100: 594989 589380 493561 645138 507784
0110010011100000100001000: 594989 589380 493561 640476 634443
0110010011100000100001000: 594989 589380 493561 640476 645138
0110010010100010100000100: 594989 589380 493561 640476 507784
0111110000100001000010000: 594989 589380 642694 551521 472469
0110010011100000100001000: 594989 589380 642694 645138 634443
0110010011100000100001000: 594989 589380 642694 640476 634443
0110010011100000100001000: 594989 589380 642694 640476 645138
0111010100110001000100010: 594989 589380 554368 472469 540824
0111110100110001000010000: 594989 589380 554368 642694 472469
0110010011100000100001000: 642694 493561 611168 551521 507784
0110010011100000100001000: 493561 551521 507784 645138 634443
0110010011100000100001000: 493561 551521 642694 645138 634443
0111010101110001000001000: 493561 551521 554368 642694 634443
0111010101110001000001000: 493561 551521 594989 507784 634443
0111010101110001000001000: 493561 551521 594989 507784 645138
0110010011100100110001000: 493561 554368 642694 611168 645138
0110010011100100110001000: 493561 554368 642694 611168 589380
0111010101110001000001000: 493561 554368 507784 642694 645138
0111010101110001000001000: 493561 554368 507784 642694 589380
0111010101110001000101010: 493561 554368 507784 642694 611168
0111010101110001000001000: 493561 554368 551521 642694 589380
0111010101110001000101010: 493561 554368 551521 642694 611168
0111110110110001100010000: 493561 554368 551521 507784 642694
0111010110110011100000100: 493561 554368 551521 507784 634443
0111010110110011100000100: 493561 554368 594989 507784 472469
0111110111110101110011000: 493561 554368 594989 551521 507784
0110010010100010100000100: 493561 642694 551521 611168 634443
0110010010100010100000100: 493561 642694 551521 611168 645138
0110010011100000100001000: 493561 594989 507784 611168 472469
0110010011100000100001000: 493561 594989 507784 589380 472469
0110010011100000100001000: 493561 594989 507784 589380 611168
0111110110110011100010100: 493561 594989 554368 642694 507784
0111110110110001100010000: 493561 594989 642694 551521 507784
0111110110110001100010000: 554368 645138 589380 551521 507784
0111110110110001100010000: 554368 645138 589380 551521 611168
0111010110110011100000100: 554368 645138 589380 551521 640476
0111010110110011100100110: 554368 645138 589380 551521 634443
0111010101110001000001000: 554368 551521 645138 507784 634443
0111110100110001000010000: 554368 551521 645138 611168 507784
0111010101110001000001000: 554368 551521 645138 611168 634443
0111010100110001000100010: 554368 551521 645138 611168 642694
0111110110110011100010100: 554368 551521 645138 493561 589380
0111010101110001000001000: 554368 551521 493561 611168 634443
0111010101110001000101010: 554368 551521 493561 589380 634443
0111110110110001100010000: 554368 551521 493561 645138 611168
0111010110110011100000100: 554368 551521 493561 645138 642694
0111010101110001000001000: 554368 551521 594989 507784 634443
0111110110110001100010000: 554368 551521 594989 645138 507784
0111010110110011100000100: 554368 551521 594989 645138 472469
0111010110110011100000100: 554368 551521 594989 645138 642694
0111110111110101110011000: 554368 551521 594989 493561 645138
0110010010100010100000100: 554368 611168 551521 642694 634443
0111110100110001000010000: 554368 493561 507784 611168 645138
0111110100110001000010000: 554368 493561 507784 589380 611168
0111010100110001000100010: 554368 493561 507784 589380 634443
0111010100110001000100010: 554368 493561 507784 589380 640476
0111110100110001000010000: 554368 493561 551521 589380 611168
0111010100110001000100010: 554368 493561 551521 589380 640476
0111110110110001100010000: 554368 493561 551521 507784 611168
0111110110110001100010000: 554368 493561 551521 507784 589380
0111110110110011100010100: 554368 493561 551521 507784 645138
0111110110110001100010000: 554368 493561 594989 507784 645138
0110010011100000100001000: 554368 594989 507784 642694 472469
0110010011100000100001000: 554368 594989 645138 642694 472469
0111110110110011100010100: 554368 594989 551521 611168 645138
0111110100110001000010000: 554368 594989 611168 645138 507784
0111110110110001100010000: 554368 594989 611168 551521 507784
0111110110110001100010000: 554368 594989 493561 611168 645138
0111110110110011100010100: 554368 594989 493561 611168 507784
0111110110110011100010100: 554368 594989 493561 589380 507784
0111110110110001100010000: 554368 594989 589380 551521 507784
0111110110110001100010000: 554368 594989 589380 611168 507784
0110010011100000100001000: 554368 589380 507784 640476 634443
0110010011100100110001000: 554368 589380 551521 634443 640476
0111110000100001000010000: 554368 589380 611168 551521 507784
0110010010100010100000100: 554368 589380 611168 634443 642694
0110010011100000100001000: 554368 589380 611168 640476 634443
0110010010100010100000100: 554368 589380 611168 640476 642694
0110010010100010100000100: 554368 589380 493561 634443 642694
0110010011100000100001000: 554368 589380 493561 640476 634443
0110010010100010100000100: 554368 589380 493561 640476 642694
0111110100110001000010000: 554368 589380 645138 611168 507784
0111010100110001000100010: 554368 589380 645138 611168 642694
0111110100110001000010000: 554368 589380 645138 493561 611168
0111010100110001000100010: 554368 589380 645138 493561 642694
0111110100110001000110010: 554368 589380 645138 493561 507784
0111110110110001100010000: 554368 589380 594989 645138 507784
0111110110110011100010100: 554368 589380 594989 645138 611168
0111110110110011100010100: 554368 589380 594989 645138 493561
0111110110110011100110110: 554368 589380 594989 645138 551521
0110010011100000100001000: 611168 554368 642694 645138 507784
0110010011100000100001000: 611168 554368 642694 551521 507784
0110010011100000100001000: 611168 554368 642694 589380 507784
0110010011100000100001000: 611168 554368 642694 589380 551521
0110010011100000100001000: 551521 634443 493561 589380 540824
0110010010100010100000100: 551521 554368 634443 507784 540824
0110010011100000100001000: 551521 554368 634443 611168 507784
0110010010100010100000100: 551521 554368 634443 611168 540824
0111010100110001000100010: 551521 554368 645138 634443 540824
0111110110110001100010000: 551521 554368 493561 645138 634443
0111110110110001100010000: 551521 554368 594989 645138 634443
0110010010100010100000100: 551521 493561 634443 507784 540824
0110010010100010100000100: 551521 493561 634443 507784 589380
0110010011100000100001000: 551521 493561 634443 642694 507784
0110010010100010100000100: 551521 493561 634443 642694 540824
0110010010100010100000100: 551521 493561 634443 642694 589380
0110010010100010100000100: 551521 493561 645138 507784 589380
0110010011100000100001000: 551521 493561 645138 642694 507784
0110010010100010100000100: 551521 493561 645138 642694 589380
0111010100110001000100010: 551521 493561 554368 634443 540824
0110010011100000100001000: 551521 594989 634443 611168 472469
0110010010100010100000100: 551521 594989 634443 611168 540824
0110010011100000100001000: 551521 594989 634443 642694 472469
0110010010100010100000100: 551521 594989 634443 642694 540824
0110010011100000100001000: 551521 594989 645138 611168 472469
0110010011100000100001000: 551521 594989 645138 642694 472469
0111010100110001000100010: 551521 594989 554368 634443 540824
0111010100110001000100010: 551521 594989 493561 634443 540824
0111110100110001000010000: 551521 594989 493561 645138 634443
0111110110110101110010000: 551521 594989 493561 554368 634443
0110010011100100110001000: 645138 551521 589380 634443 493561
0110010010100010100000100: 645138 589380 551521 640476 493561
0110010011100100110001000: 645138 589380 551521 634443 640476
0110010011100000100001000: 472469 594989 540824 611168 551521
0110010010100010100000100: 472469 594989 540824 611168 634443
0110010010100010100000100: 472469 594989 540824 554368 634443
0110010011100000100001000: 472469 594989 540824 493561 611168
0110010010100010100000100: 472469 594989 540824 493561 634443
0110010011100000100001000: 472469 594989 540824 642694 551521
0110010011100000100001000: 472469 594989 540824 642694 554368
0110010010100010100000100: 472469 594989 540824 642694 634443
0110010011100000100001000: 472469 594989 540824 589380 551521
0110010011100000100001000: 472469 594989 540824 589380 611168
0110010011100000100001000: 472469 594989 540824 589380 493561
0110010011100000100001000: 472469 594989 540824 589380 642694
0110010011100000100001000: 540824 634443 472469 589380 551521
0110010010100010100000100: 634443 551521 540824 645138 472469
0110010010100010100000100: 634443 551521 540824 554368 472469
0110010011100000100001000: 634443 551521 540824 493561 645138
0110010010100010100000100: 634443 551521 540824 493561 472469
0110010011100000100001000: 634443 551521 540824 594989 645138
0110010010100010100000100: 634443 589380 540824 645138 472469
0110010010100010100000100: 634443 589380 540824 554368 472469
0110010011100000100001000: 634443 589380 540824 640476 645138
0110010011100000100001000: 634443 589380 540824 640476 554368
0110010010100010100000100: 634443 589380 540824 640476 472469
0110010011100000100001000: 634443 589380 540824 594989 645138
0110010011100000100001000: 634443 589380 540824 594989 640476
0110010010100010100000100: 634443 589380 551521 640476 493561
