0110010010100010100000100: 511163 634770 504799 639475 545303
0110010010100010100000100: 511163 634770 504799 581835 545303
0111010101110001000001000: 634770 581835 639475 511163 514147
0111010100110001000100010: 634770 581835 639475 511163 504799
0110010010100010100000100: 634770 511163 581835 504799 514147
0110010010100010100000100: 545303 625233 504799 560608 511163
0111010101110001000001000: 545303 625233 547825 504799 560608
0111010100110001000100010: 545303 625233 547825 504799 511163
0110010010100010100000100: 504799 511163 545303 634770 547825
0110010010100010100000100: 504799 511163 545303 634770 625233
