Vertex,0110010011100100110001000,0111110110110001100010000,0111110100110001000110010,0110010010100010100100110,0110010010100010100000100,0111010101110001000001000,0111010101110001000101010,0110010011100000100001000,0111010110110011100000100,0111010100110001000100010,0111010110110011100100110,0111110000100001000010000,0111110100110001000010000
492792,9.0,1.0,0.0,0.0,51.0,9.0,1.0,82.0,1.0,7.0,0.0,16.0,18.0
581105,7.0,0.0,0.0,0.0,49.0,6.0,1.0,31.0,0.0,7.0,0.0,0.0,0.0
530320,1.0,0.0,0.0,0.0,24.0,0.0,0.0,26.0,0.0,4.0,0.0,0.0,0.0
596330,2.0,0.0,0.0,0.0,42.0,0.0,0.0,12.0,0.0,4.0,0.0,0.0,0.0
552363,0.0,0.0,0.0,0.0,15.0,0.0,0.0,1.0,0.0,0.0,0.0,0.0,0.0
472041,9.0,1.0,3.0,0.0,33.0,20.0,1.0,44.0,1.0,14.0,0.0,9.0,22.0
483619,20.0,8.0,5.0,3.0,112.0,57.0,3.0,152.0,8.0,42.0,1.0,20.0,43.0
636785,2.0,2.0,3.0,1.0,29.0,15.0,1.0,49.0,7.0,16.0,0.0,9.0,22.0
503306,11.0,7.0,2.0,0.0,27.0,20.0,0.0,54.0,2.0,13.0,1.0,13.0,17.0
615202,9.0,2.0,3.0,1.0,53.0,14.0,2.0,64.0,7.0,18.0,0.0,9.0,22.0
654464,17.0,7.0,2.0,0.0,52.0,25.0,2.0,70.0,2.0,15.0,1.0,13.0,18.0
587163,4.0,7.0,4.0,3.0,73.0,43.0,1.0,82.0,2.0,27.0,1.0,5.0,25.0
595364,2.0,1.0,3.0,1.0,36.0,20.0,1.0,54.0,1.0,14.0,0.0,9.0,22.0
574391,10.0,0.0,0.0,0.0,26.0,14.0,0.0,28.0,0.0,4.0,1.0,0.0,1.0
509369,1.0,1.0,0.0,2.0,52.0,1.0,0.0,43.0,7.0,12.0,0.0,0.0,0.0
554005,9.0,1.0,0.0,0.0,56.0,12.0,2.0,42.0,1.0,7.0,0.0,0.0,1.0
499080,1.0,1.0,0.0,0.0,39.0,13.0,0.0,38.0,0.0,6.0,0.0,1.0,2.0
551950,1.0,1.0,0.0,3.0,60.0,14.0,0.0,41.0,1.0,9.0,0.0,1.0,2.0
656162,0.0,0.0,0.0,1.0,37.0,7.0,0.0,23.0,0.0,7.0,0.0,0.0,0.0
575369,0.0,0.0,0.0,0.0,18.0,0.0,0.0,9.0,0.0,2.0,0.0,0.0,0.0
510106,0.0,0.0,0.0,0.0,11.0,0.0,0.0,9.0,0.0,2.0,0.0,0.0,0.0
614472,0.0,0.0,0.0,0.0,10.0,0.0,0.0,1.0,0.0,0.0,0.0,0.0,0.0
graph,23.0,8.0,5.0,3.0,181.0,58.0,3.0,191.0,8.0,46.0,1.0,21.0,43.0
