Vertex,0110010011100100110001000,0111010100110001000100010,0110010010100010100000100,0111010110110011100000100,0110010010100010100100110,0110010011100110110001100,0111010101110001000001000,0111010110110011100100110,0111110110110001100010000,0110010011100000100001000,0111110000100001000010000,0111110100110001000010000,0111110110110011100010100,0111010101110001000101010
457867,10.0,4.0,75.0,1.0,3.0,0.0,2.0,0.0,0.0,71.0,2.0,2.0,0.0,1.0
474368,12.0,2.0,76.0,0.0,2.0,0.0,0.0,0.0,0.0,62.0,4.0,0.0,0.0,0.0
502601,10.0,5.0,80.0,0.0,3.0,0.0,6.0,0.0,2.0,62.0,3.0,5.0,0.0,1.0
623468,34.0,6.0,113.0,1.0,4.0,1.0,3.0,0.0,0.0,143.0,15.0,1.0,0.0,1.0
610768,14.0,3.0,40.0,0.0,1.0,0.0,0.0,0.0,0.0,76.0,10.0,0.0,0.0,0.0
568391,27.0,12.0,114.0,2.0,5.0,0.0,10.0,1.0,2.0,147.0,14.0,8.0,1.0,2.0
644596,18.0,6.0,74.0,0.0,3.0,1.0,0.0,0.0,0.0,97.0,10.0,0.0,0.0,0.0
534437,15.0,29.0,124.0,4.0,3.0,0.0,19.0,1.0,5.0,95.0,4.0,11.0,1.0,3.0
540198,54.0,11.0,155.0,0.0,8.0,1.0,8.0,1.0,1.0,212.0,22.0,2.0,0.0,2.0
516840,3.0,2.0,41.0,1.0,0.0,0.0,3.0,0.0,0.0,47.0,2.0,2.0,0.0,0.0
511772,8.0,17.0,44.0,4.0,0.0,0.0,10.0,1.0,5.0,45.0,2.0,7.0,1.0,1.0
533171,18.0,4.0,101.0,0.0,3.0,1.0,0.0,0.0,0.0,110.0,11.0,0.0,0.0,0.0
625212,29.0,19.0,67.0,4.0,2.0,0.0,11.0,1.0,5.0,86.0,11.0,5.0,1.0,2.0
602593,0.0,1.0,35.0,0.0,0.0,0.0,0.0,0.0,0.0,13.0,0.0,0.0,0.0,0.0
645349,14.0,14.0,98.0,2.0,4.0,0.0,12.0,0.0,3.0,95.0,6.0,6.0,1.0,2.0
635072,2.0,3.0,49.0,0.0,0.0,0.0,7.0,0.0,2.0,41.0,3.0,5.0,0.0,0.0
492207,2.0,3.0,66.0,0.0,0.0,0.0,0.0,0.0,0.0,41.0,1.0,0.0,0.0,0.0
584967,3.0,2.0,50.0,1.0,3.0,0.0,4.0,0.0,0.0,55.0,1.0,1.0,0.0,0.0
463678,23.0,1.0,68.0,0.0,1.0,1.0,0.0,0.0,0.0,65.0,5.0,0.0,0.0,0.0
595775,4.0,1.0,20.0,0.0,0.0,0.0,0.0,0.0,0.0,42.0,4.0,0.0,0.0,0.0
graph,60.0,29.0,298.0,4.0,9.0,1.0,19.0,1.0,5.0,321.0,26.0,11.0,1.0,3.0
