0110010011100000100001000: 503485 494369 645061 617277 657526
0110010010100010100000100: 503485 645061 494369 470670 657526
0110010010100010100000100: 503485 645061 494369 470670 617277
0110010010100010100000100: 645061 503485 470670 494369 604702
0110010011100000100001000: 563197 657526 617277 497325 556493
0110010011100000100001000: 563197 657526 617277 586639 556493
0110010011100000100001000: 563197 657526 617277 586639 497325
0110010011100100110001000: 563197 657526 617277 494369 556493
0110010011100100110001000: 563197 657526 617277 494369 497325
0110010011100100110001000: 563197 657526 617277 494369 586639
0110010011100100110001000: 617277 494369 563197 657526 503485
0110010011100000100001000: 494369 657526 617277 497325 556493
0110010011100000100001000: 494369 657526 617277 586639 556493
0110010011100000100001000: 494369 657526 617277 586639 497325
0110010011100000100001000: 494369 657526 503485 497325 556493
0110010011100000100001000: 494369 657526 503485 586639 556493
0110010011100000100001000: 494369 657526 503485 586639 497325
0110010011100000100001000: 494369 657526 503485 563197 556493
0110010011100000100001000: 494369 657526 503485 563197 497325
0110010011100000100001000: 494369 657526 503485 563197 586639
0110010010100010100000100: 494369 503485 657526 645061 556493
0110010010100010100000100: 494369 503485 657526 645061 497325
0110010010100010100000100: 494369 503485 657526 645061 586639
0110010010100010100000100: 494369 503485 657526 645061 563197
0110010010100010100000100: 494369 503485 617277 645061 563197
0110010011100000100001000: 604702 494333 470670 556493 551851
0110010011100000100001000: 604702 494333 586639 556493 551851
0110010010100010100000100: 604702 470670 494333 645061 551851
0110010010100010100000100: 604702 470670 494333 645061 556493
0110010010100010100000100: 604702 586639 494333 657526 551851
0110010010100010100100110: 604702 586639 494333 657526 556493
0110010010100010100000100: 604702 586639 470670 657526 645061
0110010011100000100001000: 586639 657526 604702 497325 556493
0110010011100000100001000: 586639 657526 604702 494369 556493
0110010011100000100001000: 586639 657526 604702 494369 497325
0110010011100000100001000: 586639 657526 604702 563197 556493
0110010011100000100001000: 586639 657526 604702 563197 497325
0110010011100000100001000: 586639 657526 604702 563197 494369
0110010010100010100000100: 586639 604702 657526 494333 497325
0110010010100010100000100: 586639 604702 657526 494333 494369
0110010010100010100000100: 586639 604702 657526 494333 563197
0110010011100000100001000: 586639 604702 657526 470670 494333
0110010010100010100000100: 586639 604702 657526 470670 556493
0110010010100010100000100: 586639 604702 657526 470670 497325
0110010010100010100000100: 586639 604702 657526 470670 494369
0110010010100010100000100: 586639 604702 657526 470670 563197
0110010011100000100001000: 470670 604702 645061 586639 494333
0110010010100010100000100: 470670 645061 604702 503485 494333
0110010010100010100000100: 470670 645061 604702 503485 586639
0110010010100010100100110: 657526 497325 556493 551851 494333
0110010011100000100001000: 657526 497325 556493 481878 551851
0110010010100010100000100: 657526 497325 556493 481878 494333
0110010011100000100001000: 657526 497325 586639 481878 551851
0110010011100000100001000: 657526 497325 494369 481878 551851
0110010011100000100001000: 657526 497325 563197 481878 551851
0110010010100010100000100: 657526 586639 497325 604702 551851
0110010010100010100000100: 657526 586639 497325 604702 481878
0110010010100010100000100: 657526 494369 556493 617277 494333
0110010011100000100001000: 657526 494369 556493 503485 617277
0110010010100010100000100: 657526 494369 556493 503485 494333
0110010010100010100000100: 657526 494369 497325 617277 551851
0110010010100010100000100: 657526 494369 497325 617277 481878
0110010011100000100001000: 657526 494369 497325 503485 617277
0110010010100010100000100: 657526 494369 497325 503485 551851
0110010010100010100000100: 657526 494369 497325 503485 481878
0111110000100001000010000: 657526 494369 586639 497325 556493
0110010010100010100000100: 657526 494369 586639 617277 604702
0110010011100000100001000: 657526 494369 586639 503485 617277
0110010010100010100000100: 657526 494369 586639 503485 604702
0110010010100010100000100: 657526 563197 556493 617277 494333
0110010010100010100000100: 657526 563197 497325 617277 551851
0110010010100010100000100: 657526 563197 497325 617277 481878
0111110000100001000010000: 657526 563197 586639 497325 556493
0110010010100010100000100: 657526 563197 586639 617277 604702
0111110000100001000010000: 657526 563197 494369 497325 556493
0111110000100001000010000: 657526 563197 494369 586639 556493
0111110000100001000010000: 657526 563197 494369 586639 497325
0110010010100010100000100: 497325 481878 551851 481011 494333
0110010011100000100001000: 497325 657526 551851 586639 556493
0110010010100010100000100: 497325 657526 551851 586639 494333
0110010011100000100001000: 497325 657526 551851 494369 556493
0110010011100000100001000: 497325 657526 551851 494369 586639
0110010010100010100000100: 497325 657526 551851 494369 494333
0110010011100000100001000: 497325 657526 551851 563197 556493
0110010011100000100001000: 497325 657526 551851 563197 586639
0110010011100000100001000: 497325 657526 551851 563197 494369
0110010010100010100000100: 497325 657526 551851 563197 494333
0110010010100010100000100: 497325 657526 481878 556493 481011
0110010011100000100001000: 497325 657526 481878 586639 556493
0110010010100010100000100: 497325 657526 481878 586639 481011
0110010011100000100001000: 497325 657526 481878 494369 556493
0110010011100000100001000: 497325 657526 481878 494369 586639
0110010010100010100000100: 497325 657526 481878 494369 481011
0110010011100000100001000: 497325 657526 481878 563197 556493
0110010011100000100001000: 497325 657526 481878 563197 586639
0110010011100000100001000: 497325 657526 481878 563197 494369
0110010010100010100000100: 497325 657526 481878 563197 481011
0110010010100010100000100: 481878 497325 481011 551851 539473
0110010011100000100001000: 481878 497325 481011 657526 551851
0110010010100010100000100: 481878 497325 481011 657526 539473
0110010011100000100001000: 556493 494333 657526 604702 551851
0110010010100010100000100: 556493 657526 494333 497325 604702
0110010011100000100001000: 556493 657526 494333 586639 497325
0110010010100010100000100: 556493 657526 494333 586639 551851
0110010011100000100001000: 556493 657526 494333 494369 497325
0110010011100000100001000: 556493 657526 494333 494369 586639
0110010010100010100000100: 556493 657526 494333 494369 551851
0110010010100010100000100: 556493 657526 494333 494369 604702
0110010011100000100001000: 556493 657526 494333 563197 497325
0110010011100000100001000: 556493 657526 494333 563197 586639
0110010011100000100001000: 556493 657526 494333 563197 494369
0110010010100010100000100: 556493 657526 494333 563197 551851
0110010010100010100000100: 556493 657526 494333 563197 604702
0110010010100010100000100: 494333 604702 551851 470670 497325
0110010011100000100001000: 494333 604702 551851 586639 470670
0110010010100010100000100: 494333 604702 551851 586639 497325
0110010010100010100000100: 494333 604702 556493 470670 657526
0110010011100000100001000: 494333 604702 556493 586639 470670
0110010011100000100001000: 551851 494333 497325 604702 556493
0110010010100010100000100: 551851 497325 494333 481878 556493
0110010010100010100000100: 551851 497325 494333 481878 604702
0110010011100000100001000: 551851 497325 494333 657526 481878
0110010010100010100000100: 551851 497325 494333 657526 604702
