Vertex,0101101001001000,0100101001010010,0111101111001100,0101101001011010,0111100010011010,0111100110001100,0111101011011010,0110101111000100,0100101101000100,0110100110000100,0110100010010010,0110100110010110,0101101101011110,0110101011010010,0111100010001000,0111100110011110,0111101011001000,0110101111010110,0101101101001100
564950,74.0,29.0,162.0,27.0,94.0,162.0,141.0,247.0,0.0,268.0,146.0,70.0,7.0,151.0,136.0,11.0,564.0,118.0,34.0
609446,46.0,24.0,54.0,22.0,32.0,56.0,54.0,84.0,8.0,203.0,117.0,70.0,4.0,44.0,144.0,6.0,204.0,44.0,8.0
579305,49.0,16.0,72.0,6.0,28.0,49.0,59.0,77.0,2.0,213.0,109.0,35.0,2.0,47.0,128.0,4.0,176.0,47.0,10.0
517021,55.0,19.0,72.0,0.0,28.0,49.0,57.0,77.0,2.0,234.0,124.0,0.0,2.0,47.0,119.0,3.0,176.0,47.0,10.0
640710,48.0,25.0,54.0,16.0,30.0,45.0,51.0,73.0,6.0,202.0,116.0,35.0,3.0,39.0,111.0,5.0,176.0,44.0,6.0
654268,33.0,12.0,18.0,11.0,30.0,32.0,18.0,53.0,2.0,151.0,80.0,35.0,1.0,27.0,96.0,2.0,131.0,17.0,2.0
611337,19.0,11.0,36.0,0.0,38.0,43.0,32.0,72.0,0.0,110.0,47.0,0.0,1.0,38.0,55.0,3.0,175.0,27.0,4.0
640248,46.0,16.0,72.0,22.0,28.0,49.0,59.0,77.0,2.0,191.0,100.0,70.0,2.0,47.0,128.0,4.0,177.0,47.0,10.0
582491,46.0,36.0,0.0,16.0,8.0,29.0,0.0,34.0,4.0,212.0,127.0,35.0,0.0,20.0,63.0,0.0,77.0,0.0,8.0
568322,56.0,27.0,108.0,33.0,34.0,61.0,93.0,101.0,8.0,242.0,123.0,105.0,6.0,73.0,160.0,6.0,213.0,81.0,18.0
565702,22.0,11.0,0.0,0.0,4.0,16.0,0.0,21.0,2.0,103.0,53.0,0.0,0.0,17.0,24.0,0.0,42.0,0.0,6.0
469656,22.0,11.0,0.0,0.0,4.0,16.0,0.0,21.0,2.0,113.0,55.0,0.0,0.0,17.0,24.0,0.0,42.0,0.0,6.0
627694,45.0,24.0,0.0,27.0,14.0,25.0,0.0,30.0,2.0,193.0,108.0,70.0,0.0,20.0,48.0,0.0,61.0,0.0,8.0
457642,27.0,18.0,0.0,16.0,4.0,16.0,0.0,21.0,4.0,127.0,69.0,35.0,0.0,17.0,48.0,0.0,42.0,0.0,6.0
629561,16.0,19.0,0.0,0.0,0.0,0.0,0.0,0.0,4.0,76.0,58.0,0.0,0.0,0.0,24.0,0.0,0.0,0.0,0.0
633498,6.0,11.0,0.0,0.0,0.0,0.0,0.0,0.0,0.0,30.0,25.0,0.0,0.0,0.0,0.0,0.0,0.0,0.0,0.0
563527,6.0,14.0,0.0,0.0,0.0,0.0,0.0,0.0,0.0,51.0,31.0,0.0,0.0,0.0,0.0,0.0,0.0,0.0,0.0
502797,4.0,14.0,0.0,0.0,0.0,0.0,0.0,0.0,0.0,44.0,24.0,0.0,0.0,0.0,0.0,0.0,0.0,0.0,0.0
552167,0.0,3.0,0.0,0.0,0.0,0.0,0.0,0.0,0.0,9.0,4.0,0.0,0.0,0.0,0.0,0.0,0.0,0.0,0.0
graph,155.0,85.0,162.0,49.0,94.0,162.0,141.0,247.0,12.0,693.0,379.0,140.0,7.0,151.0,327.0,11.0,564.0,118.0,34.0
