Vertex,0110101111000100,0111100010011010,0111101011001000,0101101101001100,0110100010010010,0110101011010010,0111100110001100,0111100010001000,0100101001010010,0101101001001000,0110100110000100
520179,26.0,8.0,61.0,4.0,41.0,14.0,20.0,16.0,11.0,18.0,73.0
554368,26.0,8.0,61.0,4.0,37.0,14.0,20.0,8.0,7.0,12.0,60.0
528388,26.0,8.0,61.0,4.0,33.0,14.0,20.0,8.0,4.0,12.0,50.0
571575,4.0,2.0,10.0,0.0,9.0,2.0,2.0,16.0,0.0,6.0,21.0
560177,4.0,2.0,10.0,0.0,23.0,2.0,2.0,16.0,3.0,10.0,55.0
563195,9.0,2.0,21.0,2.0,28.0,5.0,8.0,0.0,7.0,8.0,56.0
566538,9.0,2.0,20.0,2.0,22.0,5.0,8.0,0.0,4.0,8.0,36.0
626536,0.0,0.0,0.0,0.0,21.0,0.0,0.0,0.0,6.0,6.0,51.0
636456,0.0,0.0,0.0,0.0,24.0,0.0,0.0,0.0,10.0,4.0,44.0
499460,0.0,0.0,0.0,0.0,14.0,0.0,0.0,0.0,4.0,4.0,14.0
graph,26.0,8.0,61.0,4.0,63.0,14.0,20.0,16.0,14.0,22.0,115.0
