Vertex,0111010110110011100000100,0110010010100010100000100,0111010101110001000101010,0111110110110001100010000,0110010011100100110001000,0111110111110001100011000,0111110111110101110011000,0111110000100001000010000,0110010010100010100100110,0111110110110101110010000,0111110111110111110011100,0111010101110001000001000,0111010100110001000100010,0110010011100000100001000,0111110100110001000010000
573396,3.0,2.0,1.0,8.0,1.0,0.0,2.0,1.0,0.0,7.0,1.0,6.0,11.0,7.0,9.0
561428,6.0,8.0,5.0,14.0,2.0,1.0,2.0,1.0,1.0,7.0,1.0,11.0,7.0,12.0,6.0
601966,5.0,7.0,1.0,11.0,1.0,1.0,1.0,5.0,0.0,4.0,1.0,9.0,6.0,21.0,5.0
551953,4.0,2.0,1.0,11.0,1.0,1.0,1.0,5.0,0.0,3.0,1.0,1.0,6.0,17.0,5.0
562177,4.0,5.0,0.0,0.0,0.0,0.0,0.0,0.0,0.0,1.0,0.0,8.0,0.0,9.0,0.0
554368,6.0,3.0,5.0,15.0,7.0,1.0,2.0,6.0,0.0,7.0,1.0,12.0,9.0,27.0,10.0
457058,4.0,5.0,2.0,11.0,5.0,1.0,2.0,6.0,1.0,0.0,0.0,5.0,4.0,20.0,7.0
476708,0.0,0.0,0.0,5.0,2.0,0.0,0.0,5.0,0.0,2.0,0.0,7.0,0.0,15.0,8.0
656326,3.0,9.0,1.0,0.0,6.0,0.0,0.0,0.0,1.0,0.0,0.0,2.0,9.0,17.0,0.0
512049,0.0,9.0,5.0,5.0,7.0,0.0,0.0,5.0,1.0,2.0,0.0,2.0,9.0,24.0,8.0
490783,0.0,5.0,4.0,5.0,3.0,0.0,0.0,1.0,1.0,2.0,0.0,7.0,4.0,21.0,2.0
graph,7.0,11.0,5.0,17.0,7.0,1.0,2.0,7.0,1.0,7.0,1.0,14.0,13.0,38.0,12.0
