Vertex,0111101011001000,0101101001011010,0110101111000100,0101101101001100,0111100010011010,0110100010010010,0110100110000100,0111100010001000,0100101001010010,0110101011010010,0110100110010110,0101101001001000,0111100110001100,0100101101000100
521012,0.0,0.0,0.0,0.0,0.0,57.0,117.0,39.0,17.0,0.0,0.0,22.0,0.0,0.0
591090,0.0,0.0,0.0,0.0,0.0,33.0,63.0,15.0,12.0,0.0,0.0,12.0,0.0,0.0
600281,0.0,0.0,0.0,0.0,0.0,41.0,74.0,15.0,12.0,0.0,0.0,19.0,0.0,2.0
573197,21.0,0.0,9.0,2.0,8.0,63.0,141.0,39.0,11.0,5.0,0.0,16.0,10.0,0.0
580492,0.0,0.0,0.0,0.0,0.0,34.0,80.0,30.0,8.0,0.0,0.0,20.0,0.0,0.0
504893,0.0,0.0,0.0,0.0,0.0,55.0,116.0,39.0,14.0,0.0,0.0,22.0,0.0,0.0
487747,0.0,0.0,0.0,0.0,0.0,30.0,68.0,24.0,6.0,0.0,0.0,4.0,0.0,0.0
644881,72.0,0.0,30.0,4.0,16.0,57.0,135.0,48.0,6.0,16.0,0.0,20.0,24.0,0.0
509719,10.0,16.0,4.0,0.0,2.0,60.0,117.0,55.0,14.0,2.0,35.0,32.0,2.0,2.0
514364,0.0,0.0,0.0,0.0,0.0,23.0,59.0,15.0,5.0,0.0,0.0,8.0,0.0,0.0
494631,0.0,0.0,0.0,0.0,0.0,73.0,145.0,63.0,16.0,0.0,0.0,21.0,0.0,2.0
638591,72.0,16.0,30.0,4.0,16.0,110.0,229.0,95.0,23.0,16.0,35.0,52.0,24.0,4.0
656748,10.0,0.0,4.0,0.0,2.0,38.0,79.0,40.0,3.0,2.0,0.0,20.0,2.0,0.0
560374,0.0,0.0,0.0,0.0,0.0,20.0,37.0,0.0,3.0,0.0,0.0,8.0,0.0,0.0
493425,72.0,0.0,30.0,4.0,16.0,51.0,108.0,24.0,10.0,16.0,0.0,20.0,24.0,0.0
614077,10.0,16.0,4.0,0.0,2.0,67.0,154.0,88.0,10.0,2.0,35.0,30.0,2.0,2.0
579305,0.0,16.0,0.0,0.0,0.0,35.0,82.0,39.0,4.0,0.0,35.0,20.0,0.0,4.0
535182,21.0,0.0,9.0,2.0,2.0,45.0,68.0,0.0,10.0,5.0,0.0,14.0,8.0,0.0
624731,0.0,0.0,0.0,0.0,0.0,4.0,9.0,0.0,3.0,0.0,0.0,0.0,0.0,0.0
464807,0.0,0.0,0.0,0.0,0.0,44.0,71.0,24.0,13.0,0.0,0.0,8.0,0.0,0.0
609066,0.0,0.0,0.0,0.0,0.0,22.0,44.0,0.0,3.0,0.0,0.0,4.0,0.0,0.0
463030,0.0,0.0,0.0,0.0,0.0,10.0,40.0,0.0,3.0,0.0,0.0,0.0,0.0,0.0
648612,0.0,0.0,0.0,0.0,0.0,18.0,44.0,0.0,3.0,0.0,0.0,4.0,0.0,0.0
627085,0.0,0.0,0.0,0.0,0.0,10.0,40.0,0.0,3.0,0.0,0.0,0.0,0.0,0.0
graph,72.0,16.0,30.0,4.0,16.0,250.0,530.0,173.0,53.0,16.0,35.0,94.0,24.0,4.0
