Vertex,0111110000100001000010000,0111110111110111110011100,0111010100110001000100010,0111110111110001100011000,0111110100110001000010000,0111010101110001000101010,0111010110110011100100110,0111110110110011100110110,0110010011100000100001000,0111010101110001000001000,0111110110110011100010100,0111110110110001100010000,0111110100110001000110010,0111010110110011100000100,0110010010100010100000100,0111110111110101110011000,0110010010100010100100110,0110010011100100110001000,0111110110110101110010000,0110010011100110110001100,0111110111110111110111110
554368,87.0,7.0,83.0,27.0,145.0,12.0,5.0,7.0,288.0,210.0,60.0,178.0,15.0,105.0,63.0,23.0,0.0,29.0,52.0,0.0,1.0
559893,55.0,0.0,51.0,9.0,64.0,3.0,1.0,0.0,170.0,43.0,13.0,38.0,5.0,19.0,70.0,1.0,0.0,27.0,6.0,0.0,0.0
633124,60.0,0.0,11.0,9.0,60.0,0.0,0.0,0.0,146.0,42.0,9.0,41.0,4.0,12.0,25.0,1.0,0.0,13.0,6.0,0.0,0.0
503938,7.0,0.0,35.0,0.0,12.0,1.0,0.0,0.0,93.0,30.0,5.0,10.0,1.0,15.0,43.0,0.0,0.0,9.0,1.0,0.0,0.0
500573,1.0,0.0,22.0,0.0,4.0,3.0,1.0,0.0,109.0,32.0,0.0,5.0,0.0,18.0,54.0,0.0,0.0,24.0,1.0,0.0,0.0
567797,43.0,0.0,13.0,2.0,68.0,0.0,0.0,0.0,133.0,62.0,9.0,48.0,1.0,12.0,15.0,4.0,0.0,8.0,4.0,0.0,0.0
615966,37.0,0.0,30.0,0.0,64.0,5.0,0.0,0.0,116.0,59.0,8.0,44.0,8.0,11.0,56.0,1.0,2.0,8.0,6.0,0.0,0.0
617458,44.0,4.0,45.0,11.0,78.0,11.0,4.0,3.0,152.0,113.0,15.0,69.0,7.0,44.0,67.0,17.0,3.0,34.0,37.0,1.0,1.0
528030,38.0,3.0,42.0,9.0,63.0,3.0,0.0,0.0,161.0,70.0,26.0,71.0,16.0,38.0,78.0,6.0,2.0,11.0,8.0,0.0,0.0
548942,64.0,0.0,38.0,14.0,67.0,16.0,6.0,3.0,207.0,60.0,17.0,61.0,7.0,30.0,73.0,6.0,2.0,57.0,2.0,3.0,0.0
587163,23.0,6.0,63.0,10.0,80.0,16.0,7.0,5.0,197.0,162.0,32.0,99.0,9.0,68.0,108.0,18.0,1.0,55.0,47.0,3.0,1.0
581357,12.0,6.0,68.0,5.0,81.0,17.0,6.0,2.0,130.0,148.0,33.0,80.0,12.0,57.0,87.0,17.0,3.0,27.0,48.0,0.0,1.0
500257,64.0,3.0,39.0,18.0,65.0,9.0,9.0,5.0,210.0,76.0,23.0,78.0,4.0,45.0,78.0,7.0,0.0,81.0,8.0,3.0,0.0
546593,32.0,4.0,61.0,13.0,84.0,9.0,4.0,3.0,188.0,118.0,24.0,70.0,8.0,51.0,84.0,18.0,1.0,38.0,36.0,1.0,1.0
569986,21.0,2.0,64.0,18.0,52.0,12.0,7.0,7.0,206.0,92.0,36.0,84.0,14.0,71.0,130.0,9.0,2.0,73.0,6.0,3.0,0.0
497465,0.0,0.0,22.0,0.0,1.0,5.0,0.0,0.0,78.0,53.0,0.0,4.0,0.0,14.0,57.0,0.0,2.0,8.0,5.0,0.0,0.0
543942,0.0,0.0,23.0,0.0,13.0,0.0,0.0,0.0,78.0,65.0,7.0,10.0,2.0,18.0,45.0,1.0,0.0,4.0,5.0,0.0,0.0
550012,7.0,0.0,23.0,0.0,24.0,5.0,0.0,0.0,114.0,56.0,6.0,12.0,5.0,17.0,37.0,0.0,0.0,6.0,6.0,0.0,0.0
538178,12.0,0.0,17.0,0.0,22.0,3.0,0.0,0.0,78.0,48.0,0.0,16.0,0.0,9.0,51.0,0.0,0.0,13.0,6.0,0.0,0.0
479855,1.0,0.0,25.0,0.0,18.0,12.0,5.0,0.0,142.0,70.0,7.0,14.0,2.0,25.0,60.0,1.0,2.0,36.0,5.0,1.0,0.0
539400,2.0,0.0,20.0,0.0,5.0,3.0,0.0,0.0,74.0,46.0,0.0,8.0,0.0,11.0,54.0,0.0,0.0,9.0,5.0,0.0,0.0
graph,122.0,7.0,159.0,29.0,214.0,29.0,11.0,7.0,614.0,331.0,66.0,208.0,24.0,138.0,267.0,26.0,4.0,114.0,60.0,3.0,1.0
