Vertex,0110010011100000100001000,0111110110110011100010100,0110010011100100110001000,0111110110110011100110110,0111110111110111110111110,0111110111110001100011000,0111010101110001000101010,0111110100110001000110010,0111110111110101110011000,0110010010100010100100110,0111110111110111110011100,0111110110110001100010000,0111110000100001000010000,0111010101110001000001000,0110010011100110110001100,0110010010100010100000100,0111010100110001000100010,0111110100110001000010000,0111110110110101110010000,0111010110110011100100110,0111010110110011100000100
561428,780.0,145.0,186.0,17.0,3.0,102.0,92.0,71.0,126.0,15.0,31.0,691.0,344.0,583.0,11.0,282.0,232.0,620.0,171.0,25.0,199.0
539029,477.0,18.0,91.0,0.0,0.0,2.0,23.0,3.0,4.0,4.0,0.0,92.0,118.0,205.0,2.0,115.0,58.0,136.0,15.0,6.0,44.0
537750,461.0,75.0,152.0,17.0,1.0,61.0,40.0,39.0,41.0,4.0,11.0,358.0,370.0,209.0,20.0,162.0,100.0,426.0,47.0,13.0,71.0
640210,421.0,44.0,85.0,8.0,0.0,50.0,21.0,28.0,19.0,2.0,4.0,298.0,505.0,143.0,12.0,89.0,36.0,424.0,17.0,3.0,24.0
485662,623.0,52.0,166.0,5.0,0.0,20.0,42.0,35.0,7.0,10.0,0.0,226.0,340.0,190.0,9.0,319.0,111.0,400.0,13.0,6.0,48.0
470075,421.0,12.0,61.0,0.0,0.0,13.0,20.0,3.0,8.0,9.0,0.0,98.0,141.0,191.0,0.0,233.0,102.0,114.0,12.0,3.0,65.0
623557,450.0,57.0,111.0,15.0,2.0,52.0,44.0,41.0,55.0,4.0,10.0,355.0,387.0,251.0,18.0,189.0,108.0,420.0,71.0,10.0,88.0
461119,318.0,49.0,36.0,1.0,0.0,18.0,18.0,76.0,31.0,3.0,3.0,283.0,307.0,170.0,0.0,165.0,91.0,506.0,24.0,1.0,25.0
461399,378.0,40.0,50.0,1.0,0.0,25.0,13.0,51.0,23.0,5.0,1.0,249.0,398.0,148.0,1.0,113.0,62.0,494.0,16.0,1.0,22.0
500580,464.0,17.0,45.0,0.0,0.0,1.0,18.0,5.0,5.0,1.0,0.0,100.0,115.0,219.0,0.0,150.0,73.0,135.0,16.0,1.0,37.0
557387,527.0,93.0,78.0,5.0,2.0,44.0,41.0,64.0,62.0,8.0,10.0,333.0,264.0,312.0,1.0,234.0,144.0,511.0,81.0,4.0,96.0
545167,609.0,83.0,162.0,17.0,0.0,74.0,42.0,37.0,24.0,9.0,10.0,370.0,417.0,186.0,20.0,217.0,85.0,395.0,20.0,13.0,90.0
494132,415.0,42.0,89.0,7.0,0.0,58.0,12.0,22.0,19.0,3.0,5.0,269.0,491.0,112.0,9.0,113.0,50.0,398.0,12.0,3.0,36.0
580096,418.0,59.0,104.0,0.0,1.0,33.0,41.0,45.0,41.0,6.0,8.0,267.0,347.0,203.0,2.0,188.0,108.0,482.0,52.0,9.0,45.0
647783,546.0,13.0,124.0,0.0,0.0,0.0,52.0,3.0,1.0,9.0,0.0,37.0,26.0,265.0,2.0,226.0,81.0,61.0,13.0,11.0,77.0
581357,420.0,94.0,115.0,16.0,2.0,50.0,36.0,56.0,65.0,14.0,20.0,403.0,162.0,258.0,9.0,261.0,156.0,445.0,90.0,11.0,131.0
457203,762.0,114.0,213.0,21.0,1.0,41.0,82.0,66.0,56.0,13.0,16.0,491.0,236.0,474.0,18.0,327.0,171.0,519.0,77.0,20.0,163.0
592709,347.0,34.0,64.0,1.0,0.0,2.0,32.0,64.0,12.0,7.0,0.0,184.0,251.0,182.0,2.0,217.0,107.0,425.0,27.0,3.0,30.0
554368,1138.0,225.0,137.0,33.0,3.0,126.0,72.0,196.0,133.0,2.0,31.0,1197.0,1254.0,791.0,3.0,150.0,294.0,1807.0,194.0,14.0,226.0
512524,447.0,78.0,209.0,26.0,0.0,28.0,48.0,52.0,13.0,11.0,0.0,317.0,160.0,168.0,28.0,291.0,78.0,352.0,9.0,13.0,74.0
648794,399.0,4.0,59.0,0.0,0.0,0.0,23.0,35.0,0.0,1.0,0.0,137.0,354.0,107.0,1.0,169.0,92.0,421.0,19.0,1.0,10.0
631628,279.0,4.0,31.0,0.0,0.0,0.0,9.0,12.0,0.0,5.0,0.0,31.0,26.0,120.0,0.0,141.0,110.0,42.0,7.0,1.0,44.0
583887,397.0,15.0,47.0,0.0,0.0,0.0,19.0,13.0,3.0,4.0,0.0,37.0,17.0,172.0,0.0,188.0,132.0,46.0,8.0,3.0,83.0
472419,259.0,20.0,11.0,0.0,0.0,1.0,6.0,48.0,10.0,0.0,0.0,157.0,311.0,155.0,0.0,78.0,57.0,421.0,29.0,0.0,20.0
523149,302.0,28.0,22.0,0.0,0.0,4.0,6.0,45.0,2.0,1.0,0.0,144.0,289.0,141.0,0.0,109.0,33.0,455.0,17.0,0.0,23.0
568836,247.0,0.0,39.0,0.0,0.0,0.0,6.0,40.0,0.0,0.0,0.0,129.0,343.0,99.0,1.0,48.0,52.0,438.0,19.0,0.0,5.0
470157,180.0,0.0,10.0,0.0,0.0,0.0,2.0,40.0,0.0,0.0,0.0,129.0,343.0,103.0,0.0,14.0,16.0,438.0,19.0,0.0,5.0
487462,360.0,0.0,58.0,0.0,0.0,0.0,10.0,0.0,0.0,0.0,0.0,3.0,4.0,63.0,1.0,167.0,106.0,4.0,0.0,0.0,14.0
graph,2569.0,283.0,511.0,38.0,3.0,161.0,174.0,238.0,152.0,30.0,32.0,1477.0,1664.0,1244.0,34.0,991.0,569.0,2267.0,219.0,35.0,359.0
