Vertex,0111010100110001000100010,0110010010100010100000100,0111110100110001000010000,0110010011100000100001000,0111010101110001000001000,0111110110110001100010000,0111010110110011100000100,0110010011100100110001000,0110010010100010100100110,0111010101110001000101010
497988,1.0,12.0,0.0,3.0,0.0,0.0,0.0,0.0,1.0,0.0
460726,1.0,14.0,0.0,7.0,0.0,0.0,0.0,1.0,1.0,0.0
551643,1.0,16.0,1.0,11.0,2.0,0.0,1.0,1.0,1.0,0.0
474685,2.0,25.0,1.0,17.0,1.0,0.0,1.0,5.0,2.0,1.0
640254,3.0,29.0,1.0,23.0,3.0,2.0,4.0,5.0,2.0,2.0
519518,1.0,22.0,0.0,16.0,3.0,1.0,0.0,7.0,2.0,3.0
591310,1.0,22.0,1.0,15.0,3.0,2.0,4.0,4.0,1.0,2.0
510318,4.0,18.0,2.0,13.0,6.0,2.0,4.0,5.0,1.0,4.0
554626,0.0,8.0,1.0,6.0,2.0,0.0,1.0,1.0,0.0,0.0
638244,1.0,18.0,0.0,13.0,3.0,1.0,0.0,6.0,2.0,3.0
508319,1.0,13.0,1.0,8.0,1.0,0.0,1.0,4.0,1.0,1.0
457203,4.0,18.0,2.0,13.0,6.0,2.0,4.0,6.0,1.0,4.0
graph,4.0,43.0,2.0,29.0,6.0,2.0,4.0,9.0,3.0,4.0
