Vertex,0110101011010010,0111101011001000,0111100010011010,0110100010010010,0101101001001000,0100101101010110,0111100010001000,0111101111001100,0101101101011110,0110100110000100,0110101111000100,0101101001011010,0110101111010110,0111100110011110,0110100110010110,0101101101001100,0100101001010010,0111100110001100,0100101101000100,0111101011011010
553518,0.0,0.0,0.0,136.0,64.0,0.0,132.0,0.0,0.0,227.0,0.0,14.0,0.0,0.0,35.0,0.0,33.0,0.0,16.0,0.0
531385,8.0,46.0,8.0,251.0,112.0,0.0,371.0,0.0,0.0,484.0,18.0,20.0,0.0,0.0,72.0,0.0,60.0,14.0,22.0,0.0
610602,10.0,59.0,10.0,263.0,133.0,0.0,320.0,0.0,0.0,486.0,23.0,14.0,0.0,0.0,35.0,0.0,77.0,19.0,16.0,0.0
617770,132.0,469.0,90.0,527.0,219.0,2.0,658.0,90.0,6.0,959.0,209.0,31.0,71.0,6.0,107.0,28.0,129.0,167.0,20.0,77.0
549037,0.0,0.0,0.0,34.0,12.0,0.0,24.0,0.0,0.0,42.0,0.0,0.0,0.0,0.0,0.0,0.0,12.0,0.0,4.0,0.0
642927,0.0,0.0,0.0,90.0,40.0,0.0,54.0,0.0,0.0,144.0,0.0,0.0,0.0,0.0,0.0,0.0,20.0,0.0,8.0,0.0
609451,48.0,138.0,54.0,345.0,165.0,6.0,328.0,0.0,0.0,610.0,66.0,21.0,0.0,0.0,68.0,12.0,153.0,62.0,32.0,0.0
548544,0.0,0.0,0.0,86.0,32.0,0.0,54.0,0.0,0.0,143.0,0.0,0.0,0.0,0.0,0.0,0.0,29.0,0.0,4.0,0.0
503760,12.0,69.0,12.0,292.0,151.0,0.0,461.0,0.0,0.0,581.0,27.0,39.0,0.0,0.0,138.0,0.0,101.0,21.0,22.0,0.0
516932,28.0,123.0,28.0,177.0,89.0,0.0,164.0,0.0,0.0,308.0,52.0,0.0,0.0,0.0,0.0,4.0,65.0,34.0,6.0,0.0
622363,17.0,35.0,4.0,105.0,50.0,0.0,23.0,0.0,0.0,164.0,19.0,0.0,0.0,0.0,0.0,6.0,30.0,13.0,2.0,0.0
651242,37.0,114.0,18.0,150.0,74.0,0.0,194.0,36.0,2.0,294.0,54.0,0.0,27.0,2.0,0.0,10.0,32.0,36.0,4.0,30.0
595104,143.0,516.0,107.0,491.0,210.0,4.0,689.0,72.0,6.0,912.0,229.0,27.0,61.0,6.0,105.0,30.0,127.0,182.0,26.0,65.0
511752,28.0,123.0,28.0,49.0,28.0,0.0,125.0,0.0,0.0,132.0,52.0,0.0,0.0,0.0,0.0,4.0,10.0,34.0,0.0,0.0
571719,17.0,32.0,4.0,184.0,85.0,0.0,95.0,0.0,0.0,280.0,19.0,0.0,0.0,0.0,0.0,6.0,73.0,13.0,10.0,0.0
583852,61.0,155.0,34.0,280.0,126.0,0.0,336.0,36.0,2.0,516.0,78.0,11.0,27.0,2.0,35.0,18.0,94.0,56.0,20.0,30.0
654301,2.0,13.0,2.0,109.0,48.0,0.0,78.0,0.0,0.0,172.0,5.0,0.0,0.0,0.0,0.0,0.0,50.0,5.0,4.0,0.0
476388,8.0,48.0,8.0,46.0,24.0,0.0,164.0,0.0,0.0,124.0,18.0,0.0,0.0,0.0,0.0,0.0,6.0,14.0,0.0,0.0
492227,42.0,201.0,40.0,163.0,108.0,2.0,248.0,18.0,0.0,333.0,82.0,12.0,10.0,0.0,33.0,4.0,55.0,70.0,0.0,12.0
599674,116.0,334.0,90.0,328.0,138.0,8.0,329.0,18.0,2.0,574.0,161.0,32.0,17.0,2.0,103.0,32.0,95.0,126.0,14.0,17.0
649623,163.0,482.0,93.0,298.0,139.0,2.0,275.0,90.0,6.0,520.0,229.0,22.0,71.0,6.0,70.0,42.0,92.0,164.0,14.0,77.0
495690,62.0,171.0,56.0,242.0,123.0,6.0,212.0,0.0,0.0,443.0,82.0,35.0,0.0,0.0,101.0,16.0,98.0,72.0,16.0,0.0
590458,35.0,82.0,34.0,259.0,153.0,6.0,231.0,0.0,0.0,480.0,43.0,36.0,0.0,0.0,99.0,10.0,149.0,32.0,22.0,0.0
469867,25.0,79.0,18.0,127.0,69.0,2.0,102.0,0.0,0.0,223.0,36.0,12.0,0.0,0.0,33.0,6.0,43.0,25.0,8.0,0.0
615376,11.0,44.0,14.0,55.0,30.0,2.0,24.0,0.0,0.0,90.0,19.0,0.0,0.0,0.0,0.0,2.0,23.0,12.0,0.0,0.0
636189,8.0,47.0,8.0,89.0,42.0,0.0,164.0,0.0,0.0,187.0,18.0,11.0,0.0,0.0,35.0,0.0,8.0,14.0,0.0,0.0
614517,27.0,60.0,8.0,88.0,48.0,0.0,69.0,0.0,0.0,168.0,33.0,11.0,0.0,0.0,35.0,10.0,4.0,23.0,6.0,0.0
graph,260.0,860.0,192.0,1316.0,628.0,10.0,1481.0,90.0,6.0,2399.0,393.0,87.0,71.0,6.0,276.0,60.0,417.0,302.0,74.0,77.0
