Vertex,0111110000100001000010000,0111110100110001000110010,0111010100110001000100010,0110010011100000100001000,0111010101110001000101010,0110010010100010100000100,0111010101110001000001000,0110010011100100110001000,0111110100110001000010000
470735,0.0,0.0,2.0,1.0,0.0,16.0,4.0,0.0,0.0
633736,0.0,1.0,8.0,9.0,1.0,26.0,12.0,0.0,1.0
527465,0.0,0.0,1.0,0.0,0.0,10.0,0.0,0.0,0.0
495298,1.0,1.0,13.0,18.0,3.0,32.0,21.0,5.0,5.0
554385,0.0,0.0,0.0,1.0,0.0,11.0,0.0,0.0,0.0
470232,0.0,1.0,8.0,16.0,2.0,40.0,11.0,5.0,1.0
477202,1.0,1.0,8.0,20.0,2.0,32.0,17.0,4.0,4.0
562338,2.0,1.0,8.0,35.0,3.0,44.0,16.0,12.0,4.0
576189,2.0,0.0,2.0,27.0,2.0,31.0,5.0,10.0,3.0
615270,0.0,0.0,2.0,8.0,0.0,19.0,3.0,1.0,1.0
612916,0.0,0.0,3.0,14.0,0.0,18.0,0.0,6.0,0.0
567757,2.0,0.0,1.0,20.0,1.0,15.0,3.0,5.0,2.0
506630,2.0,0.0,3.0,22.0,0.0,28.0,4.0,7.0,2.0
517080,0.0,0.0,1.0,2.0,0.0,13.0,0.0,0.0,0.0
529115,0.0,0.0,1.0,9.0,0.0,16.0,0.0,1.0,0.0
639344,0.0,0.0,1.0,11.0,1.0,17.0,4.0,3.0,1.0
640955,0.0,0.0,2.0,10.0,0.0,18.0,5.0,1.0,1.0
640574,0.0,0.0,1.0,2.0,0.0,14.0,0.0,0.0,0.0
graph,2.0,1.0,13.0,45.0,3.0,80.0,21.0,12.0,5.0
