Vertex,0111010100110001000100010,0111110100110001000110010,0110010011100000100001000,0111110110110001100010000,0111010110110011100000100,0111110100110001000010000,0110010010100010100100110,0111110110110011100010100,0111010101110001000001000,0111010101110001000101010,0111010110110011100100110,0111110000100001000010000,0110010011100100110001000,0110010010100010100000100
555428,3.0,0.0,43.0,3.0,1.0,24.0,0.0,0.0,4.0,1.0,1.0,29.0,11.0,8.0
554368,26.0,6.0,128.0,17.0,14.0,58.0,1.0,3.0,22.0,1.0,1.0,45.0,11.0,34.0
560557,9.0,0.0,32.0,0.0,6.0,0.0,0.0,1.0,5.0,1.0,1.0,0.0,11.0,17.0
614644,5.0,0.0,61.0,3.0,2.0,24.0,1.0,0.0,4.0,0.0,0.0,29.0,2.0,14.0
467857,13.0,6.0,29.0,9.0,8.0,32.0,0.0,1.0,15.0,0.0,0.0,10.0,2.0,7.0
481790,5.0,3.0,35.0,8.0,2.0,23.0,0.0,1.0,9.0,0.0,0.0,22.0,2.0,2.0
541165,11.0,3.0,65.0,9.0,8.0,23.0,0.0,1.0,9.0,0.0,0.0,22.0,2.0,12.0
626811,12.0,4.0,25.0,11.0,3.0,27.0,0.0,2.0,13.0,1.0,0.0,13.0,1.0,6.0
545029,11.0,2.0,51.0,6.0,4.0,26.0,1.0,1.0,8.0,0.0,0.0,21.0,2.0,17.0
544441,9.0,2.0,38.0,6.0,6.0,26.0,0.0,2.0,4.0,0.0,1.0,21.0,6.0,8.0
624951,12.0,4.0,30.0,11.0,8.0,27.0,0.0,2.0,7.0,1.0,1.0,13.0,5.0,11.0
498492,4.0,0.0,18.0,0.0,1.0,0.0,1.0,0.0,6.0,0.0,0.0,0.0,0.0,23.0
626827,6.0,0.0,23.0,0.0,0.0,0.0,1.0,0.0,0.0,0.0,0.0,0.0,0.0,21.0
474200,6.0,0.0,37.0,1.0,6.0,0.0,0.0,1.0,7.0,0.0,0.0,0.0,0.0,10.0
625999,3.0,0.0,25.0,1.0,1.0,0.0,0.0,0.0,7.0,0.0,0.0,0.0,0.0,5.0
graph,27.0,6.0,128.0,17.0,14.0,58.0,1.0,3.0,24.0,1.0,1.0,45.0,11.0,39.0
