0110010010100010100000100: 523413 636345 571307 555482 569428
0110010011100000100001000: 523413 636345 571307 560379 555482
0110010010100010100000100: 523413 636345 571307 560379 569428
0110010011100000100001000: 523413 636345 571307 518238 555482
0110010010100010100000100: 523413 636345 571307 518238 569428
0110010011100000100001000: 523413 636345 568376 560379 555482
0110010011100000100001000: 523413 636345 568376 518238 555482
0110010011100000100001000: 523413 636345 608680 560379 555482
0110010011100000100001000: 523413 636345 608680 518238 555482
0110010011100000100001000: 523413 636345 568405 560379 555482
0110010011100100110001000: 523413 636345 568405 518238 555482
0110010010100010100100110: 523413 568376 571307 641032 569428
0110010010100010100000100: 523413 568376 636345 641032 555482
0110010010100010100000100: 523413 568376 636345 641032 560379
0110010010100010100000100: 523413 568376 636345 641032 518238
0110010010100010100000100: 523413 608680 571307 569423 569428
0110010010100010100000100: 523413 608680 636345 569423 555482
0110010010100010100000100: 523413 608680 636345 569423 560379
0110010010100010100000100: 523413 608680 636345 569423 518238
0111110000100001000010000: 523413 608680 568376 636345 571307
0110010010100010100000100: 523413 608680 568376 569423 641032
0110010010100010100000100: 523413 568405 571307 569423 569428
0110010011100000100001000: 523413 568405 571307 518238 569423
0110010010100010100000100: 523413 568405 571307 518238 569428
0110010010100010100000100: 523413 568405 636345 569423 555482
0110010010100010100000100: 523413 568405 636345 569423 560379
0110010011100100110001000: 523413 568405 636345 518238 569423
0111110000100001000010000: 523413 568405 568376 636345 571307
0110010010100010100000100: 523413 568405 568376 569423 641032
0110010011100000100001000: 523413 568405 568376 518238 569423
0110010010100010100000100: 523413 568405 568376 518238 641032
0111110000100001000010000: 523413 568405 608680 636345 571307
0111110000100001000010000: 523413 568405 608680 568376 571307
0111110000100001000010000: 523413 568405 608680 568376 636345
0110010011100100110001000: 523413 568405 608680 569423 518238
0110010010100010100000100: 568405 518238 569423 636345 608680
0110010010100010100000100: 568405 518238 569423 560379 608680
0110010011100000100001000: 568405 523413 569423 636345 571307
0110010011100000100001000: 568405 523413 569423 568376 571307
0110010011100000100001000: 568405 523413 569423 568376 636345
0110010011100100110001000: 568405 523413 569423 608680 571307
0110010011100100110001000: 568405 523413 569423 608680 636345
0110010011100100110001000: 568405 523413 569423 608680 568376
0110010010100010100000100: 568405 523413 518238 571307 560379
0110010011100000100001000: 568405 523413 518238 568376 571307
0110010010100010100000100: 568405 523413 518238 568376 560379
0110010011100000100001000: 568405 523413 518238 608680 571307
0110010011100000100001000: 568405 523413 518238 608680 568376
0110010010100010100000100: 568405 523413 518238 608680 560379
0110010011100100110001000: 568405 523413 518238 636345 571307
0110010011100100110001000: 568405 523413 518238 636345 568376
0110010011100100110001000: 568405 523413 518238 636345 608680
0110010011100000100001000: 608680 523413 569423 636345 571307
0110010011100000100001000: 608680 523413 569423 568376 571307
0110010011100000100001000: 608680 523413 569423 568376 636345
0111010101110001000001000: 518238 636345 560379 568405 555482
0111010101110001000101010: 518238 636345 560379 568405 523413
0111010100110001000100010: 518238 560379 636345 568405 569423
0110010010100010100000100: 518238 568405 636345 569423 555482
0110010011100000100001000: 518238 568405 560379 523413 569423
0110010010100010100000100: 477326 648203 555482 633597 636345
0110010011100000100001000: 568376 523413 641032 636345 571307
0110010010100010100000100: 568376 523413 641032 636345 569428
0110010011100000100001000: 568376 523413 641032 608680 571307
0110010011100000100001000: 568376 523413 641032 608680 636345
0110010010100010100000100: 568376 523413 641032 608680 569428
0110010011100000100001000: 568376 523413 641032 568405 571307
0110010011100000100001000: 568376 523413 641032 568405 636345
0110010011100000100001000: 568376 523413 641032 568405 608680
0110010010100010100000100: 568376 523413 641032 568405 569428
0110010010100010100000100: 636345 518238 555482 568405 477326
0111010100110001000100010: 636345 518238 560379 555482 477326
0111110100110001000010000: 636345 518238 560379 523413 555482
0111010100110001000100010: 636345 518238 560379 523413 571307
0111010100110001000100010: 636345 518238 560379 523413 568376
0111010100110001000100010: 636345 518238 560379 523413 608680
0110010010100010100000100: 636345 523413 555482 571307 477326
0110010011100000100001000: 636345 523413 555482 568376 571307
0110010010100010100000100: 636345 523413 555482 568376 477326
0110010011100000100001000: 636345 523413 555482 608680 571307
0110010011100000100001000: 636345 523413 555482 608680 568376
0110010010100010100000100: 636345 523413 555482 608680 477326
0110010011100000100001000: 636345 523413 555482 568405 571307
0110010011100000100001000: 636345 523413 555482 568405 568376
0110010011100000100001000: 636345 523413 555482 568405 608680
0110010010100010100000100: 636345 523413 555482 568405 477326
0110010011100000100001000: 636345 523413 560379 568376 571307
0110010011100000100001000: 636345 523413 560379 608680 571307
0110010011100000100001000: 636345 523413 560379 608680 568376
0110010011100000100001000: 636345 523413 560379 568405 571307
0110010011100000100001000: 636345 523413 560379 568405 568376
0110010011100000100001000: 636345 523413 560379 568405 608680
0110010011100000100001000: 636345 523413 518238 568376 571307
0110010011100000100001000: 636345 523413 518238 608680 571307
0110010011100000100001000: 636345 523413 518238 608680 568376
0110010010100010100000100: 571307 523413 569428 636345 641032
0110010011100000100001000: 571307 523413 569428 568376 636345
0110010011100000100001000: 571307 523413 569428 608680 636345
0110010011100000100001000: 571307 523413 569428 608680 568376
0110010010100010100000100: 571307 523413 569428 608680 641032
0110010011100000100001000: 571307 523413 569428 568405 636345
0110010011100000100001000: 571307 523413 569428 568405 568376
0110010011100000100001000: 571307 523413 569428 568405 608680
0110010010100010100000100: 571307 523413 569428 568405 641032
0110010011100000100001000: 555482 636345 477326 523413 560379
0110010011100000100001000: 555482 636345 477326 523413 518238
0110010010100010100000100: 555482 477326 636345 648203 560379
0110010010100010100000100: 555482 477326 636345 648203 518238
0110010010100010100000100: 555482 477326 636345 648203 523413
