Vertex,0110010010100010100000100,0111110100110001000010000,0110010011100000100001000,0111010100110001000100010,0111110100110001000110010,0111010101110001000001000,0111010110110011100000100,0111110000100001000010000,0110010011100100110001000,0111110110110001100010000,0111010101110001000101010,0110010010100010100100110
630307,35.0,4.0,29.0,8.0,1.0,7.0,1.0,0.0,6.0,0.0,2.0,0.0
635033,45.0,5.0,52.0,4.0,0.0,6.0,0.0,5.0,7.0,1.0,2.0,0.0
520883,48.0,8.0,53.0,12.0,1.0,13.0,5.0,4.0,7.0,3.0,2.0,1.0
515470,80.0,10.0,87.0,15.0,1.0,14.0,5.0,6.0,12.0,3.0,3.0,1.0
512498,30.0,0.0,22.0,3.0,0.0,0.0,0.0,0.0,1.0,0.0,0.0,0.0
623899,14.0,4.0,16.0,6.0,1.0,8.0,1.0,0.0,0.0,0.0,1.0,0.0
608596,10.0,1.0,8.0,1.0,0.0,3.0,0.0,0.0,1.0,0.0,0.0,0.0
512712,24.0,4.0,24.0,2.0,0.0,5.0,1.0,0.0,1.0,0.0,0.0,1.0
475870,25.0,10.0,24.0,13.0,1.0,15.0,5.0,1.0,0.0,3.0,2.0,0.0
486554,47.0,1.0,34.0,2.0,0.0,2.0,1.0,0.0,6.0,0.0,1.0,1.0
643823,43.0,4.0,51.0,4.0,0.0,4.0,0.0,5.0,7.0,1.0,1.0,1.0
556793,57.0,4.0,49.0,8.0,0.0,5.0,5.0,4.0,7.0,3.0,1.0,1.0
646483,26.0,0.0,19.0,4.0,0.0,0.0,0.0,0.0,1.0,0.0,0.0,1.0
476052,39.0,0.0,17.0,1.0,0.0,0.0,0.0,0.0,1.0,0.0,0.0,1.0
551453,29.0,1.0,21.0,1.0,0.0,3.0,1.0,0.0,1.0,0.0,0.0,1.0
531717,27.0,0.0,15.0,2.0,0.0,0.0,0.0,0.0,0.0,0.0,0.0,0.0
649118,37.0,0.0,13.0,1.0,0.0,0.0,0.0,0.0,0.0,0.0,0.0,1.0
551759,29.0,4.0,41.0,3.0,0.0,5.0,0.0,5.0,2.0,1.0,0.0,0.0
graph,129.0,12.0,115.0,18.0,1.0,18.0,5.0,6.0,12.0,3.0,3.0,2.0
