Vertex,0110010011100100110001000,0111010101110001000001000,0110010010100010100100110,0111110111110001100011000,0111010110110011100100110,0111010101110001000101010,0111010110110011100000100,0111110110110001100010000,0111110100110001000110010,0110010010100010100000100,0111110110110011100010100,0111110000100001000010000,0110010011100110110001100,0110010011100000100001000,0111010100110001000100010,0111110100110001000010000
645119,18.0,32.0,2.0,1.0,0.0,1.0,6.0,20.0,3.0,72.0,1.0,92.0,0.0,193.0,21.0,51.0
516207,6.0,67.0,3.0,1.0,0.0,3.0,13.0,32.0,7.0,117.0,4.0,40.0,0.0,172.0,54.0,87.0
469952,13.0,8.0,3.0,0.0,0.0,1.0,2.0,0.0,0.0,100.0,0.0,0.0,0.0,98.0,13.0,0.0
591706,0.0,27.0,1.0,0.0,0.0,0.0,1.0,3.0,0.0,59.0,0.0,1.0,0.0,48.0,6.0,0.0
610856,14.0,48.0,6.0,2.0,0.0,4.0,16.0,41.0,2.0,110.0,5.0,85.0,0.0,245.0,29.0,53.0
593422,26.0,36.0,4.0,1.0,0.0,6.0,7.0,20.0,3.0,127.0,1.0,93.0,0.0,255.0,22.0,52.0
554368,86.0,186.0,12.0,2.0,1.0,17.0,32.0,64.0,10.0,338.0,6.0,254.0,1.0,825.0,102.0,191.0
630843,12.0,17.0,5.0,0.0,0.0,1.0,4.0,1.0,0.0,125.0,0.0,1.0,0.0,86.0,10.0,0.0
547719,29.0,21.0,1.0,0.0,0.0,2.0,1.0,7.0,0.0,85.0,0.0,109.0,0.0,240.0,12.0,49.0
625606,16.0,38.0,2.0,0.0,0.0,4.0,1.0,7.0,6.0,81.0,0.0,80.0,0.0,194.0,24.0,73.0
560553,23.0,36.0,1.0,0.0,0.0,6.0,1.0,7.0,6.0,72.0,0.0,80.0,1.0,189.0,23.0,73.0
493907,37.0,65.0,3.0,1.0,1.0,5.0,7.0,23.0,3.0,151.0,2.0,100.0,0.0,334.0,26.0,60.0
579429,44.0,136.0,3.0,1.0,1.0,15.0,24.0,40.0,7.0,206.0,6.0,51.0,1.0,284.0,51.0,105.0
538304,8.0,23.0,1.0,0.0,0.0,0.0,1.0,7.0,0.0,53.0,0.0,109.0,0.0,219.0,7.0,49.0
588217,27.0,19.0,5.0,0.0,0.0,4.0,1.0,7.0,0.0,105.0,0.0,110.0,1.0,274.0,12.0,49.0
461386,30.0,60.0,4.0,1.0,1.0,5.0,16.0,26.0,3.0,151.0,3.0,96.0,0.0,320.0,34.0,61.0
500436,14.0,18.0,5.0,0.0,0.0,2.0,2.0,0.0,0.0,164.0,0.0,1.0,0.0,128.0,15.0,1.0
593942,38.0,35.0,3.0,0.0,0.0,9.0,1.0,4.0,0.0,149.0,0.0,9.0,1.0,187.0,15.0,8.0
571746,15.0,10.0,0.0,0.0,0.0,1.0,2.0,0.0,0.0,58.0,0.0,2.0,0.0,128.0,11.0,2.0
550322,3.0,11.0,1.0,0.0,0.0,0.0,2.0,0.0,0.0,57.0,0.0,2.0,0.0,89.0,6.0,2.0
493209,24.0,26.0,4.0,0.0,1.0,1.0,2.0,1.0,0.0,124.0,0.0,4.0,0.0,169.0,13.0,4.0
631828,14.0,38.0,1.0,0.0,0.0,4.0,3.0,4.0,0.0,68.0,0.0,8.0,0.0,150.0,4.0,9.0
495253,9.0,37.0,3.0,0.0,0.0,2.0,11.0,5.0,0.0,134.0,2.0,6.0,0.0,173.0,22.0,12.0
559860,0.0,0.0,1.0,0.0,0.0,0.0,0.0,0.0,0.0,49.0,0.0,0.0,0.0,53.0,8.0,0.0
481519,6.0,5.0,4.0,0.0,0.0,1.0,1.0,0.0,0.0,105.0,0.0,0.0,0.0,90.0,11.0,1.0
482553,6.0,15.0,1.0,0.0,0.0,1.0,2.0,1.0,0.0,64.0,0.0,1.0,0.0,84.0,5.0,2.0
566045,1.0,0.0,1.0,0.0,0.0,0.0,0.0,0.0,0.0,84.0,0.0,1.0,0.0,31.0,6.0,0.0
585896,1.0,6.0,0.0,0.0,0.0,0.0,1.0,0.0,0.0,62.0,0.0,0.0,0.0,32.0,3.0,1.0
graph,104.0,204.0,16.0,2.0,1.0,19.0,32.0,64.0,10.0,614.0,6.0,267.0,1.0,1058.0,113.0,199.0
