Vertex,0111110000100001000010000,0111110100110001000010000,0111110100110001000110010,0111110111110101110011000,0111010110110011100000100,0111010100110001000100010,0111110110110001100010000,0110010011100000100001000,0111110110110011100010100,0110010010100010100000100,0111110111110001100011000,0111110110110101110010000,0111010101110001000001000
554368,17.0,52.0,8.0,3.0,2.0,6.0,29.0,15.0,11.0,0.0,3.0,3.0,5.0
567121,2.0,25.0,6.0,3.0,0.0,6.0,12.0,8.0,5.0,4.0,1.0,3.0,3.0
457699,12.0,23.0,3.0,1.0,0.0,1.0,15.0,6.0,2.0,3.0,0.0,0.0,3.0
498715,12.0,24.0,3.0,0.0,2.0,7.0,12.0,21.0,3.0,5.0,1.0,1.0,5.0
485628,0.0,0.0,0.0,0.0,2.0,6.0,0.0,16.0,0.0,3.0,0.0,0.0,5.0
623021,12.0,24.0,3.0,0.0,1.0,1.0,12.0,12.0,3.0,2.0,1.0,1.0,0.0
650615,9.0,29.0,4.0,0.0,0.0,2.0,10.0,7.0,3.0,3.0,0.0,1.0,1.0
477687,2.0,23.0,6.0,1.0,2.0,2.0,14.0,11.0,8.0,7.0,3.0,0.0,6.0
636765,6.0,27.0,4.0,1.0,0.0,3.0,11.0,12.0,6.0,4.0,2.0,0.0,2.0
548841,4.0,14.0,0.0,3.0,1.0,6.0,19.0,14.0,11.0,8.0,3.0,3.0,2.0
545725,9.0,24.0,3.0,3.0,0.0,5.0,11.0,8.0,3.0,1.0,1.0,3.0,3.0
graph,17.0,53.0,8.0,3.0,2.0,9.0,29.0,26.0,11.0,8.0,3.0,3.0,7.0
