Vertex,0110100110000100,0100101001010010,0111100010001000,0101101001001000,0110100010010010,0100101101000100
530437,140.0,36.0,39.0,49.0,76.0,2.0
614216,95.0,22.0,39.0,32.0,48.0,2.0
511282,180.0,57.0,47.0,67.0,103.0,2.0
563852,193.0,48.0,62.0,69.0,107.0,4.0
591721,90.0,22.0,30.0,34.0,48.0,4.0
519031,133.0,38.0,39.0,48.0,75.0,2.0
596122,102.0,20.0,39.0,34.0,52.0,2.0
465507,108.0,20.0,39.0,35.0,56.0,2.0
638784,111.0,18.0,48.0,41.0,48.0,0.0
630702,87.0,20.0,39.0,29.0,45.0,2.0
554944,29.0,3.0,15.0,10.0,14.0,2.0
graph,317.0,76.0,109.0,112.0,168.0,6.0
