Vertex,0100101101000100,0101101001001000,0110100110000100,0111101011001000,0100101001010010,0111101111001100,0100101101010110,0111100110011110,0111100010011010,0111100110001100,0101101101001100,0110101111010110,0111101011011010,0101101001011010,0101101101011110,0111101111011110,0110100110010110,0111100010001000,0110100010010010,0110101011010010,0110101111000100
561428,24.0,282.0,930.0,1055.0,152.0,378.0,8.0,28.0,196.0,295.0,58.0,287.0,328.0,112.0,27.0,310.0,274.0,850.0,489.0,281.0,461.0
553297,10.0,104.0,376.0,264.0,58.0,126.0,2.0,7.0,56.0,77.0,16.0,91.0,104.0,80.0,7.0,0.0,208.0,378.0,198.0,78.0,117.0
477448,4.0,69.0,362.0,860.0,33.0,378.0,0.0,30.0,144.0,278.0,48.0,280.0,332.0,57.0,22.0,310.0,181.0,254.0,203.0,222.0,364.0
500336,18.0,140.0,496.0,411.0,79.0,144.0,6.0,14.0,82.0,129.0,26.0,115.0,131.0,68.0,11.0,0.0,214.0,425.0,269.0,113.0,181.0
466158,0.0,32.0,112.0,190.0,10.0,0.0,0.0,0.0,38.0,38.0,0.0,0.0,0.0,0.0,0.0,0.0,0.0,208.0,48.0,38.0,76.0
498118,0.0,32.0,112.0,190.0,10.0,0.0,0.0,0.0,38.0,38.0,0.0,0.0,0.0,0.0,0.0,0.0,0.0,208.0,48.0,38.0,76.0
582098,4.0,106.0,331.0,110.0,51.0,0.0,0.0,0.0,22.0,22.0,0.0,0.0,0.0,28.0,0.0,0.0,68.0,344.0,169.0,22.0,44.0
470218,2.0,113.0,345.0,223.0,66.0,36.0,4.0,2.0,50.0,62.0,12.0,27.0,30.0,12.0,1.0,0.0,33.0,296.0,184.0,64.0,100.0
601617,30.0,161.0,546.0,434.0,119.0,162.0,8.0,21.0,99.0,156.0,40.0,160.0,167.0,135.0,26.0,0.0,350.0,269.0,307.0,138.0,202.0
566465,0.0,88.0,351.0,370.0,42.0,108.0,0.0,4.0,60.0,111.0,18.0,60.0,81.0,16.0,0.0,155.0,35.0,292.0,177.0,99.0,161.0
573449,12.0,153.0,623.0,845.0,100.0,216.0,6.0,17.0,154.0,283.0,44.0,141.0,186.0,26.0,6.0,310.0,111.0,373.0,363.0,204.0,351.0
626212,12.0,88.0,332.0,191.0,38.0,18.0,6.0,2.0,53.0,69.0,18.0,17.0,17.0,41.0,1.0,0.0,107.0,131.0,177.0,63.0,88.0
604756,8.0,107.0,390.0,421.0,51.0,234.0,8.0,20.0,101.0,124.0,20.0,193.0,209.0,33.0,18.0,0.0,105.0,283.0,207.0,106.0,181.0
548130,8.0,80.0,251.0,122.0,46.0,0.0,0.0,0.0,14.0,44.0,20.0,0.0,0.0,16.0,0.0,0.0,35.0,76.0,161.0,60.0,66.0
511282,20.0,154.0,659.0,678.0,59.0,234.0,10.0,21.0,136.0,229.0,32.0,165.0,208.0,96.0,12.0,155.0,249.0,531.0,355.0,156.0,275.0
502828,10.0,86.0,268.0,63.0,53.0,0.0,0.0,0.0,6.0,24.0,8.0,0.0,0.0,0.0,0.0,0.0,0.0,120.0,154.0,22.0,30.0
471580,10.0,148.0,499.0,255.0,98.0,54.0,8.0,6.0,73.0,95.0,18.0,44.0,51.0,0.0,5.0,0.0,0.0,194.0,274.0,71.0,114.0
598653,6.0,40.0,197.0,101.0,11.0,0.0,0.0,0.0,12.0,36.0,4.0,0.0,0.0,0.0,0.0,0.0,0.0,121.0,91.0,18.0,38.0
577745,6.0,42.0,136.0,0.0,11.0,0.0,0.0,0.0,0.0,0.0,0.0,0.0,0.0,16.0,0.0,0.0,35.0,39.0,72.0,0.0,0.0
507599,10.0,188.0,528.0,53.0,165.0,0.0,6.0,0.0,28.0,26.0,10.0,0.0,0.0,28.0,0.0,0.0,68.0,143.0,320.0,29.0,31.0
502668,4.0,54.0,226.0,116.0,32.0,0.0,0.0,0.0,14.0,44.0,8.0,0.0,0.0,0.0,0.0,0.0,0.0,114.0,111.0,26.0,48.0
531741,0.0,12.0,51.0,0.0,7.0,0.0,0.0,0.0,0.0,0.0,0.0,0.0,0.0,0.0,0.0,0.0,0.0,0.0,37.0,0.0,0.0
604312,2.0,61.0,178.0,0.0,50.0,0.0,0.0,0.0,0.0,0.0,0.0,0.0,0.0,16.0,0.0,0.0,35.0,63.0,110.0,0.0,0.0
624027,0.0,0.0,9.0,0.0,3.0,0.0,0.0,0.0,0.0,0.0,0.0,0.0,0.0,0.0,0.0,0.0,0.0,0.0,4.0,0.0,0.0
graph,50.0,585.0,2077.0,1738.0,336.0,522.0,18.0,43.0,344.0,545.0,100.0,395.0,461.0,195.0,34.0,310.0,527.0,1428.0,1132.0,462.0,751.0
