Vertex,0111110000100001000010000,0110010010100010100000100,0110010011100100110001000,0110010011100000100001000,0110010010100010100100110
516108,4.0,23.0,2.0,36.0,0.0
642074,7.0,69.0,13.0,90.0,4.0
497644,0.0,13.0,0.0,6.0,0.0
636254,4.0,21.0,6.0,31.0,0.0
537508,0.0,4.0,0.0,0.0,0.0
522415,4.0,43.0,8.0,44.0,2.0
602422,5.0,61.0,11.0,63.0,2.0
500850,5.0,54.0,11.0,66.0,4.0
529738,0.0,48.0,6.0,29.0,2.0
459981,1.0,22.0,6.0,21.0,0.0
574619,1.0,26.0,7.0,27.0,0.0
652433,1.0,45.0,6.0,33.0,1.0
537179,1.0,45.0,6.0,33.0,1.0
521442,1.0,48.0,7.0,37.0,2.0
526801,1.0,48.0,7.0,37.0,2.0
614103,0.0,25.0,4.0,12.0,0.0
graph,7.0,119.0,20.0,113.0,4.0
