Vertex,0101101101001100,0110101111010110,0111101111001100,0101101001011010,0111100010011010,0101101101011110,0110100010010010,0111101111011110,0111100110011110,0100101101000100,0111101011011010,0111101011001000,0110101111000100,0111100110001100,0100101101010110,0110101011010010,0100101001010010,0110100110000100,0110100110010110,0111100010001000,0101101001001000
556036,20.0,115.0,144.0,0.0,64.0,8.0,138.0,155.0,7.0,4.0,120.0,386.0,169.0,109.0,0.0,106.0,34.0,240.0,0.0,150.0,70.0
532773,18.0,91.0,126.0,0.0,84.0,5.0,160.0,155.0,8.0,2.0,104.0,425.0,180.0,121.0,0.0,101.0,20.0,306.0,0.0,187.0,64.0
497143,12.0,34.0,36.0,0.0,14.0,4.0,60.0,0.0,4.0,4.0,34.0,102.0,50.0,35.0,0.0,36.0,0.0,150.0,0.0,68.0,36.0
603660,14.0,68.0,72.0,16.0,42.0,6.0,171.0,0.0,5.0,10.0,69.0,241.0,109.0,63.0,0.0,71.0,76.0,279.0,35.0,193.0,84.0
492205,42.0,111.0,162.0,31.0,100.0,6.0,162.0,310.0,8.0,4.0,129.0,571.0,260.0,173.0,0.0,177.0,34.0,284.0,70.0,162.0,62.0
554368,46.0,162.0,216.0,62.0,150.0,13.0,276.0,310.0,12.0,6.0,182.0,850.0,375.0,227.0,2.0,233.0,43.0,535.0,140.0,477.0,156.0
522280,4.0,34.0,36.0,0.0,50.0,4.0,83.0,0.0,3.0,2.0,37.0,235.0,96.0,55.0,2.0,50.0,30.0,145.0,0.0,127.0,40.0
619166,22.0,0.0,0.0,48.0,12.0,0.0,179.0,0.0,0.0,12.0,0.0,119.0,67.0,45.0,0.0,65.0,75.0,279.0,105.0,80.0,90.0
648333,4.0,20.0,36.0,0.0,34.0,0.0,39.0,0.0,1.0,0.0,26.0,180.0,75.0,43.0,0.0,40.0,2.0,101.0,0.0,214.0,22.0
581771,6.0,0.0,0.0,0.0,10.0,0.0,67.0,0.0,0.0,2.0,0.0,72.0,32.0,25.0,0.0,19.0,14.0,132.0,0.0,61.0,28.0
481237,20.0,30.0,54.0,48.0,61.0,0.0,111.0,155.0,1.0,6.0,38.0,319.0,145.0,87.0,0.0,96.0,32.0,212.0,105.0,194.0,58.0
511476,20.0,27.0,36.0,62.0,35.0,4.0,189.0,0.0,2.0,12.0,30.0,171.0,83.0,63.0,2.0,60.0,75.0,330.0,140.0,111.0,92.0
650424,28.0,47.0,72.0,47.0,76.0,4.0,137.0,155.0,3.0,4.0,56.0,381.0,177.0,107.0,0.0,124.0,33.0,258.0,105.0,166.0,69.0
486853,0.0,0.0,0.0,16.0,20.0,0.0,122.0,0.0,0.0,2.0,0.0,100.0,40.0,20.0,0.0,20.0,25.0,228.0,35.0,223.0,63.0
525604,6.0,17.0,18.0,30.0,40.0,2.0,110.0,0.0,2.0,4.0,19.0,192.0,81.0,48.0,2.0,47.0,37.0,202.0,70.0,190.0,58.0
512931,10.0,0.0,0.0,16.0,8.0,0.0,90.0,0.0,0.0,4.0,0.0,60.0,33.0,23.0,0.0,27.0,13.0,169.0,35.0,38.0,49.0
468521,0.0,0.0,0.0,0.0,0.0,0.0,78.0,0.0,0.0,2.0,0.0,0.0,0.0,0.0,0.0,0.0,17.0,130.0,0.0,15.0,35.0
graph,68.0,189.0,252.0,94.0,200.0,14.0,543.0,310.0,14.0,20.0,211.0,1101.0,493.0,311.0,2.0,318.0,140.0,995.0,210.0,664.0,269.0
