Vertex,0101101001011010,0111101111001100,0110100010010010,0111101011011010,0101101101011110,0111101011001000,0101101001001000,0100101001010010,0101101101001100,0110101111000100,0111100110011110,0100101101000100,0100101101010110,0111100010001000,0110101111010110,0110100110000100,0110101011010010,0111100110001100,0111100010011010,0110100110010110
532243,10.0,0.0,103.0,0.0,0.0,0.0,50.0,27.0,0.0,0.0,0.0,4.0,0.0,96.0,0.0,172.0,0.0,0.0,0.0,35.0
590353,10.0,0.0,109.0,0.0,0.0,19.0,36.0,37.0,2.0,9.0,0.0,10.0,0.0,96.0,0.0,173.0,5.0,8.0,2.0,35.0
649391,10.0,0.0,214.0,0.0,0.0,21.0,117.0,90.0,2.0,9.0,0.0,12.0,2.0,187.0,0.0,422.0,5.0,10.0,8.0,35.0
571924,10.0,18.0,222.0,20.0,4.0,95.0,114.0,56.0,8.0,42.0,3.0,12.0,2.0,167.0,17.0,410.0,24.0,35.0,18.0,35.0
505579,0.0,0.0,59.0,0.0,0.0,0.0,24.0,21.0,0.0,0.0,0.0,2.0,0.0,48.0,0.0,113.0,0.0,0.0,0.0,0.0
485521,0.0,0.0,98.0,0.0,0.0,0.0,30.0,35.0,0.0,0.0,0.0,4.0,0.0,94.0,0.0,195.0,0.0,0.0,0.0,0.0
655406,0.0,0.0,61.0,0.0,0.0,0.0,32.0,11.0,0.0,0.0,0.0,0.0,0.0,48.0,0.0,110.0,0.0,0.0,0.0,0.0
647312,0.0,0.0,61.0,0.0,0.0,0.0,32.0,15.0,0.0,0.0,0.0,0.0,0.0,48.0,0.0,110.0,0.0,0.0,0.0,0.0
605525,0.0,0.0,184.0,0.0,0.0,70.0,100.0,49.0,0.0,28.0,0.0,4.0,0.0,411.0,0.0,385.0,14.0,14.0,14.0,0.0
522576,0.0,0.0,62.0,0.0,0.0,0.0,18.0,21.0,0.0,0.0,0.0,2.0,0.0,24.0,0.0,90.0,0.0,0.0,0.0,0.0
476364,11.0,0.0,139.0,0.0,0.0,38.0,66.0,25.0,4.0,18.0,0.0,6.0,0.0,114.0,0.0,299.0,12.0,12.0,6.0,35.0
474371,0.0,0.0,120.0,0.0,0.0,35.0,36.0,34.0,4.0,16.0,0.0,2.0,0.0,98.0,0.0,253.0,10.0,13.0,4.0,0.0
613664,11.0,72.0,221.0,68.0,8.0,314.0,115.0,63.0,16.0,136.0,6.0,10.0,2.0,314.0,61.0,417.0,80.0,87.0,58.0,35.0
601366,22.0,36.0,171.0,32.0,4.0,246.0,76.0,31.0,12.0,106.0,3.0,6.0,2.0,339.0,27.0,322.0,62.0,69.0,46.0,70.0
501829,55.0,126.0,400.0,112.0,9.0,670.0,223.0,72.0,22.0,283.0,9.0,10.0,0.0,962.0,98.0,809.0,161.0,166.0,132.0,175.0
591778,17.0,0.0,81.0,0.0,0.0,191.0,38.0,14.0,4.0,78.0,0.0,2.0,0.0,275.0,0.0,166.0,40.0,48.0,40.0,70.0
587104,16.0,0.0,77.0,0.0,0.0,191.0,42.0,9.0,4.0,78.0,0.0,0.0,0.0,240.0,0.0,164.0,40.0,48.0,40.0,35.0
567538,17.0,36.0,103.0,31.0,2.0,131.0,46.0,19.0,4.0,56.0,2.0,4.0,0.0,315.0,27.0,207.0,34.0,32.0,30.0,70.0
507706,0.0,72.0,153.0,63.0,3.0,185.0,62.0,28.0,4.0,76.0,5.0,4.0,0.0,282.0,54.0,289.0,40.0,43.0,34.0,0.0
628133,0.0,90.0,122.0,76.0,4.0,290.0,49.0,23.0,10.0,123.0,5.0,2.0,0.0,207.0,64.0,223.0,71.0,72.0,58.0,0.0
629228,27.0,0.0,125.0,0.0,0.0,70.0,66.0,12.0,0.0,28.0,0.0,4.0,0.0,363.0,0.0,266.0,14.0,14.0,14.0,70.0
631437,0.0,18.0,46.0,16.0,1.0,130.0,28.0,2.0,0.0,52.0,1.0,0.0,0.0,248.0,17.0,98.0,26.0,26.0,26.0,0.0
605289,0.0,36.0,55.0,30.0,1.0,204.0,30.0,5.0,2.0,83.0,2.0,0.0,0.0,207.0,27.0,122.0,43.0,43.0,40.0,0.0
556917,28.0,0.0,140.0,0.0,0.0,84.0,58.0,27.0,12.0,42.0,0.0,4.0,0.0,59.0,0.0,269.0,34.0,36.0,20.0,105.0
624786,16.0,0.0,81.0,0.0,0.0,20.0,42.0,7.0,2.0,9.0,0.0,2.0,0.0,24.0,0.0,162.0,5.0,8.0,2.0,35.0
500336,0.0,0.0,116.0,0.0,0.0,0.0,38.0,28.0,0.0,0.0,0.0,6.0,0.0,94.0,0.0,238.0,0.0,0.0,0.0,0.0
506762,0.0,0.0,49.0,0.0,0.0,0.0,12.0,15.0,0.0,0.0,0.0,0.0,0.0,24.0,0.0,88.0,0.0,0.0,0.0,0.0
graph,65.0,126.0,843.0,112.0,9.0,751.0,395.0,194.0,28.0,318.0,9.0,28.0,2.0,1346.0,98.0,1643.0,180.0,196.0,148.0,210.0
