0110010011100000100001000: 516536 618268 574840 460005 514076
0110010011100100110001000: 516536 618268 605385 460005 514076
0110010011100100110001000: 516536 618268 460646 514076 460005
0110010011100000100001000: 516536 618268 611764 460005 514076
0110010011100000100001000: 516536 618268 585910 460005 514076
0110010011100000100001000: 516536 618268 519508 460005 514076
0110010010100010100000100: 516536 574840 618268 498221 514076
0110010010100010100000100: 516536 574840 618268 498221 460005
0110010011100000100001000: 516536 574840 618268 549151 498221
0110010010100010100000100: 516536 574840 618268 549151 514076
0110010010100010100000100: 516536 574840 618268 549151 460005
0110010011100100110001000: 516536 574840 605385 498221 549151
0110010011100000100001000: 516536 574840 460646 549151 498221
0110010011100000100001000: 516536 574840 611764 549151 498221
0110010011100000100001000: 516536 574840 585910 549151 498221
0110010011100000100001000: 516536 574840 519508 549151 498221
0110010010100010100000100: 516536 605385 618268 549362 514076
0110010011100000100001000: 516536 605385 618268 498221 549362
0110010010100010100000100: 516536 605385 618268 498221 514076
0110010011100100110001000: 516536 605385 618268 460005 549362
0110010011100100110001000: 516536 605385 618268 460005 498221
0110010010100010100000100: 516536 605385 574840 549362 549151
0110010011100000100001000: 516536 605385 574840 460005 549362
0110010010100010100000100: 516536 605385 574840 460005 549151
0110010011100100110001000: 516536 605385 574840 498221 549362
0110010011100100110001000: 516536 605385 574840 498221 460005
0110010011100000100001000: 516536 605385 460646 460005 549362
0110010011100000100001000: 516536 605385 460646 498221 549362
0110010011100000100001000: 516536 605385 460646 498221 460005
0110010011100000100001000: 516536 605385 611764 460005 549362
0110010011100000100001000: 516536 605385 611764 498221 549362
0110010011100000100001000: 516536 605385 611764 498221 460005
0110010011100000100001000: 516536 605385 519508 498221 460005
0110010011100100110001000: 516536 605385 519508 549362 460005
0110010011100100110001000: 516536 605385 519508 549362 498221
0111010101110001000001000: 516536 605385 585910 618268 549362
0111010101110001000001000: 516536 605385 585910 618268 498221
0111010101110001000101010: 516536 605385 585910 618268 460005
0111010101110001000001000: 516536 605385 585910 574840 549362
0111010101110001000001000: 516536 605385 585910 574840 460005
0111010101110001000101010: 516536 605385 585910 574840 498221
0111010101110001000001000: 516536 605385 585910 460646 549362
0111010101110001000001000: 516536 605385 585910 460646 460005
0111010101110001000001000: 516536 605385 585910 460646 498221
0111010101110001000001000: 516536 605385 585910 611764 549362
0111010101110001000001000: 516536 605385 585910 611764 460005
0111010101110001000001000: 516536 605385 585910 611764 498221
0111010101110001000001000: 516536 605385 585910 519508 460005
0111010101110001000001000: 516536 605385 585910 519508 498221
0111010101110001000101010: 516536 605385 585910 519508 549362
0110010010100010100000100: 516536 460646 618268 528099 460005
0110010011100100110001000: 516536 460646 618268 514076 528099
0110010010100010100000100: 516536 460646 574840 514076 498221
0110010010100010100000100: 516536 460646 574840 514076 549151
0110010011100000100001000: 516536 460646 574840 528099 514076
0110010010100010100000100: 516536 460646 574840 528099 498221
0110010010100010100000100: 516536 460646 574840 528099 549151
0111110000100001000010000: 516536 460646 605385 574840 618268
0110010010100010100000100: 516536 460646 605385 514076 549362
0110010010100010100000100: 516536 460646 605385 514076 460005
0110010010100010100000100: 516536 460646 605385 514076 498221
0110010011100000100001000: 516536 460646 605385 528099 514076
0110010010100010100000100: 516536 460646 605385 528099 549362
0110010010100010100000100: 516536 460646 605385 528099 460005
0110010010100010100000100: 516536 460646 605385 528099 498221
0110010011100000100001000: 516536 460646 611764 528099 514076
0110010011100000100001000: 516536 460646 585910 528099 514076
0110010011100100110001000: 516536 460646 519508 528099 514076
0110010010100010100000100: 516536 611764 618268 595152 514076
0110010010100010100000100: 516536 611764 618268 595152 460005
0110010010100010100000100: 516536 611764 574840 595152 498221
0110010010100010100100110: 516536 611764 574840 595152 549151
0111110000100001000010000: 516536 611764 605385 574840 618268
0110010010100010100000100: 516536 611764 605385 595152 460005
0110010010100010100000100: 516536 611764 605385 595152 498221
0110010010100010100100110: 516536 611764 605385 595152 549362
0111110000100001000010000: 516536 611764 460646 574840 618268
0111110000100001000010000: 516536 611764 460646 605385 618268
0111110000100001000010000: 516536 611764 460646 605385 574840
0110010010100010100000100: 516536 611764 460646 595152 514076
0110010010100010100100110: 516536 611764 460646 595152 528099
0110010010100010100000100: 516536 585910 618268 458587 514076
0110010010100010100000100: 516536 585910 618268 458587 460005
0110010011100000100001000: 516536 585910 618268 528897 458587
0110010010100010100000100: 516536 585910 618268 528897 460005
0110010010100010100100110: 516536 585910 618268 528897 514076
0110010011100000100001000: 516536 585910 618268 595152 458587
0110010010100010100000100: 516536 585910 618268 595152 514076
0110010010100010100000100: 516536 585910 618268 595152 460005
0110010010100010100000100: 516536 585910 574840 458587 549151
0110010010100010100100110: 516536 585910 574840 458587 498221
0110010011100000100001000: 516536 585910 574840 528897 458587
0110010010100010100000100: 516536 585910 574840 528897 498221
0110010010100010100000100: 516536 585910 574840 528897 549151
0110010011100000100001000: 516536 585910 574840 595152 458587
0110010010100010100000100: 516536 585910 574840 595152 498221
0110010010100010100100110: 516536 585910 574840 595152 549151
0111110000100001000010000: 516536 585910 460646 574840 618268
0110010010100010100000100: 516536 585910 460646 458587 514076
0110010010100010100000100: 516536 585910 460646 458587 528099
0110010011100000100001000: 516536 585910 460646 528897 458587
0110010010100010100000100: 516536 585910 460646 528897 528099
0110010010100010100100110: 516536 585910 460646 528897 514076
0110010011100000100001000: 516536 585910 460646 595152 458587
0110010010100010100000100: 516536 585910 460646 595152 514076
0110010010100010100100110: 516536 585910 460646 595152 528099
0111110000100001000010000: 516536 585910 611764 574840 618268
0111110000100001000010000: 516536 585910 611764 460646 618268
0111110000100001000010000: 516536 585910 611764 460646 574840
0110010011100000100001000: 516536 585910 611764 528897 458587
0110010011100100110001000: 516536 585910 611764 595152 458587
0110010011100000100001000: 516536 585910 519508 528897 458587
0110010011100000100001000: 516536 585910 519508 595152 458587
0111010101110001000001000: 516536 585910 605385 618268 458587
0111010101110001000001000: 516536 585910 605385 618268 528897
0111010101110001000001000: 516536 585910 605385 618268 595152
0111010100110001000100010: 516536 585910 605385 618268 514076
0111110100110001000010000: 516536 585910 605385 574840 618268
0111010101110001000001000: 516536 585910 605385 574840 458587
0111010101110001000001000: 516536 585910 605385 574840 528897
0111010101110001000001000: 516536 585910 605385 574840 595152
0111010100110001000100010: 516536 585910 605385 574840 549151
0111110100110001000010000: 516536 585910 605385 460646 618268
0111110100110001000010000: 516536 585910 605385 460646 574840
0111010101110001000001000: 516536 585910 605385 460646 458587
0111010101110001000001000: 516536 585910 605385 460646 528897
0111010101110001000001000: 516536 585910 605385 460646 595152
0111010100110001000100010: 516536 585910 605385 460646 514076
0111010100110001000100010: 516536 585910 605385 460646 528099
0111110100110001000010000: 516536 585910 605385 611764 618268
0111110100110001000010000: 516536 585910 605385 611764 574840
0111110100110001000010000: 516536 585910 605385 611764 460646
0111010101110001000001000: 516536 585910 605385 611764 458587
0111010101110001000001000: 516536 585910 605385 611764 528897
0111010101110001000101010: 516536 585910 605385 611764 595152
0111110100110001000010000: 516536 585910 605385 519508 618268
0111110100110001000010000: 516536 585910 605385 519508 574840
0111110100110001000010000: 516536 585910 605385 519508 460646
0111110100110001000010000: 516536 585910 605385 519508 611764
0111010101110001000001000: 516536 585910 605385 519508 458587
0111010101110001000001000: 516536 585910 605385 519508 528897
0111010101110001000001000: 516536 585910 605385 519508 595152
0111010100110001000100010: 516536 585910 605385 519508 528099
0110010010100010100000100: 516536 519508 618268 549362 514076
0110010010100010100000100: 516536 519508 618268 549362 460005
0110010011100000100001000: 516536 519508 618268 528099 549362
0110010010100010100000100: 516536 519508 618268 528099 514076
0110010010100010100000100: 516536 519508 618268 528099 460005
0110010010100010100000100: 516536 519508 574840 549362 498221
0110010010100010100000100: 516536 519508 574840 549362 549151
0110010011100000100001000: 516536 519508 574840 528099 549362
0110010010100010100000100: 516536 519508 574840 528099 498221
0110010010100010100000100: 516536 519508 574840 528099 549151
0111110000100001000010000: 516536 519508 605385 574840 618268
0110010010100010100000100: 516536 519508 605385 528099 460005
0110010010100010100000100: 516536 519508 605385 528099 498221
0110010011100100110001000: 516536 519508 605385 549362 528099
0111110000100001000010000: 516536 519508 460646 574840 618268
0111110000100001000010000: 516536 519508 460646 605385 618268
0111110000100001000010000: 516536 519508 460646 605385 574840
0110010010100010100000100: 516536 519508 460646 549362 514076
0110010011100100110001000: 516536 519508 460646 528099 549362
0111110000100001000010000: 516536 519508 611764 574840 618268
0111110000100001000010000: 516536 519508 611764 605385 618268
0111110000100001000010000: 516536 519508 611764 605385 574840
0111110000100001000010000: 516536 519508 611764 460646 618268
0111110000100001000010000: 516536 519508 611764 460646 574840
0111110000100001000010000: 516536 519508 611764 460646 605385
0110010010100010100100110: 516536 519508 611764 549362 595152
0110010011100000100001000: 516536 519508 611764 528099 549362
0110010010100010100100110: 516536 519508 611764 528099 595152
0111110000100001000010000: 516536 519508 585910 574840 618268
0111110000100001000010000: 516536 519508 585910 460646 618268
0111110000100001000010000: 516536 519508 585910 460646 574840
0111110000100001000010000: 516536 519508 585910 611764 618268
0111110000100001000010000: 516536 519508 585910 611764 574840
0111110000100001000010000: 516536 519508 585910 611764 460646
0110010010100010100000100: 516536 519508 585910 549362 458587
0110010010100010100000100: 516536 519508 585910 549362 528897
0110010010100010100100110: 516536 519508 585910 549362 595152
0110010011100000100001000: 516536 519508 585910 528099 549362
0110010010100010100000100: 516536 519508 585910 528099 458587
0110010010100010100000100: 516536 519508 585910 528099 528897
0110010010100010100100110: 516536 519508 585910 528099 595152
0110010011100100110001000: 519508 549362 528099 595152 605385
0110010011100100110001000: 519508 549362 516536 605385 595152
0110010010100010100000100: 519508 528099 549362 460646 605385
0110010011100100110001000: 519508 528099 549362 595152 460646
0110010011100100110001000: 519508 528099 516536 460646 595152
0110010010100010100000100: 519508 516536 549362 618268 595152
0110010011100000100001000: 519508 516536 549362 574840 618268
0110010010100010100000100: 519508 516536 549362 574840 595152
0110010011100000100001000: 519508 516536 549362 460646 618268
0110010011100000100001000: 519508 516536 549362 460646 574840
0110010010100010100000100: 519508 516536 549362 460646 595152
0110010011100000100001000: 519508 516536 549362 611764 618268
0110010011100000100001000: 519508 516536 549362 611764 574840
0110010011100000100001000: 519508 516536 549362 611764 460646
0110010011100000100001000: 519508 516536 549362 585910 618268
0110010011100000100001000: 519508 516536 549362 585910 574840
0110010011100000100001000: 519508 516536 549362 585910 460646
0110010011100000100001000: 519508 516536 549362 585910 611764
0110010011100100110001000: 519508 516536 549362 605385 618268
0110010011100100110001000: 519508 516536 549362 605385 574840
0110010011100100110001000: 519508 516536 549362 605385 460646
0110010011100100110001000: 519508 516536 549362 605385 611764
0110010010100010100000100: 519508 516536 528099 618268 595152
0110010011100000100001000: 519508 516536 528099 574840 618268
0110010010100010100000100: 519508 516536 528099 574840 595152
0110010011100000100001000: 519508 516536 528099 605385 618268
0110010011100000100001000: 519508 516536 528099 605385 574840
0110010010100010100000100: 519508 516536 528099 605385 595152
0110010011100000100001000: 519508 516536 528099 611764 618268
0110010011100000100001000: 519508 516536 528099 611764 574840
0110010011100000100001000: 519508 516536 528099 611764 605385
0110010011100000100001000: 519508 516536 528099 585910 618268
0110010011100000100001000: 519508 516536 528099 585910 574840
0110010011100000100001000: 519508 516536 528099 585910 611764
0110010011100100110001000: 519508 516536 528099 460646 618268
0110010011100100110001000: 519508 516536 528099 460646 574840
0110010011100100110001000: 519508 516536 528099 460646 605385
0110010011100100110001000: 519508 516536 528099 460646 611764
0110010011100100110001000: 519508 516536 528099 460646 585910
0110010011100000100001000: 595152 549362 528897 519508 605385
0110010011100000100001000: 595152 549362 549151 519508 605385
0110010011100000100001000: 595152 549362 611764 519508 605385
0110010011100100110001000: 595152 549362 585910 605385 519508
0110010010100010100000100: 595152 528897 549362 514076 605385
0110010010100010100000100: 595152 528897 549362 514076 519508
0111010101110001000001000: 595152 528897 585910 549362 514076
0111010101110001000001000: 595152 528897 585910 549151 514076
0111010101110001000001000: 595152 528897 585910 528099 514076
0111010101110001000001000: 595152 528897 585910 611764 514076
0110010010100010100000100: 595152 549151 549362 574840 605385
0110010010100010100000100: 595152 549151 549362 574840 519508
0110010010100010100000100: 595152 549151 528897 574840 514076
0110010010100010100000100: 595152 528099 549362 460646 605385
0110010010100010100100110: 595152 528099 528897 460646 514076
0110010011100000100001000: 595152 528099 528897 519508 460646
0110010010100010100000100: 595152 528099 528897 519508 514076
0111110000100001000010000: 595152 528099 549151 528897 549362
0110010010100010100000100: 595152 528099 549151 460646 574840
0110010011100000100001000: 595152 528099 549151 519508 460646
0110010010100010100000100: 595152 528099 549151 519508 574840
0110010011100000100001000: 595152 528099 611764 519508 460646
0110010011100000100001000: 595152 528099 585910 519508 460646
0110010010100010100000100: 595152 611764 528897 516536 514076
0111110000100001000010000: 595152 611764 549151 528897 549362
0111110000100001000010000: 595152 611764 528099 528897 549362
0111110000100001000010000: 595152 611764 528099 549151 549362
0111110000100001000010000: 595152 611764 528099 549151 528897
0110010010100010100000100: 595152 585910 549362 458587 519508
0110010011100000100001000: 595152 585910 549362 516536 458587
0110010011100100110001000: 595152 585910 549362 605385 458587
0110010010100010100000100: 595152 585910 549151 458587 574840
0110010011100000100001000: 595152 585910 549151 605385 458587
0110010010100010100000100: 595152 585910 549151 605385 574840
0110010011100000100001000: 595152 585910 549151 516536 458587
0111110000100001000010000: 595152 585910 528099 549151 549362
0110010010100010100000100: 595152 585910 528099 458587 460646
0110010010100010100000100: 595152 585910 528099 458587 519508
0110010011100000100001000: 595152 585910 528099 605385 458587
0110010010100010100000100: 595152 585910 528099 605385 460646
0110010010100010100000100: 595152 585910 528099 605385 519508
0110010011100000100001000: 595152 585910 528099 516536 458587
0111110000100001000010000: 595152 585910 611764 549151 549362
0111110000100001000010000: 595152 585910 611764 528099 549362
0111110000100001000010000: 595152 585910 611764 528099 549151
0110010011100000100001000: 595152 585910 611764 605385 458587
0111010101110001000001000: 595152 585910 528897 549362 458587
0111010101110001000001000: 595152 585910 528897 549362 516536
0111010100110001000100010: 595152 585910 528897 549362 519508
0111010101110001000101010: 595152 585910 528897 549362 605385
0111110100110001000010000: 595152 585910 528897 549151 549362
0111010101110001000001000: 595152 585910 528897 549151 458587
0111010101110001000001000: 595152 585910 528897 549151 605385
0111010101110001000001000: 595152 585910 528897 549151 516536
0111010100110001000100010: 595152 585910 528897 549151 574840
0111110100110001000010000: 595152 585910 528897 528099 549362
0111110100110001000010000: 595152 585910 528897 528099 549151
0111010101110001000001000: 595152 585910 528897 528099 458587
0111010101110001000001000: 595152 585910 528897 528099 605385
0111010101110001000001000: 595152 585910 528897 528099 516536
0111010100110001000100010: 595152 585910 528897 528099 460646
0111010100110001000100010: 595152 585910 528897 528099 519508
0111110100110001000010000: 595152 585910 528897 611764 549362
0111110100110001000010000: 595152 585910 528897 611764 549151
0111110100110001000010000: 595152 585910 528897 611764 528099
0111010101110001000001000: 595152 585910 528897 611764 458587
0111010101110001000001000: 595152 585910 528897 611764 605385
0111010101110001000101010: 595152 585910 528897 611764 516536
0110010010100010100000100: 585910 528897 458587 514076 498221
0111010101110001000001000: 585910 528897 595152 458587 514076
0111010101110001000001000: 585910 528897 595152 605385 514076
0111010101110001000001000: 585910 528897 595152 516536 514076
0110010011100000100001000: 585910 605385 458587 460005 549362
0110010011100100110001000: 585910 605385 458587 498221 549362
0110010011100100110001000: 585910 605385 458587 498221 460005
0110010010100010100000100: 585910 605385 528897 549362 514076
0110010011100000100001000: 585910 605385 528897 460005 549362
0110010010100010100000100: 585910 605385 528897 460005 514076
0110010011100000100001000: 585910 605385 528897 498221 549362
0110010011100000100001000: 585910 605385 528897 498221 460005
0110010010100010100000100: 585910 605385 528897 498221 514076
0110010011100000100001000: 585910 605385 595152 498221 460005
0110010011100100110001000: 585910 605385 595152 549362 460005
0110010011100100110001000: 585910 605385 595152 549362 498221
0111010101110001000001000: 585910 605385 516536 458587 549362
0111010101110001000001000: 585910 605385 516536 458587 460005
0111010101110001000101010: 585910 605385 516536 458587 498221
0111010101110001000001000: 585910 605385 516536 528897 549362
0111010101110001000001000: 585910 605385 516536 528897 460005
0111010101110001000001000: 585910 605385 516536 528897 498221
0111010101110001000001000: 585910 605385 516536 595152 460005
0111010101110001000001000: 585910 605385 516536 595152 498221
0111010101110001000101010: 585910 605385 516536 595152 549362
0110010010100010100000100: 585910 595152 458587 549362 498221
0110010011100000100001000: 585910 595152 458587 549151 549362
0110010010100010100000100: 585910 595152 458587 549151 498221
0110010011100000100001000: 585910 595152 458587 528099 549362
0110010011100000100001000: 585910 595152 458587 528099 549151
0110010010100010100000100: 585910 595152 458587 528099 498221
0110010011100000100001000: 585910 595152 458587 611764 549362
0110010011100000100001000: 585910 595152 458587 611764 549151
0110010011100000100001000: 585910 595152 458587 611764 528099
0110010010100010100000100: 585910 595152 458587 611764 498221
0110010010100010100000100: 585910 595152 605385 549151 460005
0110010010100010100000100: 585910 595152 605385 549151 498221
0110010011100000100001000: 585910 595152 605385 528099 549151
0110010010100010100000100: 585910 595152 605385 528099 460005
0110010010100010100000100: 585910 595152 605385 528099 498221
0110010011100000100001000: 585910 595152 605385 611764 549151
0110010011100000100001000: 585910 595152 605385 611764 528099
0110010010100010100000100: 585910 595152 605385 611764 460005
0110010010100010100000100: 585910 595152 605385 611764 498221
0110010011100100110001000: 585910 595152 605385 549362 549151
0110010011100100110001000: 585910 595152 605385 549362 528099
0110010011100100110001000: 585910 595152 605385 549362 611764
0110010011100000100001000: 585910 595152 516536 549151 549362
0110010011100000100001000: 585910 595152 516536 528099 549362
0110010011100000100001000: 585910 595152 516536 528099 549151
0110010011100100110001000: 585910 595152 516536 611764 549362
0110010011100100110001000: 585910 595152 516536 611764 549151
0110010011100100110001000: 585910 595152 516536 611764 528099
0111010100110001000100010: 585910 595152 528897 458587 498221
0111110100110001000010000: 585910 595152 528897 605385 458587
0111010100110001000100010: 585910 595152 528897 605385 460005
0111010100110001000100010: 585910 595152 528897 605385 498221
0111110100110001000010000: 585910 595152 528897 516536 458587
0111010100110001000100010: 585910 595152 528897 516536 618268
0111010100110001000100010: 585910 595152 528897 516536 574840
0111010100110001000100010: 585910 595152 528897 516536 460646
0111010100110001000100010: 585910 595152 528897 516536 519508
0110010010100010100000100: 585910 516536 458587 618268 498221
0110010011100000100001000: 585910 516536 458587 574840 618268
0110010011100000100001000: 585910 516536 458587 460646 618268
0110010011100000100001000: 585910 516536 458587 460646 574840
0110010010100010100000100: 585910 516536 458587 460646 498221
0110010011100000100001000: 585910 516536 458587 611764 618268
0110010011100000100001000: 585910 516536 458587 611764 574840
0110010011100000100001000: 585910 516536 458587 611764 460646
0110010010100010100000100: 585910 516536 458587 611764 498221
0110010011100000100001000: 585910 516536 458587 519508 618268
0110010011100000100001000: 585910 516536 458587 519508 574840
0110010011100000100001000: 585910 516536 458587 519508 460646
0110010011100000100001000: 585910 516536 458587 519508 611764
0110010010100010100000100: 585910 516536 458587 519508 498221
0110010011100000100001000: 585910 516536 528897 574840 618268
0110010010100010100000100: 585910 516536 528897 574840 514076
0110010011100000100001000: 585910 516536 528897 460646 618268
0110010011100000100001000: 585910 516536 528897 460646 574840
0110010011100000100001000: 585910 516536 528897 611764 618268
0110010011100000100001000: 585910 516536 528897 611764 574840
0110010011100000100001000: 585910 516536 528897 611764 460646
0110010010100010100000100: 585910 516536 528897 611764 514076
0110010011100000100001000: 585910 516536 528897 519508 618268
0110010011100000100001000: 585910 516536 528897 519508 574840
0110010011100000100001000: 585910 516536 528897 519508 460646
0110010011100000100001000: 585910 516536 528897 519508 611764
0110010010100010100000100: 585910 516536 528897 519508 514076
0110010010100010100000100: 585910 516536 595152 618268 549362
0110010010100010100000100: 585910 516536 595152 618268 549151
0110010010100010100000100: 585910 516536 595152 618268 528099
0110010011100000100001000: 585910 516536 595152 574840 618268
0110010010100010100000100: 585910 516536 595152 574840 549362
0110010010100010100000100: 585910 516536 595152 574840 528099
0110010011100000100001000: 585910 516536 595152 460646 618268
0110010011100000100001000: 585910 516536 595152 460646 574840
0110010010100010100000100: 585910 516536 595152 460646 549362
0110010010100010100000100: 585910 516536 595152 460646 549151
0110010011100000100001000: 585910 516536 595152 519508 618268
0110010011100000100001000: 585910 516536 595152 519508 574840
0110010011100000100001000: 585910 516536 595152 519508 460646
0110010010100010100000100: 585910 516536 595152 519508 549151
0110010011100100110001000: 585910 516536 595152 611764 618268
0110010011100100110001000: 585910 516536 595152 611764 574840
0110010011100100110001000: 585910 516536 595152 611764 460646
0110010011100100110001000: 585910 516536 595152 611764 519508
0111110100110001000010000: 585910 516536 605385 528897 458587
0111010100110001000100010: 585910 516536 605385 528897 514076
0111110100110001000010000: 585910 516536 605385 595152 458587
0111010100110001000100010: 585910 516536 605385 595152 549151
0111010100110001000100010: 585910 516536 605385 595152 528099
0111110100110001000110010: 585910 516536 605385 595152 528897
0110010011100000100001000: 611764 595152 516536 528897 549362
0110010011100000100001000: 611764 595152 516536 549151 549362
0110010011100000100001000: 611764 595152 516536 549151 528897
0110010011100000100001000: 611764 595152 516536 528099 549362
0110010011100000100001000: 611764 595152 516536 528099 528897
0110010011100000100001000: 611764 595152 516536 528099 549151
0110010010100010100000100: 611764 516536 595152 618268 549362
0110010010100010100000100: 611764 516536 595152 618268 528897
0110010010100010100000100: 611764 516536 595152 618268 549151
0110010010100010100000100: 611764 516536 595152 618268 528099
0110010011100000100001000: 611764 516536 595152 574840 618268
0110010010100010100000100: 611764 516536 595152 574840 549362
0110010010100010100000100: 611764 516536 595152 574840 528897
0110010010100010100000100: 611764 516536 595152 574840 528099
0110010011100000100001000: 611764 516536 595152 605385 618268
0110010011100000100001000: 611764 516536 595152 605385 574840
0110010010100010100000100: 611764 516536 595152 605385 528897
0110010010100010100000100: 611764 516536 595152 605385 549151
0110010010100010100000100: 611764 516536 595152 605385 528099
0110010011100000100001000: 611764 516536 595152 460646 618268
0110010011100000100001000: 611764 516536 595152 460646 574840
0110010011100000100001000: 611764 516536 595152 460646 605385
0110010010100010100000100: 611764 516536 595152 460646 549362
0110010010100010100000100: 611764 516536 595152 460646 528897
0110010010100010100000100: 611764 516536 595152 460646 549151
0110010011100000100001000: 611764 516536 595152 519508 618268
0110010011100000100001000: 611764 516536 595152 519508 574840
0110010011100000100001000: 611764 516536 595152 519508 605385
0110010011100000100001000: 611764 516536 595152 519508 460646
0110010010100010100000100: 611764 516536 595152 519508 528897
0110010010100010100000100: 611764 516536 595152 519508 549151
0110010011100000100001000: 460646 514076 528099 618268 528897
0110010011100100110001000: 460646 514076 516536 618268 528897
0110010010100010100000100: 460646 528099 514076 595152 618268
0110010011100000100001000: 460646 528099 514076 519508 595152
0110010010100010100000100: 460646 528099 514076 519508 528897
0110010010100010100000100: 460646 528099 514076 519508 618268
0110010010100010100000100: 460646 516536 514076 574840 528897
0110010011100000100001000: 460646 516536 514076 605385 574840
0110010010100010100000100: 460646 516536 514076 605385 528897
0110010011100000100001000: 460646 516536 514076 611764 574840
0110010011100000100001000: 460646 516536 514076 611764 605385
0110010010100010100000100: 460646 516536 514076 611764 528897
0110010011100000100001000: 460646 516536 514076 585910 574840
0110010011100000100001000: 460646 516536 514076 585910 611764
0110010011100000100001000: 460646 516536 514076 519508 574840
0110010011100000100001000: 460646 516536 514076 519508 605385
0110010011100000100001000: 460646 516536 514076 519508 611764
0110010011100000100001000: 460646 516536 514076 519508 585910
0110010010100010100000100: 460646 516536 514076 519508 528897
0110010011100100110001000: 460646 516536 514076 618268 574840
0110010011100100110001000: 460646 516536 514076 618268 605385
0110010011100100110001000: 460646 516536 514076 618268 611764
0110010011100100110001000: 460646 516536 514076 618268 585910
0110010011100100110001000: 460646 516536 514076 618268 519508
0110010010100010100000100: 460646 516536 528099 618268 595152
0110010011100000100001000: 460646 516536 528099 574840 618268
0110010010100010100000100: 460646 516536 528099 574840 595152
0110010011100000100001000: 460646 516536 528099 605385 618268
0110010011100000100001000: 460646 516536 528099 605385 574840
0110010010100010100000100: 460646 516536 528099 605385 595152
0110010011100000100001000: 460646 516536 528099 611764 618268
0110010011100000100001000: 460646 516536 528099 611764 574840
0110010011100000100001000: 460646 516536 528099 611764 605385
0110010011100000100001000: 460646 516536 528099 585910 618268
0110010011100000100001000: 460646 516536 528099 585910 574840
0110010011100000100001000: 460646 516536 528099 585910 611764
0110010011100000100001000: 605385 549362 460005 519508 595152
0110010011100000100001000: 605385 549362 498221 519508 595152
0110010010100010100000100: 605385 460005 549362 618268 595152
0110010010100010100000100: 605385 460005 549362 618268 519508
0110010010100010100000100: 605385 498221 549362 458587 595152
0110010010100010100000100: 605385 498221 549362 458587 519508
0110010011100000100001000: 605385 498221 549362 574840 458587
0110010010100010100000100: 605385 498221 549362 574840 595152
0110010010100010100000100: 605385 498221 549362 574840 519508
0110010010100010100000100: 605385 498221 460005 458587 618268
0110010011100000100001000: 605385 498221 460005 574840 458587
0110010010100010100000100: 605385 498221 460005 574840 618268
0110010011100100110001000: 605385 498221 585910 458587 574840
0110010011100100110001000: 605385 498221 516536 574840 458587
0110010010100010100000100: 605385 585910 549362 458587 519508
0110010011100000100001000: 605385 585910 549362 528897 458587
0110010010100010100000100: 605385 585910 549362 528897 519508
0110010010100010100000100: 605385 585910 460005 458587 618268
0110010011100000100001000: 605385 585910 460005 528897 458587
0110010010100010100000100: 605385 585910 460005 528897 618268
0110010011100000100001000: 605385 585910 460005 595152 458587
0110010010100010100000100: 605385 585910 460005 595152 618268
0111110000100001000010000: 605385 585910 498221 460005 549362
0110010010100010100000100: 605385 585910 498221 528897 574840
0110010010100010100000100: 605385 585910 498221 595152 574840
0110010011100100110001000: 605385 585910 498221 458587 528897
0110010011100100110001000: 605385 585910 498221 458587 595152
0110010010100010100000100: 605385 516536 549362 618268 595152
0110010011100000100001000: 605385 516536 549362 574840 618268
0110010010100010100000100: 605385 516536 549362 574840 595152
0110010011100000100001000: 605385 516536 549362 460646 618268
0110010011100000100001000: 605385 516536 549362 460646 574840
0110010010100010100000100: 605385 516536 549362 460646 595152
0110010011100000100001000: 605385 516536 549362 611764 618268
0110010011100000100001000: 605385 516536 549362 611764 574840
0110010011100000100001000: 605385 516536 549362 611764 460646
0110010011100000100001000: 605385 516536 460005 460646 574840
0110010011100000100001000: 605385 516536 460005 611764 574840
0110010011100000100001000: 605385 516536 460005 611764 460646
0110010011100000100001000: 605385 516536 460005 519508 574840
0110010011100000100001000: 605385 516536 460005 519508 460646
0110010011100000100001000: 605385 516536 460005 519508 611764
0110010011100100110001000: 605385 516536 460005 618268 574840
0110010011100100110001000: 605385 516536 460005 618268 460646
0110010011100100110001000: 605385 516536 460005 618268 611764
0110010011100100110001000: 605385 516536 460005 618268 519508
0111110000100001000010000: 605385 516536 498221 460005 549362
0110010010100010100000100: 605385 516536 498221 618268 458587
0110010011100000100001000: 605385 516536 498221 460646 618268
0110010010100010100000100: 605385 516536 498221 460646 458587
0110010011100000100001000: 605385 516536 498221 611764 618268
0110010011100000100001000: 605385 516536 498221 611764 460646
0110010010100010100000100: 605385 516536 498221 611764 458587
0110010011100000100001000: 605385 516536 498221 519508 618268
0110010011100000100001000: 605385 516536 498221 519508 460646
0110010011100000100001000: 605385 516536 498221 519508 611764
0110010010100010100000100: 605385 516536 498221 519508 458587
0110010011100100110001000: 605385 516536 498221 574840 618268
0110010011100100110001000: 605385 516536 498221 574840 460646
0110010011100100110001000: 605385 516536 498221 574840 611764
0110010011100100110001000: 605385 516536 498221 574840 519508
0111110100110001000010000: 605385 516536 585910 460005 549362
0111110100110001000010000: 605385 516536 585910 498221 549362
0111110100110001000010000: 605385 516536 585910 498221 460005
0110010011100000100001000: 528099 460646 595152 516536 514076
0110010010100010100000100: 528099 595152 460646 549362 514076
0110010010100010100000100: 528099 595152 460646 549362 516536
0110010011100000100001000: 528099 595152 460646 528897 549362
0110010010100010100000100: 528099 595152 460646 528897 516536
0110010011100000100001000: 528099 595152 460646 549151 549362
0110010011100000100001000: 528099 595152 460646 549151 528897
0110010010100010100000100: 528099 595152 460646 549151 514076
0110010010100010100000100: 528099 595152 460646 549151 516536
0110010011100000100001000: 528099 595152 460646 611764 549362
0110010011100000100001000: 528099 595152 460646 611764 528897
0110010011100000100001000: 528099 595152 460646 611764 549151
0110010010100010100000100: 528099 595152 460646 611764 514076
0110010011100000100001000: 528099 595152 460646 585910 549362
0110010011100000100001000: 528099 595152 460646 585910 549151
0110010011100000100001000: 528099 595152 460646 585910 611764
0110010010100010100000100: 528099 595152 460646 585910 514076
0110010011100000100001000: 528099 595152 519508 549151 528897
0110010011100000100001000: 528099 595152 519508 611764 528897
0110010011100000100001000: 528099 595152 519508 611764 549151
0110010011100000100001000: 528099 595152 519508 585910 549151
0110010011100000100001000: 528099 595152 519508 585910 611764
0110010011100100110001000: 528099 595152 519508 549362 528897
0110010011100100110001000: 528099 595152 519508 549362 549151
0110010011100100110001000: 528099 595152 519508 549362 611764
0110010011100100110001000: 528099 595152 519508 549362 585910
0110010010100010100000100: 528099 519508 460646 549362 514076
0110010010100010100000100: 528099 519508 595152 516536 528897
0110010010100010100000100: 528099 519508 595152 516536 549151
0110010011100100110001000: 528099 519508 595152 549362 516536
0110010011100000100001000: 574840 498221 549151 605385 458587
0110010010100010100000100: 574840 549151 498221 595152 458587
0110010010100010100000100: 574840 549151 498221 595152 605385
0110010010100010100000100: 574840 516536 498221 618268 458587
0110010011100000100001000: 574840 516536 498221 460646 618268
0110010010100010100000100: 574840 516536 498221 460646 458587
0110010011100000100001000: 574840 516536 498221 611764 618268
0110010011100000100001000: 574840 516536 498221 611764 460646
0110010010100010100000100: 574840 516536 498221 611764 458587
0110010011100000100001000: 574840 516536 498221 585910 618268
0110010011100000100001000: 574840 516536 498221 585910 460646
0110010011100000100001000: 574840 516536 498221 585910 611764
0110010011100000100001000: 574840 516536 498221 519508 618268
0110010011100000100001000: 574840 516536 498221 519508 460646
0110010011100000100001000: 574840 516536 498221 519508 611764
0110010011100000100001000: 574840 516536 498221 519508 585910
0110010010100010100000100: 574840 516536 498221 519508 458587
0110010010100010100000100: 574840 516536 549151 618268 595152
0110010011100000100001000: 574840 516536 549151 605385 618268
0110010010100010100000100: 574840 516536 549151 605385 595152
0110010011100000100001000: 574840 516536 549151 460646 618268
0110010011100000100001000: 574840 516536 549151 460646 605385
0110010010100010100000100: 574840 516536 549151 460646 595152
0110010011100000100001000: 574840 516536 549151 611764 618268
0110010011100000100001000: 574840 516536 549151 611764 605385
0110010011100000100001000: 574840 516536 549151 611764 460646
0110010011100000100001000: 574840 516536 549151 585910 618268
0110010011100000100001000: 574840 516536 549151 585910 460646
0110010011100000100001000: 574840 516536 549151 585910 611764
0110010011100000100001000: 574840 516536 549151 519508 618268
0110010011100000100001000: 574840 516536 549151 519508 605385
0110010011100000100001000: 574840 516536 549151 519508 460646
0110010011100000100001000: 574840 516536 549151 519508 611764
0110010011100000100001000: 574840 516536 549151 519508 585910
0110010010100010100000100: 574840 516536 549151 519508 595152
0110010011100000100001000: 549151 574840 595152 516536 498221
0110010010100010100000100: 549151 595152 574840 549362 498221
0110010010100010100000100: 549151 595152 574840 549362 516536
0110010011100000100001000: 549151 595152 574840 528897 549362
0110010010100010100000100: 549151 595152 574840 528897 498221
0110010010100010100000100: 549151 595152 574840 528897 516536
0110010011100000100001000: 549151 595152 574840 528099 549362
0110010011100000100001000: 549151 595152 574840 528099 528897
0110010010100010100000100: 549151 595152 574840 528099 498221
0110010010100010100000100: 549151 595152 574840 528099 516536
0110010011100000100001000: 549151 595152 574840 611764 549362
0110010011100000100001000: 549151 595152 574840 611764 528897
0110010011100000100001000: 549151 595152 574840 611764 528099
0110010010100010100000100: 549151 595152 574840 611764 498221
0110010011100000100001000: 549151 595152 574840 585910 549362
0110010011100000100001000: 549151 595152 574840 585910 528099
0110010011100000100001000: 549151 595152 574840 585910 611764
0110010010100010100000100: 549151 595152 574840 585910 498221
0110010010100010100000100: 498221 574840 458587 549151 585910
0110010011100000100001000: 498221 574840 458587 516536 549151
0110010011100000100001000: 498221 605385 458587 460005 549362
0110010011100000100001000: 498221 605385 458587 516536 549362
0110010011100000100001000: 498221 605385 458587 516536 460005
0110010010100010100000100: 498221 605385 574840 549362 549151
0110010011100000100001000: 498221 605385 574840 460005 549362
0110010010100010100000100: 498221 605385 574840 460005 549151
0110010011100000100001000: 498221 605385 574840 585910 549362
0110010011100000100001000: 498221 605385 574840 585910 460005
0110010010100010100000100: 498221 605385 574840 585910 549151
0110010010100010100000100: 460005 605385 618268 549362 514076
0110010011100000100001000: 460005 605385 618268 498221 549362
0110010010100010100000100: 460005 605385 618268 498221 514076
0110010011100000100001000: 460005 605385 618268 585910 549362
0110010011100000100001000: 460005 605385 618268 585910 498221
0110010010100010100000100: 460005 605385 618268 585910 514076
0110010011100000100001000: 618268 514076 460005 460646 528897
0110010010100010100000100: 618268 460005 514076 605385 528897
0110010010100010100000100: 618268 460005 514076 605385 460646
0110010010100010100000100: 618268 516536 514076 574840 528897
0110010011100000100001000: 618268 516536 514076 605385 574840
0110010010100010100000100: 618268 516536 514076 605385 528897
0110010011100000100001000: 618268 516536 514076 611764 574840
0110010011100000100001000: 618268 516536 514076 611764 605385
0110010010100010100000100: 618268 516536 514076 611764 528897
0110010011100000100001000: 618268 516536 514076 585910 574840
0110010011100000100001000: 618268 516536 514076 585910 611764
0110010011100000100001000: 618268 516536 514076 519508 574840
0110010011100000100001000: 618268 516536 514076 519508 605385
0110010011100000100001000: 618268 516536 514076 519508 611764
0110010011100000100001000: 618268 516536 514076 519508 585910
0110010010100010100000100: 618268 516536 514076 519508 528897
0110010011100000100001000: 618268 516536 460005 460646 574840
0110010011100000100001000: 618268 516536 460005 611764 574840
0110010011100000100001000: 618268 516536 460005 611764 460646
0110010011100000100001000: 618268 516536 460005 585910 574840
0110010011100000100001000: 618268 516536 460005 585910 460646
0110010011100000100001000: 618268 516536 460005 585910 611764
0110010011100000100001000: 618268 516536 460005 519508 574840
0110010011100000100001000: 618268 516536 460005 519508 460646
0110010011100000100001000: 618268 516536 460005 519508 611764
0110010011100000100001000: 618268 516536 460005 519508 585910
0110010011100000100001000: 528897 514076 585910 460646 618268
0110010011100000100001000: 528897 514076 595152 460646 618268
0110010010100010100000100: 528897 585910 514076 458587 618268
0110010010100010100000100: 528897 585910 514076 458587 460646
0110010011100000100001000: 528897 585910 514076 605385 458587
0110010010100010100000100: 528897 585910 514076 605385 618268
0110010010100010100000100: 528897 585910 514076 605385 460646
0110010011100000100001000: 528897 585910 514076 516536 458587
0110010010100010100000100: 528897 595152 514076 549362 618268
0110010010100010100000100: 528897 595152 514076 549362 460646
0110010011100000100001000: 528897 595152 514076 549151 549362
0110010010100010100000100: 528897 595152 514076 549151 618268
0110010010100010100000100: 528897 595152 514076 549151 460646
0110010011100000100001000: 528897 595152 514076 528099 549362
0110010011100000100001000: 528897 595152 514076 528099 549151
0110010010100010100000100: 528897 595152 514076 528099 618268
0110010011100000100001000: 528897 595152 514076 611764 549362
0110010011100000100001000: 528897 595152 514076 611764 549151
0110010011100000100001000: 528897 595152 514076 611764 528099
0110010010100010100000100: 528897 595152 514076 611764 618268
0110010010100010100000100: 528897 595152 514076 611764 460646
0111010100110001000100010: 528897 595152 585910 514076 618268
0111010100110001000100010: 528897 595152 585910 514076 460646
0110010010100010100000100: 514076 618268 528897 460005 585910
0110010010100010100000100: 514076 618268 528897 460005 595152
0110010011100000100001000: 514076 618268 528897 516536 460005
0110010010100010100000100: 514076 618268 528897 516536 595152
0110010010100010100000100: 514076 460646 528897 528099 585910
0110010011100000100001000: 514076 460646 528897 516536 528099
0110010010100010100000100: 514076 460646 528897 516536 595152
0110010010100010100000100: 514076 460646 618268 528099 460005
0110010011100000100001000: 549362 605385 595152 498221 460005
0110010011100000100001000: 549362 605385 595152 516536 460005
0110010011100000100001000: 549362 605385 595152 516536 498221
0110010011100000100001000: 549362 605385 519508 498221 460005
0110010011100000100001000: 549362 605385 519508 585910 460005
0110010011100000100001000: 549362 605385 519508 585910 498221
0110010010100010100000100: 549362 595152 605385 528897 460005
0110010010100010100000100: 549362 595152 605385 528897 498221
0110010010100010100000100: 549362 595152 605385 528897 516536
0110010011100000100001000: 549362 595152 605385 549151 528897
0110010010100010100000100: 549362 595152 605385 549151 460005
0110010010100010100000100: 549362 595152 605385 549151 498221
0110010010100010100000100: 549362 595152 605385 549151 516536
0110010011100000100001000: 549362 595152 605385 528099 528897
0110010011100000100001000: 549362 595152 605385 528099 549151
0110010010100010100000100: 549362 595152 605385 528099 460005
0110010010100010100000100: 549362 595152 605385 528099 498221
0110010010100010100000100: 549362 595152 605385 528099 516536
0110010011100000100001000: 549362 595152 605385 611764 528897
0110010011100000100001000: 549362 595152 605385 611764 549151
0110010011100000100001000: 549362 595152 605385 611764 528099
0110010010100010100000100: 549362 595152 605385 611764 460005
0110010010100010100000100: 549362 595152 605385 611764 498221
0110010011100000100001000: 549362 595152 519508 549151 528897
0110010011100000100001000: 549362 595152 519508 611764 528897
0110010011100000100001000: 549362 595152 519508 611764 549151
0110010011100000100001000: 549362 595152 519508 585910 549151
0110010011100000100001000: 549362 595152 519508 585910 611764
0110010010100010100000100: 549362 519508 605385 528099 460005
0110010010100010100000100: 549362 519508 605385 528099 498221
0110010010100010100000100: 549362 519508 605385 528099 585910
0110010010100010100000100: 549362 519508 595152 516536 528897
0110010010100010100000100: 549362 519508 595152 516536 549151
0110010010100010100000100: 458587 585910 498221 528897 574840
0110010010100010100000100: 458587 585910 498221 595152 574840
0110010011100000100001000: 458587 585910 498221 516536 528897
0110010011100000100001000: 458587 585910 498221 516536 595152
