0110010010100010100000100: 493548 627669 583632 561750 654955
0110010011100000100001000: 493548 627669 583632 585085 561750
0110010010100010100000100: 493548 627669 583632 585085 654955
0110010011100000100001000: 627669 561750 585085 571133 492784
0110010011100000100001000: 627669 561750 585085 482496 492784
0110010011100000100001000: 627669 561750 493548 571133 492784
0110010011100000100001000: 627669 561750 493548 482496 492784
0110010010100010100000100: 627669 585085 561750 472078 492784
0110010010100010100000100: 627669 585085 561750 472078 571133
0110010010100010100000100: 627669 585085 561750 472078 482496
0110010010100010100000100: 627669 493548 561750 583632 492784
0110010010100010100000100: 627669 493548 561750 583632 571133
0110010010100010100000100: 627669 493548 561750 583632 482496
0110010010100010100000100: 627669 493548 585085 583632 472078
0110010010100010100000100: 585085 627669 472078 561750 639707
0110010011100000100001000: 585085 627669 472078 493548 561750
0110010010100010100000100: 585085 627669 472078 493548 639707
0111010101110001000001000: 534394 571133 594153 639707 561750
0111010101110001000001000: 534394 571133 594153 639707 482496
0110010010100010100000100: 534394 639707 571133 576104 561750
0110010010100010100000100: 534394 639707 571133 576104 482496
0110010011100000100001000: 534394 639707 571133 472078 576104
0110010010100010100000100: 534394 639707 571133 472078 561750
0110010010100010100000100: 534394 639707 571133 472078 482496
0110010011100000100001000: 534394 639707 594153 472078 576104
0111010100110001000100010: 534394 594153 571133 639707 576104
0111010100110001000100010: 534394 594153 571133 639707 472078
0110010010100010100000100: 639707 472078 576104 585085 492784
0110010010100010100000100: 639707 534394 576104 571133 492784
0110010010100010100000100: 639707 534394 576104 594153 492784
0110010010100010100000100: 639707 534394 472078 571133 585085
0110010010100010100000100: 639707 534394 472078 594153 585085
0110010011100000100001000: 472078 639707 585085 534394 576104
0110010010100010100000100: 472078 585085 639707 627669 576104
0110010010100010100000100: 472078 585085 639707 627669 534394
0110010011100000100001000: 571133 561750 594153 627669 492784
0110010011100000100001000: 571133 561750 534394 627669 492784
0111010101110001000001000: 571133 561750 482496 594153 492784
0111010101110001000001000: 571133 561750 482496 594153 627669
0111010101110001000001000: 571133 561750 482496 534394 492784
0111010101110001000001000: 571133 561750 482496 534394 627669
0111010100110001000100010: 571133 482496 561750 534394 639707
0110010010100010100000100: 571133 534394 561750 639707 492784
0110010010100010100000100: 571133 534394 561750 639707 627669
0111010100110001000100010: 571133 534394 594153 561750 492784
0111010100110001000100010: 571133 534394 594153 561750 627669
0111110100110001000110010: 571133 534394 594153 482496 561750
0110010010100010100000100: 561750 571133 492784 594153 576104
0110010010100010100000100: 561750 571133 492784 534394 576104
0111010100110001000100010: 561750 482496 571133 492784 576104
0111110100110001000010000: 561750 482496 571133 627669 492784
0111010100110001000100010: 561750 482496 571133 627669 585085
0111010100110001000100010: 561750 482496 571133 627669 493548
0110010010100010100000100: 561750 627669 492784 585085 576104
0110010011100000100001000: 561750 627669 492784 493548 585085
0110010010100010100000100: 561750 627669 492784 493548 576104
0110010010100010100000100: 561750 627669 571133 585085 594153
0110010010100010100000100: 561750 627669 571133 585085 534394
0110010011100000100001000: 561750 627669 571133 493548 585085
0110010010100010100000100: 561750 627669 571133 493548 594153
0110010010100010100000100: 561750 627669 571133 493548 534394
0110010011100000100001000: 561750 627669 482496 493548 585085
0110010010100010100000100: 576104 639707 492784 472078 561750
0110010011100000100001000: 576104 639707 492784 534394 472078
0110010010100010100000100: 576104 639707 492784 534394 561750
0110010010100010100000100: 492784 561750 576104 571133 639707
0110010010100010100000100: 492784 561750 576104 482496 639707
0110010011100000100001000: 492784 561750 576104 627669 571133
0110010011100000100001000: 492784 561750 576104 627669 482496
0110010010100010100000100: 492784 561750 576104 627669 639707
