0110100110000100: 566809 520855 506918 639325
0110100010010010: 566809 520855 506918 587624
0110100110000100: 566809 520855 506918 639325
0110100110000100: 566809 520855 506918 639325
0110100110000100: 566809 520855 506918 639325
0110100110000100: 566809 520855 506918 639325
0110100110000100: 566809 520855 506918 639325
0110100110000100: 566809 506918 520855 587624
0110100010010010: 566809 506918 520855 639325
0110100110000100: 566809 506918 520855 587624
0110100110000100: 566809 506918 520855 587624
0110100110000100: 566809 506918 520855 587624
0110100110000100: 566809 506918 520855 587624
0110100110000100: 566809 506918 520855 587624
0110100110000100: 506918 587624 566809 486801
0110100010010010: 506918 587624 566809 520855
0110100110000100: 506918 587624 566809 486801
0110100110000100: 506918 587624 566809 486801
0110100110000100: 506918 587624 566809 486801
0110100110000100: 506918 587624 566809 486801
0110100110000100: 506918 587624 566809 486801
0110100010010010: 506918 566809 587624 486801
0110100110000100: 506918 566809 587624 520855
0110100110000100: 506918 566809 587624 520855
0110100110000100: 506918 566809 587624 520855
0110100110000100: 506918 566809 587624 520855
0110101011010010: 545154 545211 522368 588843
0110101011010010: 545154 545211 522368 588843
0110101111000100: 545154 545211 522368 486801
0110101111000100: 545154 545211 522368 458449
0110101111000100: 545154 545211 522368 561510
0110101111000100: 545154 545211 522368 486801
0110101111000100: 545154 545211 522368 458449
0110101111000100: 545154 545211 522368 561510
0110101111010110: 545154 545211 522368 587392
0110101011010010: 545154 545211 522368 588843
0110101111010110: 545154 545211 522368 587392
0110101111010110: 545154 545211 522368 587392
0110101011010010: 545154 522368 545211 486801
0110101011010010: 545154 522368 545211 458449
0110101011010010: 545154 522368 545211 561510
0110101011010010: 545154 522368 545211 486801
0110101011010010: 545154 522368 545211 458449
0110101011010010: 545154 522368 545211 561510
0110101111000100: 545154 522368 545211 588843
0110101111000100: 545154 522368 545211 588843
0110101111010110: 545154 522368 545211 587392
0110101111010110: 545154 522368 545211 587392
0110101111000100: 545154 522368 545211 588843
0110101111010110: 545154 522368 545211 587392
0111101011001000: 522368 545211 587392 588843
0111101011001000: 522368 545211 545154 588843
0111101111001100: 522368 545211 545154 587392
0111101011001000: 522368 587392 545211 588843
0111100010001000: 522368 545154 588843 587392
0111101011001000: 522368 545154 545211 588843
0110100110000100: 522368 545211 588843 486801
0110100110000100: 522368 545211 588843 458449
0110100110000100: 522368 545211 588843 561510
0110100110000100: 522368 545211 588843 486801
0110100110000100: 522368 545211 588843 458449
0110100110000100: 522368 545211 588843 561510
0110100110000100: 522368 545211 588843 486801
0110100110000100: 522368 545211 588843 458449
0110100110000100: 522368 545211 588843 561510
0111100110001100: 522368 545211 588843 587392
0111100110001100: 522368 545211 588843 545154
0111101011001000: 522368 545211 587392 588843
0110101011010010: 522368 545211 587392 462077
0110101011010010: 522368 545211 587392 567907
0110101011010010: 522368 545211 587392 462077
0110101011010010: 522368 545211 587392 567907
0111101011001000: 522368 545211 587392 588843
0111101011001000: 522368 545211 545154 588843
0111101111001100: 522368 545211 545154 587392
0111101011001000: 522368 545211 587392 588843
0111101011001000: 522368 545211 587392 588843
0110101111000100: 522368 545211 587392 486801
0110101111000100: 522368 545211 587392 458449
0110101111000100: 522368 545211 587392 561510
0110101111000100: 522368 545211 587392 486801
0110101111000100: 522368 545211 587392 458449
0110101111000100: 522368 545211 587392 561510
0111101111001100: 522368 545211 587392 545154
0111101011001000: 522368 545211 587392 588843
0111101111001100: 522368 545211 587392 545154
0110101011010010: 522368 545211 587392 462077
0110101011010010: 522368 545211 587392 567907
0111101011001000: 522368 545211 587392 588843
0111101011001000: 522368 545211 545154 588843
0111101011001000: 522368 545211 545154 588843
0110101111000100: 522368 545211 545154 486801
0110101111000100: 522368 545211 545154 458449
0110101111000100: 522368 545211 545154 561510
0110101111000100: 522368 545211 545154 486801
0110101111000100: 522368 545211 545154 458449
0110101111000100: 522368 545211 545154 561510
0111101111001100: 522368 545211 545154 587392
0111101011001000: 522368 545211 545154 588843
0111101111001100: 522368 545211 545154 587392
0111101111001100: 522368 545211 545154 587392
0110100110000100: 522368 545211 588843 486801
0110100110000100: 522368 545211 588843 458449
0110100110000100: 522368 545211 588843 561510
0110100110000100: 522368 545211 588843 486801
0110100110000100: 522368 545211 588843 458449
0110100110000100: 522368 545211 588843 561510
0111100110001100: 522368 545211 588843 587392
0111100110001100: 522368 545211 588843 545154
0111100110001100: 522368 545211 588843 587392
0111100110001100: 522368 545211 588843 545154
0111100110001100: 522368 545211 588843 587392
0111100110001100: 522368 545211 588843 545154
0111101111001100: 522368 545211 587392 545154
0111101111001100: 522368 545211 587392 545154
0111101011001000: 522368 545211 587392 588843
0111101111001100: 522368 545211 545154 587392
0111101111001100: 522368 545211 545154 587392
0111101011001000: 522368 545211 545154 588843
0111101111001100: 522368 545211 545154 587392
0110100110000100: 522368 587392 588843 462077
0110100110000100: 522368 587392 588843 567907
0111100010001000: 522368 587392 545154 588843
0110100110000100: 522368 587392 545154 462077
0110100110000100: 522368 587392 545154 567907
0110100110000100: 522368 587392 588843 462077
0110100110000100: 522368 587392 588843 567907
0110100110000100: 522368 587392 588843 462077
0110100110000100: 522368 587392 588843 567907
0111100110001100: 522368 587392 588843 545211
0110100110000100: 522368 587392 545154 462077
0110100110000100: 522368 587392 545154 567907
0110100110000100: 522368 587392 545154 462077
0110100110000100: 522368 587392 545154 567907
0111101011001000: 522368 587392 545211 588843
0110101011010010: 522368 587392 545211 486801
0110101011010010: 522368 587392 545211 458449
0110101011010010: 522368 587392 545211 561510
0110101011010010: 522368 587392 545211 486801
0110101011010010: 522368 587392 545211 458449
0110101011010010: 522368 587392 545211 561510
0111101011011010: 522368 587392 545211 545154
0111101011011010: 522368 587392 545211 545154
0111101011011010: 522368 587392 545211 545154
0111101011001000: 522368 587392 545211 588843
0111100010001000: 522368 587392 588843 545154
0111100010001000: 522368 587392 588843 545154
0111100010001000: 522368 587392 545154 588843
0111100010001000: 522368 587392 545154 588843
0111101011001000: 522368 587392 545211 588843
0111101011001000: 522368 587392 545211 588843
0110101111000100: 522368 587392 545211 462077
0110101111000100: 522368 587392 545211 567907
0110101111000100: 522368 587392 545211 462077
0110101111000100: 522368 587392 545211 567907
0111101011001000: 522368 587392 545211 588843
0110101111000100: 522368 587392 545211 462077
0110101111000100: 522368 587392 545211 567907
0111101011001000: 522368 587392 545211 588843
0111101011011010: 522368 587392 545211 545154
0110100110000100: 522368 587392 588843 462077
0110100110000100: 522368 587392 588843 567907
0110100110000100: 522368 587392 588843 462077
0110100110000100: 522368 587392 588843 567907
0111100110001100: 522368 587392 588843 545211
0111100110001100: 522368 587392 588843 545211
0111100110001100: 522368 587392 588843 545211
0111100010001000: 522368 587392 588843 545154
0110100110000100: 522368 587392 545154 462077
0110100110000100: 522368 587392 545154 567907
0110100110000100: 522368 587392 545154 462077
0110100110000100: 522368 587392 545154 567907
0111100010001000: 522368 587392 545154 588843
0111100010001000: 522368 587392 545154 588843
0111100110011110: 522368 587392 545154 545211
0111101011001000: 522368 587392 545211 588843
0111101011001000: 522368 587392 545211 588843
0111101011001000: 522368 587392 545211 588843
0111101011001000: 522368 587392 545211 588843
0111101011011010: 522368 587392 545211 545154
0110100010010010: 522368 588843 545211 486801
0110100010010010: 522368 588843 545211 458449
0110100010010010: 522368 588843 545211 561510
0111100010011010: 522368 588843 545211 587392
0111100010011010: 522368 588843 545211 545154
0110100010010010: 522368 588843 587392 462077
0110100010010010: 522368 588843 587392 567907
0111100010011010: 522368 588843 587392 545211
0111100010001000: 522368 588843 545154 587392
0111100010011010: 522368 588843 545154 545211
0111100010001000: 522368 588843 587392 545154
0110100010010010: 522368 545154 587392 462077
0110100010010010: 522368 545154 587392 567907
0111100010001000: 522368 545154 588843 587392
0111100010001000: 522368 545154 587392 588843
0111100010001000: 522368 545154 588843 587392
0111100010001000: 522368 545154 588843 587392
0111100110001100: 522368 545154 588843 545211
0111101011001000: 522368 545154 545211 588843
0111101011011010: 522368 545154 545211 587392
0111101011011010: 522368 545154 545211 587392
0111101011011010: 522368 545154 545211 587392
0111101011001000: 522368 545154 545211 588843
0111101011001000: 522368 545154 545211 588843
0111101011001000: 522368 545154 545211 588843
0111101011001000: 522368 545154 545211 588843
0111101011001000: 522368 545154 545211 588843
0111101011001000: 522368 545154 545211 588843
0111100010001000: 639325 520855 462077 640483
0101101001001000: 639325 520855 566809 640483
0101101001001000: 639325 520855 566809 462077
0110100110000100: 639325 640483 462077 458449
0110100110000100: 639325 640483 462077 612244
0110100010010010: 639325 640483 462077 561510
0110100010010010: 639325 640483 462077 587392
0111100010001000: 639325 640483 520855 462077
0110100110000100: 639325 640483 520855 458449
0110100110000100: 639325 640483 520855 612244
0110100010010010: 639325 640483 520855 566809
0110100010010010: 639325 640483 520855 566809
0110100110000100: 639325 640483 462077 458449
0110100110000100: 639325 640483 462077 612244
0110100110000100: 639325 640483 462077 458449
0110100110000100: 639325 640483 462077 612244
0110100110000100: 639325 640483 520855 458449
0110100110000100: 639325 640483 520855 612244
0110100110000100: 639325 640483 520855 458449
0110100110000100: 639325 640483 520855 612244
0110100010010010: 639325 640483 520855 566809
0111100010001000: 639325 640483 462077 520855
0111100010001000: 639325 640483 462077 520855
0111100010001000: 639325 640483 462077 520855
0111100010001000: 639325 640483 520855 462077
0111100010001000: 639325 640483 520855 462077
0110100010010010: 639325 640483 520855 566809
0110100110000100: 639325 640483 462077 458449
0110100110000100: 639325 640483 462077 612244
0110100110000100: 639325 640483 462077 458449
0110100110000100: 639325 640483 462077 612244
0111100010001000: 639325 640483 462077 520855
0110100110000100: 639325 640483 462077 458449
0110100110000100: 639325 640483 462077 612244
0110100110000100: 639325 640483 520855 458449
0110100110000100: 639325 640483 520855 612244
0110100110000100: 639325 640483 520855 458449
0110100110000100: 639325 640483 520855 612244
0111100010001000: 639325 640483 520855 462077
0111100010001000: 639325 640483 520855 462077
0110100010010010: 639325 640483 520855 566809
0110100010010010: 639325 640483 520855 566809
0110100110000100: 639325 462077 640483 561510
0110100110000100: 639325 462077 640483 587392
0110100010010010: 639325 462077 640483 458449
0110100010010010: 639325 462077 640483 612244
0111100010001000: 639325 462077 520855 640483
0110100110000100: 639325 462077 520855 561510
0110100110000100: 639325 462077 520855 587392
0110100010010010: 639325 462077 520855 566809
0110100010010010: 639325 462077 520855 566809
0111100010001000: 639325 462077 640483 520855
0110100110000100: 639325 462077 640483 561510
0110100110000100: 639325 462077 640483 587392
0110100110000100: 639325 462077 640483 561510
0110100110000100: 639325 462077 640483 587392
0110100110000100: 639325 462077 520855 561510
0110100110000100: 639325 462077 520855 587392
0110100110000100: 639325 462077 520855 561510
0110100110000100: 639325 462077 520855 587392
0110100010010010: 639325 462077 520855 566809
0111100010001000: 639325 462077 640483 520855
0111100010001000: 639325 462077 640483 520855
0111100010001000: 639325 462077 640483 520855
0111100010001000: 639325 462077 520855 640483
0111100010001000: 639325 462077 520855 640483
0110100010010010: 639325 462077 520855 566809
0110100110000100: 639325 462077 640483 561510
0110100110000100: 639325 462077 640483 587392
0110100110000100: 639325 462077 640483 561510
0110100110000100: 639325 462077 640483 587392
0111100010001000: 639325 462077 640483 520855
0110100110000100: 639325 462077 640483 561510
0110100110000100: 639325 462077 640483 587392
0110100110000100: 639325 462077 520855 561510
0110100110000100: 639325 462077 520855 587392
0110100110000100: 639325 462077 520855 561510
0110100110000100: 639325 462077 520855 587392
0111100010001000: 639325 462077 520855 640483
0111100010001000: 639325 462077 520855 640483
0110100010010010: 639325 462077 520855 566809
0110100010010010: 639325 462077 520855 566809
0110100110000100: 639325 520855 640483 566809
0110100010010010: 639325 520855 640483 458449
0110100010010010: 639325 520855 640483 612244
0111100010001000: 639325 520855 462077 640483
0110100110000100: 639325 520855 462077 566809
0110100010010010: 639325 520855 462077 561510
0110100010010010: 639325 520855 462077 587392
0111100010001000: 639325 520855 640483 462077
0110100110000100: 639325 520855 640483 566809
0110100110000100: 639325 520855 640483 566809
0110100110000100: 639325 520855 640483 566809
0111100010001000: 639325 520855 462077 640483
0111100010001000: 639325 520855 462077 640483
0110100110000100: 639325 520855 462077 566809
0110100110000100: 639325 520855 462077 566809
0110100110000100: 639325 520855 462077 566809
0101101001001000: 639325 520855 566809 640483
0101101001001000: 639325 520855 566809 462077
0100101001010010: 639325 520855 566809 506918
0100101001010010: 639325 520855 566809 506918
0100101001010010: 639325 520855 566809 506918
0110100010010010: 520855 639325 566809 506918
0110100110000100: 520855 639325 566809 640483
0110100110000100: 520855 639325 566809 462077
0110100010010010: 520855 639325 566809 506918
0110100110000100: 520855 639325 566809 640483
0110100110000100: 520855 639325 566809 462077
0110100110000100: 520855 639325 566809 640483
0110100110000100: 520855 639325 566809 462077
0110100010010010: 520855 639325 566809 506918
0110100010010010: 520855 566809 639325 640483
0110100010010010: 520855 566809 639325 462077
0110100110000100: 520855 566809 639325 506918
0110100110000100: 520855 566809 639325 506918
0110100110000100: 520855 566809 639325 506918
0110100110000100: 520855 566809 639325 506918
0110100110000100: 539750 486801 567907 587624
0110100110000100: 539750 486801 567907 545211
0110100010010010: 539750 486801 567907 561510
0110100010010010: 539750 486801 567907 587392
0110100110000100: 539750 486801 567907 587624
0110100110000100: 539750 486801 567907 545211
0110100110000100: 539750 486801 567907 587624
0110100110000100: 539750 486801 567907 545211
0110100110000100: 539750 486801 567907 587624
0110100110000100: 539750 486801 567907 545211
0110100110000100: 539750 486801 567907 587624
0110100110000100: 539750 486801 567907 545211
0110100110000100: 539750 486801 567907 587624
0110100110000100: 539750 486801 567907 545211
0110100110000100: 539750 567907 486801 561510
0110100110000100: 539750 567907 486801 587392
0110100010010010: 539750 567907 486801 587624
0110100010010010: 539750 567907 486801 545211
0110100110000100: 539750 567907 486801 561510
0110100110000100: 539750 567907 486801 587392
0110100110000100: 539750 567907 486801 561510
0110100110000100: 539750 567907 486801 587392
0110100110000100: 539750 567907 486801 561510
0110100110000100: 539750 567907 486801 587392
0110100110000100: 539750 567907 486801 561510
0110100110000100: 539750 567907 486801 587392
0110100110000100: 539750 567907 486801 561510
0110100110000100: 539750 567907 486801 587392
0110100110010110: 567907 587392 561510 545211
0110100110010110: 567907 587392 561510 462077
0111100010001000: 567907 539750 587392 561510
0101101001001000: 567907 539750 486801 561510
0101101001001000: 567907 539750 486801 587392
0110100110000100: 567907 561510 587392 612244
0110100010010010: 567907 561510 587392 522368
0110100110010110: 567907 561510 587392 545211
0110100110010110: 567907 561510 587392 462077
0110100110010110: 567907 561510 587392 545211
0110100110010110: 567907 561510 587392 462077
0111100010001000: 567907 561510 539750 587392
0110100110000100: 567907 561510 539750 545211
0110100110000100: 567907 561510 539750 612244
0110100110000100: 567907 561510 539750 462077
0110100010010010: 567907 561510 539750 486801
0110100010010010: 567907 561510 539750 486801
0110100110000100: 567907 561510 587392 612244
0110100110000100: 567907 561510 587392 612244
0110100110010110: 567907 561510 587392 545211
0110100110010110: 567907 561510 587392 462077
0110100110000100: 567907 561510 539750 545211
0110100110000100: 567907 561510 539750 612244
0110100110000100: 567907 561510 539750 462077
0110100110000100: 567907 561510 539750 545211
0110100110000100: 567907 561510 539750 612244
0110100110000100: 567907 561510 539750 462077
0110100010010010: 567907 561510 539750 486801
0111100010001000: 567907 561510 587392 539750
0111100010001000: 567907 561510 587392 539750
0111100010001000: 567907 561510 587392 539750
0111100010001000: 567907 561510 539750 587392
0111100010001000: 567907 561510 539750 587392
0110100010010010: 567907 561510 539750 486801
0110100110000100: 567907 561510 587392 612244
0110100110000100: 567907 561510 587392 612244
0111100010001000: 567907 561510 587392 539750
0110100110010110: 567907 561510 587392 545211
0110100110010110: 567907 561510 587392 462077
0110100110000100: 567907 561510 587392 612244
0110100110000100: 567907 561510 539750 545211
0110100110000100: 567907 561510 539750 612244
0110100110000100: 567907 561510 539750 462077
0110100110000100: 567907 561510 539750 545211
0110100110000100: 567907 561510 539750 612244
0110100110000100: 567907 561510 539750 462077
0111100010001000: 567907 561510 539750 587392
0111100010001000: 567907 561510 539750 587392
0110100010010010: 567907 561510 539750 486801
0110100010010010: 567907 561510 539750 486801
0110100110000100: 567907 587392 561510 522368
0110100010010010: 567907 587392 561510 612244
0110100110010110: 567907 587392 561510 545211
0110100110010110: 567907 587392 561510 462077
0110100110010110: 567907 587392 561510 545211
0110100110010110: 567907 587392 561510 462077
0111100010001000: 567907 587392 539750 561510
0110100110000100: 567907 587392 539750 545211
0110100110000100: 567907 587392 539750 462077
0110100110000100: 567907 587392 539750 522368
0110100010010010: 567907 587392 539750 486801
0110100010010010: 567907 587392 539750 486801
0111100010001000: 567907 587392 561510 539750
0110100110000100: 567907 587392 561510 522368
0110100110000100: 567907 587392 561510 522368
0110100110010110: 567907 587392 561510 545211
0110100110010110: 567907 587392 561510 462077
0110100110010110: 567907 587392 561510 545211
0110100110010110: 567907 587392 561510 462077
0110100110010110: 567907 587392 561510 545211
0110100110010110: 567907 587392 561510 462077
0110100110000100: 567907 587392 539750 545211
0110100110000100: 567907 587392 539750 462077
0110100110000100: 567907 587392 539750 522368
0110100110000100: 567907 587392 539750 545211
0110100110000100: 567907 587392 539750 462077
0110100110000100: 567907 587392 539750 522368
0110100010010010: 567907 587392 539750 486801
0111100010001000: 567907 587392 561510 539750
0111100010001000: 567907 587392 561510 539750
0111100010001000: 567907 587392 561510 539750
0111100010001000: 567907 587392 539750 561510
0111100010001000: 567907 587392 539750 561510
0110100010010010: 567907 587392 539750 486801
0110100110000100: 567907 587392 561510 522368
0110100110000100: 567907 587392 561510 522368
0111100010001000: 567907 587392 561510 539750
0110100110010110: 567907 587392 561510 545211
0110100110010110: 567907 587392 561510 462077
0110100110000100: 567907 587392 561510 522368
0110100110000100: 567907 587392 539750 545211
0110100110000100: 567907 587392 539750 462077
0110100110000100: 567907 587392 539750 522368
0110100110000100: 567907 587392 539750 545211
0110100110000100: 567907 587392 539750 462077
0110100110000100: 567907 587392 539750 522368
0111100010001000: 567907 587392 539750 561510
0111100010001000: 567907 587392 539750 561510
0110100010010010: 567907 587392 539750 486801
0110100010010010: 567907 587392 539750 486801
0110100010010010: 567907 539750 561510 545211
0110100010010010: 567907 539750 561510 612244
0110100010010010: 567907 539750 561510 462077
0111100010001000: 567907 539750 587392 561510
0110100010010010: 567907 539750 587392 545211
0110100010010010: 567907 539750 587392 462077
0110100010010010: 567907 539750 587392 522368
0111100010001000: 567907 539750 561510 587392
0110100110000100: 567907 539750 561510 486801
0110100110000100: 567907 539750 561510 486801
0111100010001000: 567907 539750 587392 561510
0111100010001000: 567907 539750 587392 561510
0110100110000100: 567907 539750 587392 486801
0110100110000100: 567907 539750 587392 486801
0101101001001000: 567907 539750 486801 561510
0101101001001000: 567907 539750 486801 587392
0100101001010010: 567907 539750 486801 587624
0100101001010010: 567907 539750 486801 545211
0100101001010010: 567907 539750 486801 587624
0100101001010010: 567907 539750 486801 545211
0101101001001000: 567907 539750 486801 561510
0101101001001000: 567907 539750 486801 587392
0101101001001000: 567907 539750 486801 561510
0101101001001000: 567907 539750 486801 587392
0111101011001000: 587392 545211 522368 462077
0111101011001000: 587392 545211 522368 567907
0110100110010110: 587392 462077 545211 561510
0101101001001000: 587392 462077 561510 522368
0101101001001000: 587392 462077 639325 545211
0101101001001000: 587392 462077 639325 567907
0101101001001000: 587392 462077 639325 522368
0100101101000100: 587392 462077 639325 561510
0110100110010110: 587392 567907 545211 561510
0111100010001000: 587392 567907 462077 545211
0110100110010110: 587392 567907 462077 561510
0101101001001000: 587392 567907 561510 522368
0101101001001000: 587392 567907 539750 545211
0101101001001000: 587392 567907 539750 462077
0101101001001000: 587392 567907 539750 522368
0100101101000100: 587392 567907 539750 561510
0111100010001000: 587392 522368 567907 462077
0111101011001000: 587392 522368 545211 462077
0111101011001000: 587392 522368 545211 567907
0110100110000100: 587392 545211 462077 486801
0110100110000100: 587392 545211 462077 458449
0110100110000100: 587392 545211 462077 545154
0110100010010010: 587392 545211 462077 639325
0110100010010010: 587392 545211 462077 639325
0110100110010110: 587392 545211 462077 561510
0110100110010110: 587392 545211 462077 561510
0111100010001000: 587392 545211 567907 462077
0110100110000100: 587392 545211 567907 486801
0110100110000100: 587392 545211 567907 458449
0110100110000100: 587392 545211 567907 545154
0110100010010010: 587392 545211 567907 539750
0110100010010010: 587392 545211 567907 539750
0110100110010110: 587392 545211 567907 561510
0110100110010110: 587392 545211 567907 561510
0110100110000100: 587392 545211 462077 486801
0110100110000100: 587392 545211 462077 458449
0110100110000100: 587392 545211 462077 545154
0110100110000100: 587392 545211 462077 486801
0110100110000100: 587392 545211 462077 458449
0110100110000100: 587392 545211 462077 545154
0111100110001100: 587392 545211 462077 522368
0110100010010010: 587392 545211 462077 639325
0110100110010110: 587392 545211 462077 561510
0110100110000100: 587392 545211 567907 486801
0110100110000100: 587392 545211 567907 458449
0110100110000100: 587392 545211 567907 545154
0110100110000100: 587392 545211 567907 486801
0110100110000100: 587392 545211 567907 458449
0110100110000100: 587392 545211 567907 545154
0111100110001100: 587392 545211 567907 522368
0110100010010010: 587392 545211 567907 539750
0110100110010110: 587392 545211 567907 561510
0111101011001000: 587392 545211 522368 462077
0111101011001000: 587392 545211 522368 567907
0110101011010010: 587392 545211 522368 588843
0110101011010010: 587392 545211 522368 588843
0111101011001000: 587392 545211 522368 462077
0111101011001000: 587392 545211 522368 567907
0111100010001000: 587392 545211 462077 567907
0111100010001000: 587392 545211 462077 567907
0110100010010010: 587392 545211 462077 639325
0111100010001000: 587392 545211 567907 462077
0111100010001000: 587392 545211 567907 462077
0110100010010010: 587392 545211 567907 539750
0111101011001000: 587392 545211 522368 462077
0111101011001000: 587392 545211 522368 567907
0111101011001000: 587392 545211 522368 462077
0111101011001000: 587392 545211 522368 567907
0110101111000100: 587392 545211 522368 486801
0110101111000100: 587392 545211 522368 458449
0110101111000100: 587392 545211 522368 561510
0110101111000100: 587392 545211 522368 486801
0110101111000100: 587392 545211 522368 458449
0110101111000100: 587392 545211 522368 561510
0111101011001000: 587392 545211 522368 462077
0111101011001000: 587392 545211 522368 567907
0110101111010110: 587392 545211 522368 545154
0110101011010010: 587392 545211 522368 588843
0110101111010110: 587392 545211 522368 545154
0111101011001000: 587392 545211 522368 462077
0111101011001000: 587392 545211 522368 567907
0110100110000100: 587392 545211 462077 486801
0110100110000100: 587392 545211 462077 458449
0110100110000100: 587392 545211 462077 545154
0110100110000100: 587392 545211 462077 486801
0110100110000100: 587392 545211 462077 458449
0110100110000100: 587392 545211 462077 545154
0111100110001100: 587392 545211 462077 522368
0111100110001100: 587392 545211 462077 522368
0111100110001100: 587392 545211 462077 522368
0111100010001000: 587392 545211 462077 567907
0110100010010010: 587392 545211 462077 639325
0110100110010110: 587392 545211 462077 561510
0110100010010010: 587392 545211 462077 639325
0110100110010110: 587392 545211 462077 561510
0110100110000100: 587392 545211 567907 486801
0110100110000100: 587392 545211 567907 458449
0110100110000100: 587392 545211 567907 545154
0110100110000100: 587392 545211 567907 486801
0110100110000100: 587392 545211 567907 458449
0110100110000100: 587392 545211 567907 545154
0111100110001100: 587392 545211 567907 522368
0111100110001100: 587392 545211 567907 522368
0111100110001100: 587392 545211 567907 522368
0111100010001000: 587392 545211 567907 462077
0111100010001000: 587392 545211 567907 462077
0110100010010010: 587392 545211 567907 539750
0110100110010110: 587392 545211 567907 561510
0110100010010010: 587392 545211 567907 539750
0110100110010110: 587392 545211 567907 561510
0111101011001000: 587392 545211 522368 462077
0111101011001000: 587392 545211 522368 567907
0110100110000100: 587392 462077 545211 639325
0110100010010010: 587392 462077 545211 486801
0110100010010010: 587392 462077 545211 458449
0110100010010010: 587392 462077 545211 545154
0111100010011010: 587392 462077 545211 522368
0110100110010110: 587392 462077 545211 561510
0110100110010110: 587392 462077 545211 561510
0111100010001000: 587392 462077 567907 545211
0110100110000100: 587392 462077 567907 639325
0110100010010010: 587392 462077 567907 539750
0110100010010010: 587392 462077 567907 539750
0110100110010110: 587392 462077 567907 561510
0110100110010110: 587392 462077 567907 561510
0111100010001000: 587392 462077 522368 567907
0110100110000100: 587392 462077 522368 561510
0110100110000100: 587392 462077 522368 639325
0110100010010010: 587392 462077 522368 588843
0110100010010010: 587392 462077 522368 545154
0111100010011010: 587392 462077 522368 545211
0111100010001000: 587392 462077 545211 567907
0110100110000100: 587392 462077 545211 639325
0110100110000100: 587392 462077 545211 639325
0110100110000100: 587392 462077 545211 639325
0110100110010110: 587392 462077 545211 561510
0110100110010110: 587392 462077 545211 561510
0110100110010110: 587392 462077 545211 561510
0110100110000100: 587392 462077 567907 639325
0110100110000100: 587392 462077 567907 639325
0110100110000100: 587392 462077 567907 639325
0110100110010110: 587392 462077 567907 561510
0110100110000100: 587392 462077 522368 561510
0110100110000100: 587392 462077 522368 639325
0110100110000100: 587392 462077 522368 561510
0110100110000100: 587392 462077 522368 639325
0110100110000100: 587392 462077 522368 561510
0110100110000100: 587392 462077 522368 639325
0101101001001000: 587392 462077 561510 522368
0100101001010010: 587392 462077 561510 612244
0100101001010010: 587392 462077 561510 612244
0101101001011010: 587392 462077 561510 545211
0101101001011010: 587392 462077 561510 567907
0101101001011010: 587392 462077 561510 545211
0101101001011010: 587392 462077 561510 567907
0101101001011010: 587392 462077 561510 545211
0101101001011010: 587392 462077 561510 567907
0101101001001000: 587392 462077 561510 522368
0101101001001000: 587392 462077 639325 545211
0101101001001000: 587392 462077 639325 567907
0101101001001000: 587392 462077 639325 522368
0100101001010010: 587392 462077 639325 640483
0100101001010010: 587392 462077 639325 520855
0100101001010010: 587392 462077 639325 640483
0100101001010010: 587392 462077 639325 520855
0100101101000100: 587392 462077 639325 561510
0100101001010010: 587392 462077 639325 640483
0100101001010010: 587392 462077 639325 520855
0110100010010010: 587392 567907 545211 486801
0110100010010010: 587392 567907 545211 458449
0110100010010010: 587392 567907 545211 545154
0111100010011010: 587392 567907 545211 522368
0110100110010110: 587392 567907 545211 561510
0111100010001000: 587392 567907 462077 545211
0110100010010010: 587392 567907 462077 639325
0110100010010010: 587392 567907 462077 639325
0110100110010110: 587392 567907 462077 561510
0111100010001000: 587392 567907 522368 462077
0110100010010010: 587392 567907 522368 588843
0110100010010010: 587392 567907 522368 545154
0111100010011010: 587392 567907 522368 545211
0111100010001000: 587392 567907 545211 462077
0110100110000100: 587392 567907 545211 539750
0110100110000100: 587392 567907 545211 539750
0110100110010110: 587392 567907 545211 561510
0110100110010110: 587392 567907 545211 561510
0111100010001000: 587392 567907 462077 545211
0111100010001000: 587392 567907 462077 522368
0111100010001000: 587392 567907 462077 545211
0110100110000100: 587392 567907 462077 539750
0110100110000100: 587392 567907 462077 539750
0110100110010110: 587392 567907 462077 561510
0110100110010110: 587392 567907 462077 561510
0110100110000100: 587392 567907 522368 561510
0110100110000100: 587392 567907 522368 539750
0110100110000100: 587392 567907 522368 561510
0110100110000100: 587392 567907 522368 539750
0101101001001000: 587392 567907 561510 522368
0100101001010010: 587392 567907 561510 612244
0100101001010010: 587392 567907 561510 612244
0101101001011010: 587392 567907 561510 545211
0101101001011010: 587392 567907 561510 462077
0101101001011010: 587392 567907 561510 545211
0101101001011010: 587392 567907 561510 462077
0101101001011010: 587392 567907 561510 545211
0101101001011010: 587392 567907 561510 462077
0101101001001000: 587392 567907 561510 522368
0101101001001000: 587392 567907 539750 545211
0101101001001000: 587392 567907 539750 462077
0101101001001000: 587392 567907 539750 522368
0100101001010010: 587392 567907 539750 486801
0100101001010010: 587392 567907 539750 486801
0100101101000100: 587392 567907 539750 561510
0100101001010010: 587392 567907 539750 486801
0100101001010010: 587392 567907 539750 486801
0110100010010010: 587392 522368 462077 561510
0110100010010010: 587392 522368 462077 639325
0110100010010010: 587392 522368 462077 561510
0110100010010010: 587392 522368 462077 639325
0111100010001000: 587392 522368 567907 462077
0110100010010010: 587392 522368 567907 561510
0110100010010010: 587392 522368 567907 539750
0110100010010010: 587392 522368 567907 561510
0110100010010010: 587392 522368 567907 539750
0111100010001000: 587392 522368 462077 567907
0110100110000100: 587392 522368 462077 588843
0110100110000100: 587392 522368 462077 545154
0111100110001100: 587392 522368 462077 545211
0110100010010010: 587392 522368 462077 561510
0110100010010010: 587392 522368 462077 639325
0111100010001000: 587392 522368 567907 462077
0111100010001000: 587392 522368 567907 462077
0110100110000100: 587392 522368 567907 588843
0110100110000100: 587392 522368 567907 545154
0111100110001100: 587392 522368 567907 545211
0110100010010010: 587392 522368 567907 561510
0110100010010010: 587392 522368 567907 539750
0111101011001000: 587392 522368 545211 462077
0111101011001000: 587392 522368 545211 567907
0111101011001000: 587392 522368 545211 462077
0111101011001000: 587392 522368 545211 567907
0111101011001000: 587392 522368 545211 462077
0111101011001000: 587392 522368 545211 567907
0111100010001000: 587392 522368 462077 567907
0111100010001000: 587392 522368 462077 567907
0110100010010010: 587392 522368 462077 561510
0110100010010010: 587392 522368 462077 639325
0111100010001000: 587392 522368 567907 462077
0111100010001000: 587392 522368 567907 462077
0110100010010010: 587392 522368 567907 561510
0110100010010010: 587392 522368 567907 539750
0111101011001000: 587392 522368 545211 462077
0111101011001000: 587392 522368 545211 567907
0111101011001000: 587392 522368 545211 462077
0111101011001000: 587392 522368 545211 567907
0110101111000100: 587392 522368 545211 588843
0110101111000100: 587392 522368 545211 588843
0111101011001000: 587392 522368 545211 462077
0111101011001000: 587392 522368 545211 567907
0110101111010110: 587392 522368 545211 545154
0110101111010110: 587392 522368 545211 545154
0110101111000100: 587392 522368 545211 588843
0111101011001000: 587392 522368 545211 462077
0111101011001000: 587392 522368 545211 567907
0110100110000100: 587392 522368 462077 588843
0110100110000100: 587392 522368 462077 545154
0110100110000100: 587392 522368 462077 588843
0110100110000100: 587392 522368 462077 545154
0111100110001100: 587392 522368 462077 545211
0111100110001100: 587392 522368 462077 545211
0111100110001100: 587392 522368 462077 545211
0111100010001000: 587392 522368 462077 567907
0110100010010010: 587392 522368 462077 561510
0110100010010010: 587392 522368 462077 639325
0110100010010010: 587392 522368 462077 561510
0110100010010010: 587392 522368 462077 639325
0110100110000100: 587392 522368 567907 588843
0110100110000100: 587392 522368 567907 545154
0110100110000100: 587392 522368 567907 588843
0110100110000100: 587392 522368 567907 545154
0111100110001100: 587392 522368 567907 545211
0111100110001100: 587392 522368 567907 545211
0111100110001100: 587392 522368 567907 545211
0111100010001000: 587392 522368 567907 462077
0111100010001000: 587392 522368 567907 462077
0110100010010010: 587392 522368 567907 561510
0110100010010010: 587392 522368 567907 539750
0110100010010010: 587392 522368 567907 561510
0110100010010010: 587392 522368 567907 539750
0111101011001000: 587392 522368 545211 462077
0111101011001000: 587392 522368 545211 567907
0111101011001000: 587392 522368 545211 462077
0111101011001000: 587392 522368 545211 567907
0111101011001000: 587392 522368 545211 462077
0111101011001000: 587392 522368 545211 567907
0111101011001000: 587392 522368 545211 462077
0111101011001000: 587392 522368 545211 567907
0110100110010110: 462077 587392 561510 545211
0110100110010110: 462077 587392 561510 567907
0111100010001000: 462077 639325 587392 561510
0110100110000100: 462077 561510 587392 612244
0110100010010010: 462077 561510 587392 522368
0110100110010110: 462077 561510 587392 545211
0110100110010110: 462077 561510 587392 567907
0110100110010110: 462077 561510 587392 545211
0110100110010110: 462077 561510 587392 567907
0111100010001000: 462077 561510 639325 587392
0110100110000100: 462077 561510 639325 545211
0110100110000100: 462077 561510 639325 612244
0110100110000100: 462077 561510 639325 567907
0110100010010010: 462077 561510 639325 640483
0110100010010010: 462077 561510 639325 520855
0110100110000100: 462077 561510 587392 612244
0110100110000100: 462077 561510 587392 612244
0110100110010110: 462077 561510 587392 545211
0110100110010110: 462077 561510 587392 567907
0110100110000100: 462077 561510 639325 545211
0110100110000100: 462077 561510 639325 612244
0110100110000100: 462077 561510 639325 567907
0110100110000100: 462077 561510 639325 545211
0110100110000100: 462077 561510 639325 612244
0110100110000100: 462077 561510 639325 567907
0110100010010010: 462077 561510 639325 640483
0110100010010010: 462077 561510 639325 520855
0111100010001000: 462077 561510 587392 639325
0111100010001000: 462077 561510 587392 639325
0111100010001000: 462077 561510 587392 639325
0111100010001000: 462077 561510 639325 587392
0111100010001000: 462077 561510 639325 587392
0111100010001000: 462077 561510 639325 587392
0110100110000100: 462077 561510 587392 612244
0110100110000100: 462077 561510 587392 612244
0111100010001000: 462077 561510 587392 639325
0110100110010110: 462077 561510 587392 545211
0110100110010110: 462077 561510 587392 567907
0110100110000100: 462077 561510 587392 612244
0110100110000100: 462077 561510 639325 545211
0110100110000100: 462077 561510 639325 612244
0110100110000100: 462077 561510 639325 567907
0110100110000100: 462077 561510 639325 545211
0110100110000100: 462077 561510 639325 612244
0110100110000100: 462077 561510 639325 567907
0111100010001000: 462077 561510 639325 587392
0111100010001000: 462077 561510 639325 587392
0110100010010010: 462077 561510 639325 640483
0110100010010010: 462077 561510 639325 520855
0110100010010010: 462077 587392 561510 612244
0110100110010110: 462077 587392 561510 545211
0110100110010110: 462077 587392 561510 567907
0111100010001000: 462077 587392 639325 561510
0110100010010010: 462077 587392 639325 640483
0110100010010010: 462077 587392 639325 520855
0111100010001000: 462077 587392 561510 639325
0110100110000100: 462077 587392 561510 522368
0110100110010110: 462077 587392 561510 545211
0110100110010110: 462077 587392 561510 567907
0110100110010110: 462077 587392 561510 545211
0110100110010110: 462077 587392 561510 567907
0110100110000100: 462077 587392 639325 545211
0110100110000100: 462077 587392 639325 567907
0110100110000100: 462077 587392 639325 522368
0110100010010010: 462077 587392 639325 640483
0110100010010010: 462077 587392 639325 520855
0111100010001000: 462077 587392 561510 639325
0111100010001000: 462077 587392 561510 639325
0111100010001000: 462077 587392 561510 639325
0111100010001000: 462077 587392 639325 561510
0111100010001000: 462077 587392 639325 561510
0111100010001000: 462077 587392 639325 561510
0110100110000100: 462077 587392 561510 522368
0110100110000100: 462077 587392 561510 522368
0111100010001000: 462077 587392 561510 639325
0110100110010110: 462077 587392 561510 545211
0110100110010110: 462077 587392 561510 567907
0110100110000100: 462077 587392 561510 522368
0110100110000100: 462077 587392 639325 545211
0110100110000100: 462077 587392 639325 567907
0110100110000100: 462077 587392 639325 522368
0110100110000100: 462077 587392 639325 545211
0110100110000100: 462077 587392 639325 567907
0110100110000100: 462077 587392 639325 522368
0111100010001000: 462077 587392 639325 561510
0111100010001000: 462077 587392 639325 561510
0110100010010010: 462077 587392 639325 640483
0110100010010010: 462077 587392 639325 520855
0110100010010010: 462077 639325 561510 545211
0110100010010010: 462077 639325 561510 612244
0110100010010010: 462077 639325 561510 567907
0111100010001000: 462077 639325 587392 561510
0110100010010010: 462077 639325 587392 545211
0110100010010010: 462077 639325 587392 567907
0110100010010010: 462077 639325 587392 522368
0111100010001000: 462077 639325 561510 587392
0110100110000100: 462077 639325 561510 640483
0110100110000100: 462077 639325 561510 520855
0111100010001000: 462077 639325 587392 561510
0111100010001000: 462077 639325 587392 561510
0110100110000100: 462077 639325 587392 640483
0110100110000100: 462077 639325 587392 520855
0111100010001000: 462077 639325 561510 587392
0111100010001000: 462077 639325 561510 587392
0111100010001000: 462077 639325 561510 587392
0111100010001000: 462077 639325 587392 561510
0111100010001000: 462077 639325 587392 561510
0111100010001000: 462077 639325 587392 561510
0110100110000100: 462077 639325 561510 640483
0110100110000100: 462077 639325 561510 520855
0110100110000100: 462077 639325 561510 640483
0110100110000100: 462077 639325 561510 520855
0111100010001000: 462077 639325 561510 587392
0110100110000100: 462077 639325 561510 640483
0110100110000100: 462077 639325 561510 520855
0110100110000100: 462077 639325 587392 640483
0110100110000100: 462077 639325 587392 520855
0110100110000100: 462077 639325 587392 640483
0110100110000100: 462077 639325 587392 520855
0111100010001000: 462077 639325 587392 561510
0111100010001000: 462077 639325 587392 561510
0110100110000100: 462077 639325 587392 640483
0110100110000100: 462077 639325 587392 520855
0101101001001000: 561510 612244 640483 545211
0101101001001000: 561510 612244 640483 462077
0101101001001000: 561510 612244 640483 567907
0110100110010110: 561510 462077 545211 587392
0111100010001000: 561510 462077 612244 545211
0101101001001000: 561510 462077 587392 612244
0101101001001000: 561510 462077 639325 545211
0101101001001000: 561510 462077 639325 612244
0101101001001000: 561510 462077 639325 567907
0100101101000100: 561510 462077 639325 587392
0110100110010110: 561510 567907 545211 587392
0111100010001000: 561510 567907 612244 545211
0111100010001000: 561510 567907 462077 545211
0111100010001000: 561510 567907 462077 612244
0110100110010110: 561510 567907 462077 587392
0101101001001000: 561510 567907 587392 612244
0101101001001000: 561510 567907 539750 545211
0101101001001000: 561510 567907 539750 612244
0101101001001000: 561510 567907 539750 462077
0100101101000100: 561510 567907 539750 587392
0110100110000100: 561510 545211 612244 486801
0110100110000100: 561510 545211 612244 458449
0110100110000100: 561510 545211 612244 587392
0110100110000100: 561510 545211 612244 522368
0110100110000100: 561510 545211 612244 545154
0110100010010010: 561510 545211 612244 640483
0110100010010010: 561510 545211 612244 640483
0111100010001000: 561510 545211 462077 612244
0110100110000100: 561510 545211 462077 486801
0110100110000100: 561510 545211 462077 458449
0110100110000100: 561510 545211 462077 522368
0110100110000100: 561510 545211 462077 545154
0110100010010010: 561510 545211 462077 639325
0110100010010010: 561510 545211 462077 639325
0110100110010110: 561510 545211 462077 587392
0110100110010110: 561510 545211 462077 587392
0111100010001000: 561510 545211 567907 612244
0111100010001000: 561510 545211 567907 462077
0110100110000100: 561510 545211 567907 486801
0110100110000100: 561510 545211 567907 458449
0110100110000100: 561510 545211 567907 522368
0110100110000100: 561510 545211 567907 545154
0110100010010010: 561510 545211 567907 539750
0110100010010010: 561510 545211 567907 539750
0110100110010110: 561510 545211 567907 587392
0110100110010110: 561510 545211 567907 587392
0110100110000100: 561510 545211 612244 486801
0110100110000100: 561510 545211 612244 458449
0110100110000100: 561510 545211 612244 587392
0110100110000100: 561510 545211 612244 522368
0110100110000100: 561510 545211 612244 545154
0110100110000100: 561510 545211 612244 486801
0110100110000100: 561510 545211 612244 458449
0110100110000100: 561510 545211 612244 587392
0110100110000100: 561510 545211 612244 522368
0110100110000100: 561510 545211 612244 545154
0110100010010010: 561510 545211 612244 640483
0110100110000100: 561510 545211 462077 486801
0110100110000100: 561510 545211 462077 458449
0110100110000100: 561510 545211 462077 522368
0110100110000100: 561510 545211 462077 545154
0110100110000100: 561510 545211 462077 486801
0110100110000100: 561510 545211 462077 458449
0110100110000100: 561510 545211 462077 522368
0110100110000100: 561510 545211 462077 545154
0110100010010010: 561510 545211 462077 639325
0110100110010110: 561510 545211 462077 587392
0110100110000100: 561510 545211 567907 486801
0110100110000100: 561510 545211 567907 458449
0110100110000100: 561510 545211 567907 522368
0110100110000100: 561510 545211 567907 545154
0110100110000100: 561510 545211 567907 486801
0110100110000100: 561510 545211 567907 458449
0110100110000100: 561510 545211 567907 522368
0110100110000100: 561510 545211 567907 545154
0110100010010010: 561510 545211 567907 539750
0110100110010110: 561510 545211 567907 587392
0111100010001000: 561510 545211 612244 462077
0111100010001000: 561510 545211 612244 567907
0111100010001000: 561510 545211 612244 462077
0111100010001000: 561510 545211 612244 567907
0110100010010010: 561510 545211 612244 640483
0111100010001000: 561510 545211 462077 612244
0111100010001000: 561510 545211 462077 567907
0111100010001000: 561510 545211 462077 612244
0111100010001000: 561510 545211 462077 567907
0110100010010010: 561510 545211 462077 639325
0111100010001000: 561510 545211 567907 612244
0111100010001000: 561510 545211 567907 462077
0111100010001000: 561510 545211 567907 612244
0111100010001000: 561510 545211 567907 462077
0110100010010010: 561510 545211 567907 539750
0110100110000100: 561510 545211 612244 486801
0110100110000100: 561510 545211 612244 458449
0110100110000100: 561510 545211 612244 587392
0110100110000100: 561510 545211 612244 522368
0110100110000100: 561510 545211 612244 545154
0110100110000100: 561510 545211 612244 486801
0110100110000100: 561510 545211 612244 458449
0110100110000100: 561510 545211 612244 587392
0110100110000100: 561510 545211 612244 522368
0110100110000100: 561510 545211 612244 545154
0111100010001000: 561510 545211 612244 462077
0111100010001000: 561510 545211 612244 567907
0110100010010010: 561510 545211 612244 640483
0110100010010010: 561510 545211 612244 640483
0110100110000100: 561510 545211 462077 486801
0110100110000100: 561510 545211 462077 458449
0110100110000100: 561510 545211 462077 522368
0110100110000100: 561510 545211 462077 545154
0110100110000100: 561510 545211 462077 486801
0110100110000100: 561510 545211 462077 458449
0110100110000100: 561510 545211 462077 522368
0110100110000100: 561510 545211 462077 545154
0111100010001000: 561510 545211 462077 612244
0111100010001000: 561510 545211 462077 567907
0111100010001000: 561510 545211 462077 612244
0110100010010010: 561510 545211 462077 639325
0110100110010110: 561510 545211 462077 587392
0110100010010010: 561510 545211 462077 639325
0110100110010110: 561510 545211 462077 587392
0110100110000100: 561510 545211 567907 486801
0110100110000100: 561510 545211 567907 458449
0110100110000100: 561510 545211 567907 522368
0110100110000100: 561510 545211 567907 545154
0110100110000100: 561510 545211 567907 486801
0110100110000100: 561510 545211 567907 458449
0110100110000100: 561510 545211 567907 522368
0110100110000100: 561510 545211 567907 545154
0111100010001000: 561510 545211 567907 612244
0111100010001000: 561510 545211 567907 462077
0111100010001000: 561510 545211 567907 612244
0111100010001000: 561510 545211 567907 462077
0110100010010010: 561510 545211 567907 539750
0110100110010110: 561510 545211 567907 587392
0110100010010010: 561510 545211 567907 539750
0110100110010110: 561510 545211 567907 587392
0110100110000100: 561510 612244 545211 640483
0110100010010010: 561510 612244 545211 486801
0110100010010010: 561510 612244 545211 458449
0110100010010010: 561510 612244 545211 587392
0110100010010010: 561510 612244 545211 522368
0110100010010010: 561510 612244 545211 545154
0111100010001000: 561510 612244 462077 545211
0110100110000100: 561510 612244 462077 640483
0110100010010010: 561510 612244 462077 587392
0110100010010010: 561510 612244 462077 639325
0110100010010010: 561510 612244 462077 587392
0110100010010010: 561510 612244 462077 639325
0111100010001000: 561510 612244 567907 545211
0111100010001000: 561510 612244 567907 462077
0110100110000100: 561510 612244 567907 640483
0110100010010010: 561510 612244 567907 587392
0110100010010010: 561510 612244 567907 539750
0110100010010010: 561510 612244 567907 587392
0110100010010010: 561510 612244 567907 539750
0111100010001000: 561510 612244 545211 462077
0111100010001000: 561510 612244 545211 567907
0110100110000100: 561510 612244 545211 640483
0110100110000100: 561510 612244 545211 640483
0110100110000100: 561510 612244 545211 640483
0110100110000100: 561510 612244 462077 640483
0110100110000100: 561510 612244 462077 640483
0110100110000100: 561510 612244 462077 640483
0110100110000100: 561510 612244 567907 640483
0110100110000100: 561510 612244 567907 640483
0110100110000100: 561510 612244 567907 640483
0101101001001000: 561510 612244 640483 545211
0101101001001000: 561510 612244 640483 462077
0101101001001000: 561510 612244 640483 567907
0100101001010010: 561510 612244 640483 458449
0100101001010010: 561510 612244 640483 639325
0100101001010010: 561510 612244 640483 458449
0100101001010010: 561510 612244 640483 639325
0100101001010010: 561510 612244 640483 458449
0100101001010010: 561510 612244 640483 639325
0110100010010010: 561510 462077 545211 486801
0110100010010010: 561510 462077 545211 458449
0110100010010010: 561510 462077 545211 522368
0110100010010010: 561510 462077 545211 545154
0110100110010110: 561510 462077 545211 587392
0111100010001000: 561510 462077 612244 545211
0110100010010010: 561510 462077 612244 640483
0110100010010010: 561510 462077 612244 640483
0111100010001000: 561510 462077 567907 545211
0111100010001000: 561510 462077 567907 612244
0110100010010010: 561510 462077 567907 539750
0110100010010010: 561510 462077 567907 539750
0110100110010110: 561510 462077 567907 587392
0111100010001000: 561510 462077 545211 612244
0111100010001000: 561510 462077 545211 567907
0110100110000100: 561510 462077 545211 639325
0110100110000100: 561510 462077 545211 639325
0110100110010110: 561510 462077 545211 587392
0110100110010110: 561510 462077 545211 587392
0111100010001000: 561510 462077 612244 545211
0111100010001000: 561510 462077 612244 567907
0111100010001000: 561510 462077 612244 545211
0110100110000100: 561510 462077 612244 587392
0110100110000100: 561510 462077 612244 639325
0110100110000100: 561510 462077 612244 587392
0110100110000100: 561510 462077 612244 639325
0110100010010010: 561510 462077 612244 640483
0110100110000100: 561510 462077 567907 639325
0110100110000100: 561510 462077 567907 639325
0110100110010110: 561510 462077 567907 587392
0101101001001000: 561510 462077 587392 612244
0100101001010010: 561510 462077 587392 522368
0100101001010010: 561510 462077 587392 522368
0101101001011010: 561510 462077 587392 545211
0101101001011010: 561510 462077 587392 567907
0101101001011010: 561510 462077 587392 545211
0101101001011010: 561510 462077 587392 567907
0101101001011010: 561510 462077 587392 545211
0101101001011010: 561510 462077 587392 567907
0101101001001000: 561510 462077 587392 612244
0101101001001000: 561510 462077 587392 612244
0101101001001000: 561510 462077 639325 545211
0101101001001000: 561510 462077 639325 612244
0101101001001000: 561510 462077 639325 567907
0100101001010010: 561510 462077 639325 640483
0100101001010010: 561510 462077 639325 520855
0100101001010010: 561510 462077 639325 640483
0100101001010010: 561510 462077 639325 520855
0100101101000100: 561510 462077 639325 587392
0100101001010010: 561510 462077 639325 640483
0100101001010010: 561510 462077 639325 520855
0110100010010010: 561510 567907 545211 486801
0110100010010010: 561510 567907 545211 458449
0110100010010010: 561510 567907 545211 522368
0110100010010010: 561510 567907 545211 545154
0110100110010110: 561510 567907 545211 587392
0111100010001000: 561510 567907 612244 545211
0110100010010010: 561510 567907 612244 640483
0110100010010010: 561510 567907 612244 640483
0111100010001000: 561510 567907 462077 545211
0111100010001000: 561510 567907 462077 612244
0110100010010010: 561510 567907 462077 639325
0110100010010010: 561510 567907 462077 639325
0110100110010110: 561510 567907 462077 587392
0111100010001000: 561510 567907 545211 612244
0111100010001000: 561510 567907 545211 462077
0110100110000100: 561510 567907 545211 539750
0110100110000100: 561510 567907 545211 539750
0110100110010110: 561510 567907 545211 587392
0110100110010110: 561510 567907 545211 587392
0111100010001000: 561510 567907 612244 545211
0111100010001000: 561510 567907 612244 462077
0111100010001000: 561510 567907 612244 545211
0110100110000100: 561510 567907 612244 587392
0110100110000100: 561510 567907 612244 539750
0110100110000100: 561510 567907 612244 587392
0110100110000100: 561510 567907 612244 539750
0110100010010010: 561510 567907 612244 640483
0111100010001000: 561510 567907 462077 545211
0111100010001000: 561510 567907 462077 612244
0111100010001000: 561510 567907 462077 545211
0111100010001000: 561510 567907 462077 612244
0110100110000100: 561510 567907 462077 539750
0110100110000100: 561510 567907 462077 539750
0110100110010110: 561510 567907 462077 587392
0110100110010110: 561510 567907 462077 587392
0101101001001000: 561510 567907 587392 612244
0100101001010010: 561510 567907 587392 522368
0100101001010010: 561510 567907 587392 522368
0101101001011010: 561510 567907 587392 545211
0101101001011010: 561510 567907 587392 462077
0101101001011010: 561510 567907 587392 545211
0101101001011010: 561510 567907 587392 462077
0101101001011010: 561510 567907 587392 545211
0101101001011010: 561510 567907 587392 462077
0101101001001000: 561510 567907 587392 612244
0101101001001000: 561510 567907 587392 612244
0101101001001000: 561510 567907 539750 545211
0101101001001000: 561510 567907 539750 612244
0101101001001000: 561510 567907 539750 462077
0100101001010010: 561510 567907 539750 486801
0100101001010010: 561510 567907 539750 486801
0100101101000100: 561510 567907 539750 587392
0100101001010010: 561510 567907 539750 486801
0100101001010010: 561510 567907 539750 486801
0110100110000100: 612244 640483 561510 458449
0110100110000100: 612244 640483 561510 639325
0110100010010010: 612244 640483 561510 545211
0110100010010010: 612244 640483 561510 462077
0110100010010010: 612244 640483 561510 567907
0110100110000100: 612244 640483 561510 458449
0110100110000100: 612244 640483 561510 639325
0110100110000100: 612244 640483 561510 458449
0110100110000100: 612244 640483 561510 639325
0110100110000100: 612244 640483 561510 458449
0110100110000100: 612244 640483 561510 639325
0110100110000100: 612244 640483 561510 458449
0110100110000100: 612244 640483 561510 639325
0110100110000100: 612244 640483 561510 458449
0110100110000100: 612244 640483 561510 639325
0110100010010010: 612244 561510 640483 458449
0110100010010010: 612244 561510 640483 639325
0110100110000100: 612244 561510 640483 545211
0110100110000100: 612244 561510 640483 462077
0110100110000100: 612244 561510 640483 567907
0110100010010010: 612244 561510 640483 458449
0110100010010010: 612244 561510 640483 639325
0110100110000100: 612244 561510 640483 545211
0110100110000100: 612244 561510 640483 462077
0110100110000100: 612244 561510 640483 567907
0110100110000100: 612244 561510 640483 545211
0110100110000100: 612244 561510 640483 462077
0110100110000100: 612244 561510 640483 567907
0110100010010010: 612244 561510 640483 458449
0110100010010010: 612244 561510 640483 639325
0110100110000100: 458449 640483 545211 612244
0110100110000100: 458449 640483 545211 639325
0110100010010010: 458449 640483 545211 486801
0110100010010010: 458449 640483 545211 561510
0110100010010010: 458449 640483 545211 587392
0110100010010010: 458449 640483 545211 522368
0110100010010010: 458449 640483 545211 545154
0110100110000100: 458449 640483 545211 612244
0110100110000100: 458449 640483 545211 639325
0110100110000100: 458449 640483 545211 612244
0110100110000100: 458449 640483 545211 639325
0110100110000100: 458449 640483 545211 612244
0110100110000100: 458449 640483 545211 639325
0110100110000100: 458449 640483 545211 612244
0110100110000100: 458449 640483 545211 639325
0110100110000100: 458449 640483 545211 612244
0110100110000100: 458449 640483 545211 639325
0110100110000100: 458449 545211 640483 486801
0110100110000100: 458449 545211 640483 561510
0110100110000100: 458449 545211 640483 587392
0110100110000100: 458449 545211 640483 522368
0110100110000100: 458449 545211 640483 545154
0110100010010010: 458449 545211 640483 612244
0110100010010010: 458449 545211 640483 639325
0110100110000100: 458449 545211 640483 486801
0110100110000100: 458449 545211 640483 561510
0110100110000100: 458449 545211 640483 587392
0110100110000100: 458449 545211 640483 522368
0110100110000100: 458449 545211 640483 545154
0110100110000100: 458449 545211 640483 486801
0110100110000100: 458449 545211 640483 561510
0110100110000100: 458449 545211 640483 587392
0110100110000100: 458449 545211 640483 522368
0110100110000100: 458449 545211 640483 545154
0110100010010010: 458449 545211 640483 612244
0110100010010010: 458449 545211 640483 639325
0110100110000100: 458449 545211 640483 486801
0110100110000100: 458449 545211 640483 561510
0110100110000100: 458449 545211 640483 587392
0110100110000100: 458449 545211 640483 522368
0110100110000100: 458449 545211 640483 545154
0110100110000100: 458449 545211 640483 486801
0110100110000100: 458449 545211 640483 561510
0110100110000100: 458449 545211 640483 587392
0110100110000100: 458449 545211 640483 522368
0110100110000100: 458449 545211 640483 545154
0110100010010010: 458449 545211 640483 612244
0110100010010010: 458449 545211 640483 639325
0101101001001000: 545211 486801 587624 458449
0101101001001000: 545211 486801 587624 561510
0101101001001000: 545211 486801 587624 587392
0101101001001000: 545211 486801 587624 522368
0101101001001000: 545211 486801 587624 545154
0101101001001000: 545211 486801 539750 458449
0101101001001000: 545211 486801 539750 561510
0101101001001000: 545211 486801 539750 587392
0101101001001000: 545211 486801 539750 522368
0101101001001000: 545211 486801 539750 545154
0100101101000100: 545211 486801 539750 587624
0101101001001000: 545211 458449 640483 486801
0101101001001000: 545211 458449 640483 561510
0101101001001000: 545211 458449 640483 587392
0101101001001000: 545211 458449 640483 522368
0101101001001000: 545211 458449 640483 545154
0111100010001000: 545211 561510 458449 486801
0101101001001000: 545211 561510 612244 486801
0101101001001000: 545211 561510 612244 458449
0101101001001000: 545211 561510 612244 587392
0101101001001000: 545211 561510 612244 522368
0101101001001000: 545211 561510 612244 545154
0101101001001000: 545211 561510 462077 486801
0101101001001000: 545211 561510 462077 458449
0101101001001000: 545211 561510 462077 522368
0101101001001000: 545211 561510 462077 545154
0100101101000100: 545211 561510 462077 612244
0101101001001000: 545211 561510 567907 486801
0101101001001000: 545211 561510 567907 458449
0101101001001000: 545211 561510 567907 522368
0101101001001000: 545211 561510 567907 545154
0100101101000100: 545211 561510 567907 612244
0100101101000100: 545211 561510 567907 462077
0111100010001000: 545211 587392 458449 486801
0111100010001000: 545211 587392 561510 486801
0111100010001000: 545211 587392 561510 458449
0110100110010110: 545211 587392 561510 462077
0110100110010110: 545211 587392 561510 567907
0111101011001000: 545211 587392 522368 486801
0111101011001000: 545211 587392 522368 458449
0111101011001000: 545211 587392 522368 561510
0101101001001000: 545211 587392 462077 486801
0101101001001000: 545211 587392 462077 458449
0101101001001000: 545211 587392 462077 545154
0101101101001100: 545211 587392 462077 522368
0101101001001000: 545211 587392 567907 486801
0101101001001000: 545211 587392 567907 458449
0101101001001000: 545211 587392 567907 545154
0101101101001100: 545211 587392 567907 522368
0100101101000100: 545211 587392 567907 462077
0111100010001000: 545211 522368 458449 486801
0111100010001000: 545211 522368 561510 486801
0111100010001000: 545211 522368 561510 458449
0111101011001000: 545211 522368 587392 486801
0111101011001000: 545211 522368 587392 458449
0111101011001000: 545211 522368 587392 561510
0111101011001000: 545211 522368 545154 486801
0111101011001000: 545211 522368 545154 458449
0111101011001000: 545211 522368 545154 561510
0111101111001100: 545211 522368 545154 587392
0101101001001000: 545211 522368 588843 486801
0101101001001000: 545211 522368 588843 458449
0101101001001000: 545211 522368 588843 561510
0101101101001100: 545211 522368 588843 587392
0101101101001100: 545211 522368 588843 545154
0111100010001000: 545211 545154 458449 486801
0111100010001000: 545211 545154 561510 486801
0111100010001000: 545211 545154 561510 458449
0111100010001000: 545211 545154 587392 486801
0111100010001000: 545211 545154 587392 458449
0111100010001000: 545211 545154 587392 561510
0111101011001000: 545211 545154 522368 486801
0111101011001000: 545211 545154 522368 458449
0111101011001000: 545211 545154 522368 561510
0110100110000100: 545211 486801 458449 587624
0110100110000100: 545211 486801 458449 539750
0110100010010010: 545211 486801 458449 640483
0110100010010010: 545211 486801 458449 640483
0111100010001000: 545211 486801 561510 458449
0110100110000100: 545211 486801 561510 587624
0110100110000100: 545211 486801 561510 539750
0110100010010010: 545211 486801 561510 612244
0110100010010010: 545211 486801 561510 462077
0110100010010010: 545211 486801 561510 567907
0110100010010010: 545211 486801 561510 612244
0110100010010010: 545211 486801 561510 462077
0110100010010010: 545211 486801 561510 567907
0111100010001000: 545211 486801 587392 458449
0111100010001000: 545211 486801 587392 561510
0110100110000100: 545211 486801 587392 587624
0110100110000100: 545211 486801 587392 539750
0110100010010010: 545211 486801 587392 462077
0110100010010010: 545211 486801 587392 567907
0111100010011010: 545211 486801 587392 522368
0110100010010010: 545211 486801 587392 462077
0110100010010010: 545211 486801 587392 567907
0111100010001000: 545211 486801 522368 458449
0111100010001000: 545211 486801 522368 561510
0110100110000100: 545211 486801 522368 587624
0110100110000100: 545211 486801 522368 539750
0110100010010010: 545211 486801 522368 588843
0111100010011010: 545211 486801 522368 587392
0111100010011010: 545211 486801 522368 545154
0110100010010010: 545211 486801 522368 588843
0111100010001000: 545211 486801 545154 458449
0111100010001000: 545211 486801 545154 561510
0111100010001000: 545211 486801 545154 587392
0110100110000100: 545211 486801 545154 587624
0110100110000100: 545211 486801 545154 539750
0111100010011010: 545211 486801 545154 522368
0110100110000100: 545211 486801 458449 587624
0110100110000100: 545211 486801 458449 539750
0110100110000100: 545211 486801 458449 587624
0110100110000100: 545211 486801 458449 539750
0110100110000100: 545211 486801 458449 587624
0110100110000100: 545211 486801 458449 539750
0110100010010010: 545211 486801 458449 640483
0110100110000100: 545211 486801 561510 587624
0110100110000100: 545211 486801 561510 539750
0110100110000100: 545211 486801 561510 587624
0110100110000100: 545211 486801 561510 539750
0110100110000100: 545211 486801 561510 587624
0110100110000100: 545211 486801 561510 539750
0110100110000100: 545211 486801 587392 587624
0110100110000100: 545211 486801 587392 539750
0110100110000100: 545211 486801 587392 587624
0110100110000100: 545211 486801 587392 539750
0110100110000100: 545211 486801 587392 587624
0110100110000100: 545211 486801 587392 539750
0110100110000100: 545211 486801 522368 587624
0110100110000100: 545211 486801 522368 539750
0110100110000100: 545211 486801 522368 587624
0110100110000100: 545211 486801 522368 539750
0110100110000100: 545211 486801 522368 587624
0110100110000100: 545211 486801 522368 539750
0110100110000100: 545211 486801 545154 587624
0110100110000100: 545211 486801 545154 539750
0110100110000100: 545211 486801 545154 587624
0110100110000100: 545211 486801 545154 539750
0110100110000100: 545211 486801 545154 587624
0110100110000100: 545211 486801 545154 539750
0101101001001000: 545211 486801 587624 458449
0101101001001000: 545211 486801 587624 561510
0101101001001000: 545211 486801 587624 587392
0101101001001000: 545211 486801 587624 522368
0101101001001000: 545211 486801 587624 545154
0100101001010010: 545211 486801 587624 506918
0100101001010010: 545211 486801 587624 506918
0100101001010010: 545211 486801 587624 506918
0100101001010010: 545211 486801 587624 506918
0101101001001000: 545211 486801 539750 458449
0101101001001000: 545211 486801 539750 561510
0101101001001000: 545211 486801 539750 587392
0101101001001000: 545211 486801 539750 522368
0101101001001000: 545211 486801 539750 545154
0100101001010010: 545211 486801 539750 567907
0100101001010010: 545211 486801 539750 567907
0100101101000100: 545211 486801 539750 587624
0100101001010010: 545211 486801 539750 567907
0100101001010010: 545211 486801 539750 567907
0110100010010010: 545211 458449 486801 587624
0110100010010010: 545211 458449 486801 539750
0110100010010010: 545211 458449 486801 587624
0110100010010010: 545211 458449 486801 539750
0111100010001000: 545211 458449 561510 486801
0110100010010010: 545211 458449 561510 612244
0110100010010010: 545211 458449 561510 462077
0110100010010010: 545211 458449 561510 567907
0110100010010010: 545211 458449 561510 612244
0110100010010010: 545211 458449 561510 462077
0110100010010010: 545211 458449 561510 567907
0111100010001000: 545211 458449 587392 486801
0111100010001000: 545211 458449 587392 561510
0110100010010010: 545211 458449 587392 462077
0110100010010010: 545211 458449 587392 567907
0111100010011010: 545211 458449 587392 522368
0110100010010010: 545211 458449 587392 462077
0110100010010010: 545211 458449 587392 567907
0111100010001000: 545211 458449 522368 486801
0111100010001000: 545211 458449 522368 561510
0110100010010010: 545211 458449 522368 588843
0111100010011010: 545211 458449 522368 587392
0111100010011010: 545211 458449 522368 545154
0110100010010010: 545211 458449 522368 588843
0111100010001000: 545211 458449 545154 486801
0111100010001000: 545211 458449 545154 561510
0111100010001000: 545211 458449 545154 587392
0111100010011010: 545211 458449 545154 522368
0111100010001000: 545211 458449 486801 561510
0111100010001000: 545211 458449 486801 587392
0111100010001000: 545211 458449 486801 522368
0111100010001000: 545211 458449 486801 545154
0110100110000100: 545211 458449 486801 640483
0110100110000100: 545211 458449 486801 640483
0110100110000100: 545211 458449 561510 640483
0110100110000100: 545211 458449 561510 640483
0110100110000100: 545211 458449 587392 640483
0110100110000100: 545211 458449 587392 640483
0110100110000100: 545211 458449 522368 640483
0110100110000100: 545211 458449 522368 640483
0110100110000100: 545211 458449 545154 640483
0110100110000100: 545211 458449 545154 640483
0101101001001000: 545211 458449 640483 486801
0101101001001000: 545211 458449 640483 561510
0101101001001000: 545211 458449 640483 587392
0101101001001000: 545211 458449 640483 522368
0101101001001000: 545211 458449 640483 545154
0100101001010010: 545211 458449 640483 612244
0100101001010010: 545211 458449 640483 639325
0100101001010010: 545211 458449 640483 612244
0100101001010010: 545211 458449 640483 639325
0100101001010010: 545211 458449 640483 612244
0100101001010010: 545211 458449 640483 639325
0110100010010010: 545211 561510 486801 587624
0110100010010010: 545211 561510 486801 539750
0110100010010010: 545211 561510 486801 587624
0110100010010010: 545211 561510 486801 539750
0111100010001000: 545211 561510 458449 486801
0110100010010010: 545211 561510 458449 640483
0110100010010010: 545211 561510 458449 640483
0111100010001000: 545211 561510 587392 486801
0111100010001000: 545211 561510 587392 458449
0111100010011010: 545211 561510 587392 522368
0110100110010110: 545211 561510 587392 462077
0110100110010110: 545211 561510 587392 567907
0111100010001000: 545211 561510 522368 486801
0111100010001000: 545211 561510 522368 458449
0110100010010010: 545211 561510 522368 588843
0111100010011010: 545211 561510 522368 587392
0111100010011010: 545211 561510 522368 545154
0110100010010010: 545211 561510 522368 588843
0111100010001000: 545211 561510 545154 486801
0111100010001000: 545211 561510 545154 458449
0111100010001000: 545211 561510 545154 587392
0111100010011010: 545211 561510 545154 522368
0111100010001000: 545211 561510 486801 458449
0111100010001000: 545211 561510 486801 587392
0111100010001000: 545211 561510 486801 522368
0111100010001000: 545211 561510 486801 545154
0110100110000100: 545211 561510 486801 612244
0110100110000100: 545211 561510 486801 462077
0110100110000100: 545211 561510 486801 567907
0110100110000100: 545211 561510 486801 612244
0110100110000100: 545211 561510 486801 462077
0110100110000100: 545211 561510 486801 567907
0110100010010010: 545211 561510 486801 587624
0110100010010010: 545211 561510 486801 539750
0111100010001000: 545211 561510 458449 486801
0111100010001000: 545211 561510 458449 587392
0111100010001000: 545211 561510 458449 522368
0111100010001000: 545211 561510 458449 545154
0111100010001000: 545211 561510 458449 486801
0110100110000100: 545211 561510 458449 612244
0110100110000100: 545211 561510 458449 462077
0110100110000100: 545211 561510 458449 567907
0110100110000100: 545211 561510 458449 612244
0110100110000100: 545211 561510 458449 462077
0110100110000100: 545211 561510 458449 567907
0110100010010010: 545211 561510 458449 640483
0110100110000100: 545211 561510 587392 612244
0110100110000100: 545211 561510 587392 612244
0110100110010110: 545211 561510 587392 462077
0110100110010110: 545211 561510 587392 567907
0110100110000100: 545211 561510 522368 612244
0110100110000100: 545211 561510 522368 462077
0110100110000100: 545211 561510 522368 567907
0110100110000100: 545211 561510 522368 612244
0110100110000100: 545211 561510 522368 462077
0110100110000100: 545211 561510 522368 567907
0110100110000100: 545211 561510 545154 612244
0110100110000100: 545211 561510 545154 462077
0110100110000100: 545211 561510 545154 567907
0110100110000100: 545211 561510 545154 612244
0110100110000100: 545211 561510 545154 462077
0110100110000100: 545211 561510 545154 567907
0101101001001000: 545211 561510 612244 486801
0101101001001000: 545211 561510 612244 458449
0101101001001000: 545211 561510 612244 587392
0101101001001000: 545211 561510 612244 522368
0101101001001000: 545211 561510 612244 545154
0100101001010010: 545211 561510 612244 640483
0100101001010010: 545211 561510 612244 640483
0100101001010010: 545211 561510 612244 640483
0100101001010010: 545211 561510 612244 640483
0101101001001000: 545211 561510 462077 486801
0101101001001000: 545211 561510 462077 458449
0101101001001000: 545211 561510 462077 522368
0101101001001000: 545211 561510 462077 545154
0100101001010010: 545211 561510 462077 639325
0100101001010010: 545211 561510 462077 639325
0100101101000100: 545211 561510 462077 612244
0101101001011010: 545211 561510 462077 587392
0101101001011010: 545211 561510 462077 587392
0101101001011010: 545211 561510 462077 587392
0100101001010010: 545211 561510 462077 639325
0100101001010010: 545211 561510 462077 639325
0101101001011010: 545211 561510 462077 587392
0101101001001000: 545211 561510 567907 486801
0101101001001000: 545211 561510 567907 458449
0101101001001000: 545211 561510 567907 522368
0101101001001000: 545211 561510 567907 545154
0100101001010010: 545211 561510 567907 539750
0100101001010010: 545211 561510 567907 539750
0100101101000100: 545211 561510 567907 612244
0100101101000100: 545211 561510 567907 462077
0101101001011010: 545211 561510 567907 587392
0101101001011010: 545211 561510 567907 587392
0101101001011010: 545211 561510 567907 587392
0100101001010010: 545211 561510 567907 539750
0100101001010010: 545211 561510 567907 539750
0101101001011010: 545211 561510 567907 587392
0110100010010010: 545211 587392 486801 587624
0110100010010010: 545211 587392 486801 539750
0110100010010010: 545211 587392 486801 587624
0110100010010010: 545211 587392 486801 539750
0111100010001000: 545211 587392 458449 486801
0110100010010010: 545211 587392 458449 640483
0110100010010010: 545211 587392 458449 640483
0111100010001000: 545211 587392 561510 486801
0111100010001000: 545211 587392 561510 458449
0110100010010010: 545211 587392 561510 612244
0110100010010010: 545211 587392 561510 612244
0110100110010110: 545211 587392 561510 462077
0110100110010110: 545211 587392 561510 567907
0111100010001000: 545211 587392 545154 486801
0111100010001000: 545211 587392 545154 458449
0111100010001000: 545211 587392 545154 561510
0111100010001000: 545211 587392 486801 458449
0111100010001000: 545211 587392 486801 561510
0111100010001000: 545211 587392 486801 545154
0110100110000100: 545211 587392 486801 462077
0110100110000100: 545211 587392 486801 567907
0111100110001100: 545211 587392 486801 522368
0110100110000100: 545211 587392 486801 462077
0110100110000100: 545211 587392 486801 567907
0110100010010010: 545211 587392 486801 587624
0110100010010010: 545211 587392 486801 539750
0111100010001000: 545211 587392 458449 486801
0111100010001000: 545211 587392 458449 561510
0111100010001000: 545211 587392 458449 545154
0111100010001000: 545211 587392 458449 486801
0110100110000100: 545211 587392 458449 462077
0110100110000100: 545211 587392 458449 567907
0111100110001100: 545211 587392 458449 522368
0110100110000100: 545211 587392 458449 462077
0110100110000100: 545211 587392 458449 567907
0110100010010010: 545211 587392 458449 640483
0111100010001000: 545211 587392 561510 486801
0111100010001000: 545211 587392 561510 458449
0111100010001000: 545211 587392 561510 545154
0111100010001000: 545211 587392 561510 486801
0111100010001000: 545211 587392 561510 458449
0111100110001100: 545211 587392 561510 522368
0110100110010110: 545211 587392 561510 462077
0110100110010110: 545211 587392 561510 567907
0110100110010110: 545211 587392 561510 462077
0110100110010110: 545211 587392 561510 567907
0110100110000100: 545211 587392 545154 462077
0110100110000100: 545211 587392 545154 567907
0110100110000100: 545211 587392 545154 462077
0110100110000100: 545211 587392 545154 567907
0111101011001000: 545211 587392 522368 486801
0111101011001000: 545211 587392 522368 458449
0111101011001000: 545211 587392 522368 561510
0111101011011010: 545211 587392 522368 545154
0111101011011010: 545211 587392 522368 545154
0111101011011010: 545211 587392 522368 545154
0110101011010010: 545211 587392 522368 588843
0110101011010010: 545211 587392 522368 588843
0110101111000100: 545211 587392 522368 462077
0110101111000100: 545211 587392 522368 567907
0101101001001000: 545211 587392 462077 486801
0101101001001000: 545211 587392 462077 458449
0101101001001000: 545211 587392 462077 545154
0100101001010010: 545211 587392 462077 639325
0100101001010010: 545211 587392 462077 639325
0101101101001100: 545211 587392 462077 522368
0101101001011010: 545211 587392 462077 561510
0101101001011010: 545211 587392 462077 561510
0101101001011010: 545211 587392 462077 561510
0100101001010010: 545211 587392 462077 639325
0100101001010010: 545211 587392 462077 639325
0101101001011010: 545211 587392 462077 561510
0101101001001000: 545211 587392 567907 486801
0101101001001000: 545211 587392 567907 458449
0101101001001000: 545211 587392 567907 545154
0100101001010010: 545211 587392 567907 539750
0100101001010010: 545211 587392 567907 539750
0101101101001100: 545211 587392 567907 522368
0100101101000100: 545211 587392 567907 462077
0101101001011010: 545211 587392 567907 561510
0101101001011010: 545211 587392 567907 561510
0101101001011010: 545211 587392 567907 561510
0100101001010010: 545211 587392 567907 539750
0100101001010010: 545211 587392 567907 539750
0101101001011010: 545211 587392 567907 561510
0111101011001000: 545211 587392 522368 486801
0111101011001000: 545211 587392 522368 458449
0111101011001000: 545211 587392 522368 561510
0111101011001000: 545211 587392 522368 486801
0111101011001000: 545211 587392 522368 458449
0111101011001000: 545211 587392 522368 561510
0110101111000100: 545211 587392 522368 462077
0110101111000100: 545211 587392 522368 567907
0110101111000100: 545211 587392 522368 462077
0110101111000100: 545211 587392 522368 567907
0110101111000100: 545211 587392 522368 462077
0110101111000100: 545211 587392 522368 567907
0110101111000100: 545211 587392 522368 462077
0110101111000100: 545211 587392 522368 567907
0110101111000100: 545211 587392 522368 462077
0110101111000100: 545211 587392 522368 567907
0110100010010010: 545211 522368 486801 587624
0110100010010010: 545211 522368 486801 539750
0110100010010010: 545211 522368 486801 587624
0110100010010010: 545211 522368 486801 539750
0111100010001000: 545211 522368 458449 486801
0110100010010010: 545211 522368 458449 640483
0110100010010010: 545211 522368 458449 640483
0111100010001000: 545211 522368 561510 486801
0111100010001000: 545211 522368 561510 458449
0110100010010010: 545211 522368 561510 612244
0110100010010010: 545211 522368 561510 462077
0110100010010010: 545211 522368 561510 567907
0110100010010010: 545211 522368 561510 612244
0110100010010010: 545211 522368 561510 462077
0110100010010010: 545211 522368 561510 567907
0111100010001000: 545211 522368 486801 458449
0111100010001000: 545211 522368 486801 561510
0110100110000100: 545211 522368 486801 588843
0111100110001100: 545211 522368 486801 587392
0111100110001100: 545211 522368 486801 545154
0110100110000100: 545211 522368 486801 588843
0110100010010010: 545211 522368 486801 587624
0110100010010010: 545211 522368 486801 539750
0111100010001000: 545211 522368 458449 486801
0111100010001000: 545211 522368 458449 561510
0111100010001000: 545211 522368 458449 486801
0110100110000100: 545211 522368 458449 588843
0111100110001100: 545211 522368 458449 587392
0111100110001100: 545211 522368 458449 545154
0110100110000100: 545211 522368 458449 588843
0110100010010010: 545211 522368 458449 640483
0111100010001000: 545211 522368 561510 486801
0111100010001000: 545211 522368 561510 458449
0111100010001000: 545211 522368 561510 486801
0111100010001000: 545211 522368 561510 458449
0110100110000100: 545211 522368 561510 588843
0111100110001100: 545211 522368 561510 587392
0111100110001100: 545211 522368 561510 545154
0110100110000100: 545211 522368 561510 588843
0111101011001000: 545211 522368 587392 486801
0111101011001000: 545211 522368 587392 458449
0111101011001000: 545211 522368 587392 561510
0110101011010010: 545211 522368 587392 462077
0110101011010010: 545211 522368 587392 567907
0110101011010010: 545211 522368 587392 462077
0110101011010010: 545211 522368 587392 567907
0110101111000100: 545211 522368 587392 588843
0111101011001000: 545211 522368 545154 486801
0111101011001000: 545211 522368 545154 458449
0111101011001000: 545211 522368 545154 561510
0101101001001000: 545211 522368 588843 486801
0101101001001000: 545211 522368 588843 458449
0101101001001000: 545211 522368 588843 561510
0101101101001100: 545211 522368 588843 587392
0101101101001100: 545211 522368 588843 545154
0111101011001000: 545211 522368 587392 486801
0111101011001000: 545211 522368 587392 458449
0111101011001000: 545211 522368 587392 561510
0111101011001000: 545211 522368 587392 486801
0111101011001000: 545211 522368 587392 458449
0111101011001000: 545211 522368 587392 561510
0110101111000100: 545211 522368 587392 588843
0110101111000100: 545211 522368 587392 588843
0111101111001100: 545211 522368 587392 545154
0110101111000100: 545211 522368 587392 588843
0110101111000100: 545211 522368 587392 588843
0111101011001000: 545211 522368 545154 486801
0111101011001000: 545211 522368 545154 458449
0111101011001000: 545211 522368 545154 561510
0111101011001000: 545211 522368 545154 486801
0111101011001000: 545211 522368 545154 458449
0111101011001000: 545211 522368 545154 561510
0110101111000100: 545211 522368 545154 588843
0110101111000100: 545211 522368 545154 588843
0111101111001100: 545211 522368 545154 587392
0110101111000100: 545211 522368 545154 588843
0111101111001100: 545211 522368 545154 587392
0111101011001000: 545211 522368 587392 486801
0111101011001000: 545211 522368 587392 458449
0111101011001000: 545211 522368 587392 561510
0111101011001000: 545211 522368 587392 486801
0111101011001000: 545211 522368 587392 458449
0111101011001000: 545211 522368 587392 561510
0110101111000100: 545211 522368 587392 588843
0111101111001100: 545211 522368 587392 545154
0110101111000100: 545211 522368 545154 588843
0111101111001100: 545211 522368 545154 587392
0110100010010010: 545211 545154 486801 587624
0110100010010010: 545211 545154 486801 539750
0110100010010010: 545211 545154 486801 587624
0110100010010010: 545211 545154 486801 539750
0111100010001000: 545211 545154 458449 486801
0110100010010010: 545211 545154 458449 640483
0110100010010010: 545211 545154 458449 640483
0111100010001000: 545211 545154 561510 486801
0111100010001000: 545211 545154 561510 458449
0110100010010010: 545211 545154 561510 612244
0110100010010010: 545211 545154 561510 462077
0110100010010010: 545211 545154 561510 567907
0110100010010010: 545211 545154 561510 612244
0110100010010010: 545211 545154 561510 462077
0110100010010010: 545211 545154 561510 567907
0111100010001000: 545211 545154 587392 486801
0111100010001000: 545211 545154 587392 458449
0111100010001000: 545211 545154 587392 561510
0110100010010010: 545211 545154 587392 462077
0110100010010010: 545211 545154 587392 567907
0110100010010010: 545211 545154 587392 462077
0110100010010010: 545211 545154 587392 567907
0111100010001000: 545211 545154 486801 458449
0111100010001000: 545211 545154 486801 561510
0111100010001000: 545211 545154 486801 587392
0111100110001100: 545211 545154 486801 522368
0111100010001000: 545211 545154 458449 486801
0111100010001000: 545211 545154 458449 561510
0111100010001000: 545211 545154 458449 587392
0111100010001000: 545211 545154 458449 486801
0111100110001100: 545211 545154 458449 522368
0111100010001000: 545211 545154 561510 486801
0111100010001000: 545211 545154 561510 458449
0111100010001000: 545211 545154 561510 587392
0111100010001000: 545211 545154 561510 486801
0111100010001000: 545211 545154 561510 458449
0111100110001100: 545211 545154 561510 522368
0111100010001000: 545211 545154 587392 486801
0111100010001000: 545211 545154 587392 458449
0111100010001000: 545211 545154 587392 561510
0111100010001000: 545211 545154 587392 486801
0111100010001000: 545211 545154 587392 458449
0111100010001000: 545211 545154 587392 561510
0111101011001000: 545211 545154 522368 486801
0111101011001000: 545211 545154 522368 458449
0111101011001000: 545211 545154 522368 561510
0111101011011010: 545211 545154 522368 587392
0111101011011010: 545211 545154 522368 587392
0111101011011010: 545211 545154 522368 587392
0110101011010010: 545211 545154 522368 588843
0110101011010010: 545211 545154 522368 588843
0111101011001000: 545211 545154 522368 486801
0111101011001000: 545211 545154 522368 458449
0111101011001000: 545211 545154 522368 561510
0111101011001000: 545211 545154 522368 486801
0111101011001000: 545211 545154 522368 458449
0111101011001000: 545211 545154 522368 561510
0111101011001000: 545211 545154 522368 486801
0111101011001000: 545211 545154 522368 458449
0111101011001000: 545211 545154 522368 561510
0111101011001000: 545211 545154 522368 486801
0111101011001000: 545211 545154 522368 458449
0111101011001000: 545211 545154 522368 561510
0101101001001000: 486801 587624 506918 545211
0101101001001000: 486801 587624 506918 539750
0111100010001000: 486801 539750 545211 587624
0101101001001000: 486801 539750 567907 587624
0101101001001000: 486801 539750 567907 545211
0110100110000100: 486801 587624 545211 506918
0110100010010010: 486801 587624 545211 458449
0110100010010010: 486801 587624 545211 561510
0110100010010010: 486801 587624 545211 587392
0110100010010010: 486801 587624 545211 522368
0110100010010010: 486801 587624 545211 545154
0111100010001000: 486801 587624 539750 545211
0110100110000100: 486801 587624 539750 506918
0110100010010010: 486801 587624 539750 567907
0110100010010010: 486801 587624 539750 567907
0110100110000100: 486801 587624 545211 506918
0110100110000100: 486801 587624 545211 506918
0110100110000100: 486801 587624 545211 506918
0110100110000100: 486801 587624 539750 506918
0110100110000100: 486801 587624 539750 506918
0110100110000100: 486801 587624 539750 506918
0101101001001000: 486801 587624 506918 545211
0101101001001000: 486801 587624 506918 539750
0100101001010010: 486801 587624 506918 566809
0100101001010010: 486801 587624 506918 566809
0100101001010010: 486801 587624 506918 566809
0110100010010010: 486801 545211 587624 506918
0110100010010010: 486801 545211 587624 506918
0111100010001000: 486801 545211 539750 587624
0110100010010010: 486801 545211 539750 567907
0110100010010010: 486801 545211 539750 567907
0111100010001000: 486801 545211 587624 539750
0110100110000100: 486801 545211 587624 458449
0110100110000100: 486801 545211 587624 561510
0110100110000100: 486801 545211 587624 587392
0110100110000100: 486801 545211 587624 522368
0110100110000100: 486801 545211 587624 545154
0110100010010010: 486801 545211 587624 506918
0110100110000100: 486801 545211 539750 458449
0110100110000100: 486801 545211 539750 561510
0110100110000100: 486801 545211 539750 587392
0110100110000100: 486801 545211 539750 522368
0110100110000100: 486801 545211 539750 545154
0110100010010010: 486801 545211 539750 567907
0111100010001000: 486801 545211 587624 539750
0111100010001000: 486801 545211 587624 539750
0110100010010010: 486801 545211 587624 506918
0111100010001000: 486801 545211 539750 587624
0111100010001000: 486801 545211 539750 587624
0110100010010010: 486801 545211 539750 567907
0110100110000100: 486801 545211 587624 458449
0110100110000100: 486801 545211 587624 561510
0110100110000100: 486801 545211 587624 587392
0110100110000100: 486801 545211 587624 522368
0110100110000100: 486801 545211 587624 545154
0110100110000100: 486801 545211 587624 458449
0110100110000100: 486801 545211 587624 561510
0110100110000100: 486801 545211 587624 587392
0110100110000100: 486801 545211 587624 522368
0110100110000100: 486801 545211 587624 545154
0111100010001000: 486801 545211 587624 539750
0110100010010010: 486801 545211 587624 506918
0110100010010010: 486801 545211 587624 506918
0110100110000100: 486801 545211 539750 458449
0110100110000100: 486801 545211 539750 561510
0110100110000100: 486801 545211 539750 587392
0110100110000100: 486801 545211 539750 522368
0110100110000100: 486801 545211 539750 545154
0110100110000100: 486801 545211 539750 458449
0110100110000100: 486801 545211 539750 561510
0110100110000100: 486801 545211 539750 587392
0110100110000100: 486801 545211 539750 522368
0110100110000100: 486801 545211 539750 545154
0111100010001000: 486801 545211 539750 587624
0111100010001000: 486801 545211 539750 587624
0110100010010010: 486801 545211 539750 567907
0110100010010010: 486801 545211 539750 567907
0110100010010010: 486801 539750 587624 506918
0110100010010010: 486801 539750 587624 506918
0111100010001000: 486801 539750 545211 587624
0110100010010010: 486801 539750 545211 458449
0110100010010010: 486801 539750 545211 561510
0110100010010010: 486801 539750 545211 587392
0110100010010010: 486801 539750 545211 522368
0110100010010010: 486801 539750 545211 545154
0111100010001000: 486801 539750 587624 545211
0110100110000100: 486801 539750 587624 567907
0110100110000100: 486801 539750 587624 567907
0111100010001000: 486801 539750 545211 587624
0111100010001000: 486801 539750 545211 587624
0110100110000100: 486801 539750 545211 567907
0110100110000100: 486801 539750 545211 567907
0101101001001000: 486801 539750 567907 587624
0101101001001000: 486801 539750 567907 545211
0100101001010010: 486801 539750 567907 561510
0100101001010010: 486801 539750 567907 587392
0100101001010010: 486801 539750 567907 561510
0100101001010010: 486801 539750 567907 587392
0101101001001000: 486801 539750 567907 587624
0101101001001000: 486801 539750 567907 545211
0101101001001000: 486801 539750 567907 587624
0101101001001000: 486801 539750 567907 545211
0110100010010010: 587624 486801 506918 566809
0110100110000100: 587624 486801 506918 545211
0110100110000100: 587624 486801 506918 539750
0110100010010010: 587624 486801 506918 566809
0110100110000100: 587624 486801 506918 545211
0110100110000100: 587624 486801 506918 539750
0110100110000100: 587624 486801 506918 545211
0110100110000100: 587624 486801 506918 539750
0110100010010010: 587624 486801 506918 566809
0110100010010010: 587624 506918 486801 545211
0110100010010010: 587624 506918 486801 539750
0110100110000100: 587624 506918 486801 566809
0110100110000100: 587624 506918 486801 566809
0110100110000100: 587624 506918 486801 566809
0110100110000100: 587624 506918 486801 566809
0101101001001000: 640483 458449 545211 612244
0101101001001000: 640483 458449 545211 639325
0101101001001000: 640483 612244 561510 458449
0101101001001000: 640483 612244 561510 639325
0111100010001000: 640483 639325 612244 458449
0110100010010010: 640483 458449 612244 561510
0110100010010010: 640483 458449 612244 561510
0111100010001000: 640483 458449 639325 612244
0110100010010010: 640483 458449 639325 462077
0110100010010010: 640483 458449 639325 520855
0110100110000100: 640483 458449 612244 545211
0110100110000100: 640483 458449 612244 545211
0110100110000100: 640483 458449 639325 545211
0110100110000100: 640483 458449 639325 545211
0101101001001000: 640483 458449 545211 612244
0101101001001000: 640483 458449 545211 639325
0100101001010010: 640483 458449 545211 486801
0100101001010010: 640483 458449 545211 561510
0100101001010010: 640483 458449 545211 587392
0100101001010010: 640483 458449 545211 522368
0100101001010010: 640483 458449 545211 545154
0100101001010010: 640483 458449 545211 486801
0100101001010010: 640483 458449 545211 561510
0100101001010010: 640483 458449 545211 587392
0100101001010010: 640483 458449 545211 522368
0100101001010010: 640483 458449 545211 545154
0101101001001000: 640483 458449 545211 612244
0101101001001000: 640483 458449 545211 639325
0110100010010010: 640483 612244 458449 545211
0110100010010010: 640483 612244 458449 545211
0111100010001000: 640483 612244 639325 458449
0110100010010010: 640483 612244 639325 462077
0110100010010010: 640483 612244 639325 520855
0111100010001000: 640483 612244 458449 639325
0110100110000100: 640483 612244 458449 561510
0110100110000100: 640483 612244 458449 561510
0110100110000100: 640483 612244 639325 561510
0110100110000100: 640483 612244 639325 561510
0101101001001000: 640483 612244 561510 458449
0101101001001000: 640483 612244 561510 639325
0100101001010010: 640483 612244 561510 545211
0100101001010010: 640483 612244 561510 462077
0100101001010010: 640483 612244 561510 567907
0100101001010010: 640483 612244 561510 545211
0100101001010010: 640483 612244 561510 462077
0100101001010010: 640483 612244 561510 567907
0101101001001000: 640483 612244 561510 458449
0101101001001000: 640483 612244 561510 639325
0101101001001000: 640483 612244 561510 458449
0110100010010010: 640483 639325 458449 545211
0110100010010010: 640483 639325 458449 545211
0111100010001000: 640483 639325 612244 458449
0110100010010010: 640483 639325 612244 561510
0110100010010010: 640483 639325 612244 561510
0111100010001000: 640483 639325 458449 612244
0110100110000100: 640483 639325 458449 462077
0110100110000100: 640483 639325 458449 520855
0110100010010010: 640483 639325 458449 545211
0111100010001000: 640483 639325 612244 458449
0111100010001000: 640483 639325 612244 458449
0110100110000100: 640483 639325 612244 462077
0110100110000100: 640483 639325 612244 520855
0110100010010010: 640483 639325 612244 561510
0111100010001000: 640483 639325 458449 612244
0111100010001000: 640483 639325 458449 612244
0110100010010010: 640483 639325 458449 545211
0111100010001000: 640483 639325 612244 458449
0111100010001000: 640483 639325 612244 458449
0110100010010010: 640483 639325 612244 561510
0110100110000100: 640483 639325 458449 462077
0110100110000100: 640483 639325 458449 520855
0110100110000100: 640483 639325 458449 462077
0110100110000100: 640483 639325 458449 520855
0111100010001000: 640483 639325 458449 612244
0110100010010010: 640483 639325 458449 545211
0110100010010010: 640483 639325 458449 545211
0110100110000100: 640483 639325 612244 462077
0110100110000100: 640483 639325 612244 520855
0110100110000100: 640483 639325 612244 462077
0110100110000100: 640483 639325 612244 520855
0111100010001000: 640483 639325 612244 458449
0111100010001000: 640483 639325 612244 458449
0110100010010010: 640483 639325 612244 561510
0110100010010010: 640483 639325 612244 561510
