Vertex,0101101001011010,0110100110010110,0111100010001000,0100101001010010,0110100110000100,0110100010010010,0100101101000100,0101101001001000
524316,11.0,35.0,113.0,7.0,180.0,97.0,2.0,28.0
500529,0.0,0.0,38.0,6.0,86.0,37.0,0.0,12.0
636533,0.0,0.0,0.0,6.0,62.0,35.0,0.0,12.0
507291,11.0,35.0,53.0,7.0,97.0,50.0,2.0,18.0
483847,0.0,0.0,98.0,6.0,183.0,93.0,0.0,26.0
585032,11.0,35.0,38.0,0.0,59.0,25.0,0.0,10.0
619867,11.0,35.0,15.0,0.0,42.0,26.0,2.0,12.0
507148,0.0,0.0,15.0,10.0,62.0,34.0,2.0,12.0
548400,0.0,0.0,38.0,6.0,79.0,33.0,0.0,10.0
589131,0.0,0.0,38.0,6.0,79.0,33.0,0.0,10.0
514832,0.0,0.0,38.0,0.0,59.0,25.0,0.0,10.0
553362,0.0,0.0,0.0,10.0,55.0,31.0,0.0,10.0
533728,0.0,0.0,0.0,0.0,21.0,13.0,0.0,6.0
graph,11.0,35.0,121.0,16.0,266.0,133.0,2.0,44.0
