Vertex,0110010010100010100100110,0110010011100000100001000,0110010010100010100000100
646415,0.0,5.0,8.0
583543,1.0,11.0,18.0
545507,0.0,1.0,3.0
554054,1.0,15.0,23.0
475072,1.0,12.0,14.0
602539,0.0,8.0,16.0
592258,1.0,16.0,26.0
627698,1.0,17.0,25.0
553552,0.0,5.0,12.0
613450,0.0,10.0,23.0
503304,0.0,2.0,12.0
460921,0.0,6.0,15.0
593189,0.0,7.0,15.0
graph,1.0,23.0,42.0
