Vertex,0110101111010110,0110101111000100,0111101011001000,0101101101011110,0101101001001000,0111100110001100,0100101101000100,0110100110000100,0111100110011110,0110100010010010,0111100010011010,0111101111001100,0110101011010010,0100101001010010,0111101111011110,0101101101001100,0111101011011010,0111100010001000,0110100110010110,0101101001011010
618989,71.0,144.0,334.0,4.0,84.0,80.0,4.0,303.0,4.0,157.0,62.0,90.0,84.0,21.0,0.0,12.0,77.0,430.0,35.0,10.0
653026,34.0,144.0,352.0,3.0,40.0,77.0,2.0,143.0,3.0,77.0,68.0,36.0,74.0,13.0,0.0,4.0,37.0,367.0,0.0,0.0
554368,262.0,725.0,1648.0,9.0,278.0,415.0,4.0,982.0,9.0,491.0,292.0,396.0,449.0,33.0,465.0,78.0,297.0,1814.0,105.0,38.0
655976,0.0,19.0,34.0,0.0,58.0,13.0,2.0,203.0,0.0,110.0,4.0,0.0,17.0,8.0,0.0,6.0,0.0,15.0,35.0,10.0
519840,17.0,101.0,249.0,2.0,56.0,54.0,0.0,193.0,2.0,103.0,48.0,18.0,51.0,11.0,0.0,2.0,20.0,432.0,35.0,14.0
543441,121.0,331.0,730.0,4.0,118.0,193.0,10.0,408.0,3.0,233.0,124.0,180.0,221.0,48.0,310.0,46.0,135.0,429.0,70.0,28.0
504335,0.0,56.0,140.0,0.0,50.0,28.0,0.0,175.0,0.0,90.0,28.0,0.0,28.0,4.0,0.0,0.0,0.0,512.0,35.0,10.0
584893,0.0,80.0,154.0,0.0,100.0,56.0,8.0,355.0,0.0,189.0,20.0,0.0,64.0,42.0,0.0,24.0,0.0,86.0,70.0,28.0
564728,70.0,183.0,411.0,0.0,88.0,105.0,0.0,318.0,0.0,163.0,72.0,126.0,117.0,20.0,155.0,22.0,84.0,528.0,0.0,0.0
563123,104.0,207.0,460.0,4.0,112.0,119.0,4.0,402.0,3.0,202.0,80.0,162.0,135.0,20.0,155.0,26.0,118.0,526.0,0.0,0.0
606424,198.0,474.0,1040.0,7.0,156.0,280.0,8.0,546.0,5.0,293.0,178.0,306.0,312.0,40.0,465.0,68.0,224.0,476.0,70.0,30.0
649443,50.0,199.0,449.0,0.0,78.0,113.0,0.0,268.0,0.0,138.0,80.0,90.0,125.0,18.0,155.0,22.0,60.0,496.0,35.0,16.0
645131,84.0,234.0,533.0,3.0,100.0,132.0,6.0,354.0,3.0,191.0,96.0,126.0,144.0,37.0,155.0,24.0,96.0,463.0,70.0,28.0
592382,0.0,56.0,140.0,0.0,50.0,28.0,0.0,184.0,0.0,90.0,28.0,0.0,28.0,3.0,0.0,0.0,0.0,512.0,0.0,0.0
499125,44.0,143.0,346.0,3.0,51.0,78.0,2.0,179.0,3.0,90.0,66.0,54.0,75.0,12.0,0.0,6.0,48.0,383.0,0.0,0.0
575690,17.0,101.0,249.0,1.0,58.0,54.0,0.0,200.0,2.0,107.0,48.0,18.0,51.0,11.0,0.0,2.0,18.0,432.0,35.0,14.0
649140,50.0,90.0,217.0,0.0,40.0,48.0,0.0,140.0,0.0,60.0,42.0,90.0,48.0,0.0,0.0,4.0,60.0,600.0,0.0,0.0
581240,0.0,18.0,38.0,0.0,52.0,16.0,0.0,188.0,0.0,102.0,4.0,0.0,10.0,10.0,0.0,4.0,0.0,0.0,35.0,14.0
638135,0.0,0.0,0.0,0.0,30.0,0.0,4.0,115.0,0.0,91.0,0.0,0.0,0.0,42.0,0.0,0.0,0.0,24.0,0.0,0.0
523555,0.0,36.0,63.0,0.0,50.0,24.0,0.0,185.0,0.0,102.0,6.0,0.0,36.0,22.0,0.0,12.0,0.0,0.0,0.0,0.0
652458,34.0,82.0,174.0,4.0,60.0,52.0,6.0,210.0,3.0,90.0,28.0,36.0,56.0,0.0,0.0,16.0,34.0,149.0,0.0,0.0
566853,0.0,43.0,74.0,0.0,50.0,29.0,4.0,185.0,0.0,101.0,8.0,0.0,41.0,26.0,0.0,14.0,0.0,30.0,0.0,0.0
546023,0.0,58.0,120.0,0.0,67.0,38.0,4.0,242.0,0.0,136.0,20.0,0.0,38.0,33.0,0.0,12.0,0.0,166.0,35.0,16.0
468521,0.0,0.0,0.0,0.0,29.0,0.0,2.0,109.0,0.0,75.0,0.0,0.0,0.0,29.0,0.0,0.0,0.0,15.0,0.0,0.0
615774,0.0,36.0,61.0,0.0,59.0,24.0,2.0,204.0,0.0,109.0,6.0,0.0,36.0,19.0,0.0,12.0,0.0,15.0,35.0,16.0
613256,0.0,0.0,0.0,0.0,26.0,0.0,0.0,100.0,0.0,54.0,0.0,0.0,0.0,3.0,0.0,0.0,0.0,0.0,0.0,0.0
528493,0.0,0.0,0.0,0.0,0.0,0.0,0.0,9.0,0.0,4.0,0.0,0.0,0.0,3.0,0.0,0.0,0.0,0.0,0.0,0.0
graph,289.0,890.0,2004.0,11.0,485.0,514.0,18.0,1725.0,10.0,912.0,352.0,432.0,560.0,132.0,465.0,104.0,327.0,2225.0,175.0,68.0
