0110010010100010100000100: 590577 606850 653039 646390 502919
0110010011100000100001000: 606850 516536 590577 502919 477083
0110010011100100110001000: 606850 516536 590577 653039 477083
0111010101110001000001000: 606850 516536 646390 590577 502919
0111010101110001000101010: 606850 516536 646390 590577 653039
0110010010100010100000100: 606850 590577 646390 653039 477083
0111010101110001000001000: 516536 477083 646390 502919 631328
0111010101110001000001000: 516536 477083 646390 653039 631328
0111010100110001000100010: 516536 646390 477083 502919 504611
0111010100110001000100010: 516536 646390 477083 502919 538757
0111010100110001000100010: 516536 646390 477083 502919 504657
0111010100110001000100010: 516536 646390 477083 653039 590577
0111010110110011100000100: 516536 646390 477083 606850 631328
0111110110110001100010000: 516536 646390 606850 477083 502919
0111110110110001100010000: 516536 646390 606850 477083 653039
0111010110110011100000100: 516536 646390 606850 477083 590577
0110010010100010100000100: 516536 502919 477083 504611 631328
0110010011100000100001000: 516536 502919 477083 538757 504611
0110010010100010100000100: 516536 502919 477083 538757 631328
0110010011100000100001000: 516536 502919 477083 504657 504611
0110010010100010100100110: 516536 502919 477083 504657 631328
0110010011100000100001000: 516536 502919 646390 538757 504611
0110010011100000100001000: 516536 502919 646390 504657 504611
0110010011100000100001000: 516536 502919 606850 538757 504611
0110010011100000100001000: 516536 502919 606850 504657 504611
0111010101110001000001000: 516536 502919 653039 477083 504611
0111010101110001000001000: 516536 502919 653039 477083 538757
0111010101110001000001000: 516536 502919 653039 477083 504657
0111010101110001000001000: 516536 502919 653039 646390 504611
0111010101110001000001000: 516536 502919 653039 646390 538757
0111010101110001000001000: 516536 502919 653039 646390 504657
0111010101110001000001000: 516536 502919 653039 606850 504611
0111010101110001000001000: 516536 502919 653039 606850 538757
0111010101110001000001000: 516536 502919 653039 606850 504657
0110010010100010100000100: 516536 653039 477083 590577 631328
0111010101110001000001000: 516536 653039 502919 477083 590577
0111010100110001000100010: 516536 653039 502919 477083 631328
0111010101110001000001000: 516536 653039 502919 646390 590577
0111110100110001000110010: 516536 653039 502919 646390 477083
0111110100110001000010000: 516536 653039 502919 606850 477083
0111010101110001000101010: 516536 653039 502919 606850 590577
0110010010100010100000100: 516536 606850 477083 590577 631328
0110010010100010100000100: 516536 606850 502919 590577 504611
0110010010100010100000100: 516536 606850 502919 590577 538757
0110010010100010100000100: 516536 606850 502919 590577 504657
0111010100110001000100010: 516536 606850 646390 502919 504611
0111010100110001000100010: 516536 606850 646390 502919 538757
0111010100110001000100010: 516536 606850 646390 502919 504657
0111110100110001000110010: 516536 606850 646390 653039 502919
0110010011100000100001000: 653039 502919 590577 538757 504611
0110010011100000100001000: 653039 502919 590577 504657 504611
0111010101110001000001000: 653039 502919 516536 590577 504611
0111010101110001000001000: 653039 502919 516536 590577 538757
0111010101110001000001000: 653039 502919 516536 590577 504657
0110010010100010100000100: 653039 590577 502919 606850 504611
0110010010100010100000100: 653039 590577 502919 606850 538757
0110010010100010100000100: 653039 590577 502919 606850 504657
0110010010100010100000100: 502919 538757 504611 560468 652495
0111010101110001000001000: 502919 538757 504657 504611 560468
0111010101110001000001000: 502919 538757 504657 653039 560468
0111010101110001000001000: 502919 538757 504657 516536 560468
0110010010100010100000100: 502919 504657 504611 631328 652495
0111010101110001000001000: 502919 504657 538757 504611 631328
0111010100110001000100010: 502919 504657 538757 504611 652495
0111110100110001000010000: 502919 504657 538757 653039 504611
0111010101110001000001000: 502919 504657 538757 653039 631328
0111010100110001000100010: 502919 504657 538757 653039 590577
0111110100110001000010000: 502919 504657 538757 516536 504611
0111010101110001000001000: 502919 504657 538757 516536 631328
0111010100110001000100010: 502919 504657 538757 516536 477083
0111010100110001000100010: 502919 504657 538757 516536 646390
0111010100110001000100010: 502919 504657 538757 516536 606850
0110010010100010100000100: 502919 653039 504611 590577 652495
0110010010100010100000100: 502919 653039 538757 590577 560468
0110010010100010100000100: 502919 653039 504657 590577 631328
0110010010100010100000100: 502919 516536 504611 477083 652495
0110010010100010100000100: 502919 516536 504611 646390 652495
0110010011100000100001000: 502919 516536 504611 606850 477083
0110010010100010100000100: 502919 516536 504611 606850 652495
0110010010100010100000100: 502919 516536 538757 477083 560468
0110010010100010100000100: 502919 516536 538757 646390 560468
0110010011100000100001000: 502919 516536 538757 606850 477083
0110010010100010100000100: 502919 516536 538757 606850 560468
0110010010100010100000100: 502919 516536 504657 646390 631328
0110010011100000100001000: 502919 516536 504657 606850 477083
0110010010100010100000100: 502919 516536 504657 606850 631328
0111010100110001000100010: 502919 516536 653039 504611 652495
0111110100110001000010000: 502919 516536 653039 538757 504611
0111010100110001000100010: 502919 516536 653039 538757 560468
0111110100110001000010000: 502919 516536 653039 504657 504611
0111010100110001000100010: 502919 516536 653039 504657 631328
0111110100110001000110010: 502919 516536 653039 504657 538757
0110010010100010100000100: 504657 538757 631328 560468 477083
0111010101110001000001000: 504657 538757 502919 631328 560468
0110010010100010100000100: 504657 502919 631328 504611 477083
0110010011100000100001000: 504657 502919 631328 653039 504611
0110010010100010100000100: 504657 502919 631328 653039 477083
0110010011100000100001000: 504657 502919 631328 516536 504611
0111010100110001000100010: 504657 502919 538757 631328 477083
0110010011100000100001000: 538757 502919 560468 653039 504611
0110010011100000100001000: 538757 502919 560468 516536 504611
0110010010100010100000100: 646390 606850 477083 590577 631328
0110010010100010100000100: 477083 646390 631328 606850 504657
0110010010100010100000100: 477083 516536 631328 653039 504657
0110010011100000100001000: 477083 516536 631328 606850 502919
0110010011100000100001000: 477083 516536 631328 606850 653039
0110010010100010100000100: 477083 516536 631328 606850 504657
0111010100110001000100010: 477083 516536 646390 631328 504657
0110010011100000100001000: 504611 502919 652495 653039 538757
0110010011100000100001000: 504611 502919 652495 653039 504657
0110010011100000100001000: 504611 502919 652495 516536 538757
0110010011100000100001000: 504611 502919 652495 516536 504657
0110010010100010100000100: 504611 652495 502919 596619 538757
0110010010100010100000100: 504611 652495 502919 596619 504657
0110010010100010100000100: 504611 652495 502919 596619 653039
0110010010100010100000100: 504611 652495 502919 596619 516536
0110010010100010100000100: 631328 504657 477083 538757 646390
0110010010100010100000100: 631328 504657 477083 538757 516536
0110010010100010100000100: 631328 504657 477083 502919 646390
