0101101001001000: 511635 547962 486923 635193
0101101001001000: 511635 547962 486923 542036
0111101011001000: 511635 635193 542036 547962
0111101011001000: 511635 542036 635193 547962
0110100110000100: 511635 547962 635193 486923
0110100010010010: 511635 547962 635193 584454
0111100010011010: 511635 547962 635193 542036
0110100110000100: 511635 547962 542036 486923
0111100010011010: 511635 547962 542036 635193
0110100110000100: 511635 547962 635193 486923
0110100110000100: 511635 547962 635193 486923
0110100110000100: 511635 547962 635193 486923
0110100110000100: 511635 547962 542036 486923
0110100110000100: 511635 547962 542036 486923
0110100110000100: 511635 547962 542036 486923
0101101001001000: 511635 547962 486923 635193
0101101001001000: 511635 547962 486923 542036
0100101001010010: 511635 547962 486923 519529
0100101001010010: 511635 547962 486923 519529
0100101001010010: 511635 547962 486923 519529
0110100110000100: 511635 635193 547962 584454
0110100010010010: 511635 635193 547962 486923
0110100010010010: 511635 635193 547962 486923
0110100110000100: 511635 635193 547962 584454
0110100110000100: 511635 635193 547962 584454
0111100110001100: 511635 635193 547962 542036
0110100010010010: 511635 635193 547962 486923
0111101011001000: 511635 635193 542036 547962
0110100010010010: 511635 635193 547962 486923
0111101011001000: 511635 635193 542036 547962
0111101011001000: 511635 635193 542036 547962
0110101111000100: 511635 635193 542036 584454
0110101111000100: 511635 635193 542036 584454
0111101011001000: 511635 635193 542036 547962
0110100110000100: 511635 635193 547962 584454
0110100110000100: 511635 635193 547962 584454
0111100110001100: 511635 635193 547962 542036
0111100110001100: 511635 635193 547962 542036
0111100110001100: 511635 635193 547962 542036
0110100010010010: 511635 635193 547962 486923
0110100010010010: 511635 635193 547962 486923
0111101011001000: 511635 635193 542036 547962
0110100010010010: 511635 542036 547962 486923
0110100010010010: 511635 542036 547962 486923
0111100110001100: 511635 542036 547962 635193
0111101011001000: 511635 542036 635193 547962
0110101011010010: 511635 542036 635193 584454
0110101011010010: 511635 542036 635193 584454
0111101011001000: 511635 542036 635193 547962
0111101011001000: 511635 542036 635193 547962
0111101011001000: 511635 542036 635193 547962
0111101011001000: 511635 542036 635193 547962
0111101011001000: 511635 542036 635193 547962
0111101011001000: 511635 542036 635193 547962
0110101011010010: 542036 635193 511635 547962
0110101011010010: 542036 635193 511635 547962
0110101111000100: 542036 635193 511635 584454
0110101111000100: 542036 635193 511635 584454
0110101111000100: 542036 635193 511635 584454
0110101111000100: 542036 511635 635193 547962
0110101111000100: 542036 511635 635193 547962
0110101111000100: 542036 511635 635193 547962
0110100110000100: 577466 571933 519529 635331
0110100010010010: 577466 571933 519529 486923
0110100110000100: 577466 571933 519529 635331
0110100110000100: 577466 571933 519529 635331
0110100110000100: 577466 571933 519529 635331
0110100110000100: 577466 571933 519529 635331
0110100110000100: 577466 571933 519529 635331
0110100110000100: 577466 519529 571933 486923
0110100010010010: 577466 519529 571933 635331
0110100110000100: 577466 519529 571933 486923
0110100110000100: 577466 519529 571933 486923
0110100110000100: 577466 519529 571933 486923
0110100110000100: 577466 519529 571933 486923
0110100110000100: 577466 519529 571933 486923
0110100110000100: 519529 486923 577466 547962
0110100010010010: 519529 486923 577466 571933
0110100110000100: 519529 486923 577466 547962
0110100110000100: 519529 486923 577466 547962
0110100110000100: 519529 486923 577466 547962
0110100110000100: 519529 486923 577466 547962
0110100110000100: 519529 486923 577466 547962
0110100010010010: 519529 577466 486923 547962
0110100110000100: 519529 577466 486923 571933
0110100110000100: 519529 577466 486923 571933
0110100110000100: 519529 577466 486923 571933
0110100110000100: 519529 577466 486923 571933
0110100110000100: 635331 596491 571933 505256
0110100010010010: 635331 596491 571933 577466
0110100110000100: 635331 596491 571933 505256
0110100110000100: 635331 596491 571933 505256
0110100110000100: 635331 596491 571933 505256
0110100110000100: 635331 596491 571933 505256
0110100110000100: 635331 596491 571933 505256
0110100110000100: 635331 571933 596491 577466
0110100010010010: 635331 571933 596491 505256
0110100110000100: 635331 571933 596491 577466
0110100110000100: 635331 571933 596491 577466
0110100110000100: 635331 571933 596491 577466
0110100110000100: 635331 571933 596491 577466
0110100110000100: 635331 571933 596491 577466
0110100010010010: 571933 635331 577466 519529
0110100110000100: 571933 635331 577466 596491
0110100110000100: 571933 635331 577466 596491
0110100110000100: 571933 635331 577466 596491
0110100110000100: 571933 635331 577466 596491
0110100010010010: 571933 577466 635331 596491
0110100110000100: 571933 577466 635331 519529
0110100110000100: 571933 577466 635331 519529
0110100110000100: 571933 577466 635331 519529
0110100110000100: 571933 577466 635331 519529
0111101011001000: 635193 542036 511635 584454
0111101011001000: 635193 511635 542036 584454
0111100010011010: 635193 584454 542036 511635
0110100010010010: 635193 584454 511635 547962
0111100010011010: 635193 584454 511635 542036
0111100110001100: 635193 542036 584454 511635
0111101011001000: 635193 542036 511635 584454
0111101011001000: 635193 542036 511635 584454
0111101011001000: 635193 542036 511635 584454
0111101011001000: 635193 542036 511635 584454
0111101011001000: 635193 542036 511635 584454
0110100110000100: 635193 511635 584454 547962
0111100110001100: 635193 511635 584454 542036
0111101011001000: 635193 511635 542036 584454
0111101011001000: 635193 511635 542036 584454
0111101011001000: 635193 511635 542036 584454
0110101111000100: 635193 511635 542036 547962
0110101111000100: 635193 511635 542036 547962
0111101011001000: 635193 511635 542036 584454
0110100110000100: 635193 511635 584454 547962
0110100110000100: 635193 511635 584454 547962
0111100110001100: 635193 511635 584454 542036
0111100110001100: 635193 511635 584454 542036
0111100110001100: 635193 511635 584454 542036
0111101011001000: 635193 511635 542036 584454
0111101011001000: 635193 511635 542036 584454
0111101011001000: 635193 511635 542036 584454
0110100110000100: 486923 547962 519529 511635
0110100010010010: 486923 547962 519529 577466
0110100110000100: 486923 547962 519529 511635
0110100110000100: 486923 547962 519529 511635
0110100110000100: 486923 547962 519529 511635
0110100110000100: 486923 547962 519529 511635
0110100110000100: 486923 547962 519529 511635
0110100010010010: 486923 519529 547962 511635
0110100110000100: 486923 519529 547962 577466
0110100110000100: 486923 519529 547962 577466
0110100110000100: 486923 519529 547962 577466
0110100110000100: 486923 519529 547962 577466
0110100010010010: 547962 486923 511635 635193
0110100010010010: 547962 486923 511635 542036
0110100110000100: 547962 486923 511635 519529
0110100110000100: 547962 486923 511635 519529
0110100110000100: 547962 486923 511635 519529
0110100110000100: 547962 486923 511635 519529
0110100010010010: 547962 511635 486923 519529
0110100110000100: 547962 511635 486923 635193
0110100110000100: 547962 511635 486923 542036
0110100010010010: 547962 511635 486923 519529
0110100110000100: 547962 511635 486923 635193
0110100110000100: 547962 511635 486923 542036
0110100110000100: 547962 511635 486923 635193
0110100110000100: 547962 511635 486923 542036
0110100010010010: 547962 511635 486923 519529
0110100010010010: 596491 505256 635331 571933
0110100110000100: 596491 635331 505256 571933
0110100110000100: 596491 635331 505256 571933
0110100110000100: 596491 635331 505256 571933
