Vertex,0110010010100010100000100,0111110110110011100010100,0111010100110001000100010,0111010101110001000101010,0111010110110011100000100,0111010101110001000001000,0111110110110001100010000,0110010010100010100100110,0111110100110001000110010,0110010011100000100001000,0111110000100001000010000,0111110100110001000010000,0111010110110011100100110,0110010011100100110001000
577001,74.0,1.0,16.0,2.0,8.0,11.0,6.0,3.0,0.0,84.0,11.0,8.0,1.0,12.0
609500,35.0,1.0,21.0,5.0,8.0,32.0,6.0,1.0,1.0,37.0,4.0,17.0,1.0,6.0
654381,52.0,1.0,6.0,4.0,5.0,13.0,2.0,4.0,0.0,58.0,3.0,3.0,0.0,5.0
623423,38.0,0.0,3.0,0.0,1.0,6.0,1.0,0.0,0.0,28.0,1.0,2.0,0.0,2.0
489867,69.0,1.0,20.0,6.0,3.0,37.0,4.0,3.0,1.0,85.0,11.0,14.0,1.0,22.0
525260,27.0,0.0,1.0,1.0,0.0,15.0,1.0,1.0,0.0,46.0,1.0,6.0,1.0,13.0
483619,131.0,1.0,19.0,3.0,8.0,29.0,6.0,5.0,1.0,178.0,20.0,16.0,1.0,16.0
577334,94.0,0.0,16.0,5.0,2.0,24.0,0.0,6.0,1.0,72.0,2.0,7.0,0.0,13.0
575461,34.0,0.0,3.0,0.0,1.0,6.0,1.0,0.0,0.0,68.0,13.0,6.0,0.0,2.0
617937,36.0,0.0,3.0,0.0,1.0,6.0,1.0,0.0,0.0,68.0,13.0,6.0,0.0,2.0
589225,55.0,0.0,6.0,0.0,1.0,6.0,1.0,2.0,0.0,88.0,13.0,6.0,0.0,2.0
549840,62.0,0.0,5.0,2.0,1.0,9.0,1.0,3.0,0.0,102.0,15.0,8.0,0.0,10.0
551365,36.0,0.0,4.0,0.0,0.0,6.0,0.0,0.0,0.0,19.0,0.0,1.0,0.0,0.0
562627,72.0,0.0,15.0,2.0,1.0,24.0,0.0,0.0,1.0,46.0,1.0,7.0,0.0,2.0
541509,10.0,0.0,0.0,0.0,0.0,0.0,0.0,0.0,0.0,0.0,0.0,0.0,0.0,0.0
546449,21.0,0.0,2.0,0.0,0.0,0.0,0.0,0.0,0.0,13.0,0.0,0.0,0.0,0.0
486526,5.0,0.0,0.0,0.0,0.0,0.0,0.0,0.0,0.0,0.0,0.0,0.0,0.0,0.0
586116,5.0,0.0,0.0,0.0,0.0,0.0,0.0,0.0,0.0,0.0,0.0,0.0,0.0,0.0
498788,29.0,0.0,3.0,0.0,0.0,0.0,0.0,0.0,0.0,15.0,0.0,0.0,0.0,0.0
642362,22.0,0.0,2.0,0.0,0.0,0.0,0.0,0.0,0.0,21.0,0.0,0.0,0.0,0.0
619309,43.0,0.0,5.0,0.0,0.0,5.0,0.0,2.0,0.0,48.0,2.0,2.0,0.0,2.0
596329,31.0,0.0,3.0,0.0,0.0,0.0,0.0,0.0,0.0,27.0,0.0,0.0,0.0,1.0
458881,31.0,0.0,2.0,0.0,0.0,6.0,0.0,0.0,0.0,15.0,0.0,1.0,0.0,0.0
461222,15.0,0.0,0.0,0.0,0.0,0.0,0.0,0.0,0.0,1.0,0.0,0.0,0.0,0.0
475665,5.0,0.0,0.0,0.0,0.0,0.0,0.0,0.0,0.0,0.0,0.0,0.0,0.0,0.0
557736,6.0,0.0,0.0,0.0,0.0,0.0,0.0,0.0,0.0,0.0,0.0,0.0,0.0,0.0
535374,7.0,0.0,0.0,0.0,0.0,0.0,0.0,0.0,0.0,1.0,0.0,0.0,0.0,0.0
graph,209.0,1.0,31.0,6.0,8.0,47.0,6.0,6.0,1.0,224.0,22.0,22.0,1.0,22.0
