0111010101110001000001000: 462278 484735 483830 538246 498349
0110010010100010100000100: 462278 538246 484735 509719 498349
0110010011100100110001000: 462278 483830 538246 509719 460145
0111010101110001000001000: 462278 483830 484735 538246 460145
0111010101110001000101010: 462278 483830 484735 538246 509719
0111010110110011100000100: 462278 483830 484735 623468 498349
0111010101110001000001000: 462278 483830 623468 538246 460145
0111010101110001000101010: 462278 483830 623468 538246 509719
0111110110110001100010000: 462278 483830 623468 484735 538246
0111010110110011100000100: 462278 483830 623468 484735 463165
0110010010100010100000100: 462278 623468 484735 463165 498349
0110010010100010100000100: 462278 623468 538246 463165 509719
0111010101110001000001000: 462278 623468 483830 538246 463165
0110010011100000100001000: 623468 483830 463165 509719 484735
0110010011100000100001000: 623468 483830 463165 460145 484735
0110010011100000100001000: 623468 483830 463165 460145 509719
0111010101110001000001000: 623468 483830 462278 463165 509719
0111010101110001000001000: 623468 483830 462278 463165 460145
0110010011100000100001000: 623468 462278 463165 538246 484735
0111010100110001000100010: 623468 462278 483830 463165 525272
0110010010100010100000100: 623468 463165 483830 525272 484735
0110010010100010100000100: 623468 463165 483830 525272 509719
0110010010100010100000100: 623468 463165 483830 525272 460145
0110010010100010100000100: 623468 463165 462278 525272 484735
0110010010100010100000100: 623468 463165 462278 525272 538246
0111010101110001000001000: 483830 484735 462278 509719 498349
0111010101110001000001000: 483830 484735 462278 460145 498349
0110010010100010100000100: 483830 509719 484735 538246 498349
0110010010100010100000100: 483830 460145 484735 480049 498349
0110010011100000100001000: 483830 460145 484735 612363 480049
0110010010100010100000100: 483830 460145 484735 612363 498349
0110010010100010100000100: 483830 460145 509719 480049 538246
0110010011100000100001000: 483830 460145 509719 612363 480049
0110010010100010100000100: 483830 460145 509719 612363 538246
0110010011100000100001000: 483830 460145 623468 612363 480049
0110010011100000100001000: 483830 460145 462278 612363 480049
0110010010100010100000100: 483830 623468 484735 463165 498349
0110010010100010100000100: 483830 623468 509719 463165 538246
0111110000100001000010000: 483830 623468 460145 509719 484735
0110010010100010100000100: 483830 623468 460145 463165 480049
0110010010100010100000100: 483830 623468 460145 463165 612363
0110010010100010100000100: 483830 462278 460145 538246 480049
0110010010100010100000100: 483830 462278 460145 538246 612363
0111110100110001000010000: 483830 462278 484735 460145 509719
0111010100110001000100010: 483830 462278 484735 460145 480049
0111010100110001000100010: 483830 462278 484735 460145 612363
0111110100110001000010000: 483830 462278 623468 460145 509719
0111010100110001000100010: 483830 462278 623468 460145 480049
0111010100110001000100010: 483830 462278 623468 460145 612363
0111110110110001100010000: 483830 462278 623468 484735 509719
0111110110110001100010000: 483830 462278 623468 484735 460145
0110010010100010100000100: 555709 623822 655227 498349 612363
0110010011100000100001000: 555709 623822 655227 480049 498349
0110010010100010100000100: 555709 623822 655227 480049 612363
0110010010100010100000100: 623822 480049 498349 460145 484735
0110010010100010100000100: 623822 555709 498349 655227 484735
0110010010100010100000100: 623822 555709 480049 655227 460145
0110010010100010100000100: 460145 612363 480049 655227 623822
0110010010100010100000100: 460145 483830 480049 484735 623822
0110010011100000100001000: 460145 483830 480049 509719 484735
0110010010100010100000100: 460145 483830 480049 509719 623822
0110010011100000100001000: 460145 483830 480049 623468 484735
0110010011100000100001000: 460145 483830 480049 623468 509719
0110010010100010100000100: 460145 483830 480049 623468 623822
0110010011100000100001000: 460145 483830 480049 462278 509719
0110010010100010100000100: 460145 483830 480049 462278 623822
0110010010100010100000100: 460145 483830 612363 484735 655227
0110010011100000100001000: 460145 483830 612363 509719 484735
0110010010100010100000100: 460145 483830 612363 509719 655227
0110010011100000100001000: 460145 483830 612363 623468 484735
0110010011100000100001000: 460145 483830 612363 623468 509719
0110010010100010100000100: 460145 483830 612363 623468 655227
0110010011100000100001000: 460145 483830 612363 462278 509719
0110010010100010100000100: 460145 483830 612363 462278 655227
0110010010100010100000100: 612363 460145 655227 480049 555709
0110010011100000100001000: 612363 460145 655227 483830 480049
0110010010100010100000100: 612363 460145 655227 483830 555709
0110010010100010100000100: 655227 555709 612363 623822 460145
0110010011100000100001000: 509719 483830 538246 460145 484735
0110010011100000100001000: 509719 483830 538246 623468 484735
0110010011100000100001000: 509719 483830 538246 623468 460145
0110010011100000100001000: 480049 460145 623822 483830 612363
0110010010100010100000100: 480049 623822 460145 498349 612363
0110010010100010100000100: 480049 623822 460145 498349 483830
0110010011100000100001000: 480049 623822 460145 555709 498349
0110010010100010100000100: 480049 623822 460145 555709 612363
0110010010100010100000100: 480049 623822 460145 555709 483830
0110010011100000100001000: 538246 462278 509719 623468 484735
0110010010100010100000100: 498349 623822 484735 480049 483830
0110010010100010100000100: 498349 623822 484735 480049 462278
0110010011100000100001000: 498349 623822 484735 555709 480049
0110010010100010100000100: 498349 623822 484735 555709 483830
0110010010100010100000100: 498349 623822 484735 555709 462278
0110010010100010100000100: 484735 483830 498349 509719 623822
0110010011100000100001000: 484735 483830 498349 460145 509719
0110010010100010100000100: 484735 483830 498349 460145 623822
0110010011100000100001000: 484735 483830 498349 623468 509719
0110010011100000100001000: 484735 483830 498349 623468 460145
0110010010100010100000100: 484735 483830 498349 623468 623822
0110010010100010100000100: 484735 462278 498349 538246 623822
0110010011100000100001000: 484735 462278 498349 623468 538246
0110010010100010100000100: 484735 462278 498349 623468 623822
0111010100110001000100010: 484735 462278 483830 498349 623822
