Vertex,0100101101000100,0111101011001000,0111100010011010,0110100010010010,0111101011011010,0110101111000100,0100101001010010,0110100110000100,0101101101001100,0110101011010010,0111101111001100,0111100110011110,0111100110001100,0110101111010110,0101101001011010,0110100110010110,0101101001001000,0111100010001000
614760,2.0,32.0,4.0,64.0,0.0,16.0,7.0,137.0,4.0,10.0,0.0,0.0,13.0,0.0,14.0,35.0,36.0,30.0
635888,2.0,40.0,8.0,106.0,0.0,16.0,14.0,207.0,0.0,8.0,0.0,0.0,8.0,0.0,14.0,35.0,58.0,207.0
521060,0.0,151.0,26.0,97.0,46.0,68.0,11.0,193.0,8.0,42.0,54.0,4.0,41.0,30.0,14.0,35.0,42.0,159.0
614800,6.0,313.0,52.0,308.0,61.0,138.0,27.0,598.0,16.0,84.0,72.0,5.0,85.0,40.0,24.0,70.0,168.0,525.0
647662,0.0,112.0,20.0,88.0,15.0,51.0,13.0,174.0,6.0,33.0,18.0,1.0,29.0,10.0,0.0,0.0,42.0,167.0
533691,0.0,221.0,36.0,93.0,61.0,95.0,6.0,166.0,10.0,55.0,72.0,5.0,60.0,40.0,0.0,0.0,28.0,134.0
508455,2.0,0.0,0.0,48.0,0.0,0.0,10.0,98.0,0.0,0.0,0.0,0.0,0.0,0.0,0.0,0.0,24.0,15.0
496285,0.0,0.0,0.0,20.0,0.0,0.0,10.0,44.0,0.0,0.0,0.0,0.0,0.0,0.0,0.0,0.0,4.0,0.0
465035,0.0,80.0,14.0,95.0,29.0,36.0,11.0,189.0,4.0,24.0,36.0,2.0,20.0,20.0,0.0,0.0,42.0,184.0
531435,0.0,40.0,8.0,67.0,0.0,16.0,3.0,146.0,0.0,8.0,0.0,0.0,8.0,0.0,0.0,0.0,36.0,192.0
457524,0.0,40.0,8.0,64.0,0.0,16.0,0.0,126.0,0.0,8.0,0.0,0.0,8.0,0.0,10.0,35.0,36.0,192.0
522114,2.0,40.0,8.0,109.0,0.0,16.0,14.0,213.0,0.0,8.0,0.0,0.0,8.0,0.0,0.0,0.0,58.0,207.0
529740,2.0,102.0,16.0,122.0,32.0,42.0,10.0,251.0,4.0,22.0,36.0,3.0,28.0,20.0,10.0,35.0,54.0,214.0
623468,0.0,0.0,0.0,24.0,0.0,0.0,14.0,44.0,0.0,0.0,0.0,0.0,0.0,0.0,0.0,0.0,4.0,0.0
646206,2.0,21.0,2.0,62.0,0.0,9.0,0.0,129.0,2.0,5.0,0.0,0.0,8.0,0.0,10.0,35.0,32.0,30.0
458804,2.0,21.0,2.0,61.0,0.0,9.0,14.0,118.0,2.0,5.0,0.0,0.0,8.0,0.0,0.0,0.0,26.0,30.0
518892,2.0,0.0,0.0,63.0,0.0,0.0,14.0,108.0,0.0,0.0,0.0,0.0,0.0,0.0,0.0,0.0,28.0,15.0
597514,0.0,20.0,2.0,57.0,0.0,12.0,11.0,97.0,4.0,12.0,0.0,0.0,8.0,0.0,0.0,0.0,22.0,0.0
635820,2.0,0.0,0.0,40.0,0.0,0.0,4.0,77.0,0.0,0.0,0.0,0.0,0.0,0.0,0.0,0.0,22.0,15.0
587010,0.0,0.0,0.0,10.0,0.0,0.0,4.0,14.0,0.0,0.0,0.0,0.0,0.0,0.0,0.0,0.0,4.0,0.0
558722,0.0,19.0,2.0,53.0,0.0,12.0,11.0,97.0,4.0,12.0,0.0,0.0,8.0,0.0,0.0,0.0,22.0,0.0
589402,0.0,0.0,0.0,24.0,0.0,0.0,14.0,44.0,0.0,0.0,0.0,0.0,0.0,0.0,0.0,0.0,4.0,0.0
615529,0.0,0.0,0.0,41.0,0.0,0.0,6.0,86.0,0.0,0.0,0.0,0.0,0.0,0.0,0.0,0.0,16.0,0.0
graph,6.0,313.0,52.0,429.0,61.0,138.0,57.0,839.0,16.0,84.0,72.0,5.0,85.0,40.0,24.0,70.0,202.0,579.0
