Vertex,0101101101011110,0110100010010010,0111100110011110,0100101101000100,0101101101001100,0100101101010110,0110101111000100,0101101001001000,0111100010001000,0110101011010010,0100101001010010,0111101011001000,0111100010011010,0111101011011010,0110100110010110,0111100110001100,0110101111010110,0101101001011010,0111101111001100,0110100110000100
542571,0.0,168.0,0.0,12.0,4.0,0.0,12.0,69.0,154.0,12.0,60.0,19.0,2.0,0.0,0.0,8.0,0.0,0.0,0.0,309.0
640884,1.0,229.0,2.0,12.0,14.0,0.0,59.0,97.0,188.0,45.0,79.0,117.0,22.0,16.0,0.0,41.0,17.0,0.0,18.0,397.0
495877,0.0,245.0,0.0,18.0,0.0,0.0,18.0,109.0,273.0,8.0,77.0,47.0,16.0,0.0,37.0,15.0,0.0,6.0,0.0,454.0
512876,0.0,101.0,0.0,6.0,0.0,0.0,0.0,18.0,140.0,0.0,43.0,0.0,0.0,0.0,0.0,0.0,0.0,0.0,0.0,240.0
483847,0.0,106.0,0.0,4.0,0.0,0.0,0.0,28.0,118.0,0.0,26.0,0.0,0.0,0.0,0.0,0.0,0.0,0.0,0.0,242.0
544030,0.0,116.0,0.0,6.0,2.0,0.0,7.0,35.0,117.0,5.0,48.0,14.0,2.0,0.0,0.0,5.0,0.0,0.0,0.0,232.0
540198,0.0,197.0,0.0,10.0,4.0,4.0,41.0,72.0,231.0,24.0,36.0,98.0,38.0,0.0,72.0,38.0,0.0,16.0,0.0,363.0
508114,0.0,141.0,0.0,10.0,2.0,0.0,7.0,65.0,101.0,5.0,51.0,14.0,2.0,0.0,0.0,5.0,0.0,0.0,0.0,232.0
554632,2.0,307.0,6.0,10.0,16.0,2.0,116.0,109.0,307.0,66.0,64.0,272.0,54.0,49.0,74.0,92.0,44.0,17.0,54.0,524.0
470689,0.0,134.0,0.0,8.0,4.0,0.0,12.0,51.0,89.0,12.0,54.0,21.0,2.0,0.0,0.0,8.0,0.0,0.0,0.0,217.0
568391,2.0,316.0,5.0,10.0,16.0,2.0,101.0,113.0,343.0,68.0,71.0,226.0,54.0,34.0,109.0,79.0,34.0,27.0,36.0,567.0
529331,2.0,263.0,6.0,10.0,24.0,2.0,145.0,96.0,186.0,92.0,68.0,327.0,66.0,49.0,35.0,115.0,44.0,10.0,54.0,415.0
588686,0.0,77.0,0.0,4.0,0.0,0.0,0.0,29.0,48.0,0.0,27.0,0.0,0.0,0.0,0.0,0.0,0.0,0.0,0.0,124.0
600618,0.0,127.0,0.0,2.0,0.0,0.0,9.0,49.0,144.0,4.0,27.0,24.0,4.0,0.0,0.0,7.0,0.0,0.0,0.0,267.0
464495,0.0,77.0,0.0,2.0,0.0,0.0,9.0,38.0,109.0,4.0,11.0,24.0,4.0,0.0,37.0,7.0,0.0,11.0,0.0,169.0
586435,1.0,201.0,4.0,4.0,22.0,2.0,115.0,66.0,122.0,73.0,39.0,248.0,66.0,33.0,0.0,82.0,27.0,0.0,36.0,332.0
498334,0.0,167.0,0.0,10.0,12.0,4.0,60.0,56.0,128.0,42.0,47.0,129.0,40.0,0.0,35.0,52.0,0.0,10.0,0.0,286.0
647319,0.0,155.0,0.0,8.0,12.0,2.0,54.0,63.0,97.0,38.0,62.0,111.0,32.0,0.0,0.0,37.0,0.0,0.0,0.0,259.0
496587,0.0,71.0,0.0,4.0,0.0,0.0,5.0,20.0,39.0,2.0,29.0,14.0,2.0,0.0,0.0,5.0,0.0,0.0,0.0,98.0
472106,0.0,94.0,0.0,4.0,4.0,4.0,32.0,32.0,39.0,20.0,27.0,74.0,34.0,0.0,0.0,31.0,0.0,0.0,0.0,137.0
607888,0.0,46.0,1.0,0.0,4.0,0.0,35.0,20.0,84.0,20.0,3.0,80.0,22.0,15.0,0.0,23.0,10.0,0.0,18.0,127.0
651234,0.0,56.0,0.0,0.0,12.0,2.0,54.0,25.0,23.0,38.0,9.0,111.0,32.0,0.0,0.0,37.0,0.0,0.0,0.0,110.0
472379,0.0,111.0,0.0,2.0,0.0,0.0,13.0,44.0,136.0,6.0,20.0,34.0,6.0,0.0,37.0,9.0,0.0,11.0,0.0,249.0
517432,0.0,68.0,0.0,4.0,0.0,0.0,0.0,22.0,24.0,0.0,26.0,0.0,0.0,0.0,0.0,0.0,0.0,0.0,0.0,87.0
539421,0.0,38.0,0.0,0.0,4.0,0.0,12.0,12.0,0.0,12.0,16.0,21.0,2.0,0.0,0.0,8.0,0.0,0.0,0.0,42.0
629877,0.0,23.0,0.0,0.0,4.0,0.0,12.0,10.0,0.0,12.0,4.0,19.0,2.0,0.0,0.0,8.0,0.0,0.0,0.0,35.0
630874,0.0,14.0,0.0,0.0,0.0,0.0,0.0,4.0,0.0,0.0,8.0,0.0,0.0,0.0,0.0,0.0,0.0,0.0,0.0,14.0
graph,2.0,912.0,6.0,40.0,40.0,6.0,232.0,338.0,810.0,152.0,258.0,511.0,126.0,49.0,109.0,178.0,44.0,27.0,54.0,1632.0
