0110100110010110: 646138 545476 474307 582192
0101101001001000: 646138 545476 582192 568754
0111100010001000: 646138 568754 545476 474307
0101101001001000: 646138 568754 610133 474307
0101101001001000: 646138 568754 610133 545476
0110100110000100: 646138 474307 545476 597094
0110100110000100: 646138 474307 545476 525803
0110100110010110: 646138 474307 545476 582192
0110100110010110: 646138 474307 545476 582192
0111100010001000: 646138 474307 568754 545476
0110100110000100: 646138 474307 568754 597094
0110100110000100: 646138 474307 568754 582192
0110100110000100: 646138 474307 568754 525803
0110100010010010: 646138 474307 568754 610133
0110100010010010: 646138 474307 568754 610133
0110100110000100: 646138 474307 545476 597094
0110100110000100: 646138 474307 545476 525803
0110100110000100: 646138 474307 545476 597094
0110100110000100: 646138 474307 545476 525803
0110100110010110: 646138 474307 545476 582192
0110100110000100: 646138 474307 568754 597094
0110100110000100: 646138 474307 568754 582192
0110100110000100: 646138 474307 568754 525803
0110100110000100: 646138 474307 568754 597094
0110100110000100: 646138 474307 568754 582192
0110100110000100: 646138 474307 568754 525803
0110100010010010: 646138 474307 568754 610133
0111100010001000: 646138 474307 545476 568754
0111100010001000: 646138 474307 545476 568754
0111100010001000: 646138 474307 568754 545476
0111100010001000: 646138 474307 568754 545476
0110100010010010: 646138 474307 568754 610133
0110100110000100: 646138 474307 545476 597094
0110100110000100: 646138 474307 545476 525803
0110100110000100: 646138 474307 545476 597094
0110100110000100: 646138 474307 545476 525803
0111100010001000: 646138 474307 545476 568754
0110100110010110: 646138 474307 545476 582192
0110100110010110: 646138 474307 545476 582192
0110100110000100: 646138 474307 568754 597094
0110100110000100: 646138 474307 568754 582192
0110100110000100: 646138 474307 568754 525803
0110100110000100: 646138 474307 568754 597094
0110100110000100: 646138 474307 568754 582192
0110100110000100: 646138 474307 568754 525803
0111100010001000: 646138 474307 568754 545476
0111100010001000: 646138 474307 568754 545476
0110100010010010: 646138 474307 568754 610133
0110100010010010: 646138 474307 568754 610133
0110100010010010: 646138 545476 474307 597094
0110100010010010: 646138 545476 474307 525803
0110100110010110: 646138 545476 474307 582192
0110100110010110: 646138 545476 474307 582192
0111100010001000: 646138 545476 568754 474307
0110100110000100: 646138 545476 568754 582192
0110100010010010: 646138 545476 568754 610133
0110100010010010: 646138 545476 568754 610133
0111100010001000: 646138 545476 474307 568754
0110100110010110: 646138 545476 474307 582192
0110100110010110: 646138 545476 474307 582192
0110100110010110: 646138 545476 474307 582192
0110100110000100: 646138 545476 568754 582192
0110100110000100: 646138 545476 568754 582192
0110100110000100: 646138 545476 568754 582192
0101101001001000: 646138 545476 582192 568754
0101101001011010: 646138 545476 582192 474307
0101101001011010: 646138 545476 582192 474307
0101101001011010: 646138 545476 582192 474307
0110100110000100: 646138 568754 474307 610133
0110100010010010: 646138 568754 474307 597094
0110100010010010: 646138 568754 474307 582192
0110100010010010: 646138 568754 474307 525803
0111100010001000: 646138 568754 545476 474307
0110100110000100: 646138 568754 545476 610133
0110100010010010: 646138 568754 545476 582192
0110100010010010: 646138 568754 545476 582192
0111100010001000: 646138 568754 474307 545476
0110100110000100: 646138 568754 474307 610133
0110100110000100: 646138 568754 474307 610133
0110100110000100: 646138 568754 474307 610133
0111100010001000: 646138 568754 545476 474307
0111100010001000: 646138 568754 545476 474307
0110100110000100: 646138 568754 545476 610133
0110100110000100: 646138 568754 545476 610133
0110100110000100: 646138 568754 545476 610133
0101101001001000: 646138 568754 610133 474307
0101101001001000: 646138 568754 610133 545476
0100101001010010: 646138 568754 610133 605904
0100101001010010: 646138 568754 610133 605904
0100101001010010: 646138 568754 610133 605904
0110100110000100: 568754 610133 646138 605904
0110100010010010: 568754 610133 646138 474307
0110100010010010: 568754 610133 646138 545476
0110100110000100: 568754 610133 646138 605904
0110100110000100: 568754 610133 646138 605904
0110100110000100: 568754 610133 646138 605904
0110100110000100: 568754 610133 646138 605904
0110100110000100: 568754 610133 646138 605904
0110100010010010: 568754 646138 610133 605904
0110100110000100: 568754 646138 610133 474307
0110100110000100: 568754 646138 610133 545476
0110100010010010: 568754 646138 610133 605904
0110100110000100: 568754 646138 610133 474307
0110100110000100: 568754 646138 610133 545476
0110100110000100: 568754 646138 610133 474307
0110100110000100: 568754 646138 610133 545476
0110100010010010: 568754 646138 610133 605904
0110100110000100: 656181 605904 569958 610133
0110100010010010: 656181 605904 569958 633515
0110100110000100: 656181 605904 569958 610133
0110100110000100: 656181 605904 569958 610133
0110100110000100: 656181 605904 569958 610133
0110100110000100: 656181 605904 569958 610133
0110100110000100: 656181 605904 569958 610133
0110100110000100: 656181 569958 605904 633515
0110100010010010: 656181 569958 605904 610133
0110100110000100: 656181 569958 605904 633515
0110100110000100: 656181 569958 605904 633515
0110100110000100: 656181 569958 605904 633515
0110100110000100: 656181 569958 605904 633515
0110100110000100: 656181 569958 605904 633515
0110100110000100: 569958 633515 656181 525803
0110100010010010: 569958 633515 656181 605904
0110100110000100: 569958 633515 656181 525803
0110100110000100: 569958 633515 656181 525803
0110100110000100: 569958 633515 656181 525803
0110100110000100: 569958 633515 656181 525803
0110100110000100: 569958 633515 656181 525803
0110100010010010: 569958 656181 633515 525803
0110100110000100: 569958 656181 633515 605904
0110100110000100: 569958 656181 633515 605904
0110100110000100: 569958 656181 633515 605904
0110100110000100: 569958 656181 633515 605904
0110100110000100: 633515 525803 569958 474307
0110100010010010: 633515 525803 569958 656181
0110100110000100: 633515 525803 569958 474307
0110100110000100: 633515 525803 569958 474307
0110100110000100: 633515 525803 569958 474307
0110100110000100: 633515 525803 569958 474307
0110100110000100: 633515 525803 569958 474307
0110100010010010: 633515 569958 525803 474307
0110100110000100: 633515 569958 525803 656181
0110100110000100: 633515 569958 525803 656181
0110100110000100: 633515 569958 525803 656181
0110100110000100: 633515 569958 525803 656181
0110100110010110: 545476 646138 582192 474307
0110100010010010: 545476 582192 646138 568754
0110100110010110: 545476 582192 646138 474307
0110100110010110: 545476 582192 646138 474307
0110100110010110: 545476 582192 646138 474307
0110100110010110: 545476 582192 646138 474307
0110100110010110: 545476 646138 582192 474307
0110100110000100: 545476 646138 582192 568754
0110100110010110: 545476 646138 582192 474307
0110100110010110: 545476 646138 582192 474307
0110100110000100: 545476 646138 582192 568754
0110100110000100: 545476 646138 582192 568754
0110100110010110: 545476 646138 582192 474307
0110100110000100: 610133 605904 568754 656181
0110100010010010: 610133 605904 568754 646138
0110100110000100: 610133 605904 568754 656181
0110100110000100: 610133 605904 568754 656181
0110100110000100: 610133 605904 568754 656181
0110100110000100: 610133 605904 568754 656181
0110100110000100: 610133 605904 568754 656181
0110100010010010: 610133 568754 605904 656181
0110100110000100: 610133 568754 605904 646138
0110100110000100: 610133 568754 605904 646138
0110100110000100: 610133 568754 605904 646138
0110100110000100: 610133 568754 605904 646138
0110100110000100: 525803 474307 633515 597094
0110100110000100: 525803 474307 633515 582192
0110100110000100: 525803 474307 633515 646138
0110100010010010: 525803 474307 633515 569958
0110100110000100: 525803 474307 633515 597094
0110100110000100: 525803 474307 633515 582192
0110100110000100: 525803 474307 633515 646138
0110100110000100: 525803 474307 633515 597094
0110100110000100: 525803 474307 633515 582192
0110100110000100: 525803 474307 633515 646138
0110100010010010: 525803 474307 633515 569958
0110100110000100: 525803 474307 633515 597094
0110100110000100: 525803 474307 633515 582192
0110100110000100: 525803 474307 633515 646138
0110100110000100: 525803 474307 633515 597094
0110100110000100: 525803 474307 633515 582192
0110100110000100: 525803 474307 633515 646138
0110100010010010: 525803 474307 633515 569958
0110100010010010: 525803 633515 474307 597094
0110100010010010: 525803 633515 474307 582192
0110100010010010: 525803 633515 474307 646138
0110100110000100: 525803 633515 474307 569958
0110100110000100: 525803 633515 474307 569958
0110100110000100: 525803 633515 474307 569958
0110100110000100: 525803 633515 474307 569958
0101101001001000: 474307 597094 645449 582192
0101101001001000: 474307 597094 645449 525803
0101101001001000: 474307 597094 645449 646138
0101101001001000: 474307 582192 545476 597094
0101101001001000: 474307 582192 545476 525803
0111100010001000: 474307 525803 582192 597094
0101101001001000: 474307 525803 633515 597094
0101101001001000: 474307 525803 633515 582192
0101101001001000: 474307 525803 633515 646138
0111100010001000: 474307 646138 582192 597094
0110100110010110: 474307 646138 582192 545476
0111100010001000: 474307 646138 525803 597094
0111100010001000: 474307 646138 525803 582192
0101101001001000: 474307 646138 545476 597094
0101101001001000: 474307 646138 545476 525803
0101101001001000: 474307 646138 568754 597094
0101101001001000: 474307 646138 568754 582192
0101101001001000: 474307 646138 568754 525803
0100101101000100: 474307 646138 568754 545476
0110100110000100: 474307 597094 582192 645449
0110100010010010: 474307 597094 582192 545476
0110100010010010: 474307 597094 582192 545476
0111100010001000: 474307 597094 525803 582192
0110100110000100: 474307 597094 525803 645449
0110100010010010: 474307 597094 525803 633515
0110100010010010: 474307 597094 525803 633515
0111100010001000: 474307 597094 646138 582192
0111100010001000: 474307 597094 646138 525803
0110100110000100: 474307 597094 646138 645449
0110100010010010: 474307 597094 646138 545476
0110100010010010: 474307 597094 646138 568754
0110100010010010: 474307 597094 646138 545476
0110100010010010: 474307 597094 646138 568754
0110100110000100: 474307 597094 582192 645449
0110100110000100: 474307 597094 582192 645449
0110100110000100: 474307 597094 582192 645449
0110100110000100: 474307 597094 525803 645449
0110100110000100: 474307 597094 525803 645449
0110100110000100: 474307 597094 525803 645449
0110100110000100: 474307 597094 646138 645449
0110100110000100: 474307 597094 646138 645449
0110100110000100: 474307 597094 646138 645449
0101101001001000: 474307 597094 645449 582192
0101101001001000: 474307 597094 645449 525803
0101101001001000: 474307 597094 645449 646138
0100101001010010: 474307 597094 645449 466533
0100101001010010: 474307 597094 645449 466533
0100101001010010: 474307 597094 645449 466533
0110100110000100: 474307 582192 597094 545476
0110100010010010: 474307 582192 597094 645449
0110100010010010: 474307 582192 597094 645449
0111100010001000: 474307 582192 525803 597094
0110100110000100: 474307 582192 525803 545476
0110100010010010: 474307 582192 525803 633515
0110100010010010: 474307 582192 525803 633515
0111100010001000: 474307 582192 646138 597094
0111100010001000: 474307 582192 646138 525803
0110100010010010: 474307 582192 646138 568754
0110100010010010: 474307 582192 646138 568754
0110100110010110: 474307 582192 646138 545476
0110100110010110: 474307 582192 646138 545476
0111100010001000: 474307 582192 597094 525803
0111100010001000: 474307 582192 597094 646138
0110100110000100: 474307 582192 597094 545476
0110100110000100: 474307 582192 597094 545476
0110100110000100: 474307 582192 597094 545476
0110100110000100: 474307 582192 525803 545476
0110100110000100: 474307 582192 525803 545476
0110100110000100: 474307 582192 525803 545476
0110100110010110: 474307 582192 646138 545476
0101101001001000: 474307 582192 545476 597094
0101101001001000: 474307 582192 545476 525803
0101101001011010: 474307 582192 545476 646138
0101101001011010: 474307 582192 545476 646138
0101101001011010: 474307 582192 545476 646138
0110100010010010: 474307 525803 597094 645449
0110100010010010: 474307 525803 597094 645449
0111100010001000: 474307 525803 582192 597094
0110100010010010: 474307 525803 582192 545476
0110100010010010: 474307 525803 582192 545476
0111100010001000: 474307 525803 646138 597094
0111100010001000: 474307 525803 646138 582192
0110100010010010: 474307 525803 646138 545476
0110100010010010: 474307 525803 646138 568754
0110100010010010: 474307 525803 646138 545476
0110100010010010: 474307 525803 646138 568754
0111100010001000: 474307 525803 597094 582192
0111100010001000: 474307 525803 597094 646138
0110100110000100: 474307 525803 597094 633515
0110100110000100: 474307 525803 597094 633515
0111100010001000: 474307 525803 582192 597094
0111100010001000: 474307 525803 582192 646138
0111100010001000: 474307 525803 582192 597094
0110100110000100: 474307 525803 582192 633515
0110100110000100: 474307 525803 582192 633515
0110100110000100: 474307 525803 646138 633515
0110100110000100: 474307 525803 646138 633515
0101101001001000: 474307 525803 633515 597094
0101101001001000: 474307 525803 633515 582192
0101101001001000: 474307 525803 633515 646138
0100101001010010: 474307 525803 633515 569958
0100101001010010: 474307 525803 633515 569958
0100101001010010: 474307 525803 633515 569958
0110100010010010: 474307 646138 597094 645449
0110100010010010: 474307 646138 597094 645449
0111100010001000: 474307 646138 582192 597094
0110100110010110: 474307 646138 582192 545476
0111100010001000: 474307 646138 525803 597094
0111100010001000: 474307 646138 525803 582192
0110100010010010: 474307 646138 525803 633515
0110100010010010: 474307 646138 525803 633515
0111100010001000: 474307 646138 597094 582192
0111100010001000: 474307 646138 597094 525803
0110100110000100: 474307 646138 597094 545476
0110100110000100: 474307 646138 597094 568754
0110100110000100: 474307 646138 597094 545476
0110100110000100: 474307 646138 597094 568754
0110100010010010: 474307 646138 597094 645449
0111100010001000: 474307 646138 582192 597094
0111100010001000: 474307 646138 582192 525803
0111100010001000: 474307 646138 582192 597094
0110100110000100: 474307 646138 582192 568754
0110100110000100: 474307 646138 582192 568754
0110100110010110: 474307 646138 582192 545476
0110100110010110: 474307 646138 582192 545476
0111100010001000: 474307 646138 525803 597094
0111100010001000: 474307 646138 525803 582192
0111100010001000: 474307 646138 525803 597094
0111100010001000: 474307 646138 525803 582192
0110100110000100: 474307 646138 525803 545476
0110100110000100: 474307 646138 525803 568754
0110100110000100: 474307 646138 525803 545476
0110100110000100: 474307 646138 525803 568754
0110100010010010: 474307 646138 525803 633515
0101101001001000: 474307 646138 545476 597094
0101101001001000: 474307 646138 545476 525803
0101101001011010: 474307 646138 545476 582192
0101101001011010: 474307 646138 545476 582192
0101101001011010: 474307 646138 545476 582192
0101101001011010: 474307 646138 545476 582192
0101101001001000: 474307 646138 568754 597094
0101101001001000: 474307 646138 568754 582192
0101101001001000: 474307 646138 568754 525803
0100101001010010: 474307 646138 568754 610133
0100101001010010: 474307 646138 568754 610133
0100101101000100: 474307 646138 568754 545476
0100101001010010: 474307 646138 568754 610133
0100101001010010: 474307 646138 568754 610133
0110100110010110: 582192 545476 474307 646138
0110100110010110: 582192 474307 545476 646138
0110100110000100: 582192 474307 545476 597094
0110100110000100: 582192 474307 545476 525803
0110100110010110: 582192 474307 545476 646138
0110100110000100: 582192 474307 545476 597094
0110100110000100: 582192 474307 545476 525803
0110100110000100: 582192 474307 545476 597094
0110100110000100: 582192 474307 545476 525803
0110100110010110: 582192 474307 545476 646138
0110100010010010: 582192 545476 474307 597094
0110100010010010: 582192 545476 474307 525803
0110100110010110: 582192 545476 474307 646138
0110100110010110: 582192 545476 474307 646138
0110100110010110: 582192 545476 474307 646138
0110100110010110: 582192 545476 474307 646138
0110100110000100: 597094 645449 474307 466533
0110100010010010: 597094 645449 474307 582192
0110100010010010: 597094 645449 474307 525803
0110100010010010: 597094 645449 474307 646138
0110100110000100: 597094 645449 474307 466533
0110100110000100: 597094 645449 474307 466533
0110100110000100: 597094 645449 474307 466533
0110100110000100: 597094 645449 474307 466533
0110100110000100: 597094 645449 474307 466533
0110100010010010: 597094 474307 645449 466533
0110100110000100: 597094 474307 645449 582192
0110100110000100: 597094 474307 645449 525803
0110100110000100: 597094 474307 645449 646138
0110100010010010: 597094 474307 645449 466533
0110100110000100: 597094 474307 645449 582192
0110100110000100: 597094 474307 645449 525803
0110100110000100: 597094 474307 645449 646138
0110100110000100: 597094 474307 645449 582192
0110100110000100: 597094 474307 645449 525803
0110100110000100: 597094 474307 645449 646138
0110100010010010: 597094 474307 645449 466533
0110100110000100: 645449 466533 597094 519557
0110100010010010: 645449 466533 597094 474307
0110100110000100: 645449 466533 597094 519557
0110100110000100: 645449 466533 597094 519557
0110100110000100: 645449 466533 597094 519557
0110100110000100: 645449 466533 597094 519557
0110100110000100: 645449 466533 597094 519557
0110100010010010: 645449 597094 466533 519557
0110100110000100: 645449 597094 466533 474307
0110100110000100: 645449 597094 466533 474307
0110100110000100: 645449 597094 466533 474307
0110100110000100: 645449 597094 466533 474307
0110100110000100: 466533 519557 645449 518283
0110100010010010: 466533 519557 645449 597094
0110100110000100: 466533 519557 645449 518283
0110100110000100: 466533 519557 645449 518283
0110100110000100: 466533 519557 645449 518283
0110100110000100: 466533 519557 645449 518283
0110100110000100: 466533 519557 645449 518283
0110100010010010: 466533 645449 519557 518283
0110100110000100: 466533 645449 519557 597094
0110100110000100: 466533 645449 519557 597094
0110100110000100: 466533 645449 519557 597094
0110100110000100: 466533 645449 519557 597094
0110100010010010: 605904 610133 656181 569958
0110100110000100: 605904 610133 656181 568754
0110100110000100: 605904 610133 656181 568754
0110100110000100: 605904 610133 656181 568754
0110100110000100: 605904 610133 656181 568754
0110100010010010: 605904 656181 610133 568754
0110100110000100: 605904 656181 610133 569958
0110100110000100: 605904 656181 610133 569958
0110100110000100: 605904 656181 610133 569958
0110100110000100: 605904 656181 610133 569958
0110100010010010: 519557 518283 466533 645449
0110100110000100: 519557 466533 518283 645449
0110100110000100: 519557 466533 518283 645449
0110100110000100: 519557 466533 518283 645449
