Vertex,0111010110110011100000100,0111110110110011100010100,0111110100110001000010000,0110010010100010100100110,0110010011100100110001000,0111110000100001000010000,0111110100110001000110010,0110010011100110110001100,0111010100110001000100010,0111110110110011100110110,0111010101110001000001000,0110010011100000100001000,0111010101110001000101010,0110010010100010100000100,0111110111110001100011000,0111010110110011100100110,0111110110110001100010000
554368,48.0,17.0,221.0,0.0,66.0,171.0,20.0,2.0,58.0,4.0,141.0,351.0,18.0,62.0,3.0,4.0,92.0
616502,13.0,7.0,71.0,2.0,7.0,54.0,7.0,0.0,17.0,0.0,32.0,95.0,3.0,29.0,1.0,0.0,32.0
498154,21.0,10.0,80.0,2.0,26.0,55.0,5.0,2.0,21.0,2.0,49.0,136.0,8.0,61.0,2.0,2.0,38.0
515106,17.0,8.0,82.0,2.0,4.0,31.0,12.0,0.0,30.0,0.0,54.0,114.0,5.0,64.0,1.0,0.0,39.0
467787,5.0,0.0,2.0,0.0,7.0,0.0,0.0,0.0,11.0,0.0,18.0,58.0,2.0,44.0,0.0,0.0,2.0
482597,39.0,6.0,8.0,1.0,44.0,1.0,0.0,2.0,28.0,4.0,36.0,128.0,9.0,54.0,1.0,4.0,16.0
468426,28.0,10.0,83.0,0.0,14.0,34.0,13.0,1.0,26.0,3.0,37.0,86.0,6.0,43.0,3.0,2.0,45.0
566211,8.0,4.0,65.0,0.0,14.0,71.0,5.0,0.0,13.0,0.0,33.0,115.0,4.0,36.0,1.0,0.0,22.0
519065,4.0,0.0,84.0,0.0,15.0,60.0,9.0,0.0,18.0,0.0,35.0,96.0,4.0,32.0,0.0,0.0,12.0
571133,4.0,0.0,84.0,0.0,15.0,60.0,9.0,0.0,19.0,0.0,34.0,102.0,5.0,29.0,0.0,0.0,12.0
567586,11.0,5.0,66.0,0.0,26.0,71.0,5.0,1.0,14.0,1.0,24.0,98.0,2.0,22.0,1.0,4.0,23.0
607042,4.0,0.0,66.0,0.0,9.0,87.0,0.0,0.0,0.0,0.0,20.0,99.0,0.0,2.0,0.0,0.0,12.0
530241,2.0,0.0,0.0,0.0,0.0,1.0,0.0,0.0,6.0,0.0,25.0,35.0,0.0,22.0,0.0,0.0,3.0
509136,24.0,10.0,69.0,2.0,30.0,62.0,4.0,2.0,18.0,2.0,52.0,139.0,9.0,67.0,3.0,2.0,45.0
610490,8.0,2.0,65.0,0.0,16.0,72.0,5.0,0.0,16.0,0.0,29.0,110.0,2.0,35.0,1.0,0.0,23.0
611671,4.0,0.0,0.0,0.0,8.0,0.0,0.0,0.0,14.0,0.0,16.0,64.0,2.0,39.0,0.0,0.0,0.0
561428,44.0,16.0,75.0,1.0,22.0,45.0,6.0,0.0,30.0,4.0,74.0,171.0,7.0,77.0,3.0,2.0,64.0
556405,5.0,0.0,6.0,0.0,10.0,5.0,0.0,0.0,11.0,0.0,36.0,94.0,4.0,34.0,0.0,0.0,9.0
477431,5.0,0.0,6.0,0.0,6.0,5.0,0.0,0.0,8.0,0.0,27.0,69.0,2.0,38.0,0.0,0.0,9.0
510728,6.0,0.0,2.0,0.0,11.0,0.0,0.0,0.0,12.0,0.0,28.0,85.0,3.0,40.0,0.0,0.0,2.0
graph,60.0,19.0,227.0,2.0,70.0,177.0,20.0,2.0,74.0,4.0,160.0,449.0,19.0,166.0,4.0,4.0,100.0
