0110010010100010100000100: 570191 500336 576199 647633 565521
0111010101110001000001000: 570191 500336 630431 576199 647633
0111010100110001000100010: 570191 630431 500336 576199 565521
0110010010100010100000100: 551134 518841 623729 530229 565521
0110010010100010100000100: 623729 551134 565521 518841 576199
0110010010100010100000100: 565521 623729 576199 551134 570191
0110010010100010100000100: 576199 570191 565521 500336 623729
0110010010100010100000100: 576199 570191 565521 630431 623729
