0110010011100000100001000: 460903 618678 560464 463267 473034
0110010010100010100000100: 460903 560464 618678 652951 473034
0110010010100010100000100: 460903 560464 618678 652951 463267
0110010011100000100001000: 460903 560464 618678 623020 652951
0110010010100010100000100: 460903 560464 618678 623020 473034
0110010010100010100000100: 460903 560464 618678 623020 463267
0110010010100010100000100: 560464 623020 652951 530636 651019
0110010011100000100001000: 560464 623020 652951 482617 530636
0110010010100010100000100: 560464 623020 652951 482617 651019
0110010011100000100001000: 560464 623020 652951 484555 530636
0110010010100010100100110: 560464 623020 652951 484555 651019
0110010011100000100001000: 560464 623020 460903 482617 530636
0110010011100000100001000: 560464 623020 460903 484555 530636
0110010010100010100000100: 560464 460903 652951 618678 651019
0110010010100010100000100: 560464 460903 623020 618678 530636
0110010010100010100000100: 560464 460903 623020 618678 482617
0110010010100010100000100: 560464 460903 623020 618678 484555
0110010011100000100001000: 463267 484555 530636 492100 482617
0110010011100000100001000: 463267 484555 530636 651019 482617
0110010011100000100001000: 463267 484555 530636 651019 492100
0110010011100000100001000: 463267 484555 530636 473034 492100
0110010011100000100001000: 463267 484555 530636 473034 651019
0110010011100100110001000: 463267 484555 530636 623020 492100
0110010011100100110001000: 463267 484555 530636 623020 651019
0110010011100100110001000: 463267 484555 530636 623020 473034
0110010011100000100001000: 463267 484555 618678 492100 482617
0110010011100000100001000: 463267 484555 618678 623020 492100
0110010011100000100001000: 463267 484555 618678 651019 482617
0110010011100000100001000: 463267 484555 618678 651019 492100
0110010011100000100001000: 463267 484555 618678 651019 623020
0110010011100100110001000: 463267 484555 618678 473034 492100
0110010011100100110001000: 463267 484555 618678 473034 623020
0110010011100100110001000: 463267 484555 618678 473034 651019
0110010011100000100001000: 463267 484555 511991 651019 482617
0110010011100000100001000: 463267 484555 511991 651019 623020
0110010011100000100001000: 463267 484555 511991 473034 623020
0110010011100000100001000: 463267 484555 511991 473034 651019
0110010011100100110001000: 463267 484555 511991 492100 482617
0110010011100100110001000: 463267 484555 511991 492100 623020
0110010011100100110001000: 463267 484555 511991 492100 651019
0110010011100100110001000: 463267 484555 511991 492100 473034
0110010010100010100000100: 463267 618678 530636 473034 623020
0110010011100000100001000: 463267 618678 530636 460903 473034
0110010010100010100000100: 463267 618678 530636 460903 623020
0110010010100010100000100: 463267 618678 484555 460903 482617
0110010010100010100000100: 463267 618678 484555 460903 492100
0110010010100010100000100: 463267 618678 484555 460903 623020
0110010010100010100000100: 463267 618678 484555 460903 651019
0110010011100100110001000: 463267 618678 484555 473034 460903
0110010011100000100001000: 463267 618678 511991 460903 473034
0110010010100010100000100: 463267 511991 530636 492100 623020
0111110000100001000010000: 463267 511991 618678 484555 530636
0110010010100010100000100: 463267 511991 618678 492100 473034
0110010010100010100000100: 463267 511991 618678 492100 460903
0110010011100000100001000: 511991 463267 492100 618678 530636
0110010011100100110001000: 511991 463267 492100 484555 530636
0110010011100100110001000: 511991 463267 492100 484555 618678
0110010011100000100001000: 473034 484555 618678 623020 492100
0110010011100000100001000: 473034 484555 618678 651019 492100
0110010011100000100001000: 473034 484555 618678 651019 623020
0111010101110001000001000: 473034 484555 482617 618678 492100
0111010101110001000001000: 473034 484555 482617 618678 651019
0111010100110001000100010: 473034 484555 482617 618678 460903
0111010101110001000101010: 473034 484555 482617 618678 463267
0110010010100010100000100: 473034 618678 482617 463267 623020
0110010011100000100001000: 473034 618678 482617 460903 463267
0110010010100010100000100: 473034 618678 482617 460903 623020
0110010010100010100000100: 473034 618678 484555 460903 492100
0110010010100010100000100: 473034 618678 484555 460903 623020
0110010010100010100000100: 473034 618678 484555 460903 651019
0110010010100010100000100: 618678 463267 473034 530636 482617
0110010011100000100001000: 618678 463267 473034 511991 530636
0110010010100010100000100: 618678 463267 473034 511991 482617
0110010011100100110001000: 618678 463267 473034 484555 530636
0110010011100100110001000: 618678 463267 473034 484555 511991
0110010011100000100001000: 618678 463267 460903 484555 530636
0110010011100000100001000: 618678 463267 460903 511991 530636
0110010011100000100001000: 618678 463267 460903 511991 484555
0110010010100010100000100: 618678 460903 473034 560464 482617
0110010010100010100000100: 618678 460903 473034 560464 484555
0110010010100010100000100: 618678 460903 463267 560464 530636
0110010010100010100000100: 618678 460903 463267 560464 484555
0110010010100010100000100: 618678 460903 463267 560464 511991
0111010110110011100000100: 484555 482617 623020 473034 530636
0111010110110011100000100: 484555 482617 623020 473034 560464
0111110110110001100010000: 484555 482617 473034 623020 492100
0111110110110001100010000: 484555 482617 473034 623020 651019
0111110110110001100010000: 484555 482617 473034 623020 463267
0111010110110011100000100: 484555 482617 473034 623020 618678
0110010010100010100000100: 484555 623020 492100 530636 511991
0110010011100000100001000: 484555 623020 492100 560464 530636
0110010010100010100000100: 484555 623020 492100 560464 511991
0110010011100000100001000: 484555 623020 651019 560464 530636
0110010011100000100001000: 484555 623020 473034 560464 530636
0110010011100100110001000: 484555 623020 463267 530636 560464
0111010101110001000001000: 484555 623020 482617 492100 530636
0111010101110001000001000: 484555 623020 482617 492100 560464
0111010100110001000100010: 484555 623020 482617 492100 511991
0111110100110001000010000: 484555 623020 482617 651019 492100
0111010101110001000001000: 484555 623020 482617 651019 530636
0111010101110001000001000: 484555 623020 482617 651019 560464
0111010100110001000100010: 484555 623020 482617 651019 652951
0111010100110001000100010: 484555 623020 482617 651019 507133
0111110100110001000010000: 484555 623020 482617 463267 492100
0111110100110001000010000: 484555 623020 482617 463267 651019
0111010101110001000001000: 484555 623020 482617 463267 560464
0111010100110001000100010: 484555 623020 482617 463267 618678
0111010100110001000100010: 484555 623020 482617 463267 511991
0111010101110001000101010: 484555 623020 482617 463267 530636
0110010011100000100001000: 484555 651019 482617 507133 652951
0110010010100010100000100: 484555 651019 492100 652951 511991
0110010011100000100001000: 484555 651019 492100 507133 652951
0110010010100010100000100: 484555 651019 492100 507133 511991
0110010010100010100000100: 484555 651019 623020 652951 530636
0110010011100000100001000: 484555 651019 623020 507133 652951
0110010010100010100000100: 484555 651019 623020 507133 530636
0110010010100010100000100: 484555 651019 623020 507133 560464
0110010011100000100001000: 484555 651019 473034 507133 652951
0110010011100000100001000: 484555 651019 463267 507133 652951
0110010010100010100000100: 484555 473034 492100 618678 511991
0110010010100010100000100: 484555 473034 623020 618678 530636
0110010010100010100000100: 484555 473034 623020 618678 560464
0111110000100001000010000: 484555 473034 651019 623020 492100
0110010010100010100000100: 484555 473034 651019 618678 652951
0110010010100010100000100: 484555 473034 651019 618678 507133
0111010100110001000100010: 484555 473034 482617 492100 511991
0111110100110001000010000: 484555 473034 482617 651019 492100
0111010100110001000100010: 484555 473034 482617 651019 652951
0111010100110001000100010: 484555 473034 482617 651019 507133
0111110100110001000010000: 484555 473034 482617 463267 492100
0111110100110001000010000: 484555 473034 482617 463267 651019
0111010100110001000100010: 484555 473034 482617 463267 530636
0111010100110001000100010: 484555 473034 482617 463267 511991
0110010011100000100001000: 484555 463267 482617 618678 530636
0110010011100000100001000: 484555 463267 482617 511991 530636
0110010011100000100001000: 484555 463267 482617 511991 618678
0110010011100000100001000: 484555 463267 492100 618678 530636
0110010010100010100000100: 484555 463267 623020 618678 560464
0110010011100000100001000: 484555 463267 623020 511991 618678
0110010010100010100000100: 484555 463267 623020 511991 560464
0110010011100100110001000: 484555 463267 623020 530636 618678
0110010011100100110001000: 484555 463267 623020 530636 511991
0111110000100001000010000: 484555 463267 651019 492100 482617
0111110000100001000010000: 484555 463267 651019 623020 492100
0110010010100010100000100: 484555 463267 651019 530636 652951
0110010010100010100000100: 484555 463267 651019 530636 507133
0110010011100000100001000: 484555 463267 651019 618678 530636
0110010010100010100000100: 484555 463267 651019 618678 652951
0110010010100010100000100: 484555 463267 651019 618678 507133
0110010011100000100001000: 484555 463267 651019 511991 530636
0110010011100000100001000: 484555 463267 651019 511991 618678
0110010010100010100000100: 484555 463267 651019 511991 652951
0110010010100010100000100: 484555 463267 651019 511991 507133
0111110000100001000010000: 484555 463267 473034 623020 492100
0111110000100001000010000: 484555 463267 473034 651019 492100
0111110000100001000010000: 484555 463267 473034 651019 623020
0110010011100000100001000: 484555 463267 473034 511991 530636
0110010010100010100000100: 651019 507133 652951 490152 560464
0110010010100010100000100: 651019 484555 652951 482617 560464
0110010011100000100001000: 651019 484555 652951 492100 482617
0110010010100010100000100: 651019 484555 652951 492100 560464
0110010011100000100001000: 651019 484555 652951 623020 492100
0110010011100000100001000: 651019 484555 652951 473034 492100
0110010011100000100001000: 651019 484555 652951 473034 623020
0110010010100010100000100: 651019 484555 652951 473034 560464
0110010011100000100001000: 651019 484555 652951 463267 482617
0110010011100000100001000: 651019 484555 652951 463267 492100
0110010011100000100001000: 651019 484555 652951 463267 623020
0110010011100000100001000: 651019 484555 652951 463267 473034
0110010010100010100000100: 651019 484555 652951 463267 560464
0110010010100010100000100: 651019 484555 507133 482617 490152
0110010011100000100001000: 651019 484555 507133 492100 482617
0110010010100010100000100: 651019 484555 507133 492100 490152
0110010011100000100001000: 651019 484555 507133 623020 492100
0110010010100010100000100: 651019 484555 507133 623020 490152
0110010011100000100001000: 651019 484555 507133 473034 492100
0110010011100000100001000: 651019 484555 507133 473034 623020
0110010010100010100000100: 651019 484555 507133 473034 490152
0110010011100000100001000: 651019 484555 507133 463267 482617
0110010011100000100001000: 651019 484555 507133 463267 492100
0110010011100000100001000: 651019 484555 507133 463267 623020
0110010011100000100001000: 651019 484555 507133 463267 473034
0110010010100010100000100: 651019 484555 507133 463267 490152
0110010010100010100000100: 623020 482617 530636 473034 463267
0110010011100000100001000: 623020 484555 530636 651019 492100
0110010011100000100001000: 623020 484555 530636 473034 492100
0110010011100000100001000: 623020 484555 530636 473034 651019
0110010011100000100001000: 623020 484555 560464 651019 492100
0110010011100000100001000: 623020 484555 560464 473034 492100
0110010011100000100001000: 623020 484555 560464 473034 651019
0110010011100000100001000: 623020 484555 560464 463267 492100
0110010011100000100001000: 623020 484555 560464 463267 651019
0110010011100000100001000: 623020 484555 560464 463267 473034
0111110100110001000010000: 623020 484555 482617 560464 530636
0111010100110001000100010: 623020 484555 482617 560464 652951
0111010100110001000100010: 623020 484555 482617 560464 460903
0110010010100010100000100: 623020 560464 530636 652951 463267
0110010011100000100001000: 623020 560464 530636 460903 652951
0110010010100010100000100: 623020 560464 530636 460903 463267
0110010010100010100000100: 623020 560464 482617 652951 473034
0110010011100000100001000: 623020 560464 482617 460903 652951
0110010010100010100000100: 623020 560464 482617 460903 473034
0110010010100010100000100: 623020 560464 484555 652951 492100
0110010010100010100000100: 623020 560464 484555 652951 473034
0110010010100010100000100: 623020 560464 484555 652951 463267
0110010011100000100001000: 623020 560464 484555 460903 652951
0110010010100010100000100: 623020 560464 484555 460903 492100
0110010010100010100000100: 623020 560464 484555 460903 651019
0110010010100010100000100: 623020 560464 484555 460903 473034
0110010010100010100000100: 623020 560464 484555 460903 463267
0110010011100000100001000: 492100 484555 511991 651019 482617
0110010011100000100001000: 492100 484555 511991 651019 623020
0110010011100000100001000: 492100 484555 511991 473034 623020
0110010011100000100001000: 492100 484555 511991 473034 651019
0110010011100000100001000: 507133 651019 490152 484555 652951
0110010010100010100000100: 507133 490152 651019 540736 652951
0110010010100010100000100: 507133 490152 651019 540736 484555
0110010011100000100001000: 482617 623020 473034 560464 530636
0110010010100010100000100: 482617 473034 623020 618678 530636
0110010010100010100000100: 482617 473034 623020 618678 560464
0110010011100000100001000: 652951 651019 560464 484555 507133
0110010010100010100000100: 652951 560464 651019 623020 507133
0110010011100000100001000: 652951 560464 651019 460903 623020
0110010010100010100000100: 652951 560464 651019 460903 507133
0110010010100010100000100: 652951 560464 651019 460903 484555
0110010011100000100001000: 530636 623020 463267 560464 482617
0110010010100010100000100: 530636 463267 623020 618678 482617
0110010010100010100000100: 530636 463267 623020 618678 560464
0110010011100000100001000: 530636 463267 623020 511991 618678
0110010010100010100000100: 530636 463267 623020 511991 482617
0110010010100010100000100: 530636 463267 623020 511991 560464
