Vertex,0110010011100100110001000,0111010100110001000100010,0110010010100010100000100,0111010101110001000101010,0111110110110001100010000,0111010101110001000001000,0111110100110001000010000,0111110000100001000010000,0110010011100000100001000,0111010110110011100000100
512898,1.0,4.0,5.0,1.0,1.0,2.0,3.0,1.0,10.0,3.0
554368,7.0,3.0,18.0,1.0,1.0,2.0,3.0,2.0,25.0,3.0
602235,1.0,1.0,7.0,0.0,1.0,0.0,0.0,0.0,8.0,3.0
499574,4.0,1.0,5.0,1.0,0.0,0.0,2.0,2.0,15.0,1.0
600517,5.0,1.0,6.0,0.0,0.0,1.0,2.0,2.0,13.0,1.0
621062,5.0,2.0,15.0,0.0,0.0,1.0,2.0,2.0,19.0,1.0
462278,4.0,4.0,7.0,1.0,1.0,2.0,3.0,1.0,11.0,3.0
638679,3.0,1.0,7.0,1.0,1.0,2.0,0.0,0.0,6.0,0.0
487291,4.0,2.0,10.0,0.0,0.0,0.0,0.0,0.0,8.0,0.0
527154,1.0,1.0,11.0,0.0,0.0,0.0,0.0,0.0,9.0,0.0
545011,0.0,0.0,7.0,0.0,0.0,0.0,0.0,0.0,1.0,0.0
504642,0.0,0.0,2.0,0.0,0.0,0.0,0.0,0.0,0.0,0.0
graph,7.0,4.0,20.0,1.0,1.0,2.0,3.0,2.0,25.0,3.0
