Vertex,0111100110001100,0100101101000100,0110101011010010,0110101111000100,0101101101001100,0111100010001000,0110100110010110,0110100010010010,0110100110000100,0101101001001000,0111100010011010,0100101001010010,0101101001011010,0111101011001000
554368,37.0,2.0,31.0,57.0,6.0,111.0,70.0,61.0,133.0,38.0,22.0,4.0,32.0,135.0
591673,4.0,2.0,4.0,8.0,0.0,79.0,35.0,53.0,107.0,34.0,4.0,8.0,16.0,20.0
558362,0.0,2.0,0.0,0.0,0.0,15.0,0.0,28.0,57.0,18.0,0.0,6.0,0.0,0.0
638138,4.0,0.0,4.0,8.0,0.0,64.0,0.0,15.0,35.0,10.0,4.0,0.0,0.0,20.0
628279,26.0,0.0,20.0,38.0,4.0,40.0,35.0,34.0,67.0,20.0,14.0,6.0,16.0,91.0
487805,26.0,0.0,20.0,38.0,4.0,40.0,35.0,34.0,67.0,21.0,14.0,6.0,16.0,91.0
581947,15.0,0.0,15.0,27.0,2.0,40.0,35.0,28.0,58.0,18.0,12.0,4.0,16.0,64.0
630561,15.0,0.0,15.0,27.0,2.0,40.0,0.0,15.0,36.0,11.0,12.0,2.0,0.0,64.0
467460,8.0,2.0,5.0,9.0,2.0,15.0,35.0,36.0,80.0,24.0,2.0,4.0,16.0,20.0
573617,13.0,0.0,10.0,16.0,4.0,0.0,35.0,30.0,66.0,18.0,4.0,4.0,16.0,35.0
531427,0.0,0.0,0.0,0.0,0.0,0.0,0.0,10.0,14.0,4.0,0.0,4.0,0.0,0.0
graph,37.0,2.0,31.0,57.0,6.0,111.0,70.0,86.0,180.0,54.0,22.0,12.0,32.0,135.0
