Vertex,0101101001001000,0100101101010110,0110100110000100,0110101111000100,0111100110011110,0111100010001000,0100101001010010,0101101101011110,0110100010010010,0101101101001100,0110101011010010,0111100010011010,0110100110010110,0101101001011010,0110101111010110,0111101111011110,0100101101000100,0111101011001000,0111100110001100,0111101011011010,0111101111001100
473800,170.0,8.0,590.0,449.0,11.0,490.0,61.0,16.0,312.0,70.0,295.0,193.0,175.0,65.0,219.0,775.0,12.0,975.0,275.0,248.0,306.0
502229,106.0,6.0,344.0,124.0,0.0,100.0,35.0,0.0,161.0,28.0,92.0,58.0,70.0,28.0,0.0,0.0,8.0,254.0,82.0,0.0,0.0
477670,109.0,6.0,368.0,112.0,0.0,109.0,87.0,0.0,211.0,24.0,80.0,56.0,0.0,0.0,0.0,0.0,8.0,225.0,74.0,0.0,0.0
468805,101.0,2.0,351.0,159.0,4.0,139.0,17.0,6.0,161.0,42.0,121.0,49.0,175.0,69.0,44.0,0.0,10.0,316.0,113.0,46.0,54.0
609304,51.0,0.0,176.0,231.0,4.0,456.0,7.0,4.0,88.0,18.0,127.0,100.0,35.0,9.0,134.0,310.0,0.0,547.0,133.0,160.0,216.0
506539,120.0,2.0,409.0,393.0,10.0,373.0,45.0,16.0,224.0,54.0,255.0,157.0,70.0,32.0,239.0,775.0,6.0,864.0,233.0,265.0,342.0
590406,46.0,0.0,161.0,236.0,0.0,488.0,8.0,0.0,77.0,24.0,136.0,100.0,0.0,0.0,120.0,620.0,0.0,543.0,136.0,144.0,216.0
561428,224.0,2.0,783.0,630.0,11.0,1268.0,71.0,15.0,402.0,80.0,400.0,257.0,140.0,53.0,449.0,1085.0,8.0,1404.0,372.0,522.0,720.0
617770,190.0,2.0,688.0,526.0,11.0,676.0,42.0,15.0,344.0,84.0,358.0,201.0,140.0,58.0,469.0,1085.0,8.0,1132.0,319.0,547.0,756.0
569109,149.0,2.0,479.0,115.0,0.0,638.0,47.0,0.0,234.0,14.0,77.0,50.0,105.0,42.0,80.0,0.0,4.0,255.0,67.0,96.0,144.0
608856,85.0,2.0,295.0,169.0,4.0,496.0,17.0,4.0,143.0,14.0,99.0,77.0,175.0,69.0,104.0,155.0,0.0,396.0,99.0,124.0,162.0
571815,74.0,0.0,259.0,174.0,4.0,495.0,8.0,8.0,122.0,16.0,102.0,74.0,0.0,0.0,168.0,155.0,2.0,401.0,98.0,191.0,252.0
460571,136.0,0.0,437.0,159.0,3.0,284.0,66.0,4.0,235.0,38.0,117.0,48.0,35.0,14.0,54.0,0.0,8.0,312.0,105.0,58.0,72.0
517110,70.0,0.0,218.0,19.0,0.0,53.0,48.0,0.0,126.0,6.0,17.0,4.0,0.0,0.0,0.0,0.0,6.0,35.0,13.0,0.0,0.0
625475,93.0,0.0,347.0,19.0,0.0,47.0,64.0,0.0,200.0,6.0,17.0,10.0,35.0,9.0,0.0,0.0,4.0,34.0,15.0,0.0,0.0
518173,48.0,0.0,168.0,104.0,2.0,328.0,6.0,4.0,77.0,4.0,58.0,48.0,0.0,0.0,34.0,0.0,0.0,251.0,54.0,35.0,36.0
579339,62.0,0.0,226.0,109.0,2.0,320.0,5.0,2.0,114.0,2.0,55.0,52.0,0.0,0.0,17.0,0.0,0.0,271.0,58.0,20.0,18.0
499164,60.0,0.0,219.0,120.0,2.0,536.0,5.0,2.0,103.0,4.0,62.0,56.0,0.0,0.0,97.0,0.0,0.0,294.0,65.0,116.0,162.0
582120,51.0,0.0,185.0,68.0,0.0,416.0,36.0,0.0,99.0,0.0,34.0,34.0,35.0,9.0,0.0,0.0,2.0,170.0,34.0,0.0,0.0
529951,84.0,0.0,323.0,91.0,0.0,632.0,19.0,0.0,161.0,6.0,53.0,46.0,35.0,9.0,80.0,0.0,2.0,214.0,51.0,96.0,144.0
620180,89.0,0.0,280.0,24.0,0.0,60.0,35.0,0.0,145.0,8.0,24.0,4.0,35.0,14.0,0.0,0.0,8.0,38.0,16.0,0.0,0.0
461906,22.0,0.0,86.0,9.0,0.0,0.0,3.0,0.0,45.0,2.0,5.0,2.0,0.0,0.0,0.0,0.0,0.0,21.0,8.0,0.0,0.0
graph,535.0,8.0,1848.0,1010.0,17.0,2101.0,183.0,24.0,946.0,136.0,646.0,419.0,315.0,120.0,577.0,1240.0,24.0,2238.0,605.0,667.0,900.0
