Vertex,0111010110110011100000100,0111110110110001100010000,0110010011100000100001000,0110010011100100110001000,0111110100110001000010000,0111110111110001100011000,0110010010100010100000100,0111010101110001000101010,0111110000100001000010000,0110010010100010100100110,0111110100110001000110010,0111110110110101110010000,0111110110110011100010100,0111110111110101110011000,0111010110110011100100110,0111010101110001000001000,0111010100110001000100010,0110010011100110110001100
583378,8.0,54.0,163.0,31.0,152.0,1.0,71.0,9.0,138.0,0.0,17.0,1.0,6.0,0.0,0.0,34.0,23.0,3.0
595002,13.0,67.0,172.0,13.0,177.0,1.0,98.0,9.0,97.0,2.0,21.0,1.0,13.0,0.0,0.0,85.0,31.0,0.0
476861,2.0,48.0,131.0,6.0,163.0,0.0,26.0,3.0,129.0,0.0,20.0,1.0,4.0,0.0,0.0,25.0,23.0,0.0
650861,18.0,61.0,276.0,19.0,131.0,6.0,105.0,5.0,157.0,4.0,10.0,0.0,11.0,1.0,0.0,59.0,53.0,0.0
588494,1.0,40.0,122.0,9.0,177.0,0.0,14.0,0.0,121.0,0.0,23.0,1.0,2.0,0.0,0.0,19.0,28.0,0.0
481886,11.0,58.0,251.0,20.0,148.0,1.0,101.0,4.0,143.0,1.0,12.0,0.0,9.0,1.0,1.0,61.0,39.0,0.0
643782,7.0,3.0,126.0,9.0,0.0,0.0,50.0,4.0,1.0,1.0,0.0,0.0,0.0,0.0,0.0,40.0,17.0,0.0
578302,5.0,1.0,215.0,70.0,2.0,0.0,90.0,10.0,1.0,1.0,0.0,0.0,0.0,0.0,1.0,34.0,40.0,4.0
462691,38.0,187.0,743.0,96.0,572.0,9.0,131.0,20.0,521.0,2.0,53.0,9.0,25.0,4.0,2.0,187.0,146.0,4.0
515371,4.0,33.0,231.0,41.0,147.0,1.0,69.0,4.0,172.0,4.0,8.0,1.0,4.0,0.0,1.0,34.0,34.0,3.0
465394,4.0,33.0,223.0,52.0,148.0,1.0,83.0,8.0,172.0,4.0,8.0,1.0,4.0,0.0,1.0,33.0,32.0,3.0
620791,0.0,22.0,244.0,38.0,133.0,0.0,57.0,4.0,209.0,0.0,0.0,1.0,0.0,0.0,0.0,16.0,27.0,3.0
556036,7.0,53.0,120.0,10.0,169.0,3.0,40.0,1.0,109.0,1.0,16.0,9.0,10.0,4.0,1.0,47.0,40.0,0.0
541838,7.0,41.0,208.0,17.0,125.0,5.0,48.0,4.0,187.0,1.0,5.0,0.0,4.0,1.0,0.0,23.0,19.0,0.0
562223,7.0,41.0,175.0,21.0,148.0,3.0,46.0,3.0,148.0,0.0,12.0,9.0,4.0,4.0,1.0,37.0,37.0,0.0
504893,22.0,99.0,133.0,7.0,158.0,8.0,91.0,4.0,55.0,3.0,23.0,9.0,18.0,4.0,0.0,45.0,53.0,0.0
552749,10.0,59.0,132.0,8.0,170.0,6.0,56.0,5.0,103.0,2.0,21.0,0.0,10.0,1.0,1.0,53.0,29.0,0.0
478931,0.0,31.0,134.0,9.0,154.0,0.0,8.0,0.0,165.0,0.0,12.0,1.0,1.0,0.0,0.0,20.0,15.0,0.0
589995,4.0,1.0,85.0,2.0,2.0,0.0,44.0,0.0,1.0,0.0,0.0,0.0,0.0,0.0,0.0,21.0,12.0,0.0
566494,6.0,1.0,124.0,13.0,2.0,0.0,46.0,3.0,1.0,0.0,0.0,1.0,0.0,0.0,1.0,42.0,15.0,0.0
617666,2.0,0.0,97.0,5.0,2.0,0.0,66.0,0.0,0.0,4.0,0.0,0.0,0.0,0.0,0.0,14.0,17.0,0.0
650441,6.0,1.0,80.0,0.0,2.0,0.0,41.0,1.0,0.0,0.0,2.0,0.0,0.0,0.0,0.0,24.0,30.0,0.0
619630,8.0,1.0,154.0,16.0,3.0,0.0,112.0,4.0,0.0,5.0,2.0,0.0,0.0,0.0,0.0,32.0,43.0,0.0
625153,0.0,0.0,91.0,3.0,0.0,0.0,36.0,0.0,0.0,0.0,0.0,0.0,0.0,0.0,0.0,0.0,15.0,0.0
501575,0.0,0.0,1.0,0.0,0.0,0.0,22.0,0.0,0.0,0.0,0.0,0.0,0.0,0.0,0.0,0.0,0.0,0.0
508029,0.0,0.0,0.0,0.0,0.0,0.0,9.0,0.0,0.0,0.0,0.0,0.0,0.0,0.0,0.0,0.0,0.0,0.0
525424,0.0,0.0,4.0,0.0,0.0,0.0,25.0,0.0,0.0,0.0,0.0,0.0,0.0,0.0,0.0,0.0,2.0,0.0
graph,38.0,187.0,887.0,103.0,577.0,9.0,317.0,21.0,526.0,7.0,53.0,9.0,25.0,4.0,2.0,197.0,164.0,4.0
