Vertex,0110010011100000100001000,0111110110110011100010100,0111110100110001000010000,0111010101110001000101010,0110010011100100110001000,0111010100110001000100010,0111110000100001000010000,0110010010100010100000100,0110010010100010100100110,0111010101110001000001000,0111010110110011100000100,0111110110110001100010000,0111110100110001000110010
542571,74.0,0.0,1.0,0.0,1.0,7.0,1.0,98.0,4.0,5.0,1.0,0.0,0.0
512876,37.0,0.0,0.0,0.0,0.0,2.0,0.0,78.0,1.0,0.0,0.0,0.0,0.0
495877,117.0,0.0,6.0,1.0,12.0,15.0,4.0,132.0,5.0,12.0,1.0,2.0,0.0
544030,37.0,0.0,1.0,0.0,0.0,5.0,0.0,70.0,1.0,4.0,0.0,0.0,0.0
483847,43.0,0.0,0.0,0.0,1.0,5.0,0.0,73.0,2.0,0.0,0.0,0.0,0.0
640884,103.0,1.0,6.0,1.0,2.0,20.0,4.0,114.0,5.0,19.0,6.0,4.0,0.0
540198,99.0,0.0,6.0,4.0,16.0,19.0,6.0,104.0,2.0,12.0,1.0,1.0,0.0
508114,55.0,0.0,1.0,0.0,1.0,8.0,1.0,78.0,1.0,4.0,0.0,0.0,0.0
554632,139.0,2.0,11.0,3.0,17.0,39.0,8.0,138.0,5.0,33.0,12.0,11.0,2.0
470689,41.0,0.0,1.0,0.0,0.0,4.0,0.0,74.0,2.0,5.0,1.0,0.0,0.0
568391,145.0,2.0,14.0,5.0,22.0,32.0,8.0,146.0,5.0,31.0,10.0,7.0,0.0
529331,89.0,2.0,15.0,5.0,5.0,41.0,2.0,121.0,2.0,44.0,12.0,11.0,1.0
588686,26.0,0.0,0.0,0.0,0.0,3.0,0.0,41.0,1.0,0.0,0.0,0.0,0.0
600618,74.0,0.0,4.0,0.0,3.0,6.0,5.0,72.0,3.0,8.0,1.0,1.0,0.0
464495,58.0,0.0,4.0,1.0,9.0,5.0,5.0,41.0,1.0,7.0,1.0,1.0,0.0
586435,69.0,2.0,8.0,0.0,3.0,39.0,1.0,101.0,1.0,34.0,7.0,7.0,2.0
498334,56.0,0.0,4.0,3.0,6.0,20.0,0.0,85.0,1.0,20.0,1.0,2.0,0.0
647319,41.0,0.0,2.0,0.0,0.0,15.0,0.0,87.0,1.0,18.0,1.0,1.0,2.0
607888,46.0,1.0,6.0,0.0,2.0,13.0,2.0,31.0,0.0,13.0,3.0,4.0,1.0
651234,16.0,0.0,2.0,0.0,0.0,13.0,0.0,35.0,0.0,18.0,1.0,1.0,2.0
496587,16.0,0.0,1.0,0.0,1.0,4.0,0.0,36.0,0.0,3.0,0.0,0.0,0.0
472106,27.0,0.0,2.0,1.0,1.0,17.0,0.0,45.0,0.0,7.0,0.0,0.0,0.0
472379,64.0,0.0,5.0,1.0,8.0,7.0,3.0,70.0,2.0,9.0,1.0,2.0,0.0
629877,2.0,0.0,0.0,0.0,0.0,2.0,0.0,10.0,0.0,5.0,0.0,0.0,0.0
517432,14.0,0.0,0.0,0.0,0.0,2.0,0.0,34.0,0.0,0.0,0.0,0.0,0.0
539421,2.0,0.0,0.0,0.0,0.0,1.0,0.0,17.0,0.0,4.0,0.0,0.0,0.0
630874,0.0,0.0,0.0,0.0,0.0,1.0,0.0,4.0,0.0,0.0,0.0,0.0,0.0
graph,298.0,2.0,20.0,5.0,22.0,69.0,10.0,387.0,9.0,63.0,12.0,11.0,2.0
