Vertex,0111101111011110,0101101101011110,0111101011011010,0100101101000100,0111100110011110,0100101001010010,0101101101001100,0110101111000100,0110100010010010,0110100110000100,0110100110010110,0101101001001000,0100101101010110,0101101001011010,0111100010001000,0110101111010110,0110101011010010,0111100010011010,0111101011001000,0111100110001100,0111101111001100
541882,0.0,0.0,0.0,26.0,0.0,142.0,38.0,143.0,378.0,679.0,348.0,174.0,10.0,115.0,287.0,0.0,111.0,104.0,272.0,114.0,0.0
639115,0.0,0.0,0.0,18.0,0.0,86.0,16.0,88.0,306.0,549.0,70.0,146.0,6.0,25.0,306.0,0.0,52.0,65.0,196.0,69.0,0.0
596726,0.0,0.0,0.0,6.0,0.0,54.0,16.0,170.0,215.0,402.0,138.0,102.0,8.0,46.0,510.0,0.0,96.0,113.0,398.0,110.0,0.0
649637,155.0,13.0,150.0,20.0,7.0,66.0,48.0,312.0,300.0,538.0,280.0,150.0,2.0,98.0,641.0,142.0,210.0,128.0,670.0,188.0,180.0
545824,0.0,5.0,125.0,20.0,4.0,71.0,18.0,173.0,299.0,536.0,175.0,120.0,0.0,47.0,625.0,118.0,109.0,109.0,389.0,103.0,162.0
615029,0.0,1.0,64.0,12.0,1.0,46.0,6.0,79.0,166.0,349.0,173.0,101.0,2.0,58.0,649.0,57.0,47.0,42.0,182.0,45.0,90.0
606503,0.0,0.0,0.0,6.0,0.0,43.0,6.0,21.0,154.0,250.0,0.0,68.0,0.0,0.0,48.0,0.0,17.0,4.0,42.0,16.0,0.0
570191,155.0,14.0,142.0,40.0,8.0,108.0,66.0,407.0,571.0,1104.0,210.0,306.0,4.0,73.0,952.0,139.0,267.0,176.0,874.0,255.0,162.0
533423,0.0,0.0,0.0,0.0,0.0,29.0,10.0,131.0,143.0,265.0,0.0,68.0,2.0,0.0,432.0,0.0,75.0,71.0,307.0,76.0,0.0
554368,155.0,21.0,344.0,24.0,13.0,114.0,84.0,708.0,657.0,1346.0,418.0,381.0,8.0,136.0,2038.0,324.0,446.0,362.0,1578.0,424.0,432.0
475576,155.0,12.0,264.0,24.0,8.0,77.0,50.0,343.0,320.0,574.0,175.0,163.0,2.0,55.0,542.0,246.0,233.0,148.0,741.0,207.0,342.0
500346,0.0,6.0,35.0,14.0,3.0,4.0,22.0,95.0,176.0,392.0,140.0,112.0,0.0,44.0,225.0,34.0,73.0,40.0,191.0,65.0,36.0
627586,0.0,9.0,72.0,8.0,5.0,39.0,12.0,148.0,151.0,293.0,0.0,78.0,0.0,0.0,453.0,75.0,86.0,71.0,344.0,83.0,72.0
540883,0.0,6.0,66.0,8.0,4.0,63.0,10.0,141.0,244.0,440.0,70.0,100.0,0.0,20.0,493.0,68.0,81.0,91.0,330.0,82.0,72.0
593379,0.0,1.0,28.0,4.0,1.0,31.0,6.0,99.0,163.0,323.0,0.0,80.0,0.0,0.0,502.0,27.0,57.0,52.0,234.0,54.0,36.0
617293,0.0,2.0,65.0,6.0,1.0,40.0,6.0,75.0,194.0,373.0,0.0,108.0,0.0,0.0,565.0,57.0,45.0,32.0,175.0,41.0,90.0
580023,0.0,0.0,24.0,0.0,0.0,8.0,10.0,127.0,81.0,189.0,0.0,54.0,0.0,0.0,592.0,20.0,71.0,56.0,296.0,71.0,36.0
577302,0.0,0.0,0.0,8.0,0.0,20.0,6.0,33.0,123.0,241.0,0.0,66.0,0.0,0.0,204.0,0.0,21.0,12.0,69.0,21.0,0.0
632390,0.0,0.0,0.0,14.0,0.0,60.0,20.0,102.0,256.0,498.0,105.0,127.0,2.0,35.0,236.0,0.0,72.0,63.0,210.0,68.0,0.0
553729,0.0,0.0,0.0,6.0,0.0,15.0,14.0,83.0,120.0,251.0,0.0,66.0,2.0,0.0,164.0,0.0,55.0,45.0,177.0,52.0,0.0
503925,0.0,0.0,0.0,0.0,0.0,22.0,4.0,12.0,109.0,178.0,0.0,48.0,0.0,0.0,0.0,0.0,12.0,2.0,20.0,8.0,0.0
512693,0.0,2.0,65.0,6.0,1.0,8.0,10.0,87.0,148.0,329.0,140.0,94.0,0.0,44.0,565.0,57.0,57.0,46.0,196.0,53.0,90.0
557916,0.0,0.0,0.0,6.0,0.0,50.0,2.0,59.0,195.0,385.0,70.0,104.0,0.0,24.0,583.0,0.0,31.0,28.0,143.0,31.0,0.0
542101,0.0,0.0,0.0,0.0,0.0,26.0,4.0,12.0,93.0,143.0,0.0,38.0,0.0,0.0,0.0,0.0,12.0,2.0,21.0,8.0,0.0
590858,0.0,0.0,0.0,4.0,0.0,26.0,0.0,0.0,96.0,150.0,0.0,40.0,0.0,0.0,24.0,0.0,0.0,0.0,0.0,0.0,0.0
480251,0.0,0.0,0.0,0.0,0.0,4.0,4.0,12.0,38.0,63.0,0.0,18.0,0.0,0.0,0.0,0.0,12.0,2.0,21.0,8.0,0.0
graph,155.0,23.0,361.0,70.0,14.0,313.0,122.0,915.0,1424.0,2710.0,628.0,728.0,12.0,205.0,2909.0,341.0,587.0,466.0,2019.0,563.0,450.0
