0110100110000100: 507641 589275 536529 593347
0110100010010010: 507641 589275 536529 514184
0110100110000100: 507641 589275 536529 593347
0110100110000100: 507641 589275 536529 593347
0110100110000100: 507641 589275 536529 593347
0110100110000100: 507641 589275 536529 593347
0110100110000100: 507641 589275 536529 593347
0110100110000100: 507641 536529 589275 514184
0110100010010010: 507641 536529 589275 593347
0110100110000100: 507641 536529 589275 514184
0110100110000100: 507641 536529 589275 514184
0110100110000100: 507641 536529 589275 514184
0110100110000100: 507641 536529 589275 514184
0110100110000100: 507641 536529 589275 514184
0110100110000100: 536529 514184 507641 505705
0110100010010010: 536529 514184 507641 589275
0110100110000100: 536529 514184 507641 505705
0110100110000100: 536529 514184 507641 505705
0110100110000100: 536529 514184 507641 505705
0110100110000100: 536529 514184 507641 505705
0110100110000100: 536529 514184 507641 505705
0110100010010010: 536529 507641 514184 505705
0110100110000100: 536529 507641 514184 589275
0110100110000100: 536529 507641 514184 589275
0110100110000100: 536529 507641 514184 589275
0110100110000100: 536529 507641 514184 589275
0110101011010010: 501888 560514 649313 620773
0110101011010010: 501888 560514 649313 472756
0110101011010010: 501888 560514 649313 620773
0110101011010010: 501888 560514 649313 472756
0110101111000100: 501888 560514 649313 596836
0110101111000100: 501888 560514 649313 577968
0110101111000100: 501888 560514 649313 498467
0110101111000100: 501888 560514 649313 596836
0110101111000100: 501888 560514 649313 577968
0110101111000100: 501888 560514 649313 498467
0110101011010010: 501888 560514 649313 620773
0110101011010010: 501888 560514 649313 472756
0110101011010010: 501888 649313 560514 596836
0110101011010010: 501888 649313 560514 577968
0110101011010010: 501888 649313 560514 498467
0110101011010010: 501888 649313 560514 596836
0110101011010010: 501888 649313 560514 577968
0110101011010010: 501888 649313 560514 498467
0110101111000100: 501888 649313 560514 620773
0110101111000100: 501888 649313 560514 472756
0110101111000100: 501888 649313 560514 620773
0110101111000100: 501888 649313 560514 472756
0110101111000100: 501888 649313 560514 620773
0110101111000100: 501888 649313 560514 472756
0101101001001000: 649313 620773 593347 560514
0101101001001000: 649313 620773 593347 472756
0101101001001000: 649313 620773 593347 501888
0101101001001000: 649313 620773 577968 472756
0101101001001000: 649313 620773 577968 501888
0100101101000100: 649313 620773 577968 593347
0110100110010110: 649313 560514 620773 577968
0111101011001000: 649313 560514 501888 620773
0111101011001000: 649313 560514 501888 472756
0111100010001000: 649313 472756 560514 620773
0101101001001000: 649313 472756 597733 620773
0101101001001000: 649313 472756 597733 560514
0101101001001000: 649313 472756 597733 501888
0101101001001000: 649313 472756 580453 620773
0101101001001000: 649313 472756 580453 560514
0101101001001000: 649313 472756 580453 501888
0100101101000100: 649313 472756 580453 597733
0111100010001000: 649313 501888 472756 620773
0111101011001000: 649313 501888 560514 620773
0111101011001000: 649313 501888 560514 472756
0110100110000100: 649313 620773 560514 593347
0110100010010010: 649313 620773 560514 596836
0110100010010010: 649313 620773 560514 498467
0111100010011010: 649313 620773 560514 501888
0110100110010110: 649313 620773 560514 577968
0110100110010110: 649313 620773 560514 577968
0111100010001000: 649313 620773 472756 560514
0110100110000100: 649313 620773 472756 593347
0110100110000100: 649313 620773 472756 577968
0110100010010010: 649313 620773 472756 597733
0110100010010010: 649313 620773 472756 580453
0110100010010010: 649313 620773 472756 597733
0110100010010010: 649313 620773 472756 580453
0111100010001000: 649313 620773 501888 472756
0110100110000100: 649313 620773 501888 593347
0110100110000100: 649313 620773 501888 577968
0111100010011010: 649313 620773 501888 560514
0110100110000100: 649313 620773 560514 593347
0110100110000100: 649313 620773 560514 593347
0110100110000100: 649313 620773 560514 593347
0110100110010110: 649313 620773 560514 577968
0110100110000100: 649313 620773 472756 593347
0110100110000100: 649313 620773 472756 577968
0110100110000100: 649313 620773 472756 593347
0110100110000100: 649313 620773 472756 577968
0110100110000100: 649313 620773 472756 593347
0110100110000100: 649313 620773 472756 577968
0110100110000100: 649313 620773 501888 593347
0110100110000100: 649313 620773 501888 577968
0110100110000100: 649313 620773 501888 593347
0110100110000100: 649313 620773 501888 577968
0110100110000100: 649313 620773 501888 593347
0110100110000100: 649313 620773 501888 577968
0101101001001000: 649313 620773 593347 560514
0101101001001000: 649313 620773 593347 472756
0101101001001000: 649313 620773 593347 501888
0100101001010010: 649313 620773 593347 589275
0100101001010010: 649313 620773 593347 589275
0100101001010010: 649313 620773 593347 589275
0100101001010010: 649313 620773 593347 589275
0101101001001000: 649313 620773 577968 472756
0101101001001000: 649313 620773 577968 501888
0100101001010010: 649313 620773 577968 635057
0100101001010010: 649313 620773 577968 580453
0100101001010010: 649313 620773 577968 635057
0100101001010010: 649313 620773 577968 580453
0100101101000100: 649313 620773 577968 593347
0101101001011010: 649313 620773 577968 560514
0101101001011010: 649313 620773 577968 560514
0101101001011010: 649313 620773 577968 560514
0101101001001000: 649313 620773 577968 472756
0101101001001000: 649313 620773 577968 501888
0110100110000100: 649313 560514 620773 596836
0110100110000100: 649313 560514 620773 498467
0110100010010010: 649313 560514 620773 593347
0110100010010010: 649313 560514 620773 593347
0110100110010110: 649313 560514 620773 577968
0110100110010110: 649313 560514 620773 577968
0111100010001000: 649313 560514 472756 620773
0110100110000100: 649313 560514 472756 596836
0110100110000100: 649313 560514 472756 577968
0110100110000100: 649313 560514 472756 498467
0110100010010010: 649313 560514 472756 597733
0110100010010010: 649313 560514 472756 580453
0110100010010010: 649313 560514 472756 597733
0110100010010010: 649313 560514 472756 580453
0111100010001000: 649313 560514 620773 472756
0110100110000100: 649313 560514 620773 596836
0110100110000100: 649313 560514 620773 498467
0110100110000100: 649313 560514 620773 596836
0110100110000100: 649313 560514 620773 498467
0111100110001100: 649313 560514 620773 501888
0110100110010110: 649313 560514 620773 577968
0110100010010010: 649313 560514 620773 593347
0110100110010110: 649313 560514 620773 577968
0110100110010110: 649313 560514 620773 577968
0110100110000100: 649313 560514 472756 596836
0110100110000100: 649313 560514 472756 577968
0110100110000100: 649313 560514 472756 498467
0110100110000100: 649313 560514 472756 596836
0110100110000100: 649313 560514 472756 577968
0110100110000100: 649313 560514 472756 498467
0111100110001100: 649313 560514 472756 501888
0110100010010010: 649313 560514 472756 597733
0110100010010010: 649313 560514 472756 580453
0111101011001000: 649313 560514 501888 620773
0111101011001000: 649313 560514 501888 472756
0111100010001000: 649313 560514 620773 472756
0111100010001000: 649313 560514 620773 472756
0110100010010010: 649313 560514 620773 593347
0111100010001000: 649313 560514 472756 620773
0111100010001000: 649313 560514 472756 620773
0110100010010010: 649313 560514 472756 597733
0110100010010010: 649313 560514 472756 580453
0111101011001000: 649313 560514 501888 620773
0111101011001000: 649313 560514 501888 472756
0111101011001000: 649313 560514 501888 620773
0111101011001000: 649313 560514 501888 472756
0110101111000100: 649313 560514 501888 596836
0110101111000100: 649313 560514 501888 577968
0110101111000100: 649313 560514 501888 498467
0110101111000100: 649313 560514 501888 596836
0110101111000100: 649313 560514 501888 577968
0110101111000100: 649313 560514 501888 498467
0111101011001000: 649313 560514 501888 620773
0111101011001000: 649313 560514 501888 472756
0110100110000100: 649313 560514 620773 596836
0110100110000100: 649313 560514 620773 498467
0110100110000100: 649313 560514 620773 596836
0110100110000100: 649313 560514 620773 498467
0111100110001100: 649313 560514 620773 501888
0111100110001100: 649313 560514 620773 501888
0111100110001100: 649313 560514 620773 501888
0111100010001000: 649313 560514 620773 472756
0110100010010010: 649313 560514 620773 593347
0110100110010110: 649313 560514 620773 577968
0110100010010010: 649313 560514 620773 593347
0110100110010110: 649313 560514 620773 577968
0110100110000100: 649313 560514 472756 596836
0110100110000100: 649313 560514 472756 577968
0110100110000100: 649313 560514 472756 498467
0110100110000100: 649313 560514 472756 596836
0110100110000100: 649313 560514 472756 577968
0110100110000100: 649313 560514 472756 498467
0111100110001100: 649313 560514 472756 501888
0111100110001100: 649313 560514 472756 501888
0111100110001100: 649313 560514 472756 501888
0111100010001000: 649313 560514 472756 620773
0111100010001000: 649313 560514 472756 620773
0110100010010010: 649313 560514 472756 597733
0110100010010010: 649313 560514 472756 580453
0110100010010010: 649313 560514 472756 597733
0110100010010010: 649313 560514 472756 580453
0111101011001000: 649313 560514 501888 620773
0111101011001000: 649313 560514 501888 472756
0110100110000100: 649313 472756 620773 597733
0110100110000100: 649313 472756 620773 580453
0110100010010010: 649313 472756 620773 593347
0110100010010010: 649313 472756 620773 577968
0110100010010010: 649313 472756 620773 593347
0110100010010010: 649313 472756 620773 577968
0111100010001000: 649313 472756 560514 620773
0110100110000100: 649313 472756 560514 597733
0110100110000100: 649313 472756 560514 580453
0110100010010010: 649313 472756 560514 596836
0110100010010010: 649313 472756 560514 577968
0110100010010010: 649313 472756 560514 498467
0111100010011010: 649313 472756 560514 501888
0111100010001000: 649313 472756 501888 620773
0110100110000100: 649313 472756 501888 597733
0110100110000100: 649313 472756 501888 580453
0111100010011010: 649313 472756 501888 560514
0111100010001000: 649313 472756 620773 560514
0111100010001000: 649313 472756 620773 501888
0110100110000100: 649313 472756 620773 597733
0110100110000100: 649313 472756 620773 580453
0110100110000100: 649313 472756 620773 597733
0110100110000100: 649313 472756 620773 580453
0110100110000100: 649313 472756 620773 597733
0110100110000100: 649313 472756 620773 580453
0111100010001000: 649313 472756 560514 620773
0111100010001000: 649313 472756 560514 620773
0110100110000100: 649313 472756 560514 597733
0110100110000100: 649313 472756 560514 580453
0110100110000100: 649313 472756 560514 597733
0110100110000100: 649313 472756 560514 580453
0110100110000100: 649313 472756 560514 597733
0110100110000100: 649313 472756 560514 580453
0110100110000100: 649313 472756 501888 597733
0110100110000100: 649313 472756 501888 580453
0110100110000100: 649313 472756 501888 597733
0110100110000100: 649313 472756 501888 580453
0110100110000100: 649313 472756 501888 597733
0110100110000100: 649313 472756 501888 580453
0101101001001000: 649313 472756 597733 620773
0101101001001000: 649313 472756 597733 560514
0101101001001000: 649313 472756 597733 501888
0100101001010010: 649313 472756 597733 478674
0100101001010010: 649313 472756 597733 478674
0100101001010010: 649313 472756 597733 478674
0100101001010010: 649313 472756 597733 478674
0101101001001000: 649313 472756 580453 620773
0101101001001000: 649313 472756 580453 560514
0101101001001000: 649313 472756 580453 501888
0100101001010010: 649313 472756 580453 577968
0100101001010010: 649313 472756 580453 525667
0100101001010010: 649313 472756 580453 577968
0100101001010010: 649313 472756 580453 525667
0100101101000100: 649313 472756 580453 597733
0100101001010010: 649313 472756 580453 577968
0100101001010010: 649313 472756 580453 525667
0110100010010010: 649313 501888 620773 593347
0110100010010010: 649313 501888 620773 577968
0110100010010010: 649313 501888 620773 593347
0110100010010010: 649313 501888 620773 577968
0111100010001000: 649313 501888 472756 620773
0110100010010010: 649313 501888 472756 597733
0110100010010010: 649313 501888 472756 580453
0110100010010010: 649313 501888 472756 597733
0110100010010010: 649313 501888 472756 580453
0111100010001000: 649313 501888 620773 472756
0111100110001100: 649313 501888 620773 560514
0111100010001000: 649313 501888 472756 620773
0111100010001000: 649313 501888 472756 620773
0111100110001100: 649313 501888 472756 560514
0111101011001000: 649313 501888 560514 620773
0111101011001000: 649313 501888 560514 472756
0111101011001000: 649313 501888 560514 620773
0111101011001000: 649313 501888 560514 472756
0111101011001000: 649313 501888 560514 620773
0111101011001000: 649313 501888 560514 472756
0111101011001000: 649313 501888 560514 620773
0111101011001000: 649313 501888 560514 472756
0111101011001000: 649313 501888 560514 620773
0111101011001000: 649313 501888 560514 472756
0111101011001000: 649313 501888 560514 620773
0111101011001000: 649313 501888 560514 472756
0111101011001000: 649313 501888 560514 620773
0111101011001000: 649313 501888 560514 472756
0110100110000100: 525667 580453 498467 472756
0110100110000100: 525667 580453 498467 577968
0110100010010010: 525667 580453 498467 560514
0110100010010010: 525667 580453 498467 635057
0110100110000100: 525667 580453 498467 472756
0110100110000100: 525667 580453 498467 577968
0110100110000100: 525667 580453 498467 472756
0110100110000100: 525667 580453 498467 577968
0110100110000100: 525667 580453 498467 472756
0110100110000100: 525667 580453 498467 577968
0110100110000100: 525667 580453 498467 472756
0110100110000100: 525667 580453 498467 577968
0110100110000100: 525667 580453 498467 472756
0110100110000100: 525667 580453 498467 577968
0110100110000100: 525667 498467 580453 560514
0110100110000100: 525667 498467 580453 635057
0110100010010010: 525667 498467 580453 472756
0110100010010010: 525667 498467 580453 577968
0110100110000100: 525667 498467 580453 560514
0110100110000100: 525667 498467 580453 635057
0110100110000100: 525667 498467 580453 560514
0110100110000100: 525667 498467 580453 635057
0110100110000100: 525667 498467 580453 560514
0110100110000100: 525667 498467 580453 635057
0110100110000100: 525667 498467 580453 560514
0110100110000100: 525667 498467 580453 635057
0110100110000100: 525667 498467 580453 560514
0110100110000100: 525667 498467 580453 635057
0110100110010110: 498467 635057 560514 596836
0110100110010110: 498467 635057 560514 577968
0111100010001000: 498467 525667 635057 560514
0101101001001000: 498467 525667 580453 560514
0101101001001000: 498467 525667 580453 635057
0110100110000100: 498467 560514 635057 649313
0110100110000100: 498467 560514 635057 501888
0110100110010110: 498467 560514 635057 596836
0110100110010110: 498467 560514 635057 577968
0110100110010110: 498467 560514 635057 596836
0110100110010110: 498467 560514 635057 577968
0111100010001000: 498467 560514 525667 635057
0110100110000100: 498467 560514 525667 596836
0110100110000100: 498467 560514 525667 577968
0110100110000100: 498467 560514 525667 649313
0110100110000100: 498467 560514 525667 501888
0110100010010010: 498467 560514 525667 580453
0110100010010010: 498467 560514 525667 580453
0110100110000100: 498467 560514 635057 649313
0110100110000100: 498467 560514 635057 501888
0110100110000100: 498467 560514 635057 649313
0110100110000100: 498467 560514 635057 501888
0110100110010110: 498467 560514 635057 596836
0110100110010110: 498467 560514 635057 577968
0110100110000100: 498467 560514 525667 596836
0110100110000100: 498467 560514 525667 577968
0110100110000100: 498467 560514 525667 649313
0110100110000100: 498467 560514 525667 501888
0110100110000100: 498467 560514 525667 596836
0110100110000100: 498467 560514 525667 577968
0110100110000100: 498467 560514 525667 649313
0110100110000100: 498467 560514 525667 501888
0110100010010010: 498467 560514 525667 580453
0111100010001000: 498467 560514 635057 525667
0111100010001000: 498467 560514 635057 525667
0111100010001000: 498467 560514 635057 525667
0111100010001000: 498467 560514 525667 635057
0111100010001000: 498467 560514 525667 635057
0110100010010010: 498467 560514 525667 580453
0110100110000100: 498467 560514 635057 649313
0110100110000100: 498467 560514 635057 501888
0110100110000100: 498467 560514 635057 649313
0110100110000100: 498467 560514 635057 501888
0111100010001000: 498467 560514 635057 525667
0110100110010110: 498467 560514 635057 596836
0110100110010110: 498467 560514 635057 577968
0110100110000100: 498467 560514 525667 596836
0110100110000100: 498467 560514 525667 577968
0110100110000100: 498467 560514 525667 649313
0110100110000100: 498467 560514 525667 501888
0110100110000100: 498467 560514 525667 596836
0110100110000100: 498467 560514 525667 577968
0110100110000100: 498467 560514 525667 649313
0110100110000100: 498467 560514 525667 501888
0111100010001000: 498467 560514 525667 635057
0111100010001000: 498467 560514 525667 635057
0110100010010010: 498467 560514 525667 580453
0110100010010010: 498467 560514 525667 580453
0110100010010010: 498467 635057 560514 649313
0110100010010010: 498467 635057 560514 501888
0110100110010110: 498467 635057 560514 596836
0110100110010110: 498467 635057 560514 577968
0110100110010110: 498467 635057 560514 596836
0110100110010110: 498467 635057 560514 577968
0111100010001000: 498467 635057 525667 560514
0110100110000100: 498467 635057 525667 596836
0110100110000100: 498467 635057 525667 577968
0110100010010010: 498467 635057 525667 580453
0110100010010010: 498467 635057 525667 580453
0111100010001000: 498467 635057 560514 525667
0110100110010110: 498467 635057 560514 596836
0110100110010110: 498467 635057 560514 577968
0110100110010110: 498467 635057 560514 596836
0110100110010110: 498467 635057 560514 577968
0110100110010110: 498467 635057 560514 596836
0110100110010110: 498467 635057 560514 577968
0110100110000100: 498467 635057 525667 596836
0110100110000100: 498467 635057 525667 577968
0110100110000100: 498467 635057 525667 596836
0110100110000100: 498467 635057 525667 577968
0110100010010010: 498467 635057 525667 580453
0111100010001000: 498467 635057 560514 525667
0111100010001000: 498467 635057 560514 525667
0111100010001000: 498467 635057 560514 525667
0111100010001000: 498467 635057 525667 560514
0111100010001000: 498467 635057 525667 560514
0110100010010010: 498467 635057 525667 580453
0111100010001000: 498467 635057 560514 525667
0110100110010110: 498467 635057 560514 596836
0110100110010110: 498467 635057 560514 577968
0110100110000100: 498467 635057 525667 596836
0110100110000100: 498467 635057 525667 577968
0110100110000100: 498467 635057 525667 596836
0110100110000100: 498467 635057 525667 577968
0111100010001000: 498467 635057 525667 560514
0111100010001000: 498467 635057 525667 560514
0110100010010010: 498467 635057 525667 580453
0110100010010010: 498467 635057 525667 580453
0110100010010010: 498467 525667 560514 596836
0110100010010010: 498467 525667 560514 577968
0110100010010010: 498467 525667 560514 649313
0110100010010010: 498467 525667 560514 501888
0111100010001000: 498467 525667 635057 560514
0110100010010010: 498467 525667 635057 596836
0110100010010010: 498467 525667 635057 577968
0111100010001000: 498467 525667 560514 635057
0110100110000100: 498467 525667 560514 580453
0110100110000100: 498467 525667 560514 580453
0111100010001000: 498467 525667 635057 560514
0111100010001000: 498467 525667 635057 560514
0110100110000100: 498467 525667 635057 580453
0110100110000100: 498467 525667 635057 580453
0101101001001000: 498467 525667 580453 560514
0101101001001000: 498467 525667 580453 635057
0100101001010010: 498467 525667 580453 472756
0100101001010010: 498467 525667 580453 577968
0100101001010010: 498467 525667 580453 472756
0100101001010010: 498467 525667 580453 577968
0101101001001000: 498467 525667 580453 560514
0101101001001000: 498467 525667 580453 635057
0101101001001000: 498467 525667 580453 560514
0101101001001000: 498467 525667 580453 635057
0111100010001000: 580453 525667 577968 472756
0101101001001000: 580453 525667 498467 472756
0101101001001000: 580453 525667 498467 577968
0110100110000100: 580453 472756 577968 597733
0110100110000100: 580453 472756 577968 649313
0110100010010010: 580453 472756 577968 620773
0110100010010010: 580453 472756 577968 560514
0110100010010010: 580453 472756 577968 635057
0111100010001000: 580453 472756 525667 577968
0110100110000100: 580453 472756 525667 597733
0110100110000100: 580453 472756 525667 649313
0110100010010010: 580453 472756 525667 498467
0110100010010010: 580453 472756 525667 498467
0110100110000100: 580453 472756 577968 597733
0110100110000100: 580453 472756 577968 649313
0110100110000100: 580453 472756 577968 597733
0110100110000100: 580453 472756 577968 649313
0110100110000100: 580453 472756 525667 597733
0110100110000100: 580453 472756 525667 649313
0110100110000100: 580453 472756 525667 597733
0110100110000100: 580453 472756 525667 649313
0110100010010010: 580453 472756 525667 498467
0111100010001000: 580453 472756 577968 525667
0111100010001000: 580453 472756 577968 525667
0111100010001000: 580453 472756 577968 525667
0111100010001000: 580453 472756 525667 577968
0111100010001000: 580453 472756 525667 577968
0110100010010010: 580453 472756 525667 498467
0110100110000100: 580453 472756 577968 597733
0110100110000100: 580453 472756 577968 649313
0110100110000100: 580453 472756 577968 597733
0110100110000100: 580453 472756 577968 649313
0111100010001000: 580453 472756 577968 525667
0110100110000100: 580453 472756 577968 597733
0110100110000100: 580453 472756 577968 649313
0110100110000100: 580453 472756 525667 597733
0110100110000100: 580453 472756 525667 649313
0110100110000100: 580453 472756 525667 597733
0110100110000100: 580453 472756 525667 649313
0111100010001000: 580453 472756 525667 577968
0111100010001000: 580453 472756 525667 577968
0110100010010010: 580453 472756 525667 498467
0110100010010010: 580453 472756 525667 498467
0110100110000100: 580453 577968 472756 620773
0110100110000100: 580453 577968 472756 560514
0110100110000100: 580453 577968 472756 635057
0110100010010010: 580453 577968 472756 597733
0110100010010010: 580453 577968 472756 649313
0111100010001000: 580453 577968 525667 472756
0110100110000100: 580453 577968 525667 620773
0110100110000100: 580453 577968 525667 560514
0110100110000100: 580453 577968 525667 635057
0110100010010010: 580453 577968 525667 498467
0110100010010010: 580453 577968 525667 498467
0111100010001000: 580453 577968 472756 525667
0110100110000100: 580453 577968 472756 620773
0110100110000100: 580453 577968 472756 560514
0110100110000100: 580453 577968 472756 635057
0110100110000100: 580453 577968 472756 620773
0110100110000100: 580453 577968 472756 560514
0110100110000100: 580453 577968 472756 635057
0110100010010010: 580453 577968 472756 597733
0110100010010010: 580453 577968 472756 649313
0110100110000100: 580453 577968 525667 620773
0110100110000100: 580453 577968 525667 560514
0110100110000100: 580453 577968 525667 635057
0110100110000100: 580453 577968 525667 620773
0110100110000100: 580453 577968 525667 560514
0110100110000100: 580453 577968 525667 635057
0110100010010010: 580453 577968 525667 498467
0111100010001000: 580453 577968 472756 525667
0111100010001000: 580453 577968 472756 525667
0111100010001000: 580453 577968 472756 525667
0111100010001000: 580453 577968 525667 472756
0111100010001000: 580453 577968 525667 472756
0110100010010010: 580453 577968 525667 498467
0110100110000100: 580453 577968 472756 620773
0110100110000100: 580453 577968 472756 560514
0110100110000100: 580453 577968 472756 635057
0110100110000100: 580453 577968 472756 620773
0110100110000100: 580453 577968 472756 560514
0110100110000100: 580453 577968 472756 635057
0111100010001000: 580453 577968 472756 525667
0110100010010010: 580453 577968 472756 597733
0110100010010010: 580453 577968 472756 649313
0110100110000100: 580453 577968 525667 620773
0110100110000100: 580453 577968 525667 560514
0110100110000100: 580453 577968 525667 635057
0110100110000100: 580453 577968 525667 620773
0110100110000100: 580453 577968 525667 560514
0110100110000100: 580453 577968 525667 635057
0111100010001000: 580453 577968 525667 472756
0111100010001000: 580453 577968 525667 472756
0110100010010010: 580453 577968 525667 498467
0110100010010010: 580453 577968 525667 498467
0110100010010010: 580453 525667 472756 597733
0110100010010010: 580453 525667 472756 649313
0111100010001000: 580453 525667 577968 472756
0110100010010010: 580453 525667 577968 620773
0110100010010010: 580453 525667 577968 560514
0110100010010010: 580453 525667 577968 635057
0111100010001000: 580453 525667 472756 577968
0110100110000100: 580453 525667 472756 498467
0110100110000100: 580453 525667 472756 498467
0111100010001000: 580453 525667 577968 472756
0111100010001000: 580453 525667 577968 472756
0110100110000100: 580453 525667 577968 498467
0110100110000100: 580453 525667 577968 498467
0101101001001000: 580453 525667 498467 472756
0101101001001000: 580453 525667 498467 577968
0100101001010010: 580453 525667 498467 560514
0100101001010010: 580453 525667 498467 635057
0100101001010010: 580453 525667 498467 560514
0100101001010010: 580453 525667 498467 635057
0101101001001000: 580453 525667 498467 472756
0101101001001000: 580453 525667 498467 577968
0101101001001000: 580453 525667 498467 472756
0101101001001000: 580453 525667 498467 577968
0101101001001000: 577968 620773 593347 560514
0101101001001000: 577968 620773 593347 635057
0101101001001000: 577968 620773 593347 580453
0101101001001000: 577968 620773 649313 635057
0101101001001000: 577968 620773 649313 580453
0100101101000100: 577968 620773 649313 593347
0110100110010110: 577968 560514 620773 649313
0111100010001000: 577968 635057 560514 620773
0110100110010110: 577968 635057 560514 596836
0110100110010110: 577968 635057 560514 498467
0101101001001000: 577968 635057 596836 620773
0101101001001000: 577968 635057 596836 580453
0101101001001000: 577968 635057 498467 620773
0101101001001000: 577968 635057 498467 580453
0100101101000100: 577968 635057 498467 596836
0111100010001000: 577968 580453 560514 620773
0111100010001000: 577968 580453 635057 620773
0111100010001000: 577968 580453 635057 560514
0101101001001000: 577968 580453 472756 620773
0101101001001000: 577968 580453 472756 560514
0101101001001000: 577968 580453 472756 635057
0101101001001000: 577968 580453 525667 620773
0101101001001000: 577968 580453 525667 560514
0101101001001000: 577968 580453 525667 635057
0100101101000100: 577968 580453 525667 472756
0110100110000100: 577968 620773 560514 593347
0110100010010010: 577968 620773 560514 596836
0110100010010010: 577968 620773 560514 498467
0110100010010010: 577968 620773 560514 501888
0110100110010110: 577968 620773 560514 649313
0110100110010110: 577968 620773 560514 649313
0111100010001000: 577968 620773 635057 560514
0110100110000100: 577968 620773 635057 593347
0110100110000100: 577968 620773 635057 649313
0110100010010010: 577968 620773 635057 596836
0110100010010010: 577968 620773 635057 498467
0110100010010010: 577968 620773 635057 596836
0110100010010010: 577968 620773 635057 498467
0111100010001000: 577968 620773 580453 560514
0111100010001000: 577968 620773 580453 635057
0110100110000100: 577968 620773 580453 593347
0110100110000100: 577968 620773 580453 649313
0110100010010010: 577968 620773 580453 472756
0110100010010010: 577968 620773 580453 525667
0110100010010010: 577968 620773 580453 472756
0110100010010010: 577968 620773 580453 525667
0110100110000100: 577968 620773 560514 593347
0110100110000100: 577968 620773 560514 593347
0110100110000100: 577968 620773 560514 593347
0110100110010110: 577968 620773 560514 649313
0110100110000100: 577968 620773 635057 593347
0110100110000100: 577968 620773 635057 649313
0110100110000100: 577968 620773 635057 593347
0110100110000100: 577968 620773 635057 649313
0110100110000100: 577968 620773 635057 593347
0110100110000100: 577968 620773 635057 649313
0110100110000100: 577968 620773 580453 593347
0110100110000100: 577968 620773 580453 649313
0110100110000100: 577968 620773 580453 593347
0110100110000100: 577968 620773 580453 649313
0110100110000100: 577968 620773 580453 593347
0110100110000100: 577968 620773 580453 649313
0101101001001000: 577968 620773 593347 560514
0101101001001000: 577968 620773 593347 635057
0101101001001000: 577968 620773 593347 580453
0100101001010010: 577968 620773 593347 589275
0100101001010010: 577968 620773 593347 589275
0100101001010010: 577968 620773 593347 589275
0100101001010010: 577968 620773 593347 589275
0101101001001000: 577968 620773 649313 635057
0101101001001000: 577968 620773 649313 580453
0100101001010010: 577968 620773 649313 472756
0100101001010010: 577968 620773 649313 501888
0100101001010010: 577968 620773 649313 472756
0100101001010010: 577968 620773 649313 501888
0100101101000100: 577968 620773 649313 593347
0101101001011010: 577968 620773 649313 560514
0101101001011010: 577968 620773 649313 560514
0101101001011010: 577968 620773 649313 560514
0101101001001000: 577968 620773 649313 635057
0101101001001000: 577968 620773 649313 580453
0110100110000100: 577968 560514 620773 596836
0110100110000100: 577968 560514 620773 498467
0110100110000100: 577968 560514 620773 501888
0110100010010010: 577968 560514 620773 593347
0110100010010010: 577968 560514 620773 593347
0110100110010110: 577968 560514 620773 649313
0110100110010110: 577968 560514 620773 649313
0111100010001000: 577968 560514 635057 620773
0110100110000100: 577968 560514 635057 649313
0110100110000100: 577968 560514 635057 501888
0110100110010110: 577968 560514 635057 596836
0110100110010110: 577968 560514 635057 498467
0110100110010110: 577968 560514 635057 596836
0110100110010110: 577968 560514 635057 498467
0111100010001000: 577968 560514 580453 620773
0111100010001000: 577968 560514 580453 635057
0110100110000100: 577968 560514 580453 596836
0110100110000100: 577968 560514 580453 498467
0110100110000100: 577968 560514 580453 649313
0110100110000100: 577968 560514 580453 501888
0110100010010010: 577968 560514 580453 472756
0110100010010010: 577968 560514 580453 525667
0110100010010010: 577968 560514 580453 472756
0110100010010010: 577968 560514 580453 525667
0111100010001000: 577968 560514 620773 635057
0111100010001000: 577968 560514 620773 580453
0110100110000100: 577968 560514 620773 596836
0110100110000100: 577968 560514 620773 498467
0110100110000100: 577968 560514 620773 501888
0110100110000100: 577968 560514 620773 596836
0110100110000100: 577968 560514 620773 498467
0110100110000100: 577968 560514 620773 501888
0110100110010110: 577968 560514 620773 649313
0110100010010010: 577968 560514 620773 593347
0110100110010110: 577968 560514 620773 649313
0110100110000100: 577968 560514 635057 649313
0110100110000100: 577968 560514 635057 501888
0110100110000100: 577968 560514 635057 649313
0110100110000100: 577968 560514 635057 501888
0110100110010110: 577968 560514 635057 596836
0110100110010110: 577968 560514 635057 498467
0110100110000100: 577968 560514 580453 596836
0110100110000100: 577968 560514 580453 498467
0110100110000100: 577968 560514 580453 649313
0110100110000100: 577968 560514 580453 501888
0110100110000100: 577968 560514 580453 596836
0110100110000100: 577968 560514 580453 498467
0110100110000100: 577968 560514 580453 649313
0110100110000100: 577968 560514 580453 501888
0110100010010010: 577968 560514 580453 472756
0110100010010010: 577968 560514 580453 525667
0111100010001000: 577968 560514 620773 635057
0111100010001000: 577968 560514 620773 580453
0111100010001000: 577968 560514 620773 635057
0111100010001000: 577968 560514 620773 580453
0110100010010010: 577968 560514 620773 593347
0111100010001000: 577968 560514 635057 620773
0111100010001000: 577968 560514 635057 580453
0111100010001000: 577968 560514 635057 620773
0111100010001000: 577968 560514 635057 580453
0111100010001000: 577968 560514 580453 620773
0111100010001000: 577968 560514 580453 635057
0111100010001000: 577968 560514 580453 620773
0111100010001000: 577968 560514 580453 635057
0110100010010010: 577968 560514 580453 472756
0110100010010010: 577968 560514 580453 525667
0110100110000100: 577968 560514 620773 596836
0110100110000100: 577968 560514 620773 498467
0110100110000100: 577968 560514 620773 501888
0110100110000100: 577968 560514 620773 596836
0110100110000100: 577968 560514 620773 498467
0110100110000100: 577968 560514 620773 501888
0111100010001000: 577968 560514 620773 635057
0111100010001000: 577968 560514 620773 580453
0110100010010010: 577968 560514 620773 593347
0110100110010110: 577968 560514 620773 649313
0110100010010010: 577968 560514 620773 593347
0110100110010110: 577968 560514 620773 649313
0110100110000100: 577968 560514 635057 649313
0110100110000100: 577968 560514 635057 501888
0110100110000100: 577968 560514 635057 649313
0110100110000100: 577968 560514 635057 501888
0111100010001000: 577968 560514 635057 620773
0111100010001000: 577968 560514 635057 580453
0111100010001000: 577968 560514 635057 620773
0110100110010110: 577968 560514 635057 596836
0110100110010110: 577968 560514 635057 498467
0110100110010110: 577968 560514 635057 596836
0110100110010110: 577968 560514 635057 498467
0110100110000100: 577968 560514 580453 596836
0110100110000100: 577968 560514 580453 498467
0110100110000100: 577968 560514 580453 649313
0110100110000100: 577968 560514 580453 501888
0110100110000100: 577968 560514 580453 596836
0110100110000100: 577968 560514 580453 498467
0110100110000100: 577968 560514 580453 649313
0110100110000100: 577968 560514 580453 501888
0111100010001000: 577968 560514 580453 620773
0111100010001000: 577968 560514 580453 635057
0111100010001000: 577968 560514 580453 620773
0111100010001000: 577968 560514 580453 635057
0110100010010010: 577968 560514 580453 472756
0110100010010010: 577968 560514 580453 525667
0110100010010010: 577968 560514 580453 472756
0110100010010010: 577968 560514 580453 525667
0110100110000100: 577968 635057 620773 596836
0110100110000100: 577968 635057 620773 498467
0110100010010010: 577968 635057 620773 593347
0110100010010010: 577968 635057 620773 649313
0110100010010010: 577968 635057 620773 593347
0110100010010010: 577968 635057 620773 649313
0111100010001000: 577968 635057 560514 620773
0110100010010010: 577968 635057 560514 649313
0110100010010010: 577968 635057 560514 501888
0110100110010110: 577968 635057 560514 596836
0110100110010110: 577968 635057 560514 498467
0110100110010110: 577968 635057 560514 596836
0110100110010110: 577968 635057 560514 498467
0111100010001000: 577968 635057 580453 620773
0111100010001000: 577968 635057 580453 560514
0110100110000100: 577968 635057 580453 596836
0110100110000100: 577968 635057 580453 498467
0110100010010010: 577968 635057 580453 472756
0110100010010010: 577968 635057 580453 525667
0110100010010010: 577968 635057 580453 472756
0110100010010010: 577968 635057 580453 525667
0111100010001000: 577968 635057 620773 560514
0111100010001000: 577968 635057 620773 580453
0110100110000100: 577968 635057 620773 596836
0110100110000100: 577968 635057 620773 498467
0110100110000100: 577968 635057 620773 596836
0110100110000100: 577968 635057 620773 498467
0110100110000100: 577968 635057 620773 596836
0110100110000100: 577968 635057 620773 498467
0111100010001000: 577968 635057 560514 620773
0111100010001000: 577968 635057 560514 580453
0111100010001000: 577968 635057 560514 620773
0110100110010110: 577968 635057 560514 596836
0110100110010110: 577968 635057 560514 498467
0110100110010110: 577968 635057 560514 596836
0110100110010110: 577968 635057 560514 498467
0110100110010110: 577968 635057 560514 596836
0110100110000100: 577968 635057 580453 596836
0110100110000100: 577968 635057 580453 498467
0110100110000100: 577968 635057 580453 596836
0110100110000100: 577968 635057 580453 498467
0110100110000100: 577968 635057 580453 596836
0110100110000100: 577968 635057 580453 498467
0101101001001000: 577968 635057 596836 620773
0101101001001000: 577968 635057 596836 580453
0100101001010010: 577968 635057 596836 505705
0100101001010010: 577968 635057 596836 505705
0101101001011010: 577968 635057 596836 560514
0101101001011010: 577968 635057 596836 560514
0101101001011010: 577968 635057 596836 560514
0100101001010010: 577968 635057 596836 505705
0101101001001000: 577968 635057 498467 620773
0101101001001000: 577968 635057 498467 580453
0100101001010010: 577968 635057 498467 525667
0100101001010010: 577968 635057 498467 525667
0100101101000100: 577968 635057 498467 596836
0101101001011010: 577968 635057 498467 560514
0101101001011010: 577968 635057 498467 560514
0101101001011010: 577968 635057 498467 560514
0100101001010010: 577968 635057 498467 525667
0110100010010010: 577968 580453 620773 593347
0110100010010010: 577968 580453 620773 649313
0110100010010010: 577968 580453 620773 593347
0110100010010010: 577968 580453 620773 649313
0111100010001000: 577968 580453 560514 620773
0110100010010010: 577968 580453 560514 596836
0110100010010010: 577968 580453 560514 498467
0110100010010010: 577968 580453 560514 649313
0110100010010010: 577968 580453 560514 501888
0111100010001000: 577968 580453 635057 620773
0111100010001000: 577968 580453 635057 560514
0110100010010010: 577968 580453 635057 596836
0110100010010010: 577968 580453 635057 498467
0110100010010010: 577968 580453 635057 596836
0110100010010010: 577968 580453 635057 498467
0111100010001000: 577968 580453 620773 560514
0111100010001000: 577968 580453 620773 635057
0110100110000100: 577968 580453 620773 472756
0110100110000100: 577968 580453 620773 525667
0110100110000100: 577968 580453 620773 472756
0110100110000100: 577968 580453 620773 525667
0111100010001000: 577968 580453 560514 620773
0111100010001000: 577968 580453 560514 635057
0111100010001000: 577968 580453 560514 620773
0110100110000100: 577968 580453 560514 472756
0110100110000100: 577968 580453 560514 525667
0110100110000100: 577968 580453 560514 472756
0110100110000100: 577968 580453 560514 525667
0111100010001000: 577968 580453 635057 620773
0111100010001000: 577968 580453 635057 560514
0111100010001000: 577968 580453 635057 620773
0111100010001000: 577968 580453 635057 560514
0110100110000100: 577968 580453 635057 472756
0110100110000100: 577968 580453 635057 525667
0110100110000100: 577968 580453 635057 472756
0110100110000100: 577968 580453 635057 525667
0101101001001000: 577968 580453 472756 620773
0101101001001000: 577968 580453 472756 560514
0101101001001000: 577968 580453 472756 635057
0100101001010010: 577968 580453 472756 597733
0100101001010010: 577968 580453 472756 649313
0100101001010010: 577968 580453 472756 597733
0100101001010010: 577968 580453 472756 649313
0100101001010010: 577968 580453 472756 597733
0100101001010010: 577968 580453 472756 649313
0101101001001000: 577968 580453 525667 620773
0101101001001000: 577968 580453 525667 560514
0101101001001000: 577968 580453 525667 635057
0100101001010010: 577968 580453 525667 498467
0100101001010010: 577968 580453 525667 498467
0100101101000100: 577968 580453 525667 472756
0100101001010010: 577968 580453 525667 498467
0100101001010010: 577968 580453 525667 498467
0110100110010110: 635057 577968 596836 560514
0110100110010110: 635057 498467 596836 560514
0111100010001000: 635057 498467 577968 596836
0110100110010110: 635057 498467 577968 560514
0110100110000100: 635057 596836 577968 505705
0110100010010010: 635057 596836 577968 620773
0110100010010010: 635057 596836 577968 580453
0110100110010110: 635057 596836 577968 560514
0110100110010110: 635057 596836 577968 560514
0111100010001000: 635057 596836 498467 577968
0110100110000100: 635057 596836 498467 505705
0110100010010010: 635057 596836 498467 525667
0110100110010110: 635057 596836 498467 560514
0110100110010110: 635057 596836 498467 560514
0110100110000100: 635057 596836 577968 505705
0110100110000100: 635057 596836 577968 505705
0110100110010110: 635057 596836 577968 560514
0110100110000100: 635057 596836 498467 505705
0110100110000100: 635057 596836 498467 505705
0110100110010110: 635057 596836 498467 560514
0111100010001000: 635057 596836 577968 498467
0111100010001000: 635057 596836 577968 498467
0111100010001000: 635057 596836 577968 498467
0111100010001000: 635057 596836 498467 577968
0111100010001000: 635057 596836 498467 577968
0111100010001000: 635057 596836 498467 577968
0110100110000100: 635057 596836 577968 505705
0110100110000100: 635057 596836 577968 505705
0111100010001000: 635057 596836 577968 498467
0110100110010110: 635057 596836 577968 560514
0110100110000100: 635057 596836 577968 505705
0110100110000100: 635057 596836 498467 505705
0110100110000100: 635057 596836 498467 505705
0111100010001000: 635057 596836 498467 577968
0111100010001000: 635057 596836 498467 577968
0110100110010110: 635057 596836 498467 560514
0110100110000100: 635057 596836 498467 505705
0110100010010010: 635057 577968 596836 505705
0110100110010110: 635057 577968 596836 560514
0111100010001000: 635057 577968 498467 596836
0110100010010010: 635057 577968 498467 525667
0110100110010110: 635057 577968 498467 560514
0111100010001000: 635057 577968 596836 498467
0110100110000100: 635057 577968 596836 620773
0110100110000100: 635057 577968 596836 580453
0110100110010110: 635057 577968 596836 560514
0110100010010010: 635057 577968 596836 505705
0110100110010110: 635057 577968 596836 560514
0110100110000100: 635057 577968 498467 620773
0110100110000100: 635057 577968 498467 580453
0110100010010010: 635057 577968 498467 525667
0110100110010110: 635057 577968 498467 560514
0111100010001000: 635057 577968 596836 498467
0111100010001000: 635057 577968 596836 498467
0111100010001000: 635057 577968 596836 498467
0111100010001000: 635057 577968 498467 596836
0111100010001000: 635057 577968 498467 596836
0111100010001000: 635057 577968 498467 596836
0110100110000100: 635057 577968 596836 620773
0110100110000100: 635057 577968 596836 580453
0110100110000100: 635057 577968 596836 620773
0110100110000100: 635057 577968 596836 580453
0111100010001000: 635057 577968 596836 498467
0110100010010010: 635057 577968 596836 505705
0110100110010110: 635057 577968 596836 560514
0110100110000100: 635057 577968 498467 620773
0110100110000100: 635057 577968 498467 580453
0110100110000100: 635057 577968 498467 620773
0110100110000100: 635057 577968 498467 580453
0111100010001000: 635057 577968 498467 596836
0111100010001000: 635057 577968 498467 596836
0110100010010010: 635057 577968 498467 525667
0110100110010110: 635057 577968 498467 560514
0110100010010010: 635057 498467 596836 505705
0110100110010110: 635057 498467 596836 560514
0111100010001000: 635057 498467 577968 596836
0110100010010010: 635057 498467 577968 620773
0110100010010010: 635057 498467 577968 580453
0110100110010110: 635057 498467 577968 560514
0111100010001000: 635057 498467 596836 577968
0110100110000100: 635057 498467 596836 525667
0110100110010110: 635057 498467 596836 560514
0110100110010110: 635057 498467 596836 560514
0111100010001000: 635057 498467 577968 596836
0111100010001000: 635057 498467 577968 596836
0110100110000100: 635057 498467 577968 525667
0110100110010110: 635057 498467 577968 560514
0110100110010110: 635057 498467 577968 560514
0111100010001000: 635057 498467 596836 577968
0111100010001000: 635057 498467 596836 577968
0111100010001000: 635057 498467 596836 577968
0111100010001000: 635057 498467 577968 596836
0111100010001000: 635057 498467 577968 596836
0111100010001000: 635057 498467 577968 596836
0110100110000100: 635057 498467 596836 525667
0110100110000100: 635057 498467 596836 525667
0111100010001000: 635057 498467 596836 577968
0110100110010110: 635057 498467 596836 560514
0110100110000100: 635057 498467 596836 525667
0110100110000100: 635057 498467 577968 525667
0110100110000100: 635057 498467 577968 525667
0111100010001000: 635057 498467 577968 596836
0111100010001000: 635057 498467 577968 596836
0110100110010110: 635057 498467 577968 560514
0110100110000100: 635057 498467 577968 525667
0110100110010110: 596836 635057 560514 577968
0110100110010110: 596836 635057 560514 498467
0111100010001000: 596836 635057 505705 560514
0110100110000100: 596836 560514 505705 577968
0110100110000100: 596836 560514 505705 498467
0110100110000100: 596836 560514 505705 649313
0110100110000100: 596836 560514 505705 501888
0110100010010010: 596836 560514 505705 478674
0110100010010010: 596836 560514 505705 514184
0111100010001000: 596836 560514 635057 505705
0110100110000100: 596836 560514 635057 649313
0110100110000100: 596836 560514 635057 501888
0110100110010110: 596836 560514 635057 577968
0110100110010110: 596836 560514 635057 498467
0110100110010110: 596836 560514 635057 577968
0110100110010110: 596836 560514 635057 498467
0110100110000100: 596836 560514 505705 577968
0110100110000100: 596836 560514 505705 498467
0110100110000100: 596836 560514 505705 649313
0110100110000100: 596836 560514 505705 501888
0110100110000100: 596836 560514 505705 577968
0110100110000100: 596836 560514 505705 498467
0110100110000100: 596836 560514 505705 649313
0110100110000100: 596836 560514 505705 501888
0110100010010010: 596836 560514 505705 478674
0110100010010010: 596836 560514 505705 514184
0110100110000100: 596836 560514 635057 649313
0110100110000100: 596836 560514 635057 501888
0110100110000100: 596836 560514 635057 649313
0110100110000100: 596836 560514 635057 501888
0110100110010110: 596836 560514 635057 577968
0110100110010110: 596836 560514 635057 498467
0111100010001000: 596836 560514 505705 635057
0111100010001000: 596836 560514 505705 635057
0111100010001000: 596836 560514 505705 635057
0111100010001000: 596836 560514 635057 505705
0111100010001000: 596836 560514 635057 505705
0111100010001000: 596836 560514 635057 505705
0110100110000100: 596836 560514 505705 577968
0110100110000100: 596836 560514 505705 498467
0110100110000100: 596836 560514 505705 649313
0110100110000100: 596836 560514 505705 501888
0110100110000100: 596836 560514 505705 577968
0110100110000100: 596836 560514 505705 498467
0110100110000100: 596836 560514 505705 649313
0110100110000100: 596836 560514 505705 501888
0111100010001000: 596836 560514 505705 635057
0110100010010010: 596836 560514 505705 478674
0110100010010010: 596836 560514 505705 514184
0110100110000100: 596836 560514 635057 649313
0110100110000100: 596836 560514 635057 501888
0110100110000100: 596836 560514 635057 649313
0110100110000100: 596836 560514 635057 501888
0111100010001000: 596836 560514 635057 505705
0111100010001000: 596836 560514 635057 505705
0110100110010110: 596836 560514 635057 577968
0110100110010110: 596836 560514 635057 498467
0110100110000100: 596836 505705 560514 478674
0110100110000100: 596836 505705 560514 514184
0110100010010010: 596836 505705 560514 577968
0110100010010010: 596836 505705 560514 498467
0110100010010010: 596836 505705 560514 649313
0110100010010010: 596836 505705 560514 501888
0111100010001000: 596836 505705 635057 560514
0110100110000100: 596836 505705 635057 478674
0110100110000100: 596836 505705 635057 514184
0110100010010010: 596836 505705 635057 577968
0110100010010010: 596836 505705 635057 498467
0111100010001000: 596836 505705 560514 635057
0110100110000100: 596836 505705 560514 478674
0110100110000100: 596836 505705 560514 514184
0110100110000100: 596836 505705 560514 478674
0110100110000100: 596836 505705 560514 514184
0110100110000100: 596836 505705 635057 478674
0110100110000100: 596836 505705 635057 514184
0110100110000100: 596836 505705 635057 478674
0110100110000100: 596836 505705 635057 514184
0111100010001000: 596836 505705 560514 635057
0111100010001000: 596836 505705 560514 635057
0111100010001000: 596836 505705 560514 635057
0111100010001000: 596836 505705 635057 560514
0111100010001000: 596836 505705 635057 560514
0111100010001000: 596836 505705 635057 560514
0110100110000100: 596836 505705 560514 478674
0110100110000100: 596836 505705 560514 514184
0110100110000100: 596836 505705 560514 478674
0110100110000100: 596836 505705 560514 514184
0111100010001000: 596836 505705 560514 635057
0110100110000100: 596836 505705 560514 478674
0110100110000100: 596836 505705 560514 514184
0110100110000100: 596836 505705 635057 478674
0110100110000100: 596836 505705 635057 514184
0110100110000100: 596836 505705 635057 478674
0110100110000100: 596836 505705 635057 514184
0111100010001000: 596836 505705 635057 560514
0111100010001000: 596836 505705 635057 560514
0110100110000100: 596836 505705 635057 478674
0110100110000100: 596836 505705 635057 514184
0110100010010010: 596836 635057 560514 649313
0110100010010010: 596836 635057 560514 501888
0110100110010110: 596836 635057 560514 577968
0110100110010110: 596836 635057 560514 498467
0111100010001000: 596836 635057 505705 560514
0110100010010010: 596836 635057 505705 478674
0110100010010010: 596836 635057 505705 514184
0111100010001000: 596836 635057 560514 505705
0110100110010110: 596836 635057 560514 577968
0110100110010110: 596836 635057 560514 498467
0110100110010110: 596836 635057 560514 577968
0110100110010110: 596836 635057 560514 498467
0111100010001000: 596836 635057 505705 560514
0111100010001000: 596836 635057 505705 560514
0110100110000100: 596836 635057 505705 577968
0110100110000100: 596836 635057 505705 498467
0111100010001000: 596836 635057 560514 505705
0111100010001000: 596836 635057 560514 505705
0111100010001000: 596836 635057 560514 505705
0111100010001000: 596836 635057 505705 560514
0111100010001000: 596836 635057 505705 560514
0111100010001000: 596836 635057 505705 560514
0111100010001000: 596836 635057 560514 505705
0110100110010110: 596836 635057 560514 577968
0110100110010110: 596836 635057 560514 498467
0110100110000100: 596836 635057 505705 577968
0110100110000100: 596836 635057 505705 498467
0110100110000100: 596836 635057 505705 577968
0110100110000100: 596836 635057 505705 498467
0111100010001000: 596836 635057 505705 560514
0111100010001000: 596836 635057 505705 560514
0110100110000100: 596836 635057 505705 577968
0110100110000100: 596836 635057 505705 498467
0101101001001000: 505705 478674 597733 514184
0101101001001000: 505705 478674 597733 596836
0101101001001000: 505705 514184 536529 478674
0101101001001000: 505705 514184 536529 596836
0111100010001000: 505705 596836 514184 478674
0110100110000100: 505705 478674 514184 597733
0110100010010010: 505705 478674 514184 536529
0110100010010010: 505705 478674 514184 536529
0111100010001000: 505705 478674 596836 514184
0110100110000100: 505705 478674 596836 597733
0110100010010010: 505705 478674 596836 560514
0110100010010010: 505705 478674 596836 635057
0110100110000100: 505705 478674 514184 597733
0110100110000100: 505705 478674 514184 597733
0110100110000100: 505705 478674 514184 597733
0110100110000100: 505705 478674 596836 597733
0110100110000100: 505705 478674 596836 597733
0110100110000100: 505705 478674 596836 597733
0101101001001000: 505705 478674 597733 514184
0101101001001000: 505705 478674 597733 596836
0100101001010010: 505705 478674 597733 472756
0100101001010010: 505705 478674 597733 472756
0100101001010010: 505705 478674 597733 472756
0110100110000100: 505705 514184 478674 536529
0110100010010010: 505705 514184 478674 597733
0110100010010010: 505705 514184 478674 597733
0111100010001000: 505705 514184 596836 478674
0110100110000100: 505705 514184 596836 536529
0110100010010010: 505705 514184 596836 560514
0110100010010010: 505705 514184 596836 635057
0111100010001000: 505705 514184 478674 596836
0110100110000100: 505705 514184 478674 536529
0110100110000100: 505705 514184 478674 536529
0110100110000100: 505705 514184 478674 536529
0110100110000100: 505705 514184 596836 536529
0110100110000100: 505705 514184 596836 536529
0110100110000100: 505705 514184 596836 536529
0101101001001000: 505705 514184 536529 478674
0101101001001000: 505705 514184 536529 596836
0100101001010010: 505705 514184 536529 507641
0100101001010010: 505705 514184 536529 507641
0100101001010010: 505705 514184 536529 507641
0110100010010010: 505705 596836 478674 597733
0110100010010010: 505705 596836 478674 597733
0111100010001000: 505705 596836 514184 478674
0110100010010010: 505705 596836 514184 536529
0110100010010010: 505705 596836 514184 536529
0111100010001000: 505705 596836 478674 514184
0110100110000100: 505705 596836 478674 560514
0110100110000100: 505705 596836 478674 635057
0110100010010010: 505705 596836 478674 597733
0111100010001000: 505705 596836 514184 478674
0111100010001000: 505705 596836 514184 478674
0110100110000100: 505705 596836 514184 560514
0110100110000100: 505705 596836 514184 635057
0110100010010010: 505705 596836 514184 536529
0111100010001000: 505705 596836 478674 514184
0111100010001000: 505705 596836 478674 514184
0110100010010010: 505705 596836 478674 597733
0111100010001000: 505705 596836 514184 478674
0111100010001000: 505705 596836 514184 478674
0110100010010010: 505705 596836 514184 536529
0110100110000100: 505705 596836 478674 560514
0110100110000100: 505705 596836 478674 635057
0110100110000100: 505705 596836 478674 560514
0110100110000100: 505705 596836 478674 635057
0111100010001000: 505705 596836 478674 514184
0110100010010010: 505705 596836 478674 597733
0110100010010010: 505705 596836 478674 597733
0110100110000100: 505705 596836 514184 560514
0110100110000100: 505705 596836 514184 635057
0110100110000100: 505705 596836 514184 560514
0110100110000100: 505705 596836 514184 635057
0111100010001000: 505705 596836 514184 478674
0111100010001000: 505705 596836 514184 478674
0110100010010010: 505705 596836 514184 536529
0110100010010010: 505705 596836 514184 536529
0101101001001000: 472756 597733 478674 580453
0101101001001000: 472756 597733 478674 649313
0111100010001000: 472756 649313 580453 597733
0110100110000100: 472756 597733 580453 478674
0110100010010010: 472756 597733 580453 577968
0110100010010010: 472756 597733 580453 525667
0111100010001000: 472756 597733 649313 580453
0110100110000100: 472756 597733 649313 478674
0110100010010010: 472756 597733 649313 620773
0110100010010010: 472756 597733 649313 560514
0110100010010010: 472756 597733 649313 501888
0110100110000100: 472756 597733 580453 478674
0110100110000100: 472756 597733 580453 478674
0110100110000100: 472756 597733 580453 478674
0110100110000100: 472756 597733 649313 478674
0110100110000100: 472756 597733 649313 478674
0110100110000100: 472756 597733 649313 478674
0101101001001000: 472756 597733 478674 580453
0101101001001000: 472756 597733 478674 649313
0100101001010010: 472756 597733 478674 505705
0100101001010010: 472756 597733 478674 505705
0100101001010010: 472756 597733 478674 505705
0110100010010010: 472756 580453 597733 478674
0110100010010010: 472756 580453 597733 478674
0111100010001000: 472756 580453 649313 597733
0110100010010010: 472756 580453 649313 620773
0110100010010010: 472756 580453 649313 560514
0110100010010010: 472756 580453 649313 501888
0111100010001000: 472756 580453 597733 649313
0110100110000100: 472756 580453 597733 577968
0110100110000100: 472756 580453 597733 525667
0110100010010010: 472756 580453 597733 478674
0110100110000100: 472756 580453 649313 577968
0110100110000100: 472756 580453 649313 525667
0111100010001000: 472756 580453 597733 649313
0111100010001000: 472756 580453 597733 649313
0110100010010010: 472756 580453 597733 478674
0111100010001000: 472756 580453 649313 597733
0111100010001000: 472756 580453 649313 597733
0111100010001000: 472756 580453 649313 597733
0110100110000100: 472756 580453 597733 577968
0110100110000100: 472756 580453 597733 525667
0110100110000100: 472756 580453 597733 577968
0110100110000100: 472756 580453 597733 525667
0111100010001000: 472756 580453 597733 649313
0110100010010010: 472756 580453 597733 478674
0110100010010010: 472756 580453 597733 478674
0110100110000100: 472756 580453 649313 577968
0110100110000100: 472756 580453 649313 525667
0110100110000100: 472756 580453 649313 577968
0110100110000100: 472756 580453 649313 525667
0111100010001000: 472756 580453 649313 597733
0111100010001000: 472756 580453 649313 597733
0110100110000100: 472756 580453 649313 577968
0110100110000100: 472756 580453 649313 525667
0110100010010010: 472756 649313 597733 478674
0110100010010010: 472756 649313 597733 478674
0111100010001000: 472756 649313 580453 597733
0110100010010010: 472756 649313 580453 577968
0110100010010010: 472756 649313 580453 525667
0111100010001000: 472756 649313 597733 580453
0110100110000100: 472756 649313 597733 620773
0110100110000100: 472756 649313 597733 560514
0110100110000100: 472756 649313 597733 501888
0110100010010010: 472756 649313 597733 478674
0111100010001000: 472756 649313 580453 597733
0111100010001000: 472756 649313 580453 597733
0110100110000100: 472756 649313 580453 620773
0110100110000100: 472756 649313 580453 560514
0110100110000100: 472756 649313 580453 501888
0110100010010010: 472756 649313 580453 577968
0110100010010010: 472756 649313 580453 525667
0111100010001000: 472756 649313 597733 580453
0111100010001000: 472756 649313 597733 580453
0110100010010010: 472756 649313 597733 478674
0111100010001000: 472756 649313 580453 597733
0111100010001000: 472756 649313 580453 597733
0111100010001000: 472756 649313 580453 597733
0110100110000100: 472756 649313 597733 620773
0110100110000100: 472756 649313 597733 560514
0110100110000100: 472756 649313 597733 501888
0110100110000100: 472756 649313 597733 620773
0110100110000100: 472756 649313 597733 560514
0110100110000100: 472756 649313 597733 501888
0111100010001000: 472756 649313 597733 580453
0110100010010010: 472756 649313 597733 478674
0110100010010010: 472756 649313 597733 478674
0110100110000100: 472756 649313 580453 620773
0110100110000100: 472756 649313 580453 560514
0110100110000100: 472756 649313 580453 501888
0110100110000100: 472756 649313 580453 620773
0110100110000100: 472756 649313 580453 560514
0110100110000100: 472756 649313 580453 501888
0111100010001000: 472756 649313 580453 597733
0111100010001000: 472756 649313 580453 597733
0110100010010010: 472756 649313 580453 577968
0110100010010010: 472756 649313 580453 525667
0110100010010010: 514184 505705 536529 507641
0110100110000100: 514184 505705 536529 478674
0110100110000100: 514184 505705 536529 596836
0110100010010010: 514184 505705 536529 507641
0110100110000100: 514184 505705 536529 478674
0110100110000100: 514184 505705 536529 596836
0110100110000100: 514184 505705 536529 478674
0110100110000100: 514184 505705 536529 596836
0110100010010010: 514184 505705 536529 507641
0110100010010010: 514184 536529 505705 478674
0110100010010010: 514184 536529 505705 596836
0110100110000100: 514184 536529 505705 507641
0110100110000100: 514184 536529 505705 507641
0110100110000100: 514184 536529 505705 507641
0110100110000100: 514184 536529 505705 507641
0101101001001000: 560514 596836 505705 577968
0101101001001000: 560514 596836 505705 498467
0101101001001000: 560514 596836 505705 649313
0101101001001000: 560514 596836 505705 501888
0101101001001000: 560514 596836 635057 649313
0101101001001000: 560514 596836 635057 501888
0100101101000100: 560514 596836 635057 505705
0110100110010110: 560514 577968 596836 635057
0101101001001000: 560514 577968 620773 596836
0101101001001000: 560514 577968 620773 498467
0101101001001000: 560514 577968 620773 501888
0101101001001000: 560514 577968 635057 649313
0101101001001000: 560514 577968 635057 501888
0100101101000100: 560514 577968 635057 620773
0101101001001000: 560514 577968 580453 596836
0101101001001000: 560514 577968 580453 498467
0101101001001000: 560514 577968 580453 649313
0101101001001000: 560514 577968 580453 501888
0100101101000100: 560514 577968 580453 620773
0100101101000100: 560514 577968 580453 635057
0110100110010110: 560514 498467 596836 635057
0111100010001000: 560514 498467 577968 596836
0110100110010110: 560514 498467 577968 635057
0101101001001000: 560514 498467 635057 649313
0101101001001000: 560514 498467 635057 501888
0101101001001000: 560514 498467 525667 596836
0101101001001000: 560514 498467 525667 577968
0101101001001000: 560514 498467 525667 649313
0101101001001000: 560514 498467 525667 501888
0100101101000100: 560514 498467 525667 635057
0111100010001000: 560514 649313 577968 596836
0110100110010110: 560514 649313 577968 620773
0111100010001000: 560514 649313 498467 596836
0111100010001000: 560514 649313 498467 577968
0111101011001000: 560514 649313 501888 596836
0111101011001000: 560514 649313 501888 577968
0111101011001000: 560514 649313 501888 498467
0101101001001000: 560514 649313 620773 596836
0101101001001000: 560514 649313 620773 498467
0101101101001100: 560514 649313 620773 501888
0101101001001000: 560514 649313 472756 596836
0101101001001000: 560514 649313 472756 577968
0101101001001000: 560514 649313 472756 498467
0101101101001100: 560514 649313 472756 501888
0100101101000100: 560514 649313 472756 620773
0111100010001000: 560514 501888 577968 596836
0111100010001000: 560514 501888 498467 596836
0111100010001000: 560514 501888 498467 577968
0111101011001000: 560514 501888 649313 596836
0111101011001000: 560514 501888 649313 577968
0111101011001000: 560514 501888 649313 498467
0110100010010010: 560514 596836 577968 620773
0110100010010010: 560514 596836 577968 580453
0110100010010010: 560514 596836 577968 620773
0110100010010010: 560514 596836 577968 580453
0110100110010110: 560514 596836 577968 635057
0111100010001000: 560514 596836 498467 577968
0110100010010010: 560514 596836 498467 525667
0110100010010010: 560514 596836 498467 525667
0110100110010110: 560514 596836 498467 635057
0111100010001000: 560514 596836 649313 577968
0111100010001000: 560514 596836 649313 498467
0110100010010010: 560514 596836 649313 620773
0110100010010010: 560514 596836 649313 472756
0111100010011010: 560514 596836 649313 501888
0110100010010010: 560514 596836 649313 620773
0110100010010010: 560514 596836 649313 472756
0111100010001000: 560514 596836 501888 577968
0111100010001000: 560514 596836 501888 498467
0111100010011010: 560514 596836 501888 649313
0110100110000100: 560514 596836 577968 505705
0110100110000100: 560514 596836 577968 505705
0110100110010110: 560514 596836 577968 635057
0110100110000100: 560514 596836 498467 505705
0110100110000100: 560514 596836 498467 505705
0110100110010110: 560514 596836 498467 635057
0110100110000100: 560514 596836 649313 505705
0110100110000100: 560514 596836 649313 635057
0110100110000100: 560514 596836 649313 505705
0110100110000100: 560514 596836 649313 635057
0110100110000100: 560514 596836 501888 505705
0110100110000100: 560514 596836 501888 635057
0110100110000100: 560514 596836 501888 505705
0110100110000100: 560514 596836 501888 635057
0101101001001000: 560514 596836 505705 577968
0101101001001000: 560514 596836 505705 498467
0101101001001000: 560514 596836 505705 649313
0101101001001000: 560514 596836 505705 501888
0100101001010010: 560514 596836 505705 478674
0100101001010010: 560514 596836 505705 514184
0100101001010010: 560514 596836 505705 478674
0100101001010010: 560514 596836 505705 514184
0100101001010010: 560514 596836 505705 478674
0100101001010010: 560514 596836 505705 514184
0101101001001000: 560514 596836 635057 649313
0101101001001000: 560514 596836 635057 501888
0100101101000100: 560514 596836 635057 505705
0101101001011010: 560514 596836 635057 577968
0101101001011010: 560514 596836 635057 498467
0101101001011010: 560514 596836 635057 577968
0101101001011010: 560514 596836 635057 498467
0101101001011010: 560514 596836 635057 577968
0101101001011010: 560514 596836 635057 498467
0110100010010010: 560514 577968 596836 505705
0110100010010010: 560514 577968 596836 505705
0110100110010110: 560514 577968 596836 635057
0111100010001000: 560514 577968 498467 596836
0110100010010010: 560514 577968 498467 525667
0110100010010010: 560514 577968 498467 525667
0110100110010110: 560514 577968 498467 635057
0111100010001000: 560514 577968 649313 596836
0111100010001000: 560514 577968 649313 498467
0110100010010010: 560514 577968 649313 472756
0111100010011010: 560514 577968 649313 501888
0110100010010010: 560514 577968 649313 472756
0110100110010110: 560514 577968 649313 620773
0111100010001000: 560514 577968 501888 596836
0111100010001000: 560514 577968 501888 498467
0111100010011010: 560514 577968 501888 649313
0111100010001000: 560514 577968 596836 498467
0111100010001000: 560514 577968 596836 649313
0111100010001000: 560514 577968 596836 501888
0110100110000100: 560514 577968 596836 620773
0110100110000100: 560514 577968 596836 580453
0110100110000100: 560514 577968 596836 620773
0110100110000100: 560514 577968 596836 580453
0110100110010110: 560514 577968 596836 635057
0110100010010010: 560514 577968 596836 505705
0110100110010110: 560514 577968 596836 635057
0110100110000100: 560514 577968 498467 620773
0110100110000100: 560514 577968 498467 580453
0110100110000100: 560514 577968 498467 620773
0110100110000100: 560514 577968 498467 580453
0110100010010010: 560514 577968 498467 525667
0110100110010110: 560514 577968 498467 635057
0110100110000100: 560514 577968 649313 635057
0110100110000100: 560514 577968 649313 580453
0110100110000100: 560514 577968 649313 635057
0110100110000100: 560514 577968 649313 580453
0110100110010110: 560514 577968 649313 620773
0110100110000100: 560514 577968 501888 620773
0110100110000100: 560514 577968 501888 635057
0110100110000100: 560514 577968 501888 580453
0110100110000100: 560514 577968 501888 620773
0110100110000100: 560514 577968 501888 635057
0110100110000100: 560514 577968 501888 580453
0101101001001000: 560514 577968 620773 596836
0101101001001000: 560514 577968 620773 498467
0101101001001000: 560514 577968 620773 501888
0100101001010010: 560514 577968 620773 593347
0100101001010010: 560514 577968 620773 593347
0101101001011010: 560514 577968 620773 649313
0101101001011010: 560514 577968 620773 649313
0101101001011010: 560514 577968 620773 649313
0100101001010010: 560514 577968 620773 593347
0100101001010010: 560514 577968 620773 593347
0101101001011010: 560514 577968 620773 649313
0101101001001000: 560514 577968 635057 649313
0101101001001000: 560514 577968 635057 501888
0100101101000100: 560514 577968 635057 620773
0101101001011010: 560514 577968 635057 596836
0101101001011010: 560514 577968 635057 498467
0101101001011010: 560514 577968 635057 596836
0101101001011010: 560514 577968 635057 498467
0101101001011010: 560514 577968 635057 596836
0101101001011010: 560514 577968 635057 498467
0101101001011010: 560514 577968 635057 596836
0101101001011010: 560514 577968 635057 498467
0101101001001000: 560514 577968 580453 596836
0101101001001000: 560514 577968 580453 498467
0101101001001000: 560514 577968 580453 649313
0101101001001000: 560514 577968 580453 501888
0100101001010010: 560514 577968 580453 472756
0100101001010010: 560514 577968 580453 525667
0100101001010010: 560514 577968 580453 472756
0100101001010010: 560514 577968 580453 525667
0100101101000100: 560514 577968 580453 620773
0100101101000100: 560514 577968 580453 635057
0100101001010010: 560514 577968 580453 472756
0100101001010010: 560514 577968 580453 525667
0100101001010010: 560514 577968 580453 472756
0100101001010010: 560514 577968 580453 525667
0110100010010010: 560514 498467 596836 505705
0110100010010010: 560514 498467 596836 505705
0110100110010110: 560514 498467 596836 635057
0111100010001000: 560514 498467 577968 596836
0110100010010010: 560514 498467 577968 620773
0110100010010010: 560514 498467 577968 580453
0110100010010010: 560514 498467 577968 620773
0110100010010010: 560514 498467 577968 580453
0110100110010110: 560514 498467 577968 635057
0111100010001000: 560514 498467 649313 596836
0111100010001000: 560514 498467 649313 577968
0110100010010010: 560514 498467 649313 620773
0110100010010010: 560514 498467 649313 472756
0111100010011010: 560514 498467 649313 501888
0110100010010010: 560514 498467 649313 620773
0110100010010010: 560514 498467 649313 472756
0111100010001000: 560514 498467 501888 596836
0111100010001000: 560514 498467 501888 577968
0111100010011010: 560514 498467 501888 649313
0111100010001000: 560514 498467 596836 577968
0111100010001000: 560514 498467 596836 649313
0111100010001000: 560514 498467 596836 501888
0110100110000100: 560514 498467 596836 525667
0110100110000100: 560514 498467 596836 525667
0110100110010110: 560514 498467 596836 635057
0110100110010110: 560514 498467 596836 635057
0111100010001000: 560514 498467 577968 596836
0111100010001000: 560514 498467 577968 649313
0111100010001000: 560514 498467 577968 501888
0111100010001000: 560514 498467 577968 596836
0110100110000100: 560514 498467 577968 525667
0110100110000100: 560514 498467 577968 525667
0110100110010110: 560514 498467 577968 635057
0110100110010110: 560514 498467 577968 635057
0110100110000100: 560514 498467 649313 635057
0110100110000100: 560514 498467 649313 525667
0110100110000100: 560514 498467 649313 635057
0110100110000100: 560514 498467 649313 525667
0110100110000100: 560514 498467 501888 635057
0110100110000100: 560514 498467 501888 525667
0110100110000100: 560514 498467 501888 635057
0110100110000100: 560514 498467 501888 525667
0101101001001000: 560514 498467 635057 649313
0101101001001000: 560514 498467 635057 501888
0101101001011010: 560514 498467 635057 596836
0101101001011010: 560514 498467 635057 577968
0101101001011010: 560514 498467 635057 596836
0101101001011010: 560514 498467 635057 577968
0101101001011010: 560514 498467 635057 596836
0101101001011010: 560514 498467 635057 577968
0101101001001000: 560514 498467 525667 596836
0101101001001000: 560514 498467 525667 577968
0101101001001000: 560514 498467 525667 649313
0101101001001000: 560514 498467 525667 501888
0100101001010010: 560514 498467 525667 580453
0100101001010010: 560514 498467 525667 580453
0100101101000100: 560514 498467 525667 635057
0100101001010010: 560514 498467 525667 580453
0100101001010010: 560514 498467 525667 580453
0110100010010010: 560514 649313 596836 505705
0110100010010010: 560514 649313 596836 635057
0110100010010010: 560514 649313 596836 505705
0110100010010010: 560514 649313 596836 635057
0111100010001000: 560514 649313 577968 596836
0110100010010010: 560514 649313 577968 635057
0110100010010010: 560514 649313 577968 580453
0110100010010010: 560514 649313 577968 635057
0110100010010010: 560514 649313 577968 580453
0110100110010110: 560514 649313 577968 620773
0111100010001000: 560514 649313 498467 596836
0111100010001000: 560514 649313 498467 577968
0110100010010010: 560514 649313 498467 635057
0110100010010010: 560514 649313 498467 525667
0110100010010010: 560514 649313 498467 635057
0110100010010010: 560514 649313 498467 525667
0111100010001000: 560514 649313 596836 577968
0111100010001000: 560514 649313 596836 498467
0110100110000100: 560514 649313 596836 620773
0110100110000100: 560514 649313 596836 472756
0111100110001100: 560514 649313 596836 501888
0110100110000100: 560514 649313 596836 620773
0110100110000100: 560514 649313 596836 472756
0110100010010010: 560514 649313 596836 505705
0110100010010010: 560514 649313 596836 635057
0111100010001000: 560514 649313 577968 596836
0111100010001000: 560514 649313 577968 498467
0111100010001000: 560514 649313 577968 596836
0110100110000100: 560514 649313 577968 472756
0111100110001100: 560514 649313 577968 501888
0110100110000100: 560514 649313 577968 472756
0110100110010110: 560514 649313 577968 620773
0110100110010110: 560514 649313 577968 620773
0111100010001000: 560514 649313 498467 596836
0111100010001000: 560514 649313 498467 577968
0111100010001000: 560514 649313 498467 596836
0111100010001000: 560514 649313 498467 577968
0110100110000100: 560514 649313 498467 620773
0110100110000100: 560514 649313 498467 472756
0111100110001100: 560514 649313 498467 501888
0110100110000100: 560514 649313 498467 620773
0110100110000100: 560514 649313 498467 472756
0110100010010010: 560514 649313 498467 635057
0110100010010010: 560514 649313 498467 525667
0111101011001000: 560514 649313 501888 596836
0111101011001000: 560514 649313 501888 577968
0111101011001000: 560514 649313 501888 498467
0101101001001000: 560514 649313 620773 596836
0101101001001000: 560514 649313 620773 498467
0100101001010010: 560514 649313 620773 593347
0100101001010010: 560514 649313 620773 593347
0101101101001100: 560514 649313 620773 501888
0101101001011010: 560514 649313 620773 577968
0101101001011010: 560514 649313 620773 577968
0101101001011010: 560514 649313 620773 577968
0100101001010010: 560514 649313 620773 593347
0100101001010010: 560514 649313 620773 593347
0101101001011010: 560514 649313 620773 577968
0101101001001000: 560514 649313 472756 596836
0101101001001000: 560514 649313 472756 577968
0101101001001000: 560514 649313 472756 498467
0100101001010010: 560514 649313 472756 597733
0100101001010010: 560514 649313 472756 580453
0100101001010010: 560514 649313 472756 597733
0100101001010010: 560514 649313 472756 580453
0101101101001100: 560514 649313 472756 501888
0100101101000100: 560514 649313 472756 620773
0100101001010010: 560514 649313 472756 597733
0100101001010010: 560514 649313 472756 580453
0100101001010010: 560514 649313 472756 597733
0100101001010010: 560514 649313 472756 580453
0111101011001000: 560514 649313 501888 596836
0111101011001000: 560514 649313 501888 577968
0111101011001000: 560514 649313 501888 498467
0111101011001000: 560514 649313 501888 596836
0111101011001000: 560514 649313 501888 577968
0111101011001000: 560514 649313 501888 498467
0110101111000100: 560514 649313 501888 620773
0110101111000100: 560514 649313 501888 472756
0110101111000100: 560514 649313 501888 620773
0110101111000100: 560514 649313 501888 472756
0110101111000100: 560514 649313 501888 620773
0110101111000100: 560514 649313 501888 472756
0110101111000100: 560514 649313 501888 620773
0110101111000100: 560514 649313 501888 472756
0110100010010010: 560514 501888 596836 505705
0110100010010010: 560514 501888 596836 635057
0110100010010010: 560514 501888 596836 505705
0110100010010010: 560514 501888 596836 635057
0111100010001000: 560514 501888 577968 596836
0110100010010010: 560514 501888 577968 620773
0110100010010010: 560514 501888 577968 635057
0110100010010010: 560514 501888 577968 580453
0110100010010010: 560514 501888 577968 620773
0110100010010010: 560514 501888 577968 635057
0110100010010010: 560514 501888 577968 580453
0111100010001000: 560514 501888 498467 596836
0111100010001000: 560514 501888 498467 577968
0110100010010010: 560514 501888 498467 635057
0110100010010010: 560514 501888 498467 525667
0110100010010010: 560514 501888 498467 635057
0110100010010010: 560514 501888 498467 525667
0111100010001000: 560514 501888 596836 577968
0111100010001000: 560514 501888 596836 498467
0111100110001100: 560514 501888 596836 649313
0111100010001000: 560514 501888 577968 596836
0111100010001000: 560514 501888 577968 498467
0111100010001000: 560514 501888 577968 596836
0111100110001100: 560514 501888 577968 649313
0111100010001000: 560514 501888 498467 596836
0111100010001000: 560514 501888 498467 577968
0111100010001000: 560514 501888 498467 596836
0111100010001000: 560514 501888 498467 577968
0111100110001100: 560514 501888 498467 649313
0111101011001000: 560514 501888 649313 596836
0111101011001000: 560514 501888 649313 577968
0111101011001000: 560514 501888 649313 498467
0110101011010010: 560514 501888 649313 620773
0110101011010010: 560514 501888 649313 472756
0110101011010010: 560514 501888 649313 620773
0110101011010010: 560514 501888 649313 472756
0111101011001000: 560514 501888 649313 596836
0111101011001000: 560514 501888 649313 577968
0111101011001000: 560514 501888 649313 498467
0111101011001000: 560514 501888 649313 596836
0111101011001000: 560514 501888 649313 577968
0111101011001000: 560514 501888 649313 498467
0111101011001000: 560514 501888 649313 596836
0111101011001000: 560514 501888 649313 577968
0111101011001000: 560514 501888 649313 498467
0111101011001000: 560514 501888 649313 596836
0111101011001000: 560514 501888 649313 577968
0111101011001000: 560514 501888 649313 498467
0110100110000100: 478674 597733 505705 472756
0110100010010010: 478674 597733 505705 514184
0110100010010010: 478674 597733 505705 596836
0110100110000100: 478674 597733 505705 472756
0110100110000100: 478674 597733 505705 472756
0110100110000100: 478674 597733 505705 472756
0110100110000100: 478674 597733 505705 472756
0110100110000100: 478674 597733 505705 472756
0110100010010010: 478674 505705 597733 472756
0110100110000100: 478674 505705 597733 514184
0110100110000100: 478674 505705 597733 596836
0110100010010010: 478674 505705 597733 472756
0110100110000100: 478674 505705 597733 514184
0110100110000100: 478674 505705 597733 596836
0110100110000100: 478674 505705 597733 514184
0110100110000100: 478674 505705 597733 596836
0110100010010010: 478674 505705 597733 472756
0110100010010010: 597733 478674 472756 580453
0110100010010010: 597733 478674 472756 649313
0110100110000100: 597733 478674 472756 505705
0110100110000100: 597733 478674 472756 505705
0110100110000100: 597733 478674 472756 505705
0110100110000100: 597733 478674 472756 505705
0110100010010010: 597733 472756 478674 505705
0110100110000100: 597733 472756 478674 580453
0110100110000100: 597733 472756 478674 649313
0110100010010010: 597733 472756 478674 505705
0110100110000100: 597733 472756 478674 580453
0110100110000100: 597733 472756 478674 649313
0110100110000100: 597733 472756 478674 580453
0110100110000100: 597733 472756 478674 649313
0110100010010010: 597733 472756 478674 505705
0110100110000100: 593347 620773 589275 577968
0110100110000100: 593347 620773 589275 649313
0110100010010010: 593347 620773 589275 507641
0110100110000100: 593347 620773 589275 577968
0110100110000100: 593347 620773 589275 649313
0110100110000100: 593347 620773 589275 577968
0110100110000100: 593347 620773 589275 649313
0110100010010010: 593347 620773 589275 507641
0110100110000100: 593347 620773 589275 577968
0110100110000100: 593347 620773 589275 649313
0110100110000100: 593347 620773 589275 577968
0110100110000100: 593347 620773 589275 649313
0110100010010010: 593347 620773 589275 507641
0110100110000100: 593347 589275 620773 507641
0110100010010010: 593347 589275 620773 577968
0110100010010010: 593347 589275 620773 649313
0110100110000100: 593347 589275 620773 507641
0110100110000100: 593347 589275 620773 507641
0110100110000100: 593347 589275 620773 507641
0110100110000100: 593347 589275 620773 507641
0110100110000100: 593347 589275 620773 507641
0110100010010010: 589275 593347 507641 536529
0110100110000100: 589275 593347 507641 620773
0110100110000100: 589275 593347 507641 620773
0110100110000100: 589275 593347 507641 620773
0110100110000100: 589275 593347 507641 620773
0110100010010010: 589275 507641 593347 620773
0110100110000100: 589275 507641 593347 536529
0110100110000100: 589275 507641 593347 536529
0110100110000100: 589275 507641 593347 536529
0110100110000100: 589275 507641 593347 536529
0101101001001000: 620773 593347 589275 577968
0101101001001000: 620773 593347 589275 649313
0111100010001000: 620773 649313 577968 593347
0110100110010110: 620773 649313 577968 560514
0110100010010010: 620773 593347 577968 560514
0110100010010010: 620773 593347 577968 635057
0110100010010010: 620773 593347 577968 580453
0111100010001000: 620773 593347 649313 577968
0110100010010010: 620773 593347 649313 560514
0110100010010010: 620773 593347 649313 472756
0110100010010010: 620773 593347 649313 501888
0110100110000100: 620773 593347 577968 589275
0110100110000100: 620773 593347 577968 589275
0110100110000100: 620773 593347 649313 589275
0110100110000100: 620773 593347 649313 589275
0101101001001000: 620773 593347 589275 577968
0101101001001000: 620773 593347 589275 649313
0100101001010010: 620773 593347 589275 507641
0100101001010010: 620773 593347 589275 507641
0100101001010010: 620773 593347 589275 507641
0110100010010010: 620773 577968 593347 589275
0110100010010010: 620773 577968 593347 589275
0111100010001000: 620773 577968 649313 593347
0110100010010010: 620773 577968 649313 472756
0110100010010010: 620773 577968 649313 501888
0110100110010110: 620773 577968 649313 560514
0111100010001000: 620773 577968 593347 649313
0110100110000100: 620773 577968 593347 560514
0110100110000100: 620773 577968 593347 635057
0110100110000100: 620773 577968 593347 580453
0110100010010010: 620773 577968 593347 589275
0110100110000100: 620773 577968 649313 635057
0110100110000100: 620773 577968 649313 580453
0110100110010110: 620773 577968 649313 560514
0111100010001000: 620773 577968 593347 649313
0111100010001000: 620773 577968 593347 649313
0110100010010010: 620773 577968 593347 589275
0111100010001000: 620773 577968 649313 593347
0111100010001000: 620773 577968 649313 593347
0111100010001000: 620773 577968 649313 593347
0110100110000100: 620773 577968 593347 560514
0110100110000100: 620773 577968 593347 635057
0110100110000100: 620773 577968 593347 580453
0110100110000100: 620773 577968 593347 560514
0110100110000100: 620773 577968 593347 635057
0110100110000100: 620773 577968 593347 580453
0111100010001000: 620773 577968 593347 649313
0110100010010010: 620773 577968 593347 589275
0110100010010010: 620773 577968 593347 589275
0110100110000100: 620773 577968 649313 635057
0110100110000100: 620773 577968 649313 580453
0110100110000100: 620773 577968 649313 635057
0110100110000100: 620773 577968 649313 580453
0111100010001000: 620773 577968 649313 593347
0111100010001000: 620773 577968 649313 593347
0110100110010110: 620773 577968 649313 560514
0110100110000100: 620773 577968 649313 635057
0110100110000100: 620773 577968 649313 580453
0110100010010010: 620773 649313 593347 589275
0110100010010010: 620773 649313 593347 589275
0111100010001000: 620773 649313 577968 593347
0110100010010010: 620773 649313 577968 635057
0110100010010010: 620773 649313 577968 580453
0110100110010110: 620773 649313 577968 560514
0111100010001000: 620773 649313 593347 577968
0110100110000100: 620773 649313 593347 560514
0110100110000100: 620773 649313 593347 472756
0110100110000100: 620773 649313 593347 501888
0110100010010010: 620773 649313 593347 589275
0111100010001000: 620773 649313 577968 593347
0111100010001000: 620773 649313 577968 593347
0110100110000100: 620773 649313 577968 472756
0110100110000100: 620773 649313 577968 501888
0110100110010110: 620773 649313 577968 560514
0110100110010110: 620773 649313 577968 560514
0111100010001000: 620773 649313 593347 577968
0111100010001000: 620773 649313 593347 577968
0110100010010010: 620773 649313 593347 589275
0111100010001000: 620773 649313 577968 593347
0111100010001000: 620773 649313 577968 593347
0111100010001000: 620773 649313 577968 593347
0110100110000100: 620773 649313 593347 560514
0110100110000100: 620773 649313 593347 472756
0110100110000100: 620773 649313 593347 501888
0110100110000100: 620773 649313 593347 560514
0110100110000100: 620773 649313 593347 472756
0110100110000100: 620773 649313 593347 501888
0111100010001000: 620773 649313 593347 577968
0110100010010010: 620773 649313 593347 589275
0110100010010010: 620773 649313 593347 589275
0110100110000100: 620773 649313 577968 472756
0110100110000100: 620773 649313 577968 501888
0110100110000100: 620773 649313 577968 472756
0110100110000100: 620773 649313 577968 501888
0111100010001000: 620773 649313 577968 593347
0111100010001000: 620773 649313 577968 593347
0110100110010110: 620773 649313 577968 560514
0110100110000100: 620773 649313 577968 472756
0110100110000100: 620773 649313 577968 501888
