0110010011100000100001000: 554632 554368 476602 504728 651489
0110010011100000100001000: 554632 554368 476602 615134 651489
0110010011100000100001000: 554632 554368 476602 494866 651489
0110010011100000100001000: 554632 554368 476602 494866 504728
0110010011100000100001000: 554632 554368 476602 494866 615134
0110010011100000100001000: 554632 554368 476602 563575 651489
0110010011100000100001000: 554632 554368 476602 563575 504728
0111010101110001000001000: 554632 554368 654517 476602 651489
0111010101110001000001000: 554632 554368 654517 476602 504728
0111010101110001000001000: 554632 554368 654517 476602 494866
0111010101110001000001000: 554632 554368 654517 476602 563575
0111010110110011100000100: 654517 554368 554632 615134 476602
0110010011100000100001000: 654517 615134 554632 563575 504728
0110010010100010100000100: 654517 554632 615134 476602 504728
0110010010100010100000100: 654517 554632 615134 476602 563575
0110010011100000100001000: 563575 615134 494866 654517 504728
0111010110110011100000100: 615134 554368 504728 563575 635650
0111010110110011100000100: 615134 554368 504728 654517 635650
0111110111110001100011000: 615134 554368 654517 563575 504728
0110010010100010100000100: 615134 563575 504728 494866 635650
0110010010100010100000100: 615134 654517 504728 554632 635650
0110010010100010100000100: 615134 654517 563575 554632 494866
0111010101110001000101010: 554368 504728 615134 651489 635650
0111010101110001000001000: 554368 504728 615134 494866 635650
0111010101110001000001000: 554368 504728 615134 554632 635650
0111110100110001000010000: 554368 615134 504728 494866 651489
0111110100110001000010000: 554368 615134 504728 554632 651489
0111110100110001000010000: 554368 615134 504728 554632 494866
0111010100110001000100010: 554368 615134 504728 554632 476602
0111110110110001100010000: 554368 615134 563575 504728 651489
0111110110110001100010000: 554368 615134 563575 504728 554632
0111110110110001100010000: 554368 615134 654517 504728 651489
0111110110110001100010000: 554368 615134 654517 504728 494866
0111110110110001100010000: 554368 615134 654517 563575 651489
0111010100110001000100010: 554368 563575 615134 651489 635650
0111110100110001000010000: 554368 563575 615134 554632 651489
0111010100110001000100010: 554368 563575 615134 554632 476602
0111110110110011100010100: 554368 563575 615134 494866 504728
0111110110110011100010100: 554368 563575 615134 494866 654517
0111010100110001000100010: 554368 563575 494866 651489 635650
0111110100110001000010000: 554368 563575 494866 504728 651489
0111010100110001000100010: 554368 563575 494866 504728 635650
0111110100110001000010000: 554368 563575 494866 654517 651489
0111110100110001000010000: 554368 563575 494866 654517 504728
0111110100110001000010000: 554368 563575 494866 554632 651489
0111110100110001000010000: 554368 563575 494866 554632 504728
0111010100110001000100010: 554368 563575 494866 554632 476602
0111110110110001100010000: 554368 563575 494866 615134 651489
0111110110110001100010000: 554368 563575 494866 615134 554632
0111110000100001000010000: 554368 654517 494866 504728 651489
0111110000100001000010000: 554368 654517 563575 504728 651489
0111010100110001000100010: 554368 654517 615134 651489 635650
0111110100110001000010000: 554368 654517 615134 494866 651489
0111110110110011100010100: 554368 654517 615134 554632 504728
0111110110110011100010100: 554368 654517 615134 554632 563575
0111110110110001100010000: 554368 654517 554632 615134 651489
0111110110110001100010000: 554368 654517 554632 615134 494866
0110010010100010100000100: 554368 554632 651489 476602 635650
0110010010100010100000100: 554368 554632 504728 476602 635650
0111110000100001000010000: 554368 554632 494866 504728 651489
0111110000100001000010000: 554368 554632 494866 615134 651489
0111110000100001000010000: 554368 554632 563575 504728 651489
0111010100110001000100010: 554368 554632 654517 651489 635650
0111110100110001000010000: 554368 554632 654517 504728 651489
0111010100110001000100010: 554368 554632 654517 504728 635650
0111110100110001000010000: 554368 554632 654517 494866 651489
0111110100110001000010000: 554368 554632 654517 494866 504728
0111110100110001000010000: 554368 554632 654517 563575 651489
0111110100110001000010000: 554368 554632 654517 563575 504728
0111110100110001000110010: 554368 554632 654517 563575 494866
0110010011100000100001000: 504728 554368 635650 654517 494866
0110010011100000100001000: 504728 554368 635650 654517 563575
0110010011100000100001000: 504728 554368 635650 554632 494866
0110010011100000100001000: 504728 554368 635650 554632 563575
0110010011100100110001000: 504728 554368 635650 651489 494866
0110010011100100110001000: 504728 554368 635650 651489 563575
0110010011100100110001000: 504728 554368 635650 651489 654517
0110010011100100110001000: 504728 554368 635650 651489 554632
0110010010100010100000100: 504728 615134 635650 563575 651489
0110010011100000100001000: 504728 615134 635650 654517 563575
0110010010100010100000100: 504728 615134 635650 654517 651489
0110010011100000100001000: 651489 554368 635650 494866 615134
0110010011100000100001000: 651489 554368 635650 654517 494866
0110010011100000100001000: 651489 554368 635650 654517 563575
0110010011100000100001000: 651489 554368 635650 554632 615134
0110010011100000100001000: 651489 554368 635650 554632 494866
0110010011100000100001000: 651489 554368 635650 554632 563575
