0111101011001000: 638244 592745 508455 469867
0101101001001000: 638244 592745 558089 621012
0101101001001000: 638244 592745 558089 469867
0101101101001100: 638244 592745 558089 508455
0111101011001000: 638244 621012 508455 469867
0101101001001000: 638244 621012 582608 592745
0101101001001000: 638244 621012 582608 469867
0101101101001100: 638244 621012 582608 508455
0111101011001000: 638244 508455 592745 469867
0111101011001000: 638244 508455 621012 469867
0111101111001100: 638244 508455 621012 592745
0111100010001000: 638244 469867 621012 592745
0110100110010110: 638244 469867 508455 549046
0101101001001000: 638244 469867 461168 592745
0101101001001000: 638244 469867 461168 621012
0101101001001000: 638244 469867 461168 508455
0101101001001000: 638244 469867 549046 592745
0101101001001000: 638244 469867 549046 621012
0100101101000100: 638244 469867 549046 461168
0110100110000100: 638244 592745 621012 558089
0110100010010010: 638244 592745 621012 582608
0110100010010010: 638244 592745 621012 582608
0111100010001000: 638244 592745 469867 621012
0110100110000100: 638244 592745 469867 558089
0110100010010010: 638244 592745 469867 461168
0110100010010010: 638244 592745 469867 549046
0110100010010010: 638244 592745 469867 461168
0110100010010010: 638244 592745 469867 549046
0110100110000100: 638244 592745 621012 558089
0110100110000100: 638244 592745 621012 558089
0110100110000100: 638244 592745 621012 558089
0110100110000100: 638244 592745 469867 558089
0110100110000100: 638244 592745 469867 558089
0111100110001100: 638244 592745 469867 508455
0110100110000100: 638244 592745 469867 558089
0111101011001000: 638244 592745 508455 469867
0110101011010010: 638244 592745 508455 549046
0110101011010010: 638244 592745 508455 541036
0110101011010010: 638244 592745 508455 549046
0110101011010010: 638244 592745 508455 541036
0111101011011010: 638244 592745 508455 621012
0111101011011010: 638244 592745 508455 621012
0111101011011010: 638244 592745 508455 621012
0111101011001000: 638244 592745 508455 469867
0110101111000100: 638244 592745 508455 558089
0101101001001000: 638244 592745 558089 621012
0101101001001000: 638244 592745 558089 469867
0100101001010010: 638244 592745 558089 549869
0100101001010010: 638244 592745 558089 549869
0101101101001100: 638244 592745 558089 508455
0100101001010010: 638244 592745 558089 549869
0100101001010010: 638244 592745 558089 549869
0111101011001000: 638244 592745 508455 469867
0111101011001000: 638244 592745 508455 469867
0110101111000100: 638244 592745 508455 558089
0110101111000100: 638244 592745 508455 558089
0110101111000100: 638244 592745 508455 558089
0110101111000100: 638244 592745 508455 558089
0110101111000100: 638244 592745 508455 558089
0110100110000100: 638244 621012 592745 582608
0110100010010010: 638244 621012 592745 558089
0110100010010010: 638244 621012 592745 558089
0111100010001000: 638244 621012 469867 592745
0110100110000100: 638244 621012 469867 582608
0110100010010010: 638244 621012 469867 461168
0110100010010010: 638244 621012 469867 549046
0110100010010010: 638244 621012 469867 461168
0110100010010010: 638244 621012 469867 549046
0111100010001000: 638244 621012 592745 469867
0110100110000100: 638244 621012 592745 582608
0110100110000100: 638244 621012 592745 582608
0110100110000100: 638244 621012 592745 582608
0110100110000100: 638244 621012 469867 582608
0110100110000100: 638244 621012 469867 582608
0111100110001100: 638244 621012 469867 508455
0110100110000100: 638244 621012 469867 582608
0111101011001000: 638244 621012 508455 469867
0110101011010010: 638244 621012 508455 549046
0110101011010010: 638244 621012 508455 541036
0110101011010010: 638244 621012 508455 549046
0110101011010010: 638244 621012 508455 541036
0111101011011010: 638244 621012 508455 592745
0111101011011010: 638244 621012 508455 592745
0111101011011010: 638244 621012 508455 592745
0111101011001000: 638244 621012 508455 469867
0110101111000100: 638244 621012 508455 582608
0101101001001000: 638244 621012 582608 592745
0101101001001000: 638244 621012 582608 469867
0100101001010010: 638244 621012 582608 538905
0100101001010010: 638244 621012 582608 538905
0101101101001100: 638244 621012 582608 508455
0100101001010010: 638244 621012 582608 538905
0100101001010010: 638244 621012 582608 538905
0111101011001000: 638244 621012 508455 469867
0111101011001000: 638244 621012 508455 469867
0110101111000100: 638244 621012 508455 582608
0110101111000100: 638244 621012 508455 582608
0110101111000100: 638244 621012 508455 582608
0110101111000100: 638244 621012 508455 582608
0110101111000100: 638244 621012 508455 582608
0110100110000100: 638244 508455 469867 541036
0110100010010010: 638244 508455 469867 461168
0110100010010010: 638244 508455 469867 461168
0110100110010110: 638244 508455 469867 549046
0110100110010110: 638244 508455 469867 549046
0110100110000100: 638244 508455 469867 541036
0110100110000100: 638244 508455 469867 541036
0111100110001100: 638244 508455 469867 592745
0111100110001100: 638244 508455 469867 621012
0110100010010010: 638244 508455 469867 461168
0110100110010110: 638244 508455 469867 549046
0111101011001000: 638244 508455 592745 469867
0110101011010010: 638244 508455 592745 558089
0110101011010010: 638244 508455 592745 558089
0110101011010010: 638244 508455 592745 558089
0110101011010010: 638244 508455 592745 558089
0110101011010010: 638244 508455 592745 558089
0111101011001000: 638244 508455 621012 469867
0110101011010010: 638244 508455 621012 582608
0110101011010010: 638244 508455 621012 582608
0111101111001100: 638244 508455 621012 592745
0110101011010010: 638244 508455 621012 582608
0110101011010010: 638244 508455 621012 582608
0110101011010010: 638244 508455 621012 582608
0110100010010010: 638244 508455 469867 461168
0111101011001000: 638244 508455 592745 469867
0111101011001000: 638244 508455 592745 469867
0110101111000100: 638244 508455 592745 549046
0110101111000100: 638244 508455 592745 541036
0110101111000100: 638244 508455 592745 549046
0110101111000100: 638244 508455 592745 541036
0111101111001100: 638244 508455 592745 621012
0111101011001000: 638244 508455 592745 469867
0111101111001100: 638244 508455 592745 621012
0110101011010010: 638244 508455 592745 558089
0110101011010010: 638244 508455 592745 558089
0111101011001000: 638244 508455 621012 469867
0111101011001000: 638244 508455 621012 469867
0110101111000100: 638244 508455 621012 549046
0110101111000100: 638244 508455 621012 541036
0110101111000100: 638244 508455 621012 549046
0110101111000100: 638244 508455 621012 541036
0111101111001100: 638244 508455 621012 592745
0111101011001000: 638244 508455 621012 469867
0111101111001100: 638244 508455 621012 592745
0111101111001100: 638244 508455 621012 592745
0110101011010010: 638244 508455 621012 582608
0110101011010010: 638244 508455 621012 582608
0110100110000100: 638244 508455 469867 541036
0110100110000100: 638244 508455 469867 541036
0111100110001100: 638244 508455 469867 592745
0111100110001100: 638244 508455 469867 621012
0111100110001100: 638244 508455 469867 592745
0111100110001100: 638244 508455 469867 621012
0111100110001100: 638244 508455 469867 592745
0111100110001100: 638244 508455 469867 621012
0110100010010010: 638244 508455 469867 461168
0110100110010110: 638244 508455 469867 549046
0110100010010010: 638244 508455 469867 461168
0110100110010110: 638244 508455 469867 549046
0111101011001000: 638244 508455 592745 469867
0111101011001000: 638244 508455 592745 469867
0111101111001100: 638244 508455 592745 621012
0111101111001100: 638244 508455 592745 621012
0111101011001000: 638244 508455 592745 469867
0110101011010010: 638244 508455 592745 558089
0111101011001000: 638244 508455 621012 469867
0111101011001000: 638244 508455 621012 469867
0111101111001100: 638244 508455 621012 592745
0111101111001100: 638244 508455 621012 592745
0111101011001000: 638244 508455 621012 469867
0111101111001100: 638244 508455 621012 592745
0110101011010010: 638244 508455 621012 582608
0110100110000100: 638244 469867 592745 461168
0110100110000100: 638244 469867 592745 549046
0110100010010010: 638244 469867 592745 558089
0111100010011010: 638244 469867 592745 508455
0110100010010010: 638244 469867 592745 558089
0111100010001000: 638244 469867 621012 592745
0110100110000100: 638244 469867 621012 461168
0110100110000100: 638244 469867 621012 549046
0110100010010010: 638244 469867 621012 582608
0111100010011010: 638244 469867 621012 508455
0110100010010010: 638244 469867 621012 582608
0110100110000100: 638244 469867 508455 461168
0110100010010010: 638244 469867 508455 541036
0111100010011010: 638244 469867 508455 592745
0111100010011010: 638244 469867 508455 621012
0110100110010110: 638244 469867 508455 549046
0110100110010110: 638244 469867 508455 549046
0111100010001000: 638244 469867 592745 621012
0110100110000100: 638244 469867 592745 461168
0110100110000100: 638244 469867 592745 549046
0110100110000100: 638244 469867 592745 461168
0110100110000100: 638244 469867 592745 549046
0110100110000100: 638244 469867 592745 461168
0110100110000100: 638244 469867 592745 549046
0111100010001000: 638244 469867 621012 592745
0111100010001000: 638244 469867 621012 592745
0110100110000100: 638244 469867 621012 461168
0110100110000100: 638244 469867 621012 549046
0110100110000100: 638244 469867 621012 461168
0110100110000100: 638244 469867 621012 549046
0110100110000100: 638244 469867 621012 461168
0110100110000100: 638244 469867 621012 549046
0110100110000100: 638244 469867 508455 461168
0110100110000100: 638244 469867 508455 461168
0110100110000100: 638244 469867 508455 461168
0110100110010110: 638244 469867 508455 549046
0110100110010110: 638244 469867 508455 549046
0110100110010110: 638244 469867 508455 549046
0101101001001000: 638244 469867 461168 592745
0101101001001000: 638244 469867 461168 621012
0101101001001000: 638244 469867 461168 508455
0100101001010010: 638244 469867 461168 463020
0100101001010010: 638244 469867 461168 541036
0100101001010010: 638244 469867 461168 463020
0100101001010010: 638244 469867 461168 541036
0100101001010010: 638244 469867 461168 463020
0100101001010010: 638244 469867 461168 541036
0101101001001000: 638244 469867 549046 592745
0101101001001000: 638244 469867 549046 621012
0100101001010010: 638244 469867 549046 549869
0100101001010010: 638244 469867 549046 549869
0100101101000100: 638244 469867 549046 461168
0101101001011010: 638244 469867 549046 508455
0101101001011010: 638244 469867 549046 508455
0101101001011010: 638244 469867 549046 508455
0100101001010010: 638244 469867 549046 549869
0111100010001000: 469867 638244 549046 461168
0110100110010110: 469867 638244 549046 508455
0110100110000100: 469867 461168 549046 463020
0110100110000100: 469867 461168 549046 541036
0110100010010010: 469867 461168 549046 549869
0110100010010010: 469867 461168 549046 508455
0111100010001000: 469867 461168 638244 549046
0110100110000100: 469867 461168 638244 463020
0110100110000100: 469867 461168 638244 541036
0110100010010010: 469867 461168 638244 592745
0110100010010010: 469867 461168 638244 621012
0110100010010010: 469867 461168 638244 508455
0110100110000100: 469867 461168 549046 463020
0110100110000100: 469867 461168 549046 541036
0110100110000100: 469867 461168 549046 463020
0110100110000100: 469867 461168 549046 541036
0110100110000100: 469867 461168 638244 463020
0110100110000100: 469867 461168 638244 541036
0110100110000100: 469867 461168 638244 463020
0110100110000100: 469867 461168 638244 541036
0111100010001000: 469867 461168 549046 638244
0111100010001000: 469867 461168 549046 638244
0111100010001000: 469867 461168 549046 638244
0111100010001000: 469867 461168 638244 549046
0111100010001000: 469867 461168 638244 549046
0111100010001000: 469867 461168 638244 549046
0110100110000100: 469867 461168 549046 463020
0110100110000100: 469867 461168 549046 541036
0110100110000100: 469867 461168 549046 463020
0110100110000100: 469867 461168 549046 541036
0111100010001000: 469867 461168 549046 638244
0110100110000100: 469867 461168 549046 463020
0110100110000100: 469867 461168 549046 541036
0110100110000100: 469867 461168 638244 463020
0110100110000100: 469867 461168 638244 541036
0110100110000100: 469867 461168 638244 463020
0110100110000100: 469867 461168 638244 541036
0111100010001000: 469867 461168 638244 549046
0111100010001000: 469867 461168 638244 549046
0110100110000100: 469867 461168 638244 463020
0110100110000100: 469867 461168 638244 541036
0110100110000100: 469867 549046 461168 549869
0110100110000100: 469867 549046 461168 508455
0110100010010010: 469867 549046 461168 463020
0110100010010010: 469867 549046 461168 541036
0111100010001000: 469867 549046 638244 461168
0110100110000100: 469867 549046 638244 549869
0110100010010010: 469867 549046 638244 592745
0110100010010010: 469867 549046 638244 621012
0110100110010110: 469867 549046 638244 508455
0110100110010110: 469867 549046 638244 508455
0111100010001000: 469867 549046 461168 638244
0110100110000100: 469867 549046 461168 549869
0110100110000100: 469867 549046 461168 508455
0110100110000100: 469867 549046 461168 549869
0110100110000100: 469867 549046 461168 508455
0110100110000100: 469867 549046 638244 549869
0110100110000100: 469867 549046 638244 549869
0110100110010110: 469867 549046 638244 508455
0111100010001000: 469867 549046 461168 638244
0111100010001000: 469867 549046 461168 638244
0111100010001000: 469867 549046 461168 638244
0111100010001000: 469867 549046 638244 461168
0111100010001000: 469867 549046 638244 461168
0111100010001000: 469867 549046 638244 461168
0110100110000100: 469867 549046 461168 549869
0110100110000100: 469867 549046 461168 508455
0110100110000100: 469867 549046 461168 549869
0110100110000100: 469867 549046 461168 508455
0111100010001000: 469867 549046 461168 638244
0110100110000100: 469867 549046 461168 549869
0110100110000100: 469867 549046 461168 508455
0110100110000100: 469867 549046 638244 549869
0110100110000100: 469867 549046 638244 549869
0111100010001000: 469867 549046 638244 461168
0111100010001000: 469867 549046 638244 461168
0110100110010110: 469867 549046 638244 508455
0110100110000100: 469867 549046 638244 549869
0110100010010010: 469867 638244 461168 463020
0110100010010010: 469867 638244 461168 541036
0111100010001000: 469867 638244 549046 461168
0110100010010010: 469867 638244 549046 549869
0110100110010110: 469867 638244 549046 508455
0111100010001000: 469867 638244 461168 549046
0110100110000100: 469867 638244 461168 592745
0110100110000100: 469867 638244 461168 621012
0110100110000100: 469867 638244 461168 508455
0110100010010010: 469867 638244 461168 463020
0110100010010010: 469867 638244 461168 541036
0111100010001000: 469867 638244 549046 461168
0111100010001000: 469867 638244 549046 461168
0110100110000100: 469867 638244 549046 592745
0110100110000100: 469867 638244 549046 621012
0110100110010110: 469867 638244 549046 508455
0110100010010010: 469867 638244 549046 549869
0110100110010110: 469867 638244 549046 508455
0111100010001000: 469867 638244 461168 549046
0111100010001000: 469867 638244 461168 549046
0111100010001000: 469867 638244 461168 549046
0111100010001000: 469867 638244 549046 461168
0111100010001000: 469867 638244 549046 461168
0111100010001000: 469867 638244 549046 461168
0110100110000100: 469867 638244 461168 592745
0110100110000100: 469867 638244 461168 621012
0110100110000100: 469867 638244 461168 508455
0110100110000100: 469867 638244 461168 592745
0110100110000100: 469867 638244 461168 621012
0110100110000100: 469867 638244 461168 508455
0111100010001000: 469867 638244 461168 549046
0110100010010010: 469867 638244 461168 463020
0110100010010010: 469867 638244 461168 541036
0110100110000100: 469867 638244 549046 592745
0110100110000100: 469867 638244 549046 621012
0110100110000100: 469867 638244 549046 592745
0110100110000100: 469867 638244 549046 621012
0111100010001000: 469867 638244 549046 461168
0111100010001000: 469867 638244 549046 461168
0110100010010010: 469867 638244 549046 549869
0110100110010110: 469867 638244 549046 508455
0101101001001000: 508455 549046 549869 592745
0101101001001000: 508455 549046 549869 621012
0101101001001000: 508455 549046 549869 541036
0101101001001000: 508455 549046 549869 638244
0101101001001000: 508455 549046 469867 592745
0101101001001000: 508455 549046 469867 621012
0101101001001000: 508455 549046 469867 541036
0100101101000100: 508455 549046 469867 549869
0111101011001000: 508455 592745 638244 549046
0111101011001000: 508455 592745 638244 541036
0101101001001000: 508455 592745 558089 549046
0101101001001000: 508455 592745 558089 621012
0101101001001000: 508455 592745 558089 541036
0101101101001100: 508455 592745 558089 638244
0111100010001000: 508455 621012 592745 549046
0111101011001000: 508455 621012 638244 549046
0111101011001000: 508455 621012 638244 541036
0101101001001000: 508455 621012 582608 549046
0101101001001000: 508455 621012 582608 592745
0101101001001000: 508455 621012 582608 541036
0101101101001100: 508455 621012 582608 638244
0111100010001000: 508455 541036 592745 549046
0111100010001000: 508455 541036 621012 549046
0111100010001000: 508455 541036 621012 592745
0101101001001000: 508455 541036 461168 549046
0101101001001000: 508455 541036 461168 592745
0101101001001000: 508455 541036 461168 621012
0101101001001000: 508455 541036 461168 638244
0101101001001000: 508455 541036 649875 549046
0101101001001000: 508455 541036 649875 592745
0101101001001000: 508455 541036 649875 621012
0101101001001000: 508455 541036 649875 638244
0100101101000100: 508455 541036 649875 461168
0101101001001000: 508455 541036 468658 549046
0101101001001000: 508455 541036 468658 592745
0101101001001000: 508455 541036 468658 621012
0101101001001000: 508455 541036 468658 638244
0100101101000100: 508455 541036 468658 461168
0100101101000100: 508455 541036 468658 649875
0110100110010110: 508455 638244 549046 469867
0111100010001000: 508455 638244 541036 549046
0111101011001000: 508455 638244 592745 549046
0111101011001000: 508455 638244 592745 541036
0111101011001000: 508455 638244 621012 549046
0111101011001000: 508455 638244 621012 541036
0111101111001100: 508455 638244 621012 592745
0101101001001000: 508455 638244 469867 541036
0101101101001100: 508455 638244 469867 592745
0101101101001100: 508455 638244 469867 621012
0110100110000100: 508455 549046 592745 549869
0110100110000100: 508455 549046 592745 469867
0110100010010010: 508455 549046 592745 558089
0111100010011010: 508455 549046 592745 638244
0110100010010010: 508455 549046 592745 558089
0111100010001000: 508455 549046 621012 592745
0110100110000100: 508455 549046 621012 549869
0110100110000100: 508455 549046 621012 469867
0110100010010010: 508455 549046 621012 582608
0111100010011010: 508455 549046 621012 638244
0110100010010010: 508455 549046 621012 582608
0111100010001000: 508455 549046 541036 592745
0111100010001000: 508455 549046 541036 621012
0110100110000100: 508455 549046 541036 549869
0110100110000100: 508455 549046 541036 469867
0110100010010010: 508455 549046 541036 461168
0110100010010010: 508455 549046 541036 649875
0110100010010010: 508455 549046 541036 468658
0110100010010010: 508455 549046 541036 461168
0110100010010010: 508455 549046 541036 649875
0110100010010010: 508455 549046 541036 468658
0111100010001000: 508455 549046 638244 541036
0110100110000100: 508455 549046 638244 549869
0111100010011010: 508455 549046 638244 592745
0111100010011010: 508455 549046 638244 621012
0110100110010110: 508455 549046 638244 469867
0110100110010110: 508455 549046 638244 469867
0110100110000100: 508455 549046 592745 549869
0110100110000100: 508455 549046 592745 469867
0110100110000100: 508455 549046 592745 549869
0110100110000100: 508455 549046 592745 469867
0110100110000100: 508455 549046 592745 549869
0110100110000100: 508455 549046 592745 469867
0110100110000100: 508455 549046 621012 549869
0110100110000100: 508455 549046 621012 469867
0110100110000100: 508455 549046 621012 549869
0110100110000100: 508455 549046 621012 469867
0110100110000100: 508455 549046 621012 549869
0110100110000100: 508455 549046 621012 469867
0110100110000100: 508455 549046 541036 549869
0110100110000100: 508455 549046 541036 469867
0110100110000100: 508455 549046 541036 549869
0110100110000100: 508455 549046 541036 469867
0110100110000100: 508455 549046 541036 549869
0110100110000100: 508455 549046 541036 469867
0110100110000100: 508455 549046 638244 549869
0110100110000100: 508455 549046 638244 549869
0110100110000100: 508455 549046 638244 549869
0110100110010110: 508455 549046 638244 469867
0101101001001000: 508455 549046 549869 592745
0101101001001000: 508455 549046 549869 621012
0101101001001000: 508455 549046 549869 541036
0101101001001000: 508455 549046 549869 638244
0100101001010010: 508455 549046 549869 558089
0100101001010010: 508455 549046 549869 558089
0100101001010010: 508455 549046 549869 558089
0100101001010010: 508455 549046 549869 558089
0101101001001000: 508455 549046 469867 592745
0101101001001000: 508455 549046 469867 621012
0101101001001000: 508455 549046 469867 541036
0100101001010010: 508455 549046 469867 461168
0100101001010010: 508455 549046 469867 461168
0100101101000100: 508455 549046 469867 549869
0101101001011010: 508455 549046 469867 638244
0101101001011010: 508455 549046 469867 638244
0101101001011010: 508455 549046 469867 638244
0100101001010010: 508455 549046 469867 461168
0110100110000100: 508455 592745 549046 558089
0110100010010010: 508455 592745 549046 549869
0110100010010010: 508455 592745 549046 469867
0110100010010010: 508455 592745 549046 549869
0110100010010010: 508455 592745 549046 469867
0111100010001000: 508455 592745 621012 549046
0110100110000100: 508455 592745 621012 558089
0110100010010010: 508455 592745 621012 582608
0110100010010010: 508455 592745 621012 582608
0111100010001000: 508455 592745 541036 549046
0111100010001000: 508455 592745 541036 621012
0110100110000100: 508455 592745 541036 558089
0110100010010010: 508455 592745 541036 461168
0110100010010010: 508455 592745 541036 649875
0110100010010010: 508455 592745 541036 468658
0110100010010010: 508455 592745 541036 461168
0110100010010010: 508455 592745 541036 649875
0110100010010010: 508455 592745 541036 468658
0111100010001000: 508455 592745 549046 621012
0111100010001000: 508455 592745 549046 541036
0110100110000100: 508455 592745 549046 558089
0110100110000100: 508455 592745 549046 558089
0111100110001100: 508455 592745 549046 638244
0110100110000100: 508455 592745 549046 558089
0110100110000100: 508455 592745 621012 558089
0110100110000100: 508455 592745 621012 558089
0110100110000100: 508455 592745 621012 558089
0110100110000100: 508455 592745 541036 558089
0110100110000100: 508455 592745 541036 558089
0111100110001100: 508455 592745 541036 638244
0110100110000100: 508455 592745 541036 558089
0111101011001000: 508455 592745 638244 549046
0111101011001000: 508455 592745 638244 541036
0110101011010010: 508455 592745 638244 469867
0110101011010010: 508455 592745 638244 469867
0111101011011010: 508455 592745 638244 621012
0111101011011010: 508455 592745 638244 621012
0111101011011010: 508455 592745 638244 621012
0110101011010010: 508455 592745 638244 469867
0110101011010010: 508455 592745 638244 469867
0110101111000100: 508455 592745 638244 558089
0101101001001000: 508455 592745 558089 549046
0101101001001000: 508455 592745 558089 621012
0101101001001000: 508455 592745 558089 541036
0100101001010010: 508455 592745 558089 549869
0100101001010010: 508455 592745 558089 549869
0101101101001100: 508455 592745 558089 638244
0100101001010010: 508455 592745 558089 549869
0100101001010010: 508455 592745 558089 549869
0111101011001000: 508455 592745 638244 549046
0111101011001000: 508455 592745 638244 541036
0111101011001000: 508455 592745 638244 549046
0111101011001000: 508455 592745 638244 541036
0110101111000100: 508455 592745 638244 558089
0110101111000100: 508455 592745 638244 558089
0110101111000100: 508455 592745 638244 558089
0110101111000100: 508455 592745 638244 558089
0110101111000100: 508455 592745 638244 558089
0110100110000100: 508455 621012 549046 582608
0110100010010010: 508455 621012 549046 549869
0110100010010010: 508455 621012 549046 469867
0110100010010010: 508455 621012 549046 549869
0110100010010010: 508455 621012 549046 469867
0111100010001000: 508455 621012 592745 549046
0110100110000100: 508455 621012 592745 582608
0110100010010010: 508455 621012 592745 558089
0110100010010010: 508455 621012 592745 558089
0111100010001000: 508455 621012 541036 549046
0111100010001000: 508455 621012 541036 592745
0110100110000100: 508455 621012 541036 582608
0110100010010010: 508455 621012 541036 461168
0110100010010010: 508455 621012 541036 649875
0110100010010010: 508455 621012 541036 468658
0110100010010010: 508455 621012 541036 461168
0110100010010010: 508455 621012 541036 649875
0110100010010010: 508455 621012 541036 468658
0111100010001000: 508455 621012 549046 592745
0111100010001000: 508455 621012 549046 541036
0110100110000100: 508455 621012 549046 582608
0110100110000100: 508455 621012 549046 582608
0111100110001100: 508455 621012 549046 638244
0110100110000100: 508455 621012 549046 582608
0111100010001000: 508455 621012 592745 549046
0111100010001000: 508455 621012 592745 541036
0111100010001000: 508455 621012 592745 549046
0110100110000100: 508455 621012 592745 582608
0110100110000100: 508455 621012 592745 582608
0110100110000100: 508455 621012 592745 582608
0110100110000100: 508455 621012 541036 582608
0110100110000100: 508455 621012 541036 582608
0111100110001100: 508455 621012 541036 638244
0110100110000100: 508455 621012 541036 582608
0111101011001000: 508455 621012 638244 549046
0111101011001000: 508455 621012 638244 541036
0110101011010010: 508455 621012 638244 469867
0110101011010010: 508455 621012 638244 469867
0111101011011010: 508455 621012 638244 592745
0111101011011010: 508455 621012 638244 592745
0111101011011010: 508455 621012 638244 592745
0110101011010010: 508455 621012 638244 469867
0110101011010010: 508455 621012 638244 469867
0110101111000100: 508455 621012 638244 582608
0101101001001000: 508455 621012 582608 549046
0101101001001000: 508455 621012 582608 592745
0101101001001000: 508455 621012 582608 541036
0100101001010010: 508455 621012 582608 538905
0100101001010010: 508455 621012 582608 538905
0101101101001100: 508455 621012 582608 638244
0100101001010010: 508455 621012 582608 538905
0100101001010010: 508455 621012 582608 538905
0111101011001000: 508455 621012 638244 549046
0111101011001000: 508455 621012 638244 541036
0111101011001000: 508455 621012 638244 549046
0111101011001000: 508455 621012 638244 541036
0110101111000100: 508455 621012 638244 582608
0110101111000100: 508455 621012 638244 582608
0110101111000100: 508455 621012 638244 582608
0110101111000100: 508455 621012 638244 582608
0110101111000100: 508455 621012 638244 582608
0110100110000100: 508455 541036 549046 461168
0110100110000100: 508455 541036 549046 649875
0110100110000100: 508455 541036 549046 468658
0110100010010010: 508455 541036 549046 549869
0110100010010010: 508455 541036 549046 469867
0110100010010010: 508455 541036 549046 549869
0110100010010010: 508455 541036 549046 469867
0111100010001000: 508455 541036 592745 549046
0110100110000100: 508455 541036 592745 461168
0110100110000100: 508455 541036 592745 649875
0110100110000100: 508455 541036 592745 468658
0110100010010010: 508455 541036 592745 558089
0111100010011010: 508455 541036 592745 638244
0110100010010010: 508455 541036 592745 558089
0111100010001000: 508455 541036 621012 549046
0111100010001000: 508455 541036 621012 592745
0110100110000100: 508455 541036 621012 461168
0110100110000100: 508455 541036 621012 649875
0110100110000100: 508455 541036 621012 468658
0110100010010010: 508455 541036 621012 582608
0111100010011010: 508455 541036 621012 638244
0110100010010010: 508455 541036 621012 582608
0111100010001000: 508455 541036 638244 549046
0110100110000100: 508455 541036 638244 461168
0110100110000100: 508455 541036 638244 649875
0110100110000100: 508455 541036 638244 468658
0110100010010010: 508455 541036 638244 469867
0111100010011010: 508455 541036 638244 592745
0111100010011010: 508455 541036 638244 621012
0110100010010010: 508455 541036 638244 469867
0111100010001000: 508455 541036 549046 592745
0111100010001000: 508455 541036 549046 621012
0111100010001000: 508455 541036 549046 638244
0110100110000100: 508455 541036 549046 461168
0110100110000100: 508455 541036 549046 649875
0110100110000100: 508455 541036 549046 468658
0110100110000100: 508455 541036 549046 461168
0110100110000100: 508455 541036 549046 649875
0110100110000100: 508455 541036 549046 468658
0110100110000100: 508455 541036 549046 461168
0110100110000100: 508455 541036 549046 649875
0110100110000100: 508455 541036 549046 468658
0110100010010010: 508455 541036 549046 549869
0110100010010010: 508455 541036 549046 469867
0111100010001000: 508455 541036 592745 549046
0111100010001000: 508455 541036 592745 621012
0111100010001000: 508455 541036 592745 549046
0110100110000100: 508455 541036 592745 461168
0110100110000100: 508455 541036 592745 649875
0110100110000100: 508455 541036 592745 468658
0110100110000100: 508455 541036 592745 461168
0110100110000100: 508455 541036 592745 649875
0110100110000100: 508455 541036 592745 468658
0110100110000100: 508455 541036 592745 461168
0110100110000100: 508455 541036 592745 649875
0110100110000100: 508455 541036 592745 468658
0110100010010010: 508455 541036 592745 558089
0111100010001000: 508455 541036 621012 549046
0111100010001000: 508455 541036 621012 592745
0111100010001000: 508455 541036 621012 549046
0111100010001000: 508455 541036 621012 592745
0110100110000100: 508455 541036 621012 461168
0110100110000100: 508455 541036 621012 649875
0110100110000100: 508455 541036 621012 468658
0110100110000100: 508455 541036 621012 461168
0110100110000100: 508455 541036 621012 649875
0110100110000100: 508455 541036 621012 468658
0110100110000100: 508455 541036 621012 461168
0110100110000100: 508455 541036 621012 649875
0110100110000100: 508455 541036 621012 468658
0110100010010010: 508455 541036 621012 582608
0110100110000100: 508455 541036 638244 461168
0110100110000100: 508455 541036 638244 649875
0110100110000100: 508455 541036 638244 468658
0110100110000100: 508455 541036 638244 461168
0110100110000100: 508455 541036 638244 649875
0110100110000100: 508455 541036 638244 468658
0110100110000100: 508455 541036 638244 461168
0110100110000100: 508455 541036 638244 649875
0110100110000100: 508455 541036 638244 468658
0101101001001000: 508455 541036 461168 549046
0101101001001000: 508455 541036 461168 592745
0101101001001000: 508455 541036 461168 621012
0101101001001000: 508455 541036 461168 638244
0100101001010010: 508455 541036 461168 463020
0100101001010010: 508455 541036 461168 469867
0100101001010010: 508455 541036 461168 463020
0100101001010010: 508455 541036 461168 469867
0100101001010010: 508455 541036 461168 463020
0100101001010010: 508455 541036 461168 469867
0100101001010010: 508455 541036 461168 463020
0100101001010010: 508455 541036 461168 469867
0101101001001000: 508455 541036 649875 549046
0101101001001000: 508455 541036 649875 592745
0101101001001000: 508455 541036 649875 621012
0101101001001000: 508455 541036 649875 638244
0100101001010010: 508455 541036 649875 644074
0100101001010010: 508455 541036 649875 644074
0100101101000100: 508455 541036 649875 461168
0100101001010010: 508455 541036 649875 644074
0100101001010010: 508455 541036 649875 644074
0101101001001000: 508455 541036 468658 549046
0101101001001000: 508455 541036 468658 592745
0101101001001000: 508455 541036 468658 621012
0101101001001000: 508455 541036 468658 638244
0100101001010010: 508455 541036 468658 596653
0100101001010010: 508455 541036 468658 596653
0100101101000100: 508455 541036 468658 461168
0100101101000100: 508455 541036 468658 649875
0100101001010010: 508455 541036 468658 596653
0100101001010010: 508455 541036 468658 596653
0110100010010010: 508455 638244 549046 549869
0110100010010010: 508455 638244 549046 549869
0110100110010110: 508455 638244 549046 469867
0111100010001000: 508455 638244 541036 549046
0110100010010010: 508455 638244 541036 461168
0110100010010010: 508455 638244 541036 649875
0110100010010010: 508455 638244 541036 468658
0110100010010010: 508455 638244 541036 461168
0110100010010010: 508455 638244 541036 649875
0110100010010010: 508455 638244 541036 468658
0111100010001000: 508455 638244 549046 541036
0111100110001100: 508455 638244 549046 592745
0111100110001100: 508455 638244 549046 621012
0110100110010110: 508455 638244 549046 469867
0110100010010010: 508455 638244 549046 549869
0110100110010110: 508455 638244 549046 469867
0111100010001000: 508455 638244 541036 549046
0111100010001000: 508455 638244 541036 549046
0110100110000100: 508455 638244 541036 469867
0111100110001100: 508455 638244 541036 592745
0111100110001100: 508455 638244 541036 621012
0110100110000100: 508455 638244 541036 469867
0111101011001000: 508455 638244 592745 549046
0111101011001000: 508455 638244 592745 541036
0110101011010010: 508455 638244 592745 558089
0110101011010010: 508455 638244 592745 558089
0111101011001000: 508455 638244 621012 549046
0111101011001000: 508455 638244 621012 541036
0110101011010010: 508455 638244 621012 582608
0110101011010010: 508455 638244 621012 582608
0101101001001000: 508455 638244 469867 541036
0100101001010010: 508455 638244 469867 461168
0100101001010010: 508455 638244 469867 461168
0101101101001100: 508455 638244 469867 592745
0101101101001100: 508455 638244 469867 621012
0101101001011010: 508455 638244 469867 549046
0101101001011010: 508455 638244 469867 549046
0101101001011010: 508455 638244 469867 549046
0100101001010010: 508455 638244 469867 461168
0100101001010010: 508455 638244 469867 461168
0101101001011010: 508455 638244 469867 549046
0111101011001000: 508455 638244 592745 549046
0111101011001000: 508455 638244 592745 541036
0111101011001000: 508455 638244 592745 549046
0111101011001000: 508455 638244 592745 541036
0110101111000100: 508455 638244 592745 469867
0110101111000100: 508455 638244 592745 469867
0111101111001100: 508455 638244 592745 621012
0110101111000100: 508455 638244 592745 469867
0110101011010010: 508455 638244 592745 558089
0110101011010010: 508455 638244 592745 558089
0111101011001000: 508455 638244 621012 549046
0111101011001000: 508455 638244 621012 541036
0111101011001000: 508455 638244 621012 549046
0111101011001000: 508455 638244 621012 541036
0110101111000100: 508455 638244 621012 469867
0110101111000100: 508455 638244 621012 469867
0111101111001100: 508455 638244 621012 592745
0110101111000100: 508455 638244 621012 469867
0111101111001100: 508455 638244 621012 592745
0110101011010010: 508455 638244 621012 582608
0110101011010010: 508455 638244 621012 582608
0111101011001000: 508455 638244 592745 549046
0111101011001000: 508455 638244 592745 541036
0111101011001000: 508455 638244 592745 549046
0111101011001000: 508455 638244 592745 541036
0110101111000100: 508455 638244 592745 469867
0111101111001100: 508455 638244 592745 621012
0111101011001000: 508455 638244 621012 549046
0111101011001000: 508455 638244 621012 541036
0111101011001000: 508455 638244 621012 549046
0111101011001000: 508455 638244 621012 541036
0110101111000100: 508455 638244 621012 469867
0111101111001100: 508455 638244 621012 592745
0101101001001000: 541036 461168 463020 649875
0101101001001000: 541036 461168 463020 468658
0101101001001000: 541036 461168 463020 508455
0101101001001000: 541036 461168 469867 649875
0101101001001000: 541036 461168 469867 468658
0101101001001000: 541036 461168 469867 508455
0100101101000100: 541036 461168 469867 463020
0101101001001000: 541036 649875 644074 461168
0101101001001000: 541036 649875 644074 468658
0101101001001000: 541036 649875 644074 508455
0111100010001000: 541036 468658 649875 461168
0101101001001000: 541036 468658 596653 461168
0101101001001000: 541036 468658 596653 649875
0101101001001000: 541036 468658 596653 508455
0111100010001000: 541036 508455 649875 461168
0111100010001000: 541036 508455 468658 461168
0111100010001000: 541036 508455 468658 649875
0110100110000100: 541036 461168 649875 463020
0110100110000100: 541036 461168 649875 469867
0110100010010010: 541036 461168 649875 644074
0110100010010010: 541036 461168 649875 644074
0111100010001000: 541036 461168 468658 649875
0110100110000100: 541036 461168 468658 463020
0110100110000100: 541036 461168 468658 469867
0110100010010010: 541036 461168 468658 596653
0110100010010010: 541036 461168 468658 596653
0111100010001000: 541036 461168 508455 649875
0111100010001000: 541036 461168 508455 468658
0110100110000100: 541036 461168 508455 463020
0110100110000100: 541036 461168 508455 469867
0110100010010010: 541036 461168 508455 549046
0110100010010010: 541036 461168 508455 592745
0110100010010010: 541036 461168 508455 621012
0110100010010010: 541036 461168 508455 638244
0110100110000100: 541036 461168 649875 463020
0110100110000100: 541036 461168 649875 469867
0110100110000100: 541036 461168 649875 463020
0110100110000100: 541036 461168 649875 469867
0110100110000100: 541036 461168 649875 463020
0110100110000100: 541036 461168 649875 469867
0110100010010010: 541036 461168 649875 644074
0110100110000100: 541036 461168 468658 463020
0110100110000100: 541036 461168 468658 469867
0110100110000100: 541036 461168 468658 463020
0110100110000100: 541036 461168 468658 469867
0110100110000100: 541036 461168 468658 463020
0110100110000100: 541036 461168 468658 469867
0110100010010010: 541036 461168 468658 596653
0110100110000100: 541036 461168 508455 463020
0110100110000100: 541036 461168 508455 469867
0110100110000100: 541036 461168 508455 463020
0110100110000100: 541036 461168 508455 469867
0110100110000100: 541036 461168 508455 463020
0110100110000100: 541036 461168 508455 469867
0101101001001000: 541036 461168 463020 649875
0101101001001000: 541036 461168 463020 468658
0101101001001000: 541036 461168 463020 508455
0101101001001000: 541036 461168 469867 649875
0101101001001000: 541036 461168 469867 468658
0101101001001000: 541036 461168 469867 508455
0100101001010010: 541036 461168 469867 549046
0100101001010010: 541036 461168 469867 638244
0100101001010010: 541036 461168 469867 549046
0100101001010010: 541036 461168 469867 638244
0100101101000100: 541036 461168 469867 463020
0100101001010010: 541036 461168 469867 549046
0100101001010010: 541036 461168 469867 638244
0110100110000100: 541036 649875 461168 644074
0110100010010010: 541036 649875 461168 463020
0110100010010010: 541036 649875 461168 469867
0110100010010010: 541036 649875 461168 463020
0110100010010010: 541036 649875 461168 469867
0111100010001000: 541036 649875 468658 461168
0110100110000100: 541036 649875 468658 644074
0110100010010010: 541036 649875 468658 596653
0110100010010010: 541036 649875 468658 596653
0111100010001000: 541036 649875 508455 461168
0111100010001000: 541036 649875 508455 468658
0110100110000100: 541036 649875 508455 644074
0110100010010010: 541036 649875 508455 549046
0110100010010010: 541036 649875 508455 592745
0110100010010010: 541036 649875 508455 621012
0110100010010010: 541036 649875 508455 638244
0111100010001000: 541036 649875 461168 468658
0111100010001000: 541036 649875 461168 508455
0110100110000100: 541036 649875 461168 644074
0110100110000100: 541036 649875 461168 644074
0110100110000100: 541036 649875 461168 644074
0110100110000100: 541036 649875 468658 644074
0110100110000100: 541036 649875 468658 644074
0110100110000100: 541036 649875 468658 644074
0110100110000100: 541036 649875 508455 644074
0110100110000100: 541036 649875 508455 644074
0110100110000100: 541036 649875 508455 644074
0101101001001000: 541036 649875 644074 461168
0101101001001000: 541036 649875 644074 468658
0101101001001000: 541036 649875 644074 508455
0100101001010010: 541036 649875 644074 538905
0100101001010010: 541036 649875 644074 538905
0100101001010010: 541036 649875 644074 538905
0110100110000100: 541036 468658 461168 596653
0110100010010010: 541036 468658 461168 463020
0110100010010010: 541036 468658 461168 469867
0110100010010010: 541036 468658 461168 463020
0110100010010010: 541036 468658 461168 469867
0111100010001000: 541036 468658 649875 461168
0110100110000100: 541036 468658 649875 596653
0110100010010010: 541036 468658 649875 644074
0110100010010010: 541036 468658 649875 644074
0111100010001000: 541036 468658 508455 461168
0111100010001000: 541036 468658 508455 649875
0110100110000100: 541036 468658 508455 596653
0110100010010010: 541036 468658 508455 549046
0110100010010010: 541036 468658 508455 592745
0110100010010010: 541036 468658 508455 621012
0110100010010010: 541036 468658 508455 638244
0111100010001000: 541036 468658 461168 649875
0111100010001000: 541036 468658 461168 508455
0110100110000100: 541036 468658 461168 596653
0110100110000100: 541036 468658 461168 596653
0110100110000100: 541036 468658 461168 596653
0111100010001000: 541036 468658 649875 461168
0111100010001000: 541036 468658 649875 508455
0111100010001000: 541036 468658 649875 461168
0110100110000100: 541036 468658 649875 596653
0110100110000100: 541036 468658 649875 596653
0110100110000100: 541036 468658 649875 596653
0110100110000100: 541036 468658 508455 596653
0110100110000100: 541036 468658 508455 596653
0110100110000100: 541036 468658 508455 596653
0101101001001000: 541036 468658 596653 461168
0101101001001000: 541036 468658 596653 649875
0101101001001000: 541036 468658 596653 508455
0100101001010010: 541036 468658 596653 526973
0100101001010010: 541036 468658 596653 526973
0100101001010010: 541036 468658 596653 526973
0110100010010010: 541036 508455 461168 463020
0110100010010010: 541036 508455 461168 469867
0110100010010010: 541036 508455 461168 463020
0110100010010010: 541036 508455 461168 469867
0111100010001000: 541036 508455 649875 461168
0110100010010010: 541036 508455 649875 644074
0110100010010010: 541036 508455 649875 644074
0111100010001000: 541036 508455 468658 461168
0111100010001000: 541036 508455 468658 649875
0110100010010010: 541036 508455 468658 596653
0110100010010010: 541036 508455 468658 596653
0111100010001000: 541036 508455 461168 649875
0111100010001000: 541036 508455 461168 468658
0110100110000100: 541036 508455 461168 549046
0110100110000100: 541036 508455 461168 592745
0110100110000100: 541036 508455 461168 621012
0110100110000100: 541036 508455 461168 638244
0110100010010010: 541036 508455 461168 463020
0110100010010010: 541036 508455 461168 469867
0111100010001000: 541036 508455 649875 461168
0111100010001000: 541036 508455 649875 468658
0111100010001000: 541036 508455 649875 461168
0110100110000100: 541036 508455 649875 549046
0110100110000100: 541036 508455 649875 592745
0110100110000100: 541036 508455 649875 621012
0110100110000100: 541036 508455 649875 638244
0110100010010010: 541036 508455 649875 644074
0111100010001000: 541036 508455 468658 461168
0111100010001000: 541036 508455 468658 649875
0111100010001000: 541036 508455 468658 461168
0111100010001000: 541036 508455 468658 649875
0110100110000100: 541036 508455 468658 549046
0110100110000100: 541036 508455 468658 592745
0110100110000100: 541036 508455 468658 621012
0110100110000100: 541036 508455 468658 638244
0110100010010010: 541036 508455 468658 596653
0111100010001000: 541036 508455 461168 649875
0111100010001000: 541036 508455 461168 468658
0111100010001000: 541036 508455 461168 649875
0111100010001000: 541036 508455 461168 468658
0110100010010010: 541036 508455 461168 463020
0110100010010010: 541036 508455 461168 469867
0111100010001000: 541036 508455 649875 461168
0111100010001000: 541036 508455 649875 468658
0111100010001000: 541036 508455 649875 461168
0111100010001000: 541036 508455 649875 468658
0110100010010010: 541036 508455 649875 644074
0111100010001000: 541036 508455 468658 461168
0111100010001000: 541036 508455 468658 649875
0111100010001000: 541036 508455 468658 461168
0111100010001000: 541036 508455 468658 649875
0110100010010010: 541036 508455 468658 596653
0110100110000100: 541036 508455 461168 549046
0110100110000100: 541036 508455 461168 592745
0110100110000100: 541036 508455 461168 621012
0110100110000100: 541036 508455 461168 638244
0110100110000100: 541036 508455 461168 549046
0110100110000100: 541036 508455 461168 592745
0110100110000100: 541036 508455 461168 621012
0110100110000100: 541036 508455 461168 638244
0111100010001000: 541036 508455 461168 649875
0111100010001000: 541036 508455 461168 468658
0110100010010010: 541036 508455 461168 463020
0110100010010010: 541036 508455 461168 469867
0110100010010010: 541036 508455 461168 463020
0110100010010010: 541036 508455 461168 469867
0110100110000100: 541036 508455 649875 549046
0110100110000100: 541036 508455 649875 592745
0110100110000100: 541036 508455 649875 621012
0110100110000100: 541036 508455 649875 638244
0110100110000100: 541036 508455 649875 549046
0110100110000100: 541036 508455 649875 592745
0110100110000100: 541036 508455 649875 621012
0110100110000100: 541036 508455 649875 638244
0111100010001000: 541036 508455 649875 461168
0111100010001000: 541036 508455 649875 468658
0111100010001000: 541036 508455 649875 461168
0110100010010010: 541036 508455 649875 644074
0110100010010010: 541036 508455 649875 644074
0110100110000100: 541036 508455 468658 549046
0110100110000100: 541036 508455 468658 592745
0110100110000100: 541036 508455 468658 621012
0110100110000100: 541036 508455 468658 638244
0110100110000100: 541036 508455 468658 549046
0110100110000100: 541036 508455 468658 592745
0110100110000100: 541036 508455 468658 621012
0110100110000100: 541036 508455 468658 638244
0111100010001000: 541036 508455 468658 461168
0111100010001000: 541036 508455 468658 649875
0111100010001000: 541036 508455 468658 461168
0111100010001000: 541036 508455 468658 649875
0110100010010010: 541036 508455 468658 596653
0110100010010010: 541036 508455 468658 596653
0110100110000100: 468658 596653 541036 526973
0110100010010010: 468658 596653 541036 461168
0110100010010010: 468658 596653 541036 649875
0110100010010010: 468658 596653 541036 508455
0110100110000100: 468658 596653 541036 526973
0110100110000100: 468658 596653 541036 526973
0110100110000100: 468658 596653 541036 526973
0110100110000100: 468658 596653 541036 526973
0110100110000100: 468658 596653 541036 526973
0110100010010010: 468658 541036 596653 526973
0110100110000100: 468658 541036 596653 461168
0110100110000100: 468658 541036 596653 649875
0110100110000100: 468658 541036 596653 508455
0110100010010010: 468658 541036 596653 526973
0110100110000100: 468658 541036 596653 461168
0110100110000100: 468658 541036 596653 649875
0110100110000100: 468658 541036 596653 508455
0110100110000100: 468658 541036 596653 461168
0110100110000100: 468658 541036 596653 649875
0110100110000100: 468658 541036 596653 508455
0110100010010010: 468658 541036 596653 526973
0110100110000100: 649875 644074 541036 538905
0110100010010010: 649875 644074 541036 461168
0110100010010010: 649875 644074 541036 468658
0110100010010010: 649875 644074 541036 508455
0110100110000100: 649875 644074 541036 538905
0110100110000100: 649875 644074 541036 538905
0110100110000100: 649875 644074 541036 538905
0110100110000100: 649875 644074 541036 538905
0110100110000100: 649875 644074 541036 538905
0110100010010010: 649875 541036 644074 538905
0110100110000100: 649875 541036 644074 461168
0110100110000100: 649875 541036 644074 468658
0110100110000100: 649875 541036 644074 508455
0110100010010010: 649875 541036 644074 538905
0110100110000100: 649875 541036 644074 461168
0110100110000100: 649875 541036 644074 468658
0110100110000100: 649875 541036 644074 508455
0110100110000100: 649875 541036 644074 461168
0110100110000100: 649875 541036 644074 468658
0110100110000100: 649875 541036 644074 508455
0110100010010010: 649875 541036 644074 538905
0101101001001000: 621012 582608 538905 508455
0101101001001000: 621012 582608 538905 638244
0111101011001000: 621012 508455 638244 582608
0111101011001000: 621012 638244 508455 582608
0110100110000100: 621012 582608 508455 538905
0110100010010010: 621012 582608 508455 549046
0110100010010010: 621012 582608 508455 592745
0110100010010010: 621012 582608 508455 541036
0111100010011010: 621012 582608 508455 638244
0110100110000100: 621012 582608 638244 538905
0110100010010010: 621012 582608 638244 592745
0110100010010010: 621012 582608 638244 469867
0111100010011010: 621012 582608 638244 508455
0110100110000100: 621012 582608 508455 538905
0110100110000100: 621012 582608 508455 538905
0110100110000100: 621012 582608 508455 538905
0110100110000100: 621012 582608 638244 538905
0110100110000100: 621012 582608 638244 538905
0110100110000100: 621012 582608 638244 538905
0101101001001000: 621012 582608 538905 508455
0101101001001000: 621012 582608 538905 638244
0100101001010010: 621012 582608 538905 644074
0100101001010010: 621012 582608 538905 644074
0100101001010010: 621012 582608 538905 644074
0110100010010010: 621012 508455 582608 538905
0110100010010010: 621012 508455 582608 538905
0110100110000100: 621012 508455 582608 549046
0110100110000100: 621012 508455 582608 592745
0110100110000100: 621012 508455 582608 541036
0111100110001100: 621012 508455 582608 638244
0110100010010010: 621012 508455 582608 538905
0111101011001000: 621012 508455 638244 582608
0111101011001000: 621012 508455 638244 582608
0111101011001000: 621012 508455 638244 582608
0110100010010010: 621012 508455 582608 538905
0111101011001000: 621012 508455 638244 582608
0111101011001000: 621012 508455 638244 582608
0110101111000100: 621012 508455 638244 549046
0110101111000100: 621012 508455 638244 541036
0110101111000100: 621012 508455 638244 549046
0110101111000100: 621012 508455 638244 541036
0111101011001000: 621012 508455 638244 582608
0110101111010110: 621012 508455 638244 592745
0110101011010010: 621012 508455 638244 469867
0110101111010110: 621012 508455 638244 592745
0110101111010110: 621012 508455 638244 592745
0111101011001000: 621012 508455 638244 582608
0110100110000100: 621012 508455 582608 549046
0110100110000100: 621012 508455 582608 592745
0110100110000100: 621012 508455 582608 541036
0110100110000100: 621012 508455 582608 549046
0110100110000100: 621012 508455 582608 592745
0110100110000100: 621012 508455 582608 541036
0111100110001100: 621012 508455 582608 638244
0111100110001100: 621012 508455 582608 638244
0111100110001100: 621012 508455 582608 638244
0110100010010010: 621012 508455 582608 538905
0110100010010010: 621012 508455 582608 538905
0111101011001000: 621012 508455 638244 582608
0110100010010010: 621012 638244 582608 538905
0110100010010010: 621012 638244 582608 538905
0110100110000100: 621012 638244 582608 592745
0110100110000100: 621012 638244 582608 469867
0111100110001100: 621012 638244 582608 508455
0110100010010010: 621012 638244 582608 538905
0111101011001000: 621012 638244 508455 582608
0111101011001000: 621012 638244 508455 582608
0111101011001000: 621012 638244 508455 582608
0110100010010010: 621012 638244 582608 538905
0111101011001000: 621012 638244 508455 582608
0111101011001000: 621012 638244 508455 582608
0110101111000100: 621012 638244 508455 469867
0110101111000100: 621012 638244 508455 469867
0111101011001000: 621012 638244 508455 582608
0110101111010110: 621012 638244 508455 592745
0110101111010110: 621012 638244 508455 592745
0110101111000100: 621012 638244 508455 469867
0110101111010110: 621012 638244 508455 592745
0111101011001000: 621012 638244 508455 582608
0110100110000100: 621012 638244 582608 592745
0110100110000100: 621012 638244 582608 469867
0110100110000100: 621012 638244 582608 592745
0110100110000100: 621012 638244 582608 469867
0111100110001100: 621012 638244 582608 508455
0111100110001100: 621012 638244 582608 508455
0111100110001100: 621012 638244 582608 508455
0110100010010010: 621012 638244 582608 538905
0110100010010010: 621012 638244 582608 538905
0111101011001000: 621012 638244 508455 582608
0111101011001000: 621012 638244 508455 582608
0111101011001000: 621012 638244 508455 582608
0111101011001000: 621012 638244 508455 582608
0110100110000100: 582608 538905 621012 644074
0110100010010010: 582608 538905 621012 508455
0110100010010010: 582608 538905 621012 638244
0110100110000100: 582608 538905 621012 644074
0110100110000100: 582608 538905 621012 644074
0110100110000100: 582608 538905 621012 644074
0110100110000100: 582608 538905 621012 644074
0110100110000100: 582608 538905 621012 644074
0110100010010010: 582608 621012 538905 644074
0110100110000100: 582608 621012 538905 508455
0110100110000100: 582608 621012 538905 638244
0110100010010010: 582608 621012 538905 644074
0110100110000100: 582608 621012 538905 508455
0110100110000100: 582608 621012 538905 638244
0110100110000100: 582608 621012 538905 508455
0110100110000100: 582608 621012 538905 638244
0110100010010010: 582608 621012 538905 644074
0110100110000100: 558089 549869 592745 549046
0110100010010010: 558089 549869 592745 508455
0110100010010010: 558089 549869 592745 638244
0110100110000100: 558089 549869 592745 549046
0110100110000100: 558089 549869 592745 549046
0110100110000100: 558089 549869 592745 549046
0110100110000100: 558089 549869 592745 549046
0110100110000100: 558089 549869 592745 549046
0110100110000100: 558089 592745 549869 508455
0110100110000100: 558089 592745 549869 638244
0110100010010010: 558089 592745 549869 549046
0110100110000100: 558089 592745 549869 508455
0110100110000100: 558089 592745 549869 638244
0110100110000100: 558089 592745 549869 508455
0110100110000100: 558089 592745 549869 638244
0110100010010010: 558089 592745 549869 549046
0110100110000100: 558089 592745 549869 508455
0110100110000100: 558089 592745 549869 638244
0110100110000100: 558089 592745 549869 508455
0110100110000100: 558089 592745 549869 638244
0110100010010010: 558089 592745 549869 549046
0101101001001000: 592745 558089 549869 508455
0101101001001000: 592745 558089 549869 638244
0111101011001000: 592745 508455 638244 558089
0111101011001000: 592745 638244 508455 558089
0110100010010010: 592745 558089 508455 549046
0110100010010010: 592745 558089 508455 621012
0110100010010010: 592745 558089 508455 541036
0111100010011010: 592745 558089 508455 638244
0110100010010010: 592745 558089 638244 621012
0110100010010010: 592745 558089 638244 469867
0111100010011010: 592745 558089 638244 508455
0110100110000100: 592745 558089 508455 549869
0110100110000100: 592745 558089 508455 549869
0110100110000100: 592745 558089 638244 549869
0110100110000100: 592745 558089 638244 549869
0101101001001000: 592745 558089 549869 508455
0101101001001000: 592745 558089 549869 638244
0100101001010010: 592745 558089 549869 549046
0100101001010010: 592745 558089 549869 549046
0100101001010010: 592745 558089 549869 549046
0110100010010010: 592745 508455 558089 549869
0110100010010010: 592745 508455 558089 549869
0110100110000100: 592745 508455 558089 549046
0110100110000100: 592745 508455 558089 621012
0110100110000100: 592745 508455 558089 541036
0111100110001100: 592745 508455 558089 638244
0110100010010010: 592745 508455 558089 549869
0111101011001000: 592745 508455 638244 558089
0111101011001000: 592745 508455 638244 558089
0111101011001000: 592745 508455 638244 558089
0110100010010010: 592745 508455 558089 549869
0111101011001000: 592745 508455 638244 558089
0111101011001000: 592745 508455 638244 558089
0110101111000100: 592745 508455 638244 549046
0110101111000100: 592745 508455 638244 541036
0110101111000100: 592745 508455 638244 549046
0110101111000100: 592745 508455 638244 541036
0111101011001000: 592745 508455 638244 558089
0110101111010110: 592745 508455 638244 621012
0110101011010010: 592745 508455 638244 469867
0110101111010110: 592745 508455 638244 621012
0111101011001000: 592745 508455 638244 558089
0110100110000100: 592745 508455 558089 549046
0110100110000100: 592745 508455 558089 621012
0110100110000100: 592745 508455 558089 541036
0110100110000100: 592745 508455 558089 549046
0110100110000100: 592745 508455 558089 621012
0110100110000100: 592745 508455 558089 541036
0111100110001100: 592745 508455 558089 638244
0111100110001100: 592745 508455 558089 638244
0111100110001100: 592745 508455 558089 638244
0110100010010010: 592745 508455 558089 549869
0110100010010010: 592745 508455 558089 549869
0111101011001000: 592745 508455 638244 558089
0110100010010010: 592745 638244 558089 549869
0110100010010010: 592745 638244 558089 549869
0110100110000100: 592745 638244 558089 621012
0110100110000100: 592745 638244 558089 469867
0111100110001100: 592745 638244 558089 508455
0110100010010010: 592745 638244 558089 549869
0111101011001000: 592745 638244 508455 558089
0111101011001000: 592745 638244 508455 558089
0111101011001000: 592745 638244 508455 558089
0110100010010010: 592745 638244 558089 549869
0111101011001000: 592745 638244 508455 558089
0111101011001000: 592745 638244 508455 558089
0110101111000100: 592745 638244 508455 469867
0110101111000100: 592745 638244 508455 469867
0111101011001000: 592745 638244 508455 558089
0110101111010110: 592745 638244 508455 621012
0110101111010110: 592745 638244 508455 621012
0110101111000100: 592745 638244 508455 469867
0111101011001000: 592745 638244 508455 558089
0110100110000100: 592745 638244 558089 621012
0110100110000100: 592745 638244 558089 469867
0110100110000100: 592745 638244 558089 621012
0110100110000100: 592745 638244 558089 469867
0111100110001100: 592745 638244 558089 508455
0111100110001100: 592745 638244 558089 508455
0111100110001100: 592745 638244 558089 508455
0110100010010010: 592745 638244 558089 549869
0110100010010010: 592745 638244 558089 549869
0111101011001000: 592745 638244 508455 558089
0111101011001000: 592745 638244 508455 558089
0111101011001000: 592745 638244 508455 558089
0111101011001000: 592745 638244 508455 558089
0101101001001000: 549046 549869 558089 508455
0101101001001000: 549046 549869 558089 469867
0111100010001000: 549046 469867 508455 549869
0110100110010110: 549046 469867 508455 638244
0110100110000100: 549046 549869 508455 558089
0110100010010010: 549046 549869 508455 592745
0110100010010010: 549046 549869 508455 621012
0110100010010010: 549046 549869 508455 541036
0110100010010010: 549046 549869 508455 638244
0111100010001000: 549046 549869 469867 508455
0110100110000100: 549046 549869 469867 558089
0110100010010010: 549046 549869 469867 461168
0110100010010010: 549046 549869 469867 638244
0110100110000100: 549046 549869 508455 558089
0110100110000100: 549046 549869 508455 558089
0110100110000100: 549046 549869 508455 558089
0110100110000100: 549046 549869 469867 558089
0110100110000100: 549046 549869 469867 558089
0110100110000100: 549046 549869 469867 558089
0101101001001000: 549046 549869 558089 508455
0101101001001000: 549046 549869 558089 469867
0100101001010010: 549046 549869 558089 592745
0100101001010010: 549046 549869 558089 592745
0100101001010010: 549046 549869 558089 592745
0110100010010010: 549046 508455 549869 558089
0110100010010010: 549046 508455 549869 558089
0111100010001000: 549046 508455 469867 549869
0110100010010010: 549046 508455 469867 461168
0110100110010110: 549046 508455 469867 638244
0111100010001000: 549046 508455 549869 469867
0110100110000100: 549046 508455 549869 592745
0110100110000100: 549046 508455 549869 621012
0110100110000100: 549046 508455 549869 541036
0110100110000100: 549046 508455 549869 638244
0110100010010010: 549046 508455 549869 558089
0110100110000100: 549046 508455 469867 592745
0110100110000100: 549046 508455 469867 621012
0110100110000100: 549046 508455 469867 541036
0110100010010010: 549046 508455 469867 461168
0110100110010110: 549046 508455 469867 638244
0111100010001000: 549046 508455 549869 469867
0111100010001000: 549046 508455 549869 469867
0110100010010010: 549046 508455 549869 558089
0111100010001000: 549046 508455 469867 549869
0111100010001000: 549046 508455 469867 549869
0111100010001000: 549046 508455 469867 549869
0110100110000100: 549046 508455 549869 592745
0110100110000100: 549046 508455 549869 621012
0110100110000100: 549046 508455 549869 541036
0110100110000100: 549046 508455 549869 638244
0110100110000100: 549046 508455 549869 592745
0110100110000100: 549046 508455 549869 621012
0110100110000100: 549046 508455 549869 541036
0110100110000100: 549046 508455 549869 638244
0111100010001000: 549046 508455 549869 469867
0110100010010010: 549046 508455 549869 558089
0110100010010010: 549046 508455 549869 558089
0110100110000100: 549046 508455 469867 592745
0110100110000100: 549046 508455 469867 621012
0110100110000100: 549046 508455 469867 541036
0110100110000100: 549046 508455 469867 592745
0110100110000100: 549046 508455 469867 621012
0110100110000100: 549046 508455 469867 541036
0111100010001000: 549046 508455 469867 549869
0111100010001000: 549046 508455 469867 549869
0110100010010010: 549046 508455 469867 461168
0110100110010110: 549046 508455 469867 638244
0110100010010010: 549046 469867 549869 558089
0110100010010010: 549046 469867 549869 558089
0111100010001000: 549046 469867 508455 549869
0110100010010010: 549046 469867 508455 592745
0110100010010010: 549046 469867 508455 621012
0110100010010010: 549046 469867 508455 541036
0110100110010110: 549046 469867 508455 638244
0111100010001000: 549046 469867 549869 508455
0110100110000100: 549046 469867 549869 461168
0110100110000100: 549046 469867 549869 638244
0110100010010010: 549046 469867 549869 558089
0111100010001000: 549046 469867 508455 549869
0111100010001000: 549046 469867 508455 549869
0110100110000100: 549046 469867 508455 461168
0110100110010110: 549046 469867 508455 638244
0110100110010110: 549046 469867 508455 638244
0111100010001000: 549046 469867 549869 508455
0111100010001000: 549046 469867 549869 508455
0110100010010010: 549046 469867 549869 558089
0111100010001000: 549046 469867 508455 549869
0111100010001000: 549046 469867 508455 549869
0111100010001000: 549046 469867 508455 549869
0110100110000100: 549046 469867 549869 461168
0110100110000100: 549046 469867 549869 638244
0110100110000100: 549046 469867 549869 461168
0110100110000100: 549046 469867 549869 638244
0111100010001000: 549046 469867 549869 508455
0110100010010010: 549046 469867 549869 558089
0110100010010010: 549046 469867 549869 558089
0110100110000100: 549046 469867 508455 461168
0110100110000100: 549046 469867 508455 461168
0111100010001000: 549046 469867 508455 549869
0111100010001000: 549046 469867 508455 549869
0110100110010110: 549046 469867 508455 638244
0110100110000100: 549046 469867 508455 461168
0111100010001000: 461168 469867 541036 463020
0110100010010010: 461168 463020 541036 649875
0110100010010010: 461168 463020 541036 468658
0110100010010010: 461168 463020 541036 508455
0111100010001000: 461168 463020 469867 541036
0110100010010010: 461168 463020 469867 549046
0110100010010010: 461168 463020 469867 638244
0111100010001000: 461168 541036 469867 463020
0110100010010010: 461168 541036 469867 549046
0110100010010010: 461168 541036 469867 638244
0111100010001000: 461168 541036 463020 469867
0110100110000100: 461168 541036 463020 649875
0110100110000100: 461168 541036 463020 468658
0110100110000100: 461168 541036 463020 508455
0110100110000100: 461168 541036 469867 649875
0110100110000100: 461168 541036 469867 468658
0110100110000100: 461168 541036 469867 508455
0110100010010010: 461168 541036 469867 549046
0110100010010010: 461168 541036 469867 638244
0111100010001000: 461168 541036 463020 469867
0111100010001000: 461168 541036 463020 469867
0111100010001000: 461168 541036 469867 463020
0111100010001000: 461168 541036 469867 463020
0111100010001000: 461168 541036 469867 463020
0110100110000100: 461168 541036 463020 649875
0110100110000100: 461168 541036 463020 468658
0110100110000100: 461168 541036 463020 508455
0110100110000100: 461168 541036 463020 649875
0110100110000100: 461168 541036 463020 468658
0110100110000100: 461168 541036 463020 508455
0111100010001000: 461168 541036 463020 469867
0110100110000100: 461168 541036 469867 649875
0110100110000100: 461168 541036 469867 468658
0110100110000100: 461168 541036 469867 508455
0110100110000100: 461168 541036 469867 649875
0110100110000100: 461168 541036 469867 468658
0110100110000100: 461168 541036 469867 508455
0111100010001000: 461168 541036 469867 463020
0111100010001000: 461168 541036 469867 463020
0110100010010010: 461168 541036 469867 549046
0110100010010010: 461168 541036 469867 638244
0111100010001000: 461168 469867 541036 463020
0110100010010010: 461168 469867 541036 649875
0110100010010010: 461168 469867 541036 468658
0110100010010010: 461168 469867 541036 508455
0111100010001000: 461168 469867 463020 541036
0110100110000100: 461168 469867 463020 549046
0110100110000100: 461168 469867 463020 638244
0111100010001000: 461168 469867 541036 463020
0111100010001000: 461168 469867 541036 463020
0110100110000100: 461168 469867 541036 549046
0110100110000100: 461168 469867 541036 638244
0111100010001000: 461168 469867 463020 541036
0111100010001000: 461168 469867 463020 541036
0111100010001000: 461168 469867 541036 463020
0111100010001000: 461168 469867 541036 463020
0111100010001000: 461168 469867 541036 463020
0110100110000100: 461168 469867 463020 549046
0110100110000100: 461168 469867 463020 638244
0110100110000100: 461168 469867 463020 549046
0110100110000100: 461168 469867 463020 638244
0111100010001000: 461168 469867 463020 541036
0110100110000100: 461168 469867 541036 549046
0110100110000100: 461168 469867 541036 638244
0110100110000100: 461168 469867 541036 549046
0110100110000100: 461168 469867 541036 638244
0111100010001000: 461168 469867 541036 463020
0111100010001000: 461168 469867 541036 463020
0110100110000100: 461168 469867 541036 549046
0110100110000100: 461168 469867 541036 638244
0110100110000100: 538905 644074 582608 649875
0110100010010010: 538905 644074 582608 621012
0110100110000100: 538905 644074 582608 649875
0110100110000100: 538905 644074 582608 649875
0110100110000100: 538905 644074 582608 649875
0110100110000100: 538905 644074 582608 649875
0110100110000100: 538905 644074 582608 649875
0110100010010010: 538905 582608 644074 649875
0110100110000100: 538905 582608 644074 621012
0110100110000100: 538905 582608 644074 621012
0110100110000100: 538905 582608 644074 621012
0110100110000100: 538905 582608 644074 621012
0110100010010010: 644074 538905 649875 541036
0110100110000100: 644074 538905 649875 582608
0110100110000100: 644074 538905 649875 582608
0110100110000100: 644074 538905 649875 582608
0110100110000100: 644074 538905 649875 582608
0110100010010010: 644074 649875 538905 582608
0110100110000100: 644074 649875 538905 541036
0110100110000100: 644074 649875 538905 541036
0110100110000100: 644074 649875 538905 541036
0110100110000100: 644074 649875 538905 541036
0110100010010010: 549869 549046 558089 592745
0110100110000100: 549869 549046 558089 508455
0110100110000100: 549869 549046 558089 469867
0110100010010010: 549869 549046 558089 592745
0110100110000100: 549869 549046 558089 508455
0110100110000100: 549869 549046 558089 469867
0110100110000100: 549869 549046 558089 508455
0110100110000100: 549869 549046 558089 469867
0110100010010010: 549869 549046 558089 592745
0110100010010010: 549869 558089 549046 508455
0110100010010010: 549869 558089 549046 469867
0110100110000100: 549869 558089 549046 592745
0110100110000100: 549869 558089 549046 592745
0110100110000100: 549869 558089 549046 592745
0110100110000100: 549869 558089 549046 592745
0110100110000100: 526973 596653 625596 468658
0110100110000100: 526973 596653 625596 468658
0110100110000100: 526973 596653 625596 468658
0110100110000100: 526973 596653 625596 468658
0110100110000100: 526973 596653 625596 468658
0110100010010010: 526973 625596 596653 468658
0110100010010010: 596653 526973 468658 541036
0110100110000100: 596653 526973 468658 625596
0110100110000100: 596653 526973 468658 625596
0110100110000100: 596653 526973 468658 625596
0110100110000100: 596653 526973 468658 625596
0110100010010010: 596653 468658 526973 625596
0110100110000100: 596653 468658 526973 541036
0110100110000100: 596653 468658 526973 541036
0110100110000100: 596653 468658 526973 541036
0110100110000100: 596653 468658 526973 541036
