Vertex,0111010110110011100000100,0111110111110001100011000,0111110100110001000010000,0110010010100010100000100,0110010011100000100001000,0111010101110001000001000,0111010100110001000100010,0111110000100001000010000,0111110110110011100010100,0111010101110001000101010,0111110110110001100010000,0110010010100010100100110,0110010011100110110001100,0110010011100100110001000
573171,15.0,1.0,41.0,109.0,268.0,30.0,40.0,67.0,3.0,7.0,21.0,0.0,5.0,62.0
592022,1.0,0.0,16.0,56.0,127.0,3.0,8.0,38.0,0.0,4.0,4.0,1.0,4.0,42.0
544741,1.0,0.0,16.0,45.0,109.0,6.0,7.0,37.0,0.0,1.0,4.0,0.0,3.0,25.0
500770,1.0,0.0,0.0,65.0,65.0,14.0,5.0,2.0,0.0,3.0,3.0,1.0,0.0,12.0
572053,0.0,0.0,0.0,24.0,67.0,0.0,8.0,2.0,0.0,0.0,0.0,0.0,1.0,18.0
596618,2.0,0.0,0.0,55.0,76.0,3.0,10.0,3.0,0.0,3.0,0.0,1.0,5.0,45.0
596204,13.0,1.0,21.0,45.0,76.0,17.0,27.0,21.0,3.0,1.0,15.0,0.0,0.0,8.0
579676,1.0,0.0,16.0,22.0,93.0,6.0,3.0,36.0,0.0,1.0,4.0,0.0,0.0,14.0
596095,1.0,0.0,16.0,41.0,122.0,6.0,11.0,38.0,0.0,1.0,4.0,0.0,4.0,36.0
596651,5.0,1.0,15.0,33.0,91.0,10.0,12.0,31.0,1.0,2.0,11.0,0.0,0.0,13.0
620326,5.0,1.0,15.0,33.0,88.0,8.0,10.0,32.0,1.0,4.0,11.0,1.0,3.0,20.0
509037,8.0,1.0,26.0,63.0,72.0,26.0,31.0,11.0,3.0,7.0,20.0,1.0,0.0,11.0
635720,9.0,0.0,23.0,58.0,107.0,13.0,21.0,26.0,3.0,0.0,6.0,0.0,0.0,9.0
514002,0.0,0.0,0.0,31.0,33.0,0.0,4.0,0.0,0.0,0.0,0.0,0.0,0.0,3.0
474488,9.0,0.0,0.0,52.0,46.0,8.0,8.0,0.0,1.0,0.0,1.0,0.0,0.0,0.0
585965,1.0,0.0,0.0,37.0,29.0,8.0,4.0,0.0,0.0,0.0,1.0,0.0,0.0,0.0
501759,2.0,0.0,0.0,33.0,35.0,5.0,4.0,0.0,0.0,1.0,0.0,0.0,0.0,6.0
605198,0.0,0.0,0.0,12.0,41.0,0.0,4.0,1.0,0.0,0.0,0.0,0.0,0.0,5.0
457407,1.0,0.0,0.0,26.0,1.0,2.0,2.0,0.0,0.0,0.0,0.0,0.0,0.0,0.0
624951,0.0,0.0,0.0,40.0,13.0,0.0,5.0,0.0,0.0,0.0,0.0,0.0,0.0,1.0
545669,0.0,0.0,0.0,20.0,1.0,0.0,1.0,0.0,0.0,0.0,0.0,0.0,0.0,0.0
graph,15.0,1.0,41.0,180.0,312.0,33.0,45.0,69.0,3.0,7.0,21.0,1.0,5.0,66.0
