0110010011100000100001000: 486495 563067 490371 466999 465650
0110010010100010100000100: 486495 490371 563067 642428 465650
0110010010100010100100110: 486495 490371 563067 642428 466999
0110010011100000100001000: 490371 642428 486495 493386 466999
0110010011100000100001000: 490371 642428 486495 587742 466999
0110010011100000100001000: 490371 642428 486495 587742 493386
0110010010100010100000100: 490371 486495 642428 563067 493386
0110010010100010100000100: 490371 486495 642428 563067 587742
0110010011100000100001000: 642428 466999 493386 642687 563067
0110010011100000100001000: 642428 466999 493386 627013 563067
0110010011100000100001000: 642428 466999 493386 627013 642687
0110010011100000100001000: 642428 466999 587742 642687 563067
0110010011100000100001000: 642428 466999 587742 627013 563067
0110010011100000100001000: 642428 466999 587742 627013 642687
0110010011100000100001000: 642428 466999 490371 642687 563067
0110010011100000100001000: 642428 466999 490371 627013 563067
0110010011100000100001000: 642428 466999 490371 627013 642687
0110010010100010100000100: 642428 493386 466999 557556 563067
0110010010100010100000100: 642428 493386 466999 557556 642687
0110010010100010100000100: 642428 493386 466999 557556 627013
0110010011100000100001000: 642428 493386 466999 520883 557556
0110010010100010100000100: 642428 493386 466999 520883 563067
0110010010100010100000100: 642428 493386 466999 520883 627013
0110010010100010100100110: 642428 493386 466999 520883 642687
0110010011100000100001000: 642428 493386 587742 520883 557556
0110010011100000100001000: 642428 493386 490371 520883 557556
0110010010100010100000100: 642428 587742 466999 607011 563067
0110010010100010100000100: 642428 587742 466999 607011 642687
0110010010100010100000100: 642428 587742 466999 607011 627013
0110010011100000100001000: 642428 587742 466999 532584 607011
0110010010100010100000100: 642428 587742 466999 532584 563067
0110010010100010100000100: 642428 587742 466999 532584 642687
0110010010100010100000100: 642428 587742 466999 532584 627013
0110010010100010100000100: 642428 587742 493386 607011 520883
0110010010100010100100110: 642428 587742 493386 607011 557556
0110010011100000100001000: 642428 587742 493386 532584 607011
0110010010100010100000100: 642428 587742 493386 532584 557556
0110010010100010100100110: 642428 587742 493386 532584 520883
0110010011100000100001000: 642428 587742 490371 532584 607011
0110010010100010100000100: 642428 490371 466999 486495 642687
0110010010100010100000100: 642428 490371 466999 486495 627013
0110010010100010100000100: 642428 490371 493386 486495 557556
0110010010100010100000100: 642428 490371 493386 486495 520883
0111110000100001000010000: 642428 490371 587742 493386 466999
0110010010100010100000100: 642428 490371 587742 486495 607011
0110010010100010100000100: 642428 490371 587742 486495 532584
0110010011100000100001000: 520883 642687 493386 458139 466999
0110010011100000100001000: 520883 642687 532584 458139 466999
0111010101110001000001000: 520883 642687 522323 493386 466999
0111010101110001000001000: 520883 642687 522323 493386 458139
0111010100110001000100010: 520883 642687 522323 493386 557556
0111010100110001000100010: 520883 642687 522323 493386 642428
0111110100110001000010000: 520883 642687 522323 532584 493386
0111010101110001000001000: 520883 642687 522323 532584 466999
0111010101110001000001000: 520883 642687 522323 532584 458139
0111010100110001000100010: 520883 642687 522323 532584 587742
0110010011100000100001000: 520883 493386 522323 642428 557556
0110010010100010100000100: 520883 493386 642687 557556 466999
0110010010100010100000100: 520883 493386 642687 557556 458139
0110010011100000100001000: 520883 493386 642687 642428 557556
0110010010100010100000100: 520883 493386 642687 642428 458139
0110010011100000100001000: 520883 493386 532584 642428 557556
0110010010100010100000100: 520883 532584 642687 587742 466999
0110010010100010100000100: 520883 532584 642687 587742 458139
0110010010100010100000100: 520883 532584 493386 587742 557556
0110010011100000100001000: 532584 587742 520883 642428 607011
0110010010100010100000100: 532584 520883 587742 522323 607011
0110010010100010100000100: 532584 520883 587742 522323 642428
0110010010100010100000100: 532584 520883 587742 642687 607011
0110010010100010100000100: 532584 520883 587742 642687 642428
0110010011100000100001000: 532584 520883 587742 493386 522323
0110010011100000100001000: 532584 520883 587742 493386 642687
0110010010100010100000100: 532584 520883 587742 493386 607011
0110010010100010100000100: 587742 532584 607011 520883 557556
0110010010100010100000100: 587742 642428 607011 466999 557556
0110010011100000100001000: 587742 642428 607011 493386 466999
0110010011100000100001000: 587742 642428 607011 490371 466999
0110010011100000100001000: 587742 642428 607011 490371 493386
0110010010100010100000100: 587742 642428 607011 490371 557556
0110010010100010100000100: 587742 642428 532584 466999 520883
0110010011100000100001000: 587742 642428 532584 493386 466999
0110010011100000100001000: 587742 642428 532584 490371 466999
0110010011100000100001000: 587742 642428 532584 490371 493386
0110010010100010100000100: 587742 642428 532584 490371 520883
0110010011100000100001000: 458139 642687 566525 466999 522323
0110010011100000100001000: 458139 642687 566525 520883 466999
0110010010100010100000100: 458139 566525 642687 586427 522323
0110010010100010100000100: 458139 566525 642687 586427 466999
0110010010100010100000100: 458139 566525 642687 586427 520883
0110010010100010100000100: 566525 458139 586427 642687 627013
0110010011100000100001000: 493386 557556 520883 607011 603958
0110010011100000100001000: 493386 557556 642428 607011 603958
0110010010100010100000100: 493386 520883 557556 522323 603958
0110010010100010100000100: 493386 520883 557556 522323 607011
0110010010100010100000100: 493386 520883 557556 642687 603958
0110010010100010100000100: 493386 520883 557556 642687 607011
0110010011100000100001000: 493386 520883 557556 532584 522323
0110010011100000100001000: 493386 520883 557556 532584 642687
0110010010100010100000100: 493386 520883 557556 532584 603958
0110010010100010100000100: 493386 520883 557556 532584 607011
0110010011100000100001000: 493386 520883 642428 532584 522323
0110010011100000100001000: 493386 520883 642428 532584 642687
0110010010100010100000100: 493386 642428 557556 466999 603958
0110010010100010100000100: 493386 642428 557556 466999 607011
0110010011100000100001000: 493386 642428 557556 587742 466999
0110010010100010100000100: 493386 642428 557556 587742 603958
0110010011100000100001000: 493386 642428 557556 490371 466999
0110010011100000100001000: 493386 642428 557556 490371 587742
0110010010100010100000100: 493386 642428 557556 490371 603958
0110010010100010100000100: 493386 642428 557556 490371 607011
0110010010100010100000100: 493386 642428 520883 466999 522323
0110010010100010100000100: 493386 642428 520883 466999 532584
0110010011100000100001000: 493386 642428 520883 587742 466999
0110010010100010100000100: 493386 642428 520883 587742 522323
0110010010100010100000100: 493386 642428 520883 587742 642687
0110010011100000100001000: 493386 642428 520883 490371 466999
0110010011100000100001000: 493386 642428 520883 490371 587742
0110010010100010100000100: 493386 642428 520883 490371 522323
0110010010100010100000100: 493386 642428 520883 490371 642687
0110010010100010100000100: 493386 642428 520883 490371 532584
0110010010100010100000100: 586427 566525 627013 458139 466999
0110010011100000100001000: 627013 466999 586427 642687 563067
0110010011100000100001000: 627013 466999 586427 642428 563067
0110010011100000100001000: 627013 466999 586427 642428 642687
0110010010100010100000100: 627013 586427 466999 566525 563067
0110010010100010100000100: 627013 586427 466999 566525 642687
0110010010100010100000100: 627013 586427 466999 566525 642428
0110010011100000100001000: 466999 563067 642687 486495 465650
0110010011100000100001000: 466999 563067 627013 486495 465650
0110010011100000100001000: 466999 563067 642428 486495 465650
0110010010100010100000100: 466999 642687 563067 522323 465650
0110010010100010100000100: 466999 642687 563067 522323 486495
0110010011100000100001000: 466999 642687 563067 458139 522323
0110010010100010100000100: 466999 642687 563067 458139 465650
0110010010100010100000100: 466999 642687 563067 458139 486495
0110010011100000100001000: 466999 642687 563067 520883 458139
0110010010100010100000100: 466999 642687 563067 520883 465650
0110010010100010100000100: 466999 642687 563067 520883 486495
0110010011100000100001000: 466999 642687 627013 458139 522323
0110010011100000100001000: 466999 642687 627013 520883 458139
0110010011100000100001000: 466999 642687 642428 458139 522323
0110010011100000100001000: 466999 642687 642428 520883 458139
0110010010100010100000100: 466999 627013 563067 586427 465650
0110010010100010100000100: 466999 627013 563067 586427 486495
0110010010100010100000100: 466999 627013 642687 586427 522323
0110010010100010100000100: 466999 627013 642687 586427 458139
0110010010100010100000100: 466999 627013 642687 586427 520883
0110010010100010100000100: 466999 642428 563067 493386 465650
0110010010100010100000100: 466999 642428 563067 493386 486495
0110010011100000100001000: 466999 642428 563067 587742 493386
0110010010100010100000100: 466999 642428 563067 587742 465650
0110010010100010100000100: 466999 642428 563067 587742 486495
0110010011100000100001000: 466999 642428 563067 490371 493386
0110010011100000100001000: 466999 642428 563067 490371 587742
0110010010100010100000100: 466999 642428 563067 490371 465650
0110010010100010100000100: 466999 642428 642687 493386 522323
0110010010100010100000100: 466999 642428 642687 493386 458139
0110010011100000100001000: 466999 642428 642687 587742 493386
0110010010100010100000100: 466999 642428 642687 587742 522323
0110010010100010100000100: 466999 642428 642687 587742 458139
0110010010100010100000100: 466999 642428 642687 587742 520883
0110010011100000100001000: 466999 642428 642687 490371 493386
0110010011100000100001000: 466999 642428 642687 490371 587742
0110010010100010100000100: 466999 642428 642687 490371 522323
0110010010100010100000100: 466999 642428 642687 490371 458139
0110010010100010100000100: 466999 642428 642687 490371 520883
0111110000100001000010000: 466999 642428 627013 642687 563067
0110010010100010100000100: 466999 642428 627013 493386 586427
0110010011100000100001000: 466999 642428 627013 587742 493386
0110010010100010100000100: 466999 642428 627013 587742 586427
0110010011100000100001000: 466999 642428 627013 490371 493386
0110010011100000100001000: 466999 642428 627013 490371 587742
0110010010100010100000100: 466999 642428 627013 490371 586427
0110010011100000100001000: 642687 466999 522323 627013 563067
0110010011100000100001000: 642687 466999 522323 642428 563067
0110010011100000100001000: 642687 466999 522323 642428 627013
0110010011100000100001000: 642687 466999 458139 627013 563067
0110010011100000100001000: 642687 466999 458139 642428 563067
0110010011100000100001000: 642687 466999 458139 642428 627013
0110010011100000100001000: 642687 466999 520883 627013 563067
0110010011100000100001000: 642687 466999 520883 642428 563067
0110010011100000100001000: 642687 466999 520883 642428 627013
0110010010100010100000100: 642687 458139 466999 566525 563067
0110010010100010100000100: 642687 458139 466999 566525 627013
0110010010100010100000100: 642687 458139 466999 566525 642428
0110010010100010100000100: 642687 520883 466999 493386 563067
0110010010100010100000100: 642687 520883 466999 493386 627013
0110010011100000100001000: 642687 520883 466999 532584 493386
0110010010100010100000100: 642687 520883 466999 532584 563067
0110010010100010100000100: 642687 520883 466999 532584 627013
0110010010100010100000100: 642687 520883 466999 532584 642428
0110010010100010100000100: 642687 520883 458139 493386 566525
0110010011100000100001000: 642687 520883 458139 532584 493386
0110010010100010100000100: 642687 520883 458139 532584 566525
0111010100110001000100010: 642687 520883 522323 466999 563067
0111010100110001000100010: 642687 520883 522323 466999 627013
0111010100110001000100010: 642687 520883 522323 466999 642428
0111110100110001000010000: 642687 520883 522323 458139 466999
0111010100110001000100010: 642687 520883 522323 458139 566525
0110010011100000100001000: 563067 465650 466999 635146 603958
0110010011100000100001000: 563067 465650 486495 635146 603958
0110010010100010100000100: 563067 466999 465650 642687 603958
0110010010100010100000100: 563067 466999 465650 642687 635146
0110010011100000100001000: 563067 466999 465650 627013 642687
0110010010100010100000100: 563067 466999 465650 627013 603958
0110010010100010100000100: 563067 466999 465650 627013 635146
0110010011100000100001000: 563067 466999 465650 642428 642687
0110010011100000100001000: 563067 466999 465650 642428 627013
0110010010100010100000100: 563067 466999 465650 642428 603958
0110010010100010100000100: 563067 466999 465650 642428 635146
0110010011100000100001000: 563067 466999 486495 627013 642687
0110010011100000100001000: 563067 466999 486495 642428 642687
0110010011100000100001000: 563067 466999 486495 642428 627013
0110010010100010100000100: 563067 486495 465650 490371 603958
0110010010100010100000100: 563067 486495 465650 490371 635146
0110010010100010100000100: 563067 486495 466999 490371 642687
0110010010100010100000100: 563067 486495 466999 490371 627013
0110010011100000100001000: 607011 557556 587742 493386 603958
0110010010100010100000100: 607011 587742 557556 532584 603958
0110010010100010100000100: 607011 587742 557556 532584 493386
0110010011100000100001000: 607011 587742 557556 642428 532584
0110010010100010100000100: 607011 587742 557556 642428 603958
0110010010100010100000100: 557556 607011 603958 587742 465650
0110010010100010100000100: 557556 493386 603958 520883 465650
0110010011100000100001000: 557556 493386 603958 642428 520883
0110010010100010100000100: 557556 493386 603958 642428 465650
0110010010100010100000100: 557556 493386 607011 520883 587742
0110010011100000100001000: 557556 493386 607011 642428 520883
0110010011100000100001000: 635146 465650 642223 563067 603958
0110010011100000100001000: 603958 465650 557556 563067 635146
0110010010100010100000100: 603958 557556 465650 607011 635146
0110010010100010100000100: 603958 557556 465650 607011 563067
0110010011100000100001000: 603958 557556 465650 493386 607011
0110010010100010100000100: 603958 557556 465650 493386 635146
0110010010100010100000100: 603958 557556 465650 493386 563067
0110010010100010100000100: 465650 635146 603958 642223 557556
0110010010100010100000100: 465650 563067 603958 466999 557556
0110010011100000100001000: 465650 563067 603958 486495 466999
0110010010100010100000100: 465650 563067 603958 486495 557556
0110010010100010100000100: 465650 563067 635146 466999 642223
0110010011100000100001000: 465650 563067 635146 486495 466999
0110010010100010100000100: 465650 563067 635146 486495 642223
