Vertex,0110010011100000100001000,0111110100110001000110010,0110010010100010100000100,0111010110110011100000100,0110010010100010100100110,0111010101110001000001000,0111110100110001000010000,0111010100110001000100010,0111010110110011100100110,0111110000100001000010000,0111110110110001100010000,0111110110110011100010100,0110010011100100110001000,0111010101110001000101010
636631,33.0,1.0,22.0,2.0,0.0,14.0,9.0,7.0,0.0,5.0,5.0,1.0,1.0,1.0
561428,68.0,1.0,45.0,5.0,2.0,38.0,18.0,20.0,1.0,8.0,12.0,2.0,4.0,3.0
474804,9.0,0.0,10.0,1.0,0.0,5.0,0.0,2.0,0.0,0.0,0.0,0.0,0.0,0.0
473913,33.0,1.0,20.0,2.0,1.0,16.0,10.0,6.0,0.0,6.0,6.0,1.0,4.0,2.0
466128,30.0,0.0,7.0,0.0,0.0,10.0,10.0,0.0,0.0,7.0,3.0,0.0,1.0,0.0
556526,38.0,1.0,38.0,3.0,0.0,24.0,12.0,11.0,1.0,3.0,8.0,2.0,12.0,3.0
520371,34.0,0.0,28.0,5.0,1.0,18.0,7.0,11.0,1.0,5.0,12.0,2.0,6.0,0.0
546999,49.0,0.0,33.0,0.0,1.0,10.0,10.0,8.0,0.0,7.0,3.0,0.0,1.0,0.0
580949,25.0,1.0,24.0,3.0,1.0,17.0,10.0,10.0,1.0,2.0,7.0,2.0,10.0,2.0
489043,22.0,0.0,27.0,0.0,1.0,15.0,2.0,3.0,1.0,1.0,2.0,0.0,12.0,3.0
646806,14.0,0.0,22.0,1.0,1.0,5.0,0.0,5.0,0.0,0.0,0.0,0.0,5.0,1.0
627783,15.0,0.0,25.0,2.0,1.0,9.0,0.0,2.0,0.0,0.0,1.0,0.0,1.0,0.0
533025,19.0,0.0,21.0,0.0,0.0,0.0,0.0,4.0,0.0,0.0,0.0,0.0,0.0,0.0
647240,5.0,0.0,23.0,0.0,0.0,0.0,0.0,2.0,0.0,0.0,0.0,0.0,0.0,0.0
591905,20.0,0.0,23.0,0.0,1.0,0.0,0.0,6.0,0.0,0.0,0.0,0.0,0.0,0.0
467913,21.0,0.0,22.0,1.0,0.0,9.0,2.0,3.0,0.0,1.0,1.0,0.0,3.0,0.0
graph,87.0,1.0,78.0,5.0,2.0,38.0,18.0,20.0,1.0,9.0,12.0,2.0,12.0,3.0
