Vertex,0101101001001000,0100101101010110,0111101111001100,0110100110010110,0101101101011110,0111100110001100,0100101101000100,0110100110000100,0110100010010010,0111101011011010,0110101111000100,0111101011001000,0111100110011110,0111100010011010,0110101111010110,0110101011010010,0101101001011010,0101101101001100,0111100010001000,0100101001010010
467193,46.0,0.0,18.0,105.0,1.0,52.0,2.0,181.0,83.0,19.0,93.0,230.0,2.0,51.0,17.0,47.0,22.0,2.0,483.0,2.0
646676,32.0,0.0,54.0,35.0,1.0,78.0,0.0,122.0,53.0,43.0,139.0,337.0,2.0,71.0,37.0,73.0,6.0,6.0,416.0,6.0
554368,178.0,2.0,252.0,385.0,10.0,355.0,2.0,623.0,281.0,215.0,616.0,1467.0,16.0,303.0,189.0,342.0,131.0,40.0,1879.0,18.0
620681,80.0,0.0,0.0,140.0,0.0,37.0,4.0,320.0,144.0,0.0,43.0,91.0,0.0,26.0,0.0,27.0,33.0,10.0,90.0,7.0
478853,109.0,2.0,126.0,208.0,8.0,133.0,12.0,384.0,193.0,113.0,218.0,510.0,9.0,104.0,105.0,124.0,70.0,20.0,466.0,47.0
616813,42.0,0.0,18.0,70.0,0.0,52.0,2.0,197.0,84.0,16.0,93.0,230.0,2.0,51.0,10.0,47.0,17.0,2.0,483.0,8.0
627259,20.0,0.0,0.0,0.0,0.0,24.0,0.0,70.0,30.0,0.0,48.0,120.0,0.0,24.0,0.0,24.0,0.0,0.0,528.0,2.0
503041,55.0,2.0,18.0,142.0,0.0,65.0,6.0,188.0,88.0,14.0,112.0,265.0,1.0,54.0,10.0,64.0,45.0,8.0,511.0,37.0
607204,24.0,0.0,36.0,0.0,1.0,70.0,0.0,124.0,50.0,34.0,129.0,320.0,4.0,69.0,27.0,65.0,0.0,2.0,368.0,8.0
640111,87.0,2.0,108.0,138.0,4.0,99.0,10.0,309.0,157.0,92.0,174.0,413.0,6.0,82.0,88.0,98.0,54.0,12.0,416.0,47.0
618181,37.0,0.0,54.0,0.0,1.0,71.0,0.0,151.0,69.0,42.0,128.0,314.0,2.0,67.0,37.0,66.0,0.0,4.0,400.0,17.0
506208,48.0,0.0,18.0,70.0,1.0,52.0,4.0,198.0,101.0,18.0,93.0,230.0,2.0,51.0,17.0,47.0,22.0,2.0,483.0,19.0
529384,39.0,0.0,72.0,0.0,1.0,57.0,0.0,148.0,66.0,58.0,111.0,274.0,4.0,54.0,47.0,57.0,0.0,2.0,408.0,11.0
459521,91.0,0.0,90.0,103.0,2.0,81.0,8.0,296.0,156.0,68.0,145.0,332.0,2.0,60.0,64.0,89.0,39.0,14.0,515.0,41.0
457250,62.0,2.0,36.0,107.0,1.0,103.0,4.0,236.0,124.0,32.0,166.0,395.0,3.0,90.0,27.0,92.0,33.0,12.0,418.0,42.0
545211,53.0,2.0,90.0,107.0,5.0,109.0,2.0,220.0,106.0,76.0,168.0,407.0,6.0,90.0,64.0,88.0,26.0,12.0,447.0,13.0
546198,117.0,4.0,18.0,245.0,4.0,79.0,8.0,416.0,192.0,20.0,95.0,203.0,3.0,52.0,17.0,63.0,84.0,22.0,111.0,45.0
616219,96.0,0.0,0.0,105.0,0.0,39.0,8.0,361.0,179.0,0.0,49.0,94.0,0.0,17.0,0.0,39.0,38.0,14.0,74.0,38.0
graph,304.0,4.0,252.0,490.0,10.0,389.0,18.0,1136.0,539.0,215.0,655.0,1558.0,16.0,329.0,189.0,363.0,155.0,46.0,2124.0,102.0
