Vertex,0110010011100100110001000,0110010011100000100001000,0111010101110001000101010,0111010101110001000001000,0111110110110011100010100,0111010110110011100000100,0111110111110101110011000,0111110100110001000010000,0111110000100001000010000,0110010010100010100100110,0110010010100010100000100,0111110110110001100010000,0111110110110101110010000,0111010110110011100100110,0111110100110001000110010,0111010100110001000100010
612385,7.0,123.0,0.0,0.0,0.0,0.0,0.0,0.0,3.0,2.0,127.0,0.0,0.0,0.0,0.0,14.0
548099,6.0,60.0,0.0,9.0,0.0,1.0,0.0,0.0,1.0,2.0,84.0,0.0,0.0,0.0,0.0,9.0
582871,1.0,24.0,0.0,3.0,0.0,0.0,0.0,0.0,1.0,0.0,55.0,0.0,0.0,0.0,0.0,2.0
556905,4.0,121.0,0.0,29.0,1.0,3.0,0.0,54.0,44.0,2.0,64.0,15.0,1.0,0.0,6.0,23.0
600985,6.0,77.0,0.0,0.0,0.0,0.0,0.0,0.0,1.0,1.0,68.0,0.0,0.0,0.0,0.0,10.0
571279,9.0,253.0,0.0,15.0,0.0,2.0,0.0,51.0,61.0,4.0,130.0,9.0,1.0,0.0,0.0,28.0
577028,9.0,115.0,0.0,15.0,0.0,3.0,0.0,5.0,5.0,1.0,117.0,2.0,0.0,0.0,0.0,14.0
595269,0.0,41.0,2.0,5.0,0.0,2.0,0.0,0.0,0.0,0.0,60.0,0.0,0.0,0.0,1.0,27.0
581499,1.0,72.0,0.0,0.0,0.0,0.0,0.0,0.0,1.0,1.0,44.0,0.0,0.0,0.0,0.0,11.0
457203,23.0,428.0,9.0,99.0,12.0,27.0,4.0,148.0,107.0,4.0,218.0,59.0,6.0,1.0,14.0,101.0
633488,1.0,30.0,0.0,0.0,0.0,0.0,0.0,0.0,1.0,0.0,38.0,0.0,0.0,0.0,0.0,3.0
582857,8.0,30.0,0.0,0.0,0.0,0.0,0.0,0.0,1.0,0.0,47.0,0.0,0.0,0.0,0.0,7.0
616047,18.0,211.0,3.0,43.0,9.0,18.0,1.0,59.0,38.0,2.0,140.0,27.0,0.0,0.0,5.0,48.0
478583,16.0,86.0,3.0,20.0,0.0,5.0,0.0,5.0,3.0,1.0,69.0,2.0,0.0,0.0,0.0,15.0
586496,1.0,11.0,0.0,0.0,0.0,0.0,0.0,0.0,0.0,0.0,36.0,0.0,0.0,0.0,0.0,0.0
468591,2.0,78.0,0.0,29.0,3.0,10.0,0.0,5.0,2.0,0.0,29.0,2.0,1.0,0.0,1.0,16.0
642537,1.0,96.0,3.0,49.0,8.0,19.0,4.0,52.0,27.0,1.0,59.0,36.0,6.0,0.0,6.0,45.0
586718,3.0,89.0,1.0,36.0,5.0,6.0,0.0,58.0,34.0,0.0,41.0,25.0,1.0,0.0,8.0,25.0
602896,11.0,117.0,4.0,28.0,3.0,4.0,1.0,50.0,47.0,1.0,54.0,19.0,0.0,0.0,3.0,20.0
608468,6.0,75.0,4.0,45.0,6.0,16.0,4.0,54.0,22.0,1.0,59.0,28.0,6.0,1.0,10.0,39.0
636873,13.0,143.0,6.0,16.0,0.0,2.0,0.0,51.0,59.0,0.0,53.0,9.0,1.0,1.0,1.0,26.0
570427,3.0,102.0,0.0,33.0,2.0,7.0,0.0,59.0,28.0,1.0,62.0,20.0,1.0,0.0,11.0,33.0
613488,2.0,96.0,1.0,24.0,3.0,2.0,1.0,50.0,47.0,0.0,21.0,19.0,0.0,0.0,3.0,14.0
611919,7.0,77.0,3.0,38.0,6.0,15.0,4.0,54.0,22.0,0.0,53.0,28.0,6.0,1.0,10.0,41.0
527512,12.0,57.0,6.0,33.0,2.0,12.0,1.0,0.0,0.0,0.0,68.0,4.0,0.0,1.0,1.0,31.0
486553,0.0,28.0,0.0,16.0,0.0,1.0,0.0,0.0,0.0,1.0,44.0,1.0,0.0,0.0,0.0,8.0
graph,34.0,528.0,9.0,117.0,12.0,31.0,4.0,151.0,111.0,5.0,368.0,61.0,6.0,1.0,16.0,122.0
