Vertex,0110010010100010100000100,0111110000100001000010000,0110010010100010100100110,0110010011100000100001000,0110010011100100110001000
634975,11.0,1.0,0.0,9.0,8.0
472379,13.0,0.0,1.0,11.0,6.0
468613,7.0,0.0,0.0,5.0,4.0
569693,13.0,1.0,1.0,13.0,6.0
619767,10.0,0.0,1.0,5.0,1.0
609500,13.0,1.0,0.0,13.0,8.0
615582,7.0,1.0,0.0,6.0,4.0
627426,3.0,1.0,0.0,8.0,2.0
499825,9.0,0.0,1.0,8.0,1.0
609779,9.0,0.0,1.0,2.0,0.0
graph,19.0,1.0,1.0,16.0,8.0
