Vertex,0110010011100000100001000,0111010101110001000001000,0110010010100010100100110,0111110100110001000010000,0111110000100001000010000,0110010010100010100000100,0111010100110001000100010
585624,22.0,1.0,2.0,1.0,0.0,26.0,2.0
569986,17.0,2.0,2.0,1.0,0.0,25.0,6.0
645269,28.0,0.0,2.0,0.0,1.0,24.0,2.0
515760,20.0,2.0,2.0,1.0,1.0,16.0,6.0
657191,11.0,1.0,1.0,1.0,0.0,15.0,1.0
544573,7.0,2.0,0.0,1.0,0.0,8.0,6.0
582971,12.0,0.0,1.0,0.0,0.0,16.0,1.0
550526,10.0,0.0,0.0,0.0,0.0,13.0,0.0
576024,26.0,2.0,3.0,0.0,1.0,31.0,3.0
649746,15.0,0.0,1.0,0.0,1.0,16.0,1.0
479274,16.0,0.0,1.0,0.0,1.0,15.0,2.0
576282,1.0,0.0,0.0,0.0,0.0,5.0,0.0
graph,37.0,2.0,3.0,1.0,1.0,42.0,6.0
