0110010011100000100001000: 457661 517524 551708 524015 500428
0110010011100100110001000: 457661 517524 561428 524015 500428
0111010101110001000001000: 457661 517524 564032 551708 500428
0111010101110001000001000: 457661 517524 564032 551708 524015
0111010101110001000001000: 457661 517524 564032 561428 500428
0111010101110001000101010: 457661 517524 564032 561428 524015
0110010011100000100001000: 457661 564032 551708 553844 458588
0111010101110001000001000: 457661 564032 517524 551708 458588
0111010101110001000001000: 457661 564032 517524 551708 553844
0111010100110001000100010: 457661 564032 517524 551708 624779
0111010100110001000100010: 457661 564032 517524 561428 624779
0111010100110001000100010: 457661 564032 517524 561428 514320
0111010100110001000100010: 457661 564032 517524 561428 650191
0111010100110001000100010: 457661 564032 517524 561428 601066
0111010100110001000100010: 457661 564032 517524 561428 479947
0111010100110001000100010: 457661 564032 517524 561428 622996
0111010101110001000101010: 457661 564032 517524 561428 458588
0111010101110001000101010: 457661 564032 517524 561428 553844
0110010010100010100000100: 457661 551708 517524 624779 500428
0110010010100010100000100: 457661 551708 517524 624779 524015
0110010010100010100000100: 457661 551708 564032 624779 458588
0110010010100010100000100: 457661 551708 564032 624779 553844
0110010010100010100000100: 457661 561428 517524 458588 500428
0110010011100000100001000: 457661 561428 517524 624779 458588
0110010010100010100000100: 457661 561428 517524 624779 500428
0110010011100000100001000: 457661 561428 517524 514320 458588
0110010011100000100001000: 457661 561428 517524 514320 624779
0110010010100010100000100: 457661 561428 517524 514320 500428
0110010011100000100001000: 457661 561428 517524 650191 458588
0110010011100000100001000: 457661 561428 517524 650191 624779
0110010011100000100001000: 457661 561428 517524 650191 514320
0110010010100010100000100: 457661 561428 517524 650191 500428
0110010011100000100001000: 457661 561428 517524 601066 458588
0110010011100000100001000: 457661 561428 517524 601066 624779
0110010011100000100001000: 457661 561428 517524 601066 514320
0110010011100000100001000: 457661 561428 517524 601066 650191
0110010010100010100000100: 457661 561428 517524 601066 500428
0110010011100000100001000: 457661 561428 517524 479947 458588
0110010011100000100001000: 457661 561428 517524 479947 624779
0110010011100000100001000: 457661 561428 517524 479947 514320
0110010011100000100001000: 457661 561428 517524 479947 650191
0110010011100000100001000: 457661 561428 517524 479947 601066
0110010010100010100100110: 457661 561428 517524 479947 500428
0110010011100000100001000: 457661 561428 517524 553844 458588
0110010011100000100001000: 457661 561428 517524 553844 624779
0110010011100000100001000: 457661 561428 517524 553844 650191
0110010011100000100001000: 457661 561428 517524 553844 601066
0110010010100010100000100: 457661 561428 517524 553844 500428
0110010011100000100001000: 457661 561428 517524 622996 458588
0110010011100000100001000: 457661 561428 517524 622996 624779
0110010011100000100001000: 457661 561428 517524 622996 514320
0110010011100000100001000: 457661 561428 517524 622996 650191
0110010011100000100001000: 457661 561428 517524 622996 601066
0110010011100000100001000: 457661 561428 517524 622996 479947
0110010011100000100001000: 457661 561428 517524 622996 553844
0110010010100010100000100: 457661 561428 517524 622996 500428
0110010011100100110001000: 457661 561428 517524 524015 458588
0110010011100100110001000: 457661 561428 517524 524015 624779
0110010011100100110001000: 457661 561428 517524 524015 650191
0110010011100100110001000: 457661 561428 517524 524015 479947
0110010011100100110001000: 457661 561428 517524 524015 553844
0110010011100000100001000: 457661 561428 564032 514320 624779
0110010011100000100001000: 457661 561428 564032 650191 624779
0110010011100000100001000: 457661 561428 564032 650191 514320
0110010011100000100001000: 457661 561428 564032 601066 624779
0110010011100000100001000: 457661 561428 564032 601066 514320
0110010011100000100001000: 457661 561428 564032 601066 650191
0110010011100000100001000: 457661 561428 564032 479947 624779
0110010011100000100001000: 457661 561428 564032 479947 514320
0110010011100000100001000: 457661 561428 564032 479947 650191
0110010011100000100001000: 457661 561428 564032 479947 601066
0110010011100000100001000: 457661 561428 564032 524015 624779
0110010011100000100001000: 457661 561428 564032 524015 650191
0110010011100000100001000: 457661 561428 564032 524015 479947
0110010011100000100001000: 457661 561428 564032 622996 624779
0110010011100000100001000: 457661 561428 564032 622996 514320
0110010011100000100001000: 457661 561428 564032 622996 650191
0110010011100000100001000: 457661 561428 564032 622996 601066
0110010011100000100001000: 457661 561428 564032 622996 479947
0110010011100100110001000: 457661 561428 564032 458588 624779
0110010011100100110001000: 457661 561428 564032 458588 514320
0110010011100100110001000: 457661 561428 564032 458588 650191
0110010011100100110001000: 457661 561428 564032 458588 601066
0110010011100100110001000: 457661 561428 564032 458588 479947
0110010011100100110001000: 457661 561428 564032 458588 524015
0110010011100100110001000: 457661 561428 564032 458588 622996
0110010011100100110001000: 457661 561428 564032 553844 624779
0110010011100100110001000: 457661 561428 564032 553844 650191
0110010011100100110001000: 457661 561428 564032 553844 601066
0110010011100100110001000: 457661 561428 564032 553844 524015
0110010011100100110001000: 457661 561428 564032 553844 622996
0110010011100110110001100: 457661 561428 564032 553844 458588
0111010101110001000001000: 457661 561428 551708 517524 458588
0111010101110001000001000: 457661 561428 551708 517524 514320
0111010101110001000001000: 457661 561428 551708 517524 650191
0111010101110001000001000: 457661 561428 551708 517524 601066
0111010101110001000001000: 457661 561428 551708 517524 479947
0111010101110001000001000: 457661 561428 551708 517524 553844
0111010101110001000001000: 457661 561428 551708 517524 622996
0111010100110001000100010: 457661 561428 551708 517524 500428
0111010101110001000101010: 457661 561428 551708 517524 524015
0111010101110001000001000: 457661 561428 551708 564032 514320
0111010101110001000001000: 457661 561428 551708 564032 650191
0111010101110001000001000: 457661 561428 551708 564032 601066
0111010101110001000001000: 457661 561428 551708 564032 479947
0111010101110001000001000: 457661 561428 551708 564032 524015
0111010101110001000001000: 457661 561428 551708 564032 622996
0111110100110001000110010: 457661 561428 551708 564032 517524
0111010101110001000101010: 457661 561428 551708 564032 458588
0111010101110001000101010: 457661 561428 551708 564032 553844
0110010011100000100001000: 561428 458588 624779 564032 530500
0110010011100000100001000: 561428 458588 514320 564032 530500
0110010011100100110001000: 561428 458588 650191 530500 564032
0110010011100000100001000: 561428 458588 601066 564032 530500
0110010011100000100001000: 561428 458588 551708 564032 530500
0110010011100000100001000: 561428 458588 479947 564032 530500
0110010011100100110001000: 561428 458588 553844 564032 530500
0110010011100000100001000: 561428 458588 524015 564032 530500
0110010011100000100001000: 561428 458588 622996 564032 530500
0110010011100100110001000: 561428 458588 457661 564032 530500
0110010010100010100000100: 561428 624779 458588 643315 530500
0110010010100010100000100: 561428 624779 458588 643315 564032
0111010101110001000001000: 561428 624779 551708 458588 643315
0111010101110001000001000: 561428 624779 551708 514320 643315
0111010101110001000101010: 561428 624779 551708 650191 643315
0111010101110001000001000: 561428 624779 551708 601066 643315
0111010101110001000001000: 561428 624779 551708 479947 643315
0111010101110001000001000: 561428 624779 551708 553844 643315
0111010101110001000001000: 561428 624779 551708 524015 643315
0111010101110001000101010: 561428 624779 551708 622996 643315
0110010010100010100000100: 561428 514320 458588 544228 530500
0110010010100010100000100: 561428 514320 458588 544228 564032
0110010010100010100000100: 561428 514320 624779 544228 643315
0111010101110001000001000: 561428 514320 553844 458588 544228
0111010101110001000001000: 561428 514320 553844 624779 544228
0111010101110001000001000: 561428 514320 553844 650191 544228
0111010101110001000001000: 561428 514320 553844 601066 544228
0111010101110001000001000: 561428 514320 553844 551708 544228
0111010101110001000001000: 561428 514320 553844 622996 544228
0111010101110001000001000: 561428 514320 553844 457661 544228
0111010110110011100000100: 561428 514320 553844 524015 564032
0111010101110001000001000: 561428 514320 524015 458588 544228
0111010101110001000001000: 561428 514320 524015 624779 544228
0111010101110001000001000: 561428 514320 524015 650191 544228
0111010101110001000001000: 561428 514320 524015 551708 544228
0111010101110001000101010: 561428 514320 524015 479947 544228
0111010101110001000001000: 561428 514320 524015 457661 544228
0111110110110001100010000: 561428 514320 524015 553844 458588
0111110110110001100010000: 561428 514320 524015 553844 624779
0111110110110001100010000: 561428 514320 524015 553844 650191
0111110110110001100010000: 561428 514320 524015 553844 551708
0111110110110001100010000: 561428 514320 524015 553844 457661
0111010110110011100000100: 561428 514320 524015 553844 557638
0111010110110011100000100: 561428 514320 524015 553844 517524
0110010010100010100000100: 561428 650191 458588 643315 564032
0110010011100100110001000: 561428 650191 458588 530500 643315
0110010011100100110001000: 561428 650191 624779 643315 530500
0111110000100001000010000: 561428 650191 514320 624779 458588
0110010010100010100000100: 561428 650191 514320 530500 544228
0110010011100000100001000: 561428 650191 514320 643315 530500
0110010010100010100000100: 561428 650191 514320 643315 544228
0110010011100000100001000: 561428 650191 601066 643315 530500
0110010011100000100001000: 561428 650191 551708 643315 530500
0110010011100000100001000: 561428 650191 479947 643315 530500
0110010011100000100001000: 561428 650191 553844 643315 530500
0110010011100000100001000: 561428 650191 524015 643315 530500
0110010011100100110001000: 561428 650191 622996 643315 530500
0110010011100000100001000: 561428 650191 457661 643315 530500
0111110000100001000010000: 561428 601066 514320 624779 458588
0111110000100001000010000: 561428 601066 650191 624779 458588
0111110000100001000010000: 561428 601066 650191 514320 458588
0111110000100001000010000: 561428 601066 650191 514320 624779
0111110000100001000010000: 561428 551708 650191 514320 458588
0111110000100001000010000: 561428 551708 601066 514320 458588
0111110000100001000010000: 561428 551708 601066 650191 458588
0111110000100001000010000: 561428 551708 601066 650191 514320
0111010100110001000100010: 561428 551708 624779 458588 530500
0111010100110001000100010: 561428 551708 624779 458588 564032
0111110100110001000010000: 561428 551708 624779 514320 458588
0111010100110001000100010: 561428 551708 624779 514320 544228
0111110100110001000010000: 561428 551708 624779 650191 458588
0111110100110001000010000: 561428 551708 624779 650191 514320
0111010100110001000100010: 561428 551708 624779 650191 530500
0111110100110001000010000: 561428 551708 624779 601066 458588
0111110100110001000010000: 561428 551708 624779 601066 514320
0111110100110001000010000: 561428 551708 624779 601066 650191
0111110100110001000010000: 561428 551708 624779 479947 458588
0111110100110001000010000: 561428 551708 624779 479947 514320
0111110100110001000010000: 561428 551708 624779 479947 650191
0111110100110001000010000: 561428 551708 624779 479947 601066
0111010100110001000100010: 561428 551708 624779 479947 500428
0111010100110001000100010: 561428 551708 624779 479947 544228
0111110100110001000010000: 561428 551708 624779 553844 458588
0111110100110001000010000: 561428 551708 624779 553844 650191
0111110100110001000010000: 561428 551708 624779 553844 601066
0111010100110001000100010: 561428 551708 624779 553844 564032
0111110100110001000010000: 561428 551708 624779 524015 458588
0111110100110001000010000: 561428 551708 624779 524015 650191
0111110100110001000010000: 561428 551708 624779 524015 479947
0111110100110001000010000: 561428 551708 624779 524015 553844
0111010100110001000100010: 561428 551708 624779 524015 557638
0111010100110001000100010: 561428 551708 624779 524015 517524
0111110100110001000010000: 561428 551708 624779 622996 458588
0111110100110001000010000: 561428 551708 624779 622996 514320
0111110100110001000010000: 561428 551708 624779 622996 650191
0111110100110001000010000: 561428 551708 624779 622996 601066
0111110100110001000010000: 561428 551708 624779 622996 479947
0111110100110001000010000: 561428 551708 624779 622996 553844
0111010110110011100000100: 561428 551708 624779 457661 643315
0111110110110001100010000: 561428 551708 457661 624779 458588
0111110110110001100010000: 561428 551708 457661 624779 514320
0111110110110001100010000: 561428 551708 457661 624779 650191
0111110110110001100010000: 561428 551708 457661 624779 601066
0111110110110001100010000: 561428 551708 457661 624779 479947
0111110110110001100010000: 561428 551708 457661 624779 553844
0111110110110001100010000: 561428 551708 457661 624779 524015
0111110110110001100010000: 561428 551708 457661 624779 622996
0111010110110011100000100: 561428 551708 457661 624779 517524
0111010110110011100000100: 561428 551708 457661 624779 564032
0110010010100010100000100: 561428 479947 458588 500428 530500
0110010010100010100000100: 561428 479947 458588 500428 564032
0110010011100000100001000: 561428 479947 458588 544228 500428
0110010010100010100000100: 561428 479947 458588 544228 530500
0110010010100010100000100: 561428 479947 458588 544228 564032
0110010010100010100000100: 561428 479947 624779 500428 643315
0110010011100000100001000: 561428 479947 624779 544228 500428
0110010010100010100000100: 561428 479947 624779 544228 643315
0111110000100001000010000: 561428 479947 514320 624779 458588
0110010011100100110001000: 561428 479947 514320 544228 500428
0111110000100001000010000: 561428 479947 650191 624779 458588
0111110000100001000010000: 561428 479947 650191 514320 458588
0111110000100001000010000: 561428 479947 650191 514320 624779
0110010010100010100000100: 561428 479947 650191 500428 530500
0110010010100010100000100: 561428 479947 650191 500428 643315
0110010011100000100001000: 561428 479947 650191 544228 500428
0110010010100010100000100: 561428 479947 650191 544228 530500
0110010010100010100000100: 561428 479947 650191 544228 643315
0111110000100001000010000: 561428 479947 601066 624779 458588
0111110000100001000010000: 561428 479947 601066 514320 458588
0111110000100001000010000: 561428 479947 601066 514320 624779
0111110000100001000010000: 561428 479947 601066 650191 458588
0111110000100001000010000: 561428 479947 601066 650191 624779
0111110000100001000010000: 561428 479947 601066 650191 514320
0110010011100000100001000: 561428 479947 601066 544228 500428
0111110000100001000010000: 561428 479947 551708 514320 458588
0111110000100001000010000: 561428 479947 551708 650191 458588
0111110000100001000010000: 561428 479947 551708 650191 514320
0111110000100001000010000: 561428 479947 551708 601066 458588
0111110000100001000010000: 561428 479947 551708 601066 514320
0111110000100001000010000: 561428 479947 551708 601066 650191
0110010011100000100001000: 561428 479947 551708 544228 500428
0110010011100000100001000: 561428 479947 524015 544228 500428
0110010011100000100001000: 561428 479947 622996 544228 500428
0110010011100000100001000: 561428 479947 457661 544228 500428
0111010101110001000001000: 561428 479947 553844 458588 500428
0111010101110001000001000: 561428 479947 553844 458588 544228
0111010101110001000001000: 561428 479947 553844 624779 500428
0111010101110001000001000: 561428 479947 553844 624779 544228
0111010101110001000001000: 561428 479947 553844 650191 500428
0111010101110001000001000: 561428 479947 553844 650191 544228
0111010101110001000001000: 561428 479947 553844 601066 500428
0111010101110001000001000: 561428 479947 553844 601066 544228
0111010101110001000001000: 561428 479947 553844 551708 500428
0111010101110001000001000: 561428 479947 553844 551708 544228
0111010101110001000001000: 561428 479947 553844 524015 500428
0111010101110001000001000: 561428 479947 553844 524015 544228
0111010101110001000001000: 561428 479947 553844 622996 500428
0111010101110001000001000: 561428 479947 553844 622996 544228
0111010101110001000001000: 561428 479947 553844 457661 500428
0111010101110001000001000: 561428 479947 553844 457661 544228
0110010010100010100000100: 561428 553844 624779 564032 643315
0111110000100001000010000: 561428 553844 650191 624779 458588
0110010010100010100000100: 561428 553844 650191 564032 530500
0110010010100010100000100: 561428 553844 650191 564032 643315
0111110000100001000010000: 561428 553844 601066 624779 458588
0111110000100001000010000: 561428 553844 601066 650191 458588
0111110000100001000010000: 561428 553844 601066 650191 624779
0111110000100001000010000: 561428 553844 551708 650191 458588
0111110000100001000010000: 561428 553844 551708 601066 458588
0111110000100001000010000: 561428 553844 551708 601066 650191
0111010100110001000100010: 561428 553844 514320 458588 530500
0111010101110001000101010: 561428 553844 514320 458588 564032
0111110100110001000010000: 561428 553844 514320 624779 458588
0111010101110001000001000: 561428 553844 514320 624779 564032
0111010100110001000100010: 561428 553844 514320 624779 643315
0111110100110001000010000: 561428 553844 514320 650191 458588
0111110100110001000010000: 561428 553844 514320 650191 624779
0111010101110001000001000: 561428 553844 514320 650191 564032
0111010100110001000100010: 561428 553844 514320 650191 530500
0111010100110001000100010: 561428 553844 514320 650191 643315
0111110100110001000010000: 561428 553844 514320 601066 458588
0111110100110001000010000: 561428 553844 514320 601066 624779
0111110100110001000010000: 561428 553844 514320 601066 650191
0111010101110001000001000: 561428 553844 514320 601066 564032
0111110100110001000010000: 561428 553844 514320 551708 458588
0111110100110001000010000: 561428 553844 514320 551708 650191
0111110100110001000010000: 561428 553844 514320 551708 601066
0111010101110001000001000: 561428 553844 514320 551708 564032
0111110100110001000110010: 561428 553844 514320 551708 624779
0111110100110001000010000: 561428 553844 514320 622996 458588
0111110100110001000010000: 561428 553844 514320 622996 624779
0111110100110001000010000: 561428 553844 514320 622996 650191
0111110100110001000010000: 561428 553844 514320 622996 601066
0111110100110001000010000: 561428 553844 514320 622996 551708
0111010101110001000001000: 561428 553844 514320 622996 564032
0111010100110001000100010: 561428 553844 514320 622996 643315
0111110100110001000010000: 561428 553844 514320 457661 458588
0111110100110001000010000: 561428 553844 514320 457661 624779
0111110100110001000010000: 561428 553844 514320 457661 650191
0111110100110001000010000: 561428 553844 514320 457661 601066
0111110100110001000010000: 561428 553844 514320 457661 622996
0111010100110001000100010: 561428 553844 514320 457661 517524
0111010101110001000101010: 561428 553844 514320 457661 564032
0111110110110011100010100: 561428 553844 514320 479947 524015
0111010100110001000100010: 561428 553844 479947 458588 530500
0111010101110001000101010: 561428 553844 479947 458588 564032
0111110100110001000010000: 561428 553844 479947 624779 458588
0111010101110001000001000: 561428 553844 479947 624779 564032
0111010100110001000100010: 561428 553844 479947 624779 643315
0111110100110001000010000: 561428 553844 479947 650191 458588
0111110100110001000010000: 561428 553844 479947 650191 624779
0111010101110001000001000: 561428 553844 479947 650191 564032
0111010100110001000100010: 561428 553844 479947 650191 530500
0111010100110001000100010: 561428 553844 479947 650191 643315
0111110100110001000010000: 561428 553844 479947 601066 458588
0111110100110001000010000: 561428 553844 479947 601066 624779
0111110100110001000010000: 561428 553844 479947 601066 650191
0111010101110001000001000: 561428 553844 479947 601066 564032
0111110100110001000010000: 561428 553844 479947 551708 458588
0111110100110001000010000: 561428 553844 479947 551708 650191
0111110100110001000010000: 561428 553844 479947 551708 601066
0111010101110001000001000: 561428 553844 479947 551708 564032
0111110100110001000110010: 561428 553844 479947 551708 624779
0111110100110001000010000: 561428 553844 479947 524015 458588
0111110100110001000010000: 561428 553844 479947 524015 624779
0111110100110001000010000: 561428 553844 479947 524015 650191
0111110100110001000010000: 561428 553844 479947 524015 551708
0111010101110001000001000: 561428 553844 479947 524015 564032
0111010100110001000100010: 561428 553844 479947 524015 557638
0111010100110001000100010: 561428 553844 479947 524015 517524
0111110100110001000010000: 561428 553844 479947 622996 458588
0111110100110001000010000: 561428 553844 479947 622996 624779
0111110100110001000010000: 561428 553844 479947 622996 650191
0111110100110001000010000: 561428 553844 479947 622996 601066
0111110100110001000010000: 561428 553844 479947 622996 551708
0111010101110001000001000: 561428 553844 479947 622996 564032
0111010100110001000100010: 561428 553844 479947 622996 643315
0111110100110001000010000: 561428 553844 479947 457661 458588
0111110100110001000010000: 561428 553844 479947 457661 624779
0111110100110001000010000: 561428 553844 479947 457661 650191
0111110100110001000010000: 561428 553844 479947 457661 601066
0111110100110001000010000: 561428 553844 479947 457661 524015
0111110100110001000010000: 561428 553844 479947 457661 622996
0111010100110001000100010: 561428 553844 479947 457661 517524
0111010101110001000101010: 561428 553844 479947 457661 564032
0111110110110001100010000: 561428 553844 479947 514320 458588
0111110110110001100010000: 561428 553844 479947 514320 624779
0111110110110001100010000: 561428 553844 479947 514320 650191
0111110110110001100010000: 561428 553844 479947 514320 601066
0111110110110001100010000: 561428 553844 479947 514320 551708
0111110110110001100010000: 561428 553844 479947 514320 622996
0111110110110001100010000: 561428 553844 479947 514320 457661
0111010110110011100000100: 561428 553844 479947 514320 500428
0111010110110011100100110: 561428 553844 479947 514320 544228
0110010010100010100000100: 561428 524015 458588 557638 530500
0110010010100010100000100: 561428 524015 458588 557638 564032
0110010011100000100001000: 561428 524015 458588 517524 557638
0110010010100010100000100: 561428 524015 458588 517524 530500
0110010010100010100100110: 561428 524015 458588 517524 564032
0110010010100010100000100: 561428 524015 624779 557638 643315
0110010011100000100001000: 561428 524015 624779 517524 557638
0110010010100010100000100: 561428 524015 624779 517524 643315
0111110000100001000010000: 561428 524015 650191 624779 458588
0110010010100010100000100: 561428 524015 650191 557638 530500
0110010010100010100000100: 561428 524015 650191 557638 643315
0110010011100000100001000: 561428 524015 650191 517524 557638
0110010010100010100000100: 561428 524015 650191 517524 530500
0110010010100010100000100: 561428 524015 650191 517524 643315
0111110000100001000010000: 561428 524015 551708 650191 458588
0110010011100000100001000: 561428 524015 551708 517524 557638
0111110000100001000010000: 561428 524015 479947 624779 458588
0111110000100001000010000: 561428 524015 479947 650191 458588
0111110000100001000010000: 561428 524015 479947 650191 624779
0111110000100001000010000: 561428 524015 479947 551708 458588
0111110000100001000010000: 561428 524015 479947 551708 650191
0110010010100010100000100: 561428 524015 479947 557638 544228
0110010010100010100100110: 561428 524015 479947 557638 500428
0110010011100000100001000: 561428 524015 479947 517524 557638
0110010010100010100000100: 561428 524015 479947 517524 544228
0110010010100010100100110: 561428 524015 479947 517524 500428
0111110000100001000010000: 561428 524015 553844 624779 458588
0111110000100001000010000: 561428 524015 553844 650191 458588
0111110000100001000010000: 561428 524015 553844 650191 624779
0111110000100001000010000: 561428 524015 553844 551708 458588
0111110000100001000010000: 561428 524015 553844 551708 650191
0110010010100010100000100: 561428 524015 553844 557638 564032
0110010011100000100001000: 561428 524015 553844 517524 557638
0110010010100010100100110: 561428 524015 553844 517524 564032
0110010011100100110001000: 561428 524015 457661 517524 557638
0111010101110001000001000: 561428 524015 514320 458588 557638
0111010101110001000001000: 561428 524015 514320 458588 517524
0111010100110001000100010: 561428 524015 514320 458588 530500
0111010100110001000100010: 561428 524015 514320 458588 564032
0111110100110001000010000: 561428 524015 514320 624779 458588
0111010101110001000001000: 561428 524015 514320 624779 557638
0111010101110001000001000: 561428 524015 514320 624779 517524
0111010100110001000100010: 561428 524015 514320 624779 643315
0111110100110001000010000: 561428 524015 514320 650191 458588
0111110100110001000010000: 561428 524015 514320 650191 624779
0111010101110001000001000: 561428 524015 514320 650191 557638
0111010101110001000001000: 561428 524015 514320 650191 517524
0111010100110001000100010: 561428 524015 514320 650191 530500
0111010100110001000100010: 561428 524015 514320 650191 643315
0111110100110001000010000: 561428 524015 514320 551708 458588
0111110100110001000010000: 561428 524015 514320 551708 650191
0111010101110001000001000: 561428 524015 514320 551708 557638
0111010101110001000001000: 561428 524015 514320 551708 517524
0111110100110001000110010: 561428 524015 514320 551708 624779
0111110100110001000010000: 561428 524015 514320 479947 458588
0111110100110001000010000: 561428 524015 514320 479947 624779
0111110100110001000010000: 561428 524015 514320 479947 650191
0111110100110001000010000: 561428 524015 514320 479947 551708
0111010101110001000001000: 561428 524015 514320 479947 557638
0111010101110001000001000: 561428 524015 514320 479947 517524
0111010100110001000100010: 561428 524015 514320 479947 500428
0111110100110001000010000: 561428 524015 514320 457661 458588
0111110100110001000010000: 561428 524015 514320 457661 624779
0111110100110001000010000: 561428 524015 514320 457661 650191
0111110100110001000010000: 561428 524015 514320 457661 479947
0111010101110001000001000: 561428 524015 514320 457661 557638
0111010100110001000100010: 561428 524015 514320 457661 564032
0111010101110001000101010: 561428 524015 514320 457661 517524
0111110110110011100010100: 561428 524015 514320 601066 553844
0111010110110011100000100: 561428 524015 514320 601066 544228
0111110110110011100010100: 561428 524015 514320 622996 553844
0111010110110011100000100: 561428 524015 514320 622996 544228
0111010101110001000001000: 561428 524015 601066 458588 557638
0111010101110001000001000: 561428 524015 601066 458588 517524
0111010100110001000100010: 561428 524015 601066 458588 530500
0111010100110001000100010: 561428 524015 601066 458588 564032
0111110100110001000010000: 561428 524015 601066 624779 458588
0111010101110001000001000: 561428 524015 601066 624779 557638
0111010101110001000001000: 561428 524015 601066 624779 517524
0111010100110001000100010: 561428 524015 601066 624779 643315
0111110100110001000010000: 561428 524015 601066 650191 458588
0111110100110001000010000: 561428 524015 601066 650191 624779
0111010101110001000001000: 561428 524015 601066 650191 557638
0111010101110001000001000: 561428 524015 601066 650191 517524
0111010100110001000100010: 561428 524015 601066 650191 530500
0111010100110001000100010: 561428 524015 601066 650191 643315
0111110100110001000010000: 561428 524015 601066 551708 458588
0111110100110001000010000: 561428 524015 601066 551708 650191
0111010101110001000001000: 561428 524015 601066 551708 557638
0111010101110001000001000: 561428 524015 601066 551708 517524
0111110100110001000110010: 561428 524015 601066 551708 624779
0111110100110001000010000: 561428 524015 601066 479947 458588
0111110100110001000010000: 561428 524015 601066 479947 624779
0111110100110001000010000: 561428 524015 601066 479947 650191
0111110100110001000010000: 561428 524015 601066 479947 551708
0111010101110001000001000: 561428 524015 601066 479947 557638
0111010101110001000001000: 561428 524015 601066 479947 517524
0111010100110001000100010: 561428 524015 601066 479947 500428
0111010100110001000100010: 561428 524015 601066 479947 544228
0111110100110001000010000: 561428 524015 601066 553844 458588
0111110100110001000010000: 561428 524015 601066 553844 624779
0111110100110001000010000: 561428 524015 601066 553844 650191
0111110100110001000010000: 561428 524015 601066 553844 551708
0111010101110001000001000: 561428 524015 601066 553844 557638
0111010101110001000001000: 561428 524015 601066 553844 517524
0111010100110001000100010: 561428 524015 601066 553844 564032
0111110100110001000110010: 561428 524015 601066 553844 479947
0111110100110001000010000: 561428 524015 601066 457661 458588
0111110100110001000010000: 561428 524015 601066 457661 624779
0111110100110001000010000: 561428 524015 601066 457661 650191
0111110100110001000010000: 561428 524015 601066 457661 479947
0111110100110001000010000: 561428 524015 601066 457661 553844
0111010101110001000001000: 561428 524015 601066 457661 557638
0111010100110001000100010: 561428 524015 601066 457661 564032
0111010101110001000101010: 561428 524015 601066 457661 517524
0111110110110001100010000: 561428 524015 601066 514320 458588
0111110110110001100010000: 561428 524015 601066 514320 624779
0111110110110001100010000: 561428 524015 601066 514320 650191
0111110110110001100010000: 561428 524015 601066 514320 551708
0111110110110001100010000: 561428 524015 601066 514320 479947
0111110110110001100010000: 561428 524015 601066 514320 457661
0111010101110001000001000: 561428 524015 622996 458588 557638
0111010101110001000001000: 561428 524015 622996 458588 517524
0111010101110001000001000: 561428 524015 622996 624779 557638
0111010101110001000001000: 561428 524015 622996 624779 517524
0111010101110001000001000: 561428 524015 622996 650191 557638
0111010101110001000001000: 561428 524015 622996 650191 517524
0111010101110001000001000: 561428 524015 622996 551708 557638
0111010101110001000001000: 561428 524015 622996 551708 517524
0111010101110001000001000: 561428 524015 622996 479947 557638
0111010101110001000001000: 561428 524015 622996 479947 517524
0111010101110001000001000: 561428 524015 622996 553844 557638
0111010101110001000001000: 561428 524015 622996 553844 517524
0111010101110001000001000: 561428 524015 622996 457661 557638
0111010101110001000101010: 561428 524015 622996 457661 517524
0111110110110001100010000: 561428 524015 622996 514320 458588
0111110110110001100010000: 561428 524015 622996 514320 624779
0111110110110001100010000: 561428 524015 622996 514320 650191
0111110110110001100010000: 561428 524015 622996 514320 551708
0111110110110001100010000: 561428 524015 622996 514320 479947
0111110110110001100010000: 561428 524015 622996 514320 457661
0111010110110011100000100: 561428 524015 622996 514320 643315
0111110110110001100010000: 561428 524015 622996 601066 458588
0111110110110001100010000: 561428 524015 622996 601066 624779
0111110110110001100010000: 561428 524015 622996 601066 650191
0111110110110001100010000: 561428 524015 622996 601066 551708
0111110110110001100010000: 561428 524015 622996 601066 479947
0111110110110001100010000: 561428 524015 622996 601066 553844
0111110110110001100010000: 561428 524015 622996 601066 457661
0111110111110001100011000: 561428 524015 622996 601066 514320
0111010110110011100000100: 561428 524015 622996 601066 643315
0110010010100010100000100: 561428 622996 458588 643315 530500
0110010010100010100000100: 561428 622996 458588 643315 564032
0111110000100001000010000: 561428 622996 514320 624779 458588
0110010010100010100000100: 561428 622996 514320 643315 544228
0111110000100001000010000: 561428 622996 650191 624779 458588
0111110000100001000010000: 561428 622996 650191 514320 458588
0111110000100001000010000: 561428 622996 650191 514320 624779
0111110000100001000010000: 561428 622996 601066 624779 458588
0111110000100001000010000: 561428 622996 601066 514320 458588
0111110000100001000010000: 561428 622996 601066 514320 624779
0111110000100001000010000: 561428 622996 601066 650191 458588
0111110000100001000010000: 561428 622996 601066 650191 624779
0111110000100001000010000: 561428 622996 601066 650191 514320
0111110000100001000010000: 561428 622996 551708 514320 458588
0111110000100001000010000: 561428 622996 551708 650191 458588
0111110000100001000010000: 561428 622996 551708 650191 514320
0111110000100001000010000: 561428 622996 551708 601066 458588
0111110000100001000010000: 561428 622996 551708 601066 514320
0111110000100001000010000: 561428 622996 551708 601066 650191
0111110000100001000010000: 561428 622996 479947 624779 458588
0111110000100001000010000: 561428 622996 479947 514320 458588
0111110000100001000010000: 561428 622996 479947 514320 624779
0111110000100001000010000: 561428 622996 479947 650191 458588
0111110000100001000010000: 561428 622996 479947 650191 624779
0111110000100001000010000: 561428 622996 479947 650191 514320
0111110000100001000010000: 561428 622996 479947 601066 458588
0111110000100001000010000: 561428 622996 479947 601066 624779
0111110000100001000010000: 561428 622996 479947 601066 514320
0111110000100001000010000: 561428 622996 479947 601066 650191
0111110000100001000010000: 561428 622996 479947 551708 458588
0111110000100001000010000: 561428 622996 479947 551708 514320
0111110000100001000010000: 561428 622996 479947 551708 650191
0111110000100001000010000: 561428 622996 479947 551708 601066
0110010010100010100000100: 561428 622996 479947 643315 500428
0110010010100010100000100: 561428 622996 479947 643315 544228
0111110000100001000010000: 561428 622996 553844 624779 458588
0111110000100001000010000: 561428 622996 553844 650191 458588
0111110000100001000010000: 561428 622996 553844 650191 624779
0111110000100001000010000: 561428 622996 553844 601066 458588
0111110000100001000010000: 561428 622996 553844 601066 624779
0111110000100001000010000: 561428 622996 553844 601066 650191
0111110000100001000010000: 561428 622996 553844 551708 458588
0111110000100001000010000: 561428 622996 553844 551708 650191
0111110000100001000010000: 561428 622996 553844 551708 601066
0110010010100010100000100: 561428 622996 553844 643315 564032
0111010101110001000001000: 561428 622996 524015 458588 643315
0111010100110001000100010: 561428 622996 524015 458588 530500
0111010100110001000100010: 561428 622996 524015 458588 564032
0111110100110001000010000: 561428 622996 524015 624779 458588
0111010101110001000101010: 561428 622996 524015 624779 643315
0111110100110001000010000: 561428 622996 524015 650191 458588
0111110100110001000010000: 561428 622996 524015 650191 624779
0111010100110001000100010: 561428 622996 524015 650191 530500
0111010101110001000101010: 561428 622996 524015 650191 643315
0111110100110001000010000: 561428 622996 524015 551708 458588
0111110100110001000010000: 561428 622996 524015 551708 650191
0111010101110001000001000: 561428 622996 524015 551708 643315
0111110100110001000110010: 561428 622996 524015 551708 624779
0111110100110001000010000: 561428 622996 524015 479947 458588
0111110100110001000010000: 561428 622996 524015 479947 624779
0111110100110001000010000: 561428 622996 524015 479947 650191
0111110100110001000010000: 561428 622996 524015 479947 551708
0111010101110001000001000: 561428 622996 524015 479947 643315
0111010100110001000100010: 561428 622996 524015 479947 500428
0111010100110001000100010: 561428 622996 524015 479947 544228
0111110100110001000010000: 561428 622996 524015 553844 458588
0111110100110001000010000: 561428 622996 524015 553844 624779
0111110100110001000010000: 561428 622996 524015 553844 650191
0111110100110001000010000: 561428 622996 524015 553844 551708
0111010101110001000001000: 561428 622996 524015 553844 643315
0111010100110001000100010: 561428 622996 524015 553844 564032
0111110100110001000110010: 561428 622996 524015 553844 479947
0111110100110001000010000: 561428 622996 524015 457661 458588
0111110100110001000010000: 561428 622996 524015 457661 624779
0111110100110001000010000: 561428 622996 524015 457661 650191
0111110100110001000010000: 561428 622996 524015 457661 479947
0111110100110001000010000: 561428 622996 524015 457661 553844
0111010101110001000001000: 561428 622996 524015 457661 643315
0111010100110001000100010: 561428 622996 524015 457661 564032
0110010010100010100000100: 561428 457661 458588 517524 530500
0110010010100010100000100: 561428 457661 624779 517524 643315
0110010010100010100000100: 561428 457661 624779 564032 643315
0111110000100001000010000: 561428 457661 514320 624779 458588
0110010010100010100000100: 561428 457661 514320 517524 544228
0110010010100010100000100: 561428 457661 514320 564032 544228
0111110000100001000010000: 561428 457661 650191 624779 458588
0111110000100001000010000: 561428 457661 650191 514320 458588
0111110000100001000010000: 561428 457661 650191 514320 624779
0110010010100010100000100: 561428 457661 650191 517524 530500
0110010010100010100000100: 561428 457661 650191 517524 643315
0110010010100010100000100: 561428 457661 650191 564032 530500
0110010010100010100000100: 561428 457661 650191 564032 643315
0111110000100001000010000: 561428 457661 601066 624779 458588
0111110000100001000010000: 561428 457661 601066 514320 458588
0111110000100001000010000: 561428 457661 601066 514320 624779
0111110000100001000010000: 561428 457661 601066 650191 458588
0111110000100001000010000: 561428 457661 601066 650191 624779
0111110000100001000010000: 561428 457661 601066 650191 514320
0111110000100001000010000: 561428 457661 479947 624779 458588
0111110000100001000010000: 561428 457661 479947 514320 458588
0111110000100001000010000: 561428 457661 479947 514320 624779
0111110000100001000010000: 561428 457661 479947 650191 458588
0111110000100001000010000: 561428 457661 479947 650191 624779
0111110000100001000010000: 561428 457661 479947 650191 514320
0111110000100001000010000: 561428 457661 479947 601066 458588
0111110000100001000010000: 561428 457661 479947 601066 624779
0111110000100001000010000: 561428 457661 479947 601066 514320
0111110000100001000010000: 561428 457661 479947 601066 650191
0110010010100010100000100: 561428 457661 479947 517524 544228
0110010010100010100000100: 561428 457661 479947 564032 500428
0110010010100010100000100: 561428 457661 479947 564032 544228
0111110000100001000010000: 561428 457661 553844 624779 458588
0111110000100001000010000: 561428 457661 553844 650191 458588
0111110000100001000010000: 561428 457661 553844 650191 624779
0111110000100001000010000: 561428 457661 553844 601066 458588
0111110000100001000010000: 561428 457661 553844 601066 624779
0111110000100001000010000: 561428 457661 553844 601066 650191
0111110000100001000010000: 561428 457661 524015 624779 458588
0111110000100001000010000: 561428 457661 524015 650191 458588
0111110000100001000010000: 561428 457661 524015 650191 624779
0111110000100001000010000: 561428 457661 524015 479947 458588
0111110000100001000010000: 561428 457661 524015 479947 624779
0111110000100001000010000: 561428 457661 524015 479947 650191
0111110000100001000010000: 561428 457661 524015 553844 458588
0111110000100001000010000: 561428 457661 524015 553844 624779
0111110000100001000010000: 561428 457661 524015 553844 650191
0110010010100010100000100: 561428 457661 524015 564032 557638
0111110000100001000010000: 561428 457661 622996 624779 458588
0111110000100001000010000: 561428 457661 622996 514320 458588
0111110000100001000010000: 561428 457661 622996 514320 624779
0111110000100001000010000: 561428 457661 622996 650191 458588
0111110000100001000010000: 561428 457661 622996 650191 624779
0111110000100001000010000: 561428 457661 622996 650191 514320
0111110000100001000010000: 561428 457661 622996 601066 458588
0111110000100001000010000: 561428 457661 622996 601066 624779
0111110000100001000010000: 561428 457661 622996 601066 514320
0111110000100001000010000: 561428 457661 622996 601066 650191
0111110000100001000010000: 561428 457661 622996 479947 458588
0111110000100001000010000: 561428 457661 622996 479947 624779
0111110000100001000010000: 561428 457661 622996 479947 514320
0111110000100001000010000: 561428 457661 622996 479947 650191
0111110000100001000010000: 561428 457661 622996 479947 601066
0111110000100001000010000: 561428 457661 622996 553844 458588
0111110000100001000010000: 561428 457661 622996 553844 624779
0111110000100001000010000: 561428 457661 622996 553844 650191
0111110000100001000010000: 561428 457661 622996 553844 601066
0110010010100010100000100: 561428 457661 622996 517524 643315
0110010010100010100000100: 561428 457661 622996 564032 643315
0111010100110001000100010: 561428 457661 551708 458588 530500
0111110100110001000010000: 561428 457661 551708 514320 458588
0111010100110001000100010: 561428 457661 551708 514320 544228
0111110100110001000010000: 561428 457661 551708 650191 458588
0111110100110001000010000: 561428 457661 551708 650191 514320
0111010100110001000100010: 561428 457661 551708 650191 530500
0111010100110001000100010: 561428 457661 551708 650191 643315
0111110100110001000010000: 561428 457661 551708 601066 458588
0111110100110001000010000: 561428 457661 551708 601066 514320
0111110100110001000010000: 561428 457661 551708 601066 650191
0111110100110001000010000: 561428 457661 551708 479947 458588
0111110100110001000010000: 561428 457661 551708 479947 514320
0111110100110001000010000: 561428 457661 551708 479947 650191
0111110100110001000010000: 561428 457661 551708 479947 601066
0111010100110001000100010: 561428 457661 551708 479947 500428
0111010100110001000100010: 561428 457661 551708 479947 544228
0111110100110001000010000: 561428 457661 551708 553844 458588
0111110100110001000010000: 561428 457661 551708 553844 650191
0111110100110001000010000: 561428 457661 551708 553844 601066
0111110100110001000110010: 561428 457661 551708 553844 514320
0111110100110001000110010: 561428 457661 551708 553844 479947
0111110100110001000010000: 561428 457661 551708 524015 458588
0111110100110001000010000: 561428 457661 551708 524015 650191
0111110100110001000010000: 561428 457661 551708 524015 479947
0111110100110001000010000: 561428 457661 551708 524015 553844
0111010100110001000100010: 561428 457661 551708 524015 557638
0111110100110001000110010: 561428 457661 551708 524015 514320
0111110100110001000110010: 561428 457661 551708 524015 601066
0111110100110001000010000: 561428 457661 551708 622996 458588
0111110100110001000010000: 561428 457661 551708 622996 514320
0111110100110001000010000: 561428 457661 551708 622996 650191
0111110100110001000010000: 561428 457661 551708 622996 601066
0111110100110001000010000: 561428 457661 551708 622996 479947
0111110100110001000010000: 561428 457661 551708 622996 553844
0111010100110001000100010: 561428 457661 551708 622996 643315
0111110100110001000110010: 561428 457661 551708 622996 524015
0110010011100000100001000: 622996 643315 524015 650191 624779
0110010010100010100000100: 622996 524015 643315 557638 624779
0110010010100010100000100: 622996 524015 643315 557638 650191
0110010011100000100001000: 622996 524015 643315 517524 557638
0110010010100010100000100: 622996 524015 643315 517524 624779
0110010010100010100000100: 622996 524015 643315 517524 650191
0110010011100000100001000: 622996 524015 643315 514320 557638
0110010011100000100001000: 622996 524015 643315 514320 517524
0110010010100010100000100: 622996 524015 643315 514320 624779
0110010010100010100000100: 622996 524015 643315 514320 650191
0110010011100000100001000: 622996 524015 643315 601066 557638
0110010011100000100001000: 622996 524015 643315 601066 517524
0110010011100000100001000: 622996 524015 643315 601066 514320
0110010010100010100000100: 622996 524015 643315 601066 624779
0110010010100010100000100: 622996 524015 643315 601066 650191
0111010101110001000001000: 622996 524015 561428 643315 557638
0111010101110001000001000: 622996 524015 561428 643315 517524
0110010011100000100001000: 622996 561428 643315 514320 458588
0110010011100000100001000: 622996 561428 643315 601066 458588
0110010011100000100001000: 622996 561428 643315 601066 514320
0110010011100000100001000: 622996 561428 643315 551708 458588
0110010011100000100001000: 622996 561428 643315 551708 514320
0110010011100000100001000: 622996 561428 643315 551708 601066
0110010011100000100001000: 622996 561428 643315 479947 458588
0110010011100000100001000: 622996 561428 643315 479947 514320
0110010011100000100001000: 622996 561428 643315 479947 601066
0110010011100000100001000: 622996 561428 643315 479947 551708
0110010011100000100001000: 622996 561428 643315 553844 458588
0110010011100000100001000: 622996 561428 643315 553844 601066
0110010011100000100001000: 622996 561428 643315 553844 551708
0110010011100000100001000: 622996 561428 643315 457661 458588
0110010011100000100001000: 622996 561428 643315 457661 514320
0110010011100000100001000: 622996 561428 643315 457661 601066
0110010011100000100001000: 622996 561428 643315 457661 479947
0110010011100000100001000: 622996 561428 643315 457661 553844
0110010011100100110001000: 622996 561428 643315 624779 458588
0110010011100100110001000: 622996 561428 643315 624779 514320
0110010011100100110001000: 622996 561428 643315 624779 601066
0110010011100100110001000: 622996 561428 643315 624779 479947
0110010011100100110001000: 622996 561428 643315 624779 553844
0110010011100100110001000: 622996 561428 643315 624779 457661
0110010011100100110001000: 622996 561428 643315 650191 458588
0110010011100100110001000: 622996 561428 643315 650191 514320
0110010011100100110001000: 622996 561428 643315 650191 601066
0110010011100100110001000: 622996 561428 643315 650191 551708
0110010011100100110001000: 622996 561428 643315 650191 479947
0110010011100100110001000: 622996 561428 643315 650191 553844
0110010011100100110001000: 622996 561428 643315 650191 457661
0110010011100110110001100: 622996 561428 643315 650191 624779
0110010011100100110001000: 524015 557638 517524 500428 604912
0110010011100000100001000: 524015 557638 514320 500428 604912
0110010011100000100001000: 524015 557638 601066 500428 604912
0110010011100000100001000: 524015 557638 622996 500428 604912
0110010011100000100001000: 524015 557638 561428 500428 604912
0110010010100010100000100: 524015 517524 557638 564032 604912
0110010010100010100000100: 524015 517524 557638 457661 604912
0110010011100100110001000: 524015 517524 557638 500428 564032
0110010011100100110001000: 524015 517524 557638 500428 457661
0110010011100000100001000: 524015 517524 514320 564032 500428
0110010011100000100001000: 524015 517524 514320 457661 500428
0110010011100000100001000: 524015 517524 601066 564032 500428
0110010011100000100001000: 524015 517524 601066 457661 500428
0110010011100000100001000: 524015 517524 622996 564032 500428
0110010011100000100001000: 524015 517524 622996 457661 500428
0110010011100000100001000: 524015 517524 561428 564032 500428
0110010010100010100000100: 524015 514320 557638 544228 604912
0110010010100010100000100: 524015 514320 557638 544228 500428
0110010011100000100001000: 524015 514320 557638 553844 544228
0110010010100010100000100: 524015 514320 557638 553844 604912
0110010010100010100000100: 524015 514320 557638 553844 500428
0110010010100010100000100: 524015 514320 517524 544228 500428
0110010010100010100000100: 524015 514320 517524 544228 564032
0110010010100010100000100: 524015 514320 517524 544228 457661
0110010011100000100001000: 524015 514320 517524 553844 544228
0110010010100010100000100: 524015 514320 517524 553844 500428
0110010010100010100000100: 524015 514320 517524 553844 457661
0110010010100010100100110: 524015 514320 517524 553844 564032
0110010011100000100001000: 524015 514320 601066 553844 544228
0110010011100000100001000: 524015 514320 622996 553844 544228
0111010101110001000001000: 524015 514320 561428 557638 544228
0111010101110001000001000: 524015 514320 561428 517524 544228
0111110000100001000010000: 524015 601066 514320 517524 557638
0110010010100010100000100: 524015 622996 557638 643315 604912
0110010010100010100000100: 524015 622996 557638 643315 500428
0110010010100010100000100: 524015 622996 517524 643315 500428
0110010010100010100000100: 524015 622996 517524 643315 564032
0110010010100010100000100: 524015 622996 517524 643315 457661
0111110000100001000010000: 524015 622996 514320 517524 557638
0110010010100010100000100: 524015 622996 514320 643315 544228
0110010010100010100000100: 524015 622996 514320 643315 553844
0111110000100001000010000: 524015 622996 601066 517524 557638
0111110000100001000010000: 524015 622996 601066 514320 557638
0111110000100001000010000: 524015 622996 601066 514320 517524
0110010010100010100000100: 524015 561428 557638 458588 604912
0110010010100010100000100: 524015 561428 557638 458588 500428
0110010011100000100001000: 524015 561428 557638 624779 458588
0110010010100010100000100: 524015 561428 557638 624779 604912
0110010010100010100000100: 524015 561428 557638 624779 500428
0110010011100000100001000: 524015 561428 557638 650191 458588
0110010011100000100001000: 524015 561428 557638 650191 624779
0110010010100010100000100: 524015 561428 557638 650191 604912
0110010010100010100000100: 524015 561428 557638 650191 500428
0110010011100000100001000: 524015 561428 557638 551708 458588
0110010011100000100001000: 524015 561428 557638 551708 650191
0110010010100010100000100: 524015 561428 557638 551708 604912
0110010010100010100000100: 524015 561428 557638 551708 500428
0110010011100000100001000: 524015 561428 557638 479947 458588
0110010011100000100001000: 524015 561428 557638 479947 624779
0110010011100000100001000: 524015 561428 557638 479947 650191
0110010011100000100001000: 524015 561428 557638 479947 551708
0110010010100010100000100: 524015 561428 557638 479947 604912
0110010011100000100001000: 524015 561428 557638 553844 458588
0110010011100000100001000: 524015 561428 557638 553844 624779
0110010011100000100001000: 524015 561428 557638 553844 650191
0110010011100000100001000: 524015 561428 557638 553844 551708
0110010010100010100000100: 524015 561428 557638 553844 604912
0110010010100010100000100: 524015 561428 557638 553844 500428
0110010011100000100001000: 524015 561428 557638 457661 458588
0110010011100000100001000: 524015 561428 557638 457661 624779
0110010011100000100001000: 524015 561428 557638 457661 650191
0110010011100000100001000: 524015 561428 557638 457661 479947
0110010011100000100001000: 524015 561428 557638 457661 553844
0110010010100010100000100: 524015 561428 557638 457661 604912
0110010010100010100000100: 524015 561428 557638 457661 500428
0110010010100010100000100: 524015 561428 517524 458588 500428
0110010011100000100001000: 524015 561428 517524 624779 458588
0110010010100010100000100: 524015 561428 517524 624779 500428
0110010010100010100000100: 524015 561428 517524 624779 564032
0110010011100000100001000: 524015 561428 517524 650191 458588
0110010011100000100001000: 524015 561428 517524 650191 624779
0110010010100010100000100: 524015 561428 517524 650191 500428
0110010010100010100000100: 524015 561428 517524 650191 564032
0110010011100000100001000: 524015 561428 517524 551708 458588
0110010011100000100001000: 524015 561428 517524 551708 650191
0110010010100010100000100: 524015 561428 517524 551708 500428
0110010010100010100000100: 524015 561428 517524 551708 564032
0110010011100000100001000: 524015 561428 517524 479947 458588
0110010011100000100001000: 524015 561428 517524 479947 624779
0110010011100000100001000: 524015 561428 517524 479947 650191
0110010011100000100001000: 524015 561428 517524 479947 551708
0110010010100010100000100: 524015 561428 517524 479947 564032
0110010011100000100001000: 524015 561428 517524 553844 458588
0110010011100000100001000: 524015 561428 517524 553844 624779
0110010011100000100001000: 524015 561428 517524 553844 650191
0110010011100000100001000: 524015 561428 517524 553844 551708
0110010010100010100000100: 524015 561428 517524 553844 500428
0111010100110001000100010: 524015 561428 514320 557638 604912
0111010100110001000100010: 524015 561428 514320 557638 500428
0111110100110001000010000: 524015 561428 514320 517524 557638
0111010100110001000100010: 524015 561428 514320 517524 500428
0111010100110001000100010: 524015 561428 514320 517524 564032
0111010100110001000100010: 524015 561428 601066 557638 604912
0111010100110001000100010: 524015 561428 601066 557638 500428
0111110100110001000010000: 524015 561428 601066 517524 557638
0111010100110001000100010: 524015 561428 601066 517524 500428
0111010100110001000100010: 524015 561428 601066 517524 564032
0111110110110001100010000: 524015 561428 601066 514320 557638
0111110110110001100010000: 524015 561428 601066 514320 517524
0111010100110001000100010: 524015 561428 622996 557638 604912
0111010100110001000100010: 524015 561428 622996 557638 500428
0111110100110001000010000: 524015 561428 622996 517524 557638
0111010100110001000100010: 524015 561428 622996 517524 500428
0111010100110001000100010: 524015 561428 622996 517524 564032
0111110110110001100010000: 524015 561428 622996 514320 557638
0111110110110001100010000: 524015 561428 622996 514320 517524
0111110110110001100010000: 524015 561428 622996 601066 557638
0111110110110001100010000: 524015 561428 622996 601066 517524
0110010011100000100001000: 553844 514320 564032 524015 544228
0110010011100100110001000: 553844 514320 479947 544228 524015
0111010101110001000001000: 553844 514320 561428 564032 544228
0110010010100010100000100: 553844 564032 514320 458588 544228
0110010010100010100000100: 553844 564032 514320 458588 524015
0110010011100000100001000: 553844 564032 514320 517524 458588
0110010010100010100000100: 553844 564032 514320 517524 544228
0110010011100000100001000: 553844 564032 514320 457661 458588
0110010010100010100000100: 553844 564032 514320 457661 544228
0110010010100010100000100: 553844 564032 514320 457661 524015
0110010011100000100001000: 553844 564032 479947 517524 458588
0110010011100000100001000: 553844 564032 479947 457661 458588
0110010011100100110001000: 553844 564032 561428 458588 517524
0110010010100010100000100: 553844 479947 514320 500428 524015
0110010011100100110001000: 553844 479947 514320 544228 500428
0110010010100010100000100: 553844 479947 564032 500428 458588
0110010010100010100000100: 553844 479947 564032 500428 457661
0110010010100010100100110: 553844 479947 564032 500428 517524
0110010011100000100001000: 553844 479947 564032 544228 500428
0110010010100010100000100: 553844 479947 564032 544228 458588
0110010010100010100000100: 553844 479947 564032 544228 517524
0110010010100010100000100: 553844 479947 564032 544228 457661
0111010101110001000001000: 553844 479947 561428 564032 500428
0111010101110001000001000: 553844 479947 561428 564032 544228
0110010010100010100000100: 553844 561428 564032 624779 517524
0110010011100000100001000: 553844 561428 564032 650191 624779
0110010010100010100000100: 553844 561428 564032 650191 517524
0110010011100000100001000: 553844 561428 564032 601066 624779
0110010011100000100001000: 553844 561428 564032 601066 650191
0110010010100010100000100: 553844 561428 564032 601066 517524
0110010011100000100001000: 553844 561428 564032 551708 650191
0110010011100000100001000: 553844 561428 564032 551708 601066
0110010010100010100000100: 553844 561428 564032 551708 517524
0110010011100000100001000: 553844 561428 564032 524015 624779
0110010011100000100001000: 553844 561428 564032 524015 650191
0110010011100000100001000: 553844 561428 564032 524015 551708
0110010011100000100001000: 553844 561428 564032 622996 624779
0110010011100000100001000: 553844 561428 564032 622996 650191
0110010011100000100001000: 553844 561428 564032 622996 601066
0110010011100000100001000: 553844 561428 564032 622996 551708
0110010010100010100000100: 553844 561428 564032 622996 517524
0110010011100100110001000: 553844 561428 564032 458588 624779
0110010011100100110001000: 553844 561428 564032 458588 650191
0110010011100100110001000: 553844 561428 564032 458588 601066
0110010011100100110001000: 553844 561428 564032 458588 551708
0110010011100100110001000: 553844 561428 564032 458588 524015
0110010011100100110001000: 553844 561428 564032 458588 622996
0111010100110001000100010: 553844 561428 514320 564032 517524
0111010100110001000100010: 553844 561428 479947 564032 517524
0111110110110001100010000: 553844 561428 479947 514320 564032
0110010011100000100001000: 479947 500428 544228 517524 557638
0110010011100000100001000: 479947 500428 553844 517524 557638
0110010011100000100001000: 479947 500428 561428 517524 557638
0110010010100010100000100: 479947 544228 500428 514320 557638
0110010010100010100000100: 479947 544228 500428 514320 517524
0110010010100010100000100: 479947 553844 500428 514320 557638
0110010010100010100000100: 479947 553844 500428 514320 517524
0110010011100000100001000: 479947 553844 500428 564032 514320
0110010010100010100000100: 479947 553844 500428 564032 557638
0110010011100100110001000: 479947 553844 544228 514320 564032
0110010010100010100000100: 479947 561428 500428 458588 557638
0110010010100010100000100: 479947 561428 500428 458588 517524
0110010011100000100001000: 479947 561428 500428 624779 458588
0110010010100010100000100: 479947 561428 500428 624779 557638
0110010010100010100000100: 479947 561428 500428 624779 517524
0110010011100000100001000: 479947 561428 500428 514320 458588
0110010011100000100001000: 479947 561428 500428 514320 624779
0110010010100010100000100: 479947 561428 500428 514320 557638
0110010010100010100000100: 479947 561428 500428 514320 517524
0110010011100000100001000: 479947 561428 500428 650191 458588
0110010011100000100001000: 479947 561428 500428 650191 624779
0110010011100000100001000: 479947 561428 500428 650191 514320
0110010010100010100000100: 479947 561428 500428 650191 557638
0110010010100010100000100: 479947 561428 500428 650191 517524
0110010011100000100001000: 479947 561428 500428 601066 458588
0110010011100000100001000: 479947 561428 500428 601066 624779
0110010011100000100001000: 479947 561428 500428 601066 514320
0110010011100000100001000: 479947 561428 500428 601066 650191
0110010010100010100000100: 479947 561428 500428 601066 557638
0110010010100010100000100: 479947 561428 500428 601066 517524
0110010011100000100001000: 479947 561428 500428 551708 458588
0110010011100000100001000: 479947 561428 500428 551708 514320
0110010011100000100001000: 479947 561428 500428 551708 650191
0110010011100000100001000: 479947 561428 500428 551708 601066
0110010010100010100000100: 479947 561428 500428 551708 557638
0110010010100010100000100: 479947 561428 500428 551708 517524
0110010011100000100001000: 479947 561428 500428 524015 458588
0110010011100000100001000: 479947 561428 500428 524015 624779
0110010011100000100001000: 479947 561428 500428 524015 650191
0110010011100000100001000: 479947 561428 500428 524015 551708
0110010011100000100001000: 479947 561428 500428 622996 458588
0110010011100000100001000: 479947 561428 500428 622996 624779
0110010011100000100001000: 479947 561428 500428 622996 514320
0110010011100000100001000: 479947 561428 500428 622996 650191
0110010011100000100001000: 479947 561428 500428 622996 601066
0110010011100000100001000: 479947 561428 500428 622996 551708
0110010010100010100000100: 479947 561428 500428 622996 557638
0110010010100010100000100: 479947 561428 500428 622996 517524
0110010011100000100001000: 479947 561428 500428 457661 458588
0110010011100000100001000: 479947 561428 500428 457661 624779
0110010011100000100001000: 479947 561428 500428 457661 514320
0110010011100000100001000: 479947 561428 500428 457661 650191
0110010011100000100001000: 479947 561428 500428 457661 601066
0110010011100000100001000: 479947 561428 500428 457661 524015
0110010011100000100001000: 479947 561428 500428 457661 622996
0110010010100010100000100: 479947 561428 500428 457661 557638
0110010011100000100001000: 479947 561428 544228 624779 458588
0110010011100000100001000: 479947 561428 544228 650191 458588
0110010011100000100001000: 479947 561428 544228 650191 624779
0110010011100000100001000: 479947 561428 544228 601066 458588
0110010011100000100001000: 479947 561428 544228 601066 624779
0110010011100000100001000: 479947 561428 544228 601066 650191
0110010011100000100001000: 479947 561428 544228 551708 458588
0110010011100000100001000: 479947 561428 544228 551708 650191
0110010011100000100001000: 479947 561428 544228 551708 601066
0110010011100000100001000: 479947 561428 544228 524015 458588
0110010011100000100001000: 479947 561428 544228 524015 624779
0110010011100000100001000: 479947 561428 544228 524015 650191
0110010011100000100001000: 479947 561428 544228 524015 551708
0110010011100000100001000: 479947 561428 544228 622996 458588
0110010011100000100001000: 479947 561428 544228 622996 624779
0110010011100000100001000: 479947 561428 544228 622996 650191
0110010011100000100001000: 479947 561428 544228 622996 601066
0110010011100000100001000: 479947 561428 544228 622996 551708
0110010011100000100001000: 479947 561428 544228 457661 458588
0110010011100000100001000: 479947 561428 544228 457661 624779
0110010011100000100001000: 479947 561428 544228 457661 650191
0110010011100000100001000: 479947 561428 544228 457661 601066
0110010011100000100001000: 479947 561428 544228 457661 524015
0110010011100000100001000: 479947 561428 544228 457661 622996
0110010011100100110001000: 479947 561428 544228 514320 458588
0110010011100100110001000: 479947 561428 544228 514320 624779
0110010011100100110001000: 479947 561428 544228 514320 650191
0110010011100100110001000: 479947 561428 544228 514320 601066
0110010011100100110001000: 479947 561428 544228 514320 551708
0110010011100100110001000: 479947 561428 544228 514320 622996
0110010011100100110001000: 479947 561428 544228 514320 457661
0111010100110001000100010: 479947 561428 553844 500428 557638
0111010100110001000100010: 479947 561428 553844 500428 517524
0111110100110001000010000: 479947 561428 553844 544228 500428
0110010010100010100000100: 551708 457661 624779 517524 643315
0110010010100010100000100: 551708 457661 624779 564032 643315
0110010011100000100001000: 564032 458588 517524 561428 530500
0110010010100010100000100: 564032 517524 458588 500428 530500
0110010010100010100000100: 564032 517524 458588 500428 561428
0110010011100000100001000: 564032 517524 458588 524015 500428
0110010010100010100000100: 564032 517524 458588 524015 530500
0110010011100000100001000: 564032 517524 553844 524015 500428
0111010101110001000001000: 564032 517524 457661 458588 500428
0111010101110001000001000: 564032 517524 457661 458588 524015
0111010101110001000001000: 564032 517524 457661 553844 500428
0111010101110001000001000: 564032 517524 457661 553844 524015
0110010010100010100000100: 564032 553844 458588 514320 530500
0110010011100000100001000: 564032 553844 458588 479947 514320
0110010010100010100000100: 564032 553844 458588 479947 530500
0110010010100010100000100: 564032 553844 517524 514320 500428
0110010011100000100001000: 564032 553844 517524 479947 514320
0110010010100010100000100: 564032 553844 517524 479947 524015
0110010010100010100000100: 564032 553844 517524 561428 500428
0110010011100000100001000: 564032 553844 457661 479947 514320
0110010010100010100000100: 564032 457661 458588 551708 530500
0110010010100010100000100: 564032 457661 553844 551708 514320
0110010010100010100000100: 564032 457661 553844 551708 479947
0111010100110001000100010: 564032 457661 517524 458588 530500
0111110100110001000010000: 564032 457661 517524 553844 458588
0111010100110001000100010: 564032 457661 517524 553844 514320
0111010100110001000100010: 564032 457661 517524 553844 479947
0110010010100010100000100: 643315 650191 624779 530500 551708
0110010010100010100000100: 643315 622996 624779 524015 551708
0110010010100010100000100: 643315 622996 650191 524015 530500
0110010010100010100000100: 650191 643315 530500 624779 458588
0110010011100000100001000: 650191 643315 530500 622996 624779
0110010010100010100000100: 650191 643315 530500 622996 458588
0110010011100000100001000: 650191 561428 530500 514320 624779
0110010011100000100001000: 650191 561428 530500 601066 624779
0110010011100000100001000: 650191 561428 530500 601066 514320
0110010011100000100001000: 650191 561428 530500 551708 514320
0110010011100000100001000: 650191 561428 530500 551708 601066
0110010011100000100001000: 650191 561428 530500 479947 624779
0110010011100000100001000: 650191 561428 530500 479947 514320
0110010011100000100001000: 650191 561428 530500 479947 601066
0110010011100000100001000: 650191 561428 530500 479947 551708
0110010011100000100001000: 650191 561428 530500 553844 624779
0110010011100000100001000: 650191 561428 530500 553844 601066
0110010011100000100001000: 650191 561428 530500 553844 551708
0110010011100000100001000: 650191 561428 530500 524015 624779
0110010011100000100001000: 650191 561428 530500 524015 551708
0110010011100000100001000: 650191 561428 530500 524015 479947
0110010011100000100001000: 650191 561428 530500 524015 553844
0110010011100000100001000: 650191 561428 530500 622996 624779
0110010011100000100001000: 650191 561428 530500 622996 514320
0110010011100000100001000: 650191 561428 530500 622996 601066
0110010011100000100001000: 650191 561428 530500 622996 551708
0110010011100000100001000: 650191 561428 530500 622996 479947
0110010011100000100001000: 650191 561428 530500 622996 553844
0110010011100000100001000: 650191 561428 530500 457661 624779
0110010011100000100001000: 650191 561428 530500 457661 514320
0110010011100000100001000: 650191 561428 530500 457661 601066
0110010011100000100001000: 650191 561428 530500 457661 479947
0110010011100000100001000: 650191 561428 530500 457661 553844
0110010011100000100001000: 650191 561428 530500 457661 524015
0110010011100000100001000: 650191 561428 530500 457661 622996
0110010011100100110001000: 650191 561428 530500 458588 624779
0110010011100100110001000: 650191 561428 530500 458588 514320
0110010011100100110001000: 650191 561428 530500 458588 601066
0110010011100100110001000: 650191 561428 530500 458588 551708
0110010011100100110001000: 650191 561428 530500 458588 479947
0110010011100100110001000: 650191 561428 530500 458588 553844
0110010011100100110001000: 650191 561428 530500 458588 524015
0110010011100100110001000: 650191 561428 530500 458588 622996
0110010011100100110001000: 650191 561428 530500 458588 457661
0110010011100000100001000: 650191 561428 643315 514320 458588
0110010011100000100001000: 650191 561428 643315 601066 458588
0110010011100000100001000: 650191 561428 643315 601066 514320
0110010011100000100001000: 650191 561428 643315 551708 458588
0110010011100000100001000: 650191 561428 643315 551708 514320
0110010011100000100001000: 650191 561428 643315 551708 601066
0110010011100000100001000: 650191 561428 643315 479947 458588
0110010011100000100001000: 650191 561428 643315 479947 514320
0110010011100000100001000: 650191 561428 643315 479947 601066
0110010011100000100001000: 650191 561428 643315 479947 551708
0110010011100000100001000: 650191 561428 643315 553844 458588
0110010011100000100001000: 650191 561428 643315 553844 601066
0110010011100000100001000: 650191 561428 643315 553844 551708
0110010011100000100001000: 650191 561428 643315 524015 458588
0110010011100000100001000: 650191 561428 643315 524015 551708
0110010011100000100001000: 650191 561428 643315 524015 479947
0110010011100000100001000: 650191 561428 643315 524015 553844
0110010011100000100001000: 650191 561428 643315 457661 458588
0110010011100000100001000: 650191 561428 643315 457661 514320
0110010011100000100001000: 650191 561428 643315 457661 601066
0110010011100000100001000: 650191 561428 643315 457661 479947
0110010011100000100001000: 650191 561428 643315 457661 553844
0110010011100000100001000: 650191 561428 643315 457661 524015
0110010011100100110001000: 650191 561428 643315 624779 458588
0110010011100100110001000: 650191 561428 643315 624779 514320
0110010011100100110001000: 650191 561428 643315 624779 601066
0110010011100100110001000: 650191 561428 643315 624779 479947
0110010011100100110001000: 650191 561428 643315 624779 553844
0110010011100100110001000: 650191 561428 643315 624779 524015
0110010011100100110001000: 650191 561428 643315 624779 457661
0110010011100000100001000: 514320 553844 524015 479947 564032
0110010010100010100000100: 514320 524015 544228 557638 479947
0110010011100000100001000: 514320 524015 544228 517524 557638
0110010010100010100000100: 514320 524015 544228 517524 479947
0110010011100000100001000: 514320 524015 544228 601066 557638
0110010011100000100001000: 514320 524015 544228 601066 517524
0110010010100010100000100: 514320 524015 544228 601066 479947
0110010011100000100001000: 514320 524015 544228 622996 557638
0110010011100000100001000: 514320 524015 544228 622996 517524
0110010011100000100001000: 514320 524015 544228 622996 601066
0110010010100010100000100: 514320 524015 544228 622996 479947
0110010010100010100000100: 514320 524015 553844 557638 564032
0110010010100010100000100: 514320 524015 553844 557638 479947
0110010011100000100001000: 514320 524015 553844 517524 557638
0110010010100010100000100: 514320 524015 553844 517524 479947
0110010011100000100001000: 514320 524015 553844 601066 557638
0110010011100000100001000: 514320 524015 553844 601066 517524
0110010010100010100000100: 514320 524015 553844 601066 564032
0110010010100010100000100: 514320 524015 553844 601066 479947
0110010011100000100001000: 514320 524015 553844 622996 557638
0110010011100000100001000: 514320 524015 553844 622996 517524
0110010011100000100001000: 514320 524015 553844 622996 601066
0110010010100010100000100: 514320 524015 553844 622996 564032
0110010010100010100000100: 514320 524015 553844 622996 479947
0110010011100000100001000: 514320 561428 544228 624779 458588
0110010011100000100001000: 514320 561428 544228 650191 458588
0110010011100000100001000: 514320 561428 544228 650191 624779
0110010011100000100001000: 514320 561428 544228 601066 458588
0110010011100000100001000: 514320 561428 544228 601066 624779
0110010011100000100001000: 514320 561428 544228 601066 650191
0110010011100000100001000: 514320 561428 544228 551708 458588
0110010011100000100001000: 514320 561428 544228 551708 650191
0110010011100000100001000: 514320 561428 544228 551708 601066
0110010011100000100001000: 514320 561428 544228 622996 458588
0110010011100000100001000: 514320 561428 544228 622996 624779
0110010011100000100001000: 514320 561428 544228 622996 650191
0110010011100000100001000: 514320 561428 544228 622996 601066
0110010011100000100001000: 514320 561428 544228 622996 551708
0110010011100000100001000: 514320 561428 544228 457661 458588
0110010011100000100001000: 514320 561428 544228 457661 624779
0110010011100000100001000: 514320 561428 544228 457661 650191
0110010011100000100001000: 514320 561428 544228 457661 601066
0110010011100000100001000: 514320 561428 544228 457661 622996
0111110110110001100010000: 514320 561428 524015 553844 544228
0110010010100010100000100: 544228 479947 514320 500428 524015
0110010011100000100001000: 624779 643315 551708 622996 650191
0110010010100010100000100: 624779 551708 643315 457661 650191
0110010010100010100000100: 624779 551708 643315 457661 622996
0110010011100000100001000: 624779 561428 643315 514320 458588
0110010011100000100001000: 624779 561428 643315 601066 458588
0110010011100000100001000: 624779 561428 643315 601066 514320
0110010011100000100001000: 624779 561428 643315 479947 458588
0110010011100000100001000: 624779 561428 643315 479947 514320
0110010011100000100001000: 624779 561428 643315 479947 601066
0110010011100000100001000: 624779 561428 643315 553844 458588
0110010011100000100001000: 624779 561428 643315 553844 601066
0110010011100000100001000: 624779 561428 643315 524015 458588
0110010011100000100001000: 624779 561428 643315 524015 479947
0110010011100000100001000: 624779 561428 643315 524015 553844
0110010011100000100001000: 624779 561428 643315 457661 458588
0110010011100000100001000: 624779 561428 643315 457661 514320
0110010011100000100001000: 624779 561428 643315 457661 601066
0110010011100000100001000: 624779 561428 643315 457661 479947
0110010011100000100001000: 624779 561428 643315 457661 553844
0110010011100000100001000: 624779 561428 643315 457661 524015
0110010011100000100001000: 517524 500428 564032 479947 557638
0110010011100100110001000: 517524 500428 524015 557638 479947
0110010011100000100001000: 517524 500428 457661 479947 557638
0110010010100010100000100: 517524 564032 500428 458588 557638
0110010010100010100000100: 517524 564032 500428 458588 479947
0110010011100000100001000: 517524 564032 500428 553844 458588
0110010010100010100000100: 517524 564032 500428 553844 557638
0110010011100000100001000: 517524 564032 524015 553844 458588
0110010010100010100000100: 517524 524015 500428 514320 479947
0110010011100000100001000: 517524 524015 500428 601066 514320
0110010010100010100000100: 517524 524015 500428 601066 479947
0110010011100000100001000: 517524 524015 500428 622996 514320
0110010011100000100001000: 517524 524015 500428 622996 601066
0110010010100010100000100: 517524 524015 500428 622996 479947
0110010011100100110001000: 517524 524015 500428 557638 514320
0110010011100100110001000: 517524 524015 500428 557638 601066
0110010011100100110001000: 517524 524015 500428 557638 622996
0110010011100100110001000: 517524 524015 500428 557638 561428
0110010010100010100000100: 517524 524015 564032 557638 458588
0110010010100010100000100: 517524 524015 564032 557638 553844
0110010011100000100001000: 517524 524015 564032 514320 557638
0110010010100010100000100: 517524 524015 564032 514320 458588
0110010011100000100001000: 517524 524015 564032 601066 557638
0110010011100000100001000: 517524 524015 564032 601066 514320
0110010010100010100000100: 517524 524015 564032 601066 458588
0110010010100010100000100: 517524 524015 564032 601066 553844
0110010011100000100001000: 517524 524015 564032 622996 557638
0110010011100000100001000: 517524 524015 564032 622996 514320
0110010011100000100001000: 517524 524015 564032 622996 601066
0110010010100010100000100: 517524 524015 564032 622996 458588
0110010010100010100000100: 517524 524015 564032 622996 553844
0110010011100000100001000: 517524 524015 564032 561428 557638
0110010011100000100001000: 517524 524015 457661 514320 557638
0110010011100000100001000: 517524 524015 457661 601066 557638
0110010011100000100001000: 517524 524015 457661 601066 514320
0110010011100000100001000: 517524 524015 457661 622996 557638
0110010011100000100001000: 517524 524015 457661 622996 514320
0110010011100000100001000: 517524 524015 457661 622996 601066
0110010010100010100000100: 517524 457661 500428 551708 557638
0110010010100010100000100: 517524 457661 500428 551708 479947
0110010010100010100000100: 517524 457661 500428 561428 557638
0110010010100010100000100: 517524 457661 524015 551708 557638
0110010010100010100000100: 517524 457661 524015 551708 514320
0110010010100010100000100: 517524 457661 524015 551708 601066
0110010010100010100000100: 517524 457661 524015 551708 622996
0111010100110001000100010: 517524 457661 564032 500428 557638
0111010100110001000100010: 517524 457661 564032 500428 479947
0111110100110001000010000: 517524 457661 564032 524015 500428
0111010100110001000100010: 517524 457661 564032 524015 557638
0111010100110001000100010: 517524 457661 564032 524015 514320
0111010100110001000100010: 517524 457661 564032 524015 601066
0111010100110001000100010: 517524 457661 564032 524015 622996
0110010011100000100001000: 500428 557638 479947 524015 604912
0110010010100010100000100: 500428 517524 557638 564032 604912
0110010010100010100000100: 500428 517524 557638 457661 604912
0110010011100000100001000: 500428 517524 479947 524015 564032
0110010011100000100001000: 500428 517524 479947 457661 524015
0110010010100010100000100: 500428 479947 557638 544228 604912
0110010010100010100000100: 500428 479947 557638 544228 524015
0110010011100000100001000: 500428 479947 557638 553844 544228
0110010010100010100000100: 500428 479947 557638 553844 604912
0110010010100010100000100: 500428 479947 557638 553844 524015
0110010011100000100001000: 500428 479947 557638 561428 544228
0110010010100010100000100: 500428 479947 557638 561428 604912
0110010010100010100000100: 500428 479947 517524 544228 564032
0110010010100010100000100: 500428 479947 517524 544228 524015
0110010010100010100000100: 500428 479947 517524 544228 457661
0110010011100000100001000: 500428 479947 517524 553844 544228
0110010010100010100000100: 500428 479947 517524 553844 524015
0110010010100010100000100: 500428 479947 517524 553844 457661
0110010011100000100001000: 500428 479947 517524 561428 544228
0110010010100010100000100: 500428 479947 517524 561428 564032
0110010011100000100001000: 557638 500428 604912 479947 517524
0110010011100000100001000: 557638 524015 604912 514320 517524
0110010011100000100001000: 557638 524015 604912 601066 517524
0110010011100000100001000: 557638 524015 604912 601066 514320
0110010011100000100001000: 557638 524015 604912 622996 517524
0110010011100000100001000: 557638 524015 604912 622996 514320
0110010011100000100001000: 557638 524015 604912 622996 601066
0110010011100000100001000: 557638 524015 604912 561428 517524
0110010010100010100000100: 557638 524015 500428 514320 479947
0110010011100000100001000: 557638 524015 500428 601066 514320
0110010010100010100000100: 557638 524015 500428 601066 479947
0110010011100000100001000: 557638 524015 500428 622996 514320
0110010011100000100001000: 557638 524015 500428 622996 601066
0110010010100010100000100: 557638 524015 500428 622996 479947
0110010010100010100000100: 530500 650191 458588 643315 564032
0110010010100010100000100: 458588 564032 530500 517524 650191
0110010011100000100001000: 458588 564032 530500 553844 517524
0110010010100010100000100: 458588 564032 530500 553844 650191
0110010011100000100001000: 458588 564032 530500 457661 553844
0110010010100010100000100: 458588 564032 530500 457661 650191
0110010011100000100001000: 458588 561428 530500 514320 624779
0110010011100000100001000: 458588 561428 530500 601066 624779
0110010011100000100001000: 458588 561428 530500 601066 514320
0110010011100000100001000: 458588 561428 530500 551708 514320
0110010011100000100001000: 458588 561428 530500 551708 601066
0110010011100000100001000: 458588 561428 530500 479947 624779
0110010011100000100001000: 458588 561428 530500 479947 514320
0110010011100000100001000: 458588 561428 530500 479947 601066
0110010011100000100001000: 458588 561428 530500 479947 551708
0110010011100000100001000: 458588 561428 530500 553844 624779
0110010011100000100001000: 458588 561428 530500 553844 601066
0110010011100000100001000: 458588 561428 530500 553844 551708
0110010011100000100001000: 458588 561428 530500 524015 624779
0110010011100000100001000: 458588 561428 530500 524015 551708
0110010011100000100001000: 458588 561428 530500 524015 479947
0110010011100000100001000: 458588 561428 530500 524015 553844
0110010011100000100001000: 458588 561428 530500 622996 624779
0110010011100000100001000: 458588 561428 530500 622996 514320
0110010011100000100001000: 458588 561428 530500 622996 601066
0110010011100000100001000: 458588 561428 530500 622996 551708
0110010011100000100001000: 458588 561428 530500 622996 479947
0110010011100000100001000: 458588 561428 530500 622996 553844
0110010011100000100001000: 458588 561428 530500 457661 624779
0110010011100000100001000: 458588 561428 530500 457661 514320
0110010011100000100001000: 458588 561428 530500 457661 601066
0110010011100000100001000: 458588 561428 530500 457661 479947
0110010011100000100001000: 458588 561428 530500 457661 553844
0110010011100000100001000: 458588 561428 530500 457661 524015
0110010011100000100001000: 458588 561428 530500 457661 622996
0110010010100010100000100: 458588 561428 564032 624779 517524
0110010011100000100001000: 458588 561428 564032 514320 624779
0110010010100010100000100: 458588 561428 564032 514320 517524
0110010011100000100001000: 458588 561428 564032 650191 624779
0110010011100000100001000: 458588 561428 564032 650191 514320
0110010010100010100000100: 458588 561428 564032 650191 517524
0110010011100000100001000: 458588 561428 564032 601066 624779
0110010011100000100001000: 458588 561428 564032 601066 514320
0110010011100000100001000: 458588 561428 564032 601066 650191
0110010010100010100000100: 458588 561428 564032 601066 517524
0110010011100000100001000: 458588 561428 564032 551708 514320
0110010011100000100001000: 458588 561428 564032 551708 650191
0110010011100000100001000: 458588 561428 564032 551708 601066
0110010010100010100000100: 458588 561428 564032 551708 517524
0110010011100000100001000: 458588 561428 564032 479947 624779
0110010011100000100001000: 458588 561428 564032 479947 514320
0110010011100000100001000: 458588 561428 564032 479947 650191
0110010011100000100001000: 458588 561428 564032 479947 601066
0110010011100000100001000: 458588 561428 564032 479947 551708
0110010010100010100000100: 458588 561428 564032 479947 517524
0110010011100000100001000: 458588 561428 564032 524015 624779
0110010011100000100001000: 458588 561428 564032 524015 650191
0110010011100000100001000: 458588 561428 564032 524015 551708
0110010011100000100001000: 458588 561428 564032 524015 479947
0110010011100000100001000: 458588 561428 564032 622996 624779
0110010011100000100001000: 458588 561428 564032 622996 514320
0110010011100000100001000: 458588 561428 564032 622996 650191
0110010011100000100001000: 458588 561428 564032 622996 601066
0110010011100000100001000: 458588 561428 564032 622996 551708
0110010011100000100001000: 458588 561428 564032 622996 479947
0110010010100010100000100: 458588 561428 564032 622996 517524
