0110010011100100110001000: 566125 516022 468379 564950 491649
0110010011100000100001000: 566125 481950 516022 497799 493293
0110010011100000100001000: 566125 481950 516022 497799 565992
0110010011100100110001000: 566125 481950 516022 491649 493293
0110010011100100110001000: 566125 481950 516022 491649 565992
0110010011100100110001000: 566125 481950 516022 491649 497799
0110010011100100110001000: 566125 481950 516022 564950 565992
0110010011100100110001000: 566125 481950 516022 564950 497799
0110010011100110110001100: 566125 481950 516022 564950 491649
0110010011100000100001000: 566125 481950 468379 493293 491649
0110010011100000100001000: 566125 481950 468379 565992 491649
0110010011100000100001000: 566125 481950 468379 497799 491649
0110010011100000100001000: 566125 481950 468379 497799 493293
0110010011100000100001000: 566125 481950 468379 497799 565992
0110010011100100110001000: 566125 481950 468379 564950 491649
0110010011100100110001000: 566125 481950 468379 564950 565992
0110010011100100110001000: 566125 481950 468379 564950 497799
0110010010100010100000100: 566125 468379 516022 548771 491649
0110010011100000100001000: 566125 468379 516022 503054 548771
0110010010100010100000100: 566125 468379 516022 503054 491649
0110010011100100110001000: 566125 468379 516022 564950 548771
0110010010100010100000100: 566125 468379 481950 548771 491649
0110010010100010100000100: 566125 468379 481950 548771 493293
0110010010100010100000100: 566125 468379 481950 548771 565992
0110010010100010100100110: 566125 468379 481950 548771 497799
0110010011100000100001000: 566125 468379 481950 503054 548771
0110010010100010100000100: 566125 468379 481950 503054 491649
0110010010100010100000100: 566125 468379 481950 503054 493293
0110010010100010100100110: 566125 468379 481950 503054 565992
0110010010100010100100110: 566125 468379 481950 503054 497799
0110010011100100110001000: 566125 468379 481950 564950 548771
0110010011100100110001000: 468379 548771 503054 497799 649658
0110010011100000100001000: 468379 548771 564950 497799 649658
0110010011100000100001000: 468379 548771 566125 497799 649658
0110010010100010100000100: 468379 503054 548771 545270 649658
0110010011100000100001000: 468379 503054 548771 565992 545270
0110010010100010100000100: 468379 503054 548771 565992 649658
0110010011100100110001000: 468379 503054 548771 497799 545270
0110010011100100110001000: 468379 503054 548771 497799 565992
0110010011100000100001000: 468379 503054 566125 565992 545270
0110010011100000100001000: 468379 503054 566125 497799 545270
0110010011100000100001000: 468379 503054 566125 497799 565992
0111010101110001000001000: 468379 503054 564950 548771 565992
0111010101110001000101010: 468379 503054 564950 548771 497799
0111010101110001000001000: 468379 503054 564950 566125 565992
0111010101110001000001000: 468379 503054 564950 566125 497799
0110010010100010100000100: 468379 564950 548771 463048 649658
0110010010100010100000100: 468379 564950 548771 463048 497799
0110010011100000100001000: 468379 564950 548771 534086 463048
0110010010100010100000100: 468379 564950 548771 534086 649658
0110010010100010100100110: 468379 564950 548771 534086 497799
0110010011100000100001000: 468379 564950 548771 464389 463048
0110010011100000100001000: 468379 564950 548771 464389 534086
0110010010100010100000100: 468379 564950 548771 464389 649658
0110010010100010100000100: 468379 564950 548771 464389 497799
0110010011100000100001000: 468379 564950 548771 545270 463048
0110010011100000100001000: 468379 564950 548771 545270 534086
0110010011100000100001000: 468379 564950 548771 545270 464389
0110010010100010100000100: 468379 564950 548771 545270 649658
0110010010100010100000100: 468379 564950 548771 545270 497799
0110010011100000100001000: 468379 564950 548771 516022 463048
0110010011100000100001000: 468379 564950 548771 516022 534086
0110010011100000100001000: 468379 564950 548771 516022 464389
0110010011100000100001000: 468379 564950 548771 516022 545270
0110010010100010100000100: 468379 564950 548771 516022 649658
0110010010100010100000100: 468379 564950 548771 516022 497799
0110010011100000100001000: 468379 564950 548771 484459 534086
0110010011100000100001000: 468379 564950 548771 484459 464389
0110010011100000100001000: 468379 564950 548771 484459 545270
0110010011100000100001000: 468379 564950 548771 484459 516022
0110010010100010100000100: 468379 564950 548771 484459 649658
0110010010100010100000100: 468379 564950 548771 484459 497799
0110010011100000100001000: 468379 564950 548771 493293 463048
0110010011100000100001000: 468379 564950 548771 493293 534086
0110010011100000100001000: 468379 564950 548771 493293 464389
0110010011100000100001000: 468379 564950 548771 493293 545270
0110010011100000100001000: 468379 564950 548771 493293 516022
0110010011100000100001000: 468379 564950 548771 493293 484459
0110010010100010100000100: 468379 564950 548771 493293 649658
0110010010100010100000100: 468379 564950 548771 493293 497799
0110010011100000100001000: 468379 564950 548771 481950 463048
0110010011100000100001000: 468379 564950 548771 481950 534086
0110010011100000100001000: 468379 564950 548771 481950 464389
0110010011100000100001000: 468379 564950 548771 481950 545270
0110010011100000100001000: 468379 564950 548771 481950 516022
0110010011100000100001000: 468379 564950 548771 481950 484459
0110010010100010100000100: 468379 564950 548771 481950 649658
0110010010100010100100110: 468379 564950 548771 481950 497799
0110010011100000100001000: 468379 564950 566125 534086 463048
0110010011100000100001000: 468379 564950 566125 464389 463048
0110010011100000100001000: 468379 564950 566125 464389 534086
0110010011100000100001000: 468379 564950 566125 545270 463048
0110010011100000100001000: 468379 564950 566125 545270 534086
0110010011100000100001000: 468379 564950 566125 545270 464389
0110010011100000100001000: 468379 564950 566125 484459 534086
0110010011100000100001000: 468379 564950 566125 484459 464389
0110010011100000100001000: 468379 564950 566125 484459 545270
0110010011100000100001000: 468379 564950 566125 493293 463048
0110010011100000100001000: 468379 564950 566125 493293 534086
0110010011100000100001000: 468379 564950 566125 493293 464389
0110010011100000100001000: 468379 564950 566125 493293 545270
0110010011100000100001000: 468379 564950 566125 493293 484459
0110010011100100110001000: 468379 564950 566125 516022 463048
0110010011100100110001000: 468379 564950 566125 516022 534086
0110010011100100110001000: 468379 564950 566125 516022 464389
0110010011100100110001000: 468379 564950 566125 516022 545270
0110010011100100110001000: 468379 564950 566125 516022 484459
0110010011100100110001000: 468379 564950 566125 516022 493293
0110010011100100110001000: 468379 564950 566125 481950 463048
0110010011100100110001000: 468379 564950 566125 481950 534086
0110010011100100110001000: 468379 564950 566125 481950 464389
0110010011100100110001000: 468379 564950 566125 481950 545270
0110010011100100110001000: 468379 564950 566125 481950 484459
0111010101110001000001000: 468379 564950 503054 548771 463048
0111010101110001000001000: 468379 564950 503054 548771 534086
0111010101110001000001000: 468379 564950 503054 548771 464389
0111010101110001000001000: 468379 564950 503054 548771 516022
0111010101110001000001000: 468379 564950 503054 548771 484459
0111010101110001000001000: 468379 564950 503054 548771 493293
0111010101110001000001000: 468379 564950 503054 548771 481950
0111010100110001000100010: 468379 564950 503054 548771 649658
0111110100110001000010000: 468379 564950 503054 566125 548771
0111010101110001000001000: 468379 564950 503054 566125 463048
0111010101110001000001000: 468379 564950 503054 566125 534086
0111010101110001000001000: 468379 564950 503054 566125 464389
0111010101110001000001000: 468379 564950 503054 566125 484459
0111010101110001000001000: 468379 564950 503054 566125 493293
0111010101110001000101010: 468379 564950 503054 566125 516022
0111010101110001000101010: 468379 564950 503054 566125 481950
0110010010100010100000100: 468379 566125 548771 516022 649658
0110010010100010100000100: 468379 566125 548771 516022 497799
0110010011100000100001000: 468379 566125 548771 481950 516022
0110010010100010100000100: 468379 566125 548771 481950 649658
0110010010100010100000100: 468379 566125 503054 516022 545270
0110010010100010100000100: 468379 566125 503054 516022 565992
0110010010100010100000100: 468379 566125 503054 516022 497799
0110010011100000100001000: 468379 566125 503054 481950 516022
0110010010100010100000100: 468379 566125 503054 481950 545270
0110010011100110110001100: 468379 566125 564950 481950 516022
0111010101110001000101010: 564950 463048 484459 534086 479819
0111010101110001000001000: 564950 463048 484459 464389 479819
0111010101110001000001000: 564950 463048 484459 545270 479819
0111010101110001000001000: 564950 463048 484459 516022 479819
0111010101110001000001000: 564950 463048 484459 493293 479819
0111010101110001000001000: 564950 463048 484459 481950 479819
0111010101110001000001000: 564950 463048 484459 503054 479819
0111010101110001000001000: 564950 463048 484459 468379 479819
0110010011100100110001000: 564950 534086 463048 479819 497799
0110010011100000100001000: 564950 534086 464389 497799 479819
0110010011100000100001000: 564950 534086 545270 497799 479819
0110010011100000100001000: 564950 534086 516022 497799 479819
0110010011100000100001000: 564950 534086 484459 497799 479819
0110010011100000100001000: 564950 534086 493293 497799 479819
0110010011100100110001000: 564950 534086 481950 497799 479819
0110010011100100110001000: 564950 534086 503054 497799 479819
0110010011100000100001000: 564950 534086 468379 497799 479819
0110010010100010100000100: 564950 464389 463048 649926 479819
0110010010100010100000100: 564950 464389 534086 649926 479819
0110010010100010100100110: 564950 464389 534086 649926 497799
0110010010100010100000100: 564950 545270 463048 649926 479819
0110010010100010100000100: 564950 545270 534086 649926 479819
0110010010100010100100110: 564950 545270 534086 649926 497799
0111110000100001000010000: 564950 545270 464389 534086 463048
0111010101110001000001000: 564950 545270 503054 463048 649926
0111010101110001000001000: 564950 545270 503054 534086 649926
0111010101110001000101010: 564950 545270 503054 464389 649926
0111010101110001000001000: 564950 545270 503054 516022 649926
0111010101110001000001000: 564950 545270 503054 484459 649926
0111010101110001000001000: 564950 545270 503054 493293 649926
0111010101110001000001000: 564950 545270 503054 481950 649926
0110010010100010100000100: 564950 516022 463048 491649 479819
0110010011100000100001000: 564950 516022 463048 566125 491649
0110010010100010100000100: 564950 516022 463048 566125 479819
0110010010100010100000100: 564950 516022 534086 491649 479819
0110010010100010100000100: 564950 516022 534086 491649 497799
0110010011100000100001000: 564950 516022 534086 566125 491649
0110010010100010100000100: 564950 516022 534086 566125 479819
0110010010100010100000100: 564950 516022 534086 566125 497799
0111110000100001000010000: 564950 516022 464389 534086 463048
0110010010100010100000100: 564950 516022 464389 491649 649926
0110010011100000100001000: 564950 516022 464389 566125 491649
0110010010100010100000100: 564950 516022 464389 566125 649926
0111110000100001000010000: 564950 516022 545270 534086 463048
0111110000100001000010000: 564950 516022 545270 464389 463048
0111110000100001000010000: 564950 516022 545270 464389 534086
0110010010100010100000100: 564950 516022 545270 491649 649926
0110010011100000100001000: 564950 516022 545270 566125 491649
0110010010100010100000100: 564950 516022 545270 566125 649926
0110010011100100110001000: 564950 516022 484459 491649 566125
0110010011100000100001000: 564950 516022 493293 566125 491649
0110010011100000100001000: 564950 516022 503054 566125 491649
0110010010100010100000100: 564950 484459 534086 536599 479819
0110010010100010100000100: 564950 484459 534086 536599 497799
0110010011100000100001000: 564950 484459 534086 491649 536599
0110010010100010100000100: 564950 484459 534086 491649 479819
0110010010100010100000100: 564950 484459 534086 491649 497799
0110010010100010100000100: 564950 484459 464389 536599 649926
0110010011100000100001000: 564950 484459 464389 491649 536599
0110010010100010100000100: 564950 484459 464389 491649 649926
0111110000100001000010000: 564950 484459 545270 464389 534086
0110010010100010100000100: 564950 484459 545270 536599 649926
0110010011100000100001000: 564950 484459 545270 491649 536599
0110010010100010100000100: 564950 484459 545270 491649 649926
0111110000100001000010000: 564950 484459 516022 464389 534086
0111110000100001000010000: 564950 484459 516022 545270 534086
0111110000100001000010000: 564950 484459 516022 545270 464389
0110010010100010100000100: 564950 484459 516022 536599 566125
0110010011100100110001000: 564950 484459 516022 491649 536599
0110010011100000100001000: 564950 484459 493293 491649 536599
0110010011100100110001000: 564950 484459 481950 491649 536599
0110010011100000100001000: 564950 484459 503054 491649 536599
0110010011100000100001000: 564950 484459 468379 491649 536599
0111010101110001000001000: 564950 484459 463048 534086 536599
0111010101110001000001000: 564950 484459 463048 534086 491649
0111010100110001000100010: 564950 484459 463048 534086 497799
0111110100110001000010000: 564950 484459 463048 464389 534086
0111010101110001000001000: 564950 484459 463048 464389 536599
0111010101110001000001000: 564950 484459 463048 464389 491649
0111010100110001000100010: 564950 484459 463048 464389 649926
0111110100110001000010000: 564950 484459 463048 545270 534086
0111110100110001000010000: 564950 484459 463048 545270 464389
0111010101110001000001000: 564950 484459 463048 545270 536599
0111010101110001000001000: 564950 484459 463048 545270 491649
0111010100110001000100010: 564950 484459 463048 545270 649926
0111110100110001000010000: 564950 484459 463048 516022 534086
0111110100110001000010000: 564950 484459 463048 516022 464389
0111110100110001000010000: 564950 484459 463048 516022 545270
0111010101110001000001000: 564950 484459 463048 516022 536599
0111010100110001000100010: 564950 484459 463048 516022 566125
0111010101110001000101010: 564950 484459 463048 516022 491649
0111110100110001000010000: 564950 484459 463048 493293 534086
0111110100110001000010000: 564950 484459 463048 493293 464389
0111110100110001000010000: 564950 484459 463048 493293 545270
0111110100110001000010000: 564950 484459 463048 493293 516022
0111010101110001000001000: 564950 484459 463048 493293 536599
0111010101110001000001000: 564950 484459 463048 493293 491649
0111010100110001000100010: 564950 484459 463048 493293 568430
0111010100110001000100010: 564950 484459 463048 493293 565992
0111110100110001000010000: 564950 484459 463048 481950 534086
0111110100110001000010000: 564950 484459 463048 481950 464389
0111110100110001000010000: 564950 484459 463048 481950 545270
0111110100110001000010000: 564950 484459 463048 481950 516022
0111010101110001000001000: 564950 484459 463048 481950 536599
0111010100110001000100010: 564950 484459 463048 481950 565992
0111010100110001000100010: 564950 484459 463048 481950 497799
0111010100110001000100010: 564950 484459 463048 481950 566125
0111010101110001000101010: 564950 484459 463048 481950 491649
0111110100110001000010000: 564950 484459 463048 503054 534086
0111110100110001000010000: 564950 484459 463048 503054 464389
0111110100110001000010000: 564950 484459 463048 503054 516022
0111110100110001000010000: 564950 484459 463048 503054 493293
0111110100110001000010000: 564950 484459 463048 503054 481950
0111010101110001000001000: 564950 484459 463048 503054 536599
0111010101110001000001000: 564950 484459 463048 503054 491649
0111010100110001000100010: 564950 484459 463048 503054 565992
0111010100110001000100010: 564950 484459 463048 503054 497799
0111110100110001000010000: 564950 484459 463048 468379 534086
0111110100110001000010000: 564950 484459 463048 468379 464389
0111110100110001000010000: 564950 484459 463048 468379 545270
0111110100110001000010000: 564950 484459 463048 468379 516022
0111110100110001000010000: 564950 484459 463048 468379 493293
0111110100110001000010000: 564950 484459 463048 468379 481950
0111010101110001000001000: 564950 484459 463048 468379 536599
0111010101110001000001000: 564950 484459 463048 468379 491649
0111010100110001000100010: 564950 484459 463048 468379 548771
0111010100110001000100010: 564950 484459 463048 468379 566125
0110010010100010100000100: 564950 493293 463048 568430 479819
0110010011100000100001000: 564950 493293 463048 565992 568430
0110010010100010100000100: 564950 493293 463048 565992 479819
0110010010100010100000100: 564950 493293 534086 568430 479819
0110010010100010100100110: 564950 493293 534086 568430 497799
0110010011100000100001000: 564950 493293 534086 565992 568430
0110010010100010100000100: 564950 493293 534086 565992 479819
0110010010100010100000100: 564950 493293 534086 565992 497799
0111110000100001000010000: 564950 493293 464389 534086 463048
0110010010100010100000100: 564950 493293 464389 568430 649926
0110010011100000100001000: 564950 493293 464389 565992 568430
0110010010100010100000100: 564950 493293 464389 565992 649926
0111110000100001000010000: 564950 493293 545270 534086 463048
0111110000100001000010000: 564950 493293 545270 464389 463048
0111110000100001000010000: 564950 493293 545270 464389 534086
0110010010100010100000100: 564950 493293 545270 568430 649926
0110010011100000100001000: 564950 493293 545270 565992 568430
0110010010100010100000100: 564950 493293 545270 565992 649926
0111110000100001000010000: 564950 493293 516022 534086 463048
0111110000100001000010000: 564950 493293 516022 464389 463048
0111110000100001000010000: 564950 493293 516022 464389 534086
0111110000100001000010000: 564950 493293 516022 545270 463048
0111110000100001000010000: 564950 493293 516022 545270 534086
0111110000100001000010000: 564950 493293 516022 545270 464389
0110010010100010100000100: 564950 493293 516022 568430 491649
0110010010100010100000100: 564950 493293 516022 568430 566125
0110010011100000100001000: 564950 493293 516022 565992 568430
0110010010100010100000100: 564950 493293 516022 565992 491649
0110010010100010100000100: 564950 493293 516022 565992 566125
0111110000100001000010000: 564950 493293 484459 464389 534086
0111110000100001000010000: 564950 493293 484459 545270 534086
0111110000100001000010000: 564950 493293 484459 545270 464389
0111110000100001000010000: 564950 493293 484459 516022 534086
0111110000100001000010000: 564950 493293 484459 516022 464389
0111110000100001000010000: 564950 493293 484459 516022 545270
0110010010100010100000100: 564950 493293 484459 568430 536599
0110010010100010100000100: 564950 493293 484459 568430 491649
0110010011100000100001000: 564950 493293 484459 565992 568430
0110010010100010100000100: 564950 493293 484459 565992 536599
0110010010100010100000100: 564950 493293 484459 565992 491649
0110010011100100110001000: 564950 493293 503054 565992 568430
0110010011100000100001000: 564950 493293 468379 565992 568430
0111010101110001000001000: 564950 493293 481950 463048 568430
0111010101110001000001000: 564950 493293 481950 534086 568430
0111010101110001000001000: 564950 493293 481950 464389 568430
0111010101110001000001000: 564950 493293 481950 545270 568430
0111010101110001000001000: 564950 493293 481950 516022 568430
0111010101110001000001000: 564950 493293 481950 484459 568430
0111010101110001000001000: 564950 493293 481950 503054 568430
0111010101110001000001000: 564950 493293 481950 468379 568430
0110010010100010100000100: 564950 481950 463048 491649 479819
0110010011100000100001000: 564950 481950 463048 565992 491649
0110010010100010100000100: 564950 481950 463048 565992 479819
0110010011100000100001000: 564950 481950 463048 497799 491649
0110010011100000100001000: 564950 481950 463048 497799 565992
0110010010100010100000100: 564950 481950 463048 497799 479819
0110010011100000100001000: 564950 481950 463048 566125 491649
0110010011100000100001000: 564950 481950 463048 566125 565992
0110010011100000100001000: 564950 481950 463048 566125 497799
0110010010100010100000100: 564950 481950 463048 566125 479819
0110010010100010100000100: 564950 481950 534086 491649 479819
0110010011100000100001000: 564950 481950 534086 565992 491649
0110010010100010100000100: 564950 481950 534086 565992 479819
0110010011100000100001000: 564950 481950 534086 566125 491649
0110010011100000100001000: 564950 481950 534086 566125 565992
0110010010100010100000100: 564950 481950 534086 566125 479819
0110010011100100110001000: 564950 481950 534086 497799 491649
0110010011100100110001000: 564950 481950 534086 497799 565992
0110010011100100110001000: 564950 481950 534086 497799 566125
0111110000100001000010000: 564950 481950 464389 534086 463048
0110010010100010100000100: 564950 481950 464389 491649 649926
0110010011100000100001000: 564950 481950 464389 565992 491649
0110010010100010100000100: 564950 481950 464389 565992 649926
0110010011100000100001000: 564950 481950 464389 497799 491649
0110010011100000100001000: 564950 481950 464389 497799 565992
0110010010100010100100110: 564950 481950 464389 497799 649926
0110010011100000100001000: 564950 481950 464389 566125 491649
0110010011100000100001000: 564950 481950 464389 566125 565992
0110010011100000100001000: 564950 481950 464389 566125 497799
0110010010100010100000100: 564950 481950 464389 566125 649926
0111110000100001000010000: 564950 481950 545270 534086 463048
0111110000100001000010000: 564950 481950 545270 464389 463048
0111110000100001000010000: 564950 481950 545270 464389 534086
0110010010100010100000100: 564950 481950 545270 491649 649926
0110010011100000100001000: 564950 481950 545270 565992 491649
0110010010100010100000100: 564950 481950 545270 565992 649926
0110010011100000100001000: 564950 481950 545270 497799 491649
0110010011100000100001000: 564950 481950 545270 497799 565992
0110010010100010100100110: 564950 481950 545270 497799 649926
0110010011100000100001000: 564950 481950 545270 566125 491649
0110010011100000100001000: 564950 481950 545270 566125 565992
0110010011100000100001000: 564950 481950 545270 566125 497799
0110010010100010100000100: 564950 481950 545270 566125 649926
0111110000100001000010000: 564950 481950 516022 534086 463048
0111110000100001000010000: 564950 481950 516022 464389 463048
0111110000100001000010000: 564950 481950 516022 464389 534086
0111110000100001000010000: 564950 481950 516022 545270 463048
0111110000100001000010000: 564950 481950 516022 545270 534086
0111110000100001000010000: 564950 481950 516022 545270 464389
0110010011100000100001000: 564950 481950 516022 497799 565992
0110010011100100110001000: 564950 481950 516022 491649 565992
0110010011100100110001000: 564950 481950 516022 491649 497799
0111110000100001000010000: 564950 481950 484459 464389 534086
0111110000100001000010000: 564950 481950 484459 545270 534086
0111110000100001000010000: 564950 481950 484459 545270 464389
0111110000100001000010000: 564950 481950 484459 516022 534086
0111110000100001000010000: 564950 481950 484459 516022 464389
0111110000100001000010000: 564950 481950 484459 516022 545270
0110010010100010100000100: 564950 481950 484459 565992 536599
0110010011100000100001000: 564950 481950 484459 497799 565992
0110010010100010100000100: 564950 481950 484459 497799 536599
0110010011100000100001000: 564950 481950 484459 566125 565992
0110010011100000100001000: 564950 481950 484459 566125 497799
0110010010100010100000100: 564950 481950 484459 566125 536599
0110010011100100110001000: 564950 481950 484459 491649 565992
0110010011100100110001000: 564950 481950 484459 491649 497799
0110010011100100110001000: 564950 481950 484459 491649 566125
0110010011100000100001000: 564950 481950 503054 566125 491649
0110010011100100110001000: 564950 481950 503054 565992 491649
0110010011100100110001000: 564950 481950 503054 565992 566125
0110010011100100110001000: 564950 481950 503054 497799 491649
0110010011100100110001000: 564950 481950 503054 497799 566125
0110010011100000100001000: 564950 481950 468379 565992 491649
0110010011100000100001000: 564950 481950 468379 497799 491649
0110010011100000100001000: 564950 481950 468379 497799 565992
0111010101110001000001000: 564950 481950 493293 463048 491649
0111010101110001000001000: 564950 481950 493293 463048 497799
0111010101110001000001000: 564950 481950 493293 463048 566125
0111010100110001000100010: 564950 481950 493293 463048 479819
0111110100110001000010000: 564950 481950 493293 534086 463048
0111010101110001000001000: 564950 481950 493293 534086 491649
0111010101110001000001000: 564950 481950 493293 534086 566125
0111010100110001000100010: 564950 481950 493293 534086 479819
0111010101110001000101010: 564950 481950 493293 534086 497799
0111110100110001000010000: 564950 481950 493293 464389 463048
0111110100110001000010000: 564950 481950 493293 464389 534086
0111010101110001000001000: 564950 481950 493293 464389 491649
0111010101110001000001000: 564950 481950 493293 464389 497799
0111010101110001000001000: 564950 481950 493293 464389 566125
0111010100110001000100010: 564950 481950 493293 464389 649926
0111110100110001000010000: 564950 481950 493293 545270 463048
0111110100110001000010000: 564950 481950 493293 545270 534086
0111110100110001000010000: 564950 481950 493293 545270 464389
0111010101110001000001000: 564950 481950 493293 545270 491649
0111010101110001000001000: 564950 481950 493293 545270 497799
0111010101110001000001000: 564950 481950 493293 545270 566125
0111010100110001000100010: 564950 481950 493293 545270 649926
0111110100110001000010000: 564950 481950 493293 516022 463048
0111110100110001000010000: 564950 481950 493293 516022 534086
0111110100110001000010000: 564950 481950 493293 516022 464389
0111110100110001000010000: 564950 481950 493293 516022 545270
0111010101110001000001000: 564950 481950 493293 516022 497799
0111010101110001000101010: 564950 481950 493293 516022 491649
0111010101110001000101010: 564950 481950 493293 516022 566125
0111110100110001000010000: 564950 481950 493293 484459 534086
0111110100110001000010000: 564950 481950 493293 484459 464389
0111110100110001000010000: 564950 481950 493293 484459 545270
0111110100110001000010000: 564950 481950 493293 484459 516022
0111010101110001000001000: 564950 481950 493293 484459 497799
0111010101110001000001000: 564950 481950 493293 484459 566125
0111010100110001000100010: 564950 481950 493293 484459 536599
0111110100110001000110010: 564950 481950 493293 484459 463048
0111010101110001000101010: 564950 481950 493293 484459 491649
0111110100110001000010000: 564950 481950 493293 503054 463048
0111110100110001000010000: 564950 481950 493293 503054 534086
0111110100110001000010000: 564950 481950 493293 503054 464389
0111110100110001000010000: 564950 481950 493293 503054 516022
0111110100110001000010000: 564950 481950 493293 503054 484459
0111010101110001000001000: 564950 481950 493293 503054 491649
0111010101110001000001000: 564950 481950 493293 503054 566125
0111010101110001000101010: 564950 481950 493293 503054 497799
0111110100110001000010000: 564950 481950 493293 468379 463048
0111110100110001000010000: 564950 481950 493293 468379 534086
0111110100110001000010000: 564950 481950 493293 468379 464389
0111110100110001000010000: 564950 481950 493293 468379 545270
0111110100110001000010000: 564950 481950 493293 468379 516022
0111110100110001000010000: 564950 481950 493293 468379 484459
0111010101110001000001000: 564950 481950 493293 468379 491649
0111010101110001000001000: 564950 481950 493293 468379 497799
0111010100110001000100010: 564950 481950 493293 468379 548771
0111010101110001000101010: 564950 481950 493293 468379 566125
0110010010100010100000100: 564950 503054 463048 565992 479819
0110010011100000100001000: 564950 503054 463048 497799 565992
0110010010100010100000100: 564950 503054 463048 497799 479819
0110010010100010100000100: 564950 503054 534086 565992 479819
0110010011100100110001000: 564950 503054 534086 497799 565992
0111110000100001000010000: 564950 503054 464389 534086 463048
0110010010100010100000100: 564950 503054 464389 565992 649926
0110010011100000100001000: 564950 503054 464389 497799 565992
0110010010100010100100110: 564950 503054 464389 497799 649926
0111110000100001000010000: 564950 503054 516022 534086 463048
0111110000100001000010000: 564950 503054 516022 464389 463048
0111110000100001000010000: 564950 503054 516022 464389 534086
0110010010100010100000100: 564950 503054 516022 565992 491649
0110010010100010100000100: 564950 503054 516022 565992 566125
0110010011100000100001000: 564950 503054 516022 497799 565992
0110010010100010100000100: 564950 503054 516022 497799 491649
0110010010100010100000100: 564950 503054 516022 497799 566125
0111110000100001000010000: 564950 503054 484459 464389 534086
0111110000100001000010000: 564950 503054 484459 516022 534086
0111110000100001000010000: 564950 503054 484459 516022 464389
0110010010100010100000100: 564950 503054 484459 565992 536599
0110010010100010100000100: 564950 503054 484459 565992 491649
0110010011100000100001000: 564950 503054 484459 497799 565992
0110010010100010100000100: 564950 503054 484459 497799 536599
0110010010100010100000100: 564950 503054 484459 497799 491649
0111110000100001000010000: 564950 503054 493293 534086 463048
0111110000100001000010000: 564950 503054 493293 464389 463048
0111110000100001000010000: 564950 503054 493293 464389 534086
0111110000100001000010000: 564950 503054 493293 516022 463048
0111110000100001000010000: 564950 503054 493293 516022 534086
0111110000100001000010000: 564950 503054 493293 516022 464389
0111110000100001000010000: 564950 503054 493293 484459 534086
0111110000100001000010000: 564950 503054 493293 484459 464389
0111110000100001000010000: 564950 503054 493293 484459 516022
0110010010100010100100110: 564950 503054 493293 497799 568430
0110010011100100110001000: 564950 503054 493293 565992 497799
0111110000100001000010000: 564950 503054 481950 534086 463048
0111110000100001000010000: 564950 503054 481950 464389 463048
0111110000100001000010000: 564950 503054 481950 464389 534086
0111110000100001000010000: 564950 503054 481950 516022 463048
0111110000100001000010000: 564950 503054 481950 516022 534086
0111110000100001000010000: 564950 503054 481950 516022 464389
0111110000100001000010000: 564950 503054 481950 484459 534086
0111110000100001000010000: 564950 503054 481950 484459 464389
0111110000100001000010000: 564950 503054 481950 484459 516022
0110010011100110110001100: 564950 503054 481950 497799 565992
0111010101110001000001000: 564950 503054 545270 463048 565992
0111010101110001000001000: 564950 503054 545270 463048 497799
0111010100110001000100010: 564950 503054 545270 463048 479819
0111110100110001000010000: 564950 503054 545270 534086 463048
0111010101110001000001000: 564950 503054 545270 534086 565992
0111010100110001000100010: 564950 503054 545270 534086 479819
0111010101110001000101010: 564950 503054 545270 534086 497799
0111110100110001000010000: 564950 503054 545270 464389 463048
0111110100110001000010000: 564950 503054 545270 464389 534086
0111010101110001000001000: 564950 503054 545270 464389 565992
0111010101110001000001000: 564950 503054 545270 464389 497799
0111110100110001000010000: 564950 503054 545270 516022 463048
0111110100110001000010000: 564950 503054 545270 516022 534086
0111110100110001000010000: 564950 503054 545270 516022 464389
0111010101110001000001000: 564950 503054 545270 516022 565992
0111010101110001000001000: 564950 503054 545270 516022 497799
0111010100110001000100010: 564950 503054 545270 516022 491649
0111010100110001000100010: 564950 503054 545270 516022 566125
0111110100110001000010000: 564950 503054 545270 484459 534086
0111110100110001000010000: 564950 503054 545270 484459 464389
0111110100110001000010000: 564950 503054 545270 484459 516022
0111010101110001000001000: 564950 503054 545270 484459 565992
0111010101110001000001000: 564950 503054 545270 484459 497799
0111010100110001000100010: 564950 503054 545270 484459 536599
0111010100110001000100010: 564950 503054 545270 484459 491649
0111110100110001000110010: 564950 503054 545270 484459 463048
0111110100110001000010000: 564950 503054 545270 493293 463048
0111110100110001000010000: 564950 503054 545270 493293 534086
0111110100110001000010000: 564950 503054 545270 493293 464389
0111110100110001000010000: 564950 503054 545270 493293 516022
0111110100110001000010000: 564950 503054 545270 493293 484459
0111010101110001000001000: 564950 503054 545270 493293 497799
0111010100110001000100010: 564950 503054 545270 493293 568430
0111010101110001000101010: 564950 503054 545270 493293 565992
0111110100110001000010000: 564950 503054 545270 481950 463048
0111110100110001000010000: 564950 503054 545270 481950 534086
0111110100110001000010000: 564950 503054 545270 481950 464389
0111110100110001000010000: 564950 503054 545270 481950 516022
0111110100110001000010000: 564950 503054 545270 481950 484459
0111010100110001000100010: 564950 503054 545270 481950 491649
0111010100110001000100010: 564950 503054 545270 481950 566125
0111110100110001000110010: 564950 503054 545270 481950 493293
0111010101110001000101010: 564950 503054 545270 481950 565992
0111010101110001000101010: 564950 503054 545270 481950 497799
0111010110110011100000100: 564950 503054 545270 468379 649926
0111010101110001000001000: 564950 503054 468379 463048 565992
0111010101110001000001000: 564950 503054 468379 463048 497799
0111010101110001000001000: 564950 503054 468379 534086 565992
0111010101110001000101010: 564950 503054 468379 534086 497799
0111010101110001000001000: 564950 503054 468379 464389 565992
0111010101110001000001000: 564950 503054 468379 464389 497799
0111010101110001000001000: 564950 503054 468379 516022 565992
0111010101110001000001000: 564950 503054 468379 516022 497799
0111010101110001000001000: 564950 503054 468379 484459 565992
0111010101110001000001000: 564950 503054 468379 484459 497799
0111010101110001000001000: 564950 503054 468379 493293 497799
0111010101110001000101010: 564950 503054 468379 493293 565992
0111010101110001000101010: 564950 503054 468379 481950 565992
0111010101110001000101010: 564950 503054 468379 481950 497799
0111110110110001100010000: 564950 503054 468379 545270 463048
0111110110110001100010000: 564950 503054 468379 545270 534086
0111110110110001100010000: 564950 503054 468379 545270 464389
0111110110110001100010000: 564950 503054 468379 545270 516022
0111110110110001100010000: 564950 503054 468379 545270 484459
0111110110110001100010000: 564950 503054 468379 545270 493293
0111110110110001100010000: 564950 503054 468379 545270 481950
0111010110110011100000100: 564950 503054 468379 545270 548771
0111010110110011100000100: 564950 503054 468379 545270 566125
0110010010100010100000100: 564950 468379 463048 548771 479819
0110010011100000100001000: 564950 468379 463048 566125 548771
0110010010100010100000100: 564950 468379 463048 566125 479819
0110010010100010100000100: 564950 468379 534086 548771 479819
0110010011100000100001000: 564950 468379 534086 566125 548771
0110010010100010100000100: 564950 468379 534086 566125 479819
0110010010100010100000100: 564950 468379 534086 566125 497799
0111110000100001000010000: 564950 468379 464389 534086 463048
0110010010100010100000100: 564950 468379 464389 548771 649926
0110010011100000100001000: 564950 468379 464389 566125 548771
0110010010100010100000100: 564950 468379 464389 566125 649926
0111110000100001000010000: 564950 468379 545270 534086 463048
0111110000100001000010000: 564950 468379 545270 464389 463048
0111110000100001000010000: 564950 468379 545270 464389 534086
0110010010100010100000100: 564950 468379 545270 548771 649926
0110010011100000100001000: 564950 468379 545270 566125 548771
0110010010100010100000100: 564950 468379 545270 566125 649926
0111110000100001000010000: 564950 468379 516022 534086 463048
0111110000100001000010000: 564950 468379 516022 464389 463048
0111110000100001000010000: 564950 468379 516022 464389 534086
0111110000100001000010000: 564950 468379 516022 545270 463048
0111110000100001000010000: 564950 468379 516022 545270 534086
0111110000100001000010000: 564950 468379 516022 545270 464389
0110010010100010100000100: 564950 468379 516022 548771 491649
0111110000100001000010000: 564950 468379 484459 464389 534086
0111110000100001000010000: 564950 468379 484459 545270 534086
0111110000100001000010000: 564950 468379 484459 545270 464389
0111110000100001000010000: 564950 468379 484459 516022 534086
0111110000100001000010000: 564950 468379 484459 516022 464389
0111110000100001000010000: 564950 468379 484459 516022 545270
0110010010100010100000100: 564950 468379 484459 548771 536599
0110010010100010100000100: 564950 468379 484459 548771 491649
0110010011100000100001000: 564950 468379 484459 566125 548771
0110010010100010100000100: 564950 468379 484459 566125 536599
0110010010100010100000100: 564950 468379 484459 566125 491649
0111110000100001000010000: 564950 468379 493293 534086 463048
0111110000100001000010000: 564950 468379 493293 464389 463048
0111110000100001000010000: 564950 468379 493293 464389 534086
0111110000100001000010000: 564950 468379 493293 545270 463048
0111110000100001000010000: 564950 468379 493293 545270 534086
0111110000100001000010000: 564950 468379 493293 545270 464389
0111110000100001000010000: 564950 468379 493293 516022 463048
0111110000100001000010000: 564950 468379 493293 516022 534086
0111110000100001000010000: 564950 468379 493293 516022 464389
0111110000100001000010000: 564950 468379 493293 516022 545270
0111110000100001000010000: 564950 468379 493293 484459 534086
0111110000100001000010000: 564950 468379 493293 484459 464389
0111110000100001000010000: 564950 468379 493293 484459 545270
0111110000100001000010000: 564950 468379 493293 484459 516022
0110010010100010100000100: 564950 468379 493293 548771 568430
0110010010100010100000100: 564950 468379 493293 548771 565992
0110010011100000100001000: 564950 468379 493293 566125 548771
0110010010100010100000100: 564950 468379 493293 566125 568430
0110010010100010100000100: 564950 468379 493293 566125 565992
0111110000100001000010000: 564950 468379 481950 534086 463048
0111110000100001000010000: 564950 468379 481950 464389 463048
0111110000100001000010000: 564950 468379 481950 464389 534086
0111110000100001000010000: 564950 468379 481950 545270 463048
0111110000100001000010000: 564950 468379 481950 545270 534086
0111110000100001000010000: 564950 468379 481950 545270 464389
0111110000100001000010000: 564950 468379 481950 516022 463048
0111110000100001000010000: 564950 468379 481950 516022 534086
0111110000100001000010000: 564950 468379 481950 516022 464389
0111110000100001000010000: 564950 468379 481950 516022 545270
0111110000100001000010000: 564950 468379 481950 484459 534086
0111110000100001000010000: 564950 468379 481950 484459 464389
0111110000100001000010000: 564950 468379 481950 484459 545270
0111110000100001000010000: 564950 468379 481950 484459 516022
0110010010100010100000100: 564950 468379 481950 548771 491649
0110010010100010100000100: 564950 468379 481950 548771 565992
0111010100110001000100010: 564950 468379 503054 463048 479819
0111110100110001000010000: 564950 468379 503054 534086 463048
0111010100110001000100010: 564950 468379 503054 534086 479819
0111110100110001000010000: 564950 468379 503054 464389 463048
0111110100110001000010000: 564950 468379 503054 464389 534086
0111010100110001000100010: 564950 468379 503054 464389 649926
0111110100110001000010000: 564950 468379 503054 516022 463048
0111110100110001000010000: 564950 468379 503054 516022 534086
0111110100110001000010000: 564950 468379 503054 516022 464389
0111010100110001000100010: 564950 468379 503054 516022 491649
0111110100110001000010000: 564950 468379 503054 484459 534086
0111110100110001000010000: 564950 468379 503054 484459 464389
0111110100110001000010000: 564950 468379 503054 484459 516022
0111010100110001000100010: 564950 468379 503054 484459 536599
0111010100110001000100010: 564950 468379 503054 484459 491649
0111110100110001000110010: 564950 468379 503054 484459 463048
0111110100110001000010000: 564950 468379 503054 493293 463048
0111110100110001000010000: 564950 468379 503054 493293 534086
0111110100110001000010000: 564950 468379 503054 493293 464389
0111110100110001000010000: 564950 468379 503054 493293 516022
0111110100110001000010000: 564950 468379 503054 493293 484459
0111010100110001000100010: 564950 468379 503054 493293 568430
0111110100110001000010000: 564950 468379 503054 481950 463048
0111110100110001000010000: 564950 468379 503054 481950 534086
0111110100110001000010000: 564950 468379 503054 481950 464389
0111110100110001000010000: 564950 468379 503054 481950 516022
0111110100110001000010000: 564950 468379 503054 481950 484459
0111010100110001000100010: 564950 468379 503054 481950 491649
0111110100110001000110010: 564950 468379 503054 481950 493293
0110010011100000100001000: 497799 534086 548771 564950 479819
0110010011100000100001000: 497799 534086 568430 564950 479819
0110010011100000100001000: 497799 534086 649926 564950 479819
0110010010100010100000100: 497799 548771 534086 649658 479819
0110010010100010100000100: 497799 548771 534086 649658 564950
0110010011100000100001000: 497799 548771 534086 468379 649658
0110010010100010100000100: 497799 548771 534086 468379 479819
0110010011100100110001000: 497799 548771 568430 649658 468379
0110010011100000100001000: 497799 548771 481950 468379 649658
0110010011100000100001000: 497799 548771 649926 468379 649658
0110010010100010100000100: 497799 568430 534086 493293 479819
0110010011100000100001000: 497799 568430 534086 649658 493293
0110010010100010100000100: 497799 568430 534086 649658 479819
0110010010100010100000100: 497799 568430 534086 649658 564950
0110010010100010100000100: 497799 568430 548771 493293 468379
0110010011100100110001000: 497799 568430 548771 649658 493293
0110010011100100110001000: 497799 568430 481950 493293 649658
0110010011100000100001000: 497799 568430 649926 649658 493293
0110010011100000100001000: 497799 568430 503054 649658 493293
0110010010100010100000100: 497799 481950 534086 491649 479819
0110010011100000100001000: 497799 481950 534086 493293 491649
0110010010100010100000100: 497799 481950 534086 493293 479819
0110010011100000100001000: 497799 481950 534086 565992 491649
0110010010100010100000100: 497799 481950 534086 565992 479819
0110010011100000100001000: 497799 481950 534086 566125 491649
0110010011100000100001000: 497799 481950 534086 566125 493293
0110010011100000100001000: 497799 481950 534086 566125 565992
0110010010100010100000100: 497799 481950 534086 566125 479819
0110010010100010100000100: 497799 481950 548771 491649 649658
0110010010100010100000100: 497799 481950 548771 491649 468379
0110010011100000100001000: 497799 481950 548771 493293 491649
0110010010100010100000100: 497799 481950 548771 493293 649658
0110010010100010100000100: 497799 481950 548771 493293 468379
0110010011100000100001000: 497799 481950 548771 565992 491649
0110010010100010100000100: 497799 481950 548771 565992 649658
0110010010100010100000100: 497799 481950 548771 565992 468379
0110010011100000100001000: 497799 481950 548771 564950 491649
0110010011100000100001000: 497799 481950 548771 564950 565992
0110010010100010100000100: 497799 481950 548771 564950 649658
0110010011100000100001000: 497799 481950 548771 566125 491649
0110010011100000100001000: 497799 481950 548771 566125 493293
0110010011100000100001000: 497799 481950 548771 566125 565992
0110010011100000100001000: 497799 481950 548771 566125 564950
0110010010100010100000100: 497799 481950 548771 566125 649658
0111110000100001000010000: 497799 481950 568430 548771 534086
0110010010100010100000100: 497799 481950 568430 491649 649658
0110010011100000100001000: 497799 481950 568430 565992 491649
0110010010100010100000100: 497799 481950 568430 565992 649658
0110010011100000100001000: 497799 481950 568430 564950 491649
0110010011100000100001000: 497799 481950 568430 564950 565992
0110010010100010100000100: 497799 481950 568430 564950 649658
0110010011100000100001000: 497799 481950 568430 566125 491649
0110010011100000100001000: 497799 481950 568430 566125 565992
0110010011100000100001000: 497799 481950 568430 566125 564950
0110010010100010100000100: 497799 481950 568430 566125 649658
0110010011100100110001000: 497799 481950 568430 493293 491649
0110010011100100110001000: 497799 481950 568430 493293 566125
0110010011100000100001000: 497799 481950 649926 493293 491649
0110010011100000100001000: 497799 481950 649926 565992 491649
0110010011100000100001000: 497799 481950 649926 564950 491649
0110010011100000100001000: 497799 481950 649926 564950 565992
0110010011100000100001000: 497799 481950 649926 566125 491649
0110010011100000100001000: 497799 481950 649926 566125 493293
0110010011100000100001000: 497799 481950 649926 566125 565992
0110010011100000100001000: 497799 481950 649926 566125 564950
0110010011100000100001000: 497799 481950 503054 493293 491649
0110010011100000100001000: 497799 481950 503054 566125 491649
0110010011100000100001000: 497799 481950 503054 566125 493293
0110010011100100110001000: 497799 481950 503054 565992 491649
0110010011100100110001000: 497799 481950 503054 565992 566125
0110010010100010100000100: 497799 649926 534086 464389 479819
0110010011100000100001000: 497799 649926 534086 545270 464389
0110010010100010100000100: 497799 649926 534086 545270 479819
0110010010100010100000100: 497799 649926 548771 464389 649658
0110010010100010100000100: 497799 649926 548771 464389 468379
0110010011100000100001000: 497799 649926 548771 545270 464389
0110010010100010100000100: 497799 649926 548771 545270 649658
0110010010100010100000100: 497799 649926 548771 545270 468379
0111110000100001000010000: 497799 649926 568430 548771 534086
0110010010100010100000100: 497799 649926 568430 464389 493293
0110010010100010100000100: 497799 649926 568430 464389 649658
0110010011100000100001000: 497799 649926 568430 545270 464389
0110010010100010100000100: 497799 649926 568430 545270 493293
0110010010100010100000100: 497799 649926 568430 545270 649658
0111110000100001000010000: 497799 649926 481950 548771 534086
0111110000100001000010000: 497799 649926 481950 568430 534086
0111110000100001000010000: 497799 649926 481950 568430 548771
0110010010100010100000100: 497799 649926 481950 464389 491649
0110010010100010100000100: 497799 649926 481950 464389 493293
0110010010100010100000100: 497799 649926 481950 464389 565992
0110010010100010100000100: 497799 649926 481950 464389 566125
0110010011100000100001000: 497799 649926 481950 545270 464389
0110010010100010100000100: 497799 649926 481950 545270 491649
0110010010100010100000100: 497799 649926 481950 545270 493293
0110010010100010100000100: 497799 649926 481950 545270 565992
0110010010100010100000100: 497799 649926 481950 545270 566125
0110010011100100110001000: 497799 649926 503054 545270 464389
0110010010100010100000100: 497799 503054 534086 545270 479819
0110010011100000100001000: 497799 503054 534086 565992 545270
0110010010100010100000100: 497799 503054 534086 565992 479819
0110010011100000100001000: 497799 503054 534086 468379 545270
0110010011100000100001000: 497799 503054 534086 468379 565992
0110010010100010100000100: 497799 503054 534086 468379 479819
0110010010100010100000100: 497799 503054 548771 545270 649658
0110010011100000100001000: 497799 503054 548771 565992 545270
0110010010100010100000100: 497799 503054 548771 565992 649658
0110010011100000100001000: 497799 503054 548771 564950 565992
0110010010100010100000100: 497799 503054 548771 564950 649658
0111110000100001000010000: 497799 503054 568430 548771 534086
0110010010100010100000100: 497799 503054 568430 545270 493293
0110010010100010100000100: 497799 503054 568430 545270 649658
0110010011100000100001000: 497799 503054 568430 565992 545270
0110010010100010100000100: 497799 503054 568430 565992 649658
0110010010100010100100110: 497799 503054 568430 565992 493293
0110010011100000100001000: 497799 503054 568430 564950 565992
0110010010100010100000100: 497799 503054 568430 564950 649658
0110010011100000100001000: 497799 503054 568430 468379 545270
0110010011100000100001000: 497799 503054 568430 468379 565992
0110010010100010100000100: 497799 503054 568430 468379 493293
0110010010100010100000100: 497799 503054 568430 468379 649658
0111110000100001000010000: 497799 503054 481950 548771 534086
0111110000100001000010000: 497799 503054 481950 568430 534086
0111110000100001000010000: 497799 503054 481950 568430 548771
0110010010100010100000100: 497799 503054 481950 545270 491649
0110010010100010100000100: 497799 503054 481950 545270 493293
0110010010100010100000100: 497799 503054 481950 545270 566125
0110010011100000100001000: 497799 503054 481950 468379 545270
0110010010100010100000100: 497799 503054 481950 468379 491649
0110010010100010100000100: 497799 503054 481950 468379 493293
0110010011100100110001000: 497799 503054 481950 565992 545270
0110010011100100110001000: 497799 503054 481950 565992 468379
0111110000100001000010000: 497799 503054 649926 548771 534086
0111110000100001000010000: 497799 503054 649926 568430 534086
0111110000100001000010000: 497799 503054 649926 568430 548771
0111110000100001000010000: 497799 503054 649926 481950 534086
0111110000100001000010000: 497799 503054 649926 481950 548771
0111110000100001000010000: 497799 503054 649926 481950 568430
0110010010100010100000100: 497799 503054 649926 565992 464389
0110010011100000100001000: 497799 503054 649926 564950 565992
0110010011100000100001000: 497799 503054 649926 468379 565992
0110010010100010100000100: 497799 503054 649926 468379 464389
0110010011100100110001000: 497799 503054 649926 545270 565992
0110010011100100110001000: 497799 503054 649926 545270 468379
0111010101110001000001000: 503054 545270 564950 565992 649926
0111010101110001000101010: 503054 545270 564950 497799 649926
0110010010100010100000100: 503054 565992 545270 493293 649926
0110010010100010100000100: 503054 565992 545270 481950 649926
0110010011100000100001000: 503054 497799 545270 548771 534086
0110010011100000100001000: 503054 497799 545270 568430 534086
0110010011100000100001000: 503054 497799 545270 568430 548771
0110010011100000100001000: 503054 497799 545270 481950 534086
0110010011100000100001000: 503054 497799 545270 481950 548771
0110010011100000100001000: 503054 497799 545270 481950 568430
0110010011100100110001000: 503054 497799 545270 649926 534086
0110010011100100110001000: 503054 497799 545270 649926 548771
0110010011100100110001000: 503054 497799 545270 649926 568430
0110010011100100110001000: 503054 497799 545270 649926 481950
0110010010100010100000100: 503054 497799 565992 534086 493293
0110010011100000100001000: 503054 497799 565992 548771 534086
0110010010100010100000100: 503054 497799 565992 548771 493293
0110010011100000100001000: 503054 497799 565992 568430 534086
0110010011100000100001000: 503054 497799 565992 568430 548771
0110010011100000100001000: 503054 497799 565992 649926 534086
0110010011100000100001000: 503054 497799 565992 649926 548771
0110010011100000100001000: 503054 497799 565992 649926 568430
0110010010100010100000100: 503054 497799 565992 649926 493293
0110010011100100110001000: 503054 497799 565992 481950 534086
0110010011100100110001000: 503054 497799 565992 481950 548771
0110010011100100110001000: 503054 497799 565992 481950 568430
0110010011100100110001000: 503054 497799 565992 481950 649926
0110010011100000100001000: 503054 497799 564950 568430 548771
0110010011100000100001000: 503054 497799 564950 649926 548771
0110010011100000100001000: 503054 497799 564950 649926 568430
0110010011100100110001000: 503054 497799 564950 534086 548771
0110010011100100110001000: 503054 497799 564950 534086 568430
0110010011100100110001000: 503054 497799 564950 534086 649926
0110010011100100110001000: 503054 497799 564950 481950 548771
0110010011100100110001000: 503054 497799 564950 481950 568430
0110010011100100110001000: 503054 497799 564950 481950 649926
0110010011100000100001000: 503054 497799 468379 568430 534086
0110010011100000100001000: 503054 497799 468379 481950 534086
0110010011100000100001000: 503054 497799 468379 481950 568430
0110010011100000100001000: 503054 497799 468379 649926 534086
0110010011100000100001000: 503054 497799 468379 649926 568430
0110010011100000100001000: 503054 497799 468379 649926 481950
0110010011100100110001000: 503054 497799 468379 548771 534086
0110010011100100110001000: 503054 497799 468379 548771 568430
0110010011100100110001000: 503054 497799 468379 548771 481950
0110010011100100110001000: 503054 497799 468379 548771 649926
0110010011100000100001000: 503054 564950 565992 534086 463048
0110010011100000100001000: 503054 564950 565992 464389 463048
0110010011100000100001000: 503054 564950 565992 464389 534086
0110010011100000100001000: 503054 564950 565992 516022 463048
0110010011100000100001000: 503054 564950 565992 516022 534086
0110010011100000100001000: 503054 564950 565992 516022 464389
0110010011100000100001000: 503054 564950 565992 484459 534086
0110010011100000100001000: 503054 564950 565992 484459 464389
0110010011100000100001000: 503054 564950 565992 484459 516022
0110010011100100110001000: 503054 564950 565992 493293 463048
0110010011100100110001000: 503054 564950 565992 493293 534086
0110010011100100110001000: 503054 564950 565992 493293 464389
0110010011100100110001000: 503054 564950 565992 493293 516022
0110010011100100110001000: 503054 564950 565992 493293 484459
0110010011100100110001000: 503054 564950 565992 481950 463048
0110010011100100110001000: 503054 564950 565992 481950 534086
0110010011100100110001000: 503054 564950 565992 481950 464389
0110010011100100110001000: 503054 564950 565992 481950 516022
0110010011100100110001000: 503054 564950 565992 481950 484459
0110010010100010100000100: 503054 564950 497799 463048 548771
0110010010100010100000100: 503054 564950 497799 463048 568430
0110010010100010100000100: 503054 564950 497799 463048 649926
0110010011100000100001000: 503054 564950 497799 464389 463048
0110010010100010100000100: 503054 564950 497799 464389 548771
0110010010100010100000100: 503054 564950 497799 464389 568430
0110010011100000100001000: 503054 564950 497799 516022 463048
0110010011100000100001000: 503054 564950 497799 516022 464389
0110010010100010100000100: 503054 564950 497799 516022 548771
0110010010100010100000100: 503054 564950 497799 516022 568430
0110010010100010100000100: 503054 564950 497799 516022 649926
0110010011100000100001000: 503054 564950 497799 484459 464389
0110010011100000100001000: 503054 564950 497799 484459 516022
0110010010100010100000100: 503054 564950 497799 484459 548771
0110010010100010100000100: 503054 564950 497799 484459 568430
0110010010100010100000100: 503054 564950 497799 484459 649926
0110010011100000100001000: 503054 564950 497799 493293 463048
0110010011100000100001000: 503054 564950 497799 493293 464389
0110010011100000100001000: 503054 564950 497799 493293 516022
0110010011100000100001000: 503054 564950 497799 493293 484459
0110010010100010100000100: 503054 564950 497799 493293 548771
0110010010100010100000100: 503054 564950 497799 493293 649926
0110010011100100110001000: 503054 564950 497799 534086 463048
0110010011100100110001000: 503054 564950 497799 534086 464389
0110010011100100110001000: 503054 564950 497799 534086 516022
0110010011100100110001000: 503054 564950 497799 534086 484459
0110010011100100110001000: 503054 564950 497799 534086 493293
0110010011100100110001000: 503054 564950 497799 481950 463048
0110010011100100110001000: 503054 564950 497799 481950 464389
0110010011100100110001000: 503054 564950 497799 481950 516022
0110010011100100110001000: 503054 564950 497799 481950 484459
0110010011100110110001100: 503054 564950 497799 481950 534086
0111110100110001000010000: 503054 564950 545270 497799 565992
0111010100110001000100010: 503054 564950 545270 497799 548771
0111010100110001000100010: 503054 564950 545270 497799 568430
0111110110110001100010000: 503054 564950 468379 545270 565992
0111110110110001100010000: 503054 564950 468379 545270 497799
0110010010100010100000100: 503054 468379 545270 548771 649926
0110010011100000100001000: 503054 468379 545270 566125 548771
0110010010100010100000100: 503054 468379 545270 566125 649926
0110010010100010100000100: 503054 468379 565992 548771 493293
0110010010100010100000100: 503054 468379 565992 548771 481950
0110010011100000100001000: 503054 468379 565992 566125 548771
0110010010100010100000100: 503054 468379 565992 566125 493293
0111110000100001000010000: 503054 468379 497799 565992 545270
0110010010100010100000100: 503054 468379 497799 566125 534086
0110010010100010100000100: 503054 468379 497799 566125 568430
0110010010100010100000100: 503054 468379 497799 566125 649926
0110010011100100110001000: 503054 468379 497799 548771 566125
0111110100110001000010000: 503054 468379 564950 497799 565992
0111010100110001000100010: 503054 468379 564950 497799 568430
0111010100110001000100010: 503054 468379 564950 497799 649926
0110010011100000100001000: 649926 497799 464389 548771 534086
0110010010100010100000100: 649926 497799 464389 548771 564950
0110010011100000100001000: 649926 497799 464389 568430 534086
0110010011100000100001000: 649926 497799 464389 568430 548771
0110010010100010100000100: 649926 497799 464389 568430 564950
0110010011100000100001000: 649926 497799 464389 481950 534086
0110010011100000100001000: 649926 497799 464389 481950 548771
0110010011100000100001000: 649926 497799 464389 481950 568430
0110010011100000100001000: 649926 497799 464389 503054 534086
0110010011100000100001000: 649926 497799 464389 503054 548771
0110010011100000100001000: 649926 497799 464389 503054 568430
0110010011100000100001000: 649926 497799 464389 503054 481950
0110010011100000100001000: 649926 497799 545270 548771 534086
0110010010100010100000100: 649926 497799 545270 548771 564950
0110010011100000100001000: 649926 497799 545270 568430 534086
0110010011100000100001000: 649926 497799 545270 568430 548771
0110010010100010100000100: 649926 497799 545270 568430 564950
0110010011100000100001000: 649926 497799 545270 481950 534086
0110010011100000100001000: 649926 497799 545270 481950 548771
0110010011100000100001000: 649926 497799 545270 481950 568430
0111010101110001000001000: 565992 493293 481950 503054 568430
0110010011100000100001000: 565992 481950 503054 566125 491649
0111010101110001000001000: 565992 481950 493293 503054 491649
0111010101110001000001000: 565992 481950 493293 503054 566125
0111010100110001000100010: 565992 481950 493293 503054 545270
0111010100110001000100010: 565992 481950 493293 503054 468379
0111010101110001000101010: 565992 481950 493293 503054 497799
0110010010100010100000100: 565992 503054 493293 545270 568430
0110010011100000100001000: 565992 503054 493293 497799 545270
0110010011100000100001000: 565992 503054 493293 468379 545270
0110010011100000100001000: 565992 503054 493293 468379 497799
0110010010100010100000100: 565992 503054 493293 468379 568430
0110010010100010100000100: 565992 503054 481950 545270 491649
0110010010100010100000100: 565992 503054 481950 545270 566125
0110010011100000100001000: 565992 503054 481950 468379 545270
0110010010100010100000100: 565992 503054 481950 468379 491649
0110010011100000100001000: 481950 491649 493293 484459 516022
0110010011100000100001000: 481950 491649 565992 484459 516022
0110010011100000100001000: 481950 491649 497799 484459 516022
0110010011100100110001000: 481950 491649 566125 516022 484459
0110010010100010100000100: 481950 493293 491649 568430 516022
0110010010100010100000100: 481950 493293 491649 568430 484459
0111010101110001000001000: 481950 493293 565992 491649 568430
0111010101110001000101010: 481950 493293 565992 497799 568430
0111010101110001000001000: 481950 493293 565992 566125 568430
0111010101110001000001000: 481950 493293 564950 491649 568430
0111010101110001000101010: 481950 493293 564950 497799 568430
0111010101110001000001000: 481950 493293 564950 566125 568430
0111110110110001100010000: 481950 493293 564950 565992 491649
0111110110110001100010000: 481950 493293 564950 565992 497799
0111110110110001100010000: 481950 493293 564950 565992 566125
0111010110110011100000100: 481950 493293 564950 565992 463048
0111010110110011100000100: 481950 493293 564950 565992 534086
0111010110110011100000100: 481950 493293 564950 565992 464389
0111010110110011100000100: 481950 493293 564950 565992 545270
0111010110110011100000100: 481950 493293 564950 565992 516022
0111010110110011100000100: 481950 493293 564950 565992 484459
0111010110110011100000100: 481950 493293 564950 565992 468379
0111010110110011100100110: 481950 493293 564950 565992 503054
0110010010100010100000100: 481950 565992 491649 503054 516022
0110010010100010100000100: 481950 565992 491649 503054 484459
0111010100110001000100010: 481950 565992 493293 491649 516022
0111010100110001000100010: 481950 565992 493293 491649 484459
0111110100110001000010000: 481950 565992 493293 497799 491649
0111010100110001000100010: 481950 565992 493293 497799 534086
0111010100110001000100010: 481950 565992 493293 497799 548771
0111010100110001000100010: 481950 565992 493293 497799 649926
0111110100110001000010000: 481950 565992 493293 566125 491649
0111110100110001000010000: 481950 565992 493293 566125 497799
0111010100110001000100010: 481950 565992 493293 566125 516022
0111010100110001000100010: 481950 565992 493293 566125 468379
0110010010100010100000100: 481950 497799 491649 534086 516022
0110010010100010100000100: 481950 497799 491649 534086 484459
0110010011100000100001000: 481950 497799 491649 548771 534086
0110010010100010100000100: 481950 497799 491649 548771 516022
0110010010100010100000100: 481950 497799 491649 548771 484459
0110010011100000100001000: 481950 497799 491649 568430 534086
0110010011100000100001000: 481950 497799 491649 568430 548771
0110010010100010100000100: 481950 497799 491649 568430 516022
0110010010100010100000100: 481950 497799 491649 568430 484459
0110010011100000100001000: 481950 497799 491649 649926 534086
0110010011100000100001000: 481950 497799 491649 649926 548771
0110010011100000100001000: 481950 497799 491649 649926 568430
0110010010100010100000100: 481950 497799 491649 649926 516022
0110010010100010100000100: 481950 497799 491649 649926 484459
0110010011100000100001000: 481950 497799 491649 503054 534086
0110010011100000100001000: 481950 497799 491649 503054 548771
0110010011100000100001000: 481950 497799 491649 503054 568430
0110010011100000100001000: 481950 497799 491649 503054 649926
0110010010100010100000100: 481950 497799 491649 503054 516022
0110010010100010100000100: 481950 497799 491649 503054 484459
0110010011100000100001000: 481950 497799 493293 548771 534086
0110010011100000100001000: 481950 497799 493293 649926 534086
0110010011100000100001000: 481950 497799 493293 649926 548771
0110010011100000100001000: 481950 497799 493293 503054 534086
0110010011100000100001000: 481950 497799 493293 503054 548771
0110010011100000100001000: 481950 497799 493293 503054 649926
0110010011100100110001000: 481950 497799 493293 568430 534086
0110010011100100110001000: 481950 497799 493293 568430 548771
0110010011100100110001000: 481950 497799 493293 568430 649926
0110010011100100110001000: 481950 497799 493293 568430 503054
0110010011100000100001000: 481950 497799 565992 548771 534086
0110010011100000100001000: 481950 497799 565992 568430 534086
0110010011100000100001000: 481950 497799 565992 568430 548771
0110010011100000100001000: 481950 497799 565992 649926 534086
0110010011100000100001000: 481950 497799 565992 649926 548771
0110010011100000100001000: 481950 497799 565992 649926 568430
0110010011100000100001000: 481950 497799 564950 568430 548771
0110010011100000100001000: 481950 497799 564950 649926 548771
0110010011100000100001000: 481950 497799 564950 649926 568430
0110010011100100110001000: 481950 497799 564950 534086 548771
0110010011100100110001000: 481950 497799 564950 534086 568430
0110010011100100110001000: 481950 497799 564950 534086 649926
0110010011100000100001000: 481950 497799 566125 548771 534086
0110010011100000100001000: 481950 497799 566125 568430 534086
0110010011100000100001000: 481950 497799 566125 568430 548771
0110010011100000100001000: 481950 497799 566125 649926 534086
0110010011100000100001000: 481950 497799 566125 649926 548771
0110010011100000100001000: 481950 497799 566125 649926 568430
0110010011100000100001000: 481950 497799 566125 503054 534086
0110010011100000100001000: 481950 497799 566125 503054 548771
0110010011100000100001000: 481950 497799 566125 503054 568430
0110010011100000100001000: 481950 497799 566125 503054 649926
0110010011100000100001000: 481950 564950 491649 534086 463048
0110010011100000100001000: 481950 564950 491649 464389 463048
0110010011100000100001000: 481950 564950 491649 464389 534086
0110010011100000100001000: 481950 564950 491649 545270 463048
0110010011100000100001000: 481950 564950 491649 545270 534086
0110010011100000100001000: 481950 564950 491649 545270 464389
0110010011100000100001000: 481950 564950 491649 503054 463048
0110010011100000100001000: 481950 564950 491649 503054 534086
0110010011100000100001000: 481950 564950 491649 503054 464389
0110010011100000100001000: 481950 564950 491649 468379 463048
0110010011100000100001000: 481950 564950 491649 468379 534086
0110010011100000100001000: 481950 564950 491649 468379 464389
0110010011100000100001000: 481950 564950 491649 468379 545270
0110010011100100110001000: 481950 564950 491649 516022 463048
0110010011100100110001000: 481950 564950 491649 516022 534086
0110010011100100110001000: 481950 564950 491649 516022 464389
0110010011100100110001000: 481950 564950 491649 516022 545270
0110010011100100110001000: 481950 564950 491649 516022 503054
0110010011100100110001000: 481950 564950 491649 516022 468379
0110010011100100110001000: 481950 564950 491649 484459 534086
0110010011100100110001000: 481950 564950 491649 484459 464389
0110010011100100110001000: 481950 564950 491649 484459 545270
0110010011100100110001000: 481950 564950 491649 484459 503054
0110010011100100110001000: 481950 564950 491649 484459 468379
0110010011100110110001100: 481950 564950 491649 484459 516022
0110010011100000100001000: 481950 564950 565992 534086 463048
0110010011100000100001000: 481950 564950 565992 464389 463048
0110010011100000100001000: 481950 564950 565992 464389 534086
0110010011100000100001000: 481950 564950 565992 545270 463048
0110010011100000100001000: 481950 564950 565992 545270 534086
0110010011100000100001000: 481950 564950 565992 545270 464389
0110010011100000100001000: 481950 564950 565992 516022 463048
0110010011100000100001000: 481950 564950 565992 516022 534086
0110010011100000100001000: 481950 564950 565992 516022 464389
0110010011100000100001000: 481950 564950 565992 516022 545270
0110010011100000100001000: 481950 564950 565992 484459 534086
0110010011100000100001000: 481950 564950 565992 484459 464389
0110010011100000100001000: 481950 564950 565992 484459 545270
0110010011100000100001000: 481950 564950 565992 484459 516022
0110010011100000100001000: 481950 564950 565992 468379 463048
0110010011100000100001000: 481950 564950 565992 468379 534086
0110010011100000100001000: 481950 564950 565992 468379 464389
0110010011100000100001000: 481950 564950 565992 468379 545270
0110010011100000100001000: 481950 564950 565992 468379 516022
0110010011100000100001000: 481950 564950 565992 468379 484459
0111110000100001000010000: 481950 564950 497799 565992 491649
0110010010100010100000100: 481950 564950 497799 463048 548771
0110010010100010100000100: 481950 564950 497799 463048 568430
0110010010100010100000100: 481950 564950 497799 463048 649926
0110010011100000100001000: 481950 564950 497799 464389 463048
0110010010100010100000100: 481950 564950 497799 464389 548771
0110010010100010100000100: 481950 564950 497799 464389 568430
0110010011100000100001000: 481950 564950 497799 545270 463048
0110010011100000100001000: 481950 564950 497799 545270 464389
0110010010100010100000100: 481950 564950 497799 545270 548771
0110010010100010100000100: 481950 564950 497799 545270 568430
0110010011100000100001000: 481950 564950 497799 516022 463048
0110010011100000100001000: 481950 564950 497799 516022 464389
0110010011100000100001000: 481950 564950 497799 516022 545270
0110010010100010100000100: 481950 564950 497799 516022 548771
0110010010100010100000100: 481950 564950 497799 516022 568430
0110010010100010100000100: 481950 564950 497799 516022 649926
0110010011100000100001000: 481950 564950 497799 484459 464389
0110010011100000100001000: 481950 564950 497799 484459 545270
0110010011100000100001000: 481950 564950 497799 484459 516022
0110010010100010100000100: 481950 564950 497799 484459 548771
0110010010100010100000100: 481950 564950 497799 484459 568430
0110010010100010100000100: 481950 564950 497799 484459 649926
0110010011100000100001000: 481950 564950 497799 468379 463048
0110010011100000100001000: 481950 564950 497799 468379 464389
0110010011100000100001000: 481950 564950 497799 468379 545270
0110010011100000100001000: 481950 564950 497799 468379 516022
0110010011100000100001000: 481950 564950 497799 468379 484459
0110010010100010100000100: 481950 564950 497799 468379 568430
0110010010100010100000100: 481950 564950 497799 468379 649926
0110010011100100110001000: 481950 564950 497799 534086 463048
0110010011100100110001000: 481950 564950 497799 534086 464389
0110010011100100110001000: 481950 564950 497799 534086 545270
0110010011100100110001000: 481950 564950 497799 534086 516022
0110010011100100110001000: 481950 564950 497799 534086 484459
0110010011100100110001000: 481950 564950 497799 534086 468379
0110010011100000100001000: 481950 564950 566125 534086 463048
0110010011100000100001000: 481950 564950 566125 464389 463048
0110010011100000100001000: 481950 564950 566125 464389 534086
0110010011100000100001000: 481950 564950 566125 545270 463048
0110010011100000100001000: 481950 564950 566125 545270 534086
0110010011100000100001000: 481950 564950 566125 545270 464389
0110010011100000100001000: 481950 564950 566125 484459 534086
0110010011100000100001000: 481950 564950 566125 484459 464389
0110010011100000100001000: 481950 564950 566125 484459 545270
0110010011100000100001000: 481950 564950 566125 503054 463048
0110010011100000100001000: 481950 564950 566125 503054 534086
0110010011100000100001000: 481950 564950 566125 503054 464389
0110010011100000100001000: 481950 564950 566125 503054 484459
0110010011100100110001000: 481950 564950 566125 516022 463048
0110010011100100110001000: 481950 564950 566125 516022 534086
0110010011100100110001000: 481950 564950 566125 516022 464389
0110010011100100110001000: 481950 564950 566125 516022 545270
0110010011100100110001000: 481950 564950 566125 516022 484459
0110010011100100110001000: 481950 564950 566125 516022 503054
0111110100110001000010000: 481950 564950 493293 497799 491649
0111010100110001000100010: 481950 564950 493293 497799 548771
0111010100110001000100010: 481950 564950 493293 497799 649926
0111110100110001000010000: 481950 564950 493293 566125 491649
0111110100110001000010000: 481950 564950 493293 566125 497799
0110010010100010100000100: 481950 566125 491649 468379 484459
0110010011100100110001000: 481950 566125 491649 516022 468379
0110010010100010100000100: 481950 566125 493293 516022 568430
0110010011100000100001000: 481950 566125 493293 468379 516022
0110010010100010100000100: 481950 566125 493293 468379 568430
0110010010100010100000100: 481950 566125 565992 516022 503054
0110010011100000100001000: 481950 566125 565992 468379 516022
0111110000100001000010000: 481950 566125 497799 493293 491649
0111110000100001000010000: 481950 566125 497799 565992 491649
0110010010100010100000100: 481950 566125 497799 516022 534086
0110010010100010100000100: 481950 566125 497799 516022 548771
0110010010100010100000100: 481950 566125 497799 516022 568430
0110010010100010100000100: 481950 566125 497799 516022 649926
0110010010100010100000100: 481950 566125 497799 516022 503054
0110010011100000100001000: 481950 566125 497799 468379 516022
0110010010100010100000100: 481950 566125 497799 468379 534086
0110010010100010100000100: 481950 566125 497799 468379 568430
0110010010100010100000100: 481950 566125 497799 468379 649926
0111110000100001000010000: 481950 566125 564950 565992 491649
0111110000100001000010000: 481950 566125 564950 497799 491649
0111110000100001000010000: 481950 566125 564950 497799 565992
0110010010100010100000100: 649658 568430 548771 493293 468379
0110010011100000100001000: 568430 493293 649658 564950 565992
0110010011100000100001000: 568430 493293 497799 564950 565992
0110010010100010100000100: 568430 649658 493293 548771 481950
0110010010100010100000100: 568430 649658 493293 548771 565992
0110010010100010100000100: 568430 649658 493293 548771 564950
0110010010100010100000100: 568430 497799 493293 534086 565992
0110010011100000100001000: 568430 497799 493293 548771 534086
0110010010100010100000100: 568430 497799 493293 548771 565992
0110010010100010100000100: 568430 497799 493293 548771 564950
0110010011100000100001000: 568430 497799 493293 649926 534086
0110010011100000100001000: 568430 497799 493293 649926 548771
0110010010100010100000100: 568430 497799 493293 649926 565992
0110010010100010100000100: 568430 497799 493293 649926 564950
0110010011100000100001000: 568430 497799 493293 503054 534086
0110010011100000100001000: 568430 497799 493293 503054 548771
0110010011100000100001000: 568430 497799 493293 503054 649926
0110010011100000100001000: 568430 497799 649658 481950 534086
0110010011100000100001000: 568430 497799 649658 649926 534086
0110010011100000100001000: 568430 497799 649658 649926 481950
0110010011100000100001000: 568430 497799 649658 503054 534086
0110010011100000100001000: 568430 497799 649658 503054 481950
0110010011100000100001000: 568430 497799 649658 503054 649926
0110010011100100110001000: 568430 497799 649658 548771 534086
0110010011100100110001000: 568430 497799 649658 548771 481950
0110010011100100110001000: 568430 497799 649658 548771 649926
0110010011100100110001000: 568430 497799 649658 548771 503054
0110010011100000100001000: 493293 568430 565992 497799 649658
0110010011100000100001000: 493293 568430 564950 497799 649658
0110010010100010100000100: 493293 481950 568430 491649 649658
0110010011100000100001000: 493293 481950 568430 566125 491649
0110010010100010100000100: 493293 481950 568430 566125 649658
0111110110110001100010000: 493293 481950 564950 565992 568430
0110010010100010100000100: 493293 565992 568430 503054 649658
0111010100110001000100010: 493293 565992 481950 568430 649658
0110010010100010100000100: 493293 564950 568430 463048 649658
0110010010100010100000100: 493293 564950 568430 463048 497799
0110010011100000100001000: 493293 564950 568430 534086 463048
0110010010100010100000100: 493293 564950 568430 534086 649658
0110010011100000100001000: 493293 564950 568430 464389 463048
0110010011100000100001000: 493293 564950 568430 464389 534086
0110010010100010100000100: 493293 564950 568430 464389 649658
0110010010100010100000100: 493293 564950 568430 464389 497799
0110010011100000100001000: 493293 564950 568430 545270 463048
0110010011100000100001000: 493293 564950 568430 545270 534086
0110010011100000100001000: 493293 564950 568430 545270 464389
0110010010100010100000100: 493293 564950 568430 545270 649658
0110010010100010100000100: 493293 564950 568430 545270 497799
0110010011100000100001000: 493293 564950 568430 516022 463048
0110010011100000100001000: 493293 564950 568430 516022 534086
0110010011100000100001000: 493293 564950 568430 516022 464389
0110010011100000100001000: 493293 564950 568430 516022 545270
0110010010100010100000100: 493293 564950 568430 516022 649658
0110010010100010100000100: 493293 564950 568430 516022 497799
0110010011100000100001000: 493293 564950 568430 484459 534086
0110010011100000100001000: 493293 564950 568430 484459 464389
0110010011100000100001000: 493293 564950 568430 484459 545270
0110010011100000100001000: 493293 564950 568430 484459 516022
0110010010100010100000100: 493293 564950 568430 484459 649658
0110010010100010100000100: 493293 564950 568430 484459 497799
0110010011100000100001000: 493293 564950 568430 503054 463048
0110010011100000100001000: 493293 564950 568430 503054 534086
0110010011100000100001000: 493293 564950 568430 503054 464389
0110010011100000100001000: 493293 564950 568430 503054 516022
0110010011100000100001000: 493293 564950 568430 503054 484459
0110010010100010100000100: 493293 564950 568430 503054 649658
0110010011100000100001000: 493293 564950 568430 468379 463048
0110010011100000100001000: 493293 564950 568430 468379 534086
0110010011100000100001000: 493293 564950 568430 468379 464389
0110010011100000100001000: 493293 564950 568430 468379 545270
0110010011100000100001000: 493293 564950 568430 468379 516022
0110010011100000100001000: 493293 564950 568430 468379 484459
0110010010100010100000100: 493293 564950 568430 468379 649658
0110010010100010100000100: 493293 564950 568430 468379 497799
0110010011100000100001000: 493293 564950 565992 534086 463048
0110010011100000100001000: 493293 564950 565992 464389 463048
0110010011100000100001000: 493293 564950 565992 464389 534086
0110010011100000100001000: 493293 564950 565992 545270 463048
0110010011100000100001000: 493293 564950 565992 545270 534086
0110010011100000100001000: 493293 564950 565992 545270 464389
0110010011100000100001000: 493293 564950 565992 516022 463048
0110010011100000100001000: 493293 564950 565992 516022 534086
0110010011100000100001000: 493293 564950 565992 516022 464389
0110010011100000100001000: 493293 564950 565992 516022 545270
0110010011100000100001000: 493293 564950 565992 484459 534086
0110010011100000100001000: 493293 564950 565992 484459 464389
0110010011100000100001000: 493293 564950 565992 484459 545270
0110010011100000100001000: 493293 564950 565992 484459 516022
0110010011100000100001000: 493293 564950 565992 468379 463048
0110010011100000100001000: 493293 564950 565992 468379 534086
0110010011100000100001000: 493293 564950 565992 468379 464389
0110010011100000100001000: 493293 564950 565992 468379 545270
0110010011100000100001000: 493293 564950 565992 468379 516022
0110010011100000100001000: 493293 564950 565992 468379 484459
0111010100110001000100010: 493293 564950 481950 568430 649658
0110010011100000100001000: 548771 497799 649658 481950 534086
0110010011100000100001000: 548771 497799 649658 649926 534086
0110010011100000100001000: 548771 497799 649658 649926 481950
0110010011100000100001000: 548771 497799 649658 503054 534086
0110010011100000100001000: 548771 497799 649658 503054 481950
0110010011100000100001000: 548771 497799 649658 503054 649926
0110010011100000100001000: 548771 497799 468379 568430 534086
0110010011100000100001000: 548771 497799 468379 481950 534086
0110010011100000100001000: 548771 497799 468379 481950 568430
0110010011100000100001000: 548771 497799 468379 649926 534086
0110010011100000100001000: 548771 497799 468379 649926 568430
0110010011100000100001000: 548771 497799 468379 649926 481950
0110010010100010100000100: 548771 468379 649658 503054 568430
0110010010100010100000100: 548771 468379 649658 564950 568430
0110010011100000100001000: 548771 468379 649658 566125 503054
0110010011100000100001000: 548771 468379 649658 566125 564950
0110010010100010100000100: 548771 468379 649658 566125 568430
0110010010100010100000100: 548771 468379 497799 564950 568430
0110010010100010100000100: 548771 468379 497799 564950 649926
0110010011100000100001000: 548771 468379 497799 566125 564950
0110010010100010100000100: 548771 468379 497799 566125 534086
0110010010100010100000100: 548771 468379 497799 566125 568430
0110010010100010100000100: 548771 468379 497799 566125 649926
0111010101110001000001000: 484459 463048 564950 536599 479819
0111010101110001000001000: 484459 463048 564950 491649 479819
0110010010100010100000100: 484459 491649 463048 516022 479819
0110010011100000100001000: 484459 491649 463048 481950 516022
0110010010100010100000100: 484459 491649 463048 481950 479819
0110010011100000100001000: 484459 491649 536599 481950 516022
0110010011100000100001000: 484459 564950 536599 464389 534086
0110010011100000100001000: 484459 564950 536599 545270 534086
0110010011100000100001000: 484459 564950 536599 545270 464389
0110010011100000100001000: 484459 564950 536599 516022 534086
0110010011100000100001000: 484459 564950 536599 516022 464389
0110010011100000100001000: 484459 564950 536599 516022 545270
0110010011100000100001000: 484459 564950 536599 493293 534086
0110010011100000100001000: 484459 564950 536599 493293 464389
0110010011100000100001000: 484459 564950 536599 493293 545270
0110010011100000100001000: 484459 564950 536599 493293 516022
0110010011100000100001000: 484459 564950 536599 481950 534086
0110010011100000100001000: 484459 564950 536599 481950 464389
0110010011100000100001000: 484459 564950 536599 481950 545270
0110010011100000100001000: 484459 564950 536599 481950 516022
0110010011100000100001000: 484459 564950 536599 503054 534086
0110010011100000100001000: 484459 564950 536599 503054 464389
0110010011100000100001000: 484459 564950 536599 503054 516022
0110010011100000100001000: 484459 564950 536599 503054 493293
0110010011100000100001000: 484459 564950 536599 503054 481950
0110010011100000100001000: 484459 564950 536599 468379 534086
0110010011100000100001000: 484459 564950 536599 468379 464389
0110010011100000100001000: 484459 564950 536599 468379 545270
0110010011100000100001000: 484459 564950 536599 468379 516022
0110010011100000100001000: 484459 564950 536599 468379 493293
0110010011100000100001000: 484459 564950 536599 468379 481950
0110010011100000100001000: 484459 564950 491649 464389 534086
0110010011100000100001000: 484459 564950 491649 545270 534086
0110010011100000100001000: 484459 564950 491649 545270 464389
0110010011100000100001000: 484459 564950 491649 493293 534086
0110010011100000100001000: 484459 564950 491649 493293 464389
0110010011100000100001000: 484459 564950 491649 493293 545270
0110010011100000100001000: 484459 564950 491649 503054 534086
0110010011100000100001000: 484459 564950 491649 503054 464389
0110010011100000100001000: 484459 564950 491649 503054 493293
0110010011100000100001000: 484459 564950 491649 468379 534086
0110010011100000100001000: 484459 564950 491649 468379 464389
0110010011100000100001000: 484459 564950 491649 468379 545270
0110010011100000100001000: 484459 564950 491649 468379 493293
0110010011100100110001000: 484459 564950 491649 516022 534086
0110010011100100110001000: 484459 564950 491649 516022 464389
0110010011100100110001000: 484459 564950 491649 516022 545270
0110010011100100110001000: 484459 564950 491649 516022 493293
0110010011100100110001000: 484459 564950 491649 516022 503054
0110010011100100110001000: 484459 564950 491649 516022 468379
0111110100110001000010000: 484459 564950 463048 491649 536599
0110010010100010100000100: 491649 484459 516022 463048 566125
0110010011100000100001000: 491649 484459 516022 536599 463048
0110010010100010100000100: 491649 484459 516022 536599 566125
0110010011100000100001000: 491649 484459 481950 536599 463048
0110010011100000100001000: 491649 481950 516022 497799 493293
0110010011100000100001000: 491649 481950 516022 497799 565992
0110010010100010100000100: 491649 481950 484459 493293 463048
0110010010100010100000100: 491649 481950 484459 493293 536599
0110010010100010100000100: 491649 481950 484459 565992 463048
0110010010100010100000100: 491649 481950 484459 565992 536599
0110010011100000100001000: 491649 481950 484459 497799 493293
0110010011100000100001000: 491649 481950 484459 497799 565992
0110010010100010100000100: 491649 481950 484459 497799 463048
0110010010100010100000100: 491649 481950 484459 497799 536599
0110010011100000100001000: 491649 481950 484459 566125 493293
0110010011100000100001000: 491649 481950 484459 566125 565992
0110010011100000100001000: 491649 481950 484459 566125 497799
0110010010100010100000100: 491649 481950 484459 566125 463048
0110010010100010100000100: 491649 481950 484459 566125 536599
0110010011100000100001000: 516022 564950 491649 534086 463048
0110010011100000100001000: 516022 564950 491649 464389 463048
0110010011100000100001000: 516022 564950 491649 464389 534086
0110010011100000100001000: 516022 564950 491649 545270 463048
0110010011100000100001000: 516022 564950 491649 545270 534086
0110010011100000100001000: 516022 564950 491649 545270 464389
0110010011100000100001000: 516022 564950 491649 493293 463048
0110010011100000100001000: 516022 564950 491649 493293 534086
0110010011100000100001000: 516022 564950 491649 493293 464389
0110010011100000100001000: 516022 564950 491649 493293 545270
0110010011100000100001000: 516022 564950 491649 503054 463048
0110010011100000100001000: 516022 564950 491649 503054 534086
0110010011100000100001000: 516022 564950 491649 503054 464389
0110010011100000100001000: 516022 564950 491649 503054 493293
0110010011100000100001000: 516022 564950 491649 468379 463048
0110010011100000100001000: 516022 564950 491649 468379 534086
0110010011100000100001000: 516022 564950 491649 468379 464389
0110010011100000100001000: 516022 564950 491649 468379 545270
0110010011100000100001000: 516022 564950 491649 468379 493293
0110010011100000100001000: 516022 564950 566125 534086 463048
0110010011100000100001000: 516022 564950 566125 464389 463048
0110010011100000100001000: 516022 564950 566125 464389 534086
0110010011100000100001000: 516022 564950 566125 545270 463048
0110010011100000100001000: 516022 564950 566125 545270 534086
0110010011100000100001000: 516022 564950 566125 545270 464389
0110010011100000100001000: 516022 564950 566125 484459 534086
0110010011100000100001000: 516022 564950 566125 484459 464389
0110010011100000100001000: 516022 564950 566125 484459 545270
0110010011100000100001000: 516022 564950 566125 493293 463048
0110010011100000100001000: 516022 564950 566125 493293 534086
0110010011100000100001000: 516022 564950 566125 493293 464389
0110010011100000100001000: 516022 564950 566125 493293 545270
0110010011100000100001000: 516022 564950 566125 493293 484459
0110010011100000100001000: 516022 564950 566125 503054 463048
0110010011100000100001000: 516022 564950 566125 503054 534086
0110010011100000100001000: 516022 564950 566125 503054 464389
0110010011100000100001000: 516022 564950 566125 503054 484459
0110010011100000100001000: 516022 564950 566125 503054 493293
0110010010100010100000100: 516022 566125 491649 468379 484459
0110010011100100110001000: 545270 649926 564950 464389 497799
0110010010100010100000100: 545270 503054 649926 565992 464389
0110010011100000100001000: 545270 503054 649926 468379 565992
0110010010100010100000100: 545270 503054 649926 468379 464389
0110010010100010100000100: 545270 564950 649926 463048 497799
0110010011100000100001000: 545270 564950 649926 534086 463048
0110010011100000100001000: 545270 564950 649926 516022 463048
0110010011100000100001000: 545270 564950 649926 516022 534086
0110010010100010100000100: 545270 564950 649926 516022 497799
0110010011100000100001000: 545270 564950 649926 484459 534086
0110010011100000100001000: 545270 564950 649926 484459 516022
0110010010100010100000100: 545270 564950 649926 484459 497799
0110010011100000100001000: 545270 564950 649926 493293 463048
0110010011100000100001000: 545270 564950 649926 493293 534086
0110010011100000100001000: 545270 564950 649926 493293 516022
0110010011100000100001000: 545270 564950 649926 493293 484459
0110010010100010100000100: 545270 564950 649926 493293 497799
0110010011100000100001000: 545270 564950 649926 481950 463048
0110010011100000100001000: 545270 564950 649926 481950 534086
0110010011100000100001000: 545270 564950 649926 481950 516022
0110010011100000100001000: 545270 564950 649926 481950 484459
0110010011100000100001000: 545270 564950 649926 468379 463048
0110010011100000100001000: 545270 564950 649926 468379 534086
0110010011100000100001000: 545270 564950 649926 468379 516022
0110010011100000100001000: 545270 564950 649926 468379 484459
0110010011100000100001000: 545270 564950 649926 468379 493293
0110010011100000100001000: 545270 564950 649926 468379 481950
0110010010100010100000100: 545270 564950 649926 468379 497799
0110010011100100110001000: 545270 564950 649926 464389 463048
0110010011100100110001000: 545270 564950 649926 464389 534086
0110010011100100110001000: 545270 564950 649926 464389 516022
0110010011100100110001000: 545270 564950 649926 464389 484459
0110010011100100110001000: 545270 564950 649926 464389 493293
0110010011100100110001000: 545270 564950 649926 464389 481950
0110010011100100110001000: 545270 564950 649926 464389 468379
0110010010100010100000100: 464389 564950 649926 463048 497799
0110010011100000100001000: 464389 564950 649926 534086 463048
0110010011100000100001000: 464389 564950 649926 516022 463048
0110010011100000100001000: 464389 564950 649926 516022 534086
0110010010100010100000100: 464389 564950 649926 516022 497799
0110010011100000100001000: 464389 564950 649926 484459 534086
0110010011100000100001000: 464389 564950 649926 484459 516022
0110010010100010100000100: 464389 564950 649926 484459 497799
0110010011100000100001000: 464389 564950 649926 493293 463048
0110010011100000100001000: 464389 564950 649926 493293 534086
0110010011100000100001000: 464389 564950 649926 493293 516022
0110010011100000100001000: 464389 564950 649926 493293 484459
0110010010100010100000100: 464389 564950 649926 493293 497799
0110010011100000100001000: 464389 564950 649926 481950 463048
0110010011100000100001000: 464389 564950 649926 481950 534086
0110010011100000100001000: 464389 564950 649926 481950 516022
0110010011100000100001000: 464389 564950 649926 481950 484459
0110010011100000100001000: 464389 564950 649926 503054 463048
0110010011100000100001000: 464389 564950 649926 503054 534086
0110010011100000100001000: 464389 564950 649926 503054 516022
0110010011100000100001000: 464389 564950 649926 503054 484459
0110010011100000100001000: 464389 564950 649926 503054 493293
0110010011100000100001000: 464389 564950 649926 503054 481950
0110010011100000100001000: 464389 564950 649926 468379 463048
0110010011100000100001000: 464389 564950 649926 468379 534086
0110010011100000100001000: 464389 564950 649926 468379 516022
0110010011100000100001000: 464389 564950 649926 468379 484459
0110010011100000100001000: 464389 564950 649926 468379 493293
0110010011100000100001000: 464389 564950 649926 468379 481950
0110010010100010100000100: 464389 564950 649926 468379 497799
0110010010100010100000100: 479819 534086 463048 497799 484459
0110010010100010100000100: 534086 497799 479819 548771 463048
0110010011100000100001000: 534086 497799 479819 568430 548771
0110010010100010100000100: 534086 497799 479819 568430 463048
0110010011100000100001000: 534086 497799 479819 481950 548771
0110010011100000100001000: 534086 497799 479819 481950 568430
0110010010100010100000100: 534086 497799 479819 481950 463048
0110010011100000100001000: 534086 497799 479819 649926 548771
0110010011100000100001000: 534086 497799 479819 649926 568430
0110010011100000100001000: 534086 497799 479819 649926 481950
0110010010100010100000100: 534086 497799 479819 649926 463048
0110010011100000100001000: 534086 497799 479819 503054 548771
0110010011100000100001000: 534086 497799 479819 503054 568430
0110010011100000100001000: 534086 497799 479819 503054 481950
0110010011100000100001000: 534086 497799 479819 503054 649926
0110010010100010100000100: 534086 497799 479819 503054 463048
0110010011100000100001000: 534086 497799 564950 568430 548771
0110010011100000100001000: 534086 497799 564950 649926 548771
0110010011100000100001000: 534086 497799 564950 649926 568430
0110010011100000100001000: 534086 564950 479819 545270 464389
0110010011100000100001000: 534086 564950 479819 516022 464389
0110010011100000100001000: 534086 564950 479819 516022 545270
0110010011100000100001000: 534086 564950 479819 484459 464389
0110010011100000100001000: 534086 564950 479819 484459 545270
0110010011100000100001000: 534086 564950 479819 484459 516022
0110010011100000100001000: 534086 564950 479819 493293 464389
0110010011100000100001000: 534086 564950 479819 493293 545270
0110010011100000100001000: 534086 564950 479819 493293 516022
0110010011100000100001000: 534086 564950 479819 493293 484459
0110010011100000100001000: 534086 564950 479819 481950 464389
0110010011100000100001000: 534086 564950 479819 481950 545270
0110010011100000100001000: 534086 564950 479819 481950 516022
0110010011100000100001000: 534086 564950 479819 481950 484459
0110010011100000100001000: 534086 564950 479819 503054 464389
0110010011100000100001000: 534086 564950 479819 503054 516022
0110010011100000100001000: 534086 564950 479819 503054 484459
0110010011100000100001000: 534086 564950 479819 503054 493293
0110010011100000100001000: 534086 564950 479819 503054 481950
0110010011100000100001000: 534086 564950 479819 468379 464389
0110010011100000100001000: 534086 564950 479819 468379 545270
0110010011100000100001000: 534086 564950 479819 468379 516022
0110010011100000100001000: 534086 564950 479819 468379 484459
0110010011100000100001000: 534086 564950 479819 468379 493293
0110010011100000100001000: 534086 564950 479819 468379 481950
0110010011100100110001000: 534086 564950 479819 463048 464389
0110010011100100110001000: 534086 564950 479819 463048 545270
0110010011100100110001000: 534086 564950 479819 463048 516022
0110010011100100110001000: 534086 564950 479819 463048 493293
0110010011100100110001000: 534086 564950 479819 463048 481950
0110010011100100110001000: 534086 564950 479819 463048 503054
0110010011100100110001000: 534086 564950 479819 463048 468379
0110010010100010100000100: 534086 564950 497799 463048 548771
0110010010100010100000100: 534086 564950 497799 463048 568430
0110010010100010100000100: 534086 564950 497799 463048 649926
0110010011100000100001000: 534086 564950 497799 464389 463048
0110010010100010100000100: 534086 564950 497799 464389 548771
0110010010100010100000100: 534086 564950 497799 464389 568430
0110010011100000100001000: 534086 564950 497799 545270 463048
0110010011100000100001000: 534086 564950 497799 545270 464389
0110010010100010100000100: 534086 564950 497799 545270 548771
0110010010100010100000100: 534086 564950 497799 545270 568430
0110010011100000100001000: 534086 564950 497799 516022 463048
0110010011100000100001000: 534086 564950 497799 516022 464389
0110010011100000100001000: 534086 564950 497799 516022 545270
0110010010100010100000100: 534086 564950 497799 516022 548771
0110010010100010100000100: 534086 564950 497799 516022 568430
0110010010100010100000100: 534086 564950 497799 516022 649926
0110010011100000100001000: 534086 564950 497799 484459 464389
0110010011100000100001000: 534086 564950 497799 484459 545270
0110010011100000100001000: 534086 564950 497799 484459 516022
0110010010100010100000100: 534086 564950 497799 484459 548771
0110010010100010100000100: 534086 564950 497799 484459 568430
0110010010100010100000100: 534086 564950 497799 484459 649926
0110010011100000100001000: 534086 564950 497799 493293 463048
0110010011100000100001000: 534086 564950 497799 493293 464389
0110010011100000100001000: 534086 564950 497799 493293 545270
0110010011100000100001000: 534086 564950 497799 493293 516022
0110010011100000100001000: 534086 564950 497799 493293 484459
0110010010100010100000100: 534086 564950 497799 493293 548771
0110010010100010100000100: 534086 564950 497799 493293 649926
0110010011100000100001000: 534086 564950 497799 468379 463048
0110010011100000100001000: 534086 564950 497799 468379 464389
0110010011100000100001000: 534086 564950 497799 468379 545270
0110010011100000100001000: 534086 564950 497799 468379 516022
0110010011100000100001000: 534086 564950 497799 468379 484459
0110010011100000100001000: 534086 564950 497799 468379 493293
0110010010100010100000100: 534086 564950 497799 468379 568430
0110010010100010100000100: 534086 564950 497799 468379 649926
0110010010100010100000100: 463048 484459 479819 536599 534086
0110010011100000100001000: 463048 484459 479819 491649 536599
0110010010100010100000100: 463048 484459 479819 491649 534086
0110010011100000100001000: 463048 564950 479819 545270 464389
0110010011100000100001000: 463048 564950 479819 516022 464389
0110010011100000100001000: 463048 564950 479819 516022 545270
0110010011100000100001000: 463048 564950 479819 493293 464389
0110010011100000100001000: 463048 564950 479819 493293 545270
0110010011100000100001000: 463048 564950 479819 493293 516022
0110010011100000100001000: 463048 564950 479819 481950 464389
0110010011100000100001000: 463048 564950 479819 481950 545270
0110010011100000100001000: 463048 564950 479819 481950 516022
0110010011100000100001000: 463048 564950 479819 503054 464389
0110010011100000100001000: 463048 564950 479819 503054 516022
0110010011100000100001000: 463048 564950 479819 503054 493293
0110010011100000100001000: 463048 564950 479819 503054 481950
0110010011100000100001000: 463048 564950 479819 468379 464389
0110010011100000100001000: 463048 564950 479819 468379 545270
0110010011100000100001000: 463048 564950 479819 468379 516022
0110010011100000100001000: 463048 564950 479819 468379 493293
0110010011100000100001000: 463048 564950 479819 468379 481950
