Vertex,0111110100110001000010000,0111010100110001000100010,0111110100110001000110010,0111110000100001000010000,0111010101110001000101010,0111010101110001000001000,0110010011100100110001000,0110010011100000100001000,0111010110110011100000100,0111110110110001100010000,0110010010100010100000100
496906,20.0,8.0,4.0,5.0,4.0,13.0,4.0,25.0,1.0,7.0,21.0
657298,0.0,4.0,0.0,0.0,3.0,13.0,4.0,22.0,1.0,1.0,31.0
635004,14.0,4.0,2.0,13.0,1.0,5.0,1.0,27.0,1.0,7.0,6.0
623929,14.0,5.0,2.0,13.0,3.0,5.0,5.0,33.0,1.0,6.0,19.0
502334,0.0,3.0,0.0,0.0,0.0,0.0,1.0,5.0,0.0,0.0,20.0
522005,14.0,5.0,2.0,13.0,2.0,10.0,6.0,26.0,1.0,7.0,13.0
462691,32.0,17.0,4.0,24.0,4.0,17.0,10.0,76.0,2.0,11.0,36.0
546267,0.0,5.0,0.0,0.0,1.0,5.0,6.0,28.0,1.0,0.0,12.0
618653,16.0,7.0,0.0,17.0,1.0,3.0,7.0,49.0,0.0,2.0,23.0
466268,16.0,4.0,0.0,17.0,0.0,4.0,2.0,40.0,0.0,2.0,15.0
526954,20.0,10.0,4.0,5.0,1.0,7.0,1.0,17.0,1.0,6.0,8.0
491440,14.0,5.0,2.0,13.0,0.0,3.0,2.0,24.0,1.0,6.0,6.0
495478,0.0,4.0,0.0,0.0,0.0,0.0,1.0,24.0,0.0,0.0,16.0
508455,0.0,4.0,0.0,0.0,0.0,0.0,0.0,17.0,0.0,0.0,12.0
584047,0.0,0.0,0.0,0.0,0.0,0.0,0.0,1.0,0.0,0.0,13.0
493589,0.0,0.0,0.0,0.0,0.0,0.0,0.0,0.0,0.0,0.0,7.0
481881,0.0,0.0,0.0,0.0,0.0,0.0,0.0,1.0,0.0,0.0,10.0
611234,0.0,0.0,0.0,0.0,0.0,0.0,0.0,0.0,0.0,0.0,7.0
graph,32.0,17.0,4.0,24.0,4.0,17.0,10.0,83.0,2.0,11.0,55.0
