Vertex,0110010010100010100100110,0110010010100010100000100,0111010101110001000101010,0111110100110001000010000,0110010011100000100001000,0111010100110001000100010,0111110100110001000110010,0111110111110101110011000,0111010110110011100000100,0110010011100100110001000,0111110000100001000010000,0111110110110001100010000,0110010011100110110001100,0111110110110011100110110,0111010101110001000001000,0111110110110011100010100,0111010110110011100100110,0111110111110001100011000,0111110110110101110010000
508129,2.0,87.0,7.0,14.0,94.0,20.0,0.0,0.0,6.0,28.0,3.0,4.0,1.0,0.0,16.0,0.0,1.0,0.0,1.0
649637,4.0,90.0,7.0,12.0,80.0,17.0,1.0,1.0,10.0,25.0,7.0,12.0,1.0,0.0,20.0,3.0,1.0,2.0,0.0
527297,1.0,51.0,0.0,0.0,32.0,11.0,0.0,0.0,0.0,4.0,1.0,0.0,0.0,0.0,0.0,0.0,0.0,0.0,0.0
634087,4.0,65.0,8.0,17.0,60.0,27.0,4.0,4.0,19.0,13.0,1.0,17.0,0.0,1.0,38.0,9.0,1.0,2.0,5.0
619372,1.0,48.0,0.0,4.0,47.0,7.0,0.0,0.0,5.0,2.0,2.0,4.0,0.0,0.0,16.0,0.0,0.0,0.0,0.0
578323,8.0,92.0,3.0,2.0,68.0,17.0,0.0,0.0,8.0,9.0,0.0,1.0,0.0,0.0,14.0,0.0,0.0,0.0,0.0
462691,4.0,79.0,10.0,26.0,76.0,49.0,3.0,4.0,39.0,22.0,7.0,39.0,1.0,2.0,61.0,15.0,1.0,3.0,5.0
474307,10.0,86.0,14.0,25.0,124.0,43.0,4.0,4.0,28.0,33.0,8.0,27.0,1.0,2.0,64.0,8.0,1.0,2.0,5.0
583757,0.0,35.0,4.0,14.0,54.0,9.0,0.0,0.0,1.0,13.0,7.0,14.0,1.0,0.0,18.0,0.0,0.0,0.0,1.0
495945,5.0,72.0,11.0,19.0,75.0,24.0,3.0,4.0,15.0,9.0,3.0,17.0,0.0,1.0,43.0,7.0,0.0,1.0,5.0
627285,11.0,90.0,1.0,9.0,84.0,28.0,3.0,0.0,10.0,6.0,2.0,6.0,0.0,0.0,26.0,1.0,0.0,0.0,1.0
581357,8.0,102.0,8.0,18.0,114.0,31.0,2.0,1.0,24.0,14.0,5.0,29.0,0.0,2.0,44.0,13.0,0.0,1.0,0.0
486493,4.0,70.0,6.0,14.0,65.0,29.0,4.0,0.0,13.0,5.0,1.0,7.0,0.0,0.0,41.0,5.0,0.0,0.0,1.0
564617,7.0,74.0,5.0,12.0,77.0,18.0,1.0,1.0,14.0,16.0,6.0,19.0,0.0,1.0,29.0,7.0,0.0,1.0,0.0
479702,5.0,78.0,2.0,12.0,81.0,18.0,0.0,1.0,17.0,12.0,7.0,15.0,0.0,1.0,27.0,7.0,0.0,3.0,0.0
525678,2.0,53.0,4.0,1.0,32.0,6.0,0.0,0.0,5.0,3.0,0.0,3.0,0.0,0.0,26.0,0.0,0.0,0.0,1.0
590727,4.0,58.0,0.0,1.0,42.0,11.0,0.0,0.0,6.0,1.0,0.0,1.0,0.0,0.0,12.0,0.0,0.0,0.0,0.0
graph,16.0,246.0,18.0,40.0,241.0,73.0,5.0,4.0,44.0,43.0,12.0,43.0,1.0,2.0,99.0,15.0,1.0,3.0,5.0
