Vertex,0111110000100001000010000,0111110110110101110010000,0111010101110001000101010,0111110111110101110011000,0111010110110011100000100,0111110100110001000010000,0111010110110011100100110,0110010010100010100000100,0110010011100100110001000,0111110110110011100110110,0111110111110111110011100,0111110111110001100011000,0110010010100010100100110,0111110100110001000110010,0110010011100000100001000,0111110110110001100010000,0111110110110011100010100,0111010101110001000001000,0111010100110001000100010
635708,0.0,0.0,0.0,0.0,2.0,1.0,0.0,61.0,0.0,0.0,0.0,0.0,0.0,0.0,28.0,0.0,0.0,5.0,11.0
624722,16.0,1.0,0.0,1.0,20.0,20.0,0.0,101.0,3.0,0.0,0.0,0.0,5.0,0.0,127.0,14.0,5.0,39.0,37.0
537365,0.0,1.0,0.0,0.0,5.0,0.0,0.0,48.0,0.0,0.0,0.0,0.0,0.0,0.0,34.0,0.0,0.0,20.0,14.0
514142,2.0,1.0,0.0,0.0,7.0,3.0,0.0,61.0,1.0,0.0,0.0,0.0,5.0,0.0,65.0,5.0,0.0,34.0,21.0
463401,43.0,6.0,1.0,7.0,11.0,60.0,0.0,63.0,2.0,0.0,0.0,2.0,0.0,10.0,84.0,43.0,6.0,57.0,31.0
570191,40.0,8.0,9.0,13.0,32.0,67.0,1.0,105.0,19.0,1.0,1.0,14.0,6.0,9.0,189.0,92.0,32.0,82.0,56.0
591654,57.0,4.0,2.0,7.0,18.0,71.0,0.0,47.0,2.0,0.0,1.0,8.0,2.0,5.0,100.0,51.0,12.0,38.0,30.0
606786,22.0,2.0,5.0,0.0,6.0,16.0,1.0,27.0,13.0,0.0,0.0,0.0,0.0,0.0,91.0,16.0,0.0,35.0,14.0
557387,15.0,6.0,4.0,7.0,17.0,62.0,0.0,94.0,8.0,1.0,0.0,3.0,7.0,15.0,99.0,54.0,19.0,68.0,41.0
635290,46.0,1.0,0.0,2.0,6.0,75.0,1.0,41.0,9.0,0.0,0.0,9.0,2.0,12.0,102.0,46.0,20.0,29.0,22.0
502569,77.0,1.0,1.0,2.0,1.0,71.0,0.0,15.0,3.0,0.0,0.0,8.0,0.0,2.0,94.0,43.0,7.0,26.0,6.0
497799,24.0,14.0,4.0,17.0,21.0,69.0,0.0,52.0,9.0,1.0,1.0,6.0,3.0,9.0,74.0,66.0,17.0,59.0,44.0
551320,47.0,4.0,3.0,7.0,9.0,71.0,0.0,37.0,1.0,0.0,1.0,8.0,1.0,10.0,88.0,53.0,14.0,42.0,22.0
554368,101.0,14.0,8.0,17.0,42.0,175.0,1.0,60.0,12.0,1.0,1.0,18.0,2.0,21.0,169.0,149.0,42.0,107.0,66.0
541856,71.0,0.0,7.0,3.0,12.0,65.0,0.0,58.0,15.0,1.0,0.0,10.0,3.0,2.0,144.0,53.0,14.0,35.0,16.0
534797,41.0,2.0,0.0,1.0,7.0,59.0,0.0,42.0,4.0,0.0,0.0,3.0,2.0,8.0,85.0,44.0,14.0,23.0,16.0
538541,45.0,3.0,5.0,0.0,3.0,70.0,1.0,30.0,13.0,0.0,0.0,1.0,0.0,7.0,95.0,33.0,6.0,22.0,19.0
480545,43.0,2.0,3.0,1.0,6.0,75.0,0.0,43.0,8.0,0.0,0.0,0.0,1.0,5.0,76.0,32.0,7.0,31.0,18.0
572925,0.0,0.0,3.0,0.0,10.0,0.0,0.0,40.0,8.0,0.0,0.0,0.0,1.0,0.0,81.0,1.0,0.0,18.0,21.0
graph,138.0,14.0,11.0,17.0,47.0,206.0,1.0,205.0,26.0,1.0,1.0,18.0,8.0,23.0,365.0,159.0,43.0,154.0,101.0
