Vertex,0111110110110001100010000,0111110100110001000010000,0110010011100000100001000,0111010110110011100000100,0111010101110001000001000,0110010011100100110001000,0111110110110011100010100,0111010100110001000100010,0110010010100010100000100,0110010010100010100100110,0111010101110001000101010,0111110000100001000010000,0111010110110011100100110
494284,6.0,7.0,51.0,6.0,21.0,6.0,3.0,19.0,63.0,1.0,2.0,1.0,1.0
653054,6.0,5.0,30.0,6.0,15.0,14.0,3.0,15.0,40.0,2.0,4.0,0.0,1.0
561366,2.0,2.0,29.0,1.0,9.0,1.0,0.0,6.0,47.0,0.0,0.0,0.0,0.0
535358,2.0,4.0,39.0,0.0,9.0,15.0,0.0,3.0,31.0,3.0,3.0,2.0,1.0
578078,2.0,5.0,46.0,3.0,15.0,11.0,2.0,7.0,50.0,4.0,4.0,1.0,0.0
596191,2.0,7.0,78.0,2.0,18.0,17.0,2.0,11.0,68.0,5.0,4.0,3.0,1.0
517851,2.0,4.0,21.0,1.0,12.0,2.0,2.0,7.0,19.0,0.0,1.0,0.0,0.0
607225,0.0,0.0,11.0,0.0,0.0,0.0,0.0,3.0,18.0,0.0,0.0,0.0,0.0
583873,0.0,0.0,16.0,0.0,0.0,0.0,0.0,3.0,34.0,0.0,0.0,0.0,0.0
641367,0.0,3.0,69.0,2.0,6.0,9.0,0.0,6.0,72.0,3.0,2.0,3.0,0.0
461125,0.0,2.0,34.0,1.0,4.0,3.0,0.0,3.0,28.0,1.0,0.0,2.0,0.0
539718,6.0,8.0,40.0,6.0,27.0,11.0,3.0,16.0,43.0,2.0,4.0,1.0,1.0
458951,2.0,2.0,19.0,1.0,11.0,2.0,0.0,3.0,23.0,1.0,0.0,0.0,0.0
519930,0.0,0.0,24.0,0.0,0.0,1.0,0.0,2.0,29.0,0.0,0.0,1.0,0.0
648465,0.0,0.0,28.0,0.0,0.0,1.0,0.0,2.0,36.0,0.0,0.0,1.0,0.0
651433,0.0,0.0,8.0,0.0,0.0,0.0,0.0,4.0,24.0,1.0,0.0,0.0,0.0
534290,0.0,1.0,24.0,1.0,3.0,7.0,0.0,5.0,24.0,2.0,1.0,0.0,0.0
536316,0.0,0.0,4.0,0.0,0.0,0.0,0.0,0.0,8.0,0.0,0.0,0.0,0.0
547346,0.0,0.0,1.0,0.0,0.0,0.0,0.0,0.0,13.0,0.0,0.0,0.0,0.0
559953,0.0,0.0,3.0,0.0,0.0,0.0,0.0,0.0,15.0,0.0,0.0,0.0,0.0
graph,6.0,10.0,115.0,6.0,30.0,20.0,3.0,23.0,137.0,5.0,5.0,3.0,1.0
