Vertex,0111110110110011100010100,0111110100110001000010000,0111110110110011100110110,0110010010100010100000100,0110010011100100110001000,0111110110110101110010000,0111110100110001000110010,0110010011100110110001100,0111110111110001100011000,0111010110110011100100110,0111110111110101110011000,0111010100110001000100010,0110010010100010100100110,0110010011100000100001000,0111010101110001000101010,0111010110110011100000100,0111110110110001100010000,0111110000100001000010000,0111010101110001000001000
604948,2.0,46.0,0.0,156.0,56.0,0.0,5.0,5.0,0.0,3.0,1.0,30.0,6.0,204.0,18.0,4.0,24.0,24.0,63.0
485076,4.0,25.0,0.0,232.0,59.0,1.0,2.0,4.0,0.0,3.0,0.0,42.0,4.0,218.0,19.0,8.0,5.0,9.0,68.0
570191,20.0,115.0,1.0,277.0,85.0,9.0,23.0,4.0,2.0,7.0,3.0,158.0,8.0,357.0,41.0,57.0,86.0,30.0,248.0
561830,11.0,51.0,1.0,182.0,65.0,9.0,9.0,5.0,1.0,6.0,3.0,81.0,5.0,182.0,22.0,17.0,36.0,16.0,111.0
471294,0.0,2.0,0.0,87.0,12.0,0.0,0.0,0.0,0.0,0.0,0.0,10.0,0.0,51.0,2.0,2.0,0.0,2.0,10.0
468497,15.0,57.0,1.0,249.0,41.0,0.0,11.0,2.0,2.0,3.0,1.0,83.0,3.0,282.0,18.0,34.0,45.0,19.0,118.0
511202,1.0,53.0,0.0,244.0,55.0,1.0,10.0,2.0,0.0,2.0,0.0,70.0,7.0,264.0,19.0,5.0,20.0,23.0,95.0
621607,0.0,20.0,0.0,227.0,55.0,1.0,4.0,4.0,0.0,3.0,0.0,46.0,11.0,181.0,20.0,5.0,6.0,6.0,74.0
470271,7.0,48.0,0.0,219.0,21.0,9.0,12.0,1.0,0.0,2.0,3.0,83.0,6.0,188.0,15.0,13.0,26.0,6.0,106.0
508192,13.0,54.0,1.0,278.0,61.0,0.0,9.0,2.0,2.0,2.0,1.0,72.0,7.0,305.0,29.0,31.0,45.0,24.0,118.0
487972,7.0,50.0,0.0,140.0,18.0,1.0,5.0,0.0,1.0,0.0,0.0,45.0,2.0,186.0,7.0,13.0,21.0,19.0,61.0
590007,8.0,44.0,1.0,180.0,25.0,9.0,8.0,1.0,1.0,1.0,3.0,62.0,2.0,206.0,17.0,22.0,34.0,17.0,82.0
530656,3.0,49.0,0.0,183.0,19.0,1.0,15.0,0.0,0.0,1.0,0.0,51.0,4.0,182.0,10.0,11.0,24.0,11.0,101.0
478853,7.0,42.0,0.0,191.0,38.0,1.0,9.0,0.0,1.0,1.0,0.0,43.0,8.0,226.0,12.0,19.0,31.0,21.0,78.0
493293,0.0,20.0,0.0,155.0,19.0,0.0,5.0,0.0,0.0,0.0,0.0,61.0,7.0,156.0,16.0,6.0,3.0,7.0,57.0
582945,0.0,4.0,0.0,158.0,19.0,0.0,0.0,0.0,0.0,0.0,0.0,26.0,7.0,115.0,2.0,3.0,1.0,3.0,21.0
584614,0.0,5.0,0.0,151.0,10.0,1.0,0.0,0.0,0.0,0.0,0.0,22.0,5.0,102.0,4.0,4.0,3.0,2.0,35.0
559581,0.0,5.0,0.0,99.0,3.0,1.0,0.0,0.0,0.0,0.0,0.0,16.0,1.0,65.0,0.0,2.0,2.0,2.0,26.0
473534,0.0,0.0,0.0,20.0,0.0,0.0,0.0,0.0,0.0,0.0,0.0,4.0,0.0,12.0,0.0,0.0,0.0,0.0,0.0
618023,0.0,6.0,0.0,79.0,6.0,0.0,0.0,0.0,0.0,0.0,0.0,17.0,1.0,93.0,0.0,1.0,0.0,4.0,12.0
599154,0.0,3.0,0.0,139.0,8.0,1.0,0.0,0.0,0.0,0.0,0.0,16.0,1.0,92.0,5.0,5.0,3.0,1.0,41.0
477762,0.0,10.0,0.0,75.0,8.0,0.0,0.0,0.0,0.0,0.0,0.0,13.0,2.0,103.0,0.0,5.0,3.0,7.0,24.0
650716,0.0,9.0,0.0,107.0,24.0,0.0,2.0,0.0,0.0,1.0,0.0,38.0,1.0,96.0,7.0,2.0,1.0,3.0,40.0
486182,0.0,2.0,0.0,71.0,2.0,0.0,0.0,0.0,0.0,0.0,0.0,15.0,2.0,60.0,0.0,1.0,1.0,1.0,19.0
656340,0.0,0.0,0.0,65.0,1.0,0.0,0.0,0.0,0.0,0.0,0.0,11.0,0.0,23.0,0.0,0.0,0.0,0.0,0.0
523351,2.0,10.0,0.0,100.0,10.0,0.0,1.0,0.0,0.0,0.0,0.0,29.0,0.0,95.0,2.0,11.0,5.0,3.0,25.0
632699,0.0,10.0,0.0,71.0,5.0,0.0,0.0,0.0,0.0,0.0,0.0,11.0,0.0,86.0,0.0,4.0,5.0,5.0,27.0
graph,20.0,148.0,1.0,827.0,145.0,9.0,26.0,6.0,2.0,7.0,3.0,231.0,20.0,826.0,57.0,57.0,86.0,53.0,332.0
