0101101001001000: 617770 599035 557376 516200
0101101001001000: 617770 599035 557376 575789
0101101001001000: 617770 599035 557376 566380
0111100010001000: 617770 575789 599035 516200
0101101001001000: 617770 575789 634160 516200
0101101001001000: 617770 575789 634160 599035
0101101001001000: 617770 575789 634160 566380
0101101001001000: 617770 575789 511892 516200
0101101001001000: 617770 575789 511892 599035
0101101001001000: 617770 575789 511892 566380
0100101101000100: 617770 575789 511892 634160
0111100010001000: 617770 566380 599035 516200
0111100010001000: 617770 566380 575789 516200
0111100010001000: 617770 566380 575789 599035
0101101001001000: 617770 566380 513551 516200
0101101001001000: 617770 566380 513551 599035
0101101001001000: 617770 566380 513551 575789
0101101001001000: 617770 566380 586946 516200
0101101001001000: 617770 566380 586946 599035
0101101001001000: 617770 566380 586946 575789
0100101101000100: 617770 566380 586946 513551
0110100010010010: 617770 516200 599035 557376
0110100010010010: 617770 516200 599035 557376
0111100010001000: 617770 516200 575789 599035
0110100010010010: 617770 516200 575789 634160
0110100010010010: 617770 516200 575789 511892
0110100010010010: 617770 516200 575789 634160
0110100010010010: 617770 516200 575789 511892
0111100010001000: 617770 516200 566380 599035
0111100010001000: 617770 516200 566380 575789
0110100010010010: 617770 516200 566380 513551
0110100010010010: 617770 516200 566380 586946
0110100010010010: 617770 516200 566380 513551
0110100010010010: 617770 516200 566380 586946
0110100110000100: 617770 599035 516200 557376
0111100010001000: 617770 599035 575789 516200
0110100110000100: 617770 599035 575789 557376
0110100010010010: 617770 599035 575789 634160
0110100010010010: 617770 599035 575789 511892
0110100010010010: 617770 599035 575789 634160
0110100010010010: 617770 599035 575789 511892
0111100010001000: 617770 599035 566380 516200
0111100010001000: 617770 599035 566380 575789
0110100110000100: 617770 599035 566380 557376
0110100010010010: 617770 599035 566380 513551
0110100010010010: 617770 599035 566380 586946
0110100010010010: 617770 599035 566380 513551
0110100010010010: 617770 599035 566380 586946
0111100010001000: 617770 599035 516200 575789
0111100010001000: 617770 599035 516200 566380
0110100110000100: 617770 599035 516200 557376
0110100110000100: 617770 599035 516200 557376
0110100110000100: 617770 599035 516200 557376
0110100110000100: 617770 599035 575789 557376
0110100110000100: 617770 599035 575789 557376
0110100110000100: 617770 599035 575789 557376
0110100110000100: 617770 599035 566380 557376
0110100110000100: 617770 599035 566380 557376
0110100110000100: 617770 599035 566380 557376
0101101001001000: 617770 599035 557376 516200
0101101001001000: 617770 599035 557376 575789
0101101001001000: 617770 599035 557376 566380
0100101001010010: 617770 599035 557376 620372
0100101001010010: 617770 599035 557376 620372
0100101001010010: 617770 599035 557376 620372
0110100110000100: 617770 575789 516200 634160
0110100110000100: 617770 575789 516200 511892
0111100010001000: 617770 575789 599035 516200
0110100110000100: 617770 575789 599035 634160
0110100110000100: 617770 575789 599035 511892
0110100010010010: 617770 575789 599035 557376
0110100010010010: 617770 575789 599035 557376
0111100010001000: 617770 575789 566380 516200
0111100010001000: 617770 575789 566380 599035
0110100110000100: 617770 575789 566380 634160
0110100110000100: 617770 575789 566380 511892
0110100010010010: 617770 575789 566380 513551
0110100010010010: 617770 575789 566380 586946
0110100010010010: 617770 575789 566380 513551
0110100010010010: 617770 575789 566380 586946
0111100010001000: 617770 575789 516200 599035
0111100010001000: 617770 575789 516200 566380
0110100110000100: 617770 575789 516200 634160
0110100110000100: 617770 575789 516200 511892
0110100110000100: 617770 575789 516200 634160
0110100110000100: 617770 575789 516200 511892
0110100110000100: 617770 575789 516200 634160
0110100110000100: 617770 575789 516200 511892
0111100010001000: 617770 575789 599035 516200
0111100010001000: 617770 575789 599035 566380
0111100010001000: 617770 575789 599035 516200
0110100110000100: 617770 575789 599035 634160
0110100110000100: 617770 575789 599035 511892
0110100110000100: 617770 575789 599035 634160
0110100110000100: 617770 575789 599035 511892
0110100110000100: 617770 575789 599035 634160
0110100110000100: 617770 575789 599035 511892
0110100010010010: 617770 575789 599035 557376
0110100110000100: 617770 575789 566380 634160
0110100110000100: 617770 575789 566380 511892
0110100110000100: 617770 575789 566380 634160
0110100110000100: 617770 575789 566380 511892
0110100110000100: 617770 575789 566380 634160
0110100110000100: 617770 575789 566380 511892
0101101001001000: 617770 575789 634160 516200
0101101001001000: 617770 575789 634160 599035
0101101001001000: 617770 575789 634160 566380
0100101001010010: 617770 575789 634160 474397
0100101001010010: 617770 575789 634160 474397
0100101001010010: 617770 575789 634160 474397
0100101001010010: 617770 575789 634160 474397
0101101001001000: 617770 575789 511892 516200
0101101001001000: 617770 575789 511892 599035
0101101001001000: 617770 575789 511892 566380
0100101001010010: 617770 575789 511892 513551
0100101001010010: 617770 575789 511892 513551
0100101101000100: 617770 575789 511892 634160
0100101001010010: 617770 575789 511892 513551
0100101001010010: 617770 575789 511892 513551
0110100110000100: 617770 566380 516200 513551
0110100110000100: 617770 566380 516200 586946
0111100010001000: 617770 566380 599035 516200
0110100110000100: 617770 566380 599035 513551
0110100110000100: 617770 566380 599035 586946
0110100010010010: 617770 566380 599035 557376
0110100010010010: 617770 566380 599035 557376
0111100010001000: 617770 566380 575789 516200
0111100010001000: 617770 566380 575789 599035
0110100110000100: 617770 566380 575789 513551
0110100110000100: 617770 566380 575789 586946
0110100010010010: 617770 566380 575789 634160
0110100010010010: 617770 566380 575789 511892
0110100010010010: 617770 566380 575789 634160
0110100010010010: 617770 566380 575789 511892
0111100010001000: 617770 566380 516200 599035
0111100010001000: 617770 566380 516200 575789
0110100110000100: 617770 566380 516200 513551
0110100110000100: 617770 566380 516200 586946
0110100110000100: 617770 566380 516200 513551
0110100110000100: 617770 566380 516200 586946
0110100110000100: 617770 566380 516200 513551
0110100110000100: 617770 566380 516200 586946
0111100010001000: 617770 566380 599035 516200
0111100010001000: 617770 566380 599035 575789
0111100010001000: 617770 566380 599035 516200
0110100110000100: 617770 566380 599035 513551
0110100110000100: 617770 566380 599035 586946
0110100110000100: 617770 566380 599035 513551
0110100110000100: 617770 566380 599035 586946
0110100110000100: 617770 566380 599035 513551
0110100110000100: 617770 566380 599035 586946
0110100010010010: 617770 566380 599035 557376
0111100010001000: 617770 566380 575789 516200
0111100010001000: 617770 566380 575789 599035
0111100010001000: 617770 566380 575789 516200
0111100010001000: 617770 566380 575789 599035
0110100110000100: 617770 566380 575789 513551
0110100110000100: 617770 566380 575789 586946
0110100110000100: 617770 566380 575789 513551
0110100110000100: 617770 566380 575789 586946
0110100110000100: 617770 566380 575789 513551
0110100110000100: 617770 566380 575789 586946
0101101001001000: 617770 566380 513551 516200
0101101001001000: 617770 566380 513551 599035
0101101001001000: 617770 566380 513551 575789
0100101001010010: 617770 566380 513551 511892
0100101001010010: 617770 566380 513551 511892
0100101001010010: 617770 566380 513551 511892
0100101001010010: 617770 566380 513551 511892
0101101001001000: 617770 566380 586946 516200
0101101001001000: 617770 566380 586946 599035
0101101001001000: 617770 566380 586946 575789
0100101101000100: 617770 566380 586946 513551
0101101001001000: 566380 513551 511892 586946
0101101001001000: 566380 513551 511892 617770
0111100010001000: 566380 617770 586946 513551
0110100110000100: 566380 513551 586946 511892
0111100010001000: 566380 513551 617770 586946
0110100110000100: 566380 513551 617770 511892
0110100010010010: 566380 513551 617770 516200
0110100010010010: 566380 513551 617770 599035
0110100010010010: 566380 513551 617770 575789
0110100110000100: 566380 513551 586946 511892
0110100110000100: 566380 513551 586946 511892
0110100110000100: 566380 513551 586946 511892
0110100110000100: 566380 513551 617770 511892
0110100110000100: 566380 513551 617770 511892
0110100110000100: 566380 513551 617770 511892
0101101001001000: 566380 513551 511892 586946
0101101001001000: 566380 513551 511892 617770
0100101001010010: 566380 513551 511892 575789
0100101001010010: 566380 513551 511892 575789
0100101001010010: 566380 513551 511892 575789
0110100010010010: 566380 586946 513551 511892
0110100010010010: 566380 586946 513551 511892
0111100010001000: 566380 586946 617770 513551
0110100010010010: 566380 586946 617770 516200
0110100010010010: 566380 586946 617770 599035
0110100010010010: 566380 586946 617770 575789
0111100010001000: 566380 586946 513551 617770
0110100010010010: 566380 617770 513551 511892
0110100010010010: 566380 617770 513551 511892
0111100010001000: 566380 617770 586946 513551
0111100010001000: 566380 617770 513551 586946
0110100110000100: 566380 617770 513551 516200
0110100110000100: 566380 617770 513551 599035
0110100110000100: 566380 617770 513551 575789
0110100010010010: 566380 617770 513551 511892
0111100010001000: 566380 617770 586946 513551
0111100010001000: 566380 617770 586946 513551
0110100110000100: 566380 617770 586946 516200
0110100110000100: 566380 617770 586946 599035
0110100110000100: 566380 617770 586946 575789
0111100010001000: 566380 617770 513551 586946
0111100010001000: 566380 617770 513551 586946
0110100010010010: 566380 617770 513551 511892
0111100010001000: 566380 617770 586946 513551
0111100010001000: 566380 617770 586946 513551
0110100110000100: 566380 617770 513551 516200
0110100110000100: 566380 617770 513551 599035
0110100110000100: 566380 617770 513551 575789
0110100110000100: 566380 617770 513551 516200
0110100110000100: 566380 617770 513551 599035
0110100110000100: 566380 617770 513551 575789
0111100010001000: 566380 617770 513551 586946
0110100010010010: 566380 617770 513551 511892
0110100010010010: 566380 617770 513551 511892
0110100110000100: 566380 617770 586946 516200
0110100110000100: 566380 617770 586946 599035
0110100110000100: 566380 617770 586946 575789
0110100110000100: 566380 617770 586946 516200
0110100110000100: 566380 617770 586946 599035
0110100110000100: 566380 617770 586946 575789
0111100010001000: 566380 617770 586946 513551
0111100010001000: 566380 617770 586946 513551
0110100110000100: 482412 474397 620372 634160
0110100010010010: 482412 474397 620372 557376
0110100110000100: 482412 474397 620372 634160
0110100110000100: 482412 474397 620372 634160
0110100110000100: 482412 474397 620372 634160
0110100110000100: 482412 474397 620372 634160
0110100110000100: 482412 474397 620372 634160
0110100110000100: 482412 620372 474397 557376
0110100010010010: 482412 620372 474397 634160
0110100110000100: 482412 620372 474397 557376
0110100110000100: 482412 620372 474397 557376
0110100110000100: 482412 620372 474397 557376
0110100110000100: 482412 620372 474397 557376
0110100110000100: 482412 620372 474397 557376
0101101001001000: 575789 634160 474397 511892
0101101001001000: 575789 634160 474397 617770
0101101001001000: 575789 511892 513551 634160
0101101001001000: 575789 511892 513551 617770
0111100010001000: 575789 617770 511892 634160
0110100110000100: 575789 634160 511892 474397
0110100010010010: 575789 634160 511892 513551
0110100010010010: 575789 634160 511892 513551
0111100010001000: 575789 634160 617770 511892
0110100110000100: 575789 634160 617770 474397
0110100010010010: 575789 634160 617770 516200
0110100010010010: 575789 634160 617770 599035
0110100010010010: 575789 634160 617770 566380
0110100110000100: 575789 634160 511892 474397
0110100110000100: 575789 634160 511892 474397
0110100110000100: 575789 634160 511892 474397
0110100110000100: 575789 634160 617770 474397
0110100110000100: 575789 634160 617770 474397
0110100110000100: 575789 634160 617770 474397
0101101001001000: 575789 634160 474397 511892
0101101001001000: 575789 634160 474397 617770
0100101001010010: 575789 634160 474397 482412
0100101001010010: 575789 634160 474397 482412
0100101001010010: 575789 634160 474397 482412
0110100110000100: 575789 511892 634160 513551
0110100010010010: 575789 511892 634160 474397
0110100010010010: 575789 511892 634160 474397
0111100010001000: 575789 511892 617770 634160
0110100110000100: 575789 511892 617770 513551
0110100010010010: 575789 511892 617770 516200
0110100010010010: 575789 511892 617770 599035
0110100010010010: 575789 511892 617770 566380
0111100010001000: 575789 511892 634160 617770
0110100110000100: 575789 511892 634160 513551
0110100110000100: 575789 511892 634160 513551
0110100110000100: 575789 511892 634160 513551
0110100110000100: 575789 511892 617770 513551
0110100110000100: 575789 511892 617770 513551
0110100110000100: 575789 511892 617770 513551
0101101001001000: 575789 511892 513551 634160
0101101001001000: 575789 511892 513551 617770
0100101001010010: 575789 511892 513551 566380
0100101001010010: 575789 511892 513551 566380
0100101001010010: 575789 511892 513551 566380
0110100010010010: 575789 617770 634160 474397
0110100010010010: 575789 617770 634160 474397
0111100010001000: 575789 617770 511892 634160
0110100010010010: 575789 617770 511892 513551
0110100010010010: 575789 617770 511892 513551
0111100010001000: 575789 617770 634160 511892
0110100110000100: 575789 617770 634160 516200
0110100110000100: 575789 617770 634160 599035
0110100110000100: 575789 617770 634160 566380
0110100010010010: 575789 617770 634160 474397
0111100010001000: 575789 617770 511892 634160
0111100010001000: 575789 617770 511892 634160
0110100110000100: 575789 617770 511892 516200
0110100110000100: 575789 617770 511892 599035
0110100110000100: 575789 617770 511892 566380
0110100010010010: 575789 617770 511892 513551
0111100010001000: 575789 617770 634160 511892
0111100010001000: 575789 617770 634160 511892
0110100010010010: 575789 617770 634160 474397
0111100010001000: 575789 617770 511892 634160
0111100010001000: 575789 617770 511892 634160
0110100010010010: 575789 617770 511892 513551
0110100110000100: 575789 617770 634160 516200
0110100110000100: 575789 617770 634160 599035
0110100110000100: 575789 617770 634160 566380
0110100110000100: 575789 617770 634160 516200
0110100110000100: 575789 617770 634160 599035
0110100110000100: 575789 617770 634160 566380
0111100010001000: 575789 617770 634160 511892
0110100010010010: 575789 617770 634160 474397
0110100010010010: 575789 617770 634160 474397
0110100110000100: 575789 617770 511892 516200
0110100110000100: 575789 617770 511892 599035
0110100110000100: 575789 617770 511892 566380
0110100110000100: 575789 617770 511892 516200
0110100110000100: 575789 617770 511892 599035
0110100110000100: 575789 617770 511892 566380
0111100010001000: 575789 617770 511892 634160
0111100010001000: 575789 617770 511892 634160
0110100010010010: 575789 617770 511892 513551
0110100010010010: 575789 617770 511892 513551
0110100110000100: 620372 557376 482412 599035
0110100010010010: 620372 557376 482412 474397
0110100110000100: 620372 557376 482412 599035
0110100110000100: 620372 557376 482412 599035
0110100110000100: 620372 557376 482412 599035
0110100110000100: 620372 557376 482412 599035
0110100110000100: 620372 557376 482412 599035
0110100010010010: 620372 482412 557376 599035
0110100110000100: 620372 482412 557376 474397
0110100110000100: 620372 482412 557376 474397
0110100110000100: 620372 482412 557376 474397
0110100110000100: 620372 482412 557376 474397
0110100110000100: 557376 599035 620372 617770
0110100010010010: 557376 599035 620372 482412
0110100110000100: 557376 599035 620372 617770
0110100110000100: 557376 599035 620372 617770
0110100110000100: 557376 599035 620372 617770
0110100110000100: 557376 599035 620372 617770
0110100110000100: 557376 599035 620372 617770
0110100010010010: 557376 620372 599035 617770
0110100110000100: 557376 620372 599035 482412
0110100110000100: 557376 620372 599035 482412
0110100110000100: 557376 620372 599035 482412
0110100110000100: 557376 620372 599035 482412
0110100110000100: 511892 513551 575789 566380
0110100010010010: 511892 513551 575789 634160
0110100010010010: 511892 513551 575789 617770
0110100110000100: 511892 513551 575789 566380
0110100110000100: 511892 513551 575789 566380
0110100110000100: 511892 513551 575789 566380
0110100110000100: 511892 513551 575789 566380
0110100110000100: 511892 513551 575789 566380
0110100010010010: 511892 575789 513551 566380
0110100110000100: 511892 575789 513551 634160
0110100110000100: 511892 575789 513551 617770
0110100010010010: 511892 575789 513551 566380
0110100110000100: 511892 575789 513551 634160
0110100110000100: 511892 575789 513551 617770
0110100110000100: 511892 575789 513551 634160
0110100110000100: 511892 575789 513551 617770
0110100010010010: 511892 575789 513551 566380
0110100010010010: 599035 557376 617770 516200
0110100010010010: 599035 557376 617770 575789
0110100010010010: 599035 557376 617770 566380
0110100110000100: 599035 557376 617770 620372
0110100110000100: 599035 557376 617770 620372
0110100110000100: 599035 557376 617770 620372
0110100110000100: 599035 557376 617770 620372
0110100010010010: 599035 617770 557376 620372
0110100110000100: 599035 617770 557376 516200
0110100110000100: 599035 617770 557376 575789
0110100110000100: 599035 617770 557376 566380
0110100010010010: 599035 617770 557376 620372
0110100110000100: 599035 617770 557376 516200
0110100110000100: 599035 617770 557376 575789
0110100110000100: 599035 617770 557376 566380
0110100110000100: 599035 617770 557376 516200
0110100110000100: 599035 617770 557376 575789
0110100110000100: 599035 617770 557376 566380
0110100010010010: 599035 617770 557376 620372
0110100110000100: 634160 474397 575789 482412
0110100010010010: 634160 474397 575789 511892
0110100010010010: 634160 474397 575789 617770
0110100110000100: 634160 474397 575789 482412
0110100110000100: 634160 474397 575789 482412
0110100110000100: 634160 474397 575789 482412
0110100110000100: 634160 474397 575789 482412
0110100110000100: 634160 474397 575789 482412
0110100010010010: 634160 575789 474397 482412
0110100110000100: 634160 575789 474397 511892
0110100110000100: 634160 575789 474397 617770
0110100010010010: 634160 575789 474397 482412
0110100110000100: 634160 575789 474397 511892
0110100110000100: 634160 575789 474397 617770
0110100110000100: 634160 575789 474397 511892
0110100110000100: 634160 575789 474397 617770
0110100010010010: 634160 575789 474397 482412
0110100010010010: 474397 634160 482412 620372
0110100110000100: 474397 634160 482412 575789
0110100110000100: 474397 634160 482412 575789
0110100110000100: 474397 634160 482412 575789
0110100110000100: 474397 634160 482412 575789
0110100010010010: 474397 482412 634160 575789
0110100110000100: 474397 482412 634160 620372
0110100110000100: 474397 482412 634160 620372
0110100110000100: 474397 482412 634160 620372
0110100110000100: 474397 482412 634160 620372
0110100010010010: 513551 511892 566380 586946
0110100010010010: 513551 511892 566380 617770
0110100110000100: 513551 511892 566380 575789
0110100110000100: 513551 511892 566380 575789
0110100110000100: 513551 511892 566380 575789
0110100110000100: 513551 511892 566380 575789
0110100010010010: 513551 566380 511892 575789
0110100110000100: 513551 566380 511892 586946
0110100110000100: 513551 566380 511892 617770
0110100010010010: 513551 566380 511892 575789
0110100110000100: 513551 566380 511892 586946
0110100110000100: 513551 566380 511892 617770
0110100110000100: 513551 566380 511892 586946
0110100110000100: 513551 566380 511892 617770
0110100010010010: 513551 566380 511892 575789
