Vertex,0110010011100000100001000,0110010011100100110001000,0111010110110011100000100,0111010101110001000101010,0111110000100001000010000,0110010010100010100000100,0111110110110001100010000,0111110100110001000010000,0111110100110001000110010,0111010100110001000100010,0111010110110011100100110,0110010010100010100100110,0111010101110001000001000
504745,49.0,5.0,3.0,1.0,1.0,64.0,2.0,6.0,1.0,13.0,1.0,1.0,12.0
568699,31.0,8.0,3.0,2.0,1.0,36.0,2.0,3.0,0.0,6.0,1.0,0.0,6.0
608261,45.0,1.0,0.0,0.0,2.0,49.0,1.0,2.0,0.0,5.0,0.0,1.0,5.0
573132,25.0,8.0,0.0,2.0,0.0,43.0,0.0,5.0,1.0,9.0,1.0,0.0,13.0
634489,11.0,2.0,1.0,0.0,0.0,10.0,0.0,1.0,0.0,1.0,0.0,0.0,2.0
522211,33.0,8.0,3.0,2.0,1.0,48.0,2.0,6.0,1.0,12.0,1.0,0.0,15.0
602301,30.0,1.0,0.0,0.0,1.0,28.0,1.0,2.0,0.0,3.0,0.0,1.0,5.0
600880,12.0,3.0,3.0,1.0,0.0,15.0,2.0,6.0,1.0,11.0,1.0,0.0,12.0
517222,37.0,0.0,0.0,0.0,1.0,61.0,0.0,0.0,0.0,3.0,0.0,1.0,0.0
565662,15.0,0.0,0.0,0.0,0.0,19.0,0.0,0.0,0.0,2.0,0.0,0.0,0.0
479886,24.0,0.0,0.0,0.0,1.0,37.0,0.0,0.0,0.0,2.0,0.0,1.0,0.0
559234,18.0,0.0,1.0,2.0,0.0,28.0,0.0,4.0,1.0,8.0,0.0,0.0,11.0
471893,18.0,2.0,1.0,0.0,0.0,23.0,0.0,4.0,0.0,2.0,0.0,0.0,5.0
474433,8.0,0.0,0.0,0.0,0.0,16.0,0.0,0.0,0.0,0.0,0.0,0.0,0.0
625450,1.0,0.0,0.0,0.0,0.0,9.0,0.0,0.0,0.0,0.0,0.0,0.0,0.0
485427,0.0,0.0,0.0,0.0,0.0,7.0,0.0,0.0,0.0,0.0,0.0,0.0,0.0
613132,0.0,0.0,0.0,0.0,0.0,10.0,0.0,0.0,0.0,1.0,0.0,0.0,0.0
506493,27.0,2.0,0.0,0.0,1.0,35.0,0.0,1.0,0.0,3.0,0.0,0.0,4.0
636961,15.0,0.0,0.0,0.0,1.0,23.0,0.0,0.0,0.0,0.0,0.0,0.0,0.0
465892,3.0,0.0,0.0,0.0,0.0,18.0,0.0,0.0,0.0,2.0,0.0,0.0,5.0
621503,7.0,0.0,0.0,0.0,0.0,20.0,0.0,0.0,0.0,2.0,0.0,0.0,0.0
511248,1.0,0.0,0.0,0.0,0.0,9.0,0.0,0.0,0.0,0.0,0.0,0.0,0.0
495289,0.0,0.0,0.0,0.0,0.0,2.0,0.0,0.0,0.0,0.0,0.0,0.0,0.0
graph,82.0,8.0,3.0,2.0,2.0,122.0,2.0,8.0,1.0,17.0,1.0,1.0,19.0
