0110010010100010100000100: 604479 506896 559142 639382 554192
0110010011100000100001000: 604479 506896 559142 574973 639382
0110010010100010100000100: 604479 506896 559142 574973 554192
0110010011100000100001000: 506896 639382 574973 567836 557932
0110010011100000100001000: 506896 639382 574973 601595 557932
0110010011100000100001000: 506896 639382 574973 601595 567836
0110010011100000100001000: 506896 639382 604479 567836 557932
0110010011100000100001000: 506896 639382 604479 601595 557932
0110010011100000100001000: 506896 639382 604479 601595 567836
0110010010100010100000100: 506896 574973 639382 526156 557932
0110010010100010100000100: 506896 574973 639382 526156 567836
0110010010100010100000100: 506896 574973 639382 526156 601595
0110010010100010100000100: 506896 604479 639382 559142 557932
0110010010100010100000100: 506896 604479 639382 559142 567836
0110010010100010100000100: 506896 604479 639382 559142 601595
0110010010100010100000100: 506896 604479 574973 559142 526156
0110010010100010100000100: 574973 506896 526156 639382 552232
0110010011100000100001000: 574973 506896 526156 604479 639382
0110010010100010100000100: 574973 506896 526156 604479 552232
0110010010100010100000100: 526156 574973 552232 506896 526626
0110010010100010100000100: 526156 574973 552232 506896 601595
0110010010100010100000100: 591522 557932 554192 639382 559142
0111010101110001000001000: 591522 557932 648334 554192 639382
0111010101110001000101010: 591522 557932 648334 601595 639382
0111010101110001000001000: 591522 557932 648334 499115 639382
0110010010100010100000100: 591522 648334 554192 526626 559142
0111010101110001000001000: 591522 648334 557932 554192 526626
0111010100110001000100010: 591522 648334 557932 554192 559142
0111110100110001000010000: 591522 648334 557932 601595 554192
0111010100110001000100010: 591522 648334 557932 601595 621931
0111010100110001000100010: 591522 648334 557932 601595 552232
0111010101110001000101010: 591522 648334 557932 601595 526626
0111110100110001000010000: 591522 648334 557932 499115 554192
0111010101110001000001000: 591522 648334 557932 499115 526626
0110010010100010100000100: 591522 601595 554192 621931 559142
0110010011100000100001000: 591522 601595 554192 639382 621931
0110010010100010100000100: 591522 601595 554192 639382 559142
0110010011100000100001000: 591522 601595 554192 552232 621931
0110010011100000100001000: 591522 601595 554192 552232 639382
0110010010100010100000100: 591522 601595 554192 552232 559142
0110010011100000100001000: 591522 601595 554192 526626 621931
0110010011100000100001000: 591522 601595 554192 526626 639382
0110010010100010100000100: 591522 601595 554192 526626 559142
0110010011100000100001000: 591522 601595 557932 552232 621931
0110010011100000100001000: 591522 601595 557932 526626 621931
0110010011100100110001000: 591522 601595 557932 639382 621931
0110010011100100110001000: 591522 601595 557932 639382 552232
0110010011100100110001000: 591522 601595 557932 639382 526626
0110010011100000100001000: 591522 601595 648334 639382 621931
0110010011100000100001000: 591522 601595 648334 552232 621931
0110010011100000100001000: 591522 601595 648334 552232 639382
0110010011100100110001000: 591522 601595 648334 526626 621931
0110010011100100110001000: 591522 601595 648334 526626 639382
0111010101110001000001000: 591522 601595 499115 554192 621931
0111010101110001000001000: 591522 601595 499115 554192 639382
0111010101110001000001000: 591522 601595 499115 554192 552232
0111010101110001000001000: 591522 601595 499115 554192 526626
0111010101110001000001000: 591522 601595 499115 557932 621931
0111010101110001000001000: 591522 601595 499115 557932 552232
0111010101110001000001000: 591522 601595 499115 557932 526626
0111010101110001000101010: 591522 601595 499115 557932 639382
0111010101110001000001000: 591522 601595 499115 648334 621931
0111010101110001000001000: 591522 601595 499115 648334 639382
0111010101110001000001000: 591522 601595 499115 648334 552232
0111010101110001000101010: 591522 601595 499115 648334 526626
0111010100110001000100010: 591522 499115 601595 554192 559142
0111110100110001000010000: 591522 499115 601595 557932 554192
0111110100110001000010000: 591522 499115 601595 648334 554192
0111110100110001000110010: 591522 499115 601595 648334 557932
0110010011100000100001000: 601595 639382 621931 567836 557932
0110010011100000100001000: 601595 639382 621931 506896 557932
0110010011100000100001000: 601595 639382 621931 506896 567836
0110010011100000100001000: 601595 639382 552232 567836 557932
0110010011100000100001000: 601595 639382 552232 506896 557932
0110010011100000100001000: 601595 639382 552232 506896 567836
0110010011100000100001000: 601595 639382 526626 567836 557932
0110010011100000100001000: 601595 639382 526626 506896 557932
0110010011100000100001000: 601595 639382 526626 506896 567836
0110010011100000100001000: 601595 639382 591522 506896 567836
0110010011100100110001000: 601595 639382 591522 557932 567836
0110010011100100110001000: 601595 639382 591522 557932 506896
0110010011100000100001000: 601595 639382 499115 567836 557932
0110010011100000100001000: 601595 639382 499115 506896 557932
0110010011100000100001000: 601595 639382 499115 506896 567836
0110010010100010100000100: 601595 552232 639382 526156 557932
0110010010100010100000100: 601595 552232 639382 526156 567836
0110010010100010100000100: 601595 552232 639382 526156 506896
0111010101110001000001000: 601595 552232 526626 621931 526156
0111010101110001000001000: 601595 552232 526626 639382 526156
0111010101110001000001000: 601595 552232 526626 591522 526156
0111010101110001000001000: 601595 552232 526626 499115 526156
0110010010100010100000100: 601595 526626 639382 648334 567836
0110010010100010100000100: 601595 526626 639382 648334 506896
0110010010100010100100110: 601595 526626 639382 648334 557932
0111010101110001000001000: 601595 526626 552232 621931 648334
0111110100110001000010000: 601595 526626 552232 639382 621931
0111010101110001000001000: 601595 526626 552232 639382 648334
0111010100110001000100010: 601595 526626 552232 639382 557932
0111010100110001000100010: 601595 526626 552232 639382 567836
0111010100110001000100010: 601595 526626 552232 639382 506896
0111110100110001000010000: 601595 526626 552232 591522 621931
0111110100110001000010000: 601595 526626 552232 591522 639382
0111010100110001000100010: 601595 526626 552232 591522 554192
0111010100110001000100010: 601595 526626 552232 591522 557932
0111010101110001000101010: 601595 526626 552232 591522 648334
0111110100110001000010000: 601595 526626 552232 499115 621931
0111110100110001000010000: 601595 526626 552232 499115 639382
0111010101110001000001000: 601595 526626 552232 499115 648334
0110010011100000100001000: 601595 591522 621931 557932 554192
0110010011100000100001000: 601595 591522 621931 648334 554192
0110010010100010100000100: 601595 591522 639382 554192 567836
0110010010100010100000100: 601595 591522 639382 554192 506896
0110010011100000100001000: 601595 591522 639382 648334 554192
0110010010100010100000100: 601595 591522 639382 648334 567836
0110010010100010100000100: 601595 591522 639382 648334 506896
0110010011100100110001000: 601595 591522 639382 557932 554192
0111110000100001000010000: 601595 591522 552232 639382 621931
0110010010100010100000100: 601595 591522 552232 554192 526156
0110010011100000100001000: 601595 591522 552232 557932 554192
0110010010100010100000100: 601595 591522 552232 557932 526156
0110010011100000100001000: 601595 591522 552232 648334 554192
0110010010100010100000100: 601595 591522 552232 648334 526156
0111110000100001000010000: 601595 591522 526626 639382 621931
0110010011100000100001000: 601595 591522 526626 557932 554192
0110010011100100110001000: 601595 591522 526626 648334 554192
0111110000100001000010000: 601595 499115 552232 639382 621931
0111110000100001000010000: 601595 499115 526626 639382 621931
0111110100110001000010000: 601595 499115 591522 639382 621931
0111010100110001000100010: 601595 499115 591522 639382 567836
0111010100110001000100010: 601595 499115 591522 639382 506896
0111110100110001000010000: 601595 499115 591522 552232 621931
0111110100110001000010000: 601595 499115 591522 552232 639382
0111010100110001000100010: 601595 499115 591522 552232 526156
0111110100110001000010000: 601595 499115 591522 526626 621931
0111110100110001000010000: 601595 499115 591522 526626 639382
0111110100110001000110010: 601595 499115 591522 526626 552232
0110010010100010100000100: 526626 552232 648334 526156 557932
0110010010100010100000100: 526626 552232 648334 526156 591522
0111010101110001000001000: 526626 552232 601595 648334 526156
0110010010100010100000100: 526626 601595 648334 621931 557932
0110010011100000100001000: 526626 601595 648334 639382 621931
0110010011100000100001000: 526626 601595 648334 499115 621931
0110010011100000100001000: 526626 601595 648334 499115 639382
0110010010100010100000100: 526626 601595 648334 499115 557932
0111010100110001000100010: 526626 601595 552232 648334 557932
0110010011100000100001000: 552232 601595 526156 639382 621931
0110010011100000100001000: 552232 601595 526156 591522 621931
0110010011100000100001000: 552232 601595 526156 591522 639382
0110010011100000100001000: 552232 601595 526156 499115 621931
0110010011100000100001000: 552232 601595 526156 499115 639382
0111010100110001000100010: 552232 601595 526626 526156 574973
0110010010100010100000100: 552232 526156 526626 574973 648334
0110010010100010100000100: 552232 526156 601595 574973 621931
0110010010100010100000100: 552232 526156 601595 574973 639382
0110010010100010100000100: 552232 526156 601595 574973 591522
0110010010100010100000100: 552232 526156 601595 574973 499115
0110010010100010100000100: 639382 601595 557932 621931 648334
0110010011100000100001000: 639382 601595 557932 552232 621931
0110010010100010100000100: 639382 601595 557932 552232 648334
0110010011100000100001000: 639382 601595 557932 526626 621931
0110010011100000100001000: 639382 601595 557932 499115 621931
0110010011100000100001000: 639382 601595 557932 499115 552232
0110010011100000100001000: 639382 601595 557932 499115 526626
0110010010100010100000100: 639382 601595 557932 499115 648334
0110010011100000100001000: 639382 601595 567836 552232 621931
0110010011100000100001000: 639382 601595 567836 526626 621931
0110010011100000100001000: 639382 601595 567836 591522 621931
0110010011100000100001000: 639382 601595 567836 591522 552232
0110010011100000100001000: 639382 601595 567836 591522 526626
0110010011100000100001000: 639382 601595 567836 499115 621931
0110010011100000100001000: 639382 601595 567836 499115 552232
0110010011100000100001000: 639382 601595 567836 499115 526626
0110010011100000100001000: 639382 601595 506896 552232 621931
0110010011100000100001000: 639382 601595 506896 526626 621931
0110010011100000100001000: 639382 601595 506896 591522 621931
0110010011100000100001000: 639382 601595 506896 591522 552232
0110010011100000100001000: 639382 601595 506896 591522 526626
0110010011100000100001000: 639382 601595 506896 499115 621931
0110010011100000100001000: 639382 601595 506896 499115 552232
0110010011100000100001000: 639382 601595 506896 499115 526626
0110010010100010100000100: 639382 506896 557932 574973 648334
0110010010100010100000100: 639382 506896 557932 574973 591522
0110010011100000100001000: 639382 506896 557932 604479 574973
0110010010100010100000100: 639382 506896 557932 604479 648334
0110010010100010100000100: 639382 506896 557932 604479 591522
0110010011100000100001000: 639382 506896 567836 604479 574973
0111110000100001000010000: 639382 506896 601595 567836 557932
0110010010100010100000100: 639382 506896 601595 574973 621931
0110010010100010100000100: 639382 506896 601595 574973 552232
0110010010100010100000100: 639382 506896 601595 574973 526626
0110010010100010100000100: 639382 506896 601595 574973 591522
0110010010100010100000100: 639382 506896 601595 574973 499115
0110010011100000100001000: 639382 506896 601595 604479 574973
0110010010100010100000100: 639382 506896 601595 604479 621931
0110010010100010100000100: 639382 506896 601595 604479 552232
0110010010100010100000100: 639382 506896 601595 604479 526626
0110010010100010100000100: 639382 506896 601595 604479 591522
0110010010100010100000100: 639382 506896 601595 604479 499115
0111010101110001000001000: 648334 557932 591522 526626 639382
0110010010100010100000100: 648334 526626 557932 552232 639382
0110010010100010100000100: 648334 591522 526626 554192 552232
0110010011100000100001000: 648334 591522 526626 499115 554192
0110010010100010100000100: 648334 591522 526626 499115 552232
0111010100110001000100010: 648334 591522 557932 526626 552232
0110010010100010100000100: 557932 639382 648334 567836 526626
0110010011100000100001000: 557932 639382 648334 601595 567836
0110010011100000100001000: 557932 639382 648334 506896 567836
0110010011100000100001000: 557932 639382 648334 506896 601595
0110010010100010100000100: 557932 639382 648334 506896 526626
0110010011100000100001000: 557932 639382 591522 506896 567836
0110010010100010100000100: 557932 591522 639382 554192 567836
0110010010100010100000100: 557932 591522 639382 554192 506896
0110010011100000100001000: 557932 591522 639382 499115 554192
0110010010100010100000100: 557932 591522 639382 499115 567836
0110010010100010100000100: 557932 591522 639382 499115 506896
0111010100110001000100010: 557932 591522 648334 639382 567836
0111010100110001000100010: 557932 591522 648334 639382 506896
0110010010100010100000100: 554192 591522 559142 557932 604479
0110010010100010100000100: 554192 591522 559142 648334 604479
0110010011100000100001000: 554192 591522 559142 601595 557932
0110010011100000100001000: 554192 591522 559142 601595 648334
0110010010100010100000100: 554192 591522 559142 601595 604479
0110010011100000100001000: 554192 591522 559142 499115 557932
0110010011100000100001000: 554192 591522 559142 499115 648334
0110010010100010100000100: 554192 591522 559142 499115 604479
0110010010100010100000100: 559142 604479 554192 506896 591522
