Vertex,0111100110001100,0101101001001000,0110100110010110,0111101011001000,0111100010001000,0101101101001100,0110100010010010,0100101001010010,0101101001011010,0111100010011010,0100101101010110,0110100110000100,0100101101000100,0110101011010010,0110101111000100
526885,2.0,33.0,35.0,10.0,64.0,0.0,72.0,25.0,9.0,2.0,0.0,135.0,4.0,2.0,4.0
472300,0.0,25.0,35.0,0.0,48.0,0.0,43.0,13.0,9.0,0.0,0.0,87.0,2.0,0.0,0.0
580977,0.0,39.0,35.0,0.0,72.0,0.0,80.0,31.0,9.0,0.0,0.0,149.0,4.0,0.0,0.0
633897,10.0,65.0,35.0,21.0,71.0,2.0,109.0,50.0,9.0,8.0,2.0,203.0,4.0,5.0,9.0
529061,22.0,46.0,0.0,62.0,40.0,4.0,81.0,35.0,0.0,14.0,2.0,162.0,2.0,14.0,26.0
498496,0.0,33.0,0.0,0.0,62.0,0.0,68.0,23.0,0.0,0.0,0.0,124.0,6.0,0.0,0.0
628504,2.0,16.0,0.0,10.0,16.0,0.0,32.0,8.0,0.0,2.0,0.0,70.0,0.0,2.0,4.0
533141,22.0,29.0,0.0,62.0,8.0,4.0,53.0,19.0,0.0,14.0,2.0,97.0,0.0,14.0,26.0
554847,22.0,43.0,0.0,62.0,32.0,4.0,61.0,17.0,0.0,14.0,2.0,134.0,0.0,14.0,26.0
593386,0.0,50.0,0.0,0.0,39.0,0.0,86.0,40.0,0.0,0.0,0.0,147.0,2.0,0.0,0.0
588475,24.0,48.0,0.0,78.0,47.0,8.0,96.0,34.0,0.0,12.0,0.0,166.0,2.0,28.0,38.0
465364,24.0,68.0,35.0,78.0,140.0,8.0,138.0,35.0,10.0,12.0,0.0,247.0,10.0,28.0,38.0
521006,24.0,28.0,0.0,78.0,32.0,8.0,57.0,13.0,0.0,12.0,0.0,108.0,0.0,28.0,38.0
591282,5.0,33.0,0.0,14.0,38.0,2.0,55.0,22.0,0.0,2.0,0.0,101.0,4.0,5.0,7.0
599819,5.0,20.0,0.0,14.0,23.0,2.0,49.0,16.0,0.0,2.0,0.0,80.0,2.0,5.0,7.0
497240,0.0,16.0,0.0,0.0,24.0,0.0,53.0,21.0,0.0,0.0,0.0,83.0,2.0,0.0,0.0
549185,8.0,14.0,0.0,20.0,0.0,4.0,38.0,14.0,0.0,2.0,0.0,69.0,0.0,12.0,12.0
559181,2.0,16.0,0.0,10.0,40.0,0.0,24.0,0.0,0.0,2.0,0.0,56.0,0.0,2.0,4.0
573414,2.0,61.0,35.0,10.0,117.0,0.0,127.0,38.0,10.0,2.0,0.0,224.0,8.0,2.0,4.0
638682,2.0,34.0,35.0,10.0,88.0,0.0,80.0,13.0,10.0,2.0,0.0,155.0,4.0,2.0,4.0
646491,8.0,27.0,0.0,21.0,15.0,2.0,48.0,22.0,0.0,2.0,0.0,84.0,2.0,5.0,9.0
620566,0.0,32.0,35.0,0.0,86.0,0.0,83.0,22.0,10.0,0.0,0.0,148.0,8.0,0.0,0.0
550351,0.0,10.0,0.0,0.0,0.0,0.0,34.0,14.0,0.0,0.0,0.0,55.0,0.0,0.0,0.0
583870,0.0,4.0,0.0,0.0,0.0,0.0,24.0,10.0,0.0,0.0,0.0,44.0,0.0,0.0,0.0
618470,0.0,12.0,0.0,0.0,24.0,0.0,40.0,10.0,0.0,0.0,0.0,79.0,2.0,0.0,0.0
496123,0.0,6.0,0.0,0.0,0.0,0.0,24.0,10.0,0.0,0.0,0.0,51.0,0.0,0.0,0.0
592961,0.0,20.0,0.0,0.0,38.0,0.0,41.0,9.0,0.0,0.0,0.0,90.0,4.0,0.0,0.0
graph,46.0,207.0,70.0,140.0,291.0,12.0,424.0,141.0,19.0,26.0,2.0,787.0,18.0,42.0,64.0
