0101101001001000: 538293 650162 650665 513372
0110100110010110: 538293 591522 650162 650665
0111100010001000: 538293 591522 513372 650162
0110100110000100: 538293 650162 513372 650665
0111100010001000: 538293 650162 591522 513372
0110100010010010: 538293 650162 591522 655496
0110100010010010: 538293 650162 591522 545325
0110100110010110: 538293 650162 591522 650665
0110100110010110: 538293 650162 591522 650665
0110100110000100: 538293 650162 513372 650665
0110100110000100: 538293 650162 513372 650665
0110100110000100: 538293 650162 513372 650665
0110100110010110: 538293 650162 591522 650665
0101101001001000: 538293 650162 650665 513372
0100101001010010: 538293 650162 650665 546748
0100101001010010: 538293 650162 650665 546748
0101101001011010: 538293 650162 650665 591522
0101101001011010: 538293 650162 650665 591522
0101101001011010: 538293 650162 650665 591522
0101101001001000: 538293 650162 650665 513372
0110100010010010: 538293 513372 650162 650665
0110100010010010: 538293 513372 650162 650665
0111100010001000: 538293 513372 591522 650162
0110100010010010: 538293 513372 591522 655496
0110100010010010: 538293 513372 591522 545325
0110100010010010: 538293 513372 591522 650665
0111100010001000: 538293 513372 650162 591522
0110100110000100: 538293 591522 650162 655496
0110100110000100: 538293 591522 650162 545325
0110100110010110: 538293 591522 650162 650665
0110100110010110: 538293 591522 650162 650665
0111100010001000: 538293 591522 513372 650162
0110100110000100: 538293 591522 513372 655496
0110100110000100: 538293 591522 513372 545325
0110100110000100: 538293 591522 513372 650665
0111100010001000: 538293 591522 650162 513372
0110100110000100: 538293 591522 650162 655496
0110100110000100: 538293 591522 650162 545325
0110100110000100: 538293 591522 650162 655496
0110100110000100: 538293 591522 650162 545325
0110100110010110: 538293 591522 650162 650665
0110100110010110: 538293 591522 650162 650665
0110100110010110: 538293 591522 650162 650665
0111100010001000: 538293 591522 513372 650162
0111100010001000: 538293 591522 513372 650162
0110100110000100: 538293 591522 513372 655496
0110100110000100: 538293 591522 513372 545325
0110100110000100: 538293 591522 513372 650665
0110100110000100: 538293 591522 513372 655496
0110100110000100: 538293 591522 513372 545325
0110100110000100: 538293 591522 513372 650665
0111100010001000: 538293 591522 650162 513372
0111100010001000: 538293 591522 650162 513372
0111100010001000: 538293 591522 513372 650162
0111100010001000: 538293 591522 513372 650162
0110100110000100: 538293 591522 650162 655496
0110100110000100: 538293 591522 650162 545325
0110100110000100: 538293 591522 650162 655496
0110100110000100: 538293 591522 650162 545325
0111100010001000: 538293 591522 650162 513372
0110100110010110: 538293 591522 650162 650665
0110100110010110: 538293 591522 650162 650665
0110100110000100: 538293 591522 513372 655496
0110100110000100: 538293 591522 513372 545325
0110100110000100: 538293 591522 513372 650665
0110100110000100: 538293 591522 513372 655496
0110100110000100: 538293 591522 513372 545325
0110100110000100: 538293 591522 513372 650665
0111100010001000: 538293 591522 513372 650162
0111100010001000: 538293 591522 513372 650162
0101101001001000: 591522 545325 476090 655496
0101101001001000: 591522 545325 476090 650665
0101101001001000: 591522 545325 476090 538293
0111100010001000: 591522 650665 545325 655496
0101101001001000: 591522 650665 650162 655496
0101101001001000: 591522 650665 650162 545325
0101101001001000: 591522 650665 546748 655496
0101101001001000: 591522 650665 546748 545325
0101101001001000: 591522 650665 546748 538293
0100101101000100: 591522 650665 546748 650162
0111100010001000: 591522 538293 545325 655496
0111100010001000: 591522 538293 650665 655496
0111100010001000: 591522 538293 650665 545325
0110100110010110: 591522 538293 650665 650162
0101101001001000: 591522 538293 650162 655496
0101101001001000: 591522 538293 650162 545325
0101101001001000: 591522 538293 513372 655496
0101101001001000: 591522 538293 513372 545325
0101101001001000: 591522 538293 513372 650665
0100101101000100: 591522 538293 513372 650162
0110100010010010: 591522 655496 545325 476090
0110100010010010: 591522 655496 545325 476090
0111100010001000: 591522 655496 650665 545325
0110100010010010: 591522 655496 650665 650162
0110100010010010: 591522 655496 650665 546748
0110100010010010: 591522 655496 650665 650162
0110100010010010: 591522 655496 650665 546748
0111100010001000: 591522 655496 538293 545325
0111100010001000: 591522 655496 538293 650665
0110100010010010: 591522 655496 538293 650162
0110100010010010: 591522 655496 538293 513372
0110100010010010: 591522 655496 538293 650162
0110100010010010: 591522 655496 538293 513372
0110100110000100: 591522 545325 655496 476090
0111100010001000: 591522 545325 650665 655496
0110100110000100: 591522 545325 650665 476090
0110100010010010: 591522 545325 650665 650162
0110100010010010: 591522 545325 650665 546748
0110100010010010: 591522 545325 650665 650162
0110100010010010: 591522 545325 650665 546748
0111100010001000: 591522 545325 538293 655496
0111100010001000: 591522 545325 538293 650665
0110100110000100: 591522 545325 538293 476090
0110100010010010: 591522 545325 538293 650162
0110100010010010: 591522 545325 538293 513372
0110100010010010: 591522 545325 538293 650162
0110100010010010: 591522 545325 538293 513372
0111100010001000: 591522 545325 655496 650665
0111100010001000: 591522 545325 655496 538293
0110100110000100: 591522 545325 655496 476090
0110100110000100: 591522 545325 655496 476090
0110100110000100: 591522 545325 655496 476090
0110100110000100: 591522 545325 650665 476090
0110100110000100: 591522 545325 650665 476090
0110100110000100: 591522 545325 650665 476090
0110100110000100: 591522 545325 538293 476090
0110100110000100: 591522 545325 538293 476090
0110100110000100: 591522 545325 538293 476090
0101101001001000: 591522 545325 476090 655496
0101101001001000: 591522 545325 476090 650665
0101101001001000: 591522 545325 476090 538293
0100101001010010: 591522 545325 476090 611453
0100101001010010: 591522 545325 476090 611453
0100101001010010: 591522 545325 476090 611453
0110100110000100: 591522 650665 655496 650162
0110100110000100: 591522 650665 655496 546748
0111100010001000: 591522 650665 545325 655496
0110100110000100: 591522 650665 545325 650162
0110100110000100: 591522 650665 545325 546748
0110100010010010: 591522 650665 545325 476090
0110100010010010: 591522 650665 545325 476090
0111100010001000: 591522 650665 538293 655496
0111100010001000: 591522 650665 538293 545325
0110100110000100: 591522 650665 538293 546748
0110100010010010: 591522 650665 538293 513372
0110100010010010: 591522 650665 538293 513372
0110100110010110: 591522 650665 538293 650162
0110100110010110: 591522 650665 538293 650162
0111100010001000: 591522 650665 655496 545325
0111100010001000: 591522 650665 655496 538293
0110100110000100: 591522 650665 655496 650162
0110100110000100: 591522 650665 655496 546748
0110100110000100: 591522 650665 655496 650162
0110100110000100: 591522 650665 655496 546748
0110100110000100: 591522 650665 655496 650162
0110100110000100: 591522 650665 655496 546748
0111100010001000: 591522 650665 545325 655496
0111100010001000: 591522 650665 545325 538293
0111100010001000: 591522 650665 545325 655496
0110100110000100: 591522 650665 545325 650162
0110100110000100: 591522 650665 545325 546748
0110100110000100: 591522 650665 545325 650162
0110100110000100: 591522 650665 545325 546748
0110100110000100: 591522 650665 545325 650162
0110100110000100: 591522 650665 545325 546748
0110100010010010: 591522 650665 545325 476090
0110100110000100: 591522 650665 538293 546748
0110100110000100: 591522 650665 538293 546748
0110100110000100: 591522 650665 538293 546748
0110100110010110: 591522 650665 538293 650162
0101101001001000: 591522 650665 650162 655496
0101101001001000: 591522 650665 650162 545325
0101101001011010: 591522 650665 650162 538293
0101101001011010: 591522 650665 650162 538293
0101101001011010: 591522 650665 650162 538293
0101101001011010: 591522 650665 650162 538293
0101101001001000: 591522 650665 546748 655496
0101101001001000: 591522 650665 546748 545325
0101101001001000: 591522 650665 546748 538293
0100101001010010: 591522 650665 546748 611453
0100101001010010: 591522 650665 546748 611453
0100101101000100: 591522 650665 546748 650162
0100101001010010: 591522 650665 546748 611453
0100101001010010: 591522 650665 546748 611453
0111100010001000: 591522 538293 545325 655496
0110100010010010: 591522 538293 545325 476090
0110100010010010: 591522 538293 545325 476090
0111100010001000: 591522 538293 650665 655496
0111100010001000: 591522 538293 650665 545325
0110100010010010: 591522 538293 650665 546748
0110100010010010: 591522 538293 650665 546748
0110100110010110: 591522 538293 650665 650162
0111100010001000: 591522 538293 655496 545325
0111100010001000: 591522 538293 655496 650665
0110100110000100: 591522 538293 655496 650162
0110100110000100: 591522 538293 655496 513372
0110100110000100: 591522 538293 655496 650162
0110100110000100: 591522 538293 655496 513372
0111100010001000: 591522 538293 545325 655496
0111100010001000: 591522 538293 545325 650665
0111100010001000: 591522 538293 545325 655496
0110100110000100: 591522 538293 545325 650162
0110100110000100: 591522 538293 545325 513372
0110100110000100: 591522 538293 545325 650162
0110100110000100: 591522 538293 545325 513372
0110100010010010: 591522 538293 545325 476090
0111100010001000: 591522 538293 650665 655496
0111100010001000: 591522 538293 650665 545325
0111100010001000: 591522 538293 650665 655496
0111100010001000: 591522 538293 650665 545325
0110100110000100: 591522 538293 650665 513372
0110100110000100: 591522 538293 650665 513372
0110100110010110: 591522 538293 650665 650162
0110100110010110: 591522 538293 650665 650162
0101101001001000: 591522 538293 650162 655496
0101101001001000: 591522 538293 650162 545325
0101101001011010: 591522 538293 650162 650665
0101101001011010: 591522 538293 650162 650665
0101101001011010: 591522 538293 650162 650665
0101101001011010: 591522 538293 650162 650665
0101101001001000: 591522 538293 513372 655496
0101101001001000: 591522 538293 513372 545325
0101101001001000: 591522 538293 513372 650665
0100101101000100: 591522 538293 513372 650162
0110100110000100: 546748 611453 650665 476090
0110100010010010: 546748 611453 650665 650162
0110100010010010: 546748 611453 650665 591522
0110100110000100: 546748 611453 650665 476090
0110100110000100: 546748 611453 650665 476090
0110100110000100: 546748 611453 650665 476090
0110100110000100: 546748 611453 650665 476090
0110100110000100: 546748 611453 650665 476090
0110100110000100: 546748 650665 611453 650162
0110100110000100: 546748 650665 611453 591522
0110100010010010: 546748 650665 611453 476090
0110100110000100: 546748 650665 611453 650162
0110100110000100: 546748 650665 611453 591522
0110100110000100: 546748 650665 611453 650162
0110100110000100: 546748 650665 611453 591522
0110100010010010: 546748 650665 611453 476090
0110100110000100: 546748 650665 611453 650162
0110100110000100: 546748 650665 611453 591522
0110100110000100: 546748 650665 611453 650162
0110100110000100: 546748 650665 611453 591522
0110100010010010: 546748 650665 611453 476090
0101101001001000: 650665 650162 538293 546748
0101101001001000: 650665 546748 611453 650162
0101101001001000: 650665 546748 611453 591522
0110100110010110: 650665 591522 650162 538293
0111100010001000: 650665 591522 546748 650162
0110100110000100: 650665 650162 546748 538293
0110100010010010: 650665 650162 546748 611453
0110100010010010: 650665 650162 546748 611453
0111100010001000: 650665 650162 591522 546748
0110100010010010: 650665 650162 591522 655496
0110100010010010: 650665 650162 591522 545325
0110100110010110: 650665 650162 591522 538293
0110100110010110: 650665 650162 591522 538293
0110100110000100: 650665 650162 546748 538293
0110100110000100: 650665 650162 546748 538293
0110100110000100: 650665 650162 546748 538293
0110100110010110: 650665 650162 591522 538293
0101101001001000: 650665 650162 538293 546748
0100101001010010: 650665 650162 538293 513372
0100101001010010: 650665 650162 538293 513372
0101101001011010: 650665 650162 538293 591522
0101101001011010: 650665 650162 538293 591522
0101101001011010: 650665 650162 538293 591522
0101101001001000: 650665 650162 538293 546748
0110100010010010: 650665 546748 650162 538293
0110100010010010: 650665 546748 650162 538293
0111100010001000: 650665 546748 591522 650162
0110100010010010: 650665 546748 591522 655496
0110100010010010: 650665 546748 591522 545325
0110100010010010: 650665 546748 591522 538293
0111100010001000: 650665 546748 650162 591522
0110100110000100: 650665 546748 650162 611453
0110100110000100: 650665 546748 650162 611453
0110100110000100: 650665 546748 591522 611453
0110100110000100: 650665 546748 591522 611453
0101101001001000: 650665 546748 611453 650162
0101101001001000: 650665 546748 611453 591522
0100101001010010: 650665 546748 611453 476090
0100101001010010: 650665 546748 611453 476090
0100101001010010: 650665 546748 611453 476090
0110100110010110: 650665 591522 650162 538293
0111100010001000: 650665 591522 546748 650162
0110100010010010: 650665 591522 546748 611453
0110100010010010: 650665 591522 546748 611453
0111100010001000: 650665 591522 650162 546748
0110100110000100: 650665 591522 650162 655496
0110100110000100: 650665 591522 650162 545325
0110100110010110: 650665 591522 650162 538293
0110100110010110: 650665 591522 650162 538293
0111100010001000: 650665 591522 546748 650162
0111100010001000: 650665 591522 546748 650162
0110100110000100: 650665 591522 546748 655496
0110100110000100: 650665 591522 546748 545325
0110100110000100: 650665 591522 546748 538293
0110100010010010: 650665 591522 546748 611453
0111100010001000: 650665 591522 650162 546748
0111100010001000: 650665 591522 650162 546748
0111100010001000: 650665 591522 546748 650162
0111100010001000: 650665 591522 546748 650162
0110100010010010: 650665 591522 546748 611453
0110100110000100: 650665 591522 650162 655496
0110100110000100: 650665 591522 650162 545325
0110100110000100: 650665 591522 650162 655496
0110100110000100: 650665 591522 650162 545325
0111100010001000: 650665 591522 650162 546748
0110100110010110: 650665 591522 650162 538293
0110100110010110: 650665 591522 650162 538293
0110100110000100: 650665 591522 546748 655496
0110100110000100: 650665 591522 546748 545325
0110100110000100: 650665 591522 546748 538293
0110100110000100: 650665 591522 546748 655496
0110100110000100: 650665 591522 546748 545325
0110100110000100: 650665 591522 546748 538293
0111100010001000: 650665 591522 546748 650162
0111100010001000: 650665 591522 546748 650162
0110100010010010: 650665 591522 546748 611453
0110100010010010: 650665 591522 546748 611453
0110100110000100: 545325 476090 591522 611453
0110100010010010: 545325 476090 591522 655496
0110100010010010: 545325 476090 591522 650665
0110100010010010: 545325 476090 591522 538293
0110100110000100: 545325 476090 591522 611453
0110100110000100: 545325 476090 591522 611453
0110100110000100: 545325 476090 591522 611453
0110100110000100: 545325 476090 591522 611453
0110100110000100: 545325 476090 591522 611453
0110100010010010: 545325 591522 476090 611453
0110100110000100: 545325 591522 476090 655496
0110100110000100: 545325 591522 476090 650665
0110100110000100: 545325 591522 476090 538293
0110100010010010: 545325 591522 476090 611453
0110100110000100: 545325 591522 476090 655496
0110100110000100: 545325 591522 476090 650665
0110100110000100: 545325 591522 476090 538293
0110100110000100: 545325 591522 476090 655496
0110100110000100: 545325 591522 476090 650665
0110100110000100: 545325 591522 476090 538293
0110100010010010: 545325 591522 476090 611453
0110100110000100: 476090 611453 545325 546748
0110100010010010: 476090 611453 545325 591522
0110100110000100: 476090 611453 545325 546748
0110100110000100: 476090 611453 545325 546748
0110100110000100: 476090 611453 545325 546748
0110100110000100: 476090 611453 545325 546748
0110100110000100: 476090 611453 545325 546748
0110100010010010: 476090 545325 611453 546748
0110100110000100: 476090 545325 611453 591522
0110100110000100: 476090 545325 611453 591522
0110100110000100: 476090 545325 611453 591522
0110100110000100: 476090 545325 611453 591522
0110100110010110: 650162 538293 650665 591522
0110100010010010: 650162 650665 538293 513372
0110100110010110: 650162 650665 538293 591522
0110100110000100: 650162 650665 538293 546748
0110100110010110: 650162 650665 538293 591522
0110100110000100: 650162 650665 538293 546748
0110100110000100: 650162 650665 538293 546748
0110100110010110: 650162 650665 538293 591522
0110100110000100: 650162 650665 538293 546748
0110100010010010: 650162 538293 650665 546748
0110100110010110: 650162 538293 650665 591522
0110100110000100: 650162 538293 650665 513372
0110100110010110: 650162 538293 650665 591522
0110100110010110: 650162 538293 650665 591522
0110100110000100: 650162 538293 650665 513372
0110100110000100: 650162 538293 650665 513372
0110100110010110: 650162 538293 650665 591522
0110100110000100: 650162 538293 650665 513372
0110100010010010: 611453 476090 546748 650665
0110100110000100: 611453 476090 546748 545325
0110100110000100: 611453 476090 546748 545325
0110100110000100: 611453 476090 546748 545325
0110100110000100: 611453 476090 546748 545325
0110100010010010: 611453 546748 476090 545325
0110100110000100: 611453 546748 476090 650665
0110100110000100: 611453 546748 476090 650665
0110100110000100: 611453 546748 476090 650665
0110100110000100: 611453 546748 476090 650665
