0111101011001000: 550628 554368 639199 611499
0111101011001000: 550628 639199 554368 611499
0101101001001000: 550628 611499 654003 554368
0101101001001000: 550628 611499 654003 639199
0110100110000100: 550628 554368 611499 476267
0110100110000100: 550628 554368 611499 457525
0110100110000100: 550628 554368 611499 575670
0110100110000100: 550628 554368 611499 525686
0110100110000100: 550628 554368 611499 489873
0110100010010010: 550628 554368 611499 654003
0110100010010010: 550628 554368 611499 654003
0110100110000100: 550628 554368 611499 476267
0110100110000100: 550628 554368 611499 457525
0110100110000100: 550628 554368 611499 575670
0110100110000100: 550628 554368 611499 525686
0110100110000100: 550628 554368 611499 489873
0110100110000100: 550628 554368 611499 476267
0110100110000100: 550628 554368 611499 457525
0110100110000100: 550628 554368 611499 575670
0110100110000100: 550628 554368 611499 525686
0110100110000100: 550628 554368 611499 489873
0111100110001100: 550628 554368 611499 639199
0110100010010010: 550628 554368 611499 654003
0111101011001000: 550628 554368 639199 611499
0110101011010010: 550628 554368 639199 613486
0110101011010010: 550628 554368 639199 613486
0111101011001000: 550628 554368 639199 611499
0110100010010010: 550628 554368 611499 654003
0111101011001000: 550628 554368 639199 611499
0111101011001000: 550628 554368 639199 611499
0110101111000100: 550628 554368 639199 476267
0110101111000100: 550628 554368 639199 575670
0110101111000100: 550628 554368 639199 525686
0110101111000100: 550628 554368 639199 476267
0110101111000100: 550628 554368 639199 575670
0110101111000100: 550628 554368 639199 525686
0111101011001000: 550628 554368 639199 611499
0110101111010110: 550628 554368 639199 457525
0110101111010110: 550628 554368 639199 489873
0110101011010010: 550628 554368 639199 613486
0110101111010110: 550628 554368 639199 457525
0110101111010110: 550628 554368 639199 489873
0110101111010110: 550628 554368 639199 457525
0110101111010110: 550628 554368 639199 489873
0111101011001000: 550628 554368 639199 611499
0110100110000100: 550628 554368 611499 476267
0110100110000100: 550628 554368 611499 457525
0110100110000100: 550628 554368 611499 575670
0110100110000100: 550628 554368 611499 525686
0110100110000100: 550628 554368 611499 489873
0110100110000100: 550628 554368 611499 476267
0110100110000100: 550628 554368 611499 457525
0110100110000100: 550628 554368 611499 575670
0110100110000100: 550628 554368 611499 525686
0110100110000100: 550628 554368 611499 489873
0111100110001100: 550628 554368 611499 639199
0111100110001100: 550628 554368 611499 639199
0111100110001100: 550628 554368 611499 639199
0110100010010010: 550628 554368 611499 654003
0110100010010010: 550628 554368 611499 654003
0111101011001000: 550628 554368 639199 611499
0110100110000100: 550628 639199 611499 457525
0110100110000100: 550628 639199 611499 613486
0110100110000100: 550628 639199 611499 489873
0110100010010010: 550628 639199 611499 654003
0110100010010010: 550628 639199 611499 654003
0110100110000100: 550628 639199 611499 457525
0110100110000100: 550628 639199 611499 613486
0110100110000100: 550628 639199 611499 489873
0110100110000100: 550628 639199 611499 457525
0110100110000100: 550628 639199 611499 613486
0110100110000100: 550628 639199 611499 489873
0111100110001100: 550628 639199 611499 554368
0110100010010010: 550628 639199 611499 654003
0111101011001000: 550628 639199 554368 611499
0110101011010010: 550628 639199 554368 476267
0110101011010010: 550628 639199 554368 575670
0110101011010010: 550628 639199 554368 525686
0110101011010010: 550628 639199 554368 476267
0110101011010010: 550628 639199 554368 575670
0110101011010010: 550628 639199 554368 525686
0111101011001000: 550628 639199 554368 611499
0110100010010010: 550628 639199 611499 654003
0111101011001000: 550628 639199 554368 611499
0111101011001000: 550628 639199 554368 611499
0110101111000100: 550628 639199 554368 613486
0110101111000100: 550628 639199 554368 613486
0111101011001000: 550628 639199 554368 611499
0110101111010110: 550628 639199 554368 457525
0110101111010110: 550628 639199 554368 489873
0110101111010110: 550628 639199 554368 457525
0110101111010110: 550628 639199 554368 489873
0110101111000100: 550628 639199 554368 613486
0110101111010110: 550628 639199 554368 457525
0110101111010110: 550628 639199 554368 489873
0111101011001000: 550628 639199 554368 611499
0110100110000100: 550628 639199 611499 457525
0110100110000100: 550628 639199 611499 613486
0110100110000100: 550628 639199 611499 489873
0110100110000100: 550628 639199 611499 457525
0110100110000100: 550628 639199 611499 613486
0110100110000100: 550628 639199 611499 489873
0111100110001100: 550628 639199 611499 554368
0111100110001100: 550628 639199 611499 554368
0111100110001100: 550628 639199 611499 554368
0110100010010010: 550628 639199 611499 654003
0110100010010010: 550628 639199 611499 654003
0111101011001000: 550628 639199 554368 611499
0111101011001000: 550628 639199 554368 611499
0111101011001000: 550628 639199 554368 611499
0111101011001000: 550628 639199 554368 611499
0110100110000100: 550628 611499 554368 654003
0110100010010010: 550628 611499 554368 476267
0110100010010010: 550628 611499 554368 457525
0110100010010010: 550628 611499 554368 575670
0110100010010010: 550628 611499 554368 525686
0110100010010010: 550628 611499 554368 489873
0111100010011010: 550628 611499 554368 639199
0110100110000100: 550628 611499 639199 654003
0110100010010010: 550628 611499 639199 457525
0110100010010010: 550628 611499 639199 613486
0110100010010010: 550628 611499 639199 489873
0111100010011010: 550628 611499 639199 554368
0110100110000100: 550628 611499 554368 654003
0110100110000100: 550628 611499 554368 654003
0110100110000100: 550628 611499 554368 654003
0110100110000100: 550628 611499 639199 654003
0110100110000100: 550628 611499 639199 654003
0110100110000100: 550628 611499 639199 654003
0101101001001000: 550628 611499 654003 554368
0101101001001000: 550628 611499 654003 639199
0100101001010010: 550628 611499 654003 552084
0100101001010010: 550628 611499 654003 552084
0100101001010010: 550628 611499 654003 552084
0110100110000100: 611499 654003 550628 552084
0110100010010010: 611499 654003 550628 554368
0110100010010010: 611499 654003 550628 639199
0110100110000100: 611499 654003 550628 552084
0110100110000100: 611499 654003 550628 552084
0110100110000100: 611499 654003 550628 552084
0110100110000100: 611499 654003 550628 552084
0110100110000100: 611499 654003 550628 552084
0110100010010010: 611499 550628 654003 552084
0110100110000100: 611499 550628 654003 554368
0110100110000100: 611499 550628 654003 639199
0110100010010010: 611499 550628 654003 552084
0110100110000100: 611499 550628 654003 554368
0110100110000100: 611499 550628 654003 639199
0110100110000100: 611499 550628 654003 554368
0110100110000100: 611499 550628 654003 639199
0110100010010010: 611499 550628 654003 552084
0111101011001000: 639199 457525 554368 613486
0111101111011110: 639199 457525 554368 489873
0111101011001000: 639199 457525 489873 613486
0111101011001000: 639199 457525 489873 550628
0111101111011110: 639199 457525 489873 554368
0101101001001000: 639199 457525 648227 550628
0101101101001100: 639199 457525 648227 554368
0101101101001100: 639199 457525 648227 489873
0110100110010110: 639199 613486 457525 648227
0101101001001000: 639199 613486 648227 554368
0101101001001000: 639199 613486 648227 489873
0101101001001000: 639199 613486 648227 550628
0111101011001000: 639199 554368 457525 613486
0111101111011110: 639199 554368 457525 489873
0111101011001000: 639199 554368 489873 613486
0111101111011110: 639199 554368 489873 457525
0111101011001000: 639199 554368 550628 613486
0111101111001100: 639199 554368 550628 457525
0111101111001100: 639199 554368 550628 489873
0111101011001000: 639199 489873 457525 613486
0111101011001000: 639199 489873 457525 550628
0111101111011110: 639199 489873 457525 554368
0111101011001000: 639199 489873 554368 613486
0111101111011110: 639199 489873 554368 457525
0101101001001000: 639199 489873 635966 613486
0101101001001000: 639199 489873 635966 550628
0101101101001100: 639199 489873 635966 457525
0101101101001100: 639199 489873 635966 554368
0111100010001000: 639199 550628 613486 457525
0111100010001000: 639199 550628 489873 613486
0111101011001000: 639199 550628 554368 613486
0101101001001000: 639199 550628 611499 457525
0101101001001000: 639199 550628 611499 613486
0101101001001000: 639199 550628 611499 489873
0101101101001100: 639199 550628 611499 554368
0110100110010110: 639199 457525 613486 648227
0110100110010110: 639199 457525 613486 648227
0111100010001000: 639199 457525 550628 613486
0110100110000100: 639199 457525 550628 648227
0110100010010010: 639199 457525 550628 611499
0110100010010010: 639199 457525 550628 611499
0111100110001100: 639199 457525 613486 554368
0111100110001100: 639199 457525 613486 489873
0110100110010110: 639199 457525 613486 648227
0110100110000100: 639199 457525 550628 648227
0110100110000100: 639199 457525 550628 648227
0111100110001100: 639199 457525 550628 489873
0110100110000100: 639199 457525 550628 648227
0110100010010010: 639199 457525 550628 611499
0111101011001000: 639199 457525 554368 613486
0110101011010010: 639199 457525 554368 476267
0110101011010010: 639199 457525 554368 575670
0110101011010010: 639199 457525 554368 525686
0110101011010010: 639199 457525 554368 476267
0110101011010010: 639199 457525 554368 575670
0110101011010010: 639199 457525 554368 525686
0111101011011010: 639199 457525 554368 550628
0111101011011010: 639199 457525 554368 550628
0111101011011010: 639199 457525 554368 550628
0111101011001000: 639199 457525 554368 613486
0110101111000100: 639199 457525 554368 648227
0111101111011110: 639199 457525 554368 489873
0111101011001000: 639199 457525 489873 613486
0111101011001000: 639199 457525 489873 550628
0110101011010010: 639199 457525 489873 635966
0110101011010010: 639199 457525 489873 635966
0110101011010010: 639199 457525 489873 635966
0110101011010010: 639199 457525 489873 635966
0111101111011110: 639199 457525 489873 554368
0110101111000100: 639199 457525 489873 648227
0111101111011110: 639199 457525 489873 554368
0101101001001000: 639199 457525 648227 550628
0101101101001100: 639199 457525 648227 554368
0101101101001100: 639199 457525 648227 489873
0101101001011010: 639199 457525 648227 613486
0101101001011010: 639199 457525 648227 613486
0101101001011010: 639199 457525 648227 613486
0101101001011010: 639199 457525 648227 613486
0101101001011010: 639199 457525 648227 613486
0111101011001000: 639199 457525 554368 613486
0111101011001000: 639199 457525 554368 613486
0110101111000100: 639199 457525 554368 648227
0110101111000100: 639199 457525 554368 648227
0110101111000100: 639199 457525 554368 648227
0110101111000100: 639199 457525 554368 648227
0111101111011110: 639199 457525 554368 489873
0111101111011110: 639199 457525 554368 489873
0111101111011110: 639199 457525 554368 489873
0111101111011110: 639199 457525 554368 489873
0111101011001000: 639199 457525 489873 613486
0111101011001000: 639199 457525 489873 550628
0111101011001000: 639199 457525 489873 613486
0111101011001000: 639199 457525 489873 550628
0110101111000100: 639199 457525 489873 648227
0110101111000100: 639199 457525 489873 648227
0110101111000100: 639199 457525 489873 648227
0110101111000100: 639199 457525 489873 648227
0111101111011110: 639199 457525 489873 554368
0111101111011110: 639199 457525 489873 554368
0111101111011110: 639199 457525 489873 554368
0111101111011110: 639199 457525 489873 554368
0110101111000100: 639199 457525 554368 648227
0111101111011110: 639199 457525 554368 489873
0110101111000100: 639199 457525 489873 648227
0111101111011110: 639199 457525 489873 554368
0111100010011010: 639199 613486 457525 554368
0111100010011010: 639199 613486 457525 489873
0110100110010110: 639199 613486 457525 648227
0110100110010110: 639199 613486 457525 648227
0110100110000100: 639199 613486 554368 648227
0110100010010010: 639199 613486 554368 476267
0110100010010010: 639199 613486 554368 575670
0110100010010010: 639199 613486 554368 525686
0111100010011010: 639199 613486 554368 457525
0111100010011010: 639199 613486 554368 489873
0111100010011010: 639199 613486 554368 550628
0110100110000100: 639199 613486 489873 648227
0110100010010010: 639199 613486 489873 635966
0111100010011010: 639199 613486 489873 457525
0111100010011010: 639199 613486 489873 554368
0110100010010010: 639199 613486 489873 635966
0111100010001000: 639199 613486 550628 457525
0111100010001000: 639199 613486 550628 489873
0110100110000100: 639199 613486 550628 648227
0110100010010010: 639199 613486 550628 611499
0111100010011010: 639199 613486 550628 554368
0110100010010010: 639199 613486 550628 611499
0111100010001000: 639199 613486 457525 550628
0110100110010110: 639199 613486 457525 648227
0110100110010110: 639199 613486 457525 648227
0110100110010110: 639199 613486 457525 648227
0110100110000100: 639199 613486 554368 648227
0110100110000100: 639199 613486 554368 648227
0110100110000100: 639199 613486 554368 648227
0110100110000100: 639199 613486 489873 648227
0110100110000100: 639199 613486 489873 648227
0110100110000100: 639199 613486 489873 648227
0110100110000100: 639199 613486 550628 648227
0110100110000100: 639199 613486 550628 648227
0110100110000100: 639199 613486 550628 648227
0101101001001000: 639199 613486 648227 554368
0101101001001000: 639199 613486 648227 489873
0101101001001000: 639199 613486 648227 550628
0101101001011010: 639199 613486 648227 457525
0101101001011010: 639199 613486 648227 457525
0101101001011010: 639199 613486 648227 457525
0110100110000100: 639199 554368 613486 476267
0110100110000100: 639199 554368 613486 575670
0110100110000100: 639199 554368 613486 525686
0110100010010010: 639199 554368 613486 648227
0110100010010010: 639199 554368 613486 648227
0110100110000100: 639199 554368 613486 476267
0110100110000100: 639199 554368 613486 575670
0110100110000100: 639199 554368 613486 525686
0110100110000100: 639199 554368 613486 476267
0110100110000100: 639199 554368 613486 575670
0110100110000100: 639199 554368 613486 525686
0111100110001100: 639199 554368 613486 457525
0111100110001100: 639199 554368 613486 489873
0111100110001100: 639199 554368 613486 550628
0110100010010010: 639199 554368 613486 648227
0111101011001000: 639199 554368 457525 613486
0110101011010010: 639199 554368 457525 648227
0110101011010010: 639199 554368 457525 648227
0110101011010010: 639199 554368 457525 648227
0110101011010010: 639199 554368 457525 648227
0110101011010010: 639199 554368 457525 648227
0111101111011110: 639199 554368 457525 489873
0111101011001000: 639199 554368 489873 613486
0110101011010010: 639199 554368 489873 635966
0110101011010010: 639199 554368 489873 635966
0110101011010010: 639199 554368 489873 635966
0110101011010010: 639199 554368 489873 635966
0111101111011110: 639199 554368 489873 457525
0110101011010010: 639199 554368 489873 635966
0111101111011110: 639199 554368 489873 457525
0111101011001000: 639199 554368 550628 613486
0110101011010010: 639199 554368 550628 611499
0110101011010010: 639199 554368 550628 611499
0111101111001100: 639199 554368 550628 457525
0111101111001100: 639199 554368 550628 489873
0110101011010010: 639199 554368 550628 611499
0110101011010010: 639199 554368 550628 611499
0110101011010010: 639199 554368 550628 611499
0110100010010010: 639199 554368 613486 648227
0111101011001000: 639199 554368 457525 613486
0111101011001000: 639199 554368 457525 613486
0110101111000100: 639199 554368 457525 476267
0110101111000100: 639199 554368 457525 575670
0110101111000100: 639199 554368 457525 525686
0110101111000100: 639199 554368 457525 476267
0110101111000100: 639199 554368 457525 575670
0110101111000100: 639199 554368 457525 525686
0111101111001100: 639199 554368 457525 550628
0111101011001000: 639199 554368 457525 613486
0111101111001100: 639199 554368 457525 550628
0110101011010010: 639199 554368 457525 648227
0110101011010010: 639199 554368 457525 648227
0111101111011110: 639199 554368 457525 489873
0111101111011110: 639199 554368 457525 489873
0111101111011110: 639199 554368 457525 489873
0111101111011110: 639199 554368 457525 489873
0111101011001000: 639199 554368 489873 613486
0111101011001000: 639199 554368 489873 613486
0110101111000100: 639199 554368 489873 476267
0110101111000100: 639199 554368 489873 575670
0110101111000100: 639199 554368 489873 525686
0110101111000100: 639199 554368 489873 476267
0110101111000100: 639199 554368 489873 575670
0110101111000100: 639199 554368 489873 525686
0111101111001100: 639199 554368 489873 550628
0111101011001000: 639199 554368 489873 613486
0111101111001100: 639199 554368 489873 550628
0110101011010010: 639199 554368 489873 635966
0110101011010010: 639199 554368 489873 635966
0111101111011110: 639199 554368 489873 457525
0111101111011110: 639199 554368 489873 457525
0111101111011110: 639199 554368 489873 457525
0111101111011110: 639199 554368 489873 457525
0111101011001000: 639199 554368 550628 613486
0111101011001000: 639199 554368 550628 613486
0110101111000100: 639199 554368 550628 476267
0110101111000100: 639199 554368 550628 575670
0110101111000100: 639199 554368 550628 525686
0110101111000100: 639199 554368 550628 476267
0110101111000100: 639199 554368 550628 575670
0110101111000100: 639199 554368 550628 525686
0111101111001100: 639199 554368 550628 457525
0111101111001100: 639199 554368 550628 489873
0111101011001000: 639199 554368 550628 613486
0111101111001100: 639199 554368 550628 457525
0111101111001100: 639199 554368 550628 489873
0111101111001100: 639199 554368 550628 457525
0111101111001100: 639199 554368 550628 489873
0110101011010010: 639199 554368 550628 611499
0110101011010010: 639199 554368 550628 611499
0110100110000100: 639199 554368 613486 476267
0110100110000100: 639199 554368 613486 575670
0110100110000100: 639199 554368 613486 525686
0110100110000100: 639199 554368 613486 476267
0110100110000100: 639199 554368 613486 575670
0110100110000100: 639199 554368 613486 525686
0111100110001100: 639199 554368 613486 457525
0111100110001100: 639199 554368 613486 489873
0111100110001100: 639199 554368 613486 550628
0111100110001100: 639199 554368 613486 457525
0111100110001100: 639199 554368 613486 489873
0111100110001100: 639199 554368 613486 550628
0111100110001100: 639199 554368 613486 457525
0111100110001100: 639199 554368 613486 489873
0111100110001100: 639199 554368 613486 550628
0110100010010010: 639199 554368 613486 648227
0110100010010010: 639199 554368 613486 648227
0111101011001000: 639199 554368 457525 613486
0111101011001000: 639199 554368 457525 613486
0111101111001100: 639199 554368 457525 550628
0111101111001100: 639199 554368 457525 550628
0111101011001000: 639199 554368 457525 613486
0110101011010010: 639199 554368 457525 648227
0111101111011110: 639199 554368 457525 489873
0111101111011110: 639199 554368 457525 489873
0111101111011110: 639199 554368 457525 489873
0111101111001100: 639199 554368 489873 550628
0111101111001100: 639199 554368 489873 550628
0111101011001000: 639199 554368 489873 613486
0110101011010010: 639199 554368 489873 635966
0111101111011110: 639199 554368 489873 457525
0111101111001100: 639199 554368 550628 457525
0111101111001100: 639199 554368 550628 489873
0111101111001100: 639199 554368 550628 457525
0111101111001100: 639199 554368 550628 489873
0111101011001000: 639199 554368 550628 613486
0111101111001100: 639199 554368 550628 457525
0111101111001100: 639199 554368 550628 489873
0110101011010010: 639199 554368 550628 611499
0110100110000100: 639199 489873 613486 635966
0110100010010010: 639199 489873 613486 648227
0110100010010010: 639199 489873 613486 648227
0111100010001000: 639199 489873 550628 613486
0110100110000100: 639199 489873 550628 635966
0110100010010010: 639199 489873 550628 611499
0110100010010010: 639199 489873 550628 611499
0111100010001000: 639199 489873 613486 550628
0110100110000100: 639199 489873 613486 635966
0110100110000100: 639199 489873 613486 635966
0111100110001100: 639199 489873 613486 457525
0111100110001100: 639199 489873 613486 554368
0110100110000100: 639199 489873 613486 635966
0110100010010010: 639199 489873 613486 648227
0110100110000100: 639199 489873 550628 635966
0110100110000100: 639199 489873 550628 635966
0111100110001100: 639199 489873 550628 457525
0110100110000100: 639199 489873 550628 635966
0110100010010010: 639199 489873 550628 611499
0111101011001000: 639199 489873 457525 613486
0111101011001000: 639199 489873 457525 550628
0110101011010010: 639199 489873 457525 648227
0110101011010010: 639199 489873 457525 648227
0110101011010010: 639199 489873 457525 648227
0110101011010010: 639199 489873 457525 648227
0110101111000100: 639199 489873 457525 635966
0111101111011110: 639199 489873 457525 554368
0111101011001000: 639199 489873 554368 613486
0110101011010010: 639199 489873 554368 476267
0110101011010010: 639199 489873 554368 575670
0110101011010010: 639199 489873 554368 525686
0110101011010010: 639199 489873 554368 476267
0110101011010010: 639199 489873 554368 575670
0110101011010010: 639199 489873 554368 525686
0111101011011010: 639199 489873 554368 550628
0111101011011010: 639199 489873 554368 550628
0111101011011010: 639199 489873 554368 550628
0111101011001000: 639199 489873 554368 613486
0111101011001000: 639199 489873 554368 613486
0111101111011110: 639199 489873 554368 457525
0110101111000100: 639199 489873 554368 635966
0111101111011110: 639199 489873 554368 457525
0101101001001000: 639199 489873 635966 613486
0101101001001000: 639199 489873 635966 550628
0100101001010010: 639199 489873 635966 525686
0100101001010010: 639199 489873 635966 525686
0101101101001100: 639199 489873 635966 457525
0101101101001100: 639199 489873 635966 554368
0100101001010010: 639199 489873 635966 525686
0100101001010010: 639199 489873 635966 525686
0111101011001000: 639199 489873 457525 613486
0111101011001000: 639199 489873 457525 550628
0111101011001000: 639199 489873 457525 613486
0111101011001000: 639199 489873 457525 550628
0110101111000100: 639199 489873 457525 635966
0110101111000100: 639199 489873 457525 635966
0110101111000100: 639199 489873 457525 635966
0110101111000100: 639199 489873 457525 635966
0111101111011110: 639199 489873 457525 554368
0111101111011110: 639199 489873 457525 554368
0111101111011110: 639199 489873 457525 554368
0111101111011110: 639199 489873 457525 554368
0111101011001000: 639199 489873 554368 613486
0111101011001000: 639199 489873 554368 613486
0110101111000100: 639199 489873 554368 635966
0110101111000100: 639199 489873 554368 635966
0110101111000100: 639199 489873 554368 635966
0110101111000100: 639199 489873 554368 635966
0111101111011110: 639199 489873 554368 457525
0111101111011110: 639199 489873 554368 457525
0111101111011110: 639199 489873 554368 457525
0111101111011110: 639199 489873 554368 457525
0111101011001000: 639199 489873 457525 613486
0111101011001000: 639199 489873 457525 550628
0111101011001000: 639199 489873 457525 613486
0111101011001000: 639199 489873 457525 550628
0110101111000100: 639199 489873 457525 635966
0111101111011110: 639199 489873 457525 554368
0111101111011110: 639199 489873 457525 554368
0111101111011110: 639199 489873 457525 554368
0111101011001000: 639199 489873 554368 613486
0111101011001000: 639199 489873 554368 613486
0110101111000100: 639199 489873 554368 635966
0111101111011110: 639199 489873 554368 457525
0111101111011110: 639199 489873 554368 457525
0111101111011110: 639199 489873 554368 457525
0111101111011110: 639199 489873 554368 457525
0110100010010010: 639199 550628 457525 648227
0111100010011010: 639199 550628 457525 489873
0110100010010010: 639199 550628 457525 648227
0111100010001000: 639199 550628 613486 457525
0110100010010010: 639199 550628 613486 648227
0110100010010010: 639199 550628 613486 648227
0111100010001000: 639199 550628 489873 613486
0110100010010010: 639199 550628 489873 635966
0111100010011010: 639199 550628 489873 457525
0110100010010010: 639199 550628 489873 635966
0111100010001000: 639199 550628 457525 613486
0110100110000100: 639199 550628 457525 611499
0110100110000100: 639199 550628 457525 611499
0111100010001000: 639199 550628 613486 457525
0111100010001000: 639199 550628 613486 489873
0111100010001000: 639199 550628 613486 457525
0110100110000100: 639199 550628 613486 611499
0111100110001100: 639199 550628 613486 554368
0110100110000100: 639199 550628 613486 611499
0110100010010010: 639199 550628 613486 648227
0111100010001000: 639199 550628 489873 613486
0111100010001000: 639199 550628 489873 613486
0110100110000100: 639199 550628 489873 611499
0110100110000100: 639199 550628 489873 611499
0111101011001000: 639199 550628 554368 613486
0111101011011010: 639199 550628 554368 457525
0111101011011010: 639199 550628 554368 489873
0111101011011010: 639199 550628 554368 457525
0111101011011010: 639199 550628 554368 489873
0111101011011010: 639199 550628 554368 457525
0111101011011010: 639199 550628 554368 489873
0111101011001000: 639199 550628 554368 613486
0111101011001000: 639199 550628 554368 613486
0110101111000100: 639199 550628 554368 611499
0101101001001000: 639199 550628 611499 457525
0101101001001000: 639199 550628 611499 613486
0101101001001000: 639199 550628 611499 489873
0100101001010010: 639199 550628 611499 654003
0100101001010010: 639199 550628 611499 654003
0101101101001100: 639199 550628 611499 554368
0100101001010010: 639199 550628 611499 654003
0100101001010010: 639199 550628 611499 654003
0111101011001000: 639199 550628 554368 613486
0111101011001000: 639199 550628 554368 613486
0110101111000100: 639199 550628 554368 611499
0110101111000100: 639199 550628 554368 611499
0110101111000100: 639199 550628 554368 611499
0110101111000100: 639199 550628 554368 611499
0111101011001000: 639199 550628 554368 613486
0111101011001000: 639199 550628 554368 613486
0110101111000100: 639199 550628 554368 611499
0111101011001000: 489873 457525 554368 635966
0111101111011110: 489873 457525 554368 639199
0111101011001000: 489873 457525 639199 635966
0111101111011110: 489873 457525 639199 554368
0111101011001000: 489873 554368 457525 635966
0111101111011110: 489873 554368 457525 639199
0111101011001000: 489873 554368 639199 635966
0111101111011110: 489873 554368 639199 457525
0110100110010110: 489873 635966 554368 525686
0101101001001000: 489873 635966 525686 457525
0101101001001000: 489873 635966 525686 639199
0111101011001000: 489873 639199 457525 635966
0111101111011110: 489873 639199 457525 554368
0111101011001000: 489873 639199 554368 635966
0111101111011110: 489873 639199 554368 457525
0110100110000100: 489873 457525 635966 648227
0110100010010010: 489873 457525 635966 525686
0110100010010010: 489873 457525 635966 525686
0110100110000100: 489873 457525 635966 648227
0110100110000100: 489873 457525 635966 648227
0111100110001100: 489873 457525 635966 554368
0111100110001100: 489873 457525 635966 639199
0110100010010010: 489873 457525 635966 525686
0111101011001000: 489873 457525 554368 635966
0110101011010010: 489873 457525 554368 476267
0110101011010010: 489873 457525 554368 575670
0110101011010010: 489873 457525 554368 525686
0110101011010010: 489873 457525 554368 550628
0110101011010010: 489873 457525 554368 476267
0110101011010010: 489873 457525 554368 575670
0110101011010010: 489873 457525 554368 525686
0110101011010010: 489873 457525 554368 550628
0111101011001000: 489873 457525 554368 635966
0111101111011110: 489873 457525 554368 639199
0111101011001000: 489873 457525 639199 635966
0110101011010010: 489873 457525 639199 613486
0110101011010010: 489873 457525 639199 550628
0110101011010010: 489873 457525 639199 613486
0110101011010010: 489873 457525 639199 550628
0111101011001000: 489873 457525 639199 635966
0111101111011110: 489873 457525 639199 554368
0111101111011110: 489873 457525 639199 554368
0110100010010010: 489873 457525 635966 525686
0111101011001000: 489873 457525 554368 635966
0111101011001000: 489873 457525 554368 635966
0110101111000100: 489873 457525 554368 648227
0110101111000100: 489873 457525 554368 648227
0111101011001000: 489873 457525 554368 635966
0110101111000100: 489873 457525 554368 648227
0111101111011110: 489873 457525 554368 639199
0111101011001000: 489873 457525 554368 635966
0111101111011110: 489873 457525 554368 639199
0111101111011110: 489873 457525 554368 639199
0111101111011110: 489873 457525 554368 639199
0111101011001000: 489873 457525 639199 635966
0111101011001000: 489873 457525 639199 635966
0110101111000100: 489873 457525 639199 648227
0110101111000100: 489873 457525 639199 648227
0111101011001000: 489873 457525 639199 635966
0110101111000100: 489873 457525 639199 648227
0111101111011110: 489873 457525 639199 554368
0111101011001000: 489873 457525 639199 635966
0111101111011110: 489873 457525 639199 554368
0111101111011110: 489873 457525 639199 554368
0111101111011110: 489873 457525 639199 554368
0110100110000100: 489873 457525 635966 648227
0110100110000100: 489873 457525 635966 648227
0111100110001100: 489873 457525 635966 554368
0111100110001100: 489873 457525 635966 639199
0111100110001100: 489873 457525 635966 554368
0111100110001100: 489873 457525 635966 639199
0111100110001100: 489873 457525 635966 554368
0111100110001100: 489873 457525 635966 639199
0110100010010010: 489873 457525 635966 525686
0110100010010010: 489873 457525 635966 525686
0111101011001000: 489873 457525 554368 635966
0111101111011110: 489873 457525 554368 639199
0111101011001000: 489873 457525 639199 635966
0111101111011110: 489873 457525 639199 554368
0110100110000100: 489873 554368 635966 476267
0110100110000100: 489873 554368 635966 575670
0110100110000100: 489873 554368 635966 550628
0110100110010110: 489873 554368 635966 525686
0110100110010110: 489873 554368 635966 525686
0110100110000100: 489873 554368 635966 476267
0110100110000100: 489873 554368 635966 575670
0110100110000100: 489873 554368 635966 550628
0110100110000100: 489873 554368 635966 476267
0110100110000100: 489873 554368 635966 575670
0110100110000100: 489873 554368 635966 550628
0111100110001100: 489873 554368 635966 457525
0111100110001100: 489873 554368 635966 639199
0110100110010110: 489873 554368 635966 525686
0111101011001000: 489873 554368 457525 635966
0110101011010010: 489873 554368 457525 648227
0110101011010010: 489873 554368 457525 648227
0111101011001000: 489873 554368 457525 635966
0111101111011110: 489873 554368 457525 639199
0111101011001000: 489873 554368 639199 635966
0110101011010010: 489873 554368 639199 613486
0110101011010010: 489873 554368 639199 613486
0111101011001000: 489873 554368 639199 635966
0111101111011110: 489873 554368 639199 457525
0111101111011110: 489873 554368 639199 457525
0111101011001000: 489873 554368 457525 635966
0111101011001000: 489873 554368 457525 635966
0110101111000100: 489873 554368 457525 476267
0110101111000100: 489873 554368 457525 575670
0110101111000100: 489873 554368 457525 525686
0110101111000100: 489873 554368 457525 550628
0110101111000100: 489873 554368 457525 476267
0110101111000100: 489873 554368 457525 575670
0110101111000100: 489873 554368 457525 525686
0110101111000100: 489873 554368 457525 550628
0111101011001000: 489873 554368 457525 635966
0110101011010010: 489873 554368 457525 648227
0111101111011110: 489873 554368 457525 639199
0111101011001000: 489873 554368 457525 635966
0111101111011110: 489873 554368 457525 639199
0111101111011110: 489873 554368 457525 639199
0111101111011110: 489873 554368 457525 639199
0111101011001000: 489873 554368 639199 635966
0111101011001000: 489873 554368 639199 635966
0110101111000100: 489873 554368 639199 476267
0110101111000100: 489873 554368 639199 575670
0110101111000100: 489873 554368 639199 525686
0110101111000100: 489873 554368 639199 476267
0110101111000100: 489873 554368 639199 575670
0110101111000100: 489873 554368 639199 525686
0111101011001000: 489873 554368 639199 635966
0110101111010110: 489873 554368 639199 550628
0110101011010010: 489873 554368 639199 613486
0110101111010110: 489873 554368 639199 550628
0111101111011110: 489873 554368 639199 457525
0111101011001000: 489873 554368 639199 635966
0111101111011110: 489873 554368 639199 457525
0111101111011110: 489873 554368 639199 457525
0111101111011110: 489873 554368 639199 457525
0110100110000100: 489873 554368 635966 476267
0110100110000100: 489873 554368 635966 575670
0110100110000100: 489873 554368 635966 550628
0110100110000100: 489873 554368 635966 476267
0110100110000100: 489873 554368 635966 575670
0110100110000100: 489873 554368 635966 550628
0111100110001100: 489873 554368 635966 457525
0111100110001100: 489873 554368 635966 639199
0111100110001100: 489873 554368 635966 457525
0111100110001100: 489873 554368 635966 639199
0111100110001100: 489873 554368 635966 457525
0111100110001100: 489873 554368 635966 639199
0110100110010110: 489873 554368 635966 525686
0110100110010110: 489873 554368 635966 525686
0111101011001000: 489873 554368 457525 635966
0111101011001000: 489873 554368 457525 635966
0111101011001000: 489873 554368 457525 635966
0111101111011110: 489873 554368 457525 639199
0111101011001000: 489873 554368 457525 635966
0111101111011110: 489873 554368 457525 639199
0111101111011110: 489873 554368 457525 639199
0111101011001000: 489873 554368 639199 635966
0111101111011110: 489873 554368 639199 457525
0110100110000100: 489873 635966 457525 525686
0110100010010010: 489873 635966 457525 648227
0111100010011010: 489873 635966 457525 554368
0111100010011010: 489873 635966 457525 639199
0110100010010010: 489873 635966 554368 476267
0110100010010010: 489873 635966 554368 575670
0110100010010010: 489873 635966 554368 550628
0111100010011010: 489873 635966 554368 457525
0111100010011010: 489873 635966 554368 639199
0110100110010110: 489873 635966 554368 525686
0110100110010110: 489873 635966 554368 525686
0110100110000100: 489873 635966 639199 525686
0110100010010010: 489873 635966 639199 613486
0110100010010010: 489873 635966 639199 550628
0111100010011010: 489873 635966 639199 457525
0111100010011010: 489873 635966 639199 554368
0110100110000100: 489873 635966 457525 525686
0110100110000100: 489873 635966 457525 525686
0110100110000100: 489873 635966 457525 525686
0110100110010110: 489873 635966 554368 525686
0110100110010110: 489873 635966 554368 525686
0110100110010110: 489873 635966 554368 525686
0110100110000100: 489873 635966 639199 525686
0110100110000100: 489873 635966 639199 525686
0110100110000100: 489873 635966 639199 525686
0101101001001000: 489873 635966 525686 457525
0101101001001000: 489873 635966 525686 639199
0100101001010010: 489873 635966 525686 476267
0100101001010010: 489873 635966 525686 476267
0101101001011010: 489873 635966 525686 554368
0101101001011010: 489873 635966 525686 554368
0101101001011010: 489873 635966 525686 554368
0100101001010010: 489873 635966 525686 476267
0110100010010010: 489873 639199 635966 525686
0110100010010010: 489873 639199 635966 525686
0110100110000100: 489873 639199 635966 613486
0110100110000100: 489873 639199 635966 550628
0111100110001100: 489873 639199 635966 457525
0111100110001100: 489873 639199 635966 554368
0110100010010010: 489873 639199 635966 525686
0111101011001000: 489873 639199 457525 635966
0111101011001000: 489873 639199 457525 635966
0111101011001000: 489873 639199 457525 635966
0111101011001000: 489873 639199 554368 635966
0111101011001000: 489873 639199 554368 635966
0111101011001000: 489873 639199 554368 635966
0110100010010010: 489873 639199 635966 525686
0111101011001000: 489873 639199 457525 635966
0111101011001000: 489873 639199 457525 635966
0110101111000100: 489873 639199 457525 613486
0110101111000100: 489873 639199 457525 550628
0110101111000100: 489873 639199 457525 613486
0110101111000100: 489873 639199 457525 550628
0111101011001000: 489873 639199 457525 635966
0110101011010010: 489873 639199 457525 648227
0111101011001000: 489873 639199 457525 635966
0111101111011110: 489873 639199 457525 554368
0111101111011110: 489873 639199 457525 554368
0111101111011110: 489873 639199 457525 554368
0111101011001000: 489873 639199 554368 635966
0111101011001000: 489873 639199 554368 635966
0110101111000100: 489873 639199 554368 613486
0110101111000100: 489873 639199 554368 613486
0111101011001000: 489873 639199 554368 635966
0110101111010110: 489873 639199 554368 550628
0110101111010110: 489873 639199 554368 550628
0110101111000100: 489873 639199 554368 613486
0111101011001000: 489873 639199 554368 635966
0111101111011110: 489873 639199 554368 457525
0111101111011110: 489873 639199 554368 457525
0111101111011110: 489873 639199 554368 457525
0110100110000100: 489873 639199 635966 613486
0110100110000100: 489873 639199 635966 550628
0110100110000100: 489873 639199 635966 613486
0110100110000100: 489873 639199 635966 550628
0111100110001100: 489873 639199 635966 457525
0111100110001100: 489873 639199 635966 554368
0111100110001100: 489873 639199 635966 457525
0111100110001100: 489873 639199 635966 554368
0111100110001100: 489873 639199 635966 457525
0111100110001100: 489873 639199 635966 554368
0110100010010010: 489873 639199 635966 525686
0110100010010010: 489873 639199 635966 525686
0111101011001000: 489873 639199 457525 635966
0111101011001000: 489873 639199 457525 635966
0111101011001000: 489873 639199 457525 635966
0111101011001000: 489873 639199 457525 635966
0111101111011110: 489873 639199 457525 554368
0111101011001000: 489873 639199 554368 635966
0111101011001000: 489873 639199 554368 635966
0111101011001000: 489873 639199 554368 635966
0111101011001000: 489873 639199 554368 635966
0111101111011110: 489873 639199 554368 457525
0111101011001000: 525686 476267 554368 635966
0111101011001000: 525686 554368 476267 635966
0110100110010110: 525686 635966 554368 489873
0101101001001000: 525686 635966 489873 476267
0110100010010010: 525686 476267 635966 489873
0110100010010010: 525686 476267 635966 489873
0111100110001100: 525686 476267 635966 554368
0111101011001000: 525686 476267 554368 635966
0110101011010010: 525686 476267 554368 457525
0110101011010010: 525686 476267 554368 575670
0110101011010010: 525686 476267 554368 489873
0110101011010010: 525686 476267 554368 639199
0110101011010010: 525686 476267 554368 550628
0110101011010010: 525686 476267 554368 457525
0110101011010010: 525686 476267 554368 575670
0110101011010010: 525686 476267 554368 489873
0110101011010010: 525686 476267 554368 639199
0110101011010010: 525686 476267 554368 550628
0111101011001000: 525686 476267 554368 635966
0111101011001000: 525686 476267 554368 635966
0111101011001000: 525686 476267 554368 635966
0110100110000100: 525686 554368 635966 457525
0110100110000100: 525686 554368 635966 575670
0110100110000100: 525686 554368 635966 639199
0110100110000100: 525686 554368 635966 550628
0110100110010110: 525686 554368 635966 489873
0110100110010110: 525686 554368 635966 489873
0110100110000100: 525686 554368 635966 457525
0110100110000100: 525686 554368 635966 575670
0110100110000100: 525686 554368 635966 639199
0110100110000100: 525686 554368 635966 550628
0110100110000100: 525686 554368 635966 457525
0110100110000100: 525686 554368 635966 575670
0110100110000100: 525686 554368 635966 639199
0110100110000100: 525686 554368 635966 550628
0111100110001100: 525686 554368 635966 476267
0110100110010110: 525686 554368 635966 489873
0111101011001000: 525686 554368 476267 635966
0111101011001000: 525686 554368 476267 635966
0111101011001000: 525686 554368 476267 635966
0110101111000100: 525686 554368 476267 457525
0110101111000100: 525686 554368 476267 575670
0110101111000100: 525686 554368 476267 489873
0110101111000100: 525686 554368 476267 639199
0110101111000100: 525686 554368 476267 550628
0110101111000100: 525686 554368 476267 457525
0110101111000100: 525686 554368 476267 575670
0110101111000100: 525686 554368 476267 489873
0110101111000100: 525686 554368 476267 639199
0110101111000100: 525686 554368 476267 550628
0111101011001000: 525686 554368 476267 635966
0110100110000100: 525686 554368 635966 457525
0110100110000100: 525686 554368 635966 575670
0110100110000100: 525686 554368 635966 639199
0110100110000100: 525686 554368 635966 550628
0110100110000100: 525686 554368 635966 457525
0110100110000100: 525686 554368 635966 575670
0110100110000100: 525686 554368 635966 639199
0110100110000100: 525686 554368 635966 550628
0111100110001100: 525686 554368 635966 476267
0111100110001100: 525686 554368 635966 476267
0111100110001100: 525686 554368 635966 476267
0110100110010110: 525686 554368 635966 489873
0110100110010110: 525686 554368 635966 489873
0111101011001000: 525686 554368 476267 635966
0111101011001000: 525686 554368 476267 635966
0111101011001000: 525686 554368 476267 635966
0110100110000100: 525686 635966 476267 489873
0111100010011010: 525686 635966 476267 554368
0110100010010010: 525686 635966 554368 457525
0110100010010010: 525686 635966 554368 575670
0110100010010010: 525686 635966 554368 639199
0110100010010010: 525686 635966 554368 550628
0111100010011010: 525686 635966 554368 476267
0110100110010110: 525686 635966 554368 489873
0110100110010110: 525686 635966 554368 489873
0110100110000100: 525686 635966 476267 489873
0110100110000100: 525686 635966 476267 489873
0110100110000100: 525686 635966 476267 489873
0110100110010110: 525686 635966 554368 489873
0110100110010110: 525686 635966 554368 489873
0101101001001000: 525686 635966 489873 476267
0100101001010010: 525686 635966 489873 457525
0100101001010010: 525686 635966 489873 639199
0100101001010010: 525686 635966 489873 457525
0100101001010010: 525686 635966 489873 639199
0101101001011010: 525686 635966 489873 554368
0101101001011010: 525686 635966 489873 554368
0101101001011010: 525686 635966 489873 554368
0101101001001000: 525686 635966 489873 476267
0101101001001000: 525686 635966 489873 476267
0110100110010110: 635966 489873 525686 554368
0110100010010010: 635966 525686 489873 457525
0110100010010010: 635966 525686 489873 639199
0110100110010110: 635966 525686 489873 554368
0110100110000100: 635966 525686 489873 476267
0110100110010110: 635966 525686 489873 554368
0110100110000100: 635966 525686 489873 476267
0110100110000100: 635966 525686 489873 476267
0110100110010110: 635966 525686 489873 554368
0110100110000100: 635966 525686 489873 476267
0110100010010010: 635966 489873 525686 476267
0110100110010110: 635966 489873 525686 554368
0110100110000100: 635966 489873 525686 457525
0110100110000100: 635966 489873 525686 639199
0110100110010110: 635966 489873 525686 554368
0110100010010010: 635966 489873 525686 476267
0110100110010110: 635966 489873 525686 554368
0110100110000100: 635966 489873 525686 457525
0110100110000100: 635966 489873 525686 639199
0110100110000100: 635966 489873 525686 457525
0110100110000100: 635966 489873 525686 639199
0110100010010010: 635966 489873 525686 476267
0110100110010110: 635966 489873 525686 554368
0111101011001000: 554368 476267 525686 457525
0111101011001000: 554368 476267 525686 575670
0111101011001000: 554368 476267 525686 489873
0111101011001000: 554368 476267 525686 639199
0111101011001000: 554368 476267 525686 550628
0111101011001000: 554368 457525 489873 476267
0111101011001000: 554368 457525 489873 575670
0111101011001000: 554368 457525 489873 525686
0111101011001000: 554368 457525 489873 550628
0111101111011110: 554368 457525 489873 639199
0111101011001000: 554368 457525 639199 476267
0111101011001000: 554368 457525 639199 575670
0111101011001000: 554368 457525 639199 525686
0111101111011110: 554368 457525 639199 489873
0101101001001000: 554368 457525 648227 476267
0101101001001000: 554368 457525 648227 575670
0101101001001000: 554368 457525 648227 525686
0101101001001000: 554368 457525 648227 550628
0101101101001100: 554368 457525 648227 489873
0101101101001100: 554368 457525 648227 639199
0111100010001000: 554368 575670 457525 476267
0101101001001000: 554368 575670 552084 476267
0101101001001000: 554368 575670 552084 457525
0101101001001000: 554368 575670 552084 525686
0101101001001000: 554368 575670 552084 489873
0101101001001000: 554368 575670 552084 639199
0101101001001000: 554368 575670 552084 550628
0111100010001000: 554368 525686 575670 457525
0111101011001000: 554368 525686 476267 457525
0111101011001000: 554368 525686 476267 575670
0111101011001000: 554368 525686 476267 489873
0111101011001000: 554368 525686 476267 639199
0111101011001000: 554368 525686 476267 550628
0101101001001000: 554368 525686 635966 457525
0101101001001000: 554368 525686 635966 575670
0101101001001000: 554368 525686 635966 639199
0101101001001000: 554368 525686 635966 550628
0101101101001100: 554368 525686 635966 476267
0111100010001000: 554368 489873 575670 476267
0111100010001000: 554368 489873 525686 575670
0110100110010110: 554368 489873 525686 635966
0111101011001000: 554368 489873 457525 476267
0111101011001000: 554368 489873 457525 575670
0111101011001000: 554368 489873 457525 525686
0111101011001000: 554368 489873 457525 550628
0111101111011110: 554368 489873 457525 639199
0111101011001000: 554368 489873 639199 476267
0111101011001000: 554368 489873 639199 575670
0111101011001000: 554368 489873 639199 525686
0111101111011110: 554368 489873 639199 457525
0101101001001000: 554368 489873 635966 476267
0101101001001000: 554368 489873 635966 575670
0101101001001000: 554368 489873 635966 550628
0101101101001100: 554368 489873 635966 457525
0101101101001100: 554368 489873 635966 639199
0111100010001000: 554368 639199 575670 476267
0111100010001000: 554368 639199 525686 575670
0111101011001000: 554368 639199 457525 476267
0111101011001000: 554368 639199 457525 575670
0111101011001000: 554368 639199 457525 525686
0111101111011110: 554368 639199 457525 489873
0111101011001000: 554368 639199 489873 476267
0111101011001000: 554368 639199 489873 575670
0111101011001000: 554368 639199 489873 525686
0111101111011110: 554368 639199 489873 457525
0111101011001000: 554368 639199 550628 476267
0111101011001000: 554368 639199 550628 575670
0111101011001000: 554368 639199 550628 525686
0111101111001100: 554368 639199 550628 457525
0111101111001100: 554368 639199 550628 489873
0101101001001000: 554368 639199 613486 476267
0101101001001000: 554368 639199 613486 575670
0101101001001000: 554368 639199 613486 525686
0101101101001100: 554368 639199 613486 457525
0101101101001100: 554368 639199 613486 489873
0101101101001100: 554368 639199 613486 550628
0111100010001000: 554368 550628 457525 476267
0111100010001000: 554368 550628 575670 476267
0111100010001000: 554368 550628 575670 457525
0111100010001000: 554368 550628 525686 457525
0111100010001000: 554368 550628 525686 575670
0111100010001000: 554368 550628 489873 476267
0111100010001000: 554368 550628 489873 575670
0111100010001000: 554368 550628 489873 525686
0111101011001000: 554368 550628 639199 476267
0111101011001000: 554368 550628 639199 575670
0111101011001000: 554368 550628 639199 525686
0101101001001000: 554368 550628 611499 476267
0101101001001000: 554368 550628 611499 457525
0101101001001000: 554368 550628 611499 575670
0101101001001000: 554368 550628 611499 525686
0101101001001000: 554368 550628 611499 489873
0101101101001100: 554368 550628 611499 639199
0110100010010010: 554368 476267 457525 648227
0111100010011010: 554368 476267 457525 489873
0111100010011010: 554368 476267 457525 639199
0110100010010010: 554368 476267 457525 648227
0111100010001000: 554368 476267 575670 457525
0110100010010010: 554368 476267 575670 552084
0110100010010010: 554368 476267 575670 552084
0111100010001000: 554368 476267 489873 575670
0110100010010010: 554368 476267 489873 635966
0111100010011010: 554368 476267 489873 457525
0111100010011010: 554368 476267 489873 639199
0110100010010010: 554368 476267 489873 635966
0111100010001000: 554368 476267 639199 575670
0110100010010010: 554368 476267 639199 613486
0111100010011010: 554368 476267 639199 457525
0111100010011010: 554368 476267 639199 489873
0111100010011010: 554368 476267 639199 550628
0110100010010010: 554368 476267 639199 613486
0111100010001000: 554368 476267 550628 457525
0111100010001000: 554368 476267 550628 575670
0111100010001000: 554368 476267 550628 489873
0110100010010010: 554368 476267 550628 611499
0111100010011010: 554368 476267 550628 639199
0110100010010010: 554368 476267 550628 611499
0111100110001100: 554368 476267 457525 525686
0111100110001100: 554368 476267 575670 525686
0111100110001100: 554368 476267 489873 525686
0111100110001100: 554368 476267 639199 525686
0111100110001100: 554368 476267 550628 525686
0111101011001000: 554368 476267 525686 457525
0111101011001000: 554368 476267 525686 575670
0111101011001000: 554368 476267 525686 489873
0111101011001000: 554368 476267 525686 639199
0111101011001000: 554368 476267 525686 550628
0110101011010010: 554368 476267 525686 635966
0110101011010010: 554368 476267 525686 635966
0110101011010010: 554368 476267 525686 635966
0110101011010010: 554368 476267 525686 635966
0111101011001000: 554368 476267 525686 457525
0111101011001000: 554368 476267 525686 575670
0111101011001000: 554368 476267 525686 489873
0111101011001000: 554368 476267 525686 639199
0111101011001000: 554368 476267 525686 550628
0111101011001000: 554368 476267 525686 457525
0111101011001000: 554368 476267 525686 575670
0111101011001000: 554368 476267 525686 489873
0111101011001000: 554368 476267 525686 639199
0111101011001000: 554368 476267 525686 550628
0110100110000100: 554368 457525 476267 648227
0111100010011010: 554368 457525 476267 525686
0111100010001000: 554368 457525 575670 476267
0110100110000100: 554368 457525 575670 648227
0110100010010010: 554368 457525 575670 552084
0110100010010010: 554368 457525 575670 552084
0111100010001000: 554368 457525 525686 575670
0110100110000100: 554368 457525 525686 648227
0110100010010010: 554368 457525 525686 635966
0111100010011010: 554368 457525 525686 476267
0110100010010010: 554368 457525 525686 635966
0111100010001000: 554368 457525 550628 476267
0111100010001000: 554368 457525 550628 575670
0111100010001000: 554368 457525 550628 525686
0110100110000100: 554368 457525 550628 648227
0110100010010010: 554368 457525 550628 611499
0110100010010010: 554368 457525 550628 611499
0111100010001000: 554368 457525 476267 575670
0111100010001000: 554368 457525 476267 550628
0110100110000100: 554368 457525 476267 648227
0110100110000100: 554368 457525 476267 648227
0111100110001100: 554368 457525 476267 489873
0111100110001100: 554368 457525 476267 639199
0110100110000100: 554368 457525 476267 648227
0110100110000100: 554368 457525 575670 648227
0110100110000100: 554368 457525 575670 648227
0111100110001100: 554368 457525 575670 489873
0111100110001100: 554368 457525 575670 639199
0110100110000100: 554368 457525 575670 648227
0110100010010010: 554368 457525 575670 552084
0110100110000100: 554368 457525 525686 648227
0110100110000100: 554368 457525 525686 648227
0111100110001100: 554368 457525 525686 489873
0111100110001100: 554368 457525 525686 639199
0110100110000100: 554368 457525 525686 648227
0110100010010010: 554368 457525 525686 635966
0110100110000100: 554368 457525 550628 648227
0110100110000100: 554368 457525 550628 648227
0111100110001100: 554368 457525 550628 489873
0110100110000100: 554368 457525 550628 648227
0110100010010010: 554368 457525 550628 611499
0111101011001000: 554368 457525 489873 476267
0111101011001000: 554368 457525 489873 575670
0111101011001000: 554368 457525 489873 525686
0111101011001000: 554368 457525 489873 550628
0110101011010010: 554368 457525 489873 635966
0110101011010010: 554368 457525 489873 635966
0110101011010010: 554368 457525 489873 635966
0110101011010010: 554368 457525 489873 635966
0110101111000100: 554368 457525 489873 648227
0111101111011110: 554368 457525 489873 639199
0111101011001000: 554368 457525 639199 476267
0111101011001000: 554368 457525 639199 575670
0111101011001000: 554368 457525 639199 525686
0110101011010010: 554368 457525 639199 613486
0110101011010010: 554368 457525 639199 613486
0111101011011010: 554368 457525 639199 550628
0111101011011010: 554368 457525 639199 550628
0111101011011010: 554368 457525 639199 550628
0110101011010010: 554368 457525 639199 613486
0110101011010010: 554368 457525 639199 613486
0111101111011110: 554368 457525 639199 489873
0110101111000100: 554368 457525 639199 648227
0111101111011110: 554368 457525 639199 489873
0101101001001000: 554368 457525 648227 476267
0101101001001000: 554368 457525 648227 575670
0101101001001000: 554368 457525 648227 525686
0101101001001000: 554368 457525 648227 550628
0100101001010010: 554368 457525 648227 613486
0100101001010010: 554368 457525 648227 613486
0101101101001100: 554368 457525 648227 489873
0101101101001100: 554368 457525 648227 639199
0100101001010010: 554368 457525 648227 613486
0100101001010010: 554368 457525 648227 613486
0111101011001000: 554368 457525 489873 476267
0111101011001000: 554368 457525 489873 575670
0111101011001000: 554368 457525 489873 525686
0111101011001000: 554368 457525 489873 550628
0111101011001000: 554368 457525 489873 476267
0111101011001000: 554368 457525 489873 575670
0111101011001000: 554368 457525 489873 525686
0111101011001000: 554368 457525 489873 550628
0110101111000100: 554368 457525 489873 648227
0110101111000100: 554368 457525 489873 648227
0110101111000100: 554368 457525 489873 648227
0110101111000100: 554368 457525 489873 648227
0111101111011110: 554368 457525 489873 639199
0111101111011110: 554368 457525 489873 639199
0111101111011110: 554368 457525 489873 639199
0111101111011110: 554368 457525 489873 639199
0111101011001000: 554368 457525 639199 476267
0111101011001000: 554368 457525 639199 575670
0111101011001000: 554368 457525 639199 525686
0111101011001000: 554368 457525 639199 476267
0111101011001000: 554368 457525 639199 575670
0111101011001000: 554368 457525 639199 525686
0110101111000100: 554368 457525 639199 648227
0110101111000100: 554368 457525 639199 648227
0110101111000100: 554368 457525 639199 648227
0110101111000100: 554368 457525 639199 648227
0111101111011110: 554368 457525 639199 489873
0111101111011110: 554368 457525 639199 489873
0111101111011110: 554368 457525 639199 489873
0111101111011110: 554368 457525 639199 489873
0110101111000100: 554368 457525 489873 648227
0111101111011110: 554368 457525 489873 639199
0110101111000100: 554368 457525 639199 648227
0111101111011110: 554368 457525 639199 489873
0110100110000100: 554368 575670 476267 552084
0111100010011010: 554368 575670 476267 525686
0111100010001000: 554368 575670 457525 476267
0110100110000100: 554368 575670 457525 552084
0110100010010010: 554368 575670 457525 648227
0111100010011010: 554368 575670 457525 489873
0111100010011010: 554368 575670 457525 639199
0110100010010010: 554368 575670 457525 648227
0111100010001000: 554368 575670 525686 457525
0110100110000100: 554368 575670 525686 552084
0110100010010010: 554368 575670 525686 635966
0111100010011010: 554368 575670 525686 476267
0110100010010010: 554368 575670 525686 635966
0111100010001000: 554368 575670 489873 476267
0111100010001000: 554368 575670 489873 525686
0110100110000100: 554368 575670 489873 552084
0110100010010010: 554368 575670 489873 635966
0111100010011010: 554368 575670 489873 457525
0111100010011010: 554368 575670 489873 639199
0110100010010010: 554368 575670 489873 635966
0111100010001000: 554368 575670 639199 476267
0111100010001000: 554368 575670 639199 525686
0110100110000100: 554368 575670 639199 552084
0110100010010010: 554368 575670 639199 613486
0111100010011010: 554368 575670 639199 457525
0111100010011010: 554368 575670 639199 489873
0111100010011010: 554368 575670 639199 550628
0110100010010010: 554368 575670 639199 613486
0111100010001000: 554368 575670 550628 476267
0111100010001000: 554368 575670 550628 457525
0111100010001000: 554368 575670 550628 525686
0111100010001000: 554368 575670 550628 489873
0110100110000100: 554368 575670 550628 552084
0110100010010010: 554368 575670 550628 611499
0111100010011010: 554368 575670 550628 639199
0110100010010010: 554368 575670 550628 611499
0111100010001000: 554368 575670 476267 457525
0111100010001000: 554368 575670 476267 489873
0111100010001000: 554368 575670 476267 639199
0111100010001000: 554368 575670 476267 550628
0110100110000100: 554368 575670 476267 552084
0110100110000100: 554368 575670 476267 552084
0110100110000100: 554368 575670 476267 552084
0111100010001000: 554368 575670 457525 476267
0111100010001000: 554368 575670 457525 525686
0111100010001000: 554368 575670 457525 550628
0111100010001000: 554368 575670 457525 476267
0110100110000100: 554368 575670 457525 552084
0110100110000100: 554368 575670 457525 552084
0110100110000100: 554368 575670 457525 552084
0110100110000100: 554368 575670 525686 552084
0110100110000100: 554368 575670 525686 552084
0110100110000100: 554368 575670 525686 552084
0110100110000100: 554368 575670 489873 552084
0110100110000100: 554368 575670 489873 552084
0110100110000100: 554368 575670 489873 552084
0110100110000100: 554368 575670 639199 552084
0110100110000100: 554368 575670 639199 552084
0110100110000100: 554368 575670 639199 552084
0110100110000100: 554368 575670 550628 552084
0110100110000100: 554368 575670 550628 552084
0110100110000100: 554368 575670 550628 552084
0101101001001000: 554368 575670 552084 476267
0101101001001000: 554368 575670 552084 457525
0101101001001000: 554368 575670 552084 525686
0101101001001000: 554368 575670 552084 489873
0101101001001000: 554368 575670 552084 639199
0101101001001000: 554368 575670 552084 550628
0100101001010010: 554368 575670 552084 654003
0100101001010010: 554368 575670 552084 654003
0100101001010010: 554368 575670 552084 654003
0110100010010010: 554368 525686 457525 648227
0111100010011010: 554368 525686 457525 489873
0111100010011010: 554368 525686 457525 639199
0110100010010010: 554368 525686 457525 648227
0111100010001000: 554368 525686 575670 457525
0110100010010010: 554368 525686 575670 552084
0110100010010010: 554368 525686 575670 552084
0111100010001000: 554368 525686 489873 575670
0111100010011010: 554368 525686 489873 457525
0111100010011010: 554368 525686 489873 639199
0110100110010110: 554368 525686 489873 635966
0111100010001000: 554368 525686 639199 575670
0110100010010010: 554368 525686 639199 613486
0111100010011010: 554368 525686 639199 457525
0111100010011010: 554368 525686 639199 489873
0111100010011010: 554368 525686 639199 550628
0110100010010010: 554368 525686 639199 613486
0111100010001000: 554368 525686 550628 457525
0111100010001000: 554368 525686 550628 575670
0111100010001000: 554368 525686 550628 489873
0110100010010010: 554368 525686 550628 611499
0111100010011010: 554368 525686 550628 639199
0110100010010010: 554368 525686 550628 611499
0111100010001000: 554368 525686 457525 575670
0111100010001000: 554368 525686 457525 550628
0110100110000100: 554368 525686 457525 635966
0111100110001100: 554368 525686 457525 476267
0110100110000100: 554368 525686 457525 635966
0111100010001000: 554368 525686 575670 457525
0111100010001000: 554368 525686 575670 489873
0111100010001000: 554368 525686 575670 639199
0111100010001000: 554368 525686 575670 550628
0111100010001000: 554368 525686 575670 457525
0110100110000100: 554368 525686 575670 635966
0111100110001100: 554368 525686 575670 476267
0110100110000100: 554368 525686 575670 635966
0110100010010010: 554368 525686 575670 552084
0111100110001100: 554368 525686 489873 476267
0110100110010110: 554368 525686 489873 635966
0110100110000100: 554368 525686 639199 635966
0111100110001100: 554368 525686 639199 476267
0110100110000100: 554368 525686 639199 635966
0110100110000100: 554368 525686 550628 635966
0111100110001100: 554368 525686 550628 476267
0110100110000100: 554368 525686 550628 635966
0111101011001000: 554368 525686 476267 457525
0111101011001000: 554368 525686 476267 575670
0111101011001000: 554368 525686 476267 489873
0111101011001000: 554368 525686 476267 639199
0111101011001000: 554368 525686 476267 550628
0101101001001000: 554368 525686 635966 457525
0101101001001000: 554368 525686 635966 575670
0101101001001000: 554368 525686 635966 639199
0101101001001000: 554368 525686 635966 550628
0101101101001100: 554368 525686 635966 476267
0101101001011010: 554368 525686 635966 489873
0101101001011010: 554368 525686 635966 489873
0101101001011010: 554368 525686 635966 489873
0101101001011010: 554368 525686 635966 489873
0111101011001000: 554368 525686 476267 457525
0111101011001000: 554368 525686 476267 575670
0111101011001000: 554368 525686 476267 489873
0111101011001000: 554368 525686 476267 639199
0111101011001000: 554368 525686 476267 550628
0111101011001000: 554368 525686 476267 457525
0111101011001000: 554368 525686 476267 575670
0111101011001000: 554368 525686 476267 489873
0111101011001000: 554368 525686 476267 639199
0111101011001000: 554368 525686 476267 550628
0110101111000100: 554368 525686 476267 635966
0110101111000100: 554368 525686 476267 635966
0110101111000100: 554368 525686 476267 635966
0111101011001000: 554368 525686 476267 457525
0111101011001000: 554368 525686 476267 575670
0111101011001000: 554368 525686 476267 489873
0111101011001000: 554368 525686 476267 639199
0111101011001000: 554368 525686 476267 550628
0111101011001000: 554368 525686 476267 457525
0111101011001000: 554368 525686 476267 575670
0111101011001000: 554368 525686 476267 489873
0111101011001000: 554368 525686 476267 639199
0111101011001000: 554368 525686 476267 550628
0110101111000100: 554368 525686 476267 635966
0111100010011010: 554368 489873 476267 525686
0111100010001000: 554368 489873 575670 476267
0110100010010010: 554368 489873 575670 552084
0110100010010010: 554368 489873 575670 552084
0111100010001000: 554368 489873 525686 575670
0111100010011010: 554368 489873 525686 476267
0110100110010110: 554368 489873 525686 635966
0111100010001000: 554368 489873 550628 476267
0111100010001000: 554368 489873 550628 575670
0111100010001000: 554368 489873 550628 525686
0110100010010010: 554368 489873 550628 611499
0110100010010010: 554368 489873 550628 611499
0111100010001000: 554368 489873 476267 575670
0111100010001000: 554368 489873 476267 550628
0110100110000100: 554368 489873 476267 635966
0111100110001100: 554368 489873 476267 457525
0111100110001100: 554368 489873 476267 639199
0110100110000100: 554368 489873 476267 635966
0111100010001000: 554368 489873 575670 476267
0111100010001000: 554368 489873 575670 525686
0111100010001000: 554368 489873 575670 550628
0111100010001000: 554368 489873 575670 476267
0110100110000100: 554368 489873 575670 635966
0111100110001100: 554368 489873 575670 457525
0111100110001100: 554368 489873 575670 639199
0110100110000100: 554368 489873 575670 635966
0110100010010010: 554368 489873 575670 552084
0111100010001000: 554368 489873 525686 575670
0111100010001000: 554368 489873 525686 550628
0111100010001000: 554368 489873 525686 575670
0111100110001100: 554368 489873 525686 457525
0111100110001100: 554368 489873 525686 639199
0110100110010110: 554368 489873 525686 635966
0110100110010110: 554368 489873 525686 635966
0110100110000100: 554368 489873 550628 635966
0111100110001100: 554368 489873 550628 457525
0110100110000100: 554368 489873 550628 635966
0110100010010010: 554368 489873 550628 611499
0111101011001000: 554368 489873 457525 476267
0111101011001000: 554368 489873 457525 575670
0111101011001000: 554368 489873 457525 525686
0111101011001000: 554368 489873 457525 550628
0110101011010010: 554368 489873 457525 648227
0110101011010010: 554368 489873 457525 648227
0110101111000100: 554368 489873 457525 635966
0111101011001000: 554368 489873 639199 476267
0111101011001000: 554368 489873 639199 575670
0111101011001000: 554368 489873 639199 525686
0111101011011010: 554368 489873 639199 550628
0111101011011010: 554368 489873 639199 550628
0111101011011010: 554368 489873 639199 550628
0110101011010010: 554368 489873 639199 613486
0110101011010010: 554368 489873 639199 613486
0110101111000100: 554368 489873 639199 635966
0101101001001000: 554368 489873 635966 476267
0101101001001000: 554368 489873 635966 575670
0101101001001000: 554368 489873 635966 550628
0101101101001100: 554368 489873 635966 457525
0101101101001100: 554368 489873 635966 639199
0101101001011010: 554368 489873 635966 525686
0101101001011010: 554368 489873 635966 525686
0101101001011010: 554368 489873 635966 525686
0101101001011010: 554368 489873 635966 525686
0111101011001000: 554368 489873 457525 476267
0111101011001000: 554368 489873 457525 575670
0111101011001000: 554368 489873 457525 525686
0111101011001000: 554368 489873 457525 550628
0111101011001000: 554368 489873 457525 476267
0111101011001000: 554368 489873 457525 575670
0111101011001000: 554368 489873 457525 525686
0111101011001000: 554368 489873 457525 550628
0110101111000100: 554368 489873 457525 635966
0110101111000100: 554368 489873 457525 635966
0110101111000100: 554368 489873 457525 635966
0110101111000100: 554368 489873 457525 635966
0111101111011110: 554368 489873 457525 639199
0111101111011110: 554368 489873 457525 639199
0111101111011110: 554368 489873 457525 639199
0111101011001000: 554368 489873 639199 476267
0111101011001000: 554368 489873 639199 575670
0111101011001000: 554368 489873 639199 525686
0111101011001000: 554368 489873 639199 476267
0111101011001000: 554368 489873 639199 575670
0111101011001000: 554368 489873 639199 525686
0110101111000100: 554368 489873 639199 635966
0110101111000100: 554368 489873 639199 635966
0110101111000100: 554368 489873 639199 635966
0110101111000100: 554368 489873 639199 635966
0111101111011110: 554368 489873 639199 457525
0111101111011110: 554368 489873 639199 457525
0111101111011110: 554368 489873 639199 457525
0111101011001000: 554368 489873 457525 476267
0111101011001000: 554368 489873 457525 575670
0111101011001000: 554368 489873 457525 525686
0111101011001000: 554368 489873 457525 550628
0111101011001000: 554368 489873 457525 476267
0111101011001000: 554368 489873 457525 575670
0111101011001000: 554368 489873 457525 525686
0111101011001000: 554368 489873 457525 550628
0110101111000100: 554368 489873 457525 635966
0111101111011110: 554368 489873 457525 639199
0110101111000100: 554368 489873 639199 635966
0111100010011010: 554368 639199 476267 525686
0111100010001000: 554368 639199 575670 476267
0110100010010010: 554368 639199 575670 552084
0110100010010010: 554368 639199 575670 552084
0111100010001000: 554368 639199 525686 575670
0110100010010010: 554368 639199 525686 635966
0111100010011010: 554368 639199 525686 476267
0110100010010010: 554368 639199 525686 635966
0111100010001000: 554368 639199 476267 575670
0110100110000100: 554368 639199 476267 613486
0111100110001100: 554368 639199 476267 457525
0111100110001100: 554368 639199 476267 489873
0111100110001100: 554368 639199 476267 550628
0110100110000100: 554368 639199 476267 613486
0111100010001000: 554368 639199 575670 476267
0111100010001000: 554368 639199 575670 525686
0111100010001000: 554368 639199 575670 476267
0110100110000100: 554368 639199 575670 613486
0111100110001100: 554368 639199 575670 457525
0111100110001100: 554368 639199 575670 489873
0111100110001100: 554368 639199 575670 550628
0110100110000100: 554368 639199 575670 613486
0110100010010010: 554368 639199 575670 552084
0111100010001000: 554368 639199 525686 575670
0111100010001000: 554368 639199 525686 575670
0110100110000100: 554368 639199 525686 613486
0111100110001100: 554368 639199 525686 457525
0111100110001100: 554368 639199 525686 489873
0111100110001100: 554368 639199 525686 550628
0110100110000100: 554368 639199 525686 613486
0110100010010010: 554368 639199 525686 635966
0111101011001000: 554368 639199 457525 476267
0111101011001000: 554368 639199 457525 575670
0111101011001000: 554368 639199 457525 525686
0110101011010010: 554368 639199 457525 648227
0110101011010010: 554368 639199 457525 648227
0111101011001000: 554368 639199 489873 476267
0111101011001000: 554368 639199 489873 575670
0111101011001000: 554368 639199 489873 525686
0110101011010010: 554368 639199 489873 635966
0110101011010010: 554368 639199 489873 635966
0111101011001000: 554368 639199 550628 476267
0111101011001000: 554368 639199 550628 575670
0111101011001000: 554368 639199 550628 525686
0110101011010010: 554368 639199 550628 611499
0110101011010010: 554368 639199 550628 611499
0101101001001000: 554368 639199 613486 476267
0101101001001000: 554368 639199 613486 575670
0101101001001000: 554368 639199 613486 525686
0100101001010010: 554368 639199 613486 648227
0100101001010010: 554368 639199 613486 648227
0101101101001100: 554368 639199 613486 457525
0101101101001100: 554368 639199 613486 489873
0101101101001100: 554368 639199 613486 550628
0100101001010010: 554368 639199 613486 648227
0100101001010010: 554368 639199 613486 648227
0111101011001000: 554368 639199 457525 476267
0111101011001000: 554368 639199 457525 575670
0111101011001000: 554368 639199 457525 525686
0111101011001000: 554368 639199 457525 476267
0111101011001000: 554368 639199 457525 575670
0111101011001000: 554368 639199 457525 525686
0110101111000100: 554368 639199 457525 613486
0110101111000100: 554368 639199 457525 613486
0111101111001100: 554368 639199 457525 550628
0110101111000100: 554368 639199 457525 613486
0110101011010010: 554368 639199 457525 648227
0110101011010010: 554368 639199 457525 648227
0111101111011110: 554368 639199 457525 489873
0111101111011110: 554368 639199 457525 489873
0111101111011110: 554368 639199 457525 489873
0111101011001000: 554368 639199 489873 476267
0111101011001000: 554368 639199 489873 575670
0111101011001000: 554368 639199 489873 525686
0111101011001000: 554368 639199 489873 476267
0111101011001000: 554368 639199 489873 575670
0111101011001000: 554368 639199 489873 525686
0110101111000100: 554368 639199 489873 613486
0110101111000100: 554368 639199 489873 613486
0111101111001100: 554368 639199 489873 550628
0110101111000100: 554368 639199 489873 613486
0110101011010010: 554368 639199 489873 635966
0110101011010010: 554368 639199 489873 635966
0111101111011110: 554368 639199 489873 457525
0111101111011110: 554368 639199 489873 457525
0111101111011110: 554368 639199 489873 457525
0111101011001000: 554368 639199 550628 476267
0111101011001000: 554368 639199 550628 575670
0111101011001000: 554368 639199 550628 525686
0111101011001000: 554368 639199 550628 476267
0111101011001000: 554368 639199 550628 575670
0111101011001000: 554368 639199 550628 525686
0110101111000100: 554368 639199 550628 613486
0110101111000100: 554368 639199 550628 613486
0111101111001100: 554368 639199 550628 457525
0111101111001100: 554368 639199 550628 489873
0110101111000100: 554368 639199 550628 613486
0111101111001100: 554368 639199 550628 457525
0111101111001100: 554368 639199 550628 489873
0110101011010010: 554368 639199 550628 611499
0110101011010010: 554368 639199 550628 611499
0111101011001000: 554368 639199 457525 476267
0111101011001000: 554368 639199 457525 575670
0111101011001000: 554368 639199 457525 525686
0111101011001000: 554368 639199 457525 476267
0111101011001000: 554368 639199 457525 575670
0111101011001000: 554368 639199 457525 525686
0110101111000100: 554368 639199 457525 613486
0111101111001100: 554368 639199 457525 550628
0111101111011110: 554368 639199 457525 489873
0111101011001000: 554368 639199 489873 476267
0111101011001000: 554368 639199 489873 575670
0111101011001000: 554368 639199 489873 525686
0111101011001000: 554368 639199 489873 476267
0111101011001000: 554368 639199 489873 575670
0111101011001000: 554368 639199 489873 525686
0110101111000100: 554368 639199 489873 613486
0111101111001100: 554368 639199 489873 550628
0111101111011110: 554368 639199 489873 457525
0110101111000100: 554368 639199 550628 613486
0111101111001100: 554368 639199 550628 457525
0111101111001100: 554368 639199 550628 489873
0111100010011010: 554368 550628 476267 525686
0111100010001000: 554368 550628 457525 476267
0110100010010010: 554368 550628 457525 648227
0111100010011010: 554368 550628 457525 489873
0110100010010010: 554368 550628 457525 648227
0111100010001000: 554368 550628 575670 476267
0111100010001000: 554368 550628 575670 457525
0110100010010010: 554368 550628 575670 552084
0110100010010010: 554368 550628 575670 552084
0111100010001000: 554368 550628 525686 457525
0111100010001000: 554368 550628 525686 575670
0110100010010010: 554368 550628 525686 635966
0111100010011010: 554368 550628 525686 476267
0110100010010010: 554368 550628 525686 635966
0111100010001000: 554368 550628 489873 476267
0111100010001000: 554368 550628 489873 575670
0111100010001000: 554368 550628 489873 525686
0110100010010010: 554368 550628 489873 635966
0111100010011010: 554368 550628 489873 457525
0110100010010010: 554368 550628 489873 635966
0111100010001000: 554368 550628 476267 457525
0111100010001000: 554368 550628 476267 575670
0111100010001000: 554368 550628 476267 489873
0110100110000100: 554368 550628 476267 611499
0111100110001100: 554368 550628 476267 639199
0110100110000100: 554368 550628 476267 611499
0111100010001000: 554368 550628 457525 476267
0111100010001000: 554368 550628 457525 575670
0111100010001000: 554368 550628 457525 525686
0111100010001000: 554368 550628 457525 476267
0110100110000100: 554368 550628 457525 611499
0110100110000100: 554368 550628 457525 611499
0111100010001000: 554368 550628 575670 476267
0111100010001000: 554368 550628 575670 457525
0111100010001000: 554368 550628 575670 525686
0111100010001000: 554368 550628 575670 489873
0111100010001000: 554368 550628 575670 476267
0111100010001000: 554368 550628 575670 457525
0110100110000100: 554368 550628 575670 611499
0111100110001100: 554368 550628 575670 639199
0110100110000100: 554368 550628 575670 611499
0110100010010010: 554368 550628 575670 552084
0111100010001000: 554368 550628 525686 457525
0111100010001000: 554368 550628 525686 575670
0111100010001000: 554368 550628 525686 489873
0111100010001000: 554368 550628 525686 457525
0111100010001000: 554368 550628 525686 575670
0110100110000100: 554368 550628 525686 611499
0111100110001100: 554368 550628 525686 639199
0110100110000100: 554368 550628 525686 611499
0111100010001000: 554368 550628 489873 476267
0111100010001000: 554368 550628 489873 575670
0111100010001000: 554368 550628 489873 525686
0111100010001000: 554368 550628 489873 476267
0111100010001000: 554368 550628 489873 575670
0111100010001000: 554368 550628 489873 525686
0110100110000100: 554368 550628 489873 611499
0110100110000100: 554368 550628 489873 611499
0111101011001000: 554368 550628 639199 476267
0111101011001000: 554368 550628 639199 575670
0111101011001000: 554368 550628 639199 525686
0111101011011010: 554368 550628 639199 457525
0111101011011010: 554368 550628 639199 489873
0111101011011010: 554368 550628 639199 457525
0111101011011010: 554368 550628 639199 489873
0111101011011010: 554368 550628 639199 457525
0111101011011010: 554368 550628 639199 489873
0110101011010010: 554368 550628 639199 613486
0110101011010010: 554368 550628 639199 613486
0110101111000100: 554368 550628 639199 611499
0101101001001000: 554368 550628 611499 476267
0101101001001000: 554368 550628 611499 457525
0101101001001000: 554368 550628 611499 575670
0101101001001000: 554368 550628 611499 525686
0101101001001000: 554368 550628 611499 489873
0100101001010010: 554368 550628 611499 654003
0100101001010010: 554368 550628 611499 654003
0101101101001100: 554368 550628 611499 639199
0100101001010010: 554368 550628 611499 654003
0100101001010010: 554368 550628 611499 654003
0111101011001000: 554368 550628 639199 476267
0111101011001000: 554368 550628 639199 575670
0111101011001000: 554368 550628 639199 525686
0111101011001000: 554368 550628 639199 476267
0111101011001000: 554368 550628 639199 575670
0111101011001000: 554368 550628 639199 525686
0110101111000100: 554368 550628 639199 611499
0110101111000100: 554368 550628 639199 611499
0110101111000100: 554368 550628 639199 611499
0110101111000100: 554368 550628 639199 611499
0111101011001000: 554368 550628 639199 476267
0111101011001000: 554368 550628 639199 575670
0111101011001000: 554368 550628 639199 525686
0111101011001000: 554368 550628 639199 476267
0111101011001000: 554368 550628 639199 575670
0111101011001000: 554368 550628 639199 525686
0110101111000100: 554368 550628 639199 611499
0110100110000100: 654003 552084 611499 575670
0110100010010010: 654003 552084 611499 550628
0110100110000100: 654003 552084 611499 575670
0110100110000100: 654003 552084 611499 575670
0110100110000100: 654003 552084 611499 575670
0110100110000100: 654003 552084 611499 575670
0110100110000100: 654003 552084 611499 575670
0110100010010010: 654003 611499 552084 575670
0110100110000100: 654003 611499 552084 550628
0110100110000100: 654003 611499 552084 550628
0110100110000100: 654003 611499 552084 550628
0110100110000100: 654003 611499 552084 550628
0110100110000100: 552084 575670 654003 554368
0110100010010010: 552084 575670 654003 611499
0110100110000100: 552084 575670 654003 554368
0110100110000100: 552084 575670 654003 554368
0110100110000100: 552084 575670 654003 554368
0110100110000100: 552084 575670 654003 554368
0110100110000100: 552084 575670 654003 554368
0110100010010010: 552084 654003 575670 554368
0110100110000100: 552084 654003 575670 611499
0110100110000100: 552084 654003 575670 611499
0110100110000100: 552084 654003 575670 611499
0110100110000100: 552084 654003 575670 611499
0110100110010110: 648227 613486 457525 639199
0110100110000100: 648227 457525 613486 554368
0110100110000100: 648227 457525 613486 489873
0110100110010110: 648227 457525 613486 639199
0110100110010110: 648227 457525 613486 639199
0110100110000100: 648227 457525 613486 554368
0110100110000100: 648227 457525 613486 489873
0110100110000100: 648227 457525 613486 554368
0110100110000100: 648227 457525 613486 489873
0110100110010110: 648227 457525 613486 639199
0110100110000100: 648227 457525 613486 554368
0110100110000100: 648227 457525 613486 489873
0110100110000100: 648227 457525 613486 554368
0110100110000100: 648227 457525 613486 489873
0110100110010110: 648227 457525 613486 639199
0110100010010010: 648227 613486 457525 554368
0110100010010010: 648227 613486 457525 489873
0110100110010110: 648227 613486 457525 639199
0110100110010110: 648227 613486 457525 639199
0110100110010110: 648227 613486 457525 639199
0110100110010110: 648227 613486 457525 639199
0110100110010110: 648227 613486 457525 639199
0110100110010110: 613486 639199 648227 457525
0110100010010010: 613486 648227 639199 554368
0110100010010010: 613486 648227 639199 489873
0110100010010010: 613486 648227 639199 550628
0110100110010110: 613486 648227 639199 457525
0110100110010110: 613486 648227 639199 457525
0110100110010110: 613486 648227 639199 457525
0110100110010110: 613486 639199 648227 457525
0110100110000100: 613486 639199 648227 554368
0110100110000100: 613486 639199 648227 489873
0110100110000100: 613486 639199 648227 550628
0110100110010110: 613486 639199 648227 457525
0110100110010110: 613486 639199 648227 457525
0110100110000100: 613486 639199 648227 554368
0110100110000100: 613486 639199 648227 489873
0110100110000100: 613486 639199 648227 550628
0110100110000100: 613486 639199 648227 554368
0110100110000100: 613486 639199 648227 489873
0110100110000100: 613486 639199 648227 550628
0110100110010110: 613486 639199 648227 457525
0110100010010010: 575670 552084 554368 476267
0110100010010010: 575670 552084 554368 457525
0110100010010010: 575670 552084 554368 525686
0110100010010010: 575670 552084 554368 489873
0110100010010010: 575670 552084 554368 639199
0110100010010010: 575670 552084 554368 550628
0110100110000100: 575670 552084 554368 654003
0110100110000100: 575670 552084 554368 654003
0110100110000100: 575670 552084 554368 654003
0110100110000100: 575670 552084 554368 654003
0110100010010010: 575670 554368 552084 654003
0110100110000100: 575670 554368 552084 476267
0110100110000100: 575670 554368 552084 457525
0110100110000100: 575670 554368 552084 525686
0110100110000100: 575670 554368 552084 489873
0110100110000100: 575670 554368 552084 639199
0110100110000100: 575670 554368 552084 550628
0110100010010010: 575670 554368 552084 654003
0110100110000100: 575670 554368 552084 476267
0110100110000100: 575670 554368 552084 457525
0110100110000100: 575670 554368 552084 525686
0110100110000100: 575670 554368 552084 489873
0110100110000100: 575670 554368 552084 639199
0110100110000100: 575670 554368 552084 550628
0110100110000100: 575670 554368 552084 476267
0110100110000100: 575670 554368 552084 457525
0110100110000100: 575670 554368 552084 525686
0110100110000100: 575670 554368 552084 489873
0110100110000100: 575670 554368 552084 639199
0110100110000100: 575670 554368 552084 550628
0110100010010010: 575670 554368 552084 654003
0101101001001000: 457525 648227 613486 554368
0101101001001000: 457525 648227 613486 489873
0111101011001000: 457525 554368 489873 648227
0111101111011110: 457525 554368 489873 639199
0111101011001000: 457525 554368 639199 648227
0111101111011110: 457525 554368 639199 489873
0111101011001000: 457525 489873 554368 648227
0111101111011110: 457525 489873 554368 639199
0111101011001000: 457525 489873 639199 648227
0111101111011110: 457525 489873 639199 554368
0110100110010110: 457525 639199 648227 613486
0111101011001000: 457525 639199 554368 648227
0111101111011110: 457525 639199 554368 489873
0111101011001000: 457525 639199 489873 648227
0111101111011110: 457525 639199 489873 554368
0110100010010010: 457525 648227 554368 476267
0110100010010010: 457525 648227 554368 575670
0110100010010010: 457525 648227 554368 525686
0110100010010010: 457525 648227 554368 550628
0111100010011010: 457525 648227 554368 489873
0111100010011010: 457525 648227 554368 639199
0110100010010010: 457525 648227 489873 635966
0111100010011010: 457525 648227 489873 554368
0111100010011010: 457525 648227 489873 639199
0110100010010010: 457525 648227 639199 550628
0111100010011010: 457525 648227 639199 554368
0111100010011010: 457525 648227 639199 489873
0110100110010110: 457525 648227 639199 613486
0110100110000100: 457525 648227 554368 613486
0110100110000100: 457525 648227 554368 613486
0110100110000100: 457525 648227 489873 613486
0110100110000100: 457525 648227 489873 613486
0110100110010110: 457525 648227 639199 613486
0101101001001000: 457525 648227 613486 554368
0101101001001000: 457525 648227 613486 489873
0101101001011010: 457525 648227 613486 639199
0101101001011010: 457525 648227 613486 639199
0101101001011010: 457525 648227 613486 639199
0110100010010010: 457525 554368 648227 613486
0110100010010010: 457525 554368 648227 613486
0110100110000100: 457525 554368 648227 476267
0110100110000100: 457525 554368 648227 575670
0110100110000100: 457525 554368 648227 525686
0110100110000100: 457525 554368 648227 550628
0111100110001100: 457525 554368 648227 489873
0111100110001100: 457525 554368 648227 639199
0110100010010010: 457525 554368 648227 613486
0111101011001000: 457525 554368 489873 648227
0111101011001000: 457525 554368 489873 648227
0111101011001000: 457525 554368 489873 648227
0111101011001000: 457525 554368 639199 648227
0111101011001000: 457525 554368 639199 648227
0111101011001000: 457525 554368 639199 648227
0110100010010010: 457525 554368 648227 613486
0111101011001000: 457525 554368 489873 648227
0111101011001000: 457525 554368 489873 648227
0110101111000100: 457525 554368 489873 476267
0110101111000100: 457525 554368 489873 575670
0110101111000100: 457525 554368 489873 525686
0110101111000100: 457525 554368 489873 550628
0110101111000100: 457525 554368 489873 476267
0110101111000100: 457525 554368 489873 575670
0110101111000100: 457525 554368 489873 525686
0110101111000100: 457525 554368 489873 550628
0111101011001000: 457525 554368 489873 648227
0110101011010010: 457525 554368 489873 635966
0111101011001000: 457525 554368 489873 648227
0111101111011110: 457525 554368 489873 639199
0111101111011110: 457525 554368 489873 639199
0111101111011110: 457525 554368 489873 639199
0111101011001000: 457525 554368 639199 648227
0111101011001000: 457525 554368 639199 648227
0110101111000100: 457525 554368 639199 476267
0110101111000100: 457525 554368 639199 575670
0110101111000100: 457525 554368 639199 525686
0110101111000100: 457525 554368 639199 476267
0110101111000100: 457525 554368 639199 575670
0110101111000100: 457525 554368 639199 525686
0111101011001000: 457525 554368 639199 648227
0110101111010110: 457525 554368 639199 550628
0110101011010010: 457525 554368 639199 613486
0110101111010110: 457525 554368 639199 550628
0111101011001000: 457525 554368 639199 648227
0111101111011110: 457525 554368 639199 489873
0111101111011110: 457525 554368 639199 489873
0111101111011110: 457525 554368 639199 489873
0110100110000100: 457525 554368 648227 476267
0110100110000100: 457525 554368 648227 575670
0110100110000100: 457525 554368 648227 525686
0110100110000100: 457525 554368 648227 550628
0110100110000100: 457525 554368 648227 476267
0110100110000100: 457525 554368 648227 575670
0110100110000100: 457525 554368 648227 525686
0110100110000100: 457525 554368 648227 550628
0111100110001100: 457525 554368 648227 489873
0111100110001100: 457525 554368 648227 639199
0111100110001100: 457525 554368 648227 489873
0111100110001100: 457525 554368 648227 639199
0111100110001100: 457525 554368 648227 489873
0111100110001100: 457525 554368 648227 639199
0110100010010010: 457525 554368 648227 613486
0110100010010010: 457525 554368 648227 613486
0111101011001000: 457525 554368 489873 648227
0111101011001000: 457525 554368 639199 648227
0110100010010010: 457525 489873 648227 613486
0110100010010010: 457525 489873 648227 613486
0110100110000100: 457525 489873 648227 635966
0111100110001100: 457525 489873 648227 554368
0111100110001100: 457525 489873 648227 639199
0110100010010010: 457525 489873 648227 613486
0111101011001000: 457525 489873 554368 648227
0111101011001000: 457525 489873 554368 648227
0111101011001000: 457525 489873 554368 648227
0111101011001000: 457525 489873 639199 648227
0111101011001000: 457525 489873 639199 648227
0111101011001000: 457525 489873 639199 648227
0110100010010010: 457525 489873 648227 613486
0111101011001000: 457525 489873 554368 648227
0111101011001000: 457525 489873 554368 648227
0110101111000100: 457525 489873 554368 635966
0110101111000100: 457525 489873 554368 635966
0111101011001000: 457525 489873 554368 648227
0110101111000100: 457525 489873 554368 635966
0111101011001000: 457525 489873 554368 648227
0111101111011110: 457525 489873 554368 639199
0111101111011110: 457525 489873 554368 639199
0111101111011110: 457525 489873 554368 639199
0111101011001000: 457525 489873 639199 648227
0111101011001000: 457525 489873 639199 648227
0110101111000100: 457525 489873 639199 635966
0110101111000100: 457525 489873 639199 635966
0111101011001000: 457525 489873 639199 648227
0110101111000100: 457525 489873 639199 635966
0111101011001000: 457525 489873 639199 648227
0111101111011110: 457525 489873 639199 554368
0111101111011110: 457525 489873 639199 554368
0111101111011110: 457525 489873 639199 554368
0110100110000100: 457525 489873 648227 635966
0110100110000100: 457525 489873 648227 635966
0111100110001100: 457525 489873 648227 554368
0111100110001100: 457525 489873 648227 639199
0111100110001100: 457525 489873 648227 554368
0111100110001100: 457525 489873 648227 639199
0111100110001100: 457525 489873 648227 554368
0111100110001100: 457525 489873 648227 639199
0110100010010010: 457525 489873 648227 613486
0110100010010010: 457525 489873 648227 613486
0111101011001000: 457525 489873 554368 648227
0111101011001000: 457525 489873 554368 648227
0111101011001000: 457525 489873 554368 648227
0111101011001000: 457525 489873 554368 648227
0111101111011110: 457525 489873 554368 639199
0111101011001000: 457525 489873 639199 648227
0110100110010110: 457525 639199 648227 613486
0110100110000100: 457525 639199 648227 550628
0111100110001100: 457525 639199 648227 554368
0111100110001100: 457525 639199 648227 489873
0110100110010110: 457525 639199 648227 613486
0110100110010110: 457525 639199 648227 613486
0111101011001000: 457525 639199 554368 648227
0111101011001000: 457525 639199 554368 648227
0111101011001000: 457525 639199 554368 648227
0111101011001000: 457525 639199 489873 648227
0111101011001000: 457525 639199 489873 648227
0111101011001000: 457525 639199 489873 648227
0111101011001000: 457525 639199 554368 648227
0111101011001000: 457525 639199 554368 648227
0110101111000100: 457525 639199 554368 613486
0110101111000100: 457525 639199 554368 613486
0111101011001000: 457525 639199 554368 648227
0110101111010110: 457525 639199 554368 550628
0110101111010110: 457525 639199 554368 550628
0110101111000100: 457525 639199 554368 613486
0111101011001000: 457525 639199 554368 648227
0111101111011110: 457525 639199 554368 489873
0111101111011110: 457525 639199 554368 489873
0111101111011110: 457525 639199 554368 489873
0111101011001000: 457525 639199 489873 648227
0111101011001000: 457525 639199 489873 648227
0110101111000100: 457525 639199 489873 613486
0110101111000100: 457525 639199 489873 550628
0110101111000100: 457525 639199 489873 613486
0110101111000100: 457525 639199 489873 550628
0111101011001000: 457525 639199 489873 648227
0110101011010010: 457525 639199 489873 635966
0111101011001000: 457525 639199 489873 648227
0111101111011110: 457525 639199 489873 554368
0111101111011110: 457525 639199 489873 554368
0111101111011110: 457525 639199 489873 554368
0110100110000100: 457525 639199 648227 550628
0110100110000100: 457525 639199 648227 550628
0111100110001100: 457525 639199 648227 554368
0111100110001100: 457525 639199 648227 489873
0111100110001100: 457525 639199 648227 554368
0111100110001100: 457525 639199 648227 489873
0111100110001100: 457525 639199 648227 554368
0111100110001100: 457525 639199 648227 489873
0110100110010110: 457525 639199 648227 613486
0110100110010110: 457525 639199 648227 613486
0111101011001000: 457525 639199 554368 648227
0111101011001000: 457525 639199 554368 648227
0111101011001000: 457525 639199 554368 648227
0111101011001000: 457525 639199 554368 648227
0111101111011110: 457525 639199 554368 489873
0111101011001000: 457525 639199 489873 648227
0111101011001000: 457525 639199 489873 648227
0111101011001000: 457525 639199 489873 648227
0111101011001000: 457525 639199 489873 648227
0111101111011110: 457525 639199 489873 554368
0110101111000100: 476267 554368 525686 457525
0110101111000100: 476267 554368 525686 575670
0110101111000100: 476267 554368 525686 489873
0110101111000100: 476267 554368 525686 639199
0110101111000100: 476267 554368 525686 550628
0110101111000100: 476267 554368 525686 457525
0110101111000100: 476267 554368 525686 575670
0110101111000100: 476267 554368 525686 489873
0110101111000100: 476267 554368 525686 639199
0110101111000100: 476267 554368 525686 550628
0110101011010010: 476267 554368 525686 635966
0110101111000100: 476267 525686 554368 635966
0110101111000100: 476267 525686 554368 635966
0110101111000100: 476267 525686 554368 635966
