0110100110010110: 618067 504865 457203 540825
0110100110000100: 618067 457203 504865 567427
0110100110000100: 618067 457203 504865 560403
0110100110000100: 618067 457203 504865 474603
0110100110000100: 618067 457203 504865 498838
0110100110000100: 618067 457203 504865 605367
0110100110010110: 618067 457203 504865 540825
0110100110010110: 618067 457203 504865 540825
0110100110000100: 618067 457203 504865 567427
0110100110000100: 618067 457203 504865 560403
0110100110000100: 618067 457203 504865 474603
0110100110000100: 618067 457203 504865 498838
0110100110000100: 618067 457203 504865 605367
0110100110000100: 618067 457203 504865 567427
0110100110000100: 618067 457203 504865 560403
0110100110000100: 618067 457203 504865 474603
0110100110000100: 618067 457203 504865 498838
0110100110000100: 618067 457203 504865 605367
0110100110010110: 618067 457203 504865 540825
0110100110000100: 618067 457203 504865 567427
0110100110000100: 618067 457203 504865 560403
0110100110000100: 618067 457203 504865 474603
0110100110000100: 618067 457203 504865 498838
0110100110000100: 618067 457203 504865 605367
0110100110000100: 618067 457203 504865 567427
0110100110000100: 618067 457203 504865 560403
0110100110000100: 618067 457203 504865 474603
0110100110000100: 618067 457203 504865 498838
0110100110000100: 618067 457203 504865 605367
0110100110010110: 618067 457203 504865 540825
0110100010010010: 618067 504865 457203 567427
0110100010010010: 618067 504865 457203 560403
0110100010010010: 618067 504865 457203 474603
0110100010010010: 618067 504865 457203 498838
0110100010010010: 618067 504865 457203 605367
0110100110010110: 618067 504865 457203 540825
0110100110010110: 618067 504865 457203 540825
0110100110010110: 618067 504865 457203 540825
0110100110010110: 618067 504865 457203 540825
0110100110010110: 618067 504865 457203 540825
0110100110010110: 618067 504865 457203 540825
0110100110010110: 504865 618067 540825 457203
0110100110010110: 504865 540825 618067 457203
0110100110010110: 504865 540825 618067 457203
0110100110010110: 504865 540825 618067 457203
0110100110010110: 504865 540825 618067 457203
0110100110010110: 504865 618067 540825 457203
0110100110010110: 504865 618067 540825 457203
0110100110010110: 504865 618067 540825 457203
0110100110010110: 504865 618067 540825 457203
0111101111011110: 605367 567427 560403 457203
0111101111011110: 605367 567427 457203 560403
0111101111011110: 605367 560403 567427 457203
0111101111011110: 605367 560403 457203 567427
0111101111011110: 605367 457203 567427 560403
0111101111011110: 605367 457203 560403 567427
0110101011010010: 605367 567427 560403 498838
0110101011010010: 605367 567427 560403 498838
0111101111011110: 605367 567427 560403 457203
0110101011010010: 605367 567427 457203 540825
0110101011010010: 605367 567427 457203 474603
0110101011010010: 605367 567427 457203 498838
0110101011010010: 605367 567427 457203 618067
0110101011010010: 605367 567427 457203 540825
0110101011010010: 605367 567427 457203 474603
0110101011010010: 605367 567427 457203 498838
0110101011010010: 605367 567427 457203 618067
0111101111011110: 605367 567427 457203 560403
0111101111011110: 605367 567427 457203 560403
0110101111000100: 605367 567427 560403 639691
0110101111000100: 605367 567427 560403 639691
0110101111000100: 605367 567427 560403 639691
0111101111011110: 605367 567427 560403 457203
0111101111011110: 605367 567427 560403 457203
0111101111011110: 605367 567427 560403 457203
0111101111011110: 605367 567427 560403 457203
0110101111000100: 605367 567427 457203 639691
0110101111000100: 605367 567427 457203 639691
0110101111000100: 605367 567427 457203 639691
0111101111011110: 605367 567427 457203 560403
0111101111011110: 605367 567427 457203 560403
0111101111011110: 605367 567427 457203 560403
0111101111011110: 605367 567427 457203 560403
0111101111011110: 605367 567427 560403 457203
0111101111011110: 605367 567427 457203 560403
0110101011010010: 605367 560403 567427 639691
0110101011010010: 605367 560403 567427 639691
0111101111011110: 605367 560403 567427 457203
0110101011010010: 605367 560403 457203 540825
0110101011010010: 605367 560403 457203 474603
0110101011010010: 605367 560403 457203 618067
0110101011010010: 605367 560403 457203 540825
0110101011010010: 605367 560403 457203 474603
0110101011010010: 605367 560403 457203 618067
0111101111011110: 605367 560403 457203 567427
0111101111011110: 605367 560403 457203 567427
0110101111000100: 605367 560403 567427 498838
0110101111000100: 605367 560403 567427 498838
0110101111000100: 605367 560403 567427 498838
0111101111011110: 605367 560403 567427 457203
0111101111011110: 605367 560403 567427 457203
0111101111011110: 605367 560403 567427 457203
0111101111011110: 605367 560403 567427 457203
0110101111010110: 605367 560403 457203 498838
0110101111010110: 605367 560403 457203 498838
0110101111010110: 605367 560403 457203 498838
0111101111011110: 605367 560403 457203 567427
0111101111011110: 605367 560403 457203 567427
0111101111011110: 605367 560403 457203 567427
0111101111011110: 605367 560403 457203 567427
0111101111011110: 605367 560403 567427 457203
0111101111011110: 605367 560403 567427 457203
0111101111011110: 605367 560403 567427 457203
0111101111011110: 605367 560403 457203 567427
0110101011010010: 605367 457203 567427 639691
0110101011010010: 605367 457203 567427 639691
0111101111011110: 605367 457203 567427 560403
0111101111011110: 605367 457203 560403 567427
0111101111011110: 605367 457203 560403 567427
0110101111000100: 605367 457203 567427 540825
0110101111000100: 605367 457203 567427 474603
0110101111000100: 605367 457203 567427 498838
0110101111000100: 605367 457203 567427 618067
0110101111000100: 605367 457203 567427 540825
0110101111000100: 605367 457203 567427 474603
0110101111000100: 605367 457203 567427 498838
0110101111000100: 605367 457203 567427 618067
0110101011010010: 605367 457203 567427 639691
0111101111011110: 605367 457203 567427 560403
0111101111011110: 605367 457203 567427 560403
0111101111011110: 605367 457203 567427 560403
0111101111011110: 605367 457203 567427 560403
0110101111000100: 605367 457203 560403 540825
0110101111000100: 605367 457203 560403 474603
0110101111000100: 605367 457203 560403 618067
0110101111000100: 605367 457203 560403 540825
0110101111000100: 605367 457203 560403 474603
0110101111000100: 605367 457203 560403 618067
0110101111010110: 605367 457203 560403 498838
0110101111010110: 605367 457203 560403 498838
0110101111010110: 605367 457203 560403 498838
0111101111011110: 605367 457203 560403 567427
0111101111011110: 605367 457203 560403 567427
0111101111011110: 605367 457203 560403 567427
0111101111011110: 605367 457203 560403 567427
0111101111011110: 605367 457203 567427 560403
0111101111011110: 605367 457203 567427 560403
0111101111011110: 605367 457203 567427 560403
0111101111011110: 605367 457203 560403 567427
0111101111011110: 605367 457203 560403 567427
0111101111011110: 605367 457203 560403 567427
0111101111011110: 605367 457203 560403 567427
0111101011001000: 457203 567427 560403 540825
0111101011001000: 457203 567427 560403 474603
0111101011001000: 457203 567427 560403 618067
0111101111011110: 457203 567427 560403 605367
0111101011001000: 457203 567427 605367 540825
0111101011001000: 457203 567427 605367 474603
0111101011001000: 457203 567427 605367 498838
0111101011001000: 457203 567427 605367 618067
0111101111011110: 457203 567427 605367 560403
0101101001001000: 457203 567427 639691 540825
0101101001001000: 457203 567427 639691 498838
0101101001001000: 457203 567427 639691 618067
0101101101001100: 457203 567427 639691 560403
0101101101001100: 457203 567427 639691 605367
0111101011001000: 457203 560403 567427 540825
0111101011001000: 457203 560403 567427 474603
0111101011001000: 457203 560403 567427 618067
0111101111011110: 457203 560403 567427 605367
0111101011001000: 457203 560403 498838 540825
0111101011001000: 457203 560403 498838 474603
0111101011001000: 457203 560403 498838 618067
0111101111001100: 457203 560403 498838 567427
0111101011001000: 457203 560403 605367 540825
0111101011001000: 457203 560403 605367 474603
0111101011001000: 457203 560403 605367 618067
0111101111001100: 457203 560403 605367 498838
0111101111011110: 457203 560403 605367 567427
0101101001001000: 457203 540825 504865 567427
0101101001001000: 457203 540825 504865 560403
0101101001001000: 457203 540825 504865 474603
0101101001001000: 457203 540825 504865 498838
0101101001001000: 457203 540825 504865 605367
0110100110010110: 457203 474603 567427 639691
0111100010001000: 457203 474603 540825 567427
0111100010001000: 457203 474603 540825 560403
0101101001001000: 457203 474603 639691 560403
0101101001001000: 457203 474603 639691 540825
0101101001001000: 457203 474603 639691 498838
0101101001001000: 457203 474603 639691 605367
0101101001001000: 457203 474603 639691 618067
0111100010001000: 457203 498838 540825 567427
0111100010001000: 457203 498838 474603 567427
0111100010001000: 457203 498838 474603 540825
0111101011001000: 457203 498838 560403 540825
0111101011001000: 457203 498838 560403 474603
0111101011001000: 457203 498838 560403 618067
0111100010001000: 457203 605367 474603 540825
0111100010001000: 457203 605367 498838 540825
0111100010001000: 457203 605367 498838 474603
0111101011001000: 457203 605367 567427 540825
0111101011001000: 457203 605367 567427 474603
0111101011001000: 457203 605367 567427 498838
0111101011001000: 457203 605367 567427 618067
0111101111011110: 457203 605367 567427 560403
0111101011001000: 457203 605367 560403 540825
0111101011001000: 457203 605367 560403 474603
0111101011001000: 457203 605367 560403 618067
0111101111011110: 457203 605367 560403 567427
0111100010001000: 457203 618067 540825 567427
0111100010001000: 457203 618067 540825 560403
0110100110010110: 457203 618067 540825 504865
0111100010001000: 457203 618067 474603 567427
0111100010001000: 457203 618067 474603 560403
0111100010001000: 457203 618067 474603 540825
0111100010001000: 457203 618067 498838 567427
0111100010001000: 457203 618067 498838 540825
0111100010001000: 457203 618067 498838 474603
0111100010001000: 457203 618067 605367 540825
0111100010001000: 457203 618067 605367 474603
0111100010001000: 457203 618067 605367 498838
0101101001001000: 457203 618067 504865 567427
0101101001001000: 457203 618067 504865 560403
0101101001001000: 457203 618067 504865 474603
0101101001001000: 457203 618067 504865 498838
0101101001001000: 457203 618067 504865 605367
0110100110000100: 457203 567427 540825 639691
0110100010010010: 457203 567427 540825 504865
0110100010010010: 457203 567427 540825 504865
0111100010001000: 457203 567427 474603 540825
0110100110010110: 457203 567427 474603 639691
0110100110010110: 457203 567427 474603 639691
0111100010001000: 457203 567427 498838 540825
0111100010001000: 457203 567427 498838 474603
0110100110000100: 457203 567427 498838 639691
0111100010001000: 457203 567427 618067 540825
0111100010001000: 457203 567427 618067 474603
0111100010001000: 457203 567427 618067 498838
0110100110000100: 457203 567427 618067 639691
0110100010010010: 457203 567427 618067 504865
0110100010010010: 457203 567427 618067 504865
0110100110000100: 457203 567427 540825 639691
0110100110000100: 457203 567427 540825 639691
0111100110001100: 457203 567427 540825 560403
0111100110001100: 457203 567427 540825 605367
0110100110000100: 457203 567427 540825 639691
0110100010010010: 457203 567427 540825 504865
0111100110001100: 457203 567427 474603 560403
0111100110001100: 457203 567427 474603 605367
0110100110010110: 457203 567427 474603 639691
0110100110000100: 457203 567427 498838 639691
0110100110000100: 457203 567427 498838 639691
0111100110001100: 457203 567427 498838 605367
0110100110000100: 457203 567427 498838 639691
0110100110000100: 457203 567427 618067 639691
0110100110000100: 457203 567427 618067 639691
0111100110001100: 457203 567427 618067 560403
0111100110001100: 457203 567427 618067 605367
0110100110000100: 457203 567427 618067 639691
0110100010010010: 457203 567427 618067 504865
0111101011001000: 457203 567427 560403 540825
0111101011001000: 457203 567427 560403 474603
0111101011001000: 457203 567427 560403 618067
0111101011011010: 457203 567427 560403 498838
0111101011011010: 457203 567427 560403 498838
0111101011011010: 457203 567427 560403 498838
0110101111000100: 457203 567427 560403 639691
0111101111011110: 457203 567427 560403 605367
0111101011001000: 457203 567427 605367 540825
0111101011001000: 457203 567427 605367 474603
0111101011001000: 457203 567427 605367 498838
0111101011001000: 457203 567427 605367 618067
0111101111011110: 457203 567427 605367 560403
0111101111011110: 457203 567427 605367 560403
0101101001001000: 457203 567427 639691 540825
0101101001001000: 457203 567427 639691 498838
0101101001001000: 457203 567427 639691 618067
0101101101001100: 457203 567427 639691 560403
0101101101001100: 457203 567427 639691 605367
0101101001011010: 457203 567427 639691 474603
0101101001011010: 457203 567427 639691 474603
0101101001011010: 457203 567427 639691 474603
0101101001011010: 457203 567427 639691 474603
0101101001011010: 457203 567427 639691 474603
0111101011001000: 457203 567427 560403 540825
0111101011001000: 457203 567427 560403 474603
0111101011001000: 457203 567427 560403 618067
0111101011001000: 457203 567427 560403 540825
0111101011001000: 457203 567427 560403 474603
0111101011001000: 457203 567427 560403 618067
0110101111000100: 457203 567427 560403 639691
0110101111000100: 457203 567427 560403 639691
0110101111000100: 457203 567427 560403 639691
0110101111000100: 457203 567427 560403 639691
0111101111011110: 457203 567427 560403 605367
0111101111011110: 457203 567427 560403 605367
0111101111011110: 457203 567427 560403 605367
0111101111011110: 457203 567427 560403 605367
0111101011001000: 457203 567427 605367 540825
0111101011001000: 457203 567427 605367 474603
0111101011001000: 457203 567427 605367 498838
0111101011001000: 457203 567427 605367 618067
0111101011001000: 457203 567427 605367 540825
0111101011001000: 457203 567427 605367 474603
0111101011001000: 457203 567427 605367 498838
0111101011001000: 457203 567427 605367 618067
0110101111000100: 457203 567427 605367 639691
0110101111000100: 457203 567427 605367 639691
0110101111000100: 457203 567427 605367 639691
0111101111011110: 457203 567427 605367 560403
0111101111011110: 457203 567427 605367 560403
0111101111011110: 457203 567427 605367 560403
0111101111011110: 457203 567427 605367 560403
0110101111000100: 457203 567427 560403 639691
0111101111011110: 457203 567427 560403 605367
0110101111000100: 457203 567427 605367 639691
0111101111011110: 457203 567427 605367 560403
0110100010010010: 457203 560403 540825 504865
0110100010010010: 457203 560403 540825 504865
0111100010001000: 457203 560403 474603 540825
0110100010010010: 457203 560403 474603 639691
0110100010010010: 457203 560403 474603 639691
0111100010001000: 457203 560403 618067 540825
0111100010001000: 457203 560403 618067 474603
0110100010010010: 457203 560403 618067 504865
0110100010010010: 457203 560403 618067 504865
0111100110001100: 457203 560403 540825 567427
0111100110001100: 457203 560403 540825 498838
0111100110001100: 457203 560403 540825 605367
0110100010010010: 457203 560403 540825 504865
0111100110001100: 457203 560403 474603 567427
0111100110001100: 457203 560403 474603 498838
0111100110001100: 457203 560403 474603 605367
0110100010010010: 457203 560403 474603 639691
0111100110001100: 457203 560403 618067 567427
0111100110001100: 457203 560403 618067 498838
0111100110001100: 457203 560403 618067 605367
0110100010010010: 457203 560403 618067 504865
0111101011001000: 457203 560403 567427 540825
0111101011001000: 457203 560403 567427 474603
0111101011001000: 457203 560403 567427 618067
0110101011010010: 457203 560403 567427 639691
0110101011010010: 457203 560403 567427 639691
0110101011010010: 457203 560403 567427 639691
0110101011010010: 457203 560403 567427 639691
0111101111011110: 457203 560403 567427 605367
0111101011001000: 457203 560403 498838 540825
0111101011001000: 457203 560403 498838 474603
0111101011001000: 457203 560403 498838 618067
0111101111001100: 457203 560403 498838 567427
0111101011001000: 457203 560403 605367 540825
0111101011001000: 457203 560403 605367 474603
0111101011001000: 457203 560403 605367 618067
0111101111001100: 457203 560403 605367 498838
0111101111011110: 457203 560403 605367 567427
0111101111011110: 457203 560403 605367 567427
0111101011001000: 457203 560403 567427 540825
0111101011001000: 457203 560403 567427 474603
0111101011001000: 457203 560403 567427 618067
0111101011001000: 457203 560403 567427 540825
0111101011001000: 457203 560403 567427 474603
0111101011001000: 457203 560403 567427 618067
0111101111001100: 457203 560403 567427 498838
0111101111001100: 457203 560403 567427 498838
0111101111011110: 457203 560403 567427 605367
0111101111011110: 457203 560403 567427 605367
0111101111011110: 457203 560403 567427 605367
0111101111011110: 457203 560403 567427 605367
0111101011001000: 457203 560403 498838 540825
0111101011001000: 457203 560403 498838 474603
0111101011001000: 457203 560403 498838 618067
0111101011001000: 457203 560403 498838 540825
0111101011001000: 457203 560403 498838 474603
0111101011001000: 457203 560403 498838 618067
0111101111001100: 457203 560403 498838 567427
0111101111001100: 457203 560403 498838 605367
0111101111001100: 457203 560403 498838 567427
0111101111001100: 457203 560403 498838 605367
0111101111001100: 457203 560403 498838 567427
0111101011001000: 457203 560403 605367 540825
0111101011001000: 457203 560403 605367 474603
0111101011001000: 457203 560403 605367 618067
0111101011001000: 457203 560403 605367 540825
0111101011001000: 457203 560403 605367 474603
0111101011001000: 457203 560403 605367 618067
0111101111001100: 457203 560403 605367 498838
0111101111001100: 457203 560403 605367 498838
0111101111001100: 457203 560403 605367 498838
0111101111011110: 457203 560403 605367 567427
0111101111011110: 457203 560403 605367 567427
0111101111011110: 457203 560403 605367 567427
0111101111011110: 457203 560403 605367 567427
0111101011001000: 457203 560403 567427 540825
0111101011001000: 457203 560403 567427 474603
0111101011001000: 457203 560403 567427 618067
0111101011001000: 457203 560403 567427 540825
0111101011001000: 457203 560403 567427 474603
0111101011001000: 457203 560403 567427 618067
0111101111001100: 457203 560403 567427 498838
0111101111001100: 457203 560403 567427 498838
0111101111011110: 457203 560403 567427 605367
0111101111011110: 457203 560403 567427 605367
0111101111011110: 457203 560403 567427 605367
0111101111001100: 457203 560403 498838 567427
0111101111001100: 457203 560403 498838 605367
0111101111001100: 457203 560403 498838 567427
0111101111001100: 457203 560403 498838 605367
0111101111001100: 457203 560403 498838 567427
0111101111001100: 457203 560403 605367 498838
0111101111001100: 457203 560403 605367 498838
0111101111001100: 457203 560403 605367 498838
0111101111011110: 457203 560403 605367 567427
0110100110000100: 457203 540825 567427 504865
0110100010010010: 457203 540825 567427 639691
0111100010011010: 457203 540825 567427 560403
0111100010011010: 457203 540825 567427 605367
0110100010010010: 457203 540825 567427 639691
0110100110000100: 457203 540825 560403 504865
0111100010011010: 457203 540825 560403 567427
0111100010011010: 457203 540825 560403 498838
0111100010011010: 457203 540825 560403 605367
0111100010001000: 457203 540825 474603 567427
0111100010001000: 457203 540825 474603 560403
0110100110000100: 457203 540825 474603 504865
0110100010010010: 457203 540825 474603 639691
0110100010010010: 457203 540825 474603 639691
0111100010001000: 457203 540825 498838 567427
0111100010001000: 457203 540825 498838 474603
0110100110000100: 457203 540825 498838 504865
0111100010011010: 457203 540825 498838 560403
0111100010001000: 457203 540825 605367 474603
0111100010001000: 457203 540825 605367 498838
0110100110000100: 457203 540825 605367 504865
0111100010011010: 457203 540825 605367 567427
0111100010011010: 457203 540825 605367 560403
0111100010001000: 457203 540825 618067 567427
0111100010001000: 457203 540825 618067 560403
0111100010001000: 457203 540825 618067 474603
0111100010001000: 457203 540825 618067 498838
0111100010001000: 457203 540825 618067 605367
0110100110010110: 457203 540825 618067 504865
0110100110010110: 457203 540825 618067 504865
0111100010001000: 457203 540825 567427 474603
0111100010001000: 457203 540825 567427 498838
0111100010001000: 457203 540825 567427 618067
0110100110000100: 457203 540825 567427 504865
0110100110000100: 457203 540825 567427 504865
0110100110000100: 457203 540825 567427 504865
0111100010001000: 457203 540825 560403 474603
0111100010001000: 457203 540825 560403 618067
0110100110000100: 457203 540825 560403 504865
0110100110000100: 457203 540825 560403 504865
0110100110000100: 457203 540825 560403 504865
0110100110000100: 457203 540825 474603 504865
0110100110000100: 457203 540825 474603 504865
0110100110000100: 457203 540825 474603 504865
0110100110000100: 457203 540825 498838 504865
0110100110000100: 457203 540825 498838 504865
0110100110000100: 457203 540825 498838 504865
0110100110000100: 457203 540825 605367 504865
0110100110000100: 457203 540825 605367 504865
0110100110000100: 457203 540825 605367 504865
0110100110010110: 457203 540825 618067 504865
0101101001001000: 457203 540825 504865 567427
0101101001001000: 457203 540825 504865 560403
0101101001001000: 457203 540825 504865 474603
0101101001001000: 457203 540825 504865 498838
0101101001001000: 457203 540825 504865 605367
0101101001011010: 457203 540825 504865 618067
0101101001011010: 457203 540825 504865 618067
0101101001011010: 457203 540825 504865 618067
0111100010011010: 457203 474603 567427 560403
0111100010011010: 457203 474603 567427 605367
0110100110010110: 457203 474603 567427 639691
0110100110010110: 457203 474603 567427 639691
0110100110000100: 457203 474603 560403 639691
0111100010011010: 457203 474603 560403 567427
0111100010011010: 457203 474603 560403 498838
0111100010011010: 457203 474603 560403 605367
0111100010001000: 457203 474603 540825 567427
0111100010001000: 457203 474603 540825 560403
0110100110000100: 457203 474603 540825 639691
0110100010010010: 457203 474603 540825 504865
0110100010010010: 457203 474603 540825 504865
0111100010001000: 457203 474603 498838 567427
0111100010001000: 457203 474603 498838 540825
0110100110000100: 457203 474603 498838 639691
0111100010011010: 457203 474603 498838 560403
0111100010001000: 457203 474603 605367 540825
0111100010001000: 457203 474603 605367 498838
0110100110000100: 457203 474603 605367 639691
0111100010011010: 457203 474603 605367 567427
0111100010011010: 457203 474603 605367 560403
0111100010001000: 457203 474603 618067 567427
0111100010001000: 457203 474603 618067 560403
0111100010001000: 457203 474603 618067 540825
0111100010001000: 457203 474603 618067 498838
0111100010001000: 457203 474603 618067 605367
0110100110000100: 457203 474603 618067 639691
0110100010010010: 457203 474603 618067 504865
0110100010010010: 457203 474603 618067 504865
0111100010001000: 457203 474603 567427 540825
0111100010001000: 457203 474603 567427 498838
0111100010001000: 457203 474603 567427 618067
0110100110010110: 457203 474603 567427 639691
0110100110010110: 457203 474603 567427 639691
0110100110010110: 457203 474603 567427 639691
0111100010001000: 457203 474603 560403 540825
0111100010001000: 457203 474603 560403 618067
0110100110000100: 457203 474603 560403 639691
0110100110000100: 457203 474603 560403 639691
0110100110000100: 457203 474603 560403 639691
0111100010001000: 457203 474603 540825 567427
0111100010001000: 457203 474603 540825 560403
0111100010001000: 457203 474603 540825 498838
0111100010001000: 457203 474603 540825 605367
0111100010001000: 457203 474603 540825 618067
0111100010001000: 457203 474603 540825 567427
0111100010001000: 457203 474603 540825 560403
0110100110000100: 457203 474603 540825 639691
0110100110000100: 457203 474603 540825 639691
0110100110000100: 457203 474603 540825 639691
0110100110000100: 457203 474603 498838 639691
0110100110000100: 457203 474603 498838 639691
0110100110000100: 457203 474603 498838 639691
0110100110000100: 457203 474603 605367 639691
0110100110000100: 457203 474603 605367 639691
0110100110000100: 457203 474603 605367 639691
0110100110000100: 457203 474603 618067 639691
0110100110000100: 457203 474603 618067 639691
0110100110000100: 457203 474603 618067 639691
0101101001001000: 457203 474603 639691 560403
0101101001001000: 457203 474603 639691 540825
0101101001001000: 457203 474603 639691 498838
0101101001001000: 457203 474603 639691 605367
0101101001001000: 457203 474603 639691 618067
0101101001011010: 457203 474603 639691 567427
0101101001011010: 457203 474603 639691 567427
0101101001011010: 457203 474603 639691 567427
0110100010010010: 457203 498838 567427 639691
0111100010011010: 457203 498838 567427 605367
0110100010010010: 457203 498838 567427 639691
0111100010001000: 457203 498838 540825 567427
0110100010010010: 457203 498838 540825 504865
0110100010010010: 457203 498838 540825 504865
0111100010001000: 457203 498838 474603 567427
0111100010001000: 457203 498838 474603 540825
0110100010010010: 457203 498838 474603 639691
0110100010010010: 457203 498838 474603 639691
0111100010001000: 457203 498838 605367 540825
0111100010001000: 457203 498838 605367 474603
0111100010011010: 457203 498838 605367 567427
0111100010001000: 457203 498838 618067 567427
0111100010001000: 457203 498838 618067 540825
0111100010001000: 457203 498838 618067 474603
0111100010001000: 457203 498838 618067 605367
0110100010010010: 457203 498838 618067 504865
0110100010010010: 457203 498838 618067 504865
0111100010001000: 457203 498838 567427 540825
0111100010001000: 457203 498838 567427 474603
0111100010001000: 457203 498838 567427 618067
0111100010001000: 457203 498838 540825 567427
0111100010001000: 457203 498838 540825 474603
0111100010001000: 457203 498838 540825 605367
0111100010001000: 457203 498838 540825 618067
0111100010001000: 457203 498838 540825 567427
0111100110001100: 457203 498838 540825 560403
0111100010001000: 457203 498838 474603 567427
0111100010001000: 457203 498838 474603 540825
0111100010001000: 457203 498838 474603 605367
0111100010001000: 457203 498838 474603 618067
0111100010001000: 457203 498838 474603 567427
0111100010001000: 457203 498838 474603 540825
0111100110001100: 457203 498838 474603 560403
0111100110001100: 457203 498838 618067 560403
0111101011001000: 457203 498838 560403 540825
0111101011001000: 457203 498838 560403 474603
0111101011001000: 457203 498838 560403 618067
0111101011011010: 457203 498838 560403 567427
0111101011011010: 457203 498838 560403 605367
0111101011011010: 457203 498838 560403 567427
0111101011011010: 457203 498838 560403 605367
0111101011011010: 457203 498838 560403 567427
0111101011011010: 457203 498838 560403 605367
0111101011001000: 457203 498838 560403 540825
0111101011001000: 457203 498838 560403 474603
0111101011001000: 457203 498838 560403 618067
0111101011001000: 457203 498838 560403 540825
0111101011001000: 457203 498838 560403 474603
0111101011001000: 457203 498838 560403 618067
0111101011001000: 457203 498838 560403 540825
0111101011001000: 457203 498838 560403 474603
0111101011001000: 457203 498838 560403 618067
0111101011001000: 457203 498838 560403 540825
0111101011001000: 457203 498838 560403 474603
0111101011001000: 457203 498838 560403 618067
0110100010010010: 457203 605367 540825 504865
0110100010010010: 457203 605367 540825 504865
0111100010001000: 457203 605367 474603 540825
0110100010010010: 457203 605367 474603 639691
0110100010010010: 457203 605367 474603 639691
0111100010001000: 457203 605367 498838 540825
0111100010001000: 457203 605367 498838 474603
0111100010001000: 457203 605367 618067 540825
0111100010001000: 457203 605367 618067 474603
0111100010001000: 457203 605367 618067 498838
0110100010010010: 457203 605367 618067 504865
0110100010010010: 457203 605367 618067 504865
0111100010001000: 457203 605367 540825 474603
0111100010001000: 457203 605367 540825 498838
0111100010001000: 457203 605367 540825 618067
0111100110001100: 457203 605367 540825 567427
0111100110001100: 457203 605367 540825 560403
0110100010010010: 457203 605367 540825 504865
0111100010001000: 457203 605367 474603 540825
0111100010001000: 457203 605367 474603 498838
0111100010001000: 457203 605367 474603 618067
0111100010001000: 457203 605367 474603 540825
0111100110001100: 457203 605367 474603 567427
0111100110001100: 457203 605367 474603 560403
0110100010010010: 457203 605367 474603 639691
0111100010001000: 457203 605367 498838 540825
0111100010001000: 457203 605367 498838 474603
0111100010001000: 457203 605367 498838 618067
0111100010001000: 457203 605367 498838 540825
0111100010001000: 457203 605367 498838 474603
0111100110001100: 457203 605367 498838 567427
0111100110001100: 457203 605367 618067 567427
0111100110001100: 457203 605367 618067 560403
0110100010010010: 457203 605367 618067 504865
0111101011001000: 457203 605367 567427 540825
0111101011001000: 457203 605367 567427 474603
0111101011001000: 457203 605367 567427 498838
0111101011001000: 457203 605367 567427 618067
0110101011010010: 457203 605367 567427 639691
0110101011010010: 457203 605367 567427 639691
0111101011001000: 457203 605367 560403 540825
0111101011001000: 457203 605367 560403 474603
0111101011001000: 457203 605367 560403 618067
0111101011011010: 457203 605367 560403 498838
0111101011011010: 457203 605367 560403 498838
0111101011011010: 457203 605367 560403 498838
0111101011001000: 457203 605367 567427 540825
0111101011001000: 457203 605367 567427 474603
0111101011001000: 457203 605367 567427 498838
0111101011001000: 457203 605367 567427 618067
0111101011001000: 457203 605367 567427 540825
0111101011001000: 457203 605367 567427 474603
0111101011001000: 457203 605367 567427 498838
0111101011001000: 457203 605367 567427 618067
0111101111011110: 457203 605367 567427 560403
0111101111011110: 457203 605367 567427 560403
0111101111011110: 457203 605367 567427 560403
0111101011001000: 457203 605367 560403 540825
0111101011001000: 457203 605367 560403 474603
0111101011001000: 457203 605367 560403 618067
0111101011001000: 457203 605367 560403 540825
0111101011001000: 457203 605367 560403 474603
0111101011001000: 457203 605367 560403 618067
0111101111011110: 457203 605367 560403 567427
0111101111011110: 457203 605367 560403 567427
0111101111011110: 457203 605367 560403 567427
0111101011001000: 457203 605367 567427 540825
0111101011001000: 457203 605367 567427 474603
0111101011001000: 457203 605367 567427 498838
0111101011001000: 457203 605367 567427 618067
0111101011001000: 457203 605367 567427 540825
0111101011001000: 457203 605367 567427 474603
0111101011001000: 457203 605367 567427 498838
0111101011001000: 457203 605367 567427 618067
0111101111011110: 457203 605367 567427 560403
0111101011001000: 457203 605367 560403 540825
0111101011001000: 457203 605367 560403 474603
0111101011001000: 457203 605367 560403 618067
0111101011001000: 457203 605367 560403 540825
0111101011001000: 457203 605367 560403 474603
0111101011001000: 457203 605367 560403 618067
0111101111011110: 457203 605367 560403 567427
0110100010010010: 457203 618067 567427 639691
0111100010011010: 457203 618067 567427 560403
0111100010011010: 457203 618067 567427 605367
0110100010010010: 457203 618067 567427 639691
0111100010011010: 457203 618067 560403 567427
0111100010011010: 457203 618067 560403 498838
0111100010011010: 457203 618067 560403 605367
0111100010001000: 457203 618067 540825 567427
0111100010001000: 457203 618067 540825 560403
0110100110010110: 457203 618067 540825 504865
0111100010001000: 457203 618067 474603 567427
0111100010001000: 457203 618067 474603 560403
0111100010001000: 457203 618067 474603 540825
0110100010010010: 457203 618067 474603 639691
0110100010010010: 457203 618067 474603 639691
0111100010001000: 457203 618067 498838 567427
0111100010001000: 457203 618067 498838 540825
0111100010001000: 457203 618067 498838 474603
0111100010011010: 457203 618067 498838 560403
0111100010001000: 457203 618067 605367 540825
0111100010001000: 457203 618067 605367 474603
0111100010001000: 457203 618067 605367 498838
0111100010011010: 457203 618067 605367 567427
0111100010011010: 457203 618067 605367 560403
0111100010001000: 457203 618067 567427 540825
0111100010001000: 457203 618067 567427 474603
0111100010001000: 457203 618067 567427 498838
0110100110000100: 457203 618067 567427 504865
0110100110000100: 457203 618067 567427 504865
0111100010001000: 457203 618067 560403 540825
0111100010001000: 457203 618067 560403 474603
0110100110000100: 457203 618067 560403 504865
0110100110000100: 457203 618067 560403 504865
0111100010001000: 457203 618067 540825 567427
0111100010001000: 457203 618067 540825 560403
0111100010001000: 457203 618067 540825 474603
0111100010001000: 457203 618067 540825 498838
0111100010001000: 457203 618067 540825 605367
0111100010001000: 457203 618067 540825 567427
0111100010001000: 457203 618067 540825 560403
0110100110010110: 457203 618067 540825 504865
0110100110010110: 457203 618067 540825 504865
0111100010001000: 457203 618067 474603 567427
0111100010001000: 457203 618067 474603 560403
0111100010001000: 457203 618067 474603 540825
0111100010001000: 457203 618067 474603 498838
0111100010001000: 457203 618067 474603 605367
0111100010001000: 457203 618067 474603 567427
0111100010001000: 457203 618067 474603 560403
0111100010001000: 457203 618067 474603 540825
0110100110000100: 457203 618067 474603 504865
0110100110000100: 457203 618067 474603 504865
0111100010001000: 457203 618067 498838 567427
0111100010001000: 457203 618067 498838 540825
0111100010001000: 457203 618067 498838 474603
0111100010001000: 457203 618067 498838 605367
0111100010001000: 457203 618067 498838 567427
0111100010001000: 457203 618067 498838 540825
0111100010001000: 457203 618067 498838 474603
0110100110000100: 457203 618067 498838 504865
0110100110000100: 457203 618067 498838 504865
0111100010001000: 457203 618067 605367 540825
0111100010001000: 457203 618067 605367 474603
0111100010001000: 457203 618067 605367 498838
0111100010001000: 457203 618067 605367 540825
0111100010001000: 457203 618067 605367 474603
0111100010001000: 457203 618067 605367 498838
0110100110000100: 457203 618067 605367 504865
0110100110000100: 457203 618067 605367 504865
0101101001001000: 457203 618067 504865 567427
0101101001001000: 457203 618067 504865 560403
0101101001001000: 457203 618067 504865 474603
0101101001001000: 457203 618067 504865 498838
0101101001001000: 457203 618067 504865 605367
0101101001011010: 457203 618067 504865 540825
0101101001011010: 457203 618067 504865 540825
0101101001011010: 457203 618067 504865 540825
0110101011010010: 498838 560403 457203 540825
0110101011010010: 498838 560403 457203 474603
0110101011010010: 498838 560403 457203 618067
0110101011010010: 498838 560403 457203 540825
0110101011010010: 498838 560403 457203 474603
0110101011010010: 498838 560403 457203 618067
0110101111010110: 498838 560403 457203 567427
0110101111010110: 498838 560403 457203 605367
0110101111010110: 498838 560403 457203 567427
0110101111010110: 498838 560403 457203 605367
0110101111010110: 498838 560403 457203 567427
0110101111000100: 498838 457203 560403 540825
0110101111000100: 498838 457203 560403 474603
0110101111000100: 498838 457203 560403 618067
0110101111000100: 498838 457203 560403 540825
0110101111000100: 498838 457203 560403 474603
0110101111000100: 498838 457203 560403 618067
0110101111010110: 498838 457203 560403 567427
0110101111010110: 498838 457203 560403 605367
0110101111010110: 498838 457203 560403 567427
0110101111010110: 498838 457203 560403 605367
0110101111010110: 498838 457203 560403 567427
0110100110010110: 474603 457203 639691 567427
0110100010010010: 474603 639691 457203 560403
0110100010010010: 474603 639691 457203 540825
0110100010010010: 474603 639691 457203 498838
0110100010010010: 474603 639691 457203 605367
0110100010010010: 474603 639691 457203 618067
0110100110010110: 474603 639691 457203 567427
0110100110010110: 474603 639691 457203 567427
0110100110010110: 474603 639691 457203 567427
0110100110010110: 474603 639691 457203 567427
0110100110010110: 474603 457203 639691 567427
0110100110000100: 474603 457203 639691 560403
0110100110000100: 474603 457203 639691 540825
0110100110000100: 474603 457203 639691 498838
0110100110000100: 474603 457203 639691 605367
0110100110000100: 474603 457203 639691 618067
0110100110010110: 474603 457203 639691 567427
0110100110010110: 474603 457203 639691 567427
0110100110000100: 474603 457203 639691 560403
0110100110000100: 474603 457203 639691 540825
0110100110000100: 474603 457203 639691 498838
0110100110000100: 474603 457203 639691 605367
0110100110000100: 474603 457203 639691 618067
0110100110000100: 474603 457203 639691 560403
0110100110000100: 474603 457203 639691 540825
0110100110000100: 474603 457203 639691 498838
0110100110000100: 474603 457203 639691 605367
0110100110000100: 474603 457203 639691 618067
0110100110010110: 474603 457203 639691 567427
0110100110010110: 639691 474603 567427 457203
0110100110000100: 639691 567427 474603 560403
0110100110000100: 639691 567427 474603 605367
0110100110010110: 639691 567427 474603 457203
0110100110010110: 639691 567427 474603 457203
0110100110000100: 639691 567427 474603 560403
0110100110000100: 639691 567427 474603 605367
0110100110000100: 639691 567427 474603 560403
0110100110000100: 639691 567427 474603 605367
0110100110010110: 639691 567427 474603 457203
0110100110000100: 639691 567427 474603 560403
0110100110000100: 639691 567427 474603 605367
0110100110000100: 639691 567427 474603 560403
0110100110000100: 639691 567427 474603 605367
0110100110010110: 639691 567427 474603 457203
0110100010010010: 639691 474603 567427 560403
0110100010010010: 639691 474603 567427 605367
0110100110010110: 639691 474603 567427 457203
0110100110010110: 639691 474603 567427 457203
0110100110010110: 639691 474603 567427 457203
0110100110010110: 639691 474603 567427 457203
0110100110010110: 540825 504865 457203 618067
0110100110010110: 540825 457203 504865 618067
0110100110000100: 540825 457203 504865 567427
0110100110000100: 540825 457203 504865 560403
0110100110000100: 540825 457203 504865 474603
0110100110000100: 540825 457203 504865 498838
0110100110000100: 540825 457203 504865 605367
0110100110010110: 540825 457203 504865 618067
0110100110000100: 540825 457203 504865 567427
0110100110000100: 540825 457203 504865 560403
0110100110000100: 540825 457203 504865 474603
0110100110000100: 540825 457203 504865 498838
0110100110000100: 540825 457203 504865 605367
0110100110000100: 540825 457203 504865 567427
0110100110000100: 540825 457203 504865 560403
0110100110000100: 540825 457203 504865 474603
0110100110000100: 540825 457203 504865 498838
0110100110000100: 540825 457203 504865 605367
0110100110010110: 540825 457203 504865 618067
0110100010010010: 540825 504865 457203 567427
0110100010010010: 540825 504865 457203 560403
0110100010010010: 540825 504865 457203 474603
0110100010010010: 540825 504865 457203 498838
0110100010010010: 540825 504865 457203 605367
0110100110010110: 540825 504865 457203 618067
0110100110010110: 540825 504865 457203 618067
0110100110010110: 540825 504865 457203 618067
0110100110010110: 540825 504865 457203 618067
0111101111011110: 560403 567427 457203 605367
0111101011001000: 560403 567427 605367 498838
0111101111011110: 560403 567427 605367 457203
0111101111011110: 560403 457203 567427 605367
0111101111001100: 560403 457203 498838 567427
0111101111001100: 560403 457203 605367 498838
0111101111011110: 560403 457203 605367 567427
0111101011001000: 560403 605367 567427 498838
0111101111011110: 560403 605367 567427 457203
0111101111011110: 560403 605367 457203 567427
0110100110000100: 560403 567427 498838 639691
0110100110000100: 560403 567427 498838 639691
0110100110000100: 560403 567427 498838 639691
0111100110001100: 560403 567427 498838 605367
0110101011010010: 560403 567427 457203 540825
0110101011010010: 560403 567427 457203 474603
0110101011010010: 560403 567427 457203 618067
0110101011010010: 560403 567427 457203 540825
0110101011010010: 560403 567427 457203 474603
0110101011010010: 560403 567427 457203 618067
0111101011011010: 560403 567427 457203 498838
0111101011011010: 560403 567427 457203 498838
0111101011011010: 560403 567427 457203 498838
0111101111011110: 560403 567427 457203 605367
0111101011001000: 560403 567427 605367 498838
0111101111011110: 560403 567427 605367 457203
0111101111011110: 560403 567427 605367 457203
0110101111000100: 560403 567427 457203 639691
0110101111000100: 560403 567427 457203 639691
0110101111000100: 560403 567427 457203 639691
0111101111011110: 560403 567427 457203 605367
0111101111011110: 560403 567427 457203 605367
0111101011011010: 560403 567427 457203 498838
0111101111011110: 560403 567427 457203 605367
0111101111011110: 560403 567427 457203 605367
0111101011001000: 560403 567427 605367 498838
0111101011001000: 560403 567427 605367 498838
0110101111000100: 560403 567427 605367 639691
0110101111000100: 560403 567427 605367 639691
0111101011001000: 560403 567427 605367 498838
0111101111011110: 560403 567427 605367 457203
0111101111011110: 560403 567427 605367 457203
0111101111011110: 560403 567427 605367 457203
0111101111011110: 560403 567427 605367 457203
0110100110000100: 560403 567427 498838 639691
0110100110000100: 560403 567427 498838 639691
0111100110001100: 560403 567427 498838 605367
0111100110001100: 560403 567427 498838 605367
0111100110001100: 560403 567427 498838 605367
0111100110011110: 560403 567427 498838 457203
0111101011011010: 560403 567427 457203 498838
0111101111011110: 560403 567427 457203 605367
0111101011001000: 560403 567427 605367 498838
0111101111011110: 560403 567427 605367 457203
0110100010010010: 560403 498838 567427 639691
0111100010011010: 560403 498838 567427 605367
0111100010011010: 560403 498838 605367 567427
0111101011011010: 560403 498838 457203 567427
0111101011011010: 560403 498838 457203 605367
0111101011011010: 560403 498838 457203 567427
0111101011011010: 560403 498838 457203 605367
0111101011011010: 560403 498838 457203 567427
0111101011011010: 560403 498838 457203 605367
0110101111000100: 560403 457203 567427 540825
0110101111000100: 560403 457203 567427 474603
0110101111000100: 560403 457203 567427 618067
0110101111000100: 560403 457203 567427 540825
0110101111000100: 560403 457203 567427 474603
0110101111000100: 560403 457203 567427 618067
0111101111001100: 560403 457203 567427 498838
0110101011010010: 560403 457203 567427 639691
0111101111011110: 560403 457203 567427 605367
0111101111011110: 560403 457203 567427 605367
0111101111011110: 560403 457203 567427 605367
0110101111000100: 560403 457203 498838 540825
0110101111000100: 560403 457203 498838 474603
0110101111000100: 560403 457203 498838 618067
0110101111000100: 560403 457203 498838 540825
0110101111000100: 560403 457203 498838 474603
0110101111000100: 560403 457203 498838 618067
0111101111001100: 560403 457203 498838 567427
0111101111001100: 560403 457203 498838 605367
0111101111001100: 560403 457203 498838 567427
0110101111000100: 560403 457203 605367 540825
0110101111000100: 560403 457203 605367 474603
0110101111000100: 560403 457203 605367 618067
0110101111000100: 560403 457203 605367 540825
0110101111000100: 560403 457203 605367 474603
0110101111000100: 560403 457203 605367 618067
0111101111001100: 560403 457203 605367 498838
0111101111001100: 560403 457203 605367 498838
0111101111011110: 560403 457203 605367 567427
0111101111011110: 560403 457203 605367 567427
0111101111011110: 560403 457203 605367 567427
0111101111001100: 560403 457203 567427 498838
0111101111011110: 560403 457203 567427 605367
0111101111001100: 560403 457203 498838 567427
0111101111001100: 560403 457203 498838 605367
0111101111001100: 560403 457203 605367 498838
0111100110001100: 560403 605367 498838 567427
0111101011001000: 560403 605367 567427 498838
0111101011001000: 560403 605367 567427 498838
0111101011001000: 560403 605367 567427 498838
0111101011011010: 560403 605367 457203 498838
0111101011011010: 560403 605367 457203 498838
0111101011011010: 560403 605367 457203 498838
0111101011001000: 560403 605367 567427 498838
0111101011001000: 560403 605367 567427 498838
0111101111011110: 560403 605367 567427 457203
0111101111011110: 560403 605367 567427 457203
0111101111011110: 560403 605367 567427 457203
0111101111011110: 560403 605367 457203 567427
0111101111011110: 560403 605367 457203 567427
0111101111011110: 560403 605367 457203 567427
0111101011001000: 560403 605367 567427 498838
0111101011001000: 560403 605367 567427 498838
0111101111011110: 560403 605367 567427 457203
0111101111011110: 560403 605367 457203 567427
0111101011001000: 567427 560403 457203 639691
0111101111011110: 567427 560403 457203 605367
0111101011001000: 567427 560403 605367 639691
0111101111011110: 567427 560403 605367 457203
0101101001001000: 567427 639691 474603 560403
0101101001001000: 567427 639691 474603 605367
0110100110010110: 567427 457203 639691 474603
0111101011001000: 567427 457203 560403 639691
0111101111011110: 567427 457203 560403 605367
0111101011001000: 567427 457203 605367 639691
0111101111011110: 567427 457203 605367 560403
0111101011001000: 567427 605367 560403 639691
0111101111011110: 567427 605367 560403 457203
0111101011001000: 567427 605367 457203 639691
0111101111011110: 567427 605367 457203 560403
0110100010010010: 567427 560403 639691 474603
0110100010010010: 567427 560403 639691 474603
0110100110000100: 567427 560403 639691 498838
0111100110001100: 567427 560403 639691 457203
0111100110001100: 567427 560403 639691 605367
0110100010010010: 567427 560403 639691 474603
0111101011001000: 567427 560403 457203 639691
0111101011001000: 567427 560403 457203 639691
0111101011001000: 567427 560403 605367 639691
0110100010010010: 567427 560403 639691 474603
0111101011001000: 567427 560403 457203 639691
0111101011001000: 567427 560403 457203 639691
0111101011001000: 567427 560403 457203 639691
0110101111010110: 567427 560403 457203 498838
0110101111010110: 567427 560403 457203 498838
0111101011001000: 567427 560403 457203 639691
0111101111011110: 567427 560403 457203 605367
0111101111011110: 567427 560403 457203 605367
0111101111011110: 567427 560403 457203 605367
0111101011001000: 567427 560403 605367 639691
0111101011001000: 567427 560403 605367 639691
0110101111000100: 567427 560403 605367 498838
0110101111000100: 567427 560403 605367 498838
0111101011001000: 567427 560403 605367 639691
0111101111011110: 567427 560403 605367 457203
0111101111011110: 567427 560403 605367 457203
0111101111011110: 567427 560403 605367 457203
0110100110000100: 567427 560403 639691 498838
0110100110000100: 567427 560403 639691 498838
0111100110001100: 567427 560403 639691 457203
0111100110001100: 567427 560403 639691 605367
0111100110001100: 567427 560403 639691 457203
0111100110001100: 567427 560403 639691 605367
0111100110001100: 567427 560403 639691 457203
0111100110001100: 567427 560403 639691 605367
0110100010010010: 567427 560403 639691 474603
0110100010010010: 567427 560403 639691 474603
0111101011001000: 567427 560403 457203 639691
0111101011001000: 567427 560403 605367 639691
0110100010010010: 567427 639691 560403 498838
0111100010011010: 567427 639691 560403 457203
0111100010011010: 567427 639691 560403 605367
0110100010010010: 567427 639691 457203 540825
0110100010010010: 567427 639691 457203 498838
0110100010010010: 567427 639691 457203 618067
0111100010011010: 567427 639691 457203 560403
0111100010011010: 567427 639691 457203 605367
0110100110010110: 567427 639691 457203 474603
0111100010011010: 567427 639691 605367 560403
0111100010011010: 567427 639691 605367 457203
0110100110000100: 567427 639691 560403 474603
0110100110000100: 567427 639691 560403 474603
0110100110010110: 567427 639691 457203 474603
0110100110000100: 567427 639691 605367 474603
0110100110000100: 567427 639691 605367 474603
0101101001001000: 567427 639691 474603 560403
0101101001001000: 567427 639691 474603 605367
0101101001011010: 567427 639691 474603 457203
0101101001011010: 567427 639691 474603 457203
0101101001011010: 567427 639691 474603 457203
0110100110010110: 567427 457203 639691 474603
0110100110000100: 567427 457203 639691 540825
0110100110000100: 567427 457203 639691 498838
0110100110000100: 567427 457203 639691 618067
0111100110001100: 567427 457203 639691 560403
0111100110001100: 567427 457203 639691 605367
0110100110010110: 567427 457203 639691 474603
0110100110010110: 567427 457203 639691 474603
0111101011001000: 567427 457203 560403 639691
0111101011001000: 567427 457203 560403 639691
0111101011001000: 567427 457203 560403 639691
0111101011001000: 567427 457203 605367 639691
0111101011001000: 567427 457203 560403 639691
0111101011001000: 567427 457203 560403 639691
0110101111000100: 567427 457203 560403 540825
0110101111000100: 567427 457203 560403 474603
0110101111000100: 567427 457203 560403 618067
0110101111000100: 567427 457203 560403 540825
0110101111000100: 567427 457203 560403 474603
0110101111000100: 567427 457203 560403 618067
0111101011001000: 567427 457203 560403 639691
0110101111010110: 567427 457203 560403 498838
0110101111010110: 567427 457203 560403 498838
0111101011001000: 567427 457203 560403 639691
0111101111011110: 567427 457203 560403 605367
0111101111011110: 567427 457203 560403 605367
0111101111011110: 567427 457203 560403 605367
0111101011001000: 567427 457203 605367 639691
0111101011001000: 567427 457203 605367 639691
0110101111000100: 567427 457203 605367 540825
0110101111000100: 567427 457203 605367 474603
0110101111000100: 567427 457203 605367 498838
0110101111000100: 567427 457203 605367 618067
0110101111000100: 567427 457203 605367 540825
0110101111000100: 567427 457203 605367 474603
0110101111000100: 567427 457203 605367 498838
0110101111000100: 567427 457203 605367 618067
0111101011001000: 567427 457203 605367 639691
0111101111011110: 567427 457203 605367 560403
0111101111011110: 567427 457203 605367 560403
0111101111011110: 567427 457203 605367 560403
0110100110000100: 567427 457203 639691 540825
0110100110000100: 567427 457203 639691 498838
0110100110000100: 567427 457203 639691 618067
0110100110000100: 567427 457203 639691 540825
0110100110000100: 567427 457203 639691 498838
0110100110000100: 567427 457203 639691 618067
0111100110001100: 567427 457203 639691 560403
0111100110001100: 567427 457203 639691 605367
0111100110001100: 567427 457203 639691 560403
0111100110001100: 567427 457203 639691 605367
0111100110001100: 567427 457203 639691 560403
0111100110001100: 567427 457203 639691 605367
0110100110010110: 567427 457203 639691 474603
0110100110010110: 567427 457203 639691 474603
0111101011001000: 567427 457203 560403 639691
0111101011001000: 567427 457203 560403 639691
0111101011001000: 567427 457203 560403 639691
0111101011001000: 567427 457203 560403 639691
0111101111011110: 567427 457203 560403 605367
0111101011001000: 567427 457203 605367 639691
0110100010010010: 567427 605367 639691 474603
0110100010010010: 567427 605367 639691 474603
0111100110001100: 567427 605367 639691 560403
0111100110001100: 567427 605367 639691 457203
0110100010010010: 567427 605367 639691 474603
0111101011001000: 567427 605367 560403 639691
0111101011001000: 567427 605367 560403 639691
0111101011001000: 567427 605367 560403 639691
0111101011001000: 567427 605367 457203 639691
0111101011001000: 567427 605367 457203 639691
0111101011001000: 567427 605367 457203 639691
0111101011001000: 567427 605367 560403 639691
0111101011001000: 567427 605367 560403 639691
0111101111011110: 567427 605367 560403 457203
0111101111011110: 567427 605367 560403 457203
0111101111011110: 567427 605367 560403 457203
0111101011001000: 567427 605367 457203 639691
0111101011001000: 567427 605367 457203 639691
0111101111011110: 567427 605367 457203 560403
0111101111011110: 567427 605367 457203 560403
0111101111011110: 567427 605367 457203 560403
0111101011001000: 567427 605367 560403 639691
0111101011001000: 567427 605367 560403 639691
0111101111011110: 567427 605367 560403 457203
0111101011001000: 567427 605367 457203 639691
0111101011001000: 567427 605367 457203 639691
0111101111011110: 567427 605367 457203 560403
