Vertex,0111100010001000,0100101001010010,0111100110001100,0111101011001000,0110101111000100,0101101001011010,0100101101000100,0100101101010110,0111100110011110,0111101011011010,0101101001001000,0101101101011110,0110100110010110,0111101111001100,0101101101001100,0110101011010010,0111100010011010,0110100110000100,0110100010010010,0110101111010110
500915,0.0,4.0,14.0,33.0,17.0,10.0,0.0,2.0,8.0,54.0,18.0,5.0,35.0,54.0,4.0,14.0,11.0,63.0,39.0,51.0
528595,15.0,3.0,12.0,44.0,17.0,0.0,0.0,2.0,12.0,88.0,12.0,6.0,0.0,90.0,0.0,8.0,23.0,75.0,33.0,78.0
457203,32.0,7.0,41.0,113.0,46.0,10.0,0.0,2.0,9.0,69.0,26.0,4.0,35.0,72.0,4.0,26.0,23.0,100.0,52.0,61.0
609788,23.0,7.0,9.0,34.0,13.0,10.0,0.0,0.0,7.0,53.0,8.0,3.0,35.0,54.0,0.0,6.0,14.0,61.0,31.0,44.0
568838,83.0,3.0,39.0,119.0,49.0,10.0,0.0,0.0,9.0,69.0,26.0,5.0,35.0,72.0,4.0,28.0,26.0,173.0,92.0,61.0
501997,122.0,14.0,41.0,113.0,46.0,11.0,2.0,2.0,3.0,19.0,50.0,1.0,35.0,18.0,4.0,26.0,31.0,266.0,142.0,17.0
576826,69.0,4.0,5.0,14.0,5.0,11.0,2.0,0.0,0.0,0.0,26.0,0.0,35.0,0.0,0.0,2.0,2.0,115.0,60.0,0.0
538041,54.0,0.0,5.0,14.0,5.0,11.0,0.0,0.0,0.0,0.0,16.0,0.0,35.0,0.0,0.0,2.0,2.0,80.0,35.0,0.0
621420,54.0,3.0,5.0,14.0,5.0,0.0,0.0,0.0,0.0,0.0,18.0,0.0,0.0,0.0,0.0,2.0,2.0,107.0,45.0,0.0
510552,38.0,3.0,9.0,34.0,13.0,0.0,0.0,0.0,0.0,0.0,14.0,0.0,0.0,0.0,0.0,6.0,6.0,93.0,40.0,0.0
541012,0.0,6.0,0.0,0.0,0.0,0.0,0.0,0.0,0.0,0.0,8.0,0.0,0.0,0.0,0.0,0.0,0.0,58.0,28.0,0.0
524017,0.0,6.0,0.0,0.0,0.0,0.0,0.0,0.0,0.0,0.0,8.0,0.0,0.0,0.0,0.0,0.0,0.0,58.0,29.0,0.0
580176,15.0,0.0,0.0,0.0,0.0,11.0,2.0,0.0,0.0,0.0,16.0,0.0,35.0,0.0,0.0,0.0,0.0,56.0,34.0,0.0
616744,15.0,4.0,0.0,0.0,0.0,0.0,2.0,0.0,0.0,0.0,14.0,0.0,0.0,0.0,0.0,0.0,0.0,49.0,30.0,0.0
603297,0.0,4.0,0.0,0.0,0.0,0.0,0.0,0.0,0.0,0.0,4.0,0.0,0.0,0.0,0.0,0.0,0.0,14.0,10.0,0.0
graph,130.0,17.0,45.0,133.0,54.0,21.0,2.0,2.0,12.0,88.0,66.0,6.0,70.0,90.0,4.0,30.0,35.0,342.0,175.0,78.0
