0110010010100010100000100: 617770 619440 498506 602961 493815
0110010011100000100001000: 617770 619440 498506 490862 602961
0110010010100010100000100: 617770 619440 498506 490862 493815
0110010011100000100001000: 617770 619440 498506 508539 602961
0110010011100000100001000: 617770 619440 498506 508539 490862
0110010010100010100000100: 617770 619440 498506 508539 493815
0110010011100000100001000: 617770 619440 554368 508539 490862
0110010011100100110001000: 617770 619440 554368 602961 490862
0110010011100100110001000: 617770 619440 554368 602961 508539
0110010011100000100001000: 617770 619440 647052 490862 602961
0110010011100000100001000: 617770 619440 647052 508539 602961
0110010011100000100001000: 617770 619440 647052 508539 490862
0110010010100010100000100: 617770 554368 619440 609830 490862
0110010010100010100000100: 617770 554368 619440 609830 508539
0110010011100000100001000: 617770 554368 619440 520084 609830
0110010010100010100000100: 617770 554368 619440 520084 508539
0110010010100010100100110: 617770 554368 619440 520084 490862
0110010011100000100001000: 617770 554368 619440 493815 609830
0110010011100000100001000: 617770 554368 619440 493815 520084
0110010010100010100000100: 617770 554368 619440 493815 490862
0110010010100010100000100: 617770 554368 619440 493815 508539
0110010011100100110001000: 617770 554368 619440 602961 493815
0111010101110001000001000: 617770 554368 498506 619440 609830
0111010101110001000001000: 617770 554368 498506 619440 520084
0111010100110001000100010: 617770 554368 498506 619440 490862
0111010100110001000100010: 617770 554368 498506 619440 508539
0111010101110001000101010: 617770 554368 498506 619440 602961
0111010101110001000001000: 617770 554368 647052 619440 520084
0111010101110001000001000: 617770 554368 647052 619440 493815
0111010101110001000101010: 617770 554368 647052 619440 602961
0111110110110001100010000: 617770 554368 647052 498506 619440
0110010010100010100000100: 617770 647052 498506 609830 493815
0110010010100010100000100: 617770 647052 619440 609830 490862
0110010010100010100000100: 617770 647052 619440 609830 508539
0110010010100010100100110: 617770 647052 619440 609830 602961
0111010100110001000100010: 617770 647052 554368 619440 490862
0111010100110001000100010: 617770 647052 554368 619440 508539
0111010110110011100000100: 647052 554368 617770 609830 619440
0110010010100010100000100: 647052 617770 609830 498506 602961
0110010011100000100001000: 647052 617770 609830 619440 498506
0111010110110011100000100: 554368 609830 602961 647052 619440
0111110110110001100010000: 554368 609830 647052 602961 498506
0111110110110001100010000: 554368 609830 647052 602961 493815
0110010011100000100001000: 554368 520084 609830 490862 544931
0110010011100000100001000: 554368 520084 498506 490862 544931
0110010011100000100001000: 554368 520084 493815 490862 544931
0110010011100000100001000: 554368 520084 647052 490862 544931
0110010011100000100001000: 554368 520084 617770 490862 544931
0111010101110001000001000: 554368 520084 602961 498506 544931
0111010101110001000001000: 554368 520084 602961 498506 490862
0111010101110001000001000: 554368 520084 602961 493815 544931
0111010101110001000001000: 554368 520084 602961 493815 490862
0111010101110001000001000: 554368 520084 602961 647052 544931
0111010101110001000001000: 554368 520084 602961 647052 490862
0111010101110001000001000: 554368 520084 602961 617770 544931
0111010101110001000001000: 554368 520084 602961 617770 490862
0111010101110001000001000: 554368 602961 609830 498506 619440
0111010101110001000001000: 554368 602961 609830 493815 619440
0111110100110001000010000: 554368 602961 609830 617770 493815
0111010101110001000101010: 554368 602961 609830 617770 619440
0111110110110011100010100: 554368 602961 609830 520084 647052
0111010101110001000001000: 554368 602961 520084 498506 619440
0111010101110001000001000: 554368 602961 520084 493815 619440
0111110100110001000010000: 554368 602961 520084 647052 498506
0111110100110001000010000: 554368 602961 520084 647052 493815
0111010101110001000001000: 554368 602961 520084 647052 619440
0111110100110001000010000: 554368 602961 520084 617770 493815
0111010101110001000101010: 554368 602961 520084 617770 619440
0111110110110001100010000: 554368 602961 520084 609830 498506
0111110110110001100010000: 554368 602961 520084 609830 493815
0111110110110001100010000: 554368 602961 520084 609830 617770
0111010110110011100000100: 554368 602961 520084 609830 544931
0111010110110011100000100: 554368 602961 520084 609830 490862
0111110110110001100010000: 554368 498506 617770 493815 609830
0111110110110001100010000: 554368 498506 617770 493815 520084
0111110110110001100010000: 554368 498506 617770 493815 602961
0111010110110011100000100: 554368 498506 617770 493815 619440
0111110100110001000010000: 554368 493815 498506 520084 609830
0111010100110001000100010: 554368 493815 498506 520084 544931
0111010100110001000100010: 554368 493815 498506 520084 490862
0111010100110001000100010: 554368 493815 498506 602961 619440
0111110100110001000110010: 554368 493815 498506 602961 609830
0111110100110001000110010: 554368 493815 498506 602961 520084
0111110100110001000010000: 554368 493815 498506 647052 520084
0111110100110001000010000: 554368 493815 498506 647052 602961
0111010100110001000100010: 554368 647052 609830 520084 544931
0111010100110001000100010: 554368 647052 609830 520084 490862
0111110100110001000010000: 554368 647052 609830 498506 520084
0111110100110001000010000: 554368 647052 609830 493815 520084
0111110100110001000110010: 554368 647052 609830 493815 498506
0111110110110011100010100: 554368 647052 609830 617770 602961
0111110110110001100010000: 554368 647052 617770 609830 520084
0111110110110001100010000: 554368 647052 617770 609830 493815
0110010010100010100000100: 554368 617770 520084 619440 544931
0111110000100001000010000: 554368 617770 493815 520084 609830
0111110100110001000010000: 554368 617770 498506 520084 609830
0111010100110001000100010: 554368 617770 498506 520084 544931
0111010100110001000100010: 554368 617770 498506 520084 490862
0111110100110001000110010: 554368 617770 498506 602961 609830
0111110100110001000110010: 554368 617770 498506 602961 520084
0111110110110011100010100: 554368 617770 498506 647052 493815
0111010100110001000100010: 554368 617770 647052 520084 544931
0111010100110001000100010: 554368 617770 647052 520084 490862
0111110100110001000110010: 554368 617770 647052 602961 520084
0111110100110001000010000: 554368 617770 647052 493815 520084
0111110100110001000010000: 554368 617770 647052 493815 602961
0111110110110001100010000: 554368 617770 647052 498506 520084
0111110110110001100010000: 554368 617770 647052 498506 602961
0111110110110011100010100: 554368 617770 647052 498506 609830
0110010011100100110001000: 619440 602961 490862 520084 609830
0110010011100000100001000: 619440 602961 508539 520084 609830
0110010011100000100001000: 619440 602961 617770 520084 609830
0110010010100010100000100: 619440 490862 602961 517060 609830
0110010010100010100000100: 619440 490862 602961 517060 554368
0110010011100100110001000: 619440 490862 602961 520084 517060
0110010011100000100001000: 619440 490862 508539 517060 520084
0110010011100000100001000: 619440 490862 617770 517060 520084
0110010010100010100000100: 619440 617770 602961 498506 609830
0110010010100010100000100: 619440 617770 602961 498506 520084
0110010011100000100001000: 619440 617770 602961 647052 498506
0110010010100010100000100: 619440 617770 602961 647052 520084
0110010010100010100000100: 619440 617770 490862 498506 520084
0110010010100010100000100: 619440 617770 490862 498506 517060
0110010010100010100000100: 619440 617770 490862 554368 517060
0110010011100000100001000: 619440 617770 490862 647052 498506
0110010010100010100000100: 619440 617770 490862 647052 520084
0110010010100010100000100: 619440 617770 490862 647052 517060
0111110000100001000010000: 619440 617770 508539 490862 602961
0110010011100000100001000: 619440 617770 508539 647052 498506
0110010011100100110001000: 517060 490862 544931 520084 619440
0110010011100100110001000: 490862 520084 517060 544931 602961
0110010011100100110001000: 490862 520084 517060 544931 554368
0110010011100000100001000: 490862 520084 619440 554368 544931
0110010011100100110001000: 490862 520084 619440 602961 544931
0110010010100010100000100: 490862 619440 520084 508539 544931
0110010010100010100000100: 490862 619440 520084 508539 554368
0110010011100000100001000: 490862 619440 520084 617770 508539
0110010010100010100000100: 490862 619440 520084 617770 544931
0110010011100100110001000: 490862 619440 520084 602961 508539
0110010011100100110001000: 490862 619440 520084 602961 617770
0110010010100010100000100: 490862 619440 517060 602961 544931
0110010011100000100001000: 490862 619440 517060 508539 602961
0110010010100010100000100: 490862 619440 517060 508539 544931
0110010011100000100001000: 490862 619440 517060 617770 602961
0110010011100000100001000: 490862 619440 517060 617770 508539
0110010010100010100000100: 490862 619440 517060 617770 544931
0110010011100000100001000: 498506 617770 493815 647052 619440
0110010010100010100000100: 602961 520084 609830 544931 647052
0110010011100000100001000: 602961 520084 609830 490862 544931
0110010010100010100000100: 602961 520084 609830 490862 647052
0111010101110001000001000: 602961 520084 554368 619440 544931
0111010101110001000101010: 602961 520084 554368 619440 490862
0110010010100010100000100: 602961 619440 609830 490862 647052
0110010011100000100001000: 602961 619440 609830 508539 490862
0110010010100010100000100: 602961 619440 609830 508539 647052
0110010011100000100001000: 602961 619440 609830 617770 490862
0110010011100000100001000: 602961 619440 609830 617770 508539
0110010010100010100000100: 602961 619440 520084 508539 544931
0110010011100000100001000: 602961 619440 520084 617770 508539
0110010010100010100000100: 602961 619440 520084 617770 544931
0110010011100000100001000: 602961 619440 554368 508539 490862
0110010010100010100000100: 602961 554368 619440 498506 490862
0110010010100010100000100: 602961 554368 619440 498506 508539
0110010010100010100000100: 602961 554368 619440 493815 490862
0110010010100010100000100: 602961 554368 619440 493815 508539
0110010011100000100001000: 602961 554368 619440 647052 498506
0110010011100000100001000: 602961 554368 619440 647052 493815
0110010010100010100000100: 602961 554368 619440 647052 490862
0110010010100010100000100: 602961 554368 619440 647052 508539
0111010100110001000100010: 602961 554368 609830 619440 490862
0111010100110001000100010: 602961 554368 609830 619440 508539
0111010100110001000100010: 602961 554368 520084 619440 508539
0111110110110001100010000: 602961 554368 520084 609830 619440
0110010010100010100000100: 520084 602961 544931 609830 517060
0110010011100000100001000: 520084 602961 544931 619440 609830
0110010010100010100000100: 520084 602961 544931 619440 517060
0110010010100010100000100: 520084 490862 602961 517060 609830
0110010011100000100001000: 520084 490862 554368 619440 517060
0110010010100010100000100: 520084 554368 544931 609830 517060
0110010011100000100001000: 520084 554368 544931 498506 609830
0110010010100010100000100: 520084 554368 544931 498506 517060
0110010011100000100001000: 520084 554368 544931 493815 609830
0110010010100010100000100: 520084 554368 544931 493815 517060
0110010011100000100001000: 520084 554368 544931 647052 498506
0110010011100000100001000: 520084 554368 544931 647052 493815
0110010010100010100000100: 520084 554368 544931 647052 517060
0110010011100000100001000: 520084 554368 544931 617770 609830
0110010011100000100001000: 520084 554368 544931 617770 493815
0110010010100010100000100: 520084 554368 544931 617770 517060
0110010010100010100000100: 520084 554368 490862 609830 517060
0110010010100010100000100: 520084 554368 490862 609830 619440
0110010011100000100001000: 520084 554368 490862 498506 609830
0110010010100010100000100: 520084 554368 490862 498506 517060
0110010010100010100000100: 520084 554368 490862 498506 619440
0110010011100000100001000: 520084 554368 490862 493815 609830
0110010010100010100000100: 520084 554368 490862 493815 517060
0110010010100010100000100: 520084 554368 490862 493815 619440
0110010011100000100001000: 520084 554368 490862 647052 498506
0110010011100000100001000: 520084 554368 490862 647052 493815
0110010010100010100000100: 520084 554368 490862 647052 517060
0110010010100010100000100: 520084 554368 490862 647052 619440
0110010011100000100001000: 520084 554368 490862 617770 609830
0110010011100000100001000: 520084 554368 490862 617770 493815
0110010010100010100000100: 520084 554368 490862 617770 517060
0111010100110001000100010: 520084 554368 602961 544931 517060
0111110100110001000010000: 520084 554368 602961 490862 544931
0111010100110001000100010: 520084 554368 602961 490862 517060
0110010011100000100001000: 609830 602961 647052 619440 520084
0110010010100010100000100: 609830 647052 602961 617770 520084
