Vertex,0111010101110001000101010,0111110111110101110011000,0110010010100010100100110,0111010101110001000001000,0110010011100000100001000,0111110000100001000010000,0111010100110001000100010,0111110111110001100011000,0110010010100010100000100,0111110110110001100010000,0111010110110011100000100,0110010011100100110001000,0111110100110001000010000,0111110110110101110010000
518466,4.0,2.0,1.0,13.0,26.0,2.0,18.0,2.0,23.0,15.0,5.0,3.0,7.0,4.0
610880,4.0,0.0,2.0,7.0,37.0,2.0,7.0,0.0,28.0,5.0,0.0,3.0,2.0,1.0
622619,1.0,1.0,0.0,3.0,32.0,9.0,3.0,2.0,9.0,9.0,2.0,0.0,6.0,0.0
553289,0.0,0.0,2.0,0.0,22.0,0.0,10.0,0.0,19.0,0.0,0.0,1.0,0.0,0.0
615319,4.0,0.0,2.0,3.0,49.0,7.0,7.0,0.0,26.0,5.0,0.0,3.0,7.0,1.0
470919,1.0,2.0,1.0,11.0,29.0,5.0,13.0,1.0,21.0,6.0,3.0,0.0,10.0,4.0
554368,4.0,2.0,3.0,14.0,51.0,9.0,19.0,2.0,28.0,15.0,5.0,3.0,10.0,4.0
653920,1.0,1.0,0.0,6.0,39.0,9.0,6.0,2.0,23.0,9.0,4.0,0.0,6.0,0.0
622987,1.0,2.0,0.0,8.0,20.0,5.0,12.0,1.0,8.0,6.0,1.0,0.0,10.0,4.0
639192,0.0,0.0,1.0,10.0,10.0,0.0,3.0,0.0,22.0,0.0,2.0,0.0,0.0,1.0
459500,0.0,0.0,2.0,7.0,28.0,7.0,5.0,0.0,15.0,5.0,0.0,1.0,7.0,1.0
627436,0.0,0.0,0.0,3.0,14.0,0.0,3.0,0.0,16.0,0.0,3.0,0.0,0.0,0.0
522403,0.0,0.0,0.0,0.0,0.0,0.0,1.0,0.0,9.0,0.0,0.0,0.0,0.0,0.0
536141,0.0,0.0,1.0,0.0,18.0,0.0,8.0,0.0,23.0,0.0,0.0,1.0,0.0,0.0
graph,4.0,2.0,3.0,17.0,75.0,11.0,23.0,2.0,54.0,15.0,5.0,3.0,13.0,4.0
