0110010010100010100000100: 531765 486447 575302 467288 550854
0111010101110001000001000: 531765 486447 550157 575302 467288
0110010010100010100000100: 531765 558746 575302 644833 550854
0110010011100000100001000: 531765 558746 575302 467288 644833
0110010010100010100000100: 531765 558746 575302 467288 550854
0110010011100100110001000: 531765 558746 486447 467288 644833
0111010101110001000001000: 531765 558746 462691 575302 644833
0111010101110001000001000: 531765 558746 550157 575302 644833
0111010101110001000001000: 531765 558746 550157 575302 467288
0110010010100010100000100: 531765 462691 575302 467288 550854
0110010011100000100001000: 531765 462691 575302 538355 467288
0110010010100010100000100: 531765 462691 575302 538355 550854
0110010011100000100001000: 531765 462691 575302 573410 467288
0110010011100000100001000: 531765 462691 575302 573410 538355
0110010010100010100000100: 531765 462691 575302 573410 550854
0111010101110001000001000: 531765 462691 486447 575302 538355
0111010101110001000001000: 531765 462691 486447 575302 573410
0111010100110001000100010: 531765 462691 486447 575302 550854
0111010101110001000001000: 531765 462691 558746 575302 538355
0111010101110001000001000: 531765 462691 558746 575302 573410
0111010100110001000100010: 531765 462691 558746 575302 550854
0111110110110001100010000: 531765 462691 558746 486447 575302
0111010110110011100000100: 531765 462691 558746 486447 644833
0111010101110001000001000: 531765 462691 550157 575302 467288
0111010101110001000001000: 531765 462691 550157 575302 538355
0111010101110001000001000: 531765 462691 550157 575302 573410
0110010010100010100000100: 531765 550157 575302 537210 550854
0110010011100000100001000: 531765 550157 575302 482505 537210
0110010010100010100000100: 531765 550157 575302 482505 550854
0111010101110001000001000: 531765 550157 486447 575302 537210
0111010101110001000001000: 531765 550157 486447 575302 482505
0111010100110001000100010: 531765 550157 486447 575302 550854
0111010101110001000001000: 531765 550157 558746 575302 537210
0111010101110001000001000: 531765 550157 558746 575302 482505
0111010100110001000100010: 531765 550157 558746 575302 550854
0111110110110001100010000: 531765 550157 558746 486447 575302
0111010110110011100000100: 531765 550157 558746 486447 644833
0111010110110011100100110: 531765 550157 558746 486447 467288
0111010101110001000001000: 531765 550157 462691 575302 537210
0111010101110001000001000: 531765 550157 462691 575302 482505
0111010100110001000100010: 531765 550157 462691 575302 550854
0111110110110101110010000: 531765 550157 462691 486447 575302
0111110110110101110010000: 531765 550157 462691 558746 575302
0111110111110111110011100: 531765 550157 462691 558746 486447
0110010011100100110001000: 550157 537210 482505 467288 538355
0110010011100100110001000: 550157 537210 486447 467288 538355
0110010011100100110001000: 550157 537210 558746 467288 538355
0110010011100000100001000: 550157 537210 531765 538355 467288
0110010010100010100100110: 550157 482505 537210 504422 538355
0110010011100100110001000: 550157 482505 537210 467288 504422
0110010011100100110001000: 550157 482505 486447 467288 504422
0110010011100100110001000: 550157 482505 558746 467288 504422
0110010011100100110001000: 550157 482505 462691 467288 504422
0110010011100000100001000: 550157 482505 531765 467288 504422
0111010101110001000101010: 550157 486447 531765 537210 467288
0111010101110001000101010: 550157 486447 531765 482505 467288
0110010010100010100000100: 550157 558746 537210 644833 538355
0110010011100100110001000: 550157 558746 537210 467288 644833
0110010010100010100000100: 550157 558746 482505 644833 504422
0110010011100100110001000: 550157 558746 482505 467288 644833
0111110000100001000010000: 550157 558746 486447 482505 537210
0110010011100100110001000: 550157 558746 486447 467288 644833
0111010101110001000001000: 550157 558746 462691 537210 644833
0111010101110001000001000: 550157 558746 462691 482505 644833
0111010101110001000001000: 550157 558746 531765 537210 644833
0111010101110001000101010: 550157 558746 531765 537210 467288
0111010101110001000001000: 550157 558746 531765 482505 644833
0111010101110001000101010: 550157 558746 531765 482505 467288
0110010011100100110001000: 550157 462691 537210 467288 573410
0110010011100100110001000: 550157 462691 537210 538355 573410
0110010011100110110001100: 550157 462691 537210 538355 467288
0110010010100010100100110: 550157 462691 482505 538355 504422
0110010011100000100001000: 550157 462691 482505 573410 538355
0110010010100010100000100: 550157 462691 482505 573410 504422
0110010011100100110001000: 550157 462691 482505 467288 538355
0110010011100100110001000: 550157 462691 482505 467288 573410
0111010101110001000001000: 550157 462691 486447 537210 573410
0111010101110001000101010: 550157 462691 486447 537210 538355
0111110100110001000010000: 550157 462691 486447 482505 537210
0111010101110001000001000: 550157 462691 486447 482505 538355
0111010101110001000001000: 550157 462691 486447 482505 573410
0111010100110001000100010: 550157 462691 486447 482505 504422
0111010101110001000001000: 550157 462691 558746 537210 573410
0111010101110001000101010: 550157 462691 558746 537210 538355
0111110100110001000010000: 550157 462691 558746 482505 537210
0111010101110001000001000: 550157 462691 558746 482505 538355
0111010101110001000001000: 550157 462691 558746 482505 573410
0111010100110001000100010: 550157 462691 558746 482505 504422
0111110110110001100010000: 550157 462691 558746 486447 537210
0111110110110001100010000: 550157 462691 558746 486447 482505
0111010110110011100000100: 550157 462691 558746 486447 644833
0111010101110001000001000: 550157 462691 531765 537210 573410
0111010101110001000101010: 550157 462691 531765 537210 467288
0111010101110001000101010: 550157 462691 531765 537210 538355
0111010101110001000001000: 550157 462691 531765 482505 538355
0111010101110001000001000: 550157 462691 531765 482505 573410
0111010101110001000101010: 550157 462691 531765 482505 467288
0110010010100010100000100: 550157 531765 537210 575302 467288
0110010010100010100000100: 550157 531765 537210 575302 538355
0110010010100010100000100: 550157 531765 482505 575302 504422
0110010010100010100000100: 550157 531765 482505 575302 467288
0111010100110001000100010: 550157 531765 486447 537210 538355
0111110100110001000010000: 550157 531765 486447 482505 537210
0111010100110001000100010: 550157 531765 486447 482505 504422
0111010100110001000100010: 550157 531765 558746 537210 538355
0111110100110001000010000: 550157 531765 558746 482505 537210
0111010100110001000100010: 550157 531765 558746 482505 504422
0111110110110001100010000: 550157 531765 558746 486447 537210
0111110110110001100010000: 550157 531765 558746 486447 482505
0111110100110001000010000: 550157 531765 462691 482505 537210
0111010100110001000100010: 550157 531765 462691 482505 504422
0111110110110101110010000: 550157 531765 462691 486447 537210
0111110110110101110010000: 550157 531765 462691 486447 482505
0111110110110101110010000: 550157 531765 462691 558746 537210
0111110110110101110010000: 550157 531765 462691 558746 482505
0110010011100100110001000: 462691 467288 538355 537210 482505
0110010011100000100001000: 462691 467288 573410 482505 537210
0110010011100000100001000: 462691 467288 531765 482505 537210
0111010101110001000001000: 462691 467288 486447 538355 482505
0111010101110001000101010: 462691 467288 486447 538355 537210
0111010101110001000001000: 462691 467288 486447 573410 537210
0111010101110001000001000: 462691 467288 486447 573410 482505
0111010101110001000001000: 462691 467288 558746 538355 482505
0111010101110001000101010: 462691 467288 558746 538355 537210
0111010101110001000001000: 462691 467288 558746 573410 537210
0111010101110001000001000: 462691 467288 558746 573410 482505
0111110110110001100010000: 462691 467288 558746 486447 538355
0111110110110001100010000: 462691 467288 558746 486447 573410
0111010110110011100000100: 462691 467288 558746 486447 644833
0110010010100010100100110: 462691 538355 467288 504422 482505
0110010011100000100001000: 462691 538355 467288 530790 504422
0110010010100010100000100: 462691 538355 467288 530790 482505
0110010011100100110001000: 462691 538355 467288 537210 504422
0110010011100100110001000: 462691 538355 467288 537210 530790
0110010011100000100001000: 462691 538355 573410 537210 504422
0110010011100000100001000: 462691 538355 573410 530790 504422
0110010011100000100001000: 462691 538355 573410 530790 537210
0110010011100000100001000: 462691 538355 486447 537210 504422
0110010011100000100001000: 462691 538355 486447 530790 504422
0110010011100000100001000: 462691 538355 486447 530790 537210
0110010011100000100001000: 462691 538355 558746 537210 504422
0110010011100000100001000: 462691 538355 558746 530790 504422
0110010011100000100001000: 462691 538355 558746 530790 537210
0110010011100000100001000: 462691 538355 550157 530790 504422
0110010011100100110001000: 462691 538355 550157 537210 504422
0110010011100100110001000: 462691 538355 550157 537210 530790
0110010011100000100001000: 462691 538355 531765 537210 504422
0110010011100000100001000: 462691 538355 531765 530790 504422
0110010011100000100001000: 462691 538355 531765 530790 537210
0110010010100010100000100: 462691 573410 467288 512967 537210
0110010010100010100000100: 462691 573410 467288 512967 482505
0110010011100000100001000: 462691 573410 467288 582323 512967
0110010010100010100000100: 462691 573410 467288 582323 537210
0110010010100010100000100: 462691 573410 467288 582323 482505
0110010010100010100000100: 462691 573410 538355 512967 504422
0110010010100010100000100: 462691 573410 538355 512967 537210
0110010010100010100000100: 462691 573410 538355 512967 530790
0110010011100000100001000: 462691 573410 538355 582323 512967
0110010010100010100000100: 462691 573410 538355 582323 504422
0110010010100010100000100: 462691 573410 538355 582323 537210
0110010010100010100000100: 462691 573410 538355 582323 530790
0110010011100000100001000: 462691 573410 486447 582323 512967
0110010011100000100001000: 462691 573410 558746 582323 512967
0110010011100000100001000: 462691 573410 550157 582323 512967
0110010011100000100001000: 462691 573410 531765 582323 512967
0111010100110001000100010: 462691 486447 467288 538355 504422
0111010100110001000100010: 462691 486447 467288 538355 530790
0111110100110001000010000: 462691 486447 467288 573410 538355
0111010100110001000100010: 462691 486447 467288 573410 512967
0111010100110001000100010: 462691 486447 467288 573410 582323
0111010110110011100000100: 462691 486447 467288 531765 537210
0111010110110011100000100: 462691 486447 467288 531765 482505
0111110110110001100010000: 462691 486447 550157 467288 538355
0111110110110001100010000: 462691 486447 550157 467288 573410
0111010110110011100100110: 462691 486447 550157 467288 537210
0111010110110011100100110: 462691 486447 550157 467288 482505
0111110110110001100010000: 462691 486447 531765 467288 538355
0111110110110001100010000: 462691 486447 531765 467288 573410
0111010110110011100000100: 462691 486447 531765 467288 575302
0111110111110101110011000: 462691 486447 531765 550157 467288
0110010010100010100000100: 462691 558746 538355 644833 504422
0110010010100010100000100: 462691 558746 538355 644833 537210
0110010010100010100000100: 462691 558746 538355 644833 530790
0110010010100010100000100: 462691 558746 573410 644833 512967
0110010010100010100000100: 462691 558746 573410 644833 582323
0111110000100001000010000: 462691 558746 486447 573410 538355
0111010101110001000001000: 462691 558746 467288 538355 644833
0111010100110001000100010: 462691 558746 467288 538355 504422
0111010100110001000100010: 462691 558746 467288 538355 530790
0111110100110001000010000: 462691 558746 467288 573410 538355
0111010101110001000001000: 462691 558746 467288 573410 644833
0111010100110001000100010: 462691 558746 467288 573410 512967
0111010100110001000100010: 462691 558746 467288 573410 582323
0111010110110011100000100: 462691 558746 467288 531765 537210
0111010110110011100000100: 462691 558746 467288 531765 482505
0111010101110001000001000: 462691 558746 550157 538355 644833
0111010101110001000001000: 462691 558746 550157 573410 644833
0111110110110001100010000: 462691 558746 550157 467288 538355
0111110110110001100010000: 462691 558746 550157 467288 573410
0111010110110011100100110: 462691 558746 550157 467288 537210
0111010110110011100100110: 462691 558746 550157 467288 482505
0111010101110001000001000: 462691 558746 531765 538355 644833
0111010101110001000001000: 462691 558746 531765 573410 644833
0111110110110001100010000: 462691 558746 531765 467288 538355
0111110110110001100010000: 462691 558746 531765 467288 573410
0111010110110011100000100: 462691 558746 531765 467288 575302
0111110111110101110011000: 462691 558746 531765 550157 467288
0110010011100110110001100: 462691 550157 467288 482505 537210
0110010010100010100000100: 462691 550157 538355 482505 530790
0110010011100100110001000: 462691 550157 538355 537210 482505
0111110000100001000010000: 462691 550157 573410 538355 467288
0110010010100010100000100: 462691 550157 573410 537210 512967
0110010010100010100000100: 462691 550157 573410 537210 582323
0110010011100000100001000: 462691 550157 573410 482505 537210
0110010010100010100000100: 462691 550157 573410 482505 512967
0110010010100010100000100: 462691 550157 573410 482505 582323
0111010100110001000100010: 462691 550157 486447 538355 504422
0111010100110001000100010: 462691 550157 486447 538355 530790
0111110100110001000010000: 462691 550157 486447 573410 538355
0111010100110001000100010: 462691 550157 486447 573410 512967
0111010100110001000100010: 462691 550157 486447 573410 582323
0111010100110001000100010: 462691 550157 558746 538355 504422
0111010100110001000100010: 462691 550157 558746 538355 530790
0111110100110001000010000: 462691 550157 558746 573410 538355
0111010100110001000100010: 462691 550157 558746 573410 512967
0111010100110001000100010: 462691 550157 558746 573410 582323
0111110110110001100010000: 462691 550157 558746 486447 538355
0111110110110001100010000: 462691 550157 558746 486447 573410
0111110110110011100110110: 462691 550157 558746 486447 467288
0110010010100010100000100: 462691 531765 467288 575302 537210
0110010010100010100000100: 462691 531765 467288 575302 482505
0110010010100010100000100: 462691 531765 538355 575302 504422
0110010010100010100000100: 462691 531765 538355 575302 537210
0110010010100010100000100: 462691 531765 538355 575302 530790
0111110000100001000010000: 462691 531765 573410 538355 467288
0110010010100010100000100: 462691 531765 573410 575302 512967
0110010010100010100000100: 462691 531765 573410 575302 582323
0111010100110001000100010: 462691 531765 486447 538355 504422
0111010100110001000100010: 462691 531765 486447 538355 537210
0111010100110001000100010: 462691 531765 486447 538355 530790
0111110100110001000010000: 462691 531765 486447 573410 538355
0111010100110001000100010: 462691 531765 486447 573410 512967
0111010100110001000100010: 462691 531765 486447 573410 582323
0111010100110001000100010: 462691 531765 558746 538355 504422
0111010100110001000100010: 462691 531765 558746 538355 537210
0111010100110001000100010: 462691 531765 558746 538355 530790
0111110100110001000010000: 462691 531765 558746 573410 538355
0111010100110001000100010: 462691 531765 558746 573410 512967
0111010100110001000100010: 462691 531765 558746 573410 582323
0111110110110001100010000: 462691 531765 558746 486447 538355
0111110110110001100010000: 462691 531765 558746 486447 573410
0111110110110011100110110: 462691 531765 558746 486447 467288
0111110100110001000010000: 462691 531765 550157 538355 467288
0111010100110001000100010: 462691 531765 550157 538355 504422
0111010100110001000100010: 462691 531765 550157 538355 530790
0111110100110001000010000: 462691 531765 550157 573410 467288
0111110100110001000010000: 462691 531765 550157 573410 538355
0111010100110001000100010: 462691 531765 550157 573410 512967
0111010100110001000100010: 462691 531765 550157 573410 582323
0111110110110101110010000: 462691 531765 550157 486447 538355
0111110110110101110010000: 462691 531765 550157 486447 573410
0111110110110101110010000: 462691 531765 550157 558746 538355
0111110110110101110010000: 462691 531765 550157 558746 573410
0110010010100010100000100: 558746 467288 644833 537210 463408
0110010011100000100001000: 558746 467288 644833 482505 537210
0110010010100010100000100: 558746 467288 644833 482505 463408
0110010011100000100001000: 558746 467288 644833 486447 537210
0110010011100000100001000: 558746 467288 644833 486447 482505
0110010010100010100000100: 558746 467288 644833 486447 463408
0110010011100000100001000: 558746 467288 531765 482505 537210
0110010011100100110001000: 558746 467288 531765 486447 537210
0110010011100100110001000: 558746 467288 531765 486447 482505
0111010101110001000001000: 558746 467288 462691 644833 537210
0111010101110001000001000: 558746 467288 462691 644833 482505
0110010010100010100000100: 558746 462691 644833 538355 463408
0110010011100000100001000: 558746 462691 644833 573410 538355
0110010010100010100000100: 558746 462691 644833 573410 463408
0110010011100000100001000: 558746 462691 644833 486447 538355
0110010011100000100001000: 558746 462691 644833 486447 573410
0110010010100010100000100: 558746 462691 644833 486447 463408
0111010100110001000100010: 558746 462691 467288 644833 463408
0111110110110001100010000: 558746 462691 550157 467288 644833
0111110110110001100010000: 558746 462691 531765 467288 644833
0110010010100010100000100: 558746 550157 644833 537210 463408
0110010011100000100001000: 558746 550157 644833 482505 537210
0110010010100010100000100: 558746 550157 644833 482505 463408
0110010011100000100001000: 558746 550157 644833 486447 537210
0110010011100000100001000: 558746 550157 644833 486447 482505
0110010010100010100000100: 558746 550157 644833 486447 463408
0110010011100110110001100: 558746 550157 467288 482505 537210
0110010011100110110001100: 558746 550157 467288 486447 537210
0110010011100110110001100: 558746 550157 467288 486447 482505
0111010100110001000100010: 558746 550157 462691 644833 463408
0110010010100010100000100: 558746 531765 644833 575302 463408
0110010011100000100001000: 558746 531765 644833 486447 575302
0110010010100010100000100: 558746 531765 644833 486447 463408
0110010010100010100000100: 558746 531765 467288 575302 537210
0110010010100010100000100: 558746 531765 467288 575302 482505
0110010011100100110001000: 558746 531765 467288 486447 575302
0111010100110001000100010: 558746 531765 462691 644833 463408
0111010100110001000100010: 558746 531765 550157 644833 463408
0111110100110001000010000: 558746 531765 550157 467288 644833
0111110110110101110010000: 558746 531765 550157 462691 644833
0110010010100010100000100: 587134 530790 484896 538355 582323
0110010011100000100001000: 530790 538355 587134 537210 504422
0110010011100000100001000: 530790 538355 587134 462691 504422
0110010011100000100001000: 530790 538355 587134 462691 537210
0110010010100010100000100: 530790 587134 538355 484896 504422
0110010010100010100000100: 530790 587134 538355 484896 537210
0110010010100010100000100: 530790 587134 538355 484896 462691
0110010011100000100001000: 486447 467288 531765 482505 537210
0110010011100110110001100: 486447 550157 467288 482505 537210
0110010010100010100000100: 486447 531765 467288 575302 537210
0110010010100010100000100: 486447 531765 467288 575302 482505
0110010010100010100000100: 463408 550854 644833 575302 558746
0110010010100010100000100: 550854 463408 575302 644833 531765
0110010011100000100001000: 582323 573410 484896 462691 512967
0110010010100010100000100: 582323 484896 573410 587134 512967
0110010010100010100000100: 582323 484896 573410 587134 462691
0110010010100010100000100: 484896 587134 582323 530790 573410
0110010011100000100001000: 573410 462691 512967 538355 467288
0110010011100000100001000: 573410 462691 512967 486447 538355
0110010011100000100001000: 573410 462691 512967 558746 538355
0110010011100000100001000: 573410 462691 512967 558746 486447
0110010011100000100001000: 573410 462691 512967 550157 467288
0110010011100000100001000: 573410 462691 512967 550157 538355
0110010011100000100001000: 573410 462691 512967 531765 467288
0110010011100000100001000: 573410 462691 512967 531765 538355
0110010010100010100000100: 573410 462691 582323 467288 484896
0110010011100000100001000: 573410 462691 582323 538355 467288
0110010010100010100000100: 573410 462691 582323 538355 484896
0110010011100000100001000: 573410 462691 582323 486447 538355
0110010010100010100000100: 573410 462691 582323 486447 484896
0110010011100000100001000: 573410 462691 582323 558746 538355
0110010011100000100001000: 573410 462691 582323 558746 486447
0110010010100010100000100: 573410 462691 582323 558746 484896
0110010011100000100001000: 573410 462691 582323 550157 467288
0110010011100000100001000: 573410 462691 582323 550157 538355
0110010010100010100000100: 573410 462691 582323 550157 484896
0110010011100000100001000: 573410 462691 582323 531765 467288
0110010011100000100001000: 573410 462691 582323 531765 538355
0110010010100010100000100: 573410 462691 582323 531765 484896
0110010010100010100100110: 538355 537210 504422 467288 482505
0110010011100000100001000: 538355 537210 504422 550157 467288
0110010011100000100001000: 538355 537210 530790 550157 467288
0110010010100010100000100: 538355 530790 504422 587134 482505
0110010010100010100000100: 538355 530790 537210 587134 467288
0110010010100010100000100: 538355 530790 537210 587134 550157
0110010011100000100001000: 538355 462691 504422 573410 467288
0110010010100010100000100: 538355 462691 504422 573410 482505
0110010011100000100001000: 538355 462691 504422 486447 573410
0110010010100010100000100: 538355 462691 504422 486447 482505
0110010011100000100001000: 538355 462691 504422 558746 573410
0110010011100000100001000: 538355 462691 504422 558746 486447
0110010010100010100000100: 538355 462691 504422 558746 482505
0110010011100000100001000: 538355 462691 504422 550157 467288
0110010011100000100001000: 538355 462691 504422 550157 573410
0110010011100000100001000: 538355 462691 504422 531765 467288
0110010011100000100001000: 538355 462691 504422 531765 573410
0110010010100010100000100: 538355 462691 504422 531765 482505
0110010011100000100001000: 538355 462691 537210 486447 573410
0110010011100000100001000: 538355 462691 537210 558746 573410
0110010011100000100001000: 538355 462691 537210 558746 486447
0110010011100000100001000: 538355 462691 537210 531765 573410
0110010011100100110001000: 538355 462691 537210 467288 573410
0110010011100100110001000: 538355 462691 537210 467288 531765
0111110000100001000010000: 538355 462691 530790 537210 504422
0110010010100010100000100: 538355 462691 530790 467288 587134
0110010011100000100001000: 538355 462691 530790 573410 467288
0110010010100010100000100: 538355 462691 530790 573410 587134
0110010011100000100001000: 538355 462691 530790 486447 573410
0110010010100010100000100: 538355 462691 530790 486447 587134
0110010011100000100001000: 538355 462691 530790 558746 573410
0110010011100000100001000: 538355 462691 530790 558746 486447
0110010010100010100000100: 538355 462691 530790 558746 587134
0110010011100000100001000: 538355 462691 530790 550157 467288
0110010011100000100001000: 538355 462691 530790 550157 573410
0110010010100010100000100: 538355 462691 530790 550157 587134
0110010011100000100001000: 538355 462691 530790 531765 467288
0110010011100000100001000: 538355 462691 530790 531765 573410
0110010010100010100000100: 538355 462691 530790 531765 587134
0110010011100000100001000: 482505 467288 504422 486447 537210
0110010010100010100000100: 482505 467288 504422 486447 538355
0110010011100000100001000: 482505 467288 504422 558746 537210
0110010011100000100001000: 482505 467288 504422 558746 486447
0110010010100010100000100: 482505 467288 504422 558746 538355
0110010011100000100001000: 482505 467288 504422 462691 537210
0110010011100000100001000: 482505 550157 504422 486447 537210
0110010010100010100000100: 482505 550157 504422 486447 538355
0110010011100000100001000: 482505 550157 504422 558746 537210
0110010011100000100001000: 482505 550157 504422 558746 486447
0110010010100010100000100: 482505 550157 504422 558746 538355
0110010011100000100001000: 482505 550157 504422 462691 537210
0110010011100000100001000: 482505 550157 504422 531765 537210
0110010010100010100000100: 482505 550157 504422 531765 538355
0110010011100100110001000: 482505 550157 467288 537210 531765
0110010010100010100000100: 467288 486447 537210 531765 538355
0110010010100010100000100: 467288 486447 482505 531765 504422
0110010010100010100000100: 467288 558746 537210 644833 538355
0110010011100000100001000: 467288 558746 537210 531765 644833
0110010010100010100000100: 467288 558746 537210 531765 538355
0110010010100010100000100: 467288 558746 482505 644833 504422
0110010011100000100001000: 467288 558746 482505 531765 644833
0110010010100010100000100: 467288 558746 482505 531765 504422
0111110000100001000010000: 467288 558746 486447 482505 537210
0110010011100000100001000: 467288 462691 537210 531765 573410
0110010011100000100001000: 467288 462691 482505 573410 538355
0110010010100010100000100: 467288 462691 482505 573410 504422
0110010011100000100001000: 467288 462691 482505 531765 538355
0110010011100000100001000: 467288 462691 482505 531765 573410
0110010010100010100000100: 467288 462691 482505 531765 504422
0111110100110001000010000: 467288 462691 486447 482505 537210
0111010100110001000100010: 467288 462691 486447 482505 504422
0111110100110001000010000: 467288 462691 558746 482505 537210
0111010100110001000100010: 467288 462691 558746 482505 504422
0111110110110001100010000: 467288 462691 558746 486447 537210
0111110110110001100010000: 467288 462691 558746 486447 482505
0110010010100010100000100: 575302 531765 550854 486447 463408
0110010011100000100001000: 575302 531765 550854 558746 486447
0110010010100010100000100: 575302 531765 550854 558746 463408
0110010010100010100000100: 575302 531765 550854 462691 463408
0110010010100010100000100: 575302 531765 550854 550157 463408
0110010011100000100001000: 537210 467288 538355 486447 482505
0110010011100000100001000: 537210 467288 538355 558746 482505
0110010011100000100001000: 537210 467288 538355 558746 486447
0110010010100010100000100: 537210 538355 467288 504422 486447
0110010010100010100000100: 537210 538355 467288 504422 558746
0110010011100000100001000: 537210 538355 467288 530790 504422
0110010010100010100000100: 537210 538355 467288 530790 482505
0110010010100010100000100: 537210 538355 467288 530790 486447
0110010010100010100000100: 537210 538355 467288 530790 558746
0110010011100000100001000: 537210 538355 550157 530790 504422
0110010010100010100000100: 537210 550157 538355 482505 530790
0110010011100000100001000: 537210 550157 538355 486447 482505
0110010010100010100000100: 537210 550157 538355 486447 504422
0110010010100010100000100: 537210 550157 538355 486447 530790
0110010011100000100001000: 537210 550157 538355 558746 482505
0110010011100000100001000: 537210 550157 538355 558746 486447
0110010010100010100000100: 537210 550157 538355 558746 504422
0110010010100010100000100: 537210 550157 538355 558746 530790
0110010011100000100001000: 537210 550157 538355 531765 482505
0110010010100010100000100: 537210 550157 538355 531765 504422
0110010010100010100000100: 537210 550157 538355 531765 530790
0110010011100000100001000: 504422 482505 538355 550157 467288
0110010011100000100001000: 504422 538355 482505 530790 537210
0110010010100010100000100: 504422 538355 482505 530790 467288
0110010010100010100000100: 504422 538355 482505 530790 550157
0110010011100000100001000: 504422 538355 482505 462691 537210
0110010011100000100001000: 504422 538355 482505 462691 530790
0110010010100010100000100: 644833 558746 463408 467288 550854
0110010010100010100000100: 644833 558746 463408 462691 550854
0110010011100000100001000: 644833 558746 463408 550157 467288
0110010010100010100000100: 644833 558746 463408 550157 550854
0110010011100000100001000: 644833 558746 463408 531765 467288
0110010010100010100000100: 644833 558746 463408 531765 550854
