Vertex,0100101001010010,0110101011010010,0110101111000100,0101101001001000,0111100010001000,0111100010011010,0100101101010110,0100101101000100,0111101011001000,0101101101011110,0111101111001100,0111100110001100,0101101001011010,0111100110011110,0101101101001100,0110100110010110,0111101011011010,0110100010010010,0110101111010110,0111101111011110,0110100110000100
470320,38.0,99.0,144.0,88.0,124.0,63.0,4.0,8.0,318.0,9.0,144.0,94.0,14.0,9.0,22.0,35.0,126.0,161.0,129.0,310.0,300.0
502056,36.0,46.0,50.0,36.0,15.0,10.0,0.0,2.0,91.0,0.0,0.0,34.0,0.0,0.0,16.0,0.0,0.0,87.0,0.0,0.0,130.0
550353,42.0,0.0,0.0,24.0,24.0,0.0,0.0,4.0,0.0,0.0,0.0,0.0,0.0,0.0,0.0,0.0,0.0,79.0,0.0,0.0,94.0
495106,30.0,72.0,116.0,68.0,124.0,57.0,4.0,6.0,261.0,12.0,144.0,73.0,24.0,10.0,16.0,72.0,135.0,108.0,136.0,155.0,216.0
501829,50.0,165.0,250.0,81.0,155.0,98.0,2.0,8.0,553.0,11.0,234.0,169.0,24.0,12.0,42.0,72.0,193.0,186.0,179.0,465.0,305.0
638166,26.0,162.0,253.0,78.0,141.0,107.0,4.0,4.0,568.0,9.0,162.0,172.0,10.0,11.0,40.0,37.0,140.0,150.0,132.0,465.0,285.0
494226,56.0,230.0,342.0,151.0,325.0,130.0,2.0,16.0,744.0,25.0,342.0,209.0,37.0,18.0,56.0,105.0,297.0,285.0,281.0,620.0,521.0
457105,68.0,107.0,154.0,102.0,139.0,74.0,4.0,10.0,332.0,10.0,126.0,99.0,55.0,7.0,26.0,142.0,115.0,205.0,112.0,155.0,335.0
552290,43.0,90.0,135.0,88.0,127.0,64.0,2.0,6.0,297.0,2.0,72.0,84.0,16.0,2.0,20.0,35.0,55.0,161.0,47.0,155.0,295.0
525923,71.0,163.0,267.0,155.0,327.0,133.0,6.0,18.0,605.0,19.0,216.0,174.0,20.0,13.0,38.0,70.0,189.0,299.0,183.0,155.0,560.0
610220,2.0,36.0,53.0,22.0,45.0,14.0,0.0,4.0,115.0,0.0,0.0,41.0,0.0,0.0,12.0,0.0,0.0,37.0,0.0,0.0,93.0
631506,42.0,36.0,60.0,80.0,201.0,32.0,0.0,8.0,141.0,0.0,0.0,34.0,37.0,0.0,4.0,105.0,0.0,153.0,0.0,0.0,289.0
551737,17.0,66.0,114.0,58.0,151.0,56.0,0.0,2.0,269.0,9.0,108.0,64.0,11.0,6.0,8.0,35.0,90.0,112.0,81.0,0.0,223.0
549840,61.0,36.0,36.0,65.0,62.0,6.0,0.0,8.0,63.0,0.0,0.0,24.0,16.0,0.0,12.0,35.0,0.0,147.0,0.0,0.0,218.0
573380,113.0,27.0,33.0,105.0,159.0,8.0,0.0,18.0,61.0,0.0,0.0,23.0,31.0,0.0,10.0,70.0,0.0,237.0,0.0,0.0,371.0
475216,18.0,34.0,50.0,68.0,159.0,24.0,0.0,12.0,109.0,4.0,36.0,32.0,22.0,2.0,8.0,70.0,30.0,131.0,27.0,0.0,258.0
646377,12.0,33.0,59.0,46.0,85.0,38.0,2.0,6.0,137.0,5.0,54.0,38.0,0.0,4.0,6.0,0.0,48.0,88.0,44.0,0.0,190.0
525603,27.0,23.0,37.0,45.0,157.0,14.0,0.0,8.0,82.0,0.0,0.0,23.0,9.0,0.0,6.0,35.0,0.0,87.0,0.0,0.0,164.0
598107,24.0,34.0,58.0,44.0,118.0,36.0,2.0,6.0,133.0,1.0,18.0,39.0,9.0,2.0,8.0,35.0,18.0,97.0,17.0,0.0,193.0
655087,60.0,5.0,9.0,56.0,62.0,8.0,0.0,6.0,21.0,0.0,0.0,10.0,9.0,0.0,2.0,35.0,0.0,134.0,0.0,0.0,224.0
graph,209.0,366.0,555.0,365.0,675.0,243.0,8.0,40.0,1225.0,29.0,414.0,359.0,86.0,24.0,88.0,247.0,359.0,736.0,342.0,620.0,1316.0
