0110010011100000100001000: 527122 586090 509824 574813 587264
0111010101110001000001000: 527122 586090 634257 509824 587264
0111010101110001000001000: 527122 586090 634257 509824 574813
0110010010100010100000100: 527122 509824 586090 461725 587264
0110010010100010100000100: 527122 509824 586090 461725 574813
0110010010100010100000100: 527122 634257 509824 607789 461725
0110010011100000100001000: 527122 634257 509824 471475 607789
0110010010100010100000100: 527122 634257 509824 471475 461725
0111010101110001000001000: 527122 634257 586090 509824 607789
0111010101110001000001000: 527122 634257 586090 509824 471475
0111010100110001000100010: 527122 634257 586090 509824 461725
0110010010100010100000100: 634257 586090 607789 587264 623721
0110010011100000100001000: 634257 586090 607789 574813 587264
0110010010100010100000100: 634257 586090 607789 574813 623721
0110010011100100110001000: 634257 586090 471475 587264 574813
0111010101110001000001000: 634257 586090 527122 607789 587264
0111010101110001000001000: 634257 586090 527122 607789 574813
0111010101110001000001000: 634257 586090 527122 471475 574813
0111010101110001000101010: 634257 586090 527122 471475 587264
0110010010100010100000100: 634257 471475 607789 649341 623721
0110010011100000100001000: 634257 471475 607789 587264 649341
0110010010100010100000100: 634257 471475 607789 587264 623721
0110010011100000100001000: 634257 471475 607789 514595 649341
0110010011100000100001000: 634257 471475 607789 514595 587264
0110010010100010100000100: 634257 471475 607789 514595 623721
0110010010100010100000100: 634257 471475 586090 649341 574813
0110010011100000100001000: 634257 471475 586090 514595 649341
0110010010100010100000100: 634257 471475 586090 514595 574813
0110010011100100110001000: 634257 471475 586090 587264 649341
0110010011100100110001000: 634257 471475 586090 587264 514595
0110010011100000100001000: 634257 471475 527122 587264 649341
0110010011100000100001000: 634257 471475 527122 514595 649341
0110010011100000100001000: 634257 471475 527122 514595 587264
0110010010100010100000100: 634257 527122 607789 509824 623721
0110010010100010100000100: 634257 527122 471475 509824 649341
0110010010100010100000100: 634257 527122 471475 509824 587264
0110010010100010100000100: 634257 527122 471475 509824 514595
0111010100110001000100010: 634257 527122 586090 607789 623721
0111110100110001000010000: 634257 527122 586090 471475 607789
0111010100110001000100010: 634257 527122 586090 471475 649341
0111010100110001000100010: 634257 527122 586090 471475 514595
0110010010100010100000100: 471475 587264 649341 586090 564291
0110010011100000100001000: 471475 587264 649341 554364 586090
0110010010100010100000100: 471475 587264 649341 554364 564291
0110010011100000100001000: 471475 587264 514595 554364 586090
0110010011100100110001000: 471475 587264 634257 586090 554364
0110010010100010100000100: 471475 514595 649341 463639 564291
0110010010100010100000100: 471475 514595 587264 463639 586090
0110010010100010100000100: 471475 514595 587264 463639 554364
0110010010100010100000100: 471475 634257 649341 607789 564291
0110010011100000100001000: 471475 634257 649341 586090 607789
0110010010100010100000100: 471475 634257 649341 586090 564291
0110010011100000100001000: 471475 634257 649341 527122 607789
0110010010100010100000100: 471475 634257 649341 527122 564291
0110010010100010100000100: 471475 634257 587264 607789 554364
0110010011100000100001000: 471475 634257 587264 527122 607789
0110010010100010100000100: 471475 634257 587264 527122 554364
0110010011100100110001000: 471475 634257 587264 586090 607789
0111110000100001000010000: 471475 634257 514595 587264 649341
0110010010100010100000100: 471475 634257 514595 607789 463639
0110010011100000100001000: 471475 634257 514595 586090 607789
0110010010100010100000100: 471475 634257 514595 586090 463639
0110010011100000100001000: 471475 634257 514595 527122 607789
0110010010100010100000100: 471475 634257 514595 527122 463639
0110010010100010100000100: 514595 471475 463639 649341 509441
0110010011100000100001000: 514595 471475 463639 587264 649341
0110010010100010100000100: 514595 471475 463639 587264 509441
0110010011100000100001000: 514595 471475 463639 634257 649341
0110010011100000100001000: 514595 471475 463639 634257 587264
0110010010100010100000100: 514595 471475 463639 634257 509441
0110010010100010100000100: 461725 554364 623721 587264 607789
0110010010100010100000100: 461725 509824 623721 527122 607789
0110010010100010100000100: 461725 509824 554364 527122 587264
0110010011100000100001000: 509824 461725 527122 554364 623721
0110010010100010100000100: 509824 527122 461725 586090 623721
0110010010100010100000100: 509824 527122 461725 586090 554364
0110010010100010100000100: 509824 527122 461725 634257 623721
0110010010100010100000100: 509824 527122 461725 634257 554364
0110010010100010100000100: 496293 574813 509441 586090 463639
0110010011100000100001000: 574813 586090 496293 634257 587264
0110010011100000100001000: 574813 586090 496293 527122 587264
0110010010100010100000100: 574813 496293 586090 509441 587264
0110010010100010100000100: 574813 496293 586090 509441 634257
0110010010100010100000100: 574813 496293 586090 509441 527122
0110010011100000100001000: 554364 587264 461725 471475 586090
0110010010100010100000100: 554364 461725 587264 623721 586090
0110010010100010100000100: 554364 461725 587264 623721 471475
0110010011100000100001000: 554364 461725 587264 509824 623721
0110010010100010100000100: 554364 461725 587264 509824 586090
0110010010100010100000100: 554364 461725 587264 509824 471475
0110010010100010100000100: 623721 461725 607789 554364 634257
0110010011100000100001000: 623721 461725 607789 509824 554364
0110010010100010100000100: 623721 461725 607789 509824 634257
0110010010100010100000100: 463639 514595 509441 471475 496293
0110010010100010100000100: 509441 496293 463639 574813 514595
0110010011100000100001000: 587264 586090 554364 634257 574813
0110010011100000100001000: 587264 586090 554364 527122 574813
0110010011100000100001000: 587264 586090 471475 527122 574813
0110010010100010100000100: 587264 554364 586090 461725 574813
0110010010100010100000100: 587264 554364 586090 461725 634257
0110010010100010100000100: 587264 554364 586090 461725 527122
0110010010100010100000100: 587264 471475 586090 649341 574813
0110010010100010100000100: 587264 471475 586090 649341 527122
0110010011100000100001000: 587264 471475 586090 514595 649341
0110010010100010100000100: 587264 471475 586090 514595 574813
0110010010100010100000100: 587264 471475 586090 514595 527122
0110010010100010100000100: 587264 471475 554364 649341 461725
0110010011100000100001000: 587264 471475 554364 514595 649341
0110010010100010100000100: 587264 471475 554364 514595 461725
0110010011100000100001000: 587264 471475 554364 634257 649341
0110010011100000100001000: 587264 471475 554364 634257 514595
0110010010100010100000100: 587264 471475 554364 634257 461725
0110010011100000100001000: 586090 587264 574813 471475 554364
0110010011100000100001000: 586090 587264 527122 471475 554364
0110010010100010100000100: 586090 574813 587264 496293 554364
0110010010100010100000100: 586090 574813 587264 496293 471475
0110010010100010100000100: 586090 634257 587264 607789 554364
0110010010100010100000100: 586090 634257 574813 607789 496293
0110010011100000100001000: 586090 634257 574813 471475 607789
0110010010100010100000100: 586090 634257 574813 471475 496293
0110010010100010100000100: 586090 527122 587264 509824 554364
0110010010100010100000100: 586090 527122 587264 509824 471475
0110010010100010100000100: 586090 527122 574813 509824 496293
0111010100110001000100010: 586090 527122 634257 587264 554364
0111110100110001000010000: 586090 527122 634257 574813 587264
0111010100110001000100010: 586090 527122 634257 574813 496293
0110010010100010100000100: 649341 471475 564291 587264 599470
0110010011100000100001000: 649341 471475 564291 514595 587264
0110010010100010100000100: 649341 471475 564291 514595 599470
0110010011100000100001000: 649341 471475 564291 634257 587264
0110010011100000100001000: 649341 471475 564291 634257 514595
0110010010100010100000100: 649341 471475 564291 634257 599470
0110010010100010100000100: 607789 634257 623721 586090 461725
0110010011100000100001000: 607789 634257 623721 471475 586090
0110010010100010100000100: 607789 634257 623721 471475 461725
0110010011100000100001000: 607789 634257 623721 527122 471475
0110010010100010100000100: 607789 634257 623721 527122 461725
