Vertex,0111010101110001000001000,0111110100110001000110010,0111110000100001000010000,0110010010100010100100110,0110010010100010100000100,0110010011100000100001000,0111010101110001000101010,0111010110110011100100110,0111010100110001000100010,0111110110110011100010100,0111110110110011100110110,0111010110110011100000100,0111110100110001000010000,0111110110110001100010000,0111110111110001100011000,0110010011100100110001000,0110010011100110110001100
482310,125.0,3.0,57.0,4.0,158.0,344.0,15.0,6.0,47.0,9.0,1.0,23.0,77.0,37.0,0.0,72.0,2.0
617770,67.0,4.0,16.0,2.0,90.0,131.0,13.0,3.0,36.0,5.0,0.0,12.0,40.0,17.0,0.0,41.0,2.0
656250,22.0,0.0,30.0,0.0,41.0,128.0,0.0,0.0,6.0,0.0,0.0,3.0,22.0,4.0,0.0,9.0,0.0
491958,27.0,1.0,3.0,0.0,37.0,79.0,3.0,0.0,10.0,2.0,0.0,8.0,9.0,5.0,0.0,5.0,0.0
508485,0.0,0.0,0.0,0.0,35.0,24.0,0.0,0.0,5.0,0.0,0.0,0.0,0.0,0.0,0.0,0.0,0.0
463769,34.0,0.0,19.0,1.0,36.0,90.0,4.0,1.0,3.0,0.0,0.0,1.0,18.0,8.0,0.0,24.0,2.0
561554,34.0,0.0,19.0,1.0,36.0,90.0,4.0,1.0,3.0,0.0,0.0,1.0,18.0,8.0,0.0,24.0,2.0
587163,81.0,2.0,39.0,2.0,120.0,206.0,16.0,5.0,39.0,8.0,1.0,26.0,51.0,38.0,1.0,67.0,2.0
573329,34.0,2.0,22.0,0.0,99.0,138.0,5.0,1.0,21.0,2.0,0.0,8.0,25.0,7.0,0.0,31.0,0.0
641378,47.0,3.0,24.0,1.0,60.0,103.0,9.0,2.0,26.0,4.0,1.0,17.0,38.0,25.0,1.0,21.0,1.0
469563,23.0,0.0,30.0,3.0,76.0,147.0,4.0,0.0,8.0,0.0,0.0,5.0,22.0,4.0,0.0,25.0,0.0
501770,22.0,0.0,30.0,1.0,39.0,128.0,0.0,0.0,6.0,0.0,0.0,3.0,22.0,4.0,0.0,9.0,0.0
464548,59.0,2.0,25.0,3.0,83.0,129.0,8.0,3.0,19.0,2.0,0.0,2.0,30.0,12.0,0.0,33.0,1.0
487615,79.0,2.0,29.0,2.0,84.0,162.0,10.0,4.0,28.0,7.0,1.0,23.0,42.0,37.0,1.0,32.0,2.0
603208,9.0,0.0,0.0,0.0,44.0,39.0,0.0,0.0,8.0,0.0,0.0,1.0,1.0,0.0,0.0,4.0,0.0
623344,23.0,0.0,1.0,1.0,41.0,63.0,0.0,0.0,5.0,0.0,0.0,4.0,6.0,3.0,0.0,5.0,0.0
581691,46.0,1.0,6.0,5.0,91.0,107.0,12.0,3.0,26.0,4.0,1.0,18.0,17.0,21.0,1.0,37.0,1.0
634302,25.0,0.0,16.0,0.0,78.0,105.0,2.0,1.0,12.0,0.0,0.0,1.0,14.0,6.0,0.0,25.0,0.0
573917,17.0,0.0,14.0,3.0,74.0,105.0,4.0,0.0,20.0,2.0,0.0,8.0,12.0,9.0,1.0,21.0,0.0
615102,6.0,0.0,0.0,0.0,85.0,53.0,1.0,0.0,10.0,0.0,0.0,1.0,1.0,0.0,0.0,12.0,0.0
582595,0.0,0.0,0.0,1.0,45.0,29.0,0.0,0.0,9.0,0.0,0.0,0.0,0.0,0.0,0.0,0.0,0.0
457500,0.0,0.0,0.0,0.0,35.0,7.0,0.0,0.0,1.0,0.0,0.0,0.0,0.0,0.0,0.0,1.0,0.0
509700,0.0,0.0,0.0,0.0,37.0,25.0,0.0,0.0,6.0,0.0,0.0,0.0,0.0,0.0,0.0,2.0,0.0
466007,0.0,0.0,0.0,0.0,31.0,3.0,0.0,0.0,1.0,0.0,0.0,0.0,0.0,0.0,0.0,0.0,0.0
graph,156.0,4.0,76.0,6.0,311.0,487.0,22.0,6.0,71.0,9.0,1.0,33.0,93.0,49.0,1.0,100.0,3.0
