0110010011100000100001000: 649502 604644 591522 462563 629079
0110010011100000100001000: 649502 604644 614258 462563 629079
0110010010100010100000100: 649502 591522 604644 601617 629079
0110010010100010100000100: 649502 591522 604644 601617 462563
0110010011100000100001000: 649502 591522 604644 605385 601617
0110010010100010100000100: 649502 591522 604644 605385 629079
0110010010100010100100110: 649502 591522 604644 605385 462563
0110010011100000100001000: 649502 591522 604644 609982 601617
0110010011100000100001000: 649502 591522 604644 609982 605385
0110010010100010100000100: 649502 591522 604644 609982 629079
0110010010100010100000100: 649502 591522 604644 609982 462563
0110010011100000100001000: 649502 591522 604644 484610 601617
0110010011100000100001000: 649502 591522 604644 484610 605385
0110010011100000100001000: 649502 591522 604644 484610 609982
0110010010100010100000100: 649502 591522 604644 484610 629079
0110010010100010100000100: 649502 591522 604644 484610 462563
0110010011100000100001000: 649502 591522 604644 473955 601617
0110010011100000100001000: 649502 591522 604644 473955 605385
0110010011100000100001000: 649502 591522 604644 473955 609982
0110010011100000100001000: 649502 591522 604644 473955 484610
0110010010100010100000100: 649502 591522 604644 473955 629079
0110010010100010100000100: 649502 591522 604644 473955 462563
0110010011100000100001000: 649502 591522 604644 468613 601617
0110010011100000100001000: 649502 591522 604644 468613 605385
0110010011100000100001000: 649502 591522 604644 468613 609982
0110010011100000100001000: 649502 591522 604644 468613 484610
0110010010100010100000100: 649502 591522 604644 468613 462563
0110010010100010100100110: 649502 591522 604644 468613 629079
0110010011100000100001000: 649502 591522 614258 605385 601617
0110010011100000100001000: 649502 591522 614258 609982 601617
0110010011100000100001000: 649502 591522 614258 609982 605385
0110010011100000100001000: 649502 591522 614258 484610 601617
0110010011100000100001000: 649502 591522 614258 484610 605385
0110010011100000100001000: 649502 591522 614258 484610 609982
0110010011100000100001000: 649502 591522 614258 473955 601617
0110010011100000100001000: 649502 591522 614258 473955 605385
0110010011100000100001000: 649502 591522 614258 473955 609982
0110010011100000100001000: 649502 591522 614258 473955 484610
0110010011100000100001000: 649502 591522 614258 468613 601617
0110010011100000100001000: 649502 591522 614258 468613 605385
0110010011100000100001000: 649502 591522 614258 468613 609982
0110010011100000100001000: 649502 591522 614258 468613 484610
0110010010100010100000100: 591522 605385 601617 614285 576945
0110010011100000100001000: 591522 605385 601617 632387 614285
0110010010100010100000100: 591522 605385 601617 632387 576945
0110010011100000100001000: 591522 605385 601617 462563 632387
0110010010100010100000100: 591522 605385 601617 462563 576945
0110010011100000100001000: 591522 605385 609982 632387 614285
0110010011100000100001000: 591522 605385 609982 462563 632387
0110010011100000100001000: 591522 605385 484610 632387 614285
0110010011100000100001000: 591522 605385 484610 462563 632387
0110010011100000100001000: 591522 605385 473955 632387 614285
0110010011100000100001000: 591522 605385 473955 462563 632387
0110010011100000100001000: 591522 605385 468613 632387 614285
0110010011100000100001000: 591522 605385 468613 462563 632387
0110010011100000100001000: 591522 605385 649502 632387 614285
0110010011100000100001000: 591522 605385 649502 462563 632387
0110010010100010100000100: 591522 609982 601617 482087 576945
0110010011100000100001000: 591522 609982 601617 505258 482087
0110010010100010100000100: 591522 609982 601617 505258 576945
0110010010100010100000100: 591522 609982 605385 482087 614285
0110010010100010100000100: 591522 609982 605385 482087 632387
0110010010100010100000100: 591522 609982 605385 482087 462563
0110010011100000100001000: 591522 609982 605385 505258 482087
0110010010100010100000100: 591522 609982 605385 505258 614285
0110010010100010100000100: 591522 609982 605385 505258 632387
0110010010100010100000100: 591522 609982 605385 505258 462563
0110010011100100110001000: 591522 609982 484610 482087 505258
0110010011100000100001000: 591522 609982 473955 505258 482087
0110010011100000100001000: 591522 609982 468613 505258 482087
0110010011100000100001000: 591522 609982 649502 505258 482087
0110010010100010100000100: 591522 484610 601617 482087 576945
0110010011100000100001000: 591522 484610 601617 654337 482087
0110010010100010100000100: 591522 484610 601617 654337 576945
0110010010100010100000100: 591522 484610 605385 482087 614285
0110010010100010100000100: 591522 484610 605385 482087 632387
0110010010100010100000100: 591522 484610 605385 482087 462563
0110010011100000100001000: 591522 484610 605385 654337 482087
0110010010100010100000100: 591522 484610 605385 654337 614285
0110010010100010100000100: 591522 484610 605385 654337 632387
0110010010100010100000100: 591522 484610 605385 654337 462563
0111110000100001000010000: 591522 484610 609982 605385 601617
0110010010100010100000100: 591522 484610 609982 654337 505258
0110010011100100110001000: 591522 484610 609982 482087 654337
0110010011100000100001000: 591522 484610 473955 654337 482087
0110010011100000100001000: 591522 484610 468613 654337 482087
0110010011100000100001000: 591522 484610 649502 654337 482087
0111110000100001000010000: 591522 473955 609982 605385 601617
0111110000100001000010000: 591522 473955 484610 605385 601617
0111110000100001000010000: 591522 473955 484610 609982 601617
0111110000100001000010000: 591522 473955 484610 609982 605385
0110010010100010100000100: 591522 468613 601617 629079 576945
0110010011100000100001000: 591522 468613 601617 538196 629079
0110010010100010100000100: 591522 468613 601617 538196 576945
0110010010100010100000100: 591522 468613 605385 629079 614285
0110010010100010100000100: 591522 468613 605385 629079 632387
0110010010100010100000100: 591522 468613 605385 629079 462563
0110010011100000100001000: 591522 468613 605385 538196 629079
0110010010100010100000100: 591522 468613 605385 538196 614285
0110010010100010100000100: 591522 468613 605385 538196 632387
0110010010100010100000100: 591522 468613 605385 538196 462563
0111110000100001000010000: 591522 468613 609982 605385 601617
0110010010100010100000100: 591522 468613 609982 629079 482087
0110010010100010100000100: 591522 468613 609982 629079 505258
0110010011100000100001000: 591522 468613 609982 538196 629079
0110010010100010100000100: 591522 468613 609982 538196 482087
0110010010100010100000100: 591522 468613 609982 538196 505258
0111110000100001000010000: 591522 468613 484610 605385 601617
0111110000100001000010000: 591522 468613 484610 609982 601617
0111110000100001000010000: 591522 468613 484610 609982 605385
0110010010100010100000100: 591522 468613 484610 629079 482087
0110010010100010100000100: 591522 468613 484610 629079 654337
0110010011100000100001000: 591522 468613 484610 538196 629079
0110010010100010100000100: 591522 468613 484610 538196 482087
0110010010100010100000100: 591522 468613 484610 538196 654337
0110010011100000100001000: 591522 468613 649502 538196 629079
0111010101110001000001000: 591522 468613 473955 601617 629079
0111010101110001000001000: 591522 468613 473955 601617 538196
0111010100110001000100010: 591522 468613 473955 601617 576945
0111110100110001000010000: 591522 468613 473955 605385 601617
0111010101110001000001000: 591522 468613 473955 605385 629079
0111010101110001000001000: 591522 468613 473955 605385 538196
0111010100110001000100010: 591522 468613 473955 605385 614285
0111010100110001000100010: 591522 468613 473955 605385 632387
0111010100110001000100010: 591522 468613 473955 605385 462563
0111110100110001000010000: 591522 468613 473955 609982 601617
0111110100110001000010000: 591522 468613 473955 609982 605385
0111010101110001000001000: 591522 468613 473955 609982 629079
0111010101110001000001000: 591522 468613 473955 609982 538196
0111010100110001000100010: 591522 468613 473955 609982 482087
0111010100110001000100010: 591522 468613 473955 609982 505258
0111110100110001000010000: 591522 468613 473955 484610 601617
0111110100110001000010000: 591522 468613 473955 484610 605385
0111110100110001000010000: 591522 468613 473955 484610 609982
0111010101110001000001000: 591522 468613 473955 484610 629079
0111010101110001000001000: 591522 468613 473955 484610 538196
0111010100110001000100010: 591522 468613 473955 484610 482087
0111010100110001000100010: 591522 468613 473955 484610 654337
0111110100110001000010000: 591522 468613 473955 649502 601617
0111110100110001000010000: 591522 468613 473955 649502 605385
0111110100110001000010000: 591522 468613 473955 649502 609982
0111110100110001000010000: 591522 468613 473955 649502 484610
0111010101110001000001000: 591522 468613 473955 649502 629079
0111010101110001000001000: 591522 468613 473955 649502 538196
0111010100110001000100010: 591522 468613 473955 649502 604644
0111010100110001000100010: 591522 468613 473955 649502 614258
0110010010100010100000100: 591522 649502 601617 604644 576945
0110010011100000100001000: 591522 649502 601617 614258 604644
0110010010100010100000100: 591522 649502 601617 614258 576945
0110010010100010100000100: 591522 649502 605385 604644 614285
0110010010100010100000100: 591522 649502 605385 604644 632387
0110010011100000100001000: 591522 649502 605385 614258 604644
0110010010100010100000100: 591522 649502 605385 614258 614285
0110010010100010100000100: 591522 649502 605385 614258 632387
0110010010100010100000100: 591522 649502 605385 614258 462563
0111110000100001000010000: 591522 649502 609982 605385 601617
0110010010100010100000100: 591522 649502 609982 604644 482087
0110010010100010100000100: 591522 649502 609982 604644 505258
0110010011100000100001000: 591522 649502 609982 614258 604644
0110010010100010100000100: 591522 649502 609982 614258 482087
0110010010100010100000100: 591522 649502 609982 614258 505258
0111110000100001000010000: 591522 649502 484610 605385 601617
0111110000100001000010000: 591522 649502 484610 609982 601617
0111110000100001000010000: 591522 649502 484610 609982 605385
0110010010100010100000100: 591522 649502 484610 604644 482087
0110010010100010100000100: 591522 649502 484610 604644 654337
0110010011100000100001000: 591522 649502 484610 614258 604644
0110010010100010100000100: 591522 649502 484610 614258 482087
0110010010100010100000100: 591522 649502 484610 614258 654337
0111110000100001000010000: 591522 649502 473955 605385 601617
0111110000100001000010000: 591522 649502 473955 609982 601617
0111110000100001000010000: 591522 649502 473955 609982 605385
0111110000100001000010000: 591522 649502 473955 484610 601617
0111110000100001000010000: 591522 649502 473955 484610 605385
0111110000100001000010000: 591522 649502 473955 484610 609982
0110010011100000100001000: 591522 649502 473955 614258 604644
0111110000100001000010000: 591522 649502 468613 605385 601617
0111110000100001000010000: 591522 649502 468613 609982 601617
0111110000100001000010000: 591522 649502 468613 609982 605385
0111110000100001000010000: 591522 649502 468613 484610 601617
0111110000100001000010000: 591522 649502 468613 484610 605385
0111110000100001000010000: 591522 649502 468613 484610 609982
0110010010100010100000100: 591522 649502 468613 604644 538196
0110010011100000100001000: 591522 649502 468613 614258 604644
0110010010100010100000100: 591522 649502 468613 614258 629079
0110010010100010100000100: 591522 649502 468613 614258 538196
0110010011100000100001000: 468613 629079 538196 604644 477936
0110010011100000100001000: 468613 629079 538196 498997 477936
0110010011100000100001000: 468613 629079 538196 498997 604644
0110010011100000100001000: 468613 629079 473955 604644 477936
0110010011100000100001000: 468613 629079 473955 498997 477936
0110010011100000100001000: 468613 629079 473955 498997 604644
0110010011100000100001000: 468613 629079 591522 604644 477936
0110010011100000100001000: 468613 629079 591522 498997 477936
0110010011100000100001000: 468613 629079 591522 498997 604644
0110010010100010100000100: 468613 538196 629079 460132 477936
0110010010100010100000100: 468613 538196 629079 460132 604644
0110010010100010100000100: 468613 538196 629079 460132 498997
0110010010100010100000100: 468613 591522 629079 601617 477936
0110010010100010100000100: 468613 591522 629079 601617 604644
0110010010100010100000100: 468613 591522 629079 601617 498997
0110010011100000100001000: 468613 591522 629079 605385 601617
0110010010100010100000100: 468613 591522 629079 605385 477936
0110010010100010100000100: 468613 591522 629079 605385 604644
0110010010100010100000100: 468613 591522 629079 605385 498997
0110010011100000100001000: 468613 591522 629079 609982 601617
0110010011100000100001000: 468613 591522 629079 609982 605385
0110010010100010100000100: 468613 591522 629079 609982 477936
0110010010100010100000100: 468613 591522 629079 609982 604644
0110010010100010100000100: 468613 591522 629079 609982 498997
0110010011100000100001000: 468613 591522 629079 484610 601617
0110010011100000100001000: 468613 591522 629079 484610 605385
0110010011100000100001000: 468613 591522 629079 484610 609982
0110010010100010100000100: 468613 591522 629079 484610 477936
0110010010100010100000100: 468613 591522 629079 484610 604644
0110010010100010100000100: 468613 591522 629079 484610 498997
0110010011100000100001000: 468613 591522 629079 649502 601617
0110010011100000100001000: 468613 591522 629079 649502 605385
0110010011100000100001000: 468613 591522 629079 649502 609982
0110010011100000100001000: 468613 591522 629079 649502 484610
0110010010100010100000100: 468613 591522 629079 649502 477936
0110010010100010100000100: 468613 591522 629079 649502 498997
0110010010100010100000100: 468613 591522 538196 601617 460132
0110010011100000100001000: 468613 591522 538196 605385 601617
0110010010100010100000100: 468613 591522 538196 605385 460132
0110010011100000100001000: 468613 591522 538196 609982 601617
0110010011100000100001000: 468613 591522 538196 609982 605385
0110010010100010100000100: 468613 591522 538196 609982 460132
0110010011100000100001000: 468613 591522 538196 484610 601617
0110010011100000100001000: 468613 591522 538196 484610 605385
0110010011100000100001000: 468613 591522 538196 484610 609982
0110010010100010100000100: 468613 591522 538196 484610 460132
0110010011100000100001000: 468613 591522 538196 649502 601617
0110010011100000100001000: 468613 591522 538196 649502 605385
0110010011100000100001000: 468613 591522 538196 649502 609982
0110010011100000100001000: 468613 591522 538196 649502 484610
0110010010100010100000100: 468613 591522 538196 649502 460132
0111010100110001000100010: 468613 591522 473955 629079 477936
0111010100110001000100010: 468613 591522 473955 629079 604644
0111010100110001000100010: 468613 591522 473955 629079 498997
0111110100110001000010000: 468613 591522 473955 538196 629079
0111010100110001000100010: 468613 591522 473955 538196 460132
0110010011100100110001000: 472005 614285 491860 477936 605385
0110010011100100110001000: 472005 614285 491860 477936 462563
0110010011100000100001000: 472005 614285 499087 605385 477936
0110010011100000100001000: 472005 614285 499087 462563 477936
0110010010100010100000100: 472005 491860 614285 576945 605385
0110010010100010100000100: 472005 491860 614285 576945 462563
0110010011100000100001000: 472005 491860 614285 466768 576945
0110010010100010100000100: 472005 491860 614285 466768 605385
0110010010100010100000100: 472005 491860 614285 466768 462563
0110010011100100110001000: 472005 491860 614285 477936 576945
0110010011100100110001000: 472005 491860 614285 477936 466768
0110010011100000100001000: 472005 491860 499087 576945 477936
0110010011100000100001000: 472005 491860 499087 466768 477936
0110010011100000100001000: 472005 491860 499087 466768 576945
0110010010100010100000100: 472005 499087 614285 631361 477936
0110010010100010100000100: 472005 499087 614285 631361 605385
0110010010100010100100110: 472005 499087 614285 631361 462563
0110010010100010100000100: 472005 499087 491860 631361 477936
0110010010100010100000100: 472005 499087 491860 631361 576945
0110010010100010100100110: 472005 499087 491860 631361 466768
0110010011100000100001000: 499087 631361 472005 462563 466768
0110010010100010100000100: 499087 472005 631361 614285 466768
0110010011100000100001000: 499087 472005 631361 491860 614285
0110010010100010100000100: 499087 472005 631361 491860 462563
0110010010100010100000100: 460132 538196 632387 468613 605385
0110010010100010100000100: 538196 468613 460132 629079 632387
0110010011100000100001000: 538196 468613 460132 473955 629079
0110010010100010100000100: 538196 468613 460132 473955 632387
0110010011100000100001000: 538196 468613 460132 591522 629079
0110010010100010100000100: 538196 468613 460132 591522 632387
0110010011100000100001000: 462563 614285 604644 472005 477936
0110010011100000100001000: 462563 614285 631361 472005 477936
0111010101110001000001000: 462563 614285 605385 604644 477936
0111010101110001000001000: 462563 614285 605385 604644 472005
0111010101110001000001000: 462563 614285 605385 631361 477936
0111010101110001000001000: 462563 614285 605385 631361 472005
0110010010100010100000100: 462563 604644 614285 629079 472005
0110010010100010100100110: 462563 604644 614285 629079 477936
0110010011100000100001000: 462563 604644 614285 649502 629079
0110010010100010100000100: 462563 604644 614285 649502 477936
0110010010100010100000100: 462563 604644 614285 649502 472005
0110010011100000100001000: 462563 604644 605385 649502 629079
0110010011100000100001000: 462563 604644 631361 649502 629079
0110010010100010100000100: 462563 605385 604644 632387 629079
0110010010100010100000100: 462563 605385 604644 632387 649502
0110010011100000100001000: 462563 605385 604644 591522 632387
0110010010100010100000100: 462563 605385 604644 591522 629079
0110010011100000100001000: 462563 605385 631361 591522 632387
0111010101110001000001000: 462563 605385 614285 604644 632387
0111010101110001000001000: 462563 605385 614285 604644 591522
0111010100110001000100010: 462563 605385 614285 604644 629079
0111010100110001000100010: 462563 605385 614285 604644 649502
0111110100110001000010000: 462563 605385 614285 631361 604644
0111010101110001000001000: 462563 605385 614285 631361 632387
0111010101110001000001000: 462563 605385 614285 631361 591522
0111010100110001000100010: 462563 605385 614285 631361 466768
0111010100110001000100010: 462563 605385 614285 631361 499087
0110010010100010100000100: 462563 631361 614285 466768 477936
0110010010100010100000100: 462563 631361 614285 466768 472005
0110010011100000100001000: 462563 631361 614285 499087 466768
0110010010100010100000100: 462563 631361 614285 499087 477936
0110010010100010100000100: 462563 631361 604644 466768 629079
0110010010100010100000100: 462563 631361 604644 466768 649502
0110010011100000100001000: 462563 631361 604644 499087 466768
0110010010100010100000100: 462563 631361 604644 499087 629079
0110010010100010100000100: 462563 631361 604644 499087 649502
0110010010100010100000100: 462563 631361 605385 466768 632387
0110010010100010100000100: 462563 631361 605385 466768 591522
0110010011100000100001000: 462563 631361 605385 499087 466768
0110010010100010100000100: 462563 631361 605385 499087 632387
0110010010100010100000100: 462563 631361 605385 499087 591522
0110010010100010100000100: 631361 462563 466768 614285 491860
0110010011100000100001000: 631361 462563 466768 604644 614285
0110010010100010100000100: 631361 462563 466768 604644 491860
0110010011100000100001000: 631361 462563 466768 605385 604644
0110010010100010100000100: 631361 462563 466768 605385 491860
0110010011100000100001000: 631361 462563 499087 604644 614285
0110010011100000100001000: 631361 462563 499087 605385 604644
0110010010100010100000100: 631361 499087 462563 472005 604644
0110010010100010100000100: 631361 499087 462563 472005 605385
0110010010100010100000100: 484610 654337 482087 477936 609982
0110010011100000100001000: 484610 591522 482087 605385 601617
0110010011100000100001000: 484610 591522 482087 473955 601617
0110010011100000100001000: 484610 591522 482087 473955 605385
0110010011100000100001000: 484610 591522 482087 468613 601617
0110010011100000100001000: 484610 591522 482087 468613 605385
0110010011100000100001000: 484610 591522 482087 649502 601617
0110010011100000100001000: 484610 591522 482087 649502 605385
0110010011100000100001000: 484610 591522 482087 649502 473955
0110010011100000100001000: 484610 591522 482087 649502 468613
0110010011100100110001000: 484610 591522 482087 609982 601617
0110010011100100110001000: 484610 591522 482087 609982 605385
0110010011100100110001000: 484610 591522 482087 609982 473955
0110010011100100110001000: 484610 591522 482087 609982 468613
0110010011100100110001000: 484610 591522 482087 609982 649502
0110010010100010100000100: 484610 591522 654337 601617 477936
0110010011100000100001000: 484610 591522 654337 605385 601617
0110010010100010100000100: 484610 591522 654337 605385 477936
0110010011100000100001000: 484610 591522 654337 609982 601617
0110010011100000100001000: 484610 591522 654337 609982 605385
0110010010100010100000100: 484610 591522 654337 609982 477936
0110010011100000100001000: 484610 591522 654337 473955 601617
0110010011100000100001000: 484610 591522 654337 473955 605385
0110010011100000100001000: 484610 591522 654337 473955 609982
0110010010100010100000100: 484610 591522 654337 473955 477936
0110010011100000100001000: 484610 591522 654337 468613 601617
0110010011100000100001000: 484610 591522 654337 468613 605385
0110010011100000100001000: 484610 591522 654337 468613 609982
0110010010100010100000100: 484610 591522 654337 468613 477936
0110010011100000100001000: 484610 591522 654337 649502 601617
0110010011100000100001000: 484610 591522 654337 649502 605385
0110010011100000100001000: 484610 591522 654337 649502 609982
0110010011100000100001000: 484610 591522 654337 649502 473955
0110010011100000100001000: 484610 591522 654337 649502 468613
0110010010100010100000100: 484610 591522 654337 649502 477936
0110010011100000100001000: 654337 477936 484610 491860 614285
0110010011100000100001000: 654337 477936 484610 629079 614285
0110010011100000100001000: 654337 477936 484610 629079 491860
0110010010100010100000100: 654337 484610 477936 482087 614285
0110010010100010100000100: 654337 484610 477936 482087 491860
0110010010100010100000100: 654337 484610 477936 482087 629079
0110010011100000100001000: 654337 484610 477936 591522 482087
0110010010100010100000100: 654337 484610 477936 591522 614285
0110010010100010100000100: 654337 484610 477936 591522 491860
0110010010100010100000100: 654337 484610 477936 591522 629079
0110010011100000100001000: 632387 605385 460132 591522 614285
0110010011100000100001000: 632387 605385 460132 591522 462563
0110010010100010100000100: 632387 460132 605385 538196 614285
0110010010100010100000100: 632387 460132 605385 538196 462563
0110010010100010100000100: 632387 460132 605385 538196 591522
0110010010100010100000100: 505258 609982 609316 482087 498997
0110010011100000100001000: 505258 609982 609316 591522 482087
0110010010100010100000100: 505258 609982 609316 591522 498997
0110010010100010100000100: 609982 505258 482087 609316 484610
0110010011100000100001000: 609982 591522 482087 605385 601617
0110010011100000100001000: 609982 591522 482087 473955 601617
0110010011100000100001000: 609982 591522 482087 473955 605385
0110010011100000100001000: 609982 591522 482087 468613 601617
0110010011100000100001000: 609982 591522 482087 468613 605385
0110010011100000100001000: 609982 591522 482087 649502 601617
0110010011100000100001000: 609982 591522 482087 649502 605385
0110010011100000100001000: 609982 591522 482087 649502 473955
0110010011100000100001000: 609982 591522 482087 649502 468613
0110010010100010100000100: 609982 591522 505258 601617 609316
0110010011100000100001000: 609982 591522 505258 605385 601617
0110010010100010100000100: 609982 591522 505258 605385 609316
0110010011100000100001000: 609982 591522 505258 484610 601617
0110010011100000100001000: 609982 591522 505258 484610 605385
0110010010100010100000100: 609982 591522 505258 484610 609316
0110010011100000100001000: 609982 591522 505258 473955 601617
0110010011100000100001000: 609982 591522 505258 473955 605385
0110010011100000100001000: 609982 591522 505258 473955 484610
0110010010100010100000100: 609982 591522 505258 473955 609316
0110010011100000100001000: 609982 591522 505258 468613 601617
0110010011100000100001000: 609982 591522 505258 468613 605385
0110010011100000100001000: 609982 591522 505258 468613 484610
0110010010100010100000100: 609982 591522 505258 468613 609316
0110010011100000100001000: 609982 591522 505258 649502 601617
0110010011100000100001000: 609982 591522 505258 649502 605385
0110010011100000100001000: 609982 591522 505258 649502 484610
0110010011100000100001000: 609982 591522 505258 649502 473955
0110010011100000100001000: 609982 591522 505258 649502 468613
0110010010100010100000100: 609982 591522 505258 649502 609316
0110010011100000100001000: 605385 614285 632387 472005 477936
0110010011100000100001000: 605385 614285 591522 472005 477936
0111010101110001000001000: 605385 614285 462563 632387 477936
0111010101110001000001000: 605385 614285 462563 632387 472005
0111010101110001000001000: 605385 614285 462563 591522 477936
0111010101110001000001000: 605385 614285 462563 591522 472005
0110010010100010100000100: 605385 632387 614285 460132 477936
0110010010100010100000100: 605385 632387 614285 460132 472005
0110010010100010100000100: 605385 462563 632387 604644 460132
0110010011100000100001000: 605385 462563 632387 631361 604644
0110010010100010100000100: 605385 462563 632387 631361 460132
0110010011100000100001000: 605385 462563 591522 631361 604644
0111010100110001000100010: 605385 462563 614285 632387 460132
0111110100110001000010000: 605385 462563 614285 591522 632387
0111010100110001000100010: 605385 462563 614285 591522 601617
0111010100110001000100010: 605385 462563 614285 591522 609982
0111010100110001000100010: 605385 462563 614285 591522 484610
0111010100110001000100010: 605385 462563 614285 591522 473955
0111010100110001000100010: 605385 462563 614285 591522 468613
0111010100110001000100010: 605385 462563 614285 591522 649502
0110010010100010100000100: 605385 591522 614285 601617 477936
0110010010100010100000100: 605385 591522 614285 601617 472005
0110010011100000100001000: 605385 591522 614285 609982 601617
0110010010100010100000100: 605385 591522 614285 609982 477936
0110010010100010100000100: 605385 591522 614285 609982 472005
0110010011100000100001000: 605385 591522 614285 484610 601617
0110010011100000100001000: 605385 591522 614285 484610 609982
0110010010100010100000100: 605385 591522 614285 484610 477936
0110010010100010100000100: 605385 591522 614285 484610 472005
0110010011100000100001000: 605385 591522 614285 473955 601617
0110010011100000100001000: 605385 591522 614285 473955 609982
0110010011100000100001000: 605385 591522 614285 473955 484610
0110010010100010100000100: 605385 591522 614285 473955 477936
0110010010100010100000100: 605385 591522 614285 473955 472005
0110010011100000100001000: 605385 591522 614285 468613 601617
0110010011100000100001000: 605385 591522 614285 468613 609982
0110010011100000100001000: 605385 591522 614285 468613 484610
0110010010100010100000100: 605385 591522 614285 468613 477936
0110010010100010100000100: 605385 591522 614285 468613 472005
0110010011100000100001000: 605385 591522 614285 649502 601617
0110010011100000100001000: 605385 591522 614285 649502 609982
0110010011100000100001000: 605385 591522 614285 649502 484610
0110010011100000100001000: 605385 591522 614285 649502 473955
0110010011100000100001000: 605385 591522 614285 649502 468613
0110010010100010100000100: 605385 591522 614285 649502 477936
0110010010100010100000100: 605385 591522 614285 649502 472005
0110010010100010100000100: 605385 591522 632387 601617 460132
0110010011100000100001000: 605385 591522 632387 609982 601617
0110010010100010100000100: 605385 591522 632387 609982 460132
0110010011100000100001000: 605385 591522 632387 484610 601617
0110010011100000100001000: 605385 591522 632387 484610 609982
0110010010100010100000100: 605385 591522 632387 484610 460132
0110010011100000100001000: 605385 591522 632387 473955 601617
0110010011100000100001000: 605385 591522 632387 473955 609982
0110010011100000100001000: 605385 591522 632387 473955 484610
0110010010100010100000100: 605385 591522 632387 473955 460132
0110010011100000100001000: 605385 591522 632387 468613 601617
0110010011100000100001000: 605385 591522 632387 468613 609982
0110010011100000100001000: 605385 591522 632387 468613 484610
0110010010100010100000100: 605385 591522 632387 468613 460132
0110010011100000100001000: 605385 591522 632387 649502 601617
0110010011100000100001000: 605385 591522 632387 649502 609982
0110010011100000100001000: 605385 591522 632387 649502 484610
0110010011100000100001000: 605385 591522 632387 649502 473955
0110010011100000100001000: 605385 591522 632387 649502 468613
0110010010100010100000100: 605385 591522 632387 649502 460132
0110010010100010100000100: 605385 591522 462563 601617 604644
0110010010100010100000100: 605385 591522 462563 601617 631361
0110010011100000100001000: 605385 591522 462563 609982 601617
0110010010100010100000100: 605385 591522 462563 609982 604644
0110010010100010100000100: 605385 591522 462563 609982 631361
0110010011100000100001000: 605385 591522 462563 484610 601617
0110010011100000100001000: 605385 591522 462563 484610 609982
0110010010100010100000100: 605385 591522 462563 484610 604644
0110010010100010100000100: 605385 591522 462563 484610 631361
0110010011100000100001000: 605385 591522 462563 473955 601617
0110010011100000100001000: 605385 591522 462563 473955 609982
0110010011100000100001000: 605385 591522 462563 473955 484610
0110010010100010100000100: 605385 591522 462563 473955 604644
0110010010100010100000100: 605385 591522 462563 473955 631361
0110010011100000100001000: 605385 591522 462563 468613 601617
0110010011100000100001000: 605385 591522 462563 468613 609982
0110010011100000100001000: 605385 591522 462563 468613 484610
0110010010100010100000100: 605385 591522 462563 468613 604644
0110010010100010100000100: 605385 591522 462563 468613 631361
0110010011100000100001000: 605385 591522 462563 649502 601617
0110010011100000100001000: 605385 591522 462563 649502 609982
0110010011100000100001000: 605385 591522 462563 649502 484610
0110010011100000100001000: 605385 591522 462563 649502 473955
0110010011100000100001000: 605385 591522 462563 649502 468613
0110010010100010100000100: 605385 591522 462563 649502 631361
0110010011100000100001000: 629079 477936 604644 491860 614285
0110010011100000100001000: 629079 477936 604644 654337 614285
0110010011100000100001000: 629079 477936 604644 654337 491860
0110010011100000100001000: 629079 477936 498997 491860 614285
0110010011100000100001000: 629079 477936 498997 654337 614285
0110010011100000100001000: 629079 477936 498997 654337 491860
0110010011100000100001000: 629079 477936 468613 491860 614285
0110010011100000100001000: 629079 477936 468613 654337 614285
0110010011100000100001000: 629079 477936 468613 654337 491860
0110010010100010100000100: 629079 604644 477936 462563 491860
0110010010100010100000100: 629079 604644 477936 462563 654337
0110010011100000100001000: 629079 604644 477936 649502 462563
0110010010100010100000100: 629079 604644 477936 649502 614285
0110010010100010100000100: 629079 604644 477936 649502 491860
0110010010100010100000100: 629079 604644 477936 649502 654337
0110010011100000100001000: 629079 604644 498997 649502 462563
0110010011100000100001000: 629079 604644 468613 649502 462563
0110010010100010100000100: 629079 498997 477936 609316 614285
0110010010100010100000100: 629079 498997 477936 609316 491860
0110010010100010100000100: 629079 498997 477936 609316 654337
0110010010100010100000100: 629079 498997 604644 609316 462563
0110010010100010100000100: 629079 498997 604644 609316 649502
0110010010100010100000100: 629079 468613 477936 538196 614285
0110010010100010100000100: 629079 468613 477936 538196 491860
0110010010100010100000100: 629079 468613 477936 538196 654337
0110010011100000100001000: 629079 468613 477936 473955 538196
0110010010100010100000100: 629079 468613 477936 473955 614285
0110010010100010100000100: 629079 468613 477936 473955 491860
0110010010100010100000100: 629079 468613 477936 473955 654337
0110010011100000100001000: 629079 468613 477936 591522 538196
0110010010100010100000100: 629079 468613 477936 591522 614285
0110010010100010100000100: 629079 468613 477936 591522 491860
0110010010100010100000100: 629079 468613 477936 591522 654337
0110010010100010100000100: 629079 468613 604644 538196 462563
0110010010100010100000100: 629079 468613 604644 538196 649502
0110010011100000100001000: 629079 468613 604644 473955 538196
0110010010100010100000100: 629079 468613 604644 473955 462563
0110010010100010100000100: 629079 468613 604644 473955 649502
0110010011100000100001000: 629079 468613 604644 591522 538196
0110010010100010100000100: 629079 468613 604644 591522 462563
0111110000100001000010000: 629079 468613 498997 604644 477936
0110010010100010100000100: 629079 468613 498997 538196 609316
0110010011100000100001000: 629079 468613 498997 473955 538196
0110010010100010100000100: 629079 468613 498997 473955 609316
0110010011100000100001000: 629079 468613 498997 591522 538196
0110010010100010100000100: 629079 468613 498997 591522 609316
0110010011100000100001000: 466768 491860 631361 576945 477936
0110010011100000100001000: 466768 491860 631361 472005 477936
0110010011100000100001000: 466768 491860 631361 472005 576945
0110010010100010100000100: 466768 631361 491860 462563 477936
0110010010100010100000100: 466768 631361 491860 462563 576945
0110010010100010100000100: 466768 631361 491860 462563 472005
0110010011100000100001000: 466768 631361 491860 499087 462563
0110010010100010100000100: 466768 631361 491860 499087 477936
0110010010100010100000100: 466768 631361 491860 499087 576945
0110010011100000100001000: 491860 477936 576945 629079 614285
0110010011100000100001000: 491860 477936 576945 654337 614285
0110010011100000100001000: 491860 477936 576945 654337 629079
0110010011100000100001000: 491860 477936 466768 629079 614285
0110010011100000100001000: 491860 477936 466768 654337 614285
0110010011100000100001000: 491860 477936 466768 654337 629079
0110010011100000100001000: 491860 477936 472005 654337 629079
0110010011100100110001000: 491860 477936 472005 614285 629079
0110010011100100110001000: 491860 477936 472005 614285 654337
0110010010100010100000100: 491860 576945 477936 601617 614285
0110010010100010100000100: 491860 576945 477936 601617 629079
0110010010100010100000100: 491860 576945 477936 601617 654337
0110010010100010100000100: 491860 466768 477936 631361 614285
0110010010100010100000100: 491860 466768 477936 631361 629079
0110010010100010100000100: 491860 466768 477936 631361 654337
0110010010100010100000100: 491860 466768 576945 631361 601617
0110010010100010100000100: 491860 472005 477936 499087 629079
0110010010100010100000100: 491860 472005 477936 499087 654337
0110010011100100110001000: 491860 472005 477936 614285 499087
0110010010100010100000100: 491860 472005 576945 614285 601617
0110010011100000100001000: 491860 472005 576945 499087 614285
0110010010100010100000100: 491860 472005 576945 499087 601617
0111110000100001000010000: 491860 472005 466768 576945 477936
0110010010100010100000100: 491860 472005 466768 614285 631361
0110010011100000100001000: 491860 472005 466768 499087 614285
0110010010100010100000100: 498997 629079 609316 477936 505258
0110010011100000100001000: 498997 629079 609316 604644 477936
0110010010100010100000100: 498997 629079 609316 604644 505258
0110010011100000100001000: 498997 629079 609316 468613 477936
0110010011100000100001000: 498997 629079 609316 468613 604644
0110010010100010100000100: 498997 629079 609316 468613 505258
0110010011100000100001000: 604644 629079 462563 498997 477936
0110010011100000100001000: 604644 629079 462563 468613 477936
0110010011100000100001000: 604644 629079 462563 468613 498997
0110010011100000100001000: 604644 629079 649502 498997 477936
0110010011100000100001000: 604644 629079 649502 468613 477936
0110010011100000100001000: 604644 629079 649502 468613 498997
0110010010100010100000100: 604644 462563 629079 614285 498997
0110010010100010100000100: 604644 462563 629079 614285 468613
0110010010100010100000100: 604644 462563 629079 605385 477936
0110010010100010100000100: 604644 462563 629079 605385 498997
0110010010100010100000100: 604644 462563 629079 605385 468613
0110010011100000100001000: 604644 462563 629079 631361 614285
0110010011100000100001000: 604644 462563 629079 631361 605385
0110010010100010100000100: 604644 462563 629079 631361 477936
0110010010100010100000100: 604644 462563 629079 631361 498997
0110010010100010100000100: 604644 462563 629079 631361 468613
0110010011100000100001000: 604644 462563 649502 631361 614285
0110010011100000100001000: 604644 462563 649502 631361 605385
0110010010100010100000100: 604644 649502 629079 591522 477936
0110010010100010100000100: 604644 649502 629079 591522 498997
0110010011100000100001000: 604644 649502 629079 614258 591522
0110010010100010100000100: 604644 649502 629079 614258 477936
0110010010100010100000100: 604644 649502 629079 614258 498997
0110010010100010100000100: 604644 649502 629079 614258 468613
0110010010100010100000100: 604644 649502 462563 591522 614285
0110010010100010100000100: 604644 649502 462563 591522 631361
0110010011100000100001000: 604644 649502 462563 614258 591522
0110010010100010100000100: 604644 649502 462563 614258 614285
0110010010100010100000100: 604644 649502 462563 614258 605385
0110010010100010100000100: 604644 649502 462563 614258 631361
0110010011100000100001000: 614285 477936 605385 629079 491860
0110010011100000100001000: 614285 477936 605385 654337 491860
0110010011100000100001000: 614285 477936 605385 654337 629079
0110010011100000100001000: 614285 477936 462563 629079 491860
0110010011100000100001000: 614285 477936 462563 654337 491860
0110010011100000100001000: 614285 477936 462563 654337 629079
0110010011100000100001000: 614285 477936 472005 654337 629079
0110010010100010100000100: 614285 605385 477936 632387 491860
0110010010100010100000100: 614285 605385 477936 632387 629079
0110010010100010100000100: 614285 605385 477936 632387 654337
0110010011100000100001000: 614285 605385 477936 591522 632387
0110010010100010100000100: 614285 605385 477936 591522 491860
0110010010100010100000100: 614285 605385 477936 591522 629079
0110010010100010100000100: 614285 605385 477936 591522 654337
0110010011100000100001000: 614285 605385 472005 591522 632387
0110010010100010100000100: 614285 462563 477936 604644 491860
0110010010100010100000100: 614285 462563 477936 604644 654337
0110010011100000100001000: 614285 462563 477936 631361 604644
0110010010100010100000100: 614285 462563 477936 631361 491860
0110010010100010100000100: 614285 462563 477936 631361 629079
0110010010100010100000100: 614285 462563 477936 631361 654337
0110010011100000100001000: 614285 462563 472005 631361 604644
0111010100110001000100010: 614285 462563 605385 477936 491860
0111010100110001000100010: 614285 462563 605385 477936 629079
0111010100110001000100010: 614285 462563 605385 477936 654337
0111110100110001000010000: 614285 462563 605385 472005 477936
0111010100110001000100010: 614285 462563 605385 472005 491860
0111010100110001000100010: 614285 462563 605385 472005 499087
0110010010100010100000100: 614285 472005 477936 499087 629079
0110010010100010100000100: 614285 472005 477936 499087 654337
0110010010100010100000100: 614285 472005 605385 491860 632387
0110010010100010100000100: 614285 472005 605385 491860 591522
0110010011100000100001000: 614285 472005 605385 499087 491860
0110010010100010100000100: 614285 472005 605385 499087 632387
0110010010100010100000100: 614285 472005 605385 499087 591522
0110010010100010100000100: 614285 472005 462563 491860 604644
0110010010100010100000100: 614285 472005 462563 491860 631361
0110010011100000100001000: 614285 472005 462563 499087 491860
0110010010100010100000100: 614285 472005 462563 499087 604644
0110010010100010100000100: 576945 491860 601617 477936 591522
0110010011100000100001000: 576945 491860 601617 466768 477936
0110010010100010100000100: 576945 491860 601617 466768 591522
0110010011100000100001000: 576945 491860 601617 472005 477936
0110010011100000100001000: 576945 491860 601617 472005 466768
0110010010100010100000100: 576945 491860 601617 472005 591522
0110010010100010100000100: 601617 591522 576945 605385 491860
0110010011100000100001000: 601617 591522 576945 609982 605385
0110010010100010100000100: 601617 591522 576945 609982 491860
0110010011100000100001000: 601617 591522 576945 484610 605385
0110010011100000100001000: 601617 591522 576945 484610 609982
0110010010100010100000100: 601617 591522 576945 484610 491860
0110010011100000100001000: 601617 591522 576945 473955 605385
0110010011100000100001000: 601617 591522 576945 473955 609982
0110010011100000100001000: 601617 591522 576945 473955 484610
0110010010100010100000100: 601617 591522 576945 473955 491860
0110010011100000100001000: 601617 591522 576945 468613 605385
0110010011100000100001000: 601617 591522 576945 468613 609982
0110010011100000100001000: 601617 591522 576945 468613 484610
0110010010100010100000100: 601617 591522 576945 468613 491860
0110010011100000100001000: 601617 591522 576945 649502 605385
0110010011100000100001000: 601617 591522 576945 649502 609982
0110010011100000100001000: 601617 591522 576945 649502 484610
0110010011100000100001000: 601617 591522 576945 649502 473955
0110010011100000100001000: 601617 591522 576945 649502 468613
0110010010100010100000100: 601617 591522 576945 649502 491860
0110010010100010100000100: 609316 505258 498997 609982 629079
0110010010100010100000100: 482087 484610 609982 654337 505258
0110010011100000100001000: 477936 614285 629079 472005 605385
0110010011100000100001000: 477936 614285 629079 472005 462563
0110010011100000100001000: 477936 614285 654337 472005 605385
0110010011100000100001000: 477936 614285 654337 472005 462563
0110010010100010100000100: 477936 491860 614285 576945 605385
0110010010100010100000100: 477936 491860 614285 576945 462563
0110010011100000100001000: 477936 491860 614285 466768 576945
0110010010100010100000100: 477936 491860 614285 466768 605385
0110010010100010100000100: 477936 491860 614285 466768 462563
0110010011100000100001000: 477936 491860 629079 466768 576945
0110010011100000100001000: 477936 491860 629079 472005 576945
0110010011100000100001000: 477936 491860 629079 472005 466768
0110010011100000100001000: 477936 491860 654337 466768 576945
0110010011100000100001000: 477936 491860 654337 472005 576945
0110010011100000100001000: 477936 491860 654337 472005 466768
0110010010100010100000100: 477936 629079 614285 604644 605385
0110010010100010100000100: 477936 629079 614285 604644 472005
0110010011100000100001000: 477936 629079 614285 498997 604644
0110010010100010100000100: 477936 629079 614285 498997 605385
0110010010100010100000100: 477936 629079 614285 498997 462563
0110010010100010100000100: 477936 629079 614285 498997 472005
0110010011100000100001000: 477936 629079 614285 468613 604644
0110010011100000100001000: 477936 629079 614285 468613 498997
0110010010100010100000100: 477936 629079 614285 468613 605385
0110010010100010100000100: 477936 629079 614285 468613 462563
0110010010100010100000100: 477936 629079 614285 468613 472005
0110010010100010100000100: 477936 629079 491860 604644 576945
0110010010100010100000100: 477936 629079 491860 604644 466768
0110010010100010100000100: 477936 629079 491860 604644 472005
0110010011100000100001000: 477936 629079 491860 498997 604644
0110010010100010100000100: 477936 629079 491860 498997 576945
0110010010100010100000100: 477936 629079 491860 498997 466768
0110010010100010100000100: 477936 629079 491860 498997 472005
0110010011100000100001000: 477936 629079 491860 468613 604644
0110010011100000100001000: 477936 629079 491860 468613 498997
0110010010100010100000100: 477936 629079 491860 468613 576945
0110010010100010100000100: 477936 629079 491860 468613 466768
0110010010100010100000100: 477936 629079 491860 468613 472005
0110010011100000100001000: 477936 629079 654337 498997 604644
0110010011100000100001000: 477936 629079 654337 468613 604644
0110010011100000100001000: 477936 629079 654337 468613 498997
0110010010100010100000100: 477936 654337 614285 484610 605385
0110010010100010100000100: 477936 654337 614285 484610 462563
0110010010100010100000100: 477936 654337 614285 484610 472005
0110010010100010100000100: 477936 654337 491860 484610 576945
0110010010100010100000100: 477936 654337 491860 484610 466768
0110010010100010100000100: 477936 654337 491860 484610 472005
0111110000100001000010000: 477936 654337 629079 491860 614285
0110010010100010100000100: 477936 654337 629079 484610 604644
0110010010100010100000100: 477936 654337 629079 484610 498997
0110010010100010100000100: 477936 654337 629079 484610 468613
