Vertex,0110010011100110110001100,0110010010100010100100110,0110010011100100110001000,0110010010100010100000100,0110010011100000100001000,0111110000100001000010000
589209,0.0,1.0,0.0,20.0,14.0,0.0
579517,0.0,2.0,3.0,39.0,38.0,2.0
579646,0.0,1.0,2.0,18.0,7.0,0.0
601507,0.0,1.0,0.0,50.0,28.0,1.0
573027,1.0,2.0,11.0,46.0,44.0,2.0
574638,1.0,1.0,7.0,26.0,22.0,1.0
634303,1.0,0.0,11.0,27.0,19.0,1.0
524985,0.0,0.0,2.0,22.0,9.0,0.0
646389,1.0,0.0,7.0,32.0,22.0,1.0
463005,0.0,0.0,0.0,22.0,13.0,1.0
543707,0.0,0.0,0.0,20.0,13.0,1.0
472720,0.0,1.0,2.0,28.0,30.0,2.0
596726,1.0,1.0,8.0,51.0,42.0,2.0
535728,0.0,0.0,2.0,29.0,22.0,1.0
618944,0.0,0.0,0.0,18.0,10.0,0.0
471544,0.0,0.0,0.0,7.0,7.0,0.0
graph,1.0,2.0,11.0,91.0,68.0,3.0
