0111101011001000: 483619 466541 599486 460288
0111101011001000: 483619 466541 599486 599936
0111101011001000: 483619 466541 599486 643836
0101101001001000: 483619 466541 575152 460288
0101101001001000: 483619 466541 575152 599936
0101101001001000: 483619 466541 575152 571659
0101101001001000: 483619 466541 575152 643836
0101101101001100: 483619 466541 575152 599486
0101101001001000: 483619 460288 606951 466541
0101101001001000: 483619 460288 606951 599936
0101101001001000: 483619 460288 606951 571659
0101101001001000: 483619 460288 606951 599486
0101101001001000: 483619 460288 606951 643836
0101101001001000: 483619 460288 600225 466541
0101101001001000: 483619 460288 600225 599936
0101101001001000: 483619 460288 600225 571659
0101101001001000: 483619 460288 600225 599486
0101101001001000: 483619 460288 600225 643836
0100101101000100: 483619 460288 600225 606951
0101101001001000: 483619 460288 505077 466541
0101101001001000: 483619 460288 505077 571659
0101101001001000: 483619 460288 505077 599486
0101101001001000: 483619 460288 505077 643836
0100101101000100: 483619 460288 505077 606951
0100101101000100: 483619 460288 505077 600225
0111100010001000: 483619 599936 460288 466541
0110100110010110: 483619 599936 460288 505077
0101101001001000: 483619 599936 505077 466541
0101101001001000: 483619 599936 505077 571659
0101101001001000: 483619 599936 505077 599486
0101101001001000: 483619 599936 505077 643836
0101101001001000: 483619 599936 579726 466541
0101101001001000: 483619 599936 579726 460288
0101101001001000: 483619 599936 579726 571659
0101101001001000: 483619 599936 579726 599486
0101101001001000: 483619 599936 579726 643836
0100101101000100: 483619 599936 579726 505077
0111100010001000: 483619 571659 460288 466541
0111100010001000: 483619 571659 599936 466541
0111100010001000: 483619 571659 599936 460288
0111101011001000: 483619 571659 599486 460288
0111101011001000: 483619 571659 599486 599936
0111101011001000: 483619 571659 599486 643836
0111100010001000: 483619 599486 599936 460288
0111101011001000: 483619 599486 466541 460288
0111101011001000: 483619 599486 466541 599936
0111101011001000: 483619 599486 466541 643836
0111101011001000: 483619 599486 571659 460288
0111101011001000: 483619 599486 571659 599936
0111101011001000: 483619 599486 571659 643836
0111101111001100: 483619 599486 571659 466541
0101101001001000: 483619 599486 648005 460288
0101101001001000: 483619 599486 648005 599936
0101101101001100: 483619 599486 648005 466541
0101101101001100: 483619 599486 648005 571659
0111100010001000: 483619 643836 460288 466541
0111100010001000: 483619 643836 599936 466541
0111100010001000: 483619 643836 599936 460288
0111100010001000: 483619 643836 571659 466541
0111100010001000: 483619 643836 571659 460288
0111100010001000: 483619 643836 571659 599936
0111100010001000: 483619 643836 599486 460288
0111100010001000: 483619 643836 599486 599936
0110100110010110: 483619 643836 599486 648005
0101101001001000: 483619 643836 648005 466541
0101101001001000: 483619 643836 648005 460288
0101101001001000: 483619 643836 648005 599936
0101101001001000: 483619 643836 648005 571659
0110100110000100: 483619 466541 460288 575152
0110100010010010: 483619 466541 460288 606951
0110100010010010: 483619 466541 460288 600225
0110100010010010: 483619 466541 460288 505077
0110100010010010: 483619 466541 460288 606951
0110100010010010: 483619 466541 460288 600225
0110100010010010: 483619 466541 460288 505077
0111100010001000: 483619 466541 599936 460288
0110100110000100: 483619 466541 599936 575152
0110100010010010: 483619 466541 599936 505077
0110100010010010: 483619 466541 599936 579726
0110100010010010: 483619 466541 599936 505077
0110100010010010: 483619 466541 599936 579726
0111100010001000: 483619 466541 571659 460288
0111100010001000: 483619 466541 571659 599936
0110100110000100: 483619 466541 571659 575152
0111100010001000: 483619 466541 643836 460288
0111100010001000: 483619 466541 643836 599936
0111100010001000: 483619 466541 643836 571659
0110100110000100: 483619 466541 643836 575152
0110100010010010: 483619 466541 643836 648005
0110100010010010: 483619 466541 643836 648005
0110100110000100: 483619 466541 460288 575152
0110100110000100: 483619 466541 460288 575152
0111100110001100: 483619 466541 460288 599486
0110100110000100: 483619 466541 460288 575152
0110100110000100: 483619 466541 599936 575152
0110100110000100: 483619 466541 599936 575152
0111100110001100: 483619 466541 599936 599486
0110100110000100: 483619 466541 599936 575152
0110100110000100: 483619 466541 571659 575152
0110100110000100: 483619 466541 571659 575152
0110100110000100: 483619 466541 571659 575152
0110100110000100: 483619 466541 643836 575152
0110100110000100: 483619 466541 643836 575152
0111100110001100: 483619 466541 643836 599486
0110100110000100: 483619 466541 643836 575152
0110100010010010: 483619 466541 643836 648005
0111101011001000: 483619 466541 599486 460288
0111101011001000: 483619 466541 599486 599936
0111101011001000: 483619 466541 599486 643836
0110101011010010: 483619 466541 599486 648005
0110101011010010: 483619 466541 599486 648005
0111101011011010: 483619 466541 599486 571659
0111101011011010: 483619 466541 599486 571659
0111101011011010: 483619 466541 599486 571659
0110101011010010: 483619 466541 599486 648005
0110101011010010: 483619 466541 599486 648005
0110101111000100: 483619 466541 599486 575152
0101101001001000: 483619 466541 575152 460288
0101101001001000: 483619 466541 575152 599936
0101101001001000: 483619 466541 575152 571659
0101101001001000: 483619 466541 575152 643836
0100101001010010: 483619 466541 575152 593744
0100101001010010: 483619 466541 575152 593744
0101101101001100: 483619 466541 575152 599486
0100101001010010: 483619 466541 575152 593744
0100101001010010: 483619 466541 575152 593744
0111101011001000: 483619 466541 599486 460288
0111101011001000: 483619 466541 599486 599936
0111101011001000: 483619 466541 599486 643836
0111101011001000: 483619 466541 599486 460288
0111101011001000: 483619 466541 599486 599936
0111101011001000: 483619 466541 599486 643836
0110101111000100: 483619 466541 599486 575152
0110101111000100: 483619 466541 599486 575152
0110101111000100: 483619 466541 599486 575152
0110101111000100: 483619 466541 599486 575152
0110101111000100: 483619 466541 599486 575152
0110100110000100: 483619 460288 466541 606951
0110100110000100: 483619 460288 466541 600225
0110100110000100: 483619 460288 466541 505077
0110100010010010: 483619 460288 466541 575152
0111100010011010: 483619 460288 466541 599486
0110100010010010: 483619 460288 466541 575152
0111100010001000: 483619 460288 599936 466541
0110100110000100: 483619 460288 599936 606951
0110100110000100: 483619 460288 599936 600225
0110100010010010: 483619 460288 599936 579726
0110100010010010: 483619 460288 599936 579726
0110100110010110: 483619 460288 599936 505077
0110100110010110: 483619 460288 599936 505077
0111100010001000: 483619 460288 571659 466541
0111100010001000: 483619 460288 571659 599936
0110100110000100: 483619 460288 571659 606951
0110100110000100: 483619 460288 571659 600225
0110100110000100: 483619 460288 571659 505077
0111100010011010: 483619 460288 571659 599486
0111100010001000: 483619 460288 599486 599936
0110100110000100: 483619 460288 599486 606951
0110100110000100: 483619 460288 599486 600225
0110100110000100: 483619 460288 599486 505077
0110100010010010: 483619 460288 599486 648005
0111100010011010: 483619 460288 599486 466541
0111100010011010: 483619 460288 599486 571659
0110100010010010: 483619 460288 599486 648005
0111100010001000: 483619 460288 643836 466541
0111100010001000: 483619 460288 643836 599936
0111100010001000: 483619 460288 643836 571659
0111100010001000: 483619 460288 643836 599486
0110100110000100: 483619 460288 643836 606951
0110100110000100: 483619 460288 643836 600225
0110100110000100: 483619 460288 643836 505077
0110100010010010: 483619 460288 643836 648005
0110100010010010: 483619 460288 643836 648005
0111100010001000: 483619 460288 466541 599936
0111100010001000: 483619 460288 466541 571659
0111100010001000: 483619 460288 466541 643836
0110100110000100: 483619 460288 466541 606951
0110100110000100: 483619 460288 466541 600225
0110100110000100: 483619 460288 466541 505077
0110100110000100: 483619 460288 466541 606951
0110100110000100: 483619 460288 466541 600225
0110100110000100: 483619 460288 466541 505077
0110100110000100: 483619 460288 466541 606951
0110100110000100: 483619 460288 466541 600225
0110100110000100: 483619 460288 466541 505077
0110100010010010: 483619 460288 466541 575152
0110100110000100: 483619 460288 599936 606951
0110100110000100: 483619 460288 599936 600225
0110100110000100: 483619 460288 599936 606951
0110100110000100: 483619 460288 599936 600225
0110100110000100: 483619 460288 599936 606951
0110100110000100: 483619 460288 599936 600225
0110100010010010: 483619 460288 599936 579726
0110100110010110: 483619 460288 599936 505077
0110100110000100: 483619 460288 571659 606951
0110100110000100: 483619 460288 571659 600225
0110100110000100: 483619 460288 571659 505077
0110100110000100: 483619 460288 571659 606951
0110100110000100: 483619 460288 571659 600225
0110100110000100: 483619 460288 571659 505077
0110100110000100: 483619 460288 571659 606951
0110100110000100: 483619 460288 571659 600225
0110100110000100: 483619 460288 571659 505077
0110100110000100: 483619 460288 599486 606951
0110100110000100: 483619 460288 599486 600225
0110100110000100: 483619 460288 599486 505077
0110100110000100: 483619 460288 599486 606951
0110100110000100: 483619 460288 599486 600225
0110100110000100: 483619 460288 599486 505077
0110100110000100: 483619 460288 599486 606951
0110100110000100: 483619 460288 599486 600225
0110100110000100: 483619 460288 599486 505077
0110100110000100: 483619 460288 643836 606951
0110100110000100: 483619 460288 643836 600225
0110100110000100: 483619 460288 643836 505077
0110100110000100: 483619 460288 643836 606951
0110100110000100: 483619 460288 643836 600225
0110100110000100: 483619 460288 643836 505077
0110100110000100: 483619 460288 643836 606951
0110100110000100: 483619 460288 643836 600225
0110100110000100: 483619 460288 643836 505077
0110100010010010: 483619 460288 643836 648005
0101101001001000: 483619 460288 606951 466541
0101101001001000: 483619 460288 606951 599936
0101101001001000: 483619 460288 606951 571659
0101101001001000: 483619 460288 606951 599486
0101101001001000: 483619 460288 606951 643836
0100101001010010: 483619 460288 606951 607801
0100101001010010: 483619 460288 606951 513640
0100101001010010: 483619 460288 606951 607801
0100101001010010: 483619 460288 606951 513640
0100101001010010: 483619 460288 606951 607801
0100101001010010: 483619 460288 606951 513640
0100101001010010: 483619 460288 606951 607801
0100101001010010: 483619 460288 606951 513640
0101101001001000: 483619 460288 600225 466541
0101101001001000: 483619 460288 600225 599936
0101101001001000: 483619 460288 600225 571659
0101101001001000: 483619 460288 600225 599486
0101101001001000: 483619 460288 600225 643836
0100101001010010: 483619 460288 600225 564728
0100101001010010: 483619 460288 600225 564728
0100101101000100: 483619 460288 600225 606951
0100101001010010: 483619 460288 600225 564728
0100101001010010: 483619 460288 600225 564728
0101101001001000: 483619 460288 505077 466541
0101101001001000: 483619 460288 505077 571659
0101101001001000: 483619 460288 505077 599486
0101101001001000: 483619 460288 505077 643836
0100101001010010: 483619 460288 505077 564728
0100101001010010: 483619 460288 505077 564728
0100101101000100: 483619 460288 505077 606951
0100101101000100: 483619 460288 505077 600225
0101101001011010: 483619 460288 505077 599936
0101101001011010: 483619 460288 505077 599936
0101101001011010: 483619 460288 505077 599936
0100101001010010: 483619 460288 505077 564728
0100101001010010: 483619 460288 505077 564728
0101101001011010: 483619 460288 505077 599936
0101101001011010: 483619 460288 505077 599936
0110100110000100: 483619 599936 466541 505077
0110100110000100: 483619 599936 466541 579726
0110100010010010: 483619 599936 466541 575152
0111100010011010: 483619 599936 466541 599486
0110100010010010: 483619 599936 466541 575152
0111100010001000: 483619 599936 460288 466541
0110100110000100: 483619 599936 460288 579726
0110100010010010: 483619 599936 460288 606951
0110100010010010: 483619 599936 460288 600225
0110100010010010: 483619 599936 460288 606951
0110100010010010: 483619 599936 460288 600225
0110100110010110: 483619 599936 460288 505077
0110100110010110: 483619 599936 460288 505077
0111100010001000: 483619 599936 571659 466541
0111100010001000: 483619 599936 571659 460288
0110100110000100: 483619 599936 571659 505077
0110100110000100: 483619 599936 571659 579726
0111100010011010: 483619 599936 571659 599486
0111100010001000: 483619 599936 599486 460288
0110100110000100: 483619 599936 599486 505077
0110100110000100: 483619 599936 599486 579726
0110100010010010: 483619 599936 599486 648005
0111100010011010: 483619 599936 599486 466541
0111100010011010: 483619 599936 599486 571659
0110100010010010: 483619 599936 599486 648005
0111100010001000: 483619 599936 643836 466541
0111100010001000: 483619 599936 643836 460288
0111100010001000: 483619 599936 643836 571659
0111100010001000: 483619 599936 643836 599486
0110100110000100: 483619 599936 643836 505077
0110100110000100: 483619 599936 643836 579726
0110100010010010: 483619 599936 643836 648005
0110100010010010: 483619 599936 643836 648005
0111100010001000: 483619 599936 466541 460288
0111100010001000: 483619 599936 466541 571659
0111100010001000: 483619 599936 466541 643836
0110100110000100: 483619 599936 466541 505077
0110100110000100: 483619 599936 466541 579726
0110100110000100: 483619 599936 466541 505077
0110100110000100: 483619 599936 466541 579726
0110100110000100: 483619 599936 466541 505077
0110100110000100: 483619 599936 466541 579726
0111100010001000: 483619 599936 460288 466541
0111100010001000: 483619 599936 460288 571659
0111100010001000: 483619 599936 460288 599486
0111100010001000: 483619 599936 460288 643836
0111100010001000: 483619 599936 460288 466541
0110100110000100: 483619 599936 460288 579726
0110100110000100: 483619 599936 460288 579726
0110100110000100: 483619 599936 460288 579726
0110100110010110: 483619 599936 460288 505077
0110100110010110: 483619 599936 460288 505077
0110100110010110: 483619 599936 460288 505077
0110100110000100: 483619 599936 571659 505077
0110100110000100: 483619 599936 571659 579726
0110100110000100: 483619 599936 571659 505077
0110100110000100: 483619 599936 571659 579726
0110100110000100: 483619 599936 571659 505077
0110100110000100: 483619 599936 571659 579726
0110100110000100: 483619 599936 599486 505077
0110100110000100: 483619 599936 599486 579726
0110100110000100: 483619 599936 599486 505077
0110100110000100: 483619 599936 599486 579726
0110100110000100: 483619 599936 599486 505077
0110100110000100: 483619 599936 599486 579726
0110100110000100: 483619 599936 643836 505077
0110100110000100: 483619 599936 643836 579726
0110100110000100: 483619 599936 643836 505077
0110100110000100: 483619 599936 643836 579726
0110100110000100: 483619 599936 643836 505077
0110100110000100: 483619 599936 643836 579726
0110100010010010: 483619 599936 643836 648005
0101101001001000: 483619 599936 505077 466541
0101101001001000: 483619 599936 505077 571659
0101101001001000: 483619 599936 505077 599486
0101101001001000: 483619 599936 505077 643836
0100101001010010: 483619 599936 505077 564728
0100101001010010: 483619 599936 505077 564728
0101101001011010: 483619 599936 505077 460288
0101101001011010: 483619 599936 505077 460288
0101101001011010: 483619 599936 505077 460288
0100101001010010: 483619 599936 505077 564728
0101101001001000: 483619 599936 579726 466541
0101101001001000: 483619 599936 579726 460288
0101101001001000: 483619 599936 579726 571659
0101101001001000: 483619 599936 579726 599486
0101101001001000: 483619 599936 579726 643836
0100101101000100: 483619 599936 579726 505077
0110100010010010: 483619 571659 466541 575152
0110100010010010: 483619 571659 466541 575152
0111100010001000: 483619 571659 460288 466541
0110100010010010: 483619 571659 460288 606951
0110100010010010: 483619 571659 460288 600225
0110100010010010: 483619 571659 460288 505077
0110100010010010: 483619 571659 460288 606951
0110100010010010: 483619 571659 460288 600225
0110100010010010: 483619 571659 460288 505077
0111100010001000: 483619 571659 599936 466541
0111100010001000: 483619 571659 599936 460288
0110100010010010: 483619 571659 599936 505077
0110100010010010: 483619 571659 599936 579726
0110100010010010: 483619 571659 599936 505077
0110100010010010: 483619 571659 599936 579726
0111100010001000: 483619 571659 643836 466541
0111100010001000: 483619 571659 643836 460288
0111100010001000: 483619 571659 643836 599936
0110100010010010: 483619 571659 643836 648005
0110100010010010: 483619 571659 643836 648005
0111100010001000: 483619 571659 466541 460288
0111100010001000: 483619 571659 466541 599936
0111100010001000: 483619 571659 466541 643836
0111100010001000: 483619 571659 460288 466541
0111100010001000: 483619 571659 460288 599936
0111100010001000: 483619 571659 460288 643836
0111100010001000: 483619 571659 460288 466541
0111100110001100: 483619 571659 460288 599486
0111100010001000: 483619 571659 599936 466541
0111100010001000: 483619 571659 599936 460288
0111100010001000: 483619 571659 599936 643836
0111100010001000: 483619 571659 599936 466541
0111100010001000: 483619 571659 599936 460288
0111100110001100: 483619 571659 599936 599486
0111100110001100: 483619 571659 643836 599486
0111101011001000: 483619 571659 599486 460288
0111101011001000: 483619 571659 599486 599936
0111101011001000: 483619 571659 599486 643836
0110101011010010: 483619 571659 599486 648005
0110101011010010: 483619 571659 599486 648005
0111101011011010: 483619 571659 599486 466541
0111101011011010: 483619 571659 599486 466541
0111101011011010: 483619 571659 599486 466541
0110101011010010: 483619 571659 599486 648005
0110101011010010: 483619 571659 599486 648005
0111101011001000: 483619 571659 599486 460288
0111101011001000: 483619 571659 599486 599936
0111101011001000: 483619 571659 599486 643836
0111101011001000: 483619 571659 599486 460288
0111101011001000: 483619 571659 599486 599936
0111101011001000: 483619 571659 599486 643836
0110100110000100: 483619 599486 460288 648005
0110100010010010: 483619 599486 460288 606951
0110100010010010: 483619 599486 460288 600225
0110100010010010: 483619 599486 460288 505077
0110100010010010: 483619 599486 460288 606951
0110100010010010: 483619 599486 460288 600225
0110100010010010: 483619 599486 460288 505077
0111100010001000: 483619 599486 599936 460288
0110100110000100: 483619 599486 599936 648005
0110100010010010: 483619 599486 599936 505077
0110100010010010: 483619 599486 599936 579726
0110100010010010: 483619 599486 599936 505077
0110100010010010: 483619 599486 599936 579726
0111100010001000: 483619 599486 643836 460288
0111100010001000: 483619 599486 643836 599936
0110100110010110: 483619 599486 643836 648005
0110100110010110: 483619 599486 643836 648005
0111100010001000: 483619 599486 460288 599936
0111100010001000: 483619 599486 460288 643836
0110100110000100: 483619 599486 460288 648005
0110100110000100: 483619 599486 460288 648005
0111100110001100: 483619 599486 460288 466541
0111100110001100: 483619 599486 460288 571659
0110100110000100: 483619 599486 460288 648005
0111100010001000: 483619 599486 599936 460288
0111100010001000: 483619 599486 599936 643836
0111100010001000: 483619 599486 599936 460288
0110100110000100: 483619 599486 599936 648005
0110100110000100: 483619 599486 599936 648005
0111100110001100: 483619 599486 599936 466541
0111100110001100: 483619 599486 599936 571659
0110100110000100: 483619 599486 599936 648005
0110100010010010: 483619 599486 599936 505077
0110100010010010: 483619 599486 599936 579726
0111100110001100: 483619 599486 643836 466541
0111100110001100: 483619 599486 643836 571659
0110100110010110: 483619 599486 643836 648005
0111101011001000: 483619 599486 466541 460288
0111101011001000: 483619 599486 466541 599936
0111101011001000: 483619 599486 466541 643836
0110101011010010: 483619 599486 466541 575152
0110101011010010: 483619 599486 466541 575152
0110101011010010: 483619 599486 466541 575152
0110101011010010: 483619 599486 466541 575152
0110101011010010: 483619 599486 466541 575152
0111101011001000: 483619 599486 571659 460288
0111101011001000: 483619 599486 571659 599936
0111101011001000: 483619 599486 571659 643836
0111101111001100: 483619 599486 571659 466541
0101101001001000: 483619 599486 648005 460288
0101101001001000: 483619 599486 648005 599936
0100101001010010: 483619 599486 648005 538437
0100101001010010: 483619 599486 648005 538437
0101101101001100: 483619 599486 648005 466541
0101101101001100: 483619 599486 648005 571659
0101101001011010: 483619 599486 648005 643836
0101101001011010: 483619 599486 648005 643836
0101101001011010: 483619 599486 648005 643836
0100101001010010: 483619 599486 648005 538437
0100101001010010: 483619 599486 648005 538437
0101101001011010: 483619 599486 648005 643836
0101101001011010: 483619 599486 648005 643836
0111101011001000: 483619 599486 466541 460288
0111101011001000: 483619 599486 466541 599936
0111101011001000: 483619 599486 466541 643836
0111101011001000: 483619 599486 466541 460288
0111101011001000: 483619 599486 466541 599936
0111101011001000: 483619 599486 466541 643836
0110101111000100: 483619 599486 466541 648005
0110101111000100: 483619 599486 466541 648005
0111101111001100: 483619 599486 466541 571659
0111101111001100: 483619 599486 466541 571659
0110101111000100: 483619 599486 466541 648005
0110101011010010: 483619 599486 466541 575152
0110101011010010: 483619 599486 466541 575152
0111101011001000: 483619 599486 571659 460288
0111101011001000: 483619 599486 571659 599936
0111101011001000: 483619 599486 571659 643836
0111101011001000: 483619 599486 571659 460288
0111101011001000: 483619 599486 571659 599936
0111101011001000: 483619 599486 571659 643836
0110101111000100: 483619 599486 571659 648005
0110101111000100: 483619 599486 571659 648005
0111101111001100: 483619 599486 571659 466541
0111101111001100: 483619 599486 571659 466541
0110101111000100: 483619 599486 571659 648005
0111101111001100: 483619 599486 571659 466541
0111101011001000: 483619 599486 466541 460288
0111101011001000: 483619 599486 466541 599936
0111101011001000: 483619 599486 466541 643836
0111101011001000: 483619 599486 466541 460288
0111101011001000: 483619 599486 466541 599936
0111101011001000: 483619 599486 466541 643836
0111101111001100: 483619 599486 466541 571659
0110101111000100: 483619 599486 466541 648005
0111101111001100: 483619 599486 466541 571659
0110101011010010: 483619 599486 466541 575152
0111101011001000: 483619 599486 571659 460288
0111101011001000: 483619 599486 571659 599936
0111101011001000: 483619 599486 571659 643836
0111101011001000: 483619 599486 571659 460288
0111101011001000: 483619 599486 571659 599936
0111101011001000: 483619 599486 571659 643836
0111101111001100: 483619 599486 571659 466541
0110101111000100: 483619 599486 571659 648005
0111101111001100: 483619 599486 571659 466541
0111101111001100: 483619 599486 571659 466541
0110100110000100: 483619 643836 466541 648005
0110100010010010: 483619 643836 466541 575152
0111100010011010: 483619 643836 466541 599486
0110100010010010: 483619 643836 466541 575152
0111100010001000: 483619 643836 460288 466541
0110100110000100: 483619 643836 460288 648005
0110100010010010: 483619 643836 460288 606951
0110100010010010: 483619 643836 460288 600225
0110100010010010: 483619 643836 460288 505077
0110100010010010: 483619 643836 460288 606951
0110100010010010: 483619 643836 460288 600225
0110100010010010: 483619 643836 460288 505077
0111100010001000: 483619 643836 599936 466541
0111100010001000: 483619 643836 599936 460288
0110100110000100: 483619 643836 599936 648005
0110100010010010: 483619 643836 599936 505077
0110100010010010: 483619 643836 599936 579726
0110100010010010: 483619 643836 599936 505077
0110100010010010: 483619 643836 599936 579726
0111100010001000: 483619 643836 571659 466541
0111100010001000: 483619 643836 571659 460288
0111100010001000: 483619 643836 571659 599936
0110100110000100: 483619 643836 571659 648005
0111100010011010: 483619 643836 571659 599486
0111100010001000: 483619 643836 599486 460288
0111100010001000: 483619 643836 599486 599936
0111100010011010: 483619 643836 599486 466541
0111100010011010: 483619 643836 599486 571659
0110100110010110: 483619 643836 599486 648005
0110100110010110: 483619 643836 599486 648005
0111100010001000: 483619 643836 466541 460288
0111100010001000: 483619 643836 466541 599936
0111100010001000: 483619 643836 466541 571659
0110100110000100: 483619 643836 466541 648005
0110100110000100: 483619 643836 466541 648005
0110100110000100: 483619 643836 466541 648005
0111100010001000: 483619 643836 460288 466541
0111100010001000: 483619 643836 460288 599936
0111100010001000: 483619 643836 460288 571659
0111100010001000: 483619 643836 460288 599486
0111100010001000: 483619 643836 460288 466541
0110100110000100: 483619 643836 460288 648005
0110100110000100: 483619 643836 460288 648005
0110100110000100: 483619 643836 460288 648005
0111100010001000: 483619 643836 599936 466541
0111100010001000: 483619 643836 599936 460288
0111100010001000: 483619 643836 599936 571659
0111100010001000: 483619 643836 599936 599486
0111100010001000: 483619 643836 599936 466541
0111100010001000: 483619 643836 599936 460288
0110100110000100: 483619 643836 599936 648005
0110100110000100: 483619 643836 599936 648005
0110100110000100: 483619 643836 599936 648005
0111100010001000: 483619 643836 571659 466541
0111100010001000: 483619 643836 571659 460288
0111100010001000: 483619 643836 571659 599936
0111100010001000: 483619 643836 571659 466541
0111100010001000: 483619 643836 571659 460288
0111100010001000: 483619 643836 571659 599936
0110100110000100: 483619 643836 571659 648005
0110100110000100: 483619 643836 571659 648005
0110100110000100: 483619 643836 571659 648005
0111100010001000: 483619 643836 599486 460288
0111100010001000: 483619 643836 599486 599936
0111100010001000: 483619 643836 599486 460288
0111100010001000: 483619 643836 599486 599936
0110100110010110: 483619 643836 599486 648005
0110100110010110: 483619 643836 599486 648005
0110100110010110: 483619 643836 599486 648005
0101101001001000: 483619 643836 648005 466541
0101101001001000: 483619 643836 648005 460288
0101101001001000: 483619 643836 648005 599936
0101101001001000: 483619 643836 648005 571659
0100101001010010: 483619 643836 648005 538437
0100101001010010: 483619 643836 648005 538437
0101101001011010: 483619 643836 648005 599486
0101101001011010: 483619 643836 648005 599486
0101101001011010: 483619 643836 648005 599486
0100101001010010: 483619 643836 648005 538437
0110100110010110: 643836 483619 648005 599486
0110100110000100: 643836 648005 483619 538437
0110100010010010: 643836 648005 483619 466541
0110100010010010: 643836 648005 483619 460288
0110100010010010: 643836 648005 483619 599936
0110100010010010: 643836 648005 483619 571659
0110100110010110: 643836 648005 483619 599486
0110100110010110: 643836 648005 483619 599486
0110100110000100: 643836 648005 483619 538437
0110100110000100: 643836 648005 483619 538437
0110100110010110: 643836 648005 483619 599486
0110100110000100: 643836 648005 483619 538437
0110100110000100: 643836 648005 483619 538437
0110100110010110: 643836 648005 483619 599486
0110100110000100: 643836 648005 483619 538437
0110100010010010: 643836 483619 648005 538437
0110100110010110: 643836 483619 648005 599486
0110100110000100: 643836 483619 648005 466541
0110100110000100: 643836 483619 648005 460288
0110100110000100: 643836 483619 648005 599936
0110100110000100: 643836 483619 648005 571659
0110100110010110: 643836 483619 648005 599486
0110100010010010: 643836 483619 648005 538437
0110100110010110: 643836 483619 648005 599486
0110100110000100: 643836 483619 648005 466541
0110100110000100: 643836 483619 648005 460288
0110100110000100: 643836 483619 648005 599936
0110100110000100: 643836 483619 648005 571659
0110100110000100: 643836 483619 648005 466541
0110100110000100: 643836 483619 648005 460288
0110100110000100: 643836 483619 648005 599936
0110100110000100: 643836 483619 648005 571659
0110100010010010: 643836 483619 648005 538437
0110100110010110: 643836 483619 648005 599486
0111100010001000: 648005 643836 599486 538437
0110100110010110: 648005 643836 599486 483619
0101101001001000: 648005 643836 483619 538437
0110100010010010: 648005 538437 599486 466541
0110100010010010: 648005 538437 599486 571659
0110100010010010: 648005 538437 599486 483619
0111100010001000: 648005 538437 643836 599486
0110100010010010: 648005 538437 643836 483619
0110100010010010: 648005 538437 643836 483619
0110100110000100: 648005 599486 538437 466541
0110100110000100: 648005 599486 538437 571659
0110100110000100: 648005 599486 538437 483619
0111100010001000: 648005 599486 643836 538437
0110100110000100: 648005 599486 643836 466541
0110100110000100: 648005 599486 643836 571659
0110100110010110: 648005 599486 643836 483619
0110100110010110: 648005 599486 643836 483619
0111100010001000: 648005 599486 538437 643836
0110100110000100: 648005 599486 538437 466541
0110100110000100: 648005 599486 538437 571659
0110100110000100: 648005 599486 538437 483619
0110100110000100: 648005 599486 538437 466541
0110100110000100: 648005 599486 538437 571659
0110100110000100: 648005 599486 538437 483619
0110100110000100: 648005 599486 643836 466541
0110100110000100: 648005 599486 643836 571659
0110100110000100: 648005 599486 643836 466541
0110100110000100: 648005 599486 643836 571659
0110100110010110: 648005 599486 643836 483619
0111100010001000: 648005 599486 538437 643836
0111100010001000: 648005 599486 538437 643836
0111100010001000: 648005 599486 643836 538437
0111100010001000: 648005 599486 643836 538437
0110100110000100: 648005 599486 538437 466541
0110100110000100: 648005 599486 538437 571659
0110100110000100: 648005 599486 538437 483619
0110100110000100: 648005 599486 538437 466541
0110100110000100: 648005 599486 538437 571659
0110100110000100: 648005 599486 538437 483619
0111100010001000: 648005 599486 538437 643836
0110100110000100: 648005 599486 643836 466541
0110100110000100: 648005 599486 643836 571659
0110100110000100: 648005 599486 643836 466541
0110100110000100: 648005 599486 643836 571659
0111100010001000: 648005 599486 643836 538437
0111100010001000: 648005 599486 643836 538437
0110100110010110: 648005 599486 643836 483619
0110100110010110: 648005 599486 643836 483619
0111100010001000: 648005 643836 599486 538437
0110100010010010: 648005 643836 599486 466541
0110100010010010: 648005 643836 599486 571659
0110100110010110: 648005 643836 599486 483619
0111100010001000: 648005 643836 538437 599486
0110100110000100: 648005 643836 538437 483619
0110100110000100: 648005 643836 538437 483619
0111100010001000: 648005 643836 599486 538437
0111100010001000: 648005 643836 599486 538437
0110100110010110: 648005 643836 599486 483619
0110100110010110: 648005 643836 599486 483619
0101101001001000: 648005 643836 483619 538437
0100101001010010: 648005 643836 483619 466541
0100101001010010: 648005 643836 483619 460288
0100101001010010: 648005 643836 483619 599936
0100101001010010: 648005 643836 483619 571659
0100101001010010: 648005 643836 483619 466541
0100101001010010: 648005 643836 483619 460288
0100101001010010: 648005 643836 483619 599936
0100101001010010: 648005 643836 483619 571659
0101101001011010: 648005 643836 483619 599486
0101101001011010: 648005 643836 483619 599486
0101101001011010: 648005 643836 483619 599486
0101101001001000: 648005 643836 483619 538437
0101101001001000: 648005 643836 483619 538437
0101101001001000: 564728 600225 460288 513640
0110100110010110: 564728 505077 600225 460288
0111100010001000: 564728 513640 505077 600225
0101101001001000: 564728 513640 606951 600225
0101101001001000: 564728 513640 606951 505077
0110100010010010: 564728 600225 505077 599936
0110100110010110: 564728 600225 505077 460288
0110100110010110: 564728 600225 505077 460288
0111100010001000: 564728 600225 513640 505077
0110100110000100: 564728 600225 513640 460288
0110100010010010: 564728 600225 513640 606951
0110100010010010: 564728 600225 513640 606951
0110100110010110: 564728 600225 505077 460288
0110100110000100: 564728 600225 513640 460288
0110100110000100: 564728 600225 513640 460288
0110100110000100: 564728 600225 513640 460288
0101101001001000: 564728 600225 460288 513640
0100101001010010: 564728 600225 460288 606951
0100101001010010: 564728 600225 460288 483619
0100101001010010: 564728 600225 460288 606951
0100101001010010: 564728 600225 460288 483619
0101101001011010: 564728 600225 460288 505077
0101101001011010: 564728 600225 460288 505077
0101101001011010: 564728 600225 460288 505077
0101101001001000: 564728 600225 460288 513640
0110100110000100: 564728 505077 600225 599936
0110100110010110: 564728 505077 600225 460288
0110100110010110: 564728 505077 600225 460288
0111100010001000: 564728 505077 513640 600225
0110100110000100: 564728 505077 513640 460288
0110100110000100: 564728 505077 513640 599936
0110100010010010: 564728 505077 513640 606951
0110100010010010: 564728 505077 513640 606951
0111100010001000: 564728 505077 600225 513640
0110100110000100: 564728 505077 600225 599936
0110100110000100: 564728 505077 600225 599936
0110100110010110: 564728 505077 600225 460288
0110100110010110: 564728 505077 600225 460288
0110100110010110: 564728 505077 600225 460288
0110100110000100: 564728 505077 513640 460288
0110100110000100: 564728 505077 513640 599936
0110100110000100: 564728 505077 513640 460288
0110100110000100: 564728 505077 513640 599936
0110100010010010: 564728 505077 513640 606951
0111100010001000: 564728 505077 600225 513640
0111100010001000: 564728 505077 600225 513640
0111100010001000: 564728 505077 513640 600225
0111100010001000: 564728 505077 513640 600225
0110100010010010: 564728 505077 513640 606951
0110100110000100: 564728 505077 600225 599936
0110100110000100: 564728 505077 600225 599936
0111100010001000: 564728 505077 600225 513640
0110100110010110: 564728 505077 600225 460288
0110100110010110: 564728 505077 600225 460288
0110100110000100: 564728 505077 513640 460288
0110100110000100: 564728 505077 513640 599936
0110100110000100: 564728 505077 513640 460288
0110100110000100: 564728 505077 513640 599936
0111100010001000: 564728 505077 513640 600225
0111100010001000: 564728 505077 513640 600225
0110100010010010: 564728 505077 513640 606951
0110100010010010: 564728 505077 513640 606951
0110100110000100: 564728 513640 600225 606951
0110100010010010: 564728 513640 600225 460288
0110100010010010: 564728 513640 600225 460288
0111100010001000: 564728 513640 505077 600225
0110100110000100: 564728 513640 505077 606951
0110100010010010: 564728 513640 505077 460288
0110100010010010: 564728 513640 505077 599936
0111100010001000: 564728 513640 600225 505077
0110100110000100: 564728 513640 600225 606951
0110100110000100: 564728 513640 600225 606951
0110100110000100: 564728 513640 600225 606951
0111100010001000: 564728 513640 505077 600225
0111100010001000: 564728 513640 505077 600225
0110100110000100: 564728 513640 505077 606951
0110100110000100: 564728 513640 505077 606951
0110100110000100: 564728 513640 505077 606951
0101101001001000: 564728 513640 606951 600225
0101101001001000: 564728 513640 606951 505077
0100101001010010: 564728 513640 606951 607801
0100101001010010: 564728 513640 606951 460288
0100101001010010: 564728 513640 606951 607801
0100101001010010: 564728 513640 606951 460288
0101101001001000: 564728 513640 606951 600225
0101101001001000: 564728 513640 606951 505077
0101101001001000: 564728 513640 606951 600225
0101101001001000: 564728 513640 606951 505077
0110100110000100: 513640 606951 564728 607801
0110100110000100: 513640 606951 564728 460288
0110100010010010: 513640 606951 564728 600225
0110100010010010: 513640 606951 564728 505077
0110100110000100: 513640 606951 564728 607801
0110100110000100: 513640 606951 564728 460288
0110100110000100: 513640 606951 564728 607801
0110100110000100: 513640 606951 564728 460288
0110100110000100: 513640 606951 564728 607801
0110100110000100: 513640 606951 564728 460288
0110100110000100: 513640 606951 564728 607801
0110100110000100: 513640 606951 564728 460288
0110100110000100: 513640 606951 564728 607801
0110100110000100: 513640 606951 564728 460288
0110100010010010: 513640 564728 606951 607801
0110100010010010: 513640 564728 606951 460288
0110100110000100: 513640 564728 606951 600225
0110100110000100: 513640 564728 606951 505077
0110100110000100: 513640 564728 606951 600225
0110100110000100: 513640 564728 606951 505077
0110100110000100: 513640 564728 606951 600225
0110100110000100: 513640 564728 606951 505077
0110100110000100: 513640 564728 606951 600225
0110100110000100: 513640 564728 606951 505077
0111101011001000: 599486 466541 483619 648005
0101101001001000: 599486 466541 575152 571659
0101101001001000: 599486 466541 575152 648005
0101101101001100: 599486 466541 575152 483619
0111101011001000: 599486 571659 483619 648005
0111100010001000: 599486 648005 571659 466541
0101101001001000: 599486 648005 538437 466541
0101101001001000: 599486 648005 538437 571659
0101101001001000: 599486 648005 538437 483619
0101101001001000: 599486 648005 643836 466541
0101101001001000: 599486 648005 643836 571659
0100101101000100: 599486 648005 643836 538437
0110100110010110: 599486 483619 648005 643836
0111101011001000: 599486 483619 466541 648005
0111101011001000: 599486 483619 571659 648005
0111101111001100: 599486 483619 571659 466541
0110100110000100: 599486 466541 571659 575152
0111100010001000: 599486 466541 648005 571659
0110100110000100: 599486 466541 648005 575152
0110100010010010: 599486 466541 648005 538437
0110100010010010: 599486 466541 648005 643836
0110100010010010: 599486 466541 648005 538437
0110100010010010: 599486 466541 648005 643836
0110100110000100: 599486 466541 571659 575152
0110100110000100: 599486 466541 571659 575152
0110100110000100: 599486 466541 571659 575152
0110100110000100: 599486 466541 648005 575152
0110100110000100: 599486 466541 648005 575152
0111100110001100: 599486 466541 648005 483619
0110100110000100: 599486 466541 648005 575152
0111101011001000: 599486 466541 483619 648005
0110101011010010: 599486 466541 483619 460288
0110101011010010: 599486 466541 483619 599936
0110101011010010: 599486 466541 483619 643836
0110101011010010: 599486 466541 483619 460288
0110101011010010: 599486 466541 483619 599936
0110101011010010: 599486 466541 483619 643836
0111101011011010: 599486 466541 483619 571659
0111101011011010: 599486 466541 483619 571659
0111101011011010: 599486 466541 483619 571659
0111101011001000: 599486 466541 483619 648005
0110101111000100: 599486 466541 483619 575152
0101101001001000: 599486 466541 575152 571659
0101101001001000: 599486 466541 575152 648005
0100101001010010: 599486 466541 575152 593744
0100101001010010: 599486 466541 575152 593744
0101101101001100: 599486 466541 575152 483619
0100101001010010: 599486 466541 575152 593744
0100101001010010: 599486 466541 575152 593744
0111101011001000: 599486 466541 483619 648005
0111101011001000: 599486 466541 483619 648005
0110101111000100: 599486 466541 483619 575152
0110101111000100: 599486 466541 483619 575152
0110101111000100: 599486 466541 483619 575152
0110101111000100: 599486 466541 483619 575152
0110101111000100: 599486 466541 483619 575152
0110100010010010: 599486 571659 466541 575152
0110100010010010: 599486 571659 466541 575152
0111100010001000: 599486 571659 648005 466541
0110100010010010: 599486 571659 648005 538437
0110100010010010: 599486 571659 648005 643836
0110100010010010: 599486 571659 648005 538437
0110100010010010: 599486 571659 648005 643836
0111100010001000: 599486 571659 466541 648005
0111100110001100: 599486 571659 648005 483619
0111101011001000: 599486 571659 483619 648005
0110101011010010: 599486 571659 483619 460288
0110101011010010: 599486 571659 483619 599936
0110101011010010: 599486 571659 483619 643836
0110101011010010: 599486 571659 483619 460288
0110101011010010: 599486 571659 483619 599936
0110101011010010: 599486 571659 483619 643836
0111101011011010: 599486 571659 483619 466541
0111101011011010: 599486 571659 483619 466541
0111101011011010: 599486 571659 483619 466541
0111101011001000: 599486 571659 483619 648005
0111101011001000: 599486 571659 483619 648005
0111101011001000: 599486 571659 483619 648005
0110100010010010: 599486 648005 466541 575152
0111100010011010: 599486 648005 466541 483619
0110100010010010: 599486 648005 466541 575152
0111100010001000: 599486 648005 571659 466541
0111100010011010: 599486 648005 571659 483619
0110100010010010: 599486 648005 483619 460288
0110100010010010: 599486 648005 483619 599936
0111100010011010: 599486 648005 483619 466541
0111100010011010: 599486 648005 483619 571659
0110100110010110: 599486 648005 483619 643836
0111100010001000: 599486 648005 466541 571659
0110100110000100: 599486 648005 466541 538437
0110100110000100: 599486 648005 466541 643836
0110100110000100: 599486 648005 466541 538437
0110100110000100: 599486 648005 466541 643836
0111100010001000: 599486 648005 571659 466541
0111100010001000: 599486 648005 571659 466541
0110100110000100: 599486 648005 571659 538437
0110100110000100: 599486 648005 571659 643836
0110100110000100: 599486 648005 571659 538437
0110100110000100: 599486 648005 571659 643836
0110100110000100: 599486 648005 483619 538437
0110100110000100: 599486 648005 483619 538437
0110100110010110: 599486 648005 483619 643836
0101101001001000: 599486 648005 538437 466541
0101101001001000: 599486 648005 538437 571659
0101101001001000: 599486 648005 538437 483619
0101101001001000: 599486 648005 643836 466541
0101101001001000: 599486 648005 643836 571659
0100101101000100: 599486 648005 643836 538437
0101101001011010: 599486 648005 643836 483619
0101101001011010: 599486 648005 643836 483619
0101101001011010: 599486 648005 643836 483619
0101101001011010: 599486 648005 643836 483619
0110100010010010: 599486 483619 648005 538437
0110100010010010: 599486 483619 648005 538437
0110100110010110: 599486 483619 648005 643836
0110100110000100: 599486 483619 648005 460288
0110100110000100: 599486 483619 648005 599936
0111100110001100: 599486 483619 648005 466541
0111100110001100: 599486 483619 648005 571659
0110100110010110: 599486 483619 648005 643836
0110100010010010: 599486 483619 648005 538437
0110100110010110: 599486 483619 648005 643836
0111101011001000: 599486 483619 466541 648005
0110101011010010: 599486 483619 466541 575152
0110101011010010: 599486 483619 466541 575152
0111101011001000: 599486 483619 571659 648005
0110100010010010: 599486 483619 648005 538437
0111101011001000: 599486 483619 466541 648005
0111101011001000: 599486 483619 466541 648005
0110101111000100: 599486 483619 466541 460288
0110101111000100: 599486 483619 466541 599936
0110101111000100: 599486 483619 466541 643836
0110101111000100: 599486 483619 466541 460288
0110101111000100: 599486 483619 466541 599936
0110101111000100: 599486 483619 466541 643836
0111101111001100: 599486 483619 466541 571659
0111101011001000: 599486 483619 466541 648005
0110101011010010: 599486 483619 466541 575152
0110101011010010: 599486 483619 466541 575152
0111101011001000: 599486 483619 571659 648005
0111101011001000: 599486 483619 571659 648005
0110101111000100: 599486 483619 571659 460288
0110101111000100: 599486 483619 571659 599936
0110101111000100: 599486 483619 571659 643836
0110101111000100: 599486 483619 571659 460288
0110101111000100: 599486 483619 571659 599936
0110101111000100: 599486 483619 571659 643836
0111101111001100: 599486 483619 571659 466541
0111101011001000: 599486 483619 571659 648005
0111101111001100: 599486 483619 571659 466541
0110100110000100: 599486 483619 648005 460288
0110100110000100: 599486 483619 648005 599936
0110100110000100: 599486 483619 648005 460288
0110100110000100: 599486 483619 648005 599936
0111100110001100: 599486 483619 648005 466541
0111100110001100: 599486 483619 648005 571659
0111100110001100: 599486 483619 648005 466541
0111100110001100: 599486 483619 648005 571659
0111100110001100: 599486 483619 648005 466541
0111100110001100: 599486 483619 648005 571659
0110100010010010: 599486 483619 648005 538437
0110100110010110: 599486 483619 648005 643836
0110100010010010: 599486 483619 648005 538437
0110100110010110: 599486 483619 648005 643836
0111101011001000: 599486 483619 466541 648005
0111101011001000: 599486 483619 466541 648005
0111101111001100: 599486 483619 466541 571659
0111101011001000: 599486 483619 466541 648005
0111101011001000: 599486 483619 571659 648005
0111101011001000: 599486 483619 571659 648005
0111101111001100: 599486 483619 571659 466541
0111101011001000: 599486 483619 571659 648005
0110101111000100: 571659 599486 483619 648005
0110101111000100: 571659 599486 483619 648005
0110101111010110: 571659 599486 483619 466541
0110101111010110: 571659 599486 483619 466541
0110101111000100: 571659 599486 483619 648005
0110101111010110: 571659 599486 483619 466541
0110101111000100: 571659 483619 599486 460288
0110101111000100: 571659 483619 599486 599936
0110101111000100: 571659 483619 599486 643836
0110101111000100: 571659 483619 599486 460288
0110101111000100: 571659 483619 599486 599936
0110101111000100: 571659 483619 599486 643836
0110101111010110: 571659 483619 599486 466541
0110101011010010: 571659 483619 599486 648005
0110101111010110: 571659 483619 599486 466541
0110101111010110: 571659 483619 599486 466541
0110100110010110: 599936 483619 505077 460288
0111100010001000: 599936 483619 579726 505077
0110100110000100: 599936 505077 579726 460288
0110100110000100: 599936 505077 579726 564728
0111100010001000: 599936 505077 483619 579726
0110100110000100: 599936 505077 483619 564728
0110100010010010: 599936 505077 483619 466541
0110100010010010: 599936 505077 483619 571659
0110100010010010: 599936 505077 483619 599486
0110100010010010: 599936 505077 483619 643836
0110100110010110: 599936 505077 483619 460288
0110100110010110: 599936 505077 483619 460288
0110100110000100: 599936 505077 579726 460288
0110100110000100: 599936 505077 579726 564728
0110100110000100: 599936 505077 579726 460288
0110100110000100: 599936 505077 579726 564728
0110100110000100: 599936 505077 483619 564728
0110100110000100: 599936 505077 483619 564728
0110100110010110: 599936 505077 483619 460288
0111100010001000: 599936 505077 579726 483619
0111100010001000: 599936 505077 579726 483619
0111100010001000: 599936 505077 483619 579726
0111100010001000: 599936 505077 483619 579726
0111100010001000: 599936 505077 483619 579726
0110100110000100: 599936 505077 579726 460288
0110100110000100: 599936 505077 579726 564728
0110100110000100: 599936 505077 579726 460288
0110100110000100: 599936 505077 579726 564728
0111100010001000: 599936 505077 579726 483619
0110100110000100: 599936 505077 483619 564728
0110100110000100: 599936 505077 483619 564728
0111100010001000: 599936 505077 483619 579726
0111100010001000: 599936 505077 483619 579726
0110100110010110: 599936 505077 483619 460288
0110100110000100: 599936 505077 483619 564728
0110100010010010: 599936 579726 505077 460288
0110100010010010: 599936 579726 505077 564728
0111100010001000: 599936 579726 483619 505077
0110100010010010: 599936 579726 483619 466541
0110100010010010: 599936 579726 483619 460288
0110100010010010: 599936 579726 483619 571659
0110100010010010: 599936 579726 483619 599486
0110100010010010: 599936 579726 483619 643836
0111100010001000: 599936 579726 505077 483619
0110100010010010: 599936 483619 505077 564728
0110100110010110: 599936 483619 505077 460288
0111100010001000: 599936 483619 579726 505077
0111100010001000: 599936 483619 505077 579726
0110100110000100: 599936 483619 505077 466541
0110100110000100: 599936 483619 505077 571659
0110100110000100: 599936 483619 505077 599486
0110100110000100: 599936 483619 505077 643836
0110100110010110: 599936 483619 505077 460288
0110100010010010: 599936 483619 505077 564728
0110100110010110: 599936 483619 505077 460288
0111100010001000: 599936 483619 579726 505077
0111100010001000: 599936 483619 579726 505077
0110100110000100: 599936 483619 579726 466541
0110100110000100: 599936 483619 579726 460288
0110100110000100: 599936 483619 579726 571659
0110100110000100: 599936 483619 579726 599486
0110100110000100: 599936 483619 579726 643836
0111100010001000: 599936 483619 505077 579726
0111100010001000: 599936 483619 505077 579726
0111100010001000: 599936 483619 505077 579726
0111100010001000: 599936 483619 579726 505077
0111100010001000: 599936 483619 579726 505077
0110100110000100: 599936 483619 505077 466541
0110100110000100: 599936 483619 505077 571659
0110100110000100: 599936 483619 505077 599486
0110100110000100: 599936 483619 505077 643836
0110100110000100: 599936 483619 505077 466541
0110100110000100: 599936 483619 505077 571659
0110100110000100: 599936 483619 505077 599486
0110100110000100: 599936 483619 505077 643836
0111100010001000: 599936 483619 505077 579726
0110100010010010: 599936 483619 505077 564728
0110100110010110: 599936 483619 505077 460288
0110100110000100: 599936 483619 579726 466541
0110100110000100: 599936 483619 579726 460288
0110100110000100: 599936 483619 579726 571659
0110100110000100: 599936 483619 579726 599486
0110100110000100: 599936 483619 579726 643836
0110100110000100: 599936 483619 579726 466541
0110100110000100: 599936 483619 579726 460288
0110100110000100: 599936 483619 579726 571659
0110100110000100: 599936 483619 579726 599486
0110100110000100: 599936 483619 579726 643836
0111100010001000: 599936 483619 579726 505077
0111100010001000: 599936 483619 579726 505077
0110100110010110: 505077 599936 460288 483619
0110100110010110: 505077 564728 460288 600225
0111100010001000: 505077 564728 599936 460288
0110100110000100: 505077 460288 599936 606951
0110100110000100: 505077 460288 599936 600225
0110100010010010: 505077 460288 599936 579726
0110100110010110: 505077 460288 599936 483619
0110100110010110: 505077 460288 599936 483619
0111100010001000: 505077 460288 564728 599936
0110100110000100: 505077 460288 564728 606951
0110100110000100: 505077 460288 564728 483619
0110100010010010: 505077 460288 564728 513640
0110100110010110: 505077 460288 564728 600225
0110100110010110: 505077 460288 564728 600225
0110100110000100: 505077 460288 599936 606951
0110100110000100: 505077 460288 599936 600225
0110100110000100: 505077 460288 599936 606951
0110100110000100: 505077 460288 599936 600225
0110100010010010: 505077 460288 599936 579726
0110100110010110: 505077 460288 599936 483619
0110100110000100: 505077 460288 564728 606951
0110100110000100: 505077 460288 564728 483619
0110100110000100: 505077 460288 564728 606951
0110100110000100: 505077 460288 564728 483619
0110100010010010: 505077 460288 564728 513640
0110100110010110: 505077 460288 564728 600225
0111100010001000: 505077 460288 599936 564728
0111100010001000: 505077 460288 599936 564728
0111100010001000: 505077 460288 599936 564728
0111100010001000: 505077 460288 564728 599936
0111100010001000: 505077 460288 564728 599936
0111100010001000: 505077 460288 564728 599936
0110100110000100: 505077 460288 599936 606951
0110100110000100: 505077 460288 599936 600225
0110100110000100: 505077 460288 599936 606951
0110100110000100: 505077 460288 599936 600225
0111100010001000: 505077 460288 599936 564728
0110100010010010: 505077 460288 599936 579726
0110100110010110: 505077 460288 599936 483619
0110100110000100: 505077 460288 564728 606951
0110100110000100: 505077 460288 564728 483619
0110100110000100: 505077 460288 564728 606951
0110100110000100: 505077 460288 564728 483619
0111100010001000: 505077 460288 564728 599936
0111100010001000: 505077 460288 564728 599936
0110100010010010: 505077 460288 564728 513640
0110100110010110: 505077 460288 564728 600225
0110100010010010: 505077 599936 460288 606951
0110100010010010: 505077 599936 460288 600225
0110100110010110: 505077 599936 460288 483619
0111100010001000: 505077 599936 564728 460288
0110100010010010: 505077 599936 564728 600225
0110100010010010: 505077 599936 564728 513640
0111100010001000: 505077 599936 460288 564728
0110100110000100: 505077 599936 460288 579726
0110100110010110: 505077 599936 460288 483619
0110100110010110: 505077 599936 460288 483619
0110100110000100: 505077 599936 564728 579726
0110100110000100: 505077 599936 564728 483619
0111100010001000: 505077 599936 460288 564728
0111100010001000: 505077 599936 460288 564728
0111100010001000: 505077 599936 460288 564728
0111100010001000: 505077 599936 564728 460288
0111100010001000: 505077 599936 564728 460288
0111100010001000: 505077 599936 564728 460288
0110100110000100: 505077 599936 460288 579726
0110100110000100: 505077 599936 460288 579726
0111100010001000: 505077 599936 460288 564728
0110100110010110: 505077 599936 460288 483619
0110100110000100: 505077 599936 460288 579726
0110100110000100: 505077 599936 564728 579726
0110100110000100: 505077 599936 564728 483619
0110100110000100: 505077 599936 564728 579726
0110100110000100: 505077 599936 564728 483619
0111100010001000: 505077 599936 564728 460288
0111100010001000: 505077 599936 564728 460288
0110100110000100: 505077 599936 564728 579726
0110100110000100: 505077 599936 564728 483619
0110100010010010: 505077 564728 460288 606951
0110100010010010: 505077 564728 460288 483619
0110100110010110: 505077 564728 460288 600225
0111100010001000: 505077 564728 599936 460288
0110100010010010: 505077 564728 599936 579726
0110100010010010: 505077 564728 599936 483619
0111100010001000: 505077 564728 460288 599936
0110100110000100: 505077 564728 460288 513640
0110100110010110: 505077 564728 460288 600225
0110100110010110: 505077 564728 460288 600225
0111100010001000: 505077 564728 599936 460288
0111100010001000: 505077 564728 599936 460288
0110100110000100: 505077 564728 599936 600225
0110100110000100: 505077 564728 599936 513640
0111100010001000: 505077 564728 460288 599936
0111100010001000: 505077 564728 460288 599936
0111100010001000: 505077 564728 460288 599936
0111100010001000: 505077 564728 599936 460288
0111100010001000: 505077 564728 599936 460288
0111100010001000: 505077 564728 599936 460288
0110100110000100: 505077 564728 460288 513640
0110100110000100: 505077 564728 460288 513640
0111100010001000: 505077 564728 460288 599936
0110100110010110: 505077 564728 460288 600225
0110100110000100: 505077 564728 460288 513640
0110100110000100: 505077 564728 599936 600225
0110100110000100: 505077 564728 599936 513640
0110100110000100: 505077 564728 599936 600225
0110100110000100: 505077 564728 599936 513640
0111100010001000: 505077 564728 599936 460288
0111100010001000: 505077 564728 599936 460288
0110100110000100: 505077 564728 599936 600225
0110100110000100: 505077 564728 599936 513640
0101101001001000: 460288 606951 607801 600225
0101101001001000: 460288 606951 607801 505077
0101101001001000: 460288 606951 607801 483619
0101101001001000: 460288 606951 513640 600225
0101101001001000: 460288 606951 513640 505077
0101101001001000: 460288 606951 513640 483619
0100101101000100: 460288 606951 513640 607801
0101101001001000: 460288 600225 564728 606951
0101101001001000: 460288 600225 564728 483619
0111100010001000: 460288 505077 600225 606951
0110100110010110: 460288 505077 600225 564728
0101101001001000: 460288 505077 599936 606951
0101101001001000: 460288 505077 599936 600225
0101101001001000: 460288 505077 564728 606951
0101101001001000: 460288 505077 564728 483619
0100101101000100: 460288 505077 564728 599936
0111100010001000: 460288 483619 600225 606951
0111100010001000: 460288 483619 505077 606951
0111100010001000: 460288 483619 505077 600225
0110100110010110: 460288 483619 505077 599936
0110100110000100: 460288 606951 600225 607801
0110100110000100: 460288 606951 600225 513640
0110100010010010: 460288 606951 600225 564728
0110100010010010: 460288 606951 600225 564728
0111100010001000: 460288 606951 505077 600225
0110100110000100: 460288 606951 505077 607801
0110100110000100: 460288 606951 505077 513640
0110100010010010: 460288 606951 505077 599936
0110100010010010: 460288 606951 505077 564728
0110100010010010: 460288 606951 505077 599936
0110100010010010: 460288 606951 505077 564728
0111100010001000: 460288 606951 483619 600225
0111100010001000: 460288 606951 483619 505077
0110100110000100: 460288 606951 483619 607801
0110100110000100: 460288 606951 483619 513640
0110100010010010: 460288 606951 483619 466541
0110100010010010: 460288 606951 483619 599936
0110100010010010: 460288 606951 483619 571659
0110100010010010: 460288 606951 483619 599486
0110100010010010: 460288 606951 483619 643836
0110100110000100: 460288 606951 600225 607801
0110100110000100: 460288 606951 600225 513640
0110100110000100: 460288 606951 600225 607801
0110100110000100: 460288 606951 600225 513640
0110100110000100: 460288 606951 600225 607801
0110100110000100: 460288 606951 600225 513640
0110100010010010: 460288 606951 600225 564728
0110100110000100: 460288 606951 505077 607801
0110100110000100: 460288 606951 505077 513640
0110100110000100: 460288 606951 505077 607801
0110100110000100: 460288 606951 505077 513640
0110100110000100: 460288 606951 505077 607801
0110100110000100: 460288 606951 505077 513640
0110100110000100: 460288 606951 483619 607801
0110100110000100: 460288 606951 483619 513640
0110100110000100: 460288 606951 483619 607801
0110100110000100: 460288 606951 483619 513640
0110100110000100: 460288 606951 483619 607801
0110100110000100: 460288 606951 483619 513640
0101101001001000: 460288 606951 607801 600225
0101101001001000: 460288 606951 607801 505077
0101101001001000: 460288 606951 607801 483619
0100101001010010: 460288 606951 607801 593744
0100101001010010: 460288 606951 607801 593744
0100101001010010: 460288 606951 607801 593744
0100101001010010: 460288 606951 607801 593744
0101101001001000: 460288 606951 513640 600225
0101101001001000: 460288 606951 513640 505077
0101101001001000: 460288 606951 513640 483619
0100101001010010: 460288 606951 513640 564728
0100101001010010: 460288 606951 513640 564728
0100101101000100: 460288 606951 513640 607801
0100101001010010: 460288 606951 513640 564728
0100101001010010: 460288 606951 513640 564728
0110100110000100: 460288 600225 606951 564728
0110100010010010: 460288 600225 606951 607801
0110100010010010: 460288 600225 606951 513640
0110100010010010: 460288 600225 606951 607801
0110100010010010: 460288 600225 606951 513640
0111100010001000: 460288 600225 505077 606951
0110100010010010: 460288 600225 505077 599936
0110100010010010: 460288 600225 505077 599936
0110100110010110: 460288 600225 505077 564728
0110100110010110: 460288 600225 505077 564728
0111100010001000: 460288 600225 483619 606951
0111100010001000: 460288 600225 483619 505077
0110100110000100: 460288 600225 483619 564728
0110100010010010: 460288 600225 483619 466541
0110100010010010: 460288 600225 483619 599936
0110100010010010: 460288 600225 483619 571659
0110100010010010: 460288 600225 483619 599486
0110100010010010: 460288 600225 483619 643836
0111100010001000: 460288 600225 606951 505077
0111100010001000: 460288 600225 606951 483619
0110100110000100: 460288 600225 606951 564728
0110100110000100: 460288 600225 606951 564728
0110100110000100: 460288 600225 606951 564728
0110100110010110: 460288 600225 505077 564728
0110100110000100: 460288 600225 483619 564728
0110100110000100: 460288 600225 483619 564728
0110100110000100: 460288 600225 483619 564728
0101101001001000: 460288 600225 564728 606951
0101101001001000: 460288 600225 564728 483619
0100101001010010: 460288 600225 564728 513640
0100101001010010: 460288 600225 564728 513640
0101101001011010: 460288 600225 564728 505077
0101101001011010: 460288 600225 564728 505077
0101101001011010: 460288 600225 564728 505077
0100101001010010: 460288 600225 564728 513640
0110100010010010: 460288 505077 606951 607801
0110100010010010: 460288 505077 606951 513640
0110100010010010: 460288 505077 606951 607801
0110100010010010: 460288 505077 606951 513640
0111100010001000: 460288 505077 600225 606951
0110100110010110: 460288 505077 600225 564728
0111100010001000: 460288 505077 483619 606951
0111100010001000: 460288 505077 483619 600225
0110100010010010: 460288 505077 483619 466541
0110100010010010: 460288 505077 483619 571659
0110100010010010: 460288 505077 483619 599486
0110100010010010: 460288 505077 483619 643836
0110100110010110: 460288 505077 483619 599936
0111100010001000: 460288 505077 606951 600225
0111100010001000: 460288 505077 606951 483619
0110100110000100: 460288 505077 606951 599936
0110100110000100: 460288 505077 606951 564728
0110100110000100: 460288 505077 606951 599936
0110100110000100: 460288 505077 606951 564728
0111100010001000: 460288 505077 600225 606951
0111100010001000: 460288 505077 600225 483619
0111100010001000: 460288 505077 600225 606951
0110100110000100: 460288 505077 600225 599936
0110100110000100: 460288 505077 600225 599936
0110100110010110: 460288 505077 600225 564728
0110100110010110: 460288 505077 600225 564728
0110100110000100: 460288 505077 483619 564728
0110100110000100: 460288 505077 483619 564728
0110100110010110: 460288 505077 483619 599936
0101101001001000: 460288 505077 599936 606951
0101101001001000: 460288 505077 599936 600225
0100101001010010: 460288 505077 599936 579726
0100101001010010: 460288 505077 599936 579726
0101101001011010: 460288 505077 599936 483619
0101101001011010: 460288 505077 599936 483619
0101101001011010: 460288 505077 599936 483619
0100101001010010: 460288 505077 599936 579726
0101101001001000: 460288 505077 564728 606951
0101101001001000: 460288 505077 564728 483619
0100101001010010: 460288 505077 564728 513640
0100101001010010: 460288 505077 564728 513640
0100101101000100: 460288 505077 564728 599936
0101101001011010: 460288 505077 564728 600225
0101101001011010: 460288 505077 564728 600225
0101101001011010: 460288 505077 564728 600225
0100101001010010: 460288 505077 564728 513640
0110100010010010: 460288 483619 606951 607801
0110100010010010: 460288 483619 606951 513640
0110100010010010: 460288 483619 606951 607801
0110100010010010: 460288 483619 606951 513640
0111100010001000: 460288 483619 600225 606951
0110100010010010: 460288 483619 600225 564728
0110100010010010: 460288 483619 600225 564728
0111100010001000: 460288 483619 505077 606951
0111100010001000: 460288 483619 505077 600225
0110100010010010: 460288 483619 505077 564728
0110100010010010: 460288 483619 505077 564728
0110100110010110: 460288 483619 505077 599936
0111100010001000: 460288 483619 606951 600225
0111100010001000: 460288 483619 606951 505077
0110100110000100: 460288 483619 606951 466541
0110100110000100: 460288 483619 606951 599936
0110100110000100: 460288 483619 606951 571659
0110100110000100: 460288 483619 606951 599486
0110100110000100: 460288 483619 606951 643836
0110100010010010: 460288 483619 606951 607801
0110100010010010: 460288 483619 606951 513640
0111100010001000: 460288 483619 600225 606951
0111100010001000: 460288 483619 600225 505077
0111100010001000: 460288 483619 600225 606951
0110100110000100: 460288 483619 600225 466541
0110100110000100: 460288 483619 600225 599936
0110100110000100: 460288 483619 600225 571659
0110100110000100: 460288 483619 600225 599486
0110100110000100: 460288 483619 600225 643836
0110100010010010: 460288 483619 600225 564728
0111100010001000: 460288 483619 505077 606951
0111100010001000: 460288 483619 505077 600225
0111100010001000: 460288 483619 505077 606951
0111100010001000: 460288 483619 505077 600225
0110100110000100: 460288 483619 505077 466541
0110100110000100: 460288 483619 505077 571659
0110100110000100: 460288 483619 505077 599486
0110100110000100: 460288 483619 505077 643836
0110100110010110: 460288 483619 505077 599936
0110100010010010: 460288 483619 505077 564728
0110100110010110: 460288 483619 505077 599936
0111100010001000: 460288 483619 606951 600225
0111100010001000: 460288 483619 606951 505077
0111100010001000: 460288 483619 606951 600225
0111100010001000: 460288 483619 606951 505077
0110100010010010: 460288 483619 606951 607801
0110100010010010: 460288 483619 606951 513640
0111100010001000: 460288 483619 600225 606951
0111100010001000: 460288 483619 600225 505077
0111100010001000: 460288 483619 600225 606951
0111100010001000: 460288 483619 600225 505077
0110100010010010: 460288 483619 600225 564728
0111100010001000: 460288 483619 505077 606951
0111100010001000: 460288 483619 505077 600225
0111100010001000: 460288 483619 505077 606951
0111100010001000: 460288 483619 505077 600225
0110100010010010: 460288 483619 505077 564728
0110100110000100: 460288 483619 606951 466541
0110100110000100: 460288 483619 606951 599936
0110100110000100: 460288 483619 606951 571659
0110100110000100: 460288 483619 606951 599486
0110100110000100: 460288 483619 606951 643836
0110100110000100: 460288 483619 606951 466541
0110100110000100: 460288 483619 606951 599936
0110100110000100: 460288 483619 606951 571659
0110100110000100: 460288 483619 606951 599486
0110100110000100: 460288 483619 606951 643836
0111100010001000: 460288 483619 606951 600225
0111100010001000: 460288 483619 606951 505077
0110100010010010: 460288 483619 606951 607801
0110100010010010: 460288 483619 606951 513640
0110100010010010: 460288 483619 606951 607801
0110100010010010: 460288 483619 606951 513640
0110100110000100: 460288 483619 600225 466541
0110100110000100: 460288 483619 600225 599936
0110100110000100: 460288 483619 600225 571659
0110100110000100: 460288 483619 600225 599486
0110100110000100: 460288 483619 600225 643836
0110100110000100: 460288 483619 600225 466541
0110100110000100: 460288 483619 600225 599936
0110100110000100: 460288 483619 600225 571659
0110100110000100: 460288 483619 600225 599486
0110100110000100: 460288 483619 600225 643836
0111100010001000: 460288 483619 600225 606951
0111100010001000: 460288 483619 600225 505077
0111100010001000: 460288 483619 600225 606951
0110100010010010: 460288 483619 600225 564728
0110100010010010: 460288 483619 600225 564728
0110100110000100: 460288 483619 505077 466541
0110100110000100: 460288 483619 505077 571659
0110100110000100: 460288 483619 505077 599486
0110100110000100: 460288 483619 505077 643836
0110100110000100: 460288 483619 505077 466541
0110100110000100: 460288 483619 505077 571659
0110100110000100: 460288 483619 505077 599486
0110100110000100: 460288 483619 505077 643836
0111100010001000: 460288 483619 505077 606951
0111100010001000: 460288 483619 505077 600225
0111100010001000: 460288 483619 505077 606951
0111100010001000: 460288 483619 505077 600225
0110100010010010: 460288 483619 505077 564728
0110100110010110: 460288 483619 505077 599936
0110100010010010: 460288 483619 505077 564728
0110100110010110: 460288 483619 505077 599936
0110100110010110: 600225 564728 460288 505077
0110100010010010: 600225 460288 564728 513640
0110100110010110: 600225 460288 564728 505077
0110100110000100: 600225 460288 564728 606951
0110100110000100: 600225 460288 564728 483619
0110100010010010: 600225 460288 564728 513640
0110100110010110: 600225 460288 564728 505077
0110100110000100: 600225 460288 564728 606951
0110100110000100: 600225 460288 564728 483619
0110100110000100: 600225 460288 564728 606951
0110100110000100: 600225 460288 564728 483619
0110100010010010: 600225 460288 564728 513640
0110100110010110: 600225 460288 564728 505077
0110100010010010: 600225 564728 460288 606951
0110100010010010: 600225 564728 460288 483619
0110100110010110: 600225 564728 460288 505077
0110100110000100: 600225 564728 460288 513640
0110100110010110: 600225 564728 460288 505077
0110100110010110: 600225 564728 460288 505077
0110100110000100: 600225 564728 460288 513640
0110100110000100: 600225 564728 460288 513640
0110100110010110: 600225 564728 460288 505077
0110100110000100: 600225 564728 460288 513640
0101101001001000: 606951 607801 593744 460288
0101101001001000: 606951 607801 593744 513640
0111100010001000: 606951 513640 460288 607801
0101101001001000: 606951 513640 564728 607801
0101101001001000: 606951 513640 564728 460288
0110100110000100: 606951 607801 460288 593744
0110100010010010: 606951 607801 460288 600225
0110100010010010: 606951 607801 460288 505077
0110100010010010: 606951 607801 460288 483619
0111100010001000: 606951 607801 513640 460288
0110100110000100: 606951 607801 513640 593744
0110100010010010: 606951 607801 513640 564728
0110100010010010: 606951 607801 513640 564728
0110100110000100: 606951 607801 460288 593744
0110100110000100: 606951 607801 460288 593744
0110100110000100: 606951 607801 460288 593744
0110100110000100: 606951 607801 513640 593744
0110100110000100: 606951 607801 513640 593744
0110100110000100: 606951 607801 513640 593744
0101101001001000: 606951 607801 593744 460288
0101101001001000: 606951 607801 593744 513640
0100101001010010: 606951 607801 593744 575152
0100101001010010: 606951 607801 593744 575152
0100101001010010: 606951 607801 593744 575152
0110100010010010: 606951 460288 607801 593744
0110100010010010: 606951 460288 607801 593744
0111100010001000: 606951 460288 513640 607801
0110100010010010: 606951 460288 513640 564728
0110100010010010: 606951 460288 513640 564728
0111100010001000: 606951 460288 607801 513640
0110100110000100: 606951 460288 607801 600225
0110100110000100: 606951 460288 607801 505077
0110100110000100: 606951 460288 607801 483619
0110100010010010: 606951 460288 607801 593744
0110100110000100: 606951 460288 513640 600225
0110100110000100: 606951 460288 513640 505077
0110100110000100: 606951 460288 513640 483619
0110100010010010: 606951 460288 513640 564728
0111100010001000: 606951 460288 607801 513640
0111100010001000: 606951 460288 607801 513640
0110100010010010: 606951 460288 607801 593744
0111100010001000: 606951 460288 513640 607801
0111100010001000: 606951 460288 513640 607801
0110100010010010: 606951 460288 513640 564728
0110100110000100: 606951 460288 607801 600225
0110100110000100: 606951 460288 607801 505077
0110100110000100: 606951 460288 607801 483619
0110100110000100: 606951 460288 607801 600225
0110100110000100: 606951 460288 607801 505077
0110100110000100: 606951 460288 607801 483619
0111100010001000: 606951 460288 607801 513640
0110100010010010: 606951 460288 607801 593744
0110100010010010: 606951 460288 607801 593744
0110100110000100: 606951 460288 513640 600225
0110100110000100: 606951 460288 513640 505077
0110100110000100: 606951 460288 513640 483619
0110100110000100: 606951 460288 513640 600225
0110100110000100: 606951 460288 513640 505077
0110100110000100: 606951 460288 513640 483619
0111100010001000: 606951 460288 513640 607801
0111100010001000: 606951 460288 513640 607801
0110100010010010: 606951 460288 513640 564728
0110100010010010: 606951 460288 513640 564728
0110100010010010: 606951 513640 607801 593744
0110100010010010: 606951 513640 607801 593744
0111100010001000: 606951 513640 460288 607801
0110100010010010: 606951 513640 460288 600225
0110100010010010: 606951 513640 460288 505077
0110100010010010: 606951 513640 460288 483619
0111100010001000: 606951 513640 607801 460288
0110100110000100: 606951 513640 607801 564728
0110100110000100: 606951 513640 607801 564728
0111100010001000: 606951 513640 460288 607801
0111100010001000: 606951 513640 460288 607801
0110100110000100: 606951 513640 460288 564728
0110100110000100: 606951 513640 460288 564728
0101101001001000: 606951 513640 564728 607801
0101101001001000: 606951 513640 564728 460288
0100101001010010: 606951 513640 564728 600225
0100101001010010: 606951 513640 564728 505077
0100101001010010: 606951 513640 564728 600225
0100101001010010: 606951 513640 564728 505077
0101101001001000: 606951 513640 564728 607801
0101101001001000: 606951 513640 564728 460288
0101101001001000: 606951 513640 564728 607801
0101101001001000: 606951 513640 564728 460288
0110100110000100: 607801 593744 606951 575152
0110100010010010: 607801 593744 606951 460288
0110100010010010: 607801 593744 606951 513640
0110100110000100: 607801 593744 606951 575152
0110100110000100: 607801 593744 606951 575152
0110100110000100: 607801 593744 606951 575152
0110100110000100: 607801 593744 606951 575152
0110100110000100: 607801 593744 606951 575152
0110100010010010: 607801 606951 593744 575152
0110100110000100: 607801 606951 593744 460288
0110100110000100: 607801 606951 593744 513640
0110100010010010: 607801 606951 593744 575152
0110100110000100: 607801 606951 593744 460288
0110100110000100: 607801 606951 593744 513640
0110100110000100: 607801 606951 593744 460288
0110100110000100: 607801 606951 593744 513640
0110100010010010: 607801 606951 593744 575152
0110100110000100: 593744 575152 607801 466541
0110100010010010: 593744 575152 607801 606951
0110100110000100: 593744 575152 607801 466541
0110100110000100: 593744 575152 607801 466541
0110100110000100: 593744 575152 607801 466541
0110100110000100: 593744 575152 607801 466541
0110100110000100: 593744 575152 607801 466541
0110100010010010: 593744 607801 575152 466541
0110100110000100: 593744 607801 575152 606951
0110100110000100: 593744 607801 575152 606951
0110100110000100: 593744 607801 575152 606951
0110100110000100: 593744 607801 575152 606951
0110100110000100: 575152 466541 593744 599486
0110100110000100: 575152 466541 593744 483619
0110100010010010: 575152 466541 593744 607801
0110100110000100: 575152 466541 593744 599486
0110100110000100: 575152 466541 593744 483619
0110100110000100: 575152 466541 593744 599486
0110100110000100: 575152 466541 593744 483619
0110100010010010: 575152 466541 593744 607801
0110100110000100: 575152 466541 593744 599486
0110100110000100: 575152 466541 593744 483619
0110100110000100: 575152 466541 593744 599486
0110100110000100: 575152 466541 593744 483619
0110100010010010: 575152 466541 593744 607801
0110100010010010: 575152 593744 466541 599486
0110100010010010: 575152 593744 466541 483619
0110100110000100: 575152 593744 466541 607801
0110100110000100: 575152 593744 466541 607801
0110100110000100: 575152 593744 466541 607801
0110100110000100: 575152 593744 466541 607801
0101101001001000: 466541 575152 593744 599486
0101101001001000: 466541 575152 593744 483619
0111101011001000: 466541 599486 483619 575152
0111101011001000: 466541 483619 599486 575152
0110100010010010: 466541 575152 599486 571659
0110100010010010: 466541 575152 599486 648005
0111100010011010: 466541 575152 599486 483619
0110100010010010: 466541 575152 483619 460288
0110100010010010: 466541 575152 483619 599936
0110100010010010: 466541 575152 483619 571659
0110100010010010: 466541 575152 483619 643836
0111100010011010: 466541 575152 483619 599486
0110100110000100: 466541 575152 599486 593744
0110100110000100: 466541 575152 599486 593744
0110100110000100: 466541 575152 483619 593744
0110100110000100: 466541 575152 483619 593744
0101101001001000: 466541 575152 593744 599486
0101101001001000: 466541 575152 593744 483619
0100101001010010: 466541 575152 593744 607801
0100101001010010: 466541 575152 593744 607801
0100101001010010: 466541 575152 593744 607801
0110100010010010: 466541 599486 575152 593744
0110100010010010: 466541 599486 575152 593744
0110100110000100: 466541 599486 575152 571659
0110100110000100: 466541 599486 575152 648005
0111100110001100: 466541 599486 575152 483619
0110100010010010: 466541 599486 575152 593744
0111101011001000: 466541 599486 483619 575152
0111101011001000: 466541 599486 483619 575152
0111101011001000: 466541 599486 483619 575152
0110100010010010: 466541 599486 575152 593744
0111101011001000: 466541 599486 483619 575152
0111101011001000: 466541 599486 483619 575152
0110101111000100: 466541 599486 483619 648005
0110101111000100: 466541 599486 483619 648005
0111101011001000: 466541 599486 483619 575152
0110101111010110: 466541 599486 483619 571659
0110101111010110: 466541 599486 483619 571659
0110101111000100: 466541 599486 483619 648005
0111101011001000: 466541 599486 483619 575152
0110100110000100: 466541 599486 575152 571659
0110100110000100: 466541 599486 575152 648005
0110100110000100: 466541 599486 575152 571659
0110100110000100: 466541 599486 575152 648005
0111100110001100: 466541 599486 575152 483619
0111100110001100: 466541 599486 575152 483619
0111100110001100: 466541 599486 575152 483619
0110100010010010: 466541 599486 575152 593744
0110100010010010: 466541 599486 575152 593744
0111101011001000: 466541 599486 483619 575152
0110100010010010: 466541 483619 575152 593744
0110100010010010: 466541 483619 575152 593744
0110100110000100: 466541 483619 575152 460288
0110100110000100: 466541 483619 575152 599936
0110100110000100: 466541 483619 575152 571659
0110100110000100: 466541 483619 575152 643836
0111100110001100: 466541 483619 575152 599486
0110100010010010: 466541 483619 575152 593744
0111101011001000: 466541 483619 599486 575152
0111101011001000: 466541 483619 599486 575152
0111101011001000: 466541 483619 599486 575152
0110100010010010: 466541 483619 575152 593744
0111101011001000: 466541 483619 599486 575152
0111101011001000: 466541 483619 599486 575152
0110101111000100: 466541 483619 599486 460288
0110101111000100: 466541 483619 599486 599936
0110101111000100: 466541 483619 599486 643836
0110101111000100: 466541 483619 599486 460288
0110101111000100: 466541 483619 599486 599936
0110101111000100: 466541 483619 599486 643836
0111101011001000: 466541 483619 599486 575152
0110101111010110: 466541 483619 599486 571659
0110101011010010: 466541 483619 599486 648005
0110101111010110: 466541 483619 599486 571659
0111101011001000: 466541 483619 599486 575152
0110100110000100: 466541 483619 575152 460288
0110100110000100: 466541 483619 575152 599936
0110100110000100: 466541 483619 575152 571659
0110100110000100: 466541 483619 575152 643836
0110100110000100: 466541 483619 575152 460288
0110100110000100: 466541 483619 575152 599936
0110100110000100: 466541 483619 575152 571659
0110100110000100: 466541 483619 575152 643836
0111100110001100: 466541 483619 575152 599486
0111100110001100: 466541 483619 575152 599486
0111100110001100: 466541 483619 575152 599486
0110100010010010: 466541 483619 575152 593744
0110100010010010: 466541 483619 575152 593744
0111101011001000: 466541 483619 599486 575152
0111101011001000: 466541 483619 599486 575152
0111101011001000: 466541 483619 599486 575152
0111101011001000: 466541 483619 599486 575152
