Vertex,0110010010100010100000100,0111110110110011100010100,0111110111110001100011000,0111010100110001000100010,0111110111110111110011100,0111010101110001000001000,0110010011100000100001000,0111110100110001000110010,0111110110110101110010000,0111110110110001100010000,0111110111110101110011000,0111110000100001000010000,0110010010100010100100110,0111010110110011100000100,0111110100110001000010000
564950,70.0,14.0,2.0,46.0,1.0,53.0,78.0,3.0,9.0,27.0,7.0,4.0,5.0,30.0,15.0
457203,69.0,5.0,1.0,46.0,1.0,54.0,83.0,5.0,12.0,18.0,5.0,4.0,4.0,16.0,21.0
464974,70.0,4.0,2.0,25.0,0.0,34.0,73.0,1.0,2.0,7.0,1.0,2.0,7.0,13.0,9.0
459154,20.0,8.0,0.0,21.0,1.0,34.0,37.0,4.0,9.0,11.0,0.0,3.0,0.0,4.0,17.0
457248,25.0,0.0,0.0,9.0,0.0,18.0,37.0,0.0,2.0,2.0,0.0,1.0,0.0,4.0,5.0
545473,47.0,0.0,0.0,25.0,0.0,21.0,40.0,0.0,2.0,2.0,0.0,1.0,4.0,4.0,5.0
468995,40.0,4.0,0.0,27.0,0.0,39.0,44.0,6.0,6.0,13.0,4.0,4.0,1.0,7.0,16.0
496460,29.0,6.0,0.0,28.0,0.0,36.0,28.0,9.0,6.0,13.0,4.0,1.0,1.0,8.0,14.0
511740,47.0,4.0,2.0,15.0,0.0,31.0,58.0,1.0,2.0,7.0,1.0,2.0,4.0,11.0,8.0
604269,47.0,11.0,2.0,45.0,1.0,53.0,42.0,7.0,12.0,15.0,5.0,1.0,4.0,20.0,18.0
622296,72.0,12.0,1.0,54.0,1.0,71.0,72.0,6.0,17.0,22.0,7.0,4.0,3.0,20.0,32.0
499686,51.0,0.0,0.0,25.0,0.0,6.0,29.0,0.0,0.0,0.0,0.0,0.0,4.0,3.0,1.0
598962,41.0,0.0,0.0,17.0,0.0,7.0,33.0,0.0,0.0,0.0,0.0,0.0,3.0,5.0,1.0
469287,30.0,0.0,0.0,9.0,0.0,14.0,10.0,0.0,1.0,0.0,0.0,0.0,1.0,3.0,0.0
603422,42.0,2.0,0.0,17.0,0.0,24.0,38.0,3.0,2.0,10.0,1.0,4.0,3.0,7.0,13.0
539402,49.0,0.0,0.0,25.0,0.0,6.0,16.0,0.0,0.0,0.0,0.0,0.0,4.0,3.0,0.0
527684,25.0,0.0,0.0,9.0,0.0,19.0,40.0,0.0,3.0,8.0,0.0,4.0,1.0,2.0,20.0
604300,24.0,0.0,0.0,12.0,0.0,0.0,12.0,0.0,0.0,0.0,0.0,0.0,1.0,0.0,0.0
535566,12.0,0.0,0.0,5.0,0.0,0.0,5.0,0.0,0.0,0.0,0.0,0.0,0.0,0.0,0.0
graph,162.0,14.0,2.0,92.0,1.0,104.0,155.0,9.0,17.0,31.0,7.0,7.0,10.0,32.0,39.0
