Vertex,0111110000100001000010000,0111010101110001000001000,0111110111110101110011000,0111110110110011100010100,0110010011100000100001000,0111110110110101110010000,0111110111110111110011100,0110010011100110110001100,0110010010100010100000100,0111110110110001100010000,0111010100110001000100010,0111010110110011100100110,0110010010100010100100110,0111110100110001000110010,0111110110110011100110110,0111010101110001000101010,0111110111110001100011000,0111010110110011100000100,0111110100110001000010000,0110010011100100110001000
518333,5.0,8.0,0.0,0.0,79.0,0.0,0.0,0.0,45.0,1.0,16.0,0.0,5.0,0.0,0.0,0.0,0.0,5.0,4.0,10.0
568510,18.0,44.0,2.0,6.0,191.0,0.0,0.0,5.0,109.0,22.0,25.0,7.0,7.0,1.0,1.0,13.0,4.0,18.0,27.0,59.0
623205,11.0,27.0,0.0,0.0,79.0,2.0,0.0,0.0,38.0,7.0,10.0,0.0,5.0,0.0,0.0,0.0,0.0,4.0,15.0,8.0
478929,13.0,40.0,1.0,4.0,121.0,1.0,0.0,4.0,73.0,10.0,20.0,5.0,7.0,0.0,0.0,6.0,0.0,12.0,20.0,36.0
485633,18.0,47.0,2.0,7.0,122.0,0.0,0.0,3.0,58.0,25.0,23.0,2.0,1.0,0.0,1.0,4.0,1.0,15.0,24.0,20.0
583795,16.0,30.0,0.0,0.0,123.0,2.0,0.0,4.0,68.0,8.0,12.0,2.0,1.0,0.0,0.0,5.0,0.0,5.0,19.0,24.0
462278,12.0,102.0,8.0,12.0,118.0,12.0,1.0,1.0,89.0,53.0,50.0,7.0,4.0,4.0,1.0,10.0,6.0,45.0,34.0,24.0
575753,16.0,101.0,8.0,12.0,179.0,12.0,1.0,3.0,114.0,48.0,61.0,5.0,4.0,5.0,1.0,11.0,5.0,44.0,37.0,26.0
483619,17.0,100.0,8.0,9.0,162.0,12.0,1.0,5.0,106.0,41.0,54.0,6.0,7.0,2.0,1.0,12.0,2.0,31.0,45.0,44.0
557387,15.0,42.0,5.0,12.0,112.0,4.0,1.0,0.0,71.0,36.0,33.0,4.0,2.0,0.0,0.0,8.0,4.0,28.0,24.0,21.0
476869,19.0,71.0,3.0,6.0,163.0,8.0,1.0,0.0,113.0,27.0,32.0,0.0,0.0,2.0,0.0,6.0,4.0,19.0,31.0,6.0
612110,0.0,18.0,0.0,0.0,47.0,1.0,0.0,0.0,50.0,0.0,7.0,0.0,0.0,0.0,0.0,0.0,0.0,6.0,3.0,0.0
553069,0.0,0.0,0.0,0.0,5.0,0.0,0.0,0.0,32.0,0.0,4.0,0.0,0.0,0.0,0.0,0.0,0.0,0.0,0.0,0.0
523365,8.0,40.0,0.0,0.0,58.0,2.0,0.0,0.0,47.0,15.0,5.0,1.0,0.0,0.0,0.0,6.0,0.0,2.0,11.0,10.0
506221,15.0,37.0,2.0,3.0,126.0,0.0,0.0,0.0,51.0,20.0,13.0,0.0,6.0,1.0,0.0,1.0,4.0,15.0,19.0,8.0
583292,0.0,18.0,0.0,0.0,47.0,1.0,0.0,0.0,49.0,0.0,7.0,0.0,0.0,0.0,0.0,0.0,0.0,6.0,3.0,0.0
567995,0.0,0.0,0.0,0.0,4.0,0.0,0.0,0.0,35.0,0.0,3.0,0.0,0.0,0.0,0.0,0.0,0.0,0.0,0.0,0.0
621440,2.0,49.0,1.0,7.0,70.0,1.0,0.0,0.0,82.0,13.0,28.0,1.0,0.0,5.0,0.0,7.0,0.0,12.0,11.0,11.0
593951,5.0,43.0,0.0,2.0,74.0,2.0,0.0,0.0,76.0,13.0,29.0,0.0,0.0,5.0,0.0,1.0,0.0,6.0,10.0,5.0
522430,0.0,6.0,0.0,0.0,19.0,0.0,0.0,0.0,34.0,0.0,8.0,0.0,0.0,0.0,0.0,0.0,0.0,1.0,1.0,0.0
575085,0.0,6.0,0.0,0.0,19.0,0.0,0.0,0.0,19.0,0.0,7.0,0.0,0.0,0.0,0.0,0.0,0.0,1.0,1.0,0.0
596503,0.0,9.0,0.0,0.0,51.0,0.0,0.0,0.0,57.0,0.0,18.0,0.0,6.0,0.0,0.0,0.0,0.0,6.0,1.0,6.0
622825,0.0,12.0,0.0,0.0,29.0,0.0,0.0,0.0,26.0,1.0,6.0,0.0,0.0,0.0,0.0,0.0,0.0,4.0,0.0,3.0
633285,0.0,0.0,0.0,0.0,27.0,0.0,0.0,0.0,43.0,0.0,9.0,0.0,0.0,0.0,0.0,0.0,0.0,0.0,0.0,4.0
graph,38.0,170.0,8.0,16.0,405.0,12.0,1.0,5.0,297.0,68.0,96.0,8.0,11.0,5.0,1.0,18.0,6.0,57.0,68.0,65.0
