Vertex,0111100110001100,0100101001010010,0110101111010110,0110101111000100,0100101101000100,0111100010001000,0111101111011110,0111101011011010,0101101001001000,0101101101001100,0110100110010110,0101101101011110,0100101101010110,0111101011001000,0110101011010010,0111101111001100,0111100010011010,0111100110011110,0110100110000100,0101101001011010,0110100010010010
643788,125.0,41.0,115.0,180.0,10.0,268.0,155.0,125.0,92.0,28.0,105.0,6.0,0.0,397.0,118.0,144.0,68.0,10.0,425.0,42.0,211.0
530610,178.0,35.0,145.0,259.0,4.0,189.0,310.0,163.0,78.0,38.0,35.0,10.0,0.0,576.0,163.0,198.0,105.0,11.0,353.0,14.0,189.0
524789,171.0,89.0,128.0,248.0,14.0,286.0,310.0,144.0,130.0,40.0,35.0,5.0,0.0,546.0,162.0,180.0,90.0,9.0,493.0,14.0,289.0
582458,108.0,74.0,54.0,152.0,12.0,337.0,0.0,69.0,112.0,18.0,37.0,2.0,0.0,357.0,85.0,72.0,68.0,8.0,546.0,6.0,308.0
616573,56.0,13.0,0.0,81.0,8.0,182.0,0.0,0.0,56.0,22.0,105.0,0.0,0.0,152.0,65.0,0.0,20.0,0.0,215.0,42.0,95.0
457203,345.0,80.0,263.0,528.0,14.0,473.0,310.0,300.0,236.0,88.0,70.0,16.0,0.0,1157.0,346.0,360.0,185.0,20.0,831.0,25.0,462.0
561428,185.0,104.0,179.0,283.0,20.0,431.0,155.0,191.0,203.0,52.0,105.0,12.0,2.0,604.0,192.0,234.0,100.0,11.0,711.0,42.0,395.0
459521,56.0,4.0,27.0,79.0,4.0,133.0,0.0,32.0,46.0,16.0,0.0,4.0,0.0,171.0,50.0,36.0,26.0,3.0,177.0,0.0,73.0
583377,59.0,34.0,37.0,92.0,6.0,233.0,0.0,43.0,70.0,10.0,35.0,2.0,0.0,212.0,55.0,54.0,43.0,2.0,291.0,11.0,154.0
599987,16.0,128.0,0.0,18.0,14.0,157.0,0.0,0.0,123.0,4.0,0.0,0.0,0.0,42.0,10.0,0.0,4.0,0.0,419.0,0.0,274.0
490071,16.0,14.0,0.0,18.0,2.0,69.0,0.0,0.0,32.0,4.0,37.0,0.0,0.0,42.0,10.0,0.0,4.0,0.0,155.0,6.0,83.0
498768,126.0,47.0,54.0,178.0,6.0,260.0,0.0,69.0,97.0,20.0,37.0,5.0,2.0,420.0,102.0,72.0,76.0,8.0,467.0,6.0,250.0
616785,47.0,113.0,0.0,61.0,18.0,156.0,0.0,0.0,118.0,16.0,0.0,0.0,0.0,124.0,46.0,0.0,14.0,0.0,374.0,0.0,245.0
495228,52.0,22.0,37.0,85.0,4.0,213.0,0.0,42.0,74.0,8.0,0.0,1.0,0.0,198.0,50.0,54.0,34.0,2.0,285.0,0.0,145.0
536478,61.0,66.0,30.0,105.0,8.0,329.0,0.0,36.0,137.0,14.0,35.0,0.0,0.0,233.0,69.0,54.0,40.0,0.0,449.0,11.0,244.0
474696,121.0,63.0,74.0,179.0,8.0,317.0,0.0,88.0,133.0,26.0,0.0,5.0,2.0,400.0,117.0,108.0,74.0,6.0,532.0,0.0,288.0
587383,24.0,44.0,0.0,36.0,8.0,172.0,0.0,0.0,75.0,8.0,0.0,0.0,0.0,76.0,24.0,0.0,12.0,0.0,237.0,0.0,132.0
628766,26.0,81.0,0.0,36.0,12.0,95.0,0.0,0.0,99.0,12.0,35.0,0.0,0.0,62.0,36.0,0.0,13.0,0.0,347.0,11.0,221.0
512462,8.0,38.0,0.0,12.0,8.0,68.0,0.0,0.0,72.0,4.0,0.0,0.0,0.0,21.0,12.0,0.0,2.0,0.0,213.0,0.0,126.0
519930,54.0,131.0,17.0,65.0,20.0,160.0,0.0,18.0,133.0,14.0,0.0,4.0,2.0,137.0,49.0,18.0,28.0,2.0,459.0,0.0,293.0
624258,21.0,11.0,0.0,23.0,2.0,54.0,0.0,0.0,30.0,4.0,37.0,0.0,0.0,55.0,12.0,0.0,6.0,0.0,139.0,6.0,76.0
653554,8.0,26.0,0.0,12.0,0.0,0.0,0.0,0.0,36.0,4.0,0.0,0.0,0.0,21.0,12.0,0.0,2.0,0.0,136.0,0.0,97.0
652652,21.0,22.0,0.0,26.0,6.0,54.0,0.0,0.0,42.0,6.0,0.0,0.0,0.0,53.0,19.0,0.0,6.0,0.0,174.0,0.0,98.0
graph,471.0,320.0,290.0,689.0,52.0,1159.0,310.0,330.0,556.0,114.0,177.0,18.0,2.0,1514.0,451.0,396.0,255.0,23.0,2107.0,59.0,1187.0
