Vertex,0111110110110101110010000,0111110100110001000110010,0111110111110101110011000,0111110111110001100011000,0110010010100010100000100,0111010110110011100100110,0111110110110001100010000,0111110000100001000010000,0111110110110011100010100,0111010100110001000100010,0111110110110011100110110,0110010010100010100100110,0110010011100000100001000,0111110100110001000010000,0110010011100110110001100,0111010110110011100000100,0110010011100100110001000,0111010101110001000101010,0111110111110111110011100,0111010101110001000001000
631159,37.0,36.0,26.0,13.0,379.0,24.0,278.0,183.0,54.0,190.0,10.0,32.0,822.0,312.0,17.0,156.0,217.0,97.0,3.0,427.0
561438,4.0,0.0,0.0,0.0,160.0,0.0,32.0,90.0,0.0,35.0,0.0,5.0,340.0,95.0,1.0,12.0,44.0,10.0,0.0,70.0
609316,1.0,5.0,3.0,3.0,138.0,1.0,62.0,101.0,5.0,30.0,0.0,0.0,322.0,90.0,0.0,23.0,40.0,13.0,0.0,88.0
612283,4.0,3.0,0.0,1.0,236.0,4.0,34.0,45.0,6.0,51.0,0.0,12.0,402.0,54.0,2.0,22.0,93.0,38.0,0.0,127.0
553093,0.0,0.0,0.0,0.0,70.0,0.0,0.0,0.0,0.0,18.0,0.0,0.0,63.0,0.0,0.0,0.0,2.0,0.0,0.0,0.0
512806,11.0,9.0,6.0,12.0,256.0,14.0,114.0,143.0,17.0,53.0,3.0,21.0,504.0,128.0,23.0,46.0,193.0,56.0,2.0,152.0
459302,2.0,12.0,2.0,0.0,182.0,1.0,50.0,51.0,14.0,89.0,2.0,8.0,295.0,101.0,0.0,41.0,39.0,8.0,0.0,102.0
521142,7.0,22.0,13.0,4.0,211.0,13.0,118.0,76.0,33.0,98.0,3.0,10.0,347.0,148.0,3.0,62.0,68.0,44.0,0.0,202.0
618202,10.0,13.0,6.0,11.0,237.0,1.0,109.0,106.0,16.0,78.0,2.0,12.0,391.0,106.0,0.0,46.0,52.0,18.0,2.0,135.0
529542,3.0,7.0,1.0,2.0,195.0,1.0,53.0,90.0,9.0,47.0,0.0,8.0,398.0,109.0,2.0,21.0,83.0,24.0,0.0,112.0
587163,37.0,16.0,26.0,14.0,335.0,22.0,232.0,90.0,62.0,172.0,7.0,18.0,558.0,198.0,4.0,136.0,149.0,65.0,3.0,375.0
504295,9.0,16.0,7.0,12.0,238.0,7.0,129.0,111.0,22.0,110.0,5.0,23.0,428.0,112.0,5.0,68.0,97.0,25.0,2.0,160.0
501997,30.0,27.0,17.0,8.0,402.0,7.0,153.0,59.0,23.0,137.0,3.0,15.0,442.0,137.0,2.0,77.0,106.0,62.0,3.0,251.0
545303,3.0,20.0,1.0,0.0,271.0,19.0,69.0,70.0,15.0,96.0,3.0,14.0,341.0,123.0,21.0,33.0,159.0,43.0,0.0,159.0
562949,3.0,20.0,1.0,3.0,200.0,13.0,84.0,75.0,18.0,85.0,3.0,8.0,363.0,115.0,3.0,42.0,76.0,25.0,0.0,154.0
543696,7.0,27.0,13.0,7.0,318.0,24.0,162.0,88.0,41.0,127.0,6.0,16.0,500.0,167.0,26.0,83.0,208.0,71.0,0.0,271.0
495194,4.0,0.0,0.0,0.0,95.0,1.0,30.0,38.0,0.0,16.0,0.0,0.0,221.0,48.0,0.0,11.0,28.0,9.0,0.0,83.0
494204,1.0,12.0,3.0,2.0,379.0,23.0,88.0,34.0,31.0,126.0,6.0,18.0,484.0,99.0,18.0,72.0,187.0,59.0,0.0,225.0
557052,2.0,0.0,0.0,0.0,231.0,6.0,18.0,21.0,0.0,45.0,0.0,14.0,339.0,37.0,19.0,17.0,119.0,23.0,0.0,109.0
460145,1.0,4.0,1.0,0.0,437.0,12.0,28.0,35.0,7.0,108.0,1.0,36.0,472.0,44.0,21.0,45.0,191.0,39.0,0.0,127.0
528610,1.0,2.0,0.0,0.0,293.0,0.0,4.0,14.0,3.0,92.0,0.0,29.0,277.0,9.0,3.0,27.0,57.0,4.0,0.0,60.0
474334,1.0,0.0,0.0,0.0,229.0,0.0,3.0,13.0,0.0,46.0,0.0,15.0,245.0,8.0,1.0,17.0,48.0,6.0,0.0,52.0
628359,0.0,4.0,4.0,3.0,152.0,0.0,59.0,47.0,14.0,40.0,1.0,2.0,281.0,47.0,0.0,36.0,28.0,12.0,0.0,125.0
649565,4.0,0.0,0.0,0.0,178.0,2.0,31.0,51.0,0.0,35.0,0.0,8.0,303.0,55.0,4.0,11.0,86.0,17.0,0.0,88.0
465576,3.0,0.0,0.0,0.0,135.0,0.0,18.0,22.0,0.0,24.0,0.0,6.0,185.0,17.0,0.0,13.0,23.0,7.0,0.0,93.0
482855,0.0,0.0,0.0,0.0,115.0,0.0,7.0,12.0,0.0,21.0,0.0,0.0,121.0,16.0,0.0,8.0,22.0,0.0,0.0,38.0
584758,0.0,0.0,0.0,0.0,53.0,0.0,0.0,0.0,0.0,6.0,0.0,0.0,16.0,0.0,0.0,0.0,0.0,0.0,0.0,0.0
graph,37.0,51.0,26.0,19.0,1225.0,39.0,393.0,333.0,78.0,395.0,11.0,66.0,1892.0,475.0,35.0,225.0,483.0,155.0,3.0,757.0
