Vertex,0110010010100010100100110,0111010110110011100000100,0111110100110001000010000,0111110100110001000110010,0111110110110011100010100,0111010101110001000101010,0111110000100001000010000,0110010011100110110001100,0110010010100010100000100,0111110110110001100010000,0111010100110001000100010,0110010011100100110001000,0110010011100000100001000,0111010101110001000001000
517167,1.0,1.0,20.0,3.0,0.0,1.0,10.0,0.0,52.0,2.0,18.0,13.0,63.0,27.0
565233,2.0,0.0,0.0,0.0,0.0,1.0,1.0,0.0,83.0,0.0,10.0,19.0,62.0,6.0
528343,8.0,16.0,50.0,3.0,2.0,11.0,29.0,2.0,169.0,18.0,44.0,37.0,255.0,88.0
498506,4.0,1.0,16.0,0.0,0.0,5.0,20.0,2.0,110.0,2.0,8.0,46.0,140.0,12.0
640500,4.0,1.0,8.0,0.0,0.0,1.0,11.0,0.0,90.0,2.0,8.0,22.0,110.0,15.0
653051,0.0,1.0,20.0,3.0,0.0,1.0,10.0,0.0,47.0,2.0,18.0,4.0,71.0,27.0
469932,2.0,1.0,16.0,0.0,0.0,2.0,18.0,1.0,45.0,2.0,3.0,18.0,97.0,15.0
657396,3.0,11.0,27.0,1.0,2.0,3.0,16.0,0.0,72.0,11.0,25.0,10.0,115.0,40.0
504429,7.0,16.0,36.0,2.0,2.0,9.0,24.0,0.0,156.0,18.0,33.0,34.0,242.0,70.0
550448,0.0,6.0,20.0,1.0,1.0,3.0,16.0,0.0,68.0,7.0,13.0,6.0,120.0,26.0
467293,3.0,9.0,32.0,2.0,2.0,10.0,22.0,2.0,121.0,14.0,24.0,58.0,174.0,58.0
583085,0.0,0.0,0.0,0.0,0.0,0.0,0.0,0.0,23.0,0.0,4.0,0.0,12.0,7.0
482030,0.0,0.0,0.0,0.0,0.0,0.0,0.0,0.0,7.0,0.0,1.0,0.0,0.0,0.0
594054,5.0,2.0,5.0,0.0,0.0,6.0,7.0,2.0,107.0,1.0,8.0,41.0,127.0,13.0
600755,5.0,8.0,10.0,0.0,1.0,3.0,8.0,0.0,107.0,4.0,15.0,15.0,127.0,18.0
497691,0.0,1.0,1.0,0.0,0.0,0.0,0.0,0.0,53.0,0.0,3.0,1.0,26.0,5.0
526202,4.0,1.0,4.0,0.0,0.0,3.0,7.0,1.0,105.0,1.0,9.0,37.0,121.0,11.0
467958,1.0,1.0,4.0,0.0,0.0,1.0,5.0,0.0,42.0,1.0,5.0,14.0,76.0,13.0
510560,3.0,0.0,0.0,0.0,0.0,0.0,1.0,0.0,53.0,0.0,5.0,5.0,45.0,0.0
648309,0.0,1.0,8.0,0.0,0.0,2.0,10.0,0.0,43.0,2.0,2.0,6.0,81.0,14.0
498133,3.0,1.0,8.0,0.0,0.0,1.0,10.0,0.0,68.0,2.0,7.0,11.0,95.0,15.0
499934,0.0,1.0,0.0,0.0,0.0,0.0,0.0,0.0,49.0,0.0,4.0,0.0,21.0,8.0
656030,0.0,1.0,0.0,0.0,0.0,2.0,0.0,0.0,45.0,1.0,3.0,3.0,35.0,12.0
graph,11.0,16.0,57.0,3.0,2.0,13.0,45.0,2.0,343.0,18.0,54.0,80.0,443.0,100.0
