Vertex,0110100110000100,0110100010010010
561064,19.0,4.0
492952,29.0,6.0
557919,9.0,2.0
459002,39.0,8.0
589821,39.0,8.0
638271,29.0,6.0
476958,40.0,8.0
625415,19.0,4.0
621194,40.0,8.0
483870,9.0,2.0
graph,68.0,14.0
