Vertex,0111110000100001000010000,0110010011100000100001000,0110010010100010100000100,0110010010100010100100110,0110010011100100110001000
651573,0.0,23.0,21.0,1.0,0.0
525074,20.0,84.0,36.0,2.0,1.0
500273,0.0,16.0,21.0,1.0,0.0
462278,35.0,185.0,99.0,4.0,7.0
524840,0.0,24.0,23.0,1.0,0.0
567975,20.0,67.0,23.0,1.0,1.0
476924,0.0,26.0,34.0,1.0,1.0
529171,0.0,5.0,20.0,0.0,0.0
630059,0.0,20.0,24.0,1.0,0.0
556399,0.0,16.0,22.0,0.0,0.0
617435,20.0,68.0,25.0,1.0,1.0
542019,20.0,78.0,40.0,1.0,7.0
608261,0.0,34.0,21.0,0.0,7.0
654682,20.0,67.0,28.0,0.0,1.0
571059,20.0,84.0,37.0,2.0,1.0
591993,20.0,73.0,33.0,1.0,7.0
476610,0.0,22.0,22.0,1.0,1.0
538520,0.0,24.0,23.0,1.0,0.0
630574,0.0,24.0,23.0,1.0,0.0
graph,35.0,188.0,115.0,4.0,7.0
