Vertex,0110100110010110,0101101101011110,0110101111000100,0111100110011110,0110101111010110,0111101011001000,0110100110000100,0111101111001100,0100101001010010,0101101101001100,0101101001011010,0111100010001000,0111100010011010,0110101011010010,0111101011011010,0101101001001000,0110100010010010,0100101101010110,0111100110001100,0100101101000100
474758,249.0,3.0,164.0,8.0,111.0,348.0,637.0,162.0,92.0,32.0,75.0,469.0,79.0,110.0,133.0,168.0,327.0,4.0,122.0,30.0
535569,35.0,1.0,43.0,2.0,37.0,94.0,255.0,54.0,39.0,6.0,16.0,188.0,16.0,29.0,43.0,69.0,135.0,0.0,25.0,6.0
557269,204.0,7.0,322.0,13.0,155.0,687.0,604.0,216.0,146.0,62.0,63.0,293.0,176.0,211.0,184.0,180.0,364.0,14.0,245.0,12.0
550254,208.0,0.0,73.0,0.0,0.0,135.0,547.0,0.0,124.0,20.0,84.0,420.0,16.0,58.0,0.0,176.0,311.0,0.0,55.0,46.0
609754,35.0,0.0,12.0,0.0,0.0,21.0,183.0,0.0,47.0,4.0,16.0,72.0,2.0,12.0,0.0,53.0,135.0,0.0,8.0,12.0
500336,424.0,3.0,214.0,8.0,64.0,472.0,754.0,90.0,120.0,38.0,106.0,661.0,137.0,129.0,84.0,171.0,397.0,6.0,177.0,38.0
546631,426.0,11.0,335.0,14.0,159.0,715.0,665.0,198.0,105.0,64.0,127.0,554.0,146.0,234.0,174.0,158.0,387.0,4.0,258.0,38.0
586918,173.0,1.0,57.0,2.0,37.0,130.0,328.0,54.0,33.0,6.0,52.0,305.0,29.0,35.0,42.0,92.0,148.0,2.0,39.0,6.0
570195,216.0,8.0,218.0,12.0,98.0,491.0,710.0,126.0,92.0,34.0,46.0,527.0,126.0,127.0,115.0,155.0,368.0,6.0,181.0,28.0
602602,595.0,1.0,287.0,3.0,27.0,602.0,777.0,36.0,139.0,58.0,180.0,562.0,181.0,207.0,30.0,195.0,427.0,14.0,238.0,34.0
621729,383.0,0.0,117.0,0.0,10.0,250.0,823.0,18.0,188.0,22.0,145.0,612.0,40.0,83.0,12.0,284.0,479.0,2.0,92.0,68.0
495298,315.0,6.0,176.0,8.0,61.0,401.0,695.0,72.0,122.0,26.0,108.0,486.0,96.0,105.0,66.0,213.0,379.0,6.0,155.0,48.0
490667,142.0,0.0,100.0,0.0,0.0,212.0,488.0,0.0,91.0,20.0,39.0,302.0,67.0,68.0,0.0,104.0,284.0,2.0,77.0,18.0
655825,210.0,0.0,63.0,0.0,0.0,125.0,551.0,0.0,101.0,16.0,74.0,469.0,14.0,46.0,0.0,165.0,302.0,0.0,50.0,50.0
623607,0.0,0.0,67.0,0.0,20.0,158.0,200.0,36.0,6.0,6.0,0.0,158.0,35.0,37.0,24.0,48.0,80.0,0.0,44.0,0.0
502018,101.0,0.0,42.0,0.0,0.0,108.0,237.0,0.0,19.0,0.0,33.0,229.0,20.0,20.0,0.0,63.0,108.0,0.0,26.0,0.0
495819,70.0,0.0,24.0,0.0,0.0,42.0,306.0,0.0,65.0,8.0,23.0,186.0,4.0,24.0,0.0,89.0,191.0,0.0,16.0,20.0
594920,142.0,0.0,59.0,0.0,0.0,112.0,541.0,0.0,106.0,16.0,41.0,386.0,20.0,48.0,0.0,139.0,317.0,0.0,47.0,36.0
567160,0.0,3.0,63.0,2.0,17.0,141.0,228.0,18.0,17.0,10.0,0.0,137.0,40.0,41.0,17.0,64.0,99.0,4.0,57.0,14.0
543713,0.0,0.0,0.0,0.0,0.0,0.0,105.0,0.0,24.0,0.0,0.0,72.0,0.0,0.0,0.0,30.0,81.0,0.0,0.0,12.0
502707,0.0,0.0,0.0,0.0,0.0,0.0,137.0,0.0,36.0,0.0,0.0,72.0,0.0,0.0,0.0,26.0,93.0,0.0,0.0,8.0
618809,0.0,0.0,0.0,0.0,0.0,0.0,90.0,0.0,30.0,0.0,0.0,24.0,0.0,0.0,0.0,20.0,69.0,0.0,0.0,4.0
610021,0.0,0.0,0.0,0.0,0.0,0.0,55.0,0.0,22.0,0.0,0.0,0.0,0.0,0.0,0.0,10.0,43.0,0.0,0.0,0.0
graph,982.0,11.0,609.0,18.0,199.0,1311.0,2479.0,270.0,441.0,112.0,307.0,1796.0,311.0,406.0,231.0,668.0,1381.0,16.0,478.0,132.0
