Vertex,0111100110001100,0100101101000100,0101101001011010,0110100110000100,0100101001010010,0101101101001100,0111100010001000,0110100010010010,0101101101011110,0111101011011010,0110101111010110,0110100110010110,0110101111000100,0111101111001100,0101101001001000,0100101101010110,0111101011001000,0111100110011110,0111100010011010,0110101011010010
506263,8.0,0.0,0.0,57.0,10.0,2.0,0.0,30.0,0.0,0.0,0.0,0.0,9.0,0.0,8.0,0.0,19.0,0.0,2.0,5.0
546821,0.0,0.0,0.0,44.0,10.0,0.0,0.0,24.0,0.0,0.0,0.0,0.0,0.0,0.0,4.0,0.0,0.0,0.0,0.0,0.0
531048,22.0,0.0,0.0,90.0,12.0,4.0,8.0,55.0,0.0,0.0,0.0,0.0,26.0,0.0,21.0,2.0,59.0,0.0,15.0,14.0
582282,0.0,0.0,0.0,44.0,14.0,0.0,0.0,24.0,0.0,0.0,0.0,0.0,0.0,0.0,4.0,0.0,0.0,0.0,0.0,0.0
573706,22.0,4.0,12.0,136.0,28.0,4.0,40.0,84.0,0.0,0.0,0.0,33.0,26.0,0.0,43.0,2.0,59.0,0.0,15.0,14.0
584875,22.0,0.0,12.0,132.0,9.0,4.0,62.0,67.0,0.0,0.0,0.0,33.0,26.0,0.0,25.0,2.0,59.0,0.0,15.0,14.0
486557,2.0,4.0,12.0,169.0,19.0,0.0,94.0,86.0,0.0,0.0,0.0,33.0,4.0,0.0,34.0,0.0,10.0,0.0,2.0,2.0
573173,2.0,0.0,0.0,82.0,10.0,0.0,16.0,48.0,0.0,0.0,0.0,0.0,4.0,0.0,23.0,0.0,10.0,0.0,2.0,2.0
583632,22.0,4.0,18.0,257.0,21.0,2.0,180.0,121.0,0.0,0.0,0.0,107.0,19.0,0.0,39.0,2.0,48.0,0.0,27.0,9.0
636397,16.0,0.0,6.0,156.0,8.0,0.0,126.0,65.0,3.0,22.0,24.0,74.0,15.0,18.0,20.0,0.0,42.0,4.0,13.0,6.0
589380,32.0,0.0,0.0,126.0,6.0,0.0,72.0,51.0,3.0,22.0,24.0,37.0,30.0,18.0,8.0,0.0,84.0,4.0,26.0,12.0
468188,32.0,0.0,6.0,62.0,4.0,0.0,30.0,22.0,3.0,22.0,24.0,37.0,30.0,18.0,12.0,0.0,84.0,4.0,26.0,12.0
497965,5.0,0.0,0.0,50.0,2.0,0.0,39.0,13.0,0.0,0.0,0.0,0.0,5.0,0.0,4.0,0.0,14.0,0.0,2.0,2.0
624171,16.0,0.0,6.0,177.0,8.0,0.0,126.0,83.0,3.0,22.0,24.0,74.0,15.0,18.0,27.0,0.0,42.0,4.0,13.0,6.0
612239,10.0,0.0,0.0,86.0,6.0,0.0,24.0,44.0,0.0,0.0,0.0,0.0,10.0,0.0,12.0,0.0,28.0,0.0,4.0,4.0
461386,5.0,0.0,0.0,71.0,2.0,0.0,39.0,31.0,0.0,0.0,0.0,0.0,5.0,0.0,10.0,0.0,14.0,0.0,2.0,2.0
568639,0.0,4.0,0.0,76.0,11.0,0.0,24.0,46.0,0.0,0.0,0.0,0.0,0.0,0.0,16.0,0.0,0.0,0.0,0.0,0.0
522141,0.0,0.0,0.0,21.0,0.0,0.0,0.0,18.0,0.0,0.0,0.0,0.0,0.0,0.0,6.0,0.0,0.0,0.0,0.0,0.0
graph,54.0,4.0,18.0,459.0,45.0,4.0,220.0,228.0,3.0,22.0,24.0,107.0,56.0,18.0,79.0,2.0,143.0,4.0,41.0,26.0
