0111010101110001000001000: 579517 529484 475555 545712 523434
0110010011100100110001000: 579517 475555 545712 573706 491424
0111010101110001000001000: 579517 475555 529484 545712 491424
0111010101110001000101010: 579517 475555 529484 545712 573706
0110010010100010100000100: 579517 545712 529484 573706 523434
0110010011100000100001000: 573706 475555 459549 491424 529484
0110010011100000100001000: 573706 475555 459549 579517 491424
0110010011100000100001000: 573706 475555 545712 491424 529484
0110010011100100110001000: 545712 573706 579517 475555 459549
0110010010100010100000100: 545712 579517 573706 529484 459549
0111010101110001000001000: 475555 529484 579517 491424 523434
0111010101110001000001000: 475555 529484 579517 573706 523434
0110010010100010100000100: 475555 491424 529484 618063 523434
0110010010100010100000100: 475555 573706 529484 459549 523434
0110010011100000100001000: 475555 573706 529484 545712 459549
0110010010100010100000100: 475555 573706 529484 545712 523434
0110010010100010100000100: 475555 573706 491424 459549 618063
0110010011100000100001000: 475555 573706 491424 545712 459549
0110010010100010100000100: 475555 573706 491424 545712 618063
0110010010100010100000100: 475555 579517 491424 545712 618063
0111010100110001000100010: 475555 579517 529484 491424 618063
0111110100110001000010000: 475555 579517 529484 573706 491424
0111010100110001000100010: 475555 579517 529484 573706 459549
0110010010100010100000100: 523434 625650 529484 618063 475555
0110010010100010100000100: 523434 625650 529484 618063 579517
0110010010100010100000100: 625650 523434 618063 529484 491424
0110010010100010100000100: 491424 475555 618063 529484 625650
0110010011100000100001000: 491424 475555 618063 573706 529484
0110010010100010100000100: 491424 475555 618063 573706 625650
0110010011100000100001000: 491424 475555 618063 579517 573706
0110010010100010100000100: 491424 475555 618063 579517 625650
0110010010100010100000100: 529484 475555 523434 491424 625650
0110010011100000100001000: 529484 475555 523434 573706 491424
0110010010100010100000100: 529484 475555 523434 573706 625650
0110010010100010100000100: 529484 579517 523434 545712 625650
0111010100110001000100010: 529484 579517 475555 523434 625650
0110010010100010100000100: 618063 625650 491424 523434 475555
