Vertex,0110010011100000100001000,0111110100110001000010000,0110010011100100110001000,0111010100110001000100010,0110010010100010100100110,0110010010100010100000100,0111010101110001000001000,0111010101110001000101010
594368,5.0,0.0,0.0,1.0,1.0,14.0,0.0,0.0
611253,3.0,0.0,0.0,0.0,1.0,5.0,0.0,0.0
542844,3.0,0.0,0.0,0.0,1.0,5.0,0.0,0.0
457170,1.0,0.0,0.0,0.0,1.0,3.0,0.0,0.0
539039,1.0,0.0,0.0,0.0,1.0,3.0,0.0,0.0
642473,12.0,1.0,1.0,2.0,0.0,14.0,1.0,0.0
573416,12.0,2.0,3.0,6.0,0.0,12.0,1.0,1.0
474884,11.0,2.0,3.0,6.0,0.0,7.0,0.0,1.0
459826,3.0,1.0,3.0,5.0,0.0,5.0,1.0,1.0
520227,6.0,1.0,0.0,4.0,0.0,4.0,1.0,1.0
458066,5.0,1.0,3.0,1.0,0.0,4.0,1.0,1.0
603804,4.0,1.0,1.0,5.0,0.0,2.0,0.0,0.0
523554,4.0,1.0,1.0,5.0,0.0,2.0,0.0,0.0
graph,14.0,2.0,3.0,7.0,1.0,16.0,1.0,1.0
