Vertex,0111100110001100,0110101111000100,0111101111001100,0111100010001000,0111100010011010,0100101101000100,0111101011001000,0110101011010010,0111101011011010,0101101001011010,0110100110000100,0110100010010010,0101101101011110,0110100110010110,0101101001001000,0101101101001100,0111100110011110,0100101001010010,0110101111010110
568935,31.0,48.0,36.0,55.0,26.0,0.0,115.0,26.0,33.0,0.0,101.0,42.0,1.0,0.0,16.0,4.0,3.0,3.0,27.0
554368,59.0,90.0,72.0,179.0,42.0,2.0,216.0,48.0,68.0,33.0,214.0,103.0,5.0,140.0,56.0,8.0,7.0,6.0,54.0
589380,35.0,53.0,54.0,63.0,28.0,0.0,125.0,29.0,48.0,10.0,126.0,65.0,1.0,35.0,24.0,6.0,4.0,3.0,37.0
526885,22.0,33.0,18.0,88.0,20.0,0.0,81.0,17.0,19.0,6.0,125.0,54.0,1.0,35.0,22.0,2.0,2.0,6.0,17.0
562002,10.0,9.0,0.0,59.0,8.0,2.0,21.0,5.0,0.0,6.0,149.0,57.0,0.0,35.0,18.0,2.0,0.0,12.0,0.0
532885,13.0,16.0,0.0,15.0,4.0,0.0,34.0,10.0,0.0,10.0,93.0,47.0,0.0,35.0,22.0,4.0,0.0,0.0,0.0
554287,8.0,16.0,0.0,88.0,8.0,0.0,40.0,8.0,0.0,10.0,84.0,46.0,0.0,35.0,24.0,0.0,0.0,0.0,0.0
513365,18.0,25.0,0.0,147.0,16.0,2.0,61.0,13.0,0.0,23.0,142.0,60.0,0.0,105.0,24.0,2.0,0.0,6.0,0.0
491574,24.0,37.0,36.0,64.0,30.0,0.0,91.0,19.0,35.0,6.0,82.0,32.0,4.0,35.0,16.0,2.0,4.0,0.0,27.0
538751,44.0,63.0,54.0,55.0,38.0,0.0,152.0,33.0,49.0,11.0,105.0,54.0,4.0,35.0,18.0,6.0,5.0,3.0,37.0
634724,20.0,22.0,18.0,35.0,20.0,2.0,52.0,12.0,20.0,17.0,139.0,56.0,4.0,70.0,24.0,4.0,3.0,3.0,17.0
520376,0.0,0.0,0.0,24.0,0.0,0.0,0.0,0.0,0.0,0.0,36.0,12.0,0.0,0.0,0.0,0.0,0.0,6.0,0.0
graph,71.0,103.0,72.0,218.0,60.0,2.0,247.0,55.0,68.0,33.0,349.0,157.0,5.0,140.0,66.0,10.0,7.0,12.0,54.0
