Vertex,0111110110110001100010000,0111010101110001000001000,0111010100110001000100010,0111110000100001000010000,0111110111110001100011000,0110010010100010100000100,0111110110110011100010100,0110010011100000100001000,0111110100110001000010000,0111010110110011100000100
650116,3.0,3.0,5.0,1.0,1.0,9.0,2.0,9.0,3.0,3.0
501829,5.0,4.0,6.0,0.0,1.0,11.0,2.0,5.0,2.0,5.0
457203,2.0,5.0,6.0,1.0,0.0,16.0,2.0,12.0,5.0,1.0
462293,3.0,3.0,4.0,2.0,1.0,17.0,1.0,16.0,3.0,3.0
461119,3.0,3.0,3.0,2.0,1.0,10.0,1.0,16.0,3.0,3.0
476999,0.0,3.0,3.0,0.0,0.0,12.0,0.0,4.0,0.0,1.0
463401,5.0,7.0,10.0,2.0,1.0,22.0,2.0,20.0,5.0,5.0
597739,0.0,2.0,1.0,0.0,0.0,5.0,0.0,6.0,0.0,2.0
462644,4.0,3.0,4.0,2.0,0.0,12.0,0.0,15.0,4.0,0.0
512894,0.0,2.0,2.0,0.0,0.0,15.0,0.0,6.0,0.0,2.0
552119,0.0,0.0,4.0,0.0,0.0,11.0,0.0,6.0,0.0,0.0
637984,0.0,0.0,1.0,0.0,0.0,7.0,0.0,0.0,0.0,0.0
480534,0.0,0.0,1.0,0.0,0.0,11.0,0.0,0.0,0.0,0.0
596490,0.0,0.0,0.0,0.0,0.0,10.0,0.0,0.0,0.0,0.0
533057,0.0,0.0,0.0,0.0,0.0,2.0,0.0,0.0,0.0,0.0
graph,5.0,7.0,10.0,2.0,1.0,34.0,2.0,23.0,5.0,5.0
