Vertex,0111010101110001000001000,0110010010100010100000100,0111010101110001000101010,0111110100110001000010000,0111110100110001000110010,0110010011100100110001000,0110010011100000100001000,0111010110110011100100110,0111110110110011100010100,0111110000100001000010000,0110010010100010100100110,0111110110110001100010000,0111010110110011100000100,0111010100110001000100010
647838,0.0,19.0,0.0,0.0,0.0,0.0,2.0,0.0,0.0,0.0,0.0,0.0,0.0,2.0
558742,8.0,31.0,0.0,0.0,0.0,0.0,16.0,0.0,0.0,0.0,0.0,1.0,2.0,3.0
585918,0.0,19.0,0.0,0.0,0.0,0.0,6.0,0.0,0.0,0.0,0.0,0.0,0.0,2.0
500114,16.0,63.0,2.0,5.0,0.0,2.0,62.0,0.0,3.0,5.0,0.0,9.0,9.0,16.0
568151,5.0,45.0,0.0,0.0,0.0,1.0,16.0,0.0,0.0,0.0,1.0,1.0,1.0,7.0
578905,15.0,43.0,1.0,4.0,1.0,5.0,27.0,1.0,3.0,0.0,0.0,5.0,8.0,21.0
556036,30.0,100.0,3.0,11.0,1.0,15.0,102.0,0.0,2.0,7.0,2.0,7.0,8.0,23.0
463401,36.0,78.0,4.0,13.0,1.0,16.0,74.0,1.0,3.0,3.0,2.0,10.0,11.0,33.0
499322,6.0,38.0,0.0,1.0,0.0,1.0,29.0,0.0,0.0,0.0,1.0,0.0,1.0,5.0
566685,22.0,70.0,2.0,8.0,1.0,9.0,72.0,0.0,1.0,5.0,1.0,6.0,4.0,14.0
588101,15.0,51.0,0.0,4.0,1.0,7.0,35.0,1.0,2.0,1.0,1.0,4.0,4.0,19.0
570154,5.0,42.0,1.0,0.0,0.0,11.0,19.0,1.0,1.0,1.0,0.0,1.0,3.0,11.0
595785,11.0,65.0,3.0,6.0,0.0,16.0,52.0,1.0,0.0,2.0,2.0,3.0,0.0,10.0
551800,7.0,66.0,1.0,4.0,0.0,8.0,74.0,0.0,0.0,6.0,2.0,1.0,1.0,6.0
624016,5.0,55.0,1.0,1.0,0.0,7.0,43.0,0.0,0.0,1.0,0.0,0.0,1.0,4.0
639221,0.0,37.0,0.0,0.0,0.0,4.0,43.0,0.0,0.0,2.0,2.0,0.0,0.0,7.0
526698,0.0,23.0,0.0,0.0,0.0,1.0,10.0,0.0,0.0,0.0,0.0,0.0,0.0,1.0
608196,0.0,14.0,0.0,0.0,0.0,1.0,23.0,0.0,0.0,1.0,0.0,0.0,0.0,2.0
565272,8.0,32.0,0.0,4.0,0.0,2.0,45.0,0.0,0.0,5.0,0.0,1.0,1.0,3.0
486380,6.0,34.0,2.0,4.0,0.0,9.0,56.0,0.0,0.0,6.0,1.0,1.0,1.0,4.0
646989,0.0,19.0,0.0,0.0,0.0,0.0,8.0,0.0,0.0,0.0,0.0,0.0,0.0,2.0
505960,0.0,10.0,0.0,0.0,0.0,0.0,0.0,0.0,0.0,0.0,0.0,0.0,0.0,0.0
652609,0.0,11.0,0.0,0.0,0.0,0.0,1.0,0.0,0.0,0.0,0.0,0.0,0.0,0.0
graph,39.0,193.0,4.0,13.0,1.0,23.0,163.0,1.0,3.0,9.0,3.0,10.0,11.0,39.0
