Vertex,0111010100110001000100010,0111110110110011100010100,0111010110110011100100110,0111110100110001000010000,0111110100110001000110010,0110010010100010100000100,0111110110110101110010000,0111110110110001100010000,0110010011100100110001000,0111110111110101110011000,0110010011100000100001000,0111110111110001100011000,0111110000100001000010000,0110010010100010100100110,0111010101110001000101010,0111010101110001000001000,0111110111110111110011100,0110010011100110110001100,0111010110110011100000100
627736,21.0,0.0,0.0,14.0,0.0,70.0,3.0,6.0,17.0,0.0,146.0,0.0,12.0,1.0,4.0,44.0,0.0,0.0,9.0
467288,80.0,19.0,7.0,113.0,13.0,212.0,31.0,102.0,71.0,11.0,333.0,5.0,56.0,4.0,22.0,198.0,5.0,2.0,40.0
625406,33.0,0.0,0.0,51.0,0.0,92.0,7.0,28.0,18.0,0.0,200.0,0.0,34.0,1.0,11.0,57.0,0.0,0.0,2.0
631159,65.0,22.0,10.0,105.0,11.0,158.0,20.0,100.0,68.0,9.0,277.0,7.0,57.0,4.0,15.0,165.0,4.0,1.0,33.0
622118,32.0,0.0,1.0,14.0,0.0,113.0,3.0,6.0,22.0,0.0,150.0,0.0,12.0,5.0,4.0,51.0,0.0,0.0,10.0
564736,53.0,22.0,1.0,92.0,9.0,97.0,15.0,94.0,14.0,10.0,219.0,8.0,55.0,2.0,8.0,90.0,4.0,0.0,41.0
594989,122.0,30.0,10.0,213.0,10.0,190.0,63.0,177.0,67.0,27.0,413.0,11.0,116.0,5.0,32.0,314.0,8.0,1.0,76.0
599481,31.0,0.0,5.0,14.0,0.0,181.0,5.0,8.0,54.0,0.0,186.0,0.0,13.0,0.0,13.0,85.0,0.0,2.0,12.0
494675,38.0,10.0,3.0,99.0,6.0,82.0,11.0,75.0,32.0,7.0,240.0,8.0,84.0,2.0,10.0,103.0,2.0,0.0,15.0
457203,133.0,29.0,7.0,161.0,11.0,204.0,63.0,169.0,43.0,27.0,364.0,11.0,57.0,3.0,31.0,303.0,8.0,0.0,82.0
639896,18.0,0.0,0.0,67.0,0.0,56.0,7.0,28.0,15.0,0.0,178.0,0.0,63.0,1.0,7.0,52.0,0.0,0.0,2.0
585161,30.0,7.0,1.0,49.0,3.0,76.0,5.0,32.0,18.0,2.0,192.0,1.0,28.0,0.0,8.0,77.0,0.0,0.0,13.0
512052,45.0,7.0,0.0,53.0,3.0,137.0,5.0,35.0,13.0,2.0,222.0,1.0,32.0,0.0,2.0,95.0,0.0,0.0,16.0
465505,72.0,20.0,1.0,93.0,11.0,143.0,14.0,88.0,19.0,13.0,238.0,6.0,51.0,5.0,5.0,129.0,3.0,0.0,45.0
465661,81.0,20.0,3.0,105.0,13.0,210.0,17.0,88.0,35.0,12.0,299.0,5.0,49.0,6.0,13.0,168.0,3.0,0.0,44.0
657460,47.0,15.0,6.0,99.0,9.0,118.0,18.0,86.0,46.0,11.0,211.0,5.0,63.0,1.0,13.0,123.0,3.0,2.0,25.0
520873,31.0,0.0,3.0,8.0,0.0,125.0,3.0,5.0,32.0,0.0,142.0,0.0,5.0,6.0,3.0,67.0,0.0,0.0,13.0
513655,28.0,0.0,0.0,8.0,0.0,127.0,2.0,5.0,12.0,0.0,115.0,0.0,5.0,6.0,1.0,41.0,0.0,0.0,9.0
476890,23.0,7.0,2.0,70.0,3.0,93.0,5.0,38.0,35.0,2.0,190.0,1.0,57.0,0.0,9.0,72.0,0.0,2.0,11.0
496276,9.0,0.0,3.0,16.0,0.0,67.0,4.0,10.0,29.0,0.0,159.0,0.0,10.0,1.0,6.0,80.0,0.0,0.0,13.0
615897,19.0,0.0,0.0,1.0,0.0,76.0,0.0,0.0,6.0,0.0,57.0,0.0,0.0,0.0,1.0,7.0,0.0,0.0,3.0
643244,13.0,0.0,1.0,67.0,0.0,52.0,7.0,28.0,20.0,0.0,155.0,0.0,63.0,0.0,8.0,58.0,0.0,0.0,3.0
522124,26.0,7.0,1.0,65.0,3.0,90.0,5.0,32.0,23.0,2.0,170.0,1.0,51.0,2.0,4.0,67.0,0.0,0.0,15.0
584352,14.0,0.0,0.0,0.0,0.0,97.0,0.0,0.0,7.0,0.0,39.0,0.0,1.0,0.0,0.0,0.0,0.0,0.0,0.0
587413,0.0,0.0,0.0,0.0,0.0,16.0,0.0,0.0,0.0,0.0,7.0,0.0,0.0,0.0,0.0,0.0,0.0,0.0,0.0
581182,15.0,0.0,0.0,1.0,0.0,70.0,0.0,0.0,1.0,0.0,55.0,0.0,0.0,0.0,0.0,8.0,0.0,0.0,3.0
624291,21.0,0.0,0.0,2.0,0.0,83.0,2.0,5.0,3.0,0.0,88.0,0.0,1.0,5.0,0.0,41.0,0.0,0.0,10.0
graph,220.0,43.0,13.0,316.0,21.0,607.0,63.0,249.0,144.0,27.0,1009.0,14.0,195.0,12.0,46.0,499.0,8.0,2.0,109.0
