Vertex,0100101101000100,0110101011010010,0111100110001100,0110100110000100,0101101001001000,0110101111000100,0111100010001000,0110100010010010,0100101001010010,0100101101010110,0111101011001000,0101101101001100,0111100010011010
619327,2.0,9.0,9.0,42.0,12.0,15.0,15.0,18.0,0.0,2.0,34.0,2.0,12.0
489160,2.0,9.0,9.0,73.0,18.0,15.0,15.0,42.0,14.0,2.0,34.0,2.0,12.0
618427,4.0,9.0,9.0,164.0,44.0,15.0,78.0,87.0,15.0,2.0,34.0,2.0,12.0
570191,6.0,2.0,2.0,244.0,64.0,4.0,125.0,126.0,22.0,2.0,10.0,0.0,8.0
566494,4.0,2.0,2.0,76.0,16.0,4.0,30.0,35.0,7.0,0.0,10.0,0.0,2.0
604656,0.0,5.0,5.0,52.0,12.0,7.0,0.0,36.0,18.0,0.0,14.0,2.0,2.0
583391,0.0,0.0,0.0,51.0,6.0,0.0,0.0,22.0,7.0,0.0,0.0,0.0,0.0
550106,0.0,0.0,0.0,90.0,20.0,0.0,48.0,38.0,3.0,0.0,0.0,0.0,0.0
549785,0.0,0.0,0.0,49.0,14.0,0.0,48.0,21.0,0.0,0.0,0.0,0.0,0.0
562229,0.0,0.0,0.0,90.0,20.0,0.0,48.0,38.0,3.0,0.0,0.0,0.0,0.0
544276,2.0,0.0,0.0,139.0,34.0,0.0,63.0,73.0,17.0,0.0,0.0,0.0,0.0
603474,0.0,0.0,0.0,40.0,0.0,0.0,0.0,12.0,6.0,0.0,0.0,0.0,0.0
556812,2.0,0.0,0.0,73.0,18.0,0.0,15.0,42.0,14.0,0.0,0.0,0.0,0.0
605129,0.0,0.0,0.0,58.0,8.0,0.0,0.0,22.0,3.0,0.0,0.0,0.0,0.0
594145,2.0,0.0,0.0,69.0,14.0,0.0,15.0,32.0,7.0,0.0,0.0,0.0,0.0
629499,0.0,0.0,0.0,44.0,4.0,0.0,0.0,18.0,7.0,0.0,0.0,0.0,0.0
588211,0.0,0.0,0.0,40.0,0.0,0.0,0.0,10.0,3.0,0.0,0.0,0.0,0.0
505705,0.0,0.0,0.0,58.0,8.0,0.0,0.0,22.0,3.0,0.0,0.0,0.0,0.0
652918,0.0,0.0,0.0,40.0,0.0,0.0,0.0,10.0,3.0,0.0,0.0,0.0,0.0
graph,6.0,9.0,9.0,373.0,78.0,15.0,125.0,176.0,38.0,2.0,34.0,2.0,12.0
