Vertex,0111110110110001100010000,0111110110110101110010000,0111010101110001000001000,0111110000100001000010000,0110010010100010100000100,0111010110110011100100110,0110010010100010100100110,0110010011100000100001000,0111110110110011100110110,0111110100110001000010000,0111010101110001000101010,0111110110110011100010100,0111010100110001000100010,0110010011100110110001100,0111110111110001100011000,0111110100110001000110010,0110010011100100110001000,0111010110110011100000100,0111110111110101110011000
474474,6.0,0.0,19.0,12.0,116.0,0.0,3.0,131.0,0.0,9.0,2.0,0.0,41.0,0.0,0.0,1.0,6.0,4.0,0.0
654398,2.0,1.0,22.0,5.0,197.0,1.0,8.0,109.0,0.0,1.0,3.0,0.0,28.0,0.0,0.0,0.0,15.0,9.0,0.0
556036,25.0,1.0,85.0,19.0,194.0,1.0,8.0,223.0,0.0,40.0,14.0,4.0,90.0,1.0,0.0,8.0,37.0,7.0,0.0
573406,21.0,4.0,33.0,19.0,126.0,1.0,5.0,159.0,2.0,21.0,6.0,7.0,53.0,1.0,6.0,2.0,31.0,18.0,4.0
489346,0.0,0.0,0.0,4.0,58.0,0.0,0.0,32.0,0.0,0.0,0.0,0.0,6.0,0.0,0.0,0.0,2.0,0.0,0.0
622607,1.0,0.0,7.0,5.0,75.0,0.0,5.0,87.0,0.0,2.0,0.0,0.0,12.0,0.0,0.0,0.0,5.0,7.0,0.0
502568,17.0,0.0,23.0,19.0,88.0,1.0,3.0,124.0,0.0,17.0,3.0,3.0,18.0,0.0,5.0,2.0,19.0,9.0,1.0
473002,13.0,0.0,49.0,10.0,155.0,1.0,5.0,156.0,0.0,21.0,9.0,0.0,63.0,0.0,0.0,2.0,29.0,7.0,0.0
562704,2.0,0.0,18.0,10.0,57.0,0.0,2.0,111.0,0.0,12.0,3.0,0.0,13.0,1.0,0.0,0.0,18.0,8.0,0.0
497952,2.0,0.0,18.0,10.0,98.0,0.0,2.0,126.0,0.0,12.0,3.0,0.0,18.0,1.0,0.0,0.0,19.0,8.0,0.0
638846,22.0,1.0,59.0,16.0,74.0,1.0,2.0,114.0,0.0,31.0,5.0,11.0,40.0,0.0,3.0,10.0,12.0,12.0,0.0
477083,6.0,0.0,25.0,8.0,113.0,0.0,2.0,113.0,0.0,10.0,2.0,0.0,38.0,0.0,0.0,1.0,4.0,4.0,0.0
601595,56.0,4.0,104.0,22.0,161.0,2.0,6.0,228.0,3.0,47.0,14.0,18.0,112.0,1.0,11.0,10.0,29.0,55.0,4.0
460011,2.0,0.0,17.0,2.0,107.0,0.0,2.0,95.0,0.0,4.0,1.0,0.0,16.0,0.0,0.0,0.0,14.0,7.0,0.0
490673,38.0,0.0,50.0,13.0,192.0,1.0,6.0,220.0,3.0,24.0,14.0,18.0,64.0,1.0,4.0,2.0,48.0,31.0,1.0
653556,0.0,1.0,20.0,0.0,76.0,0.0,1.0,39.0,0.0,1.0,0.0,0.0,9.0,0.0,0.0,0.0,0.0,5.0,0.0
555702,0.0,0.0,6.0,0.0,42.0,0.0,1.0,25.0,0.0,1.0,0.0,0.0,2.0,0.0,0.0,0.0,0.0,1.0,0.0
552169,0.0,0.0,0.0,0.0,44.0,0.0,1.0,17.0,0.0,0.0,0.0,0.0,5.0,0.0,0.0,0.0,1.0,0.0,0.0
575223,23.0,0.0,29.0,22.0,154.0,0.0,6.0,194.0,2.0,19.0,3.0,6.0,34.0,1.0,8.0,1.0,31.0,24.0,1.0
597613,4.0,0.0,27.0,4.0,41.0,0.0,0.0,70.0,0.0,9.0,1.0,4.0,29.0,0.0,0.0,0.0,5.0,7.0,0.0
515793,23.0,0.0,24.0,22.0,141.0,0.0,4.0,182.0,2.0,19.0,8.0,6.0,28.0,2.0,8.0,1.0,42.0,24.0,1.0
558911,28.0,4.0,29.0,4.0,118.0,1.0,2.0,99.0,3.0,8.0,5.0,8.0,59.0,1.0,7.0,7.0,32.0,31.0,4.0
494936,14.0,4.0,36.0,9.0,96.0,0.0,1.0,112.0,0.0,22.0,4.0,5.0,42.0,0.0,3.0,3.0,4.0,12.0,4.0
609949,0.0,0.0,0.0,0.0,52.0,0.0,0.0,29.0,0.0,0.0,0.0,0.0,5.0,0.0,0.0,0.0,2.0,0.0,0.0
graph,61.0,4.0,140.0,47.0,515.0,2.0,15.0,559.0,3.0,66.0,20.0,18.0,165.0,2.0,11.0,10.0,81.0,58.0,4.0
