0110010011100000100001000: 616836 633998 600483 556964 621693
0110010011100000100001000: 616836 633998 600483 556964 601177
0110010011100000100001000: 616836 633998 568518 556964 621693
0110010011100000100001000: 616836 633998 568518 556964 601177
0110010011100100110001000: 616836 633998 558482 556964 621693
0110010011100100110001000: 616836 633998 558482 556964 601177
0110010010100010100000100: 616836 568518 633998 635642 621693
0110010010100010100000100: 616836 568518 633998 635642 601177
0110010010100010100000100: 616836 568518 633998 635642 556964
0110010011100000100001000: 616836 558482 600483 556964 550712
0110010010100010100000100: 616836 558482 633998 550712 621693
0110010010100010100000100: 616836 558482 633998 550712 601177
0110010011100100110001000: 616836 558482 633998 556964 550712
0111110000100001000010000: 616836 558482 568518 633998 600483
0110010010100010100000100: 616836 558482 568518 550712 635642
0110010011100000100001000: 616836 558482 568518 556964 550712
0110010010100010100000100: 616836 558482 568518 556964 635642
0110010010100010100000100: 558482 556964 550712 633998 615595
0110010010100010100000100: 558482 616836 550712 600483 615595
0110010011100000100001000: 558482 616836 550712 633998 600483
0110010010100010100000100: 558482 616836 550712 633998 615595
0110010011100000100001000: 558482 616836 550712 568518 600483
0110010011100000100001000: 558482 616836 550712 568518 633998
0110010010100010100000100: 558482 616836 550712 568518 615595
0110010011100000100001000: 558482 616836 556964 568518 600483
0110010011100100110001000: 558482 616836 556964 633998 600483
0110010011100100110001000: 558482 616836 556964 633998 568518
0110010010100010100000100: 463838 481961 595900 587113 621761
0110010010100010100000100: 481961 463838 587113 595900 601177
0110010010100010100000100: 556964 558482 633998 550712 621693
0110010010100010100000100: 556964 558482 633998 550712 601177
0110010011100000100001000: 601177 510032 587113 485176 655525
0110010011100000100001000: 601177 510032 633998 485176 655525
0110010011100000100001000: 601177 510032 621693 485176 655525
0110010011100000100001000: 601177 510032 615183 485176 655525
0110010010100010100000100: 601177 587113 510032 481961 655525
0110010010100010100000100: 601177 587113 510032 481961 485176
0110010010100010100000100: 601177 633998 510032 556964 655525
0110010010100010100000100: 601177 633998 510032 556964 485176
0110010011100000100001000: 601177 633998 510032 616836 556964
0110010010100010100000100: 601177 633998 510032 616836 655525
0110010010100010100000100: 601177 633998 510032 616836 485176
0110010010100010100000100: 601177 633998 587113 556964 481961
0110010011100000100001000: 601177 633998 587113 616836 556964
0110010010100010100000100: 601177 633998 587113 616836 481961
0110010011100000100001000: 601177 633998 615183 616836 556964
0111010101110001000001000: 601177 633998 621693 510032 556964
0111010101110001000001000: 601177 633998 621693 510032 616836
0111010101110001000001000: 601177 633998 621693 587113 556964
0111010101110001000001000: 601177 633998 621693 587113 616836
0111010101110001000001000: 601177 633998 621693 615183 556964
0111010101110001000001000: 601177 633998 621693 615183 616836
0110010010100010100000100: 601177 621693 510032 621761 655525
0110010010100010100000100: 601177 621693 510032 621761 485176
0110010010100010100000100: 601177 621693 587113 621761 481961
0111010101110001000001000: 601177 621693 633998 510032 621761
0111010100110001000100010: 601177 621693 633998 510032 655525
0111010100110001000100010: 601177 621693 633998 510032 485176
0111110100110001000010000: 601177 621693 633998 587113 510032
0111010101110001000001000: 601177 621693 633998 587113 621761
0111010100110001000100010: 601177 621693 633998 587113 481961
0111110100110001000010000: 601177 621693 633998 615183 510032
0111110100110001000010000: 601177 621693 633998 615183 587113
0111010101110001000001000: 601177 621693 633998 615183 621761
0111110000100001000010000: 601177 615183 633998 587113 510032
0111110000100001000010000: 601177 615183 621693 587113 510032
0110010010100010100000100: 568518 616836 635642 600483 485176
0110010011100000100001000: 568518 616836 635642 633998 600483
0110010010100010100000100: 568518 616836 635642 633998 485176
0110010011100000100001000: 568518 616836 635642 558482 600483
0110010011100000100001000: 568518 616836 635642 558482 633998
0110010010100010100000100: 568518 616836 635642 558482 485176
0110010010100010100000100: 635642 568518 485176 616836 510032
0110010011100000100001000: 621693 633998 621761 616836 556964
0111010101110001000001000: 621693 633998 601177 621761 556964
0111010101110001000001000: 621693 633998 601177 621761 616836
0110010010100010100000100: 621693 621761 633998 595900 556964
0110010010100010100000100: 621693 621761 633998 595900 616836
0110010010100010100000100: 621693 601177 621761 510032 595900
0110010011100000100001000: 621693 601177 621761 587113 510032
0110010010100010100000100: 621693 601177 621761 587113 595900
0110010011100000100001000: 621693 601177 621761 615183 510032
0110010011100000100001000: 621693 601177 621761 615183 587113
0110010010100010100000100: 621693 601177 621761 615183 595900
0111010100110001000100010: 621693 601177 633998 621761 595900
0110010010100010100000100: 621761 621693 595900 633998 463838
0110010010100010100000100: 621761 621693 595900 601177 463838
0110010011100000100001000: 485176 510032 635642 601177 655525
0110010010100010100000100: 485176 635642 510032 568518 655525
0110010010100010100000100: 485176 635642 510032 568518 601177
0110010011100000100001000: 633998 601177 556964 587113 510032
0110010011100000100001000: 633998 601177 556964 615183 510032
0110010011100000100001000: 633998 601177 556964 615183 587113
0110010011100000100001000: 633998 601177 616836 587113 510032
0110010011100000100001000: 633998 601177 616836 615183 510032
0110010011100000100001000: 633998 601177 616836 615183 587113
0111010100110001000100010: 633998 601177 621693 556964 558482
0111110100110001000010000: 633998 601177 621693 616836 556964
0111010100110001000100010: 633998 601177 621693 616836 600483
0111010100110001000100010: 633998 601177 621693 616836 568518
0111010100110001000100010: 633998 601177 621693 616836 558482
0110010010100010100000100: 633998 556964 621693 558482 621761
0110010010100010100000100: 633998 556964 601177 558482 510032
0110010010100010100000100: 633998 556964 601177 558482 587113
0110010010100010100000100: 633998 556964 601177 558482 615183
0110010010100010100000100: 633998 616836 621693 600483 621761
0110010011100000100001000: 633998 616836 621693 568518 600483
0110010010100010100000100: 633998 616836 621693 568518 621761
0110010011100000100001000: 633998 616836 621693 558482 600483
0110010011100000100001000: 633998 616836 621693 558482 568518
0110010010100010100000100: 633998 616836 621693 558482 621761
0110010010100010100000100: 633998 616836 601177 600483 510032
0110010010100010100000100: 633998 616836 601177 600483 587113
0110010010100010100000100: 633998 616836 601177 600483 615183
0110010011100000100001000: 633998 616836 601177 568518 600483
0110010010100010100000100: 633998 616836 601177 568518 510032
0110010010100010100000100: 633998 616836 601177 568518 587113
0110010010100010100000100: 633998 616836 601177 568518 615183
0110010011100000100001000: 633998 616836 601177 558482 600483
0110010011100000100001000: 633998 616836 601177 558482 568518
0110010010100010100000100: 633998 616836 601177 558482 510032
0110010010100010100000100: 633998 616836 601177 558482 587113
0110010010100010100000100: 633998 616836 601177 558482 615183
0110010011100000100001000: 633998 616836 556964 568518 600483
0110010010100010100000100: 595900 463838 621761 481961 621693
0110010011100000100001000: 655525 510032 615595 601177 485176
0110010010100010100000100: 655525 615595 510032 550712 485176
0110010010100010100000100: 655525 615595 510032 550712 601177
0110010010100010100000100: 615595 655525 550712 510032 558482
0110010011100000100001000: 587113 601177 481961 633998 510032
0110010011100000100001000: 587113 601177 481961 621693 510032
0110010011100000100001000: 587113 601177 481961 615183 510032
0110010011100000100001000: 587113 601177 481961 615183 633998
0110010011100000100001000: 587113 601177 481961 615183 621693
0110010010100010100000100: 587113 481961 601177 463838 510032
0110010010100010100000100: 587113 481961 601177 463838 633998
0110010010100010100000100: 587113 481961 601177 463838 621693
0110010010100010100000100: 587113 481961 601177 463838 615183
0110010010100010100000100: 550712 558482 615595 556964 655525
0110010011100000100001000: 550712 558482 615595 616836 556964
0110010010100010100000100: 550712 558482 615595 616836 655525
0110010010100010100000100: 510032 485176 655525 635642 615595
0110010010100010100000100: 510032 601177 655525 587113 615595
0110010011100000100001000: 510032 601177 655525 633998 587113
0110010010100010100000100: 510032 601177 655525 633998 615595
0110010011100000100001000: 510032 601177 655525 621693 587113
0110010010100010100000100: 510032 601177 655525 621693 615595
0110010011100000100001000: 510032 601177 655525 615183 587113
0110010011100000100001000: 510032 601177 655525 615183 633998
0110010011100000100001000: 510032 601177 655525 615183 621693
0110010010100010100000100: 510032 601177 655525 615183 615595
0110010010100010100000100: 510032 601177 485176 587113 635642
0110010011100000100001000: 510032 601177 485176 633998 587113
0110010010100010100000100: 510032 601177 485176 633998 635642
0110010011100000100001000: 510032 601177 485176 621693 587113
0110010010100010100000100: 510032 601177 485176 621693 635642
0110010011100000100001000: 510032 601177 485176 615183 587113
0110010011100000100001000: 510032 601177 485176 615183 633998
0110010011100000100001000: 510032 601177 485176 615183 621693
0110010010100010100000100: 510032 601177 485176 615183 635642
