Vertex,0110010010100010100000100,0111010101110001000101010,0111110110110011100010100,0110010011100000100001000,0110010010100010100100110,0111110000100001000010000,0111010100110001000100010,0111110100110001000010000,0111110110110001100010000,0110010011100100110001000,0111010101110001000001000,0111010110110011100000100
467288,29.0,1.0,1.0,42.0,2.0,2.0,7.0,5.0,2.0,6.0,11.0,3.0
604539,26.0,1.0,0.0,31.0,1.0,2.0,4.0,2.0,0.0,6.0,2.0,1.0
600713,6.0,0.0,0.0,21.0,0.0,2.0,1.0,2.0,0.0,1.0,3.0,1.0
507177,22.0,1.0,0.0,25.0,2.0,0.0,5.0,2.0,2.0,6.0,5.0,0.0
505663,20.0,0.0,0.0,11.0,0.0,0.0,1.0,0.0,0.0,1.0,0.0,0.0
627930,21.0,1.0,1.0,22.0,0.0,1.0,6.0,4.0,3.0,0.0,11.0,5.0
524316,25.0,1.0,1.0,27.0,1.0,1.0,12.0,5.0,3.0,6.0,13.0,5.0
559511,14.0,0.0,0.0,24.0,2.0,2.0,2.0,2.0,0.0,1.0,3.0,1.0
573442,14.0,0.0,1.0,14.0,0.0,0.0,8.0,1.0,3.0,1.0,3.0,5.0
618271,7.0,0.0,0.0,8.0,0.0,0.0,0.0,0.0,1.0,0.0,6.0,1.0
608611,22.0,0.0,1.0,13.0,0.0,0.0,7.0,2.0,1.0,1.0,6.0,2.0
566428,17.0,0.0,0.0,14.0,2.0,0.0,4.0,0.0,0.0,1.0,0.0,0.0
554254,17.0,0.0,0.0,2.0,0.0,0.0,2.0,0.0,0.0,0.0,2.0,1.0
614610,15.0,0.0,0.0,1.0,0.0,0.0,1.0,0.0,0.0,0.0,0.0,0.0
graph,51.0,1.0,1.0,51.0,2.0,2.0,12.0,5.0,3.0,6.0,13.0,5.0
