0111101011001000: 482378 608911 460145 492881
0111101011001000: 482378 460145 608911 492881
0110100110000100: 482378 608911 492881 604382
0110100010010010: 482378 608911 492881 615762
0110100010010010: 482378 608911 492881 613699
0110100110000100: 482378 608911 492881 604382
0110100110000100: 482378 608911 492881 604382
0111100110001100: 482378 608911 492881 460145
0111101011001000: 482378 608911 460145 492881
0110101011010010: 482378 608911 460145 612613
0110101011010010: 482378 608911 460145 533033
0110101011010010: 482378 608911 460145 612613
0110101011010010: 482378 608911 460145 533033
0111101011001000: 482378 608911 460145 492881
0111101011001000: 482378 608911 460145 492881
0111101011001000: 482378 608911 460145 492881
0111101011001000: 482378 608911 460145 492881
0110101111010110: 482378 608911 460145 604382
0110101111010110: 482378 608911 460145 604382
0110101111010110: 482378 608911 460145 604382
0111101011001000: 482378 608911 460145 492881
0110100110000100: 482378 608911 492881 604382
0110100110000100: 482378 608911 492881 604382
0111100110001100: 482378 608911 492881 460145
0111100110001100: 482378 608911 492881 460145
0111100110001100: 482378 608911 492881 460145
0110100110000100: 482378 608911 492881 604382
0111100110001100: 482378 608911 492881 460145
0111101011001000: 482378 608911 460145 492881
0110100110000100: 482378 492881 608911 615762
0110100110000100: 482378 492881 608911 613699
0110100010010010: 482378 492881 608911 604382
0111100010011010: 482378 492881 608911 460145
0110100110000100: 482378 492881 460145 615762
0110100110000100: 482378 492881 460145 613699
0110100010010010: 482378 492881 460145 612613
0110100010010010: 482378 492881 460145 533033
0110100010010010: 482378 492881 460145 604382
0111100010011010: 482378 492881 460145 608911
0110100110000100: 482378 492881 608911 615762
0110100110000100: 482378 492881 608911 613699
0110100110000100: 482378 492881 608911 615762
0110100110000100: 482378 492881 608911 613699
0110100110000100: 482378 492881 460145 615762
0110100110000100: 482378 492881 460145 613699
0110100110000100: 482378 492881 460145 615762
0110100110000100: 482378 492881 460145 613699
0111100010011010: 482378 492881 608911 460145
0111100010011010: 482378 492881 608911 460145
0111100010011010: 482378 492881 460145 608911
0111100010011010: 482378 492881 460145 608911
0111100010011010: 482378 492881 460145 608911
0110100110000100: 482378 492881 608911 615762
0110100110000100: 482378 492881 608911 613699
0110100110000100: 482378 492881 608911 615762
0110100110000100: 482378 492881 608911 613699
0110100110000100: 482378 492881 608911 615762
0110100110000100: 482378 492881 608911 613699
0111100010011010: 482378 492881 608911 460145
0110100110000100: 482378 492881 460145 615762
0110100110000100: 482378 492881 460145 613699
0110100110000100: 482378 492881 460145 615762
0110100110000100: 482378 492881 460145 613699
0110100110000100: 482378 492881 460145 615762
0110100110000100: 482378 492881 460145 613699
0111100010011010: 482378 492881 460145 608911
0110100110000100: 482378 460145 492881 612613
0110100110000100: 482378 460145 492881 533033
0110100110000100: 482378 460145 492881 604382
0110100010010010: 482378 460145 492881 615762
0110100010010010: 482378 460145 492881 613699
0110100110000100: 482378 460145 492881 612613
0110100110000100: 482378 460145 492881 533033
0110100110000100: 482378 460145 492881 604382
0110100110000100: 482378 460145 492881 612613
0110100110000100: 482378 460145 492881 533033
0110100110000100: 482378 460145 492881 604382
0111100110001100: 482378 460145 492881 608911
0110100010010010: 482378 460145 492881 615762
0110100010010010: 482378 460145 492881 613699
0111101011001000: 482378 460145 608911 492881
0111101011001000: 482378 460145 608911 492881
0111101011001000: 482378 460145 608911 492881
0111101011001000: 482378 460145 608911 492881
0111101011001000: 482378 460145 608911 492881
0110101111000100: 482378 460145 608911 612613
0110101111000100: 482378 460145 608911 533033
0110101111000100: 482378 460145 608911 612613
0110101111000100: 482378 460145 608911 533033
0111101011001000: 482378 460145 608911 492881
0110101111010110: 482378 460145 608911 604382
0110101111010110: 482378 460145 608911 604382
0110101111010110: 482378 460145 608911 604382
0111101011001000: 482378 460145 608911 492881
0110100110000100: 482378 460145 492881 612613
0110100110000100: 482378 460145 492881 533033
0110100110000100: 482378 460145 492881 604382
0110100110000100: 482378 460145 492881 612613
0110100110000100: 482378 460145 492881 533033
0110100110000100: 482378 460145 492881 604382
0111100110001100: 482378 460145 492881 608911
0111100110001100: 482378 460145 492881 608911
0111100110001100: 482378 460145 492881 608911
0110100010010010: 482378 460145 492881 615762
0110100010010010: 482378 460145 492881 613699
0111100110001100: 482378 460145 492881 608911
0111101011001000: 482378 460145 608911 492881
0111101011001000: 482378 460145 608911 492881
0111101011001000: 482378 460145 608911 492881
0111101011001000: 482378 460145 608911 492881
0101101001001000: 460145 612613 537606 533033
0101101001001000: 460145 612613 537606 608911
0101101001001000: 460145 612613 537606 604382
0101101001001000: 460145 612613 537606 482378
0111100010001000: 460145 608911 533033 612613
0111101011001000: 460145 608911 604382 612613
0111101011001000: 460145 608911 604382 533033
0111101011001000: 460145 608911 482378 612613
0111101011001000: 460145 608911 482378 533033
0111101111001100: 460145 608911 482378 604382
0111100010001000: 460145 604382 533033 612613
0111101011001000: 460145 604382 608911 612613
0111101011001000: 460145 604382 608911 533033
0101101001001000: 460145 604382 653872 612613
0101101001001000: 460145 604382 653872 533033
0101101001001000: 460145 604382 653872 482378
0101101101001100: 460145 604382 653872 608911
0111100010001000: 460145 482378 533033 612613
0111100010001000: 460145 482378 604382 612613
0111100010001000: 460145 482378 604382 533033
0111101011001000: 460145 482378 608911 612613
0111101011001000: 460145 482378 608911 533033
0101101001001000: 460145 482378 492881 612613
0101101001001000: 460145 482378 492881 533033
0101101001001000: 460145 482378 492881 604382
0101101101001100: 460145 482378 492881 608911
0110100110000100: 460145 612613 533033 537606
0111100010001000: 460145 612613 608911 533033
0110100110000100: 460145 612613 608911 537606
0111100010011010: 460145 612613 608911 604382
0111100010011010: 460145 612613 608911 482378
0111100010001000: 460145 612613 604382 533033
0110100110000100: 460145 612613 604382 537606
0110100010010010: 460145 612613 604382 653872
0111100010011010: 460145 612613 604382 608911
0110100010010010: 460145 612613 604382 653872
0111100010001000: 460145 612613 482378 533033
0111100010001000: 460145 612613 482378 604382
0110100110000100: 460145 612613 482378 537606
0110100010010010: 460145 612613 482378 492881
0111100010011010: 460145 612613 482378 608911
0110100010010010: 460145 612613 482378 492881
0110100110000100: 460145 612613 533033 537606
0110100110000100: 460145 612613 533033 537606
0110100110000100: 460145 612613 533033 537606
0110100110000100: 460145 612613 608911 537606
0110100110000100: 460145 612613 608911 537606
0110100110000100: 460145 612613 608911 537606
0110100110000100: 460145 612613 604382 537606
0110100110000100: 460145 612613 604382 537606
0110100110000100: 460145 612613 604382 537606
0110100110000100: 460145 612613 482378 537606
0110100110000100: 460145 612613 482378 537606
0110100110000100: 460145 612613 482378 537606
0101101001001000: 460145 612613 537606 533033
0101101001001000: 460145 612613 537606 608911
0101101001001000: 460145 612613 537606 604382
0101101001001000: 460145 612613 537606 482378
0100101001010010: 460145 612613 537606 615762
0100101001010010: 460145 612613 537606 615762
0100101001010010: 460145 612613 537606 615762
0110100010010010: 460145 533033 612613 537606
0110100010010010: 460145 533033 612613 537606
0111100010001000: 460145 533033 608911 612613
0111100010011010: 460145 533033 608911 604382
0111100010011010: 460145 533033 608911 482378
0111100010001000: 460145 533033 604382 612613
0110100010010010: 460145 533033 604382 653872
0111100010011010: 460145 533033 604382 608911
0110100010010010: 460145 533033 604382 653872
0111100010001000: 460145 533033 482378 612613
0111100010001000: 460145 533033 482378 604382
0110100010010010: 460145 533033 482378 492881
0111100010011010: 460145 533033 482378 608911
0110100010010010: 460145 533033 482378 492881
0111100010001000: 460145 533033 612613 608911
0111100010001000: 460145 533033 612613 604382
0111100010001000: 460145 533033 612613 482378
0110100010010010: 460145 608911 612613 537606
0110100010010010: 460145 608911 612613 537606
0111100010001000: 460145 608911 533033 612613
0111100010001000: 460145 608911 612613 533033
0111100110001100: 460145 608911 612613 604382
0111100110001100: 460145 608911 612613 482378
0110100010010010: 460145 608911 612613 537606
0111100010001000: 460145 608911 533033 612613
0111100010001000: 460145 608911 533033 612613
0111100110001100: 460145 608911 533033 604382
0111100110001100: 460145 608911 533033 482378
0111101011001000: 460145 608911 604382 612613
0111101011001000: 460145 608911 604382 533033
0110101011010010: 460145 608911 604382 653872
0110101011010010: 460145 608911 604382 653872
0110101011010010: 460145 608911 604382 653872
0110101011010010: 460145 608911 604382 653872
0111101011001000: 460145 608911 482378 612613
0111101011001000: 460145 608911 482378 533033
0110101011010010: 460145 608911 482378 492881
0110101011010010: 460145 608911 482378 492881
0111101111001100: 460145 608911 482378 604382
0110101011010010: 460145 608911 482378 492881
0110101011010010: 460145 608911 482378 492881
0111101011001000: 460145 608911 604382 612613
0111101011001000: 460145 608911 604382 533033
0111101011001000: 460145 608911 604382 612613
0111101011001000: 460145 608911 604382 533033
0111101111001100: 460145 608911 604382 482378
0111101111001100: 460145 608911 604382 482378
0111101011001000: 460145 608911 482378 612613
0111101011001000: 460145 608911 482378 533033
0111101011001000: 460145 608911 482378 612613
0111101011001000: 460145 608911 482378 533033
0111101111001100: 460145 608911 482378 604382
0111101111001100: 460145 608911 482378 604382
0111101111001100: 460145 608911 482378 604382
0111101111001100: 460145 608911 604382 482378
0111101111001100: 460145 608911 604382 482378
0111101111001100: 460145 608911 482378 604382
0111101111001100: 460145 608911 482378 604382
0111101111001100: 460145 608911 482378 604382
0110100110000100: 460145 604382 612613 653872
0110100010010010: 460145 604382 612613 537606
0110100010010010: 460145 604382 612613 537606
0111100010001000: 460145 604382 533033 612613
0110100110000100: 460145 604382 533033 653872
0111100010001000: 460145 604382 482378 612613
0111100010001000: 460145 604382 482378 533033
0110100110000100: 460145 604382 482378 653872
0110100010010010: 460145 604382 482378 492881
0110100010010010: 460145 604382 482378 492881
0111100010001000: 460145 604382 612613 533033
0111100010001000: 460145 604382 612613 482378
0110100110000100: 460145 604382 612613 653872
0110100110000100: 460145 604382 612613 653872
0111100110001100: 460145 604382 612613 608911
0110100110000100: 460145 604382 612613 653872
0110100010010010: 460145 604382 612613 537606
0111100010001000: 460145 604382 533033 612613
0111100010001000: 460145 604382 533033 482378
0111100010001000: 460145 604382 533033 612613
0110100110000100: 460145 604382 533033 653872
0110100110000100: 460145 604382 533033 653872
0111100110001100: 460145 604382 533033 608911
0110100110000100: 460145 604382 533033 653872
0110100110000100: 460145 604382 482378 653872
0110100110000100: 460145 604382 482378 653872
0110100110000100: 460145 604382 482378 653872
0111101011001000: 460145 604382 608911 612613
0111101011001000: 460145 604382 608911 533033
0111101011011010: 460145 604382 608911 482378
0111101011011010: 460145 604382 608911 482378
0111101011011010: 460145 604382 608911 482378
0110101111000100: 460145 604382 608911 653872
0101101001001000: 460145 604382 653872 612613
0101101001001000: 460145 604382 653872 533033
0101101001001000: 460145 604382 653872 482378
0100101001010010: 460145 604382 653872 613699
0100101001010010: 460145 604382 653872 613699
0101101101001100: 460145 604382 653872 608911
0100101001010010: 460145 604382 653872 613699
0100101001010010: 460145 604382 653872 613699
0111101011001000: 460145 604382 608911 612613
0111101011001000: 460145 604382 608911 533033
0111101011001000: 460145 604382 608911 612613
0111101011001000: 460145 604382 608911 533033
0110101111000100: 460145 604382 608911 653872
0110101111000100: 460145 604382 608911 653872
0110101111000100: 460145 604382 608911 653872
0110101111000100: 460145 604382 608911 653872
0111101011001000: 460145 604382 608911 612613
0111101011001000: 460145 604382 608911 533033
0111101011001000: 460145 604382 608911 612613
0111101011001000: 460145 604382 608911 533033
0110101111000100: 460145 604382 608911 653872
0110100010010010: 460145 482378 612613 537606
0110100010010010: 460145 482378 612613 537606
0111100010001000: 460145 482378 533033 612613
0111100010001000: 460145 482378 604382 612613
0111100010001000: 460145 482378 604382 533033
0110100010010010: 460145 482378 604382 653872
0110100010010010: 460145 482378 604382 653872
0111100010001000: 460145 482378 612613 533033
0111100010001000: 460145 482378 612613 604382
0110100110000100: 460145 482378 612613 492881
0111100110001100: 460145 482378 612613 608911
0110100110000100: 460145 482378 612613 492881
0110100010010010: 460145 482378 612613 537606
0111100010001000: 460145 482378 533033 612613
0111100010001000: 460145 482378 533033 604382
0111100010001000: 460145 482378 533033 612613
0110100110000100: 460145 482378 533033 492881
0111100110001100: 460145 482378 533033 608911
0110100110000100: 460145 482378 533033 492881
0111100010001000: 460145 482378 604382 612613
0111100010001000: 460145 482378 604382 533033
0111100010001000: 460145 482378 604382 612613
0111100010001000: 460145 482378 604382 533033
0110100110000100: 460145 482378 604382 492881
0110100110000100: 460145 482378 604382 492881
0111101011001000: 460145 482378 608911 612613
0111101011001000: 460145 482378 608911 533033
0111101011011010: 460145 482378 608911 604382
0111101011011010: 460145 482378 608911 604382
0111101011011010: 460145 482378 608911 604382
0110101111000100: 460145 482378 608911 492881
0101101001001000: 460145 482378 492881 612613
0101101001001000: 460145 482378 492881 533033
0101101001001000: 460145 482378 492881 604382
0100101001010010: 460145 482378 492881 615762
0100101001010010: 460145 482378 492881 613699
0100101001010010: 460145 482378 492881 615762
0100101001010010: 460145 482378 492881 613699
0101101101001100: 460145 482378 492881 608911
0100101001010010: 460145 482378 492881 615762
0100101001010010: 460145 482378 492881 613699
0111101011001000: 460145 482378 608911 612613
0111101011001000: 460145 482378 608911 533033
0111101011001000: 460145 482378 608911 612613
0111101011001000: 460145 482378 608911 533033
0110101111000100: 460145 482378 608911 492881
0110101111000100: 460145 482378 608911 492881
0110101111000100: 460145 482378 608911 492881
0110101111000100: 460145 482378 608911 492881
0111101011001000: 460145 482378 608911 612613
0111101011001000: 460145 482378 608911 533033
0111101011001000: 460145 482378 608911 612613
0111101011001000: 460145 482378 608911 533033
0110101111000100: 460145 482378 608911 492881
0101101001001000: 492881 615762 537606 613699
0101101001001000: 492881 615762 537606 482378
0101101001001000: 492881 613699 653872 615762
0101101001001000: 492881 613699 653872 482378
0111100010001000: 492881 482378 613699 615762
0110100110000100: 492881 615762 613699 537606
0110100010010010: 492881 615762 613699 653872
0110100010010010: 492881 615762 613699 653872
0111100010001000: 492881 615762 482378 613699
0110100110000100: 492881 615762 482378 537606
0110100010010010: 492881 615762 482378 608911
0110100010010010: 492881 615762 482378 460145
0110100110000100: 492881 615762 613699 537606
0110100110000100: 492881 615762 613699 537606
0110100110000100: 492881 615762 613699 537606
0110100110000100: 492881 615762 482378 537606
0110100110000100: 492881 615762 482378 537606
0110100110000100: 492881 615762 482378 537606
0101101001001000: 492881 615762 537606 613699
0101101001001000: 492881 615762 537606 482378
0100101001010010: 492881 615762 537606 612613
0100101001010010: 492881 615762 537606 612613
0100101001010010: 492881 615762 537606 612613
0110100110000100: 492881 613699 615762 653872
0110100010010010: 492881 613699 615762 537606
0110100010010010: 492881 613699 615762 537606
0111100010001000: 492881 613699 482378 615762
0110100110000100: 492881 613699 482378 653872
0110100010010010: 492881 613699 482378 608911
0110100010010010: 492881 613699 482378 460145
0111100010001000: 492881 613699 615762 482378
0110100110000100: 492881 613699 615762 653872
0110100110000100: 492881 613699 615762 653872
0110100110000100: 492881 613699 615762 653872
0110100110000100: 492881 613699 482378 653872
0110100110000100: 492881 613699 482378 653872
0110100110000100: 492881 613699 482378 653872
0101101001001000: 492881 613699 653872 615762
0101101001001000: 492881 613699 653872 482378
0100101001010010: 492881 613699 653872 604382
0100101001010010: 492881 613699 653872 604382
0100101001010010: 492881 613699 653872 604382
0110100010010010: 492881 482378 615762 537606
0110100010010010: 492881 482378 615762 537606
0111100010001000: 492881 482378 613699 615762
0110100010010010: 492881 482378 613699 653872
0110100010010010: 492881 482378 613699 653872
0111100010001000: 492881 482378 615762 613699
0110100110000100: 492881 482378 615762 608911
0110100110000100: 492881 482378 615762 460145
0110100010010010: 492881 482378 615762 537606
0111100010001000: 492881 482378 613699 615762
0111100010001000: 492881 482378 613699 615762
0110100110000100: 492881 482378 613699 608911
0110100110000100: 492881 482378 613699 460145
0110100010010010: 492881 482378 613699 653872
0111100010001000: 492881 482378 615762 613699
0111100010001000: 492881 482378 615762 613699
0110100010010010: 492881 482378 615762 537606
0111100010001000: 492881 482378 613699 615762
0111100010001000: 492881 482378 613699 615762
0110100010010010: 492881 482378 613699 653872
0110100110000100: 492881 482378 615762 608911
0110100110000100: 492881 482378 615762 460145
0110100110000100: 492881 482378 615762 608911
0110100110000100: 492881 482378 615762 460145
0111100010001000: 492881 482378 615762 613699
0110100010010010: 492881 482378 615762 537606
0110100010010010: 492881 482378 615762 537606
0110100110000100: 492881 482378 613699 608911
0110100110000100: 492881 482378 613699 460145
0110100110000100: 492881 482378 613699 608911
0110100110000100: 492881 482378 613699 460145
0111100010001000: 492881 482378 613699 615762
0111100010001000: 492881 482378 613699 615762
0110100010010010: 492881 482378 613699 653872
0110100010010010: 492881 482378 613699 653872
0110100110000100: 613699 653872 492881 604382
0110100010010010: 613699 653872 492881 615762
0110100010010010: 613699 653872 492881 482378
0110100110000100: 613699 653872 492881 604382
0110100110000100: 613699 653872 492881 604382
0110100110000100: 613699 653872 492881 604382
0110100110000100: 613699 653872 492881 604382
0110100110000100: 613699 653872 492881 604382
0110100010010010: 613699 492881 653872 604382
0110100110000100: 613699 492881 653872 615762
0110100110000100: 613699 492881 653872 482378
0110100010010010: 613699 492881 653872 604382
0110100110000100: 613699 492881 653872 615762
0110100110000100: 613699 492881 653872 482378
0110100110000100: 613699 492881 653872 615762
0110100110000100: 613699 492881 653872 482378
0110100010010010: 613699 492881 653872 604382
0101101001001000: 604382 653872 613699 608911
0101101001001000: 604382 653872 613699 460145
0111101011001000: 604382 608911 460145 653872
0111101011001000: 604382 460145 608911 653872
0110100110000100: 604382 653872 608911 613699
0110100010010010: 604382 653872 608911 482378
0111100010011010: 604382 653872 608911 460145
0110100110000100: 604382 653872 460145 613699
0110100010010010: 604382 653872 460145 612613
0110100010010010: 604382 653872 460145 533033
0110100010010010: 604382 653872 460145 482378
0111100010011010: 604382 653872 460145 608911
0110100110000100: 604382 653872 608911 613699
0110100110000100: 604382 653872 608911 613699
0110100110000100: 604382 653872 608911 613699
0110100110000100: 604382 653872 460145 613699
0110100110000100: 604382 653872 460145 613699
0110100110000100: 604382 653872 460145 613699
0101101001001000: 604382 653872 613699 608911
0101101001001000: 604382 653872 613699 460145
0100101001010010: 604382 653872 613699 492881
0100101001010010: 604382 653872 613699 492881
0100101001010010: 604382 653872 613699 492881
0110100110000100: 604382 608911 653872 482378
0110100010010010: 604382 608911 653872 613699
0110100010010010: 604382 608911 653872 613699
0110100110000100: 604382 608911 653872 482378
0110100110000100: 604382 608911 653872 482378
0111100110001100: 604382 608911 653872 460145
0110100010010010: 604382 608911 653872 613699
0111101011001000: 604382 608911 460145 653872
0110101011010010: 604382 608911 460145 612613
0110101011010010: 604382 608911 460145 533033
0110101011010010: 604382 608911 460145 612613
0110101011010010: 604382 608911 460145 533033
0111101011001000: 604382 608911 460145 653872
0111101011001000: 604382 608911 460145 653872
0110100010010010: 604382 608911 653872 613699
0111101011001000: 604382 608911 460145 653872
0111101011001000: 604382 608911 460145 653872
0111101011001000: 604382 608911 460145 653872
0110101111010110: 604382 608911 460145 482378
0110101111010110: 604382 608911 460145 482378
0111101011001000: 604382 608911 460145 653872
0110100110000100: 604382 608911 653872 482378
0110100110000100: 604382 608911 653872 482378
0111100110001100: 604382 608911 653872 460145
0111100110001100: 604382 608911 653872 460145
0111100110001100: 604382 608911 653872 460145
0110100010010010: 604382 608911 653872 613699
0110100010010010: 604382 608911 653872 613699
0111101011001000: 604382 608911 460145 653872
0110100010010010: 604382 460145 653872 613699
0110100010010010: 604382 460145 653872 613699
0110100110000100: 604382 460145 653872 612613
0110100110000100: 604382 460145 653872 533033
0110100110000100: 604382 460145 653872 482378
0111100110001100: 604382 460145 653872 608911
0110100010010010: 604382 460145 653872 613699
0111101011001000: 604382 460145 608911 653872
0111101011001000: 604382 460145 608911 653872
0111101011001000: 604382 460145 608911 653872
0110100010010010: 604382 460145 653872 613699
0111101011001000: 604382 460145 608911 653872
0111101011001000: 604382 460145 608911 653872
0110101111000100: 604382 460145 608911 612613
0110101111000100: 604382 460145 608911 533033
0110101111000100: 604382 460145 608911 612613
0110101111000100: 604382 460145 608911 533033
0111101011001000: 604382 460145 608911 653872
0110101111010110: 604382 460145 608911 482378
0110101111010110: 604382 460145 608911 482378
0111101011001000: 604382 460145 608911 653872
0110100110000100: 604382 460145 653872 612613
0110100110000100: 604382 460145 653872 533033
0110100110000100: 604382 460145 653872 482378
0110100110000100: 604382 460145 653872 612613
0110100110000100: 604382 460145 653872 533033
0110100110000100: 604382 460145 653872 482378
0111100110001100: 604382 460145 653872 608911
0111100110001100: 604382 460145 653872 608911
0111100110001100: 604382 460145 653872 608911
0110100010010010: 604382 460145 653872 613699
0110100010010010: 604382 460145 653872 613699
0111101011001000: 604382 460145 608911 653872
0111101011001000: 604382 460145 608911 653872
0111101011001000: 604382 460145 608911 653872
0111101011001000: 604382 460145 608911 653872
0111101111001100: 608911 460145 482378 604382
0110100010010010: 608911 604382 482378 492881
0110100110000100: 608911 604382 482378 653872
0111101011011010: 608911 604382 460145 482378
0111101011011010: 608911 604382 460145 482378
0111101011011010: 608911 604382 460145 482378
0110101111000100: 608911 604382 460145 653872
0110101111000100: 608911 604382 460145 653872
0110101111000100: 608911 604382 460145 653872
0111101011011010: 608911 604382 460145 482378
0110100110000100: 608911 604382 482378 653872
0110100110000100: 608911 604382 482378 653872
0110100110000100: 608911 604382 482378 653872
0111100110011110: 608911 604382 482378 460145
0111101011011010: 608911 604382 460145 482378
0110101111000100: 608911 460145 604382 612613
0110101111000100: 608911 460145 604382 533033
0110101111000100: 608911 460145 604382 612613
0110101111000100: 608911 460145 604382 533033
0111101111001100: 608911 460145 604382 482378
0110101011010010: 608911 460145 604382 653872
0110101111000100: 608911 460145 482378 612613
0110101111000100: 608911 460145 482378 533033
0110101111000100: 608911 460145 482378 612613
0110101111000100: 608911 460145 482378 533033
0111101111001100: 608911 460145 482378 604382
0111101111001100: 608911 460145 482378 604382
0110101011010010: 608911 460145 482378 492881
0111101111001100: 608911 460145 604382 482378
0111101111001100: 608911 460145 482378 604382
0110100010010010: 608911 482378 604382 653872
0110100110000100: 608911 482378 604382 492881
0111101011011010: 608911 482378 460145 604382
0111101011011010: 608911 482378 460145 604382
0111101011011010: 608911 482378 460145 604382
0110101111000100: 608911 482378 460145 492881
0110101111000100: 608911 482378 460145 492881
0110101111000100: 608911 482378 460145 492881
0111101011011010: 608911 482378 460145 604382
0111101011011010: 608911 482378 460145 604382
0110100110000100: 608911 482378 604382 492881
0110100110000100: 608911 482378 604382 492881
0110100110000100: 608911 482378 604382 492881
0111100110011110: 608911 482378 604382 460145
0111101011011010: 608911 482378 460145 604382
0110100110000100: 537606 612613 615762 460145
0110100010010010: 537606 612613 615762 492881
0110100110000100: 537606 612613 615762 460145
0110100110000100: 537606 612613 615762 460145
0110100110000100: 537606 612613 615762 460145
0110100110000100: 537606 612613 615762 460145
0110100110000100: 537606 612613 615762 460145
0110100110000100: 537606 615762 612613 492881
0110100010010010: 537606 615762 612613 460145
0110100110000100: 537606 615762 612613 492881
0110100110000100: 537606 615762 612613 492881
0110100110000100: 537606 615762 612613 492881
0110100110000100: 537606 615762 612613 492881
0110100110000100: 537606 615762 612613 492881
0110100010010010: 615762 537606 492881 613699
0110100010010010: 615762 537606 492881 482378
0110100110000100: 615762 537606 492881 612613
0110100110000100: 615762 537606 492881 612613
0110100110000100: 615762 537606 492881 612613
0110100110000100: 615762 537606 492881 612613
0110100010010010: 615762 492881 537606 612613
0110100110000100: 615762 492881 537606 613699
0110100110000100: 615762 492881 537606 482378
0110100010010010: 615762 492881 537606 612613
0110100110000100: 615762 492881 537606 613699
0110100110000100: 615762 492881 537606 482378
0110100110000100: 615762 492881 537606 613699
0110100110000100: 615762 492881 537606 482378
0110100010010010: 615762 492881 537606 612613
0110100010010010: 612613 537606 460145 533033
0110100010010010: 612613 537606 460145 608911
0110100010010010: 612613 537606 460145 604382
0110100010010010: 612613 537606 460145 482378
0110100110000100: 612613 537606 460145 615762
0110100110000100: 612613 537606 460145 615762
0110100110000100: 612613 537606 460145 615762
0110100110000100: 612613 537606 460145 615762
0110100010010010: 612613 460145 537606 615762
0110100110000100: 612613 460145 537606 533033
0110100110000100: 612613 460145 537606 608911
0110100110000100: 612613 460145 537606 604382
0110100110000100: 612613 460145 537606 482378
0110100010010010: 612613 460145 537606 615762
0110100110000100: 612613 460145 537606 533033
0110100110000100: 612613 460145 537606 608911
0110100110000100: 612613 460145 537606 604382
0110100110000100: 612613 460145 537606 482378
0110100110000100: 612613 460145 537606 533033
0110100110000100: 612613 460145 537606 608911
0110100110000100: 612613 460145 537606 604382
0110100110000100: 612613 460145 537606 482378
0110100010010010: 612613 460145 537606 615762
0110100010010010: 653872 604382 613699 492881
0110100110000100: 653872 604382 613699 608911
0110100110000100: 653872 604382 613699 460145
0110100010010010: 653872 604382 613699 492881
0110100110000100: 653872 604382 613699 608911
0110100110000100: 653872 604382 613699 460145
0110100110000100: 653872 604382 613699 608911
0110100110000100: 653872 604382 613699 460145
0110100010010010: 653872 604382 613699 492881
0110100010010010: 653872 613699 604382 608911
0110100010010010: 653872 613699 604382 460145
0110100110000100: 653872 613699 604382 492881
0110100110000100: 653872 613699 604382 492881
0110100110000100: 653872 613699 604382 492881
0110100110000100: 653872 613699 604382 492881
