0101101001001000: 537417 631064 542823 570257
0110100110010110: 537417 522987 631064 542823
0111100010001000: 537417 570257 522987 631064
0101101001001000: 537417 570257 582549 631064
0101101001001000: 537417 570257 582549 522987
0110100010010010: 537417 631064 522987 523732
0110100110010110: 537417 631064 522987 542823
0110100110010110: 537417 631064 522987 542823
0111100010001000: 537417 631064 570257 522987
0110100110000100: 537417 631064 570257 542823
0110100010010010: 537417 631064 570257 582549
0110100010010010: 537417 631064 570257 582549
0110100110010110: 537417 631064 522987 542823
0110100110000100: 537417 631064 570257 542823
0110100110000100: 537417 631064 570257 542823
0110100110000100: 537417 631064 570257 542823
0101101001001000: 537417 631064 542823 570257
0101101001011010: 537417 631064 542823 522987
0101101001011010: 537417 631064 542823 522987
0101101001011010: 537417 631064 542823 522987
0110100110000100: 537417 522987 631064 523732
0110100110010110: 537417 522987 631064 542823
0110100110010110: 537417 522987 631064 542823
0111100010001000: 537417 522987 570257 631064
0110100110000100: 537417 522987 570257 523732
0110100110000100: 537417 522987 570257 542823
0110100010010010: 537417 522987 570257 582549
0110100010010010: 537417 522987 570257 582549
0111100010001000: 537417 522987 631064 570257
0110100110000100: 537417 522987 631064 523732
0110100110000100: 537417 522987 631064 523732
0110100110010110: 537417 522987 631064 542823
0110100110010110: 537417 522987 631064 542823
0110100110010110: 537417 522987 631064 542823
0110100110000100: 537417 522987 570257 523732
0110100110000100: 537417 522987 570257 542823
0110100110000100: 537417 522987 570257 523732
0110100110000100: 537417 522987 570257 542823
0110100010010010: 537417 522987 570257 582549
0111100010001000: 537417 522987 631064 570257
0111100010001000: 537417 522987 631064 570257
0111100010001000: 537417 522987 570257 631064
0111100010001000: 537417 522987 570257 631064
0110100010010010: 537417 522987 570257 582549
0110100110000100: 537417 522987 631064 523732
0110100110000100: 537417 522987 631064 523732
0111100010001000: 537417 522987 631064 570257
0110100110010110: 537417 522987 631064 542823
0110100110010110: 537417 522987 631064 542823
0110100110000100: 537417 522987 570257 523732
0110100110000100: 537417 522987 570257 542823
0110100110000100: 537417 522987 570257 523732
0110100110000100: 537417 522987 570257 542823
0111100010001000: 537417 522987 570257 631064
0111100010001000: 537417 522987 570257 631064
0110100010010010: 537417 522987 570257 582549
0110100010010010: 537417 522987 570257 582549
0110100110000100: 537417 570257 631064 582549
0110100010010010: 537417 570257 631064 542823
0110100010010010: 537417 570257 631064 542823
0111100010001000: 537417 570257 522987 631064
0110100110000100: 537417 570257 522987 582549
0110100010010010: 537417 570257 522987 523732
0110100010010010: 537417 570257 522987 542823
0111100010001000: 537417 570257 631064 522987
0110100110000100: 537417 570257 631064 582549
0110100110000100: 537417 570257 631064 582549
0110100110000100: 537417 570257 631064 582549
0111100010001000: 537417 570257 522987 631064
0111100010001000: 537417 570257 522987 631064
0110100110000100: 537417 570257 522987 582549
0110100110000100: 537417 570257 522987 582549
0110100110000100: 537417 570257 522987 582549
0101101001001000: 537417 570257 582549 631064
0101101001001000: 537417 570257 582549 522987
0100101001010010: 537417 570257 582549 579216
0100101001010010: 537417 570257 582549 579216
0100101001010010: 537417 570257 582549 579216
0110100110000100: 570257 582549 537417 579216
0110100010010010: 570257 582549 537417 631064
0110100010010010: 570257 582549 537417 522987
0110100110000100: 570257 582549 537417 579216
0110100110000100: 570257 582549 537417 579216
0110100110000100: 570257 582549 537417 579216
0110100110000100: 570257 582549 537417 579216
0110100110000100: 570257 582549 537417 579216
0110100010010010: 570257 537417 582549 579216
0110100110000100: 570257 537417 582549 631064
0110100110000100: 570257 537417 582549 522987
0110100010010010: 570257 537417 582549 579216
0110100110000100: 570257 537417 582549 631064
0110100110000100: 570257 537417 582549 522987
0110100110000100: 570257 537417 582549 631064
0110100110000100: 570257 537417 582549 522987
0110100010010010: 570257 537417 582549 579216
0110100110000100: 582549 579216 570257 461736
0110100010010010: 582549 579216 570257 537417
0110100110000100: 582549 579216 570257 461736
0110100110000100: 582549 579216 570257 461736
0110100110000100: 582549 579216 570257 461736
0110100110000100: 582549 579216 570257 461736
0110100110000100: 582549 579216 570257 461736
0110100010010010: 582549 570257 579216 461736
0110100110000100: 582549 570257 579216 537417
0110100110000100: 582549 570257 579216 537417
0110100110000100: 582549 570257 579216 537417
0110100110000100: 582549 570257 579216 537417
0110100110000100: 579216 461736 582549 544424
0110100010010010: 579216 461736 582549 570257
0110100110000100: 579216 461736 582549 544424
0110100110000100: 579216 461736 582549 544424
0110100110000100: 579216 461736 582549 544424
0110100110000100: 579216 461736 582549 544424
0110100110000100: 579216 461736 582549 544424
0110100010010010: 579216 582549 461736 544424
0110100110000100: 579216 582549 461736 570257
0110100110000100: 579216 582549 461736 570257
0110100110000100: 579216 582549 461736 570257
0110100110000100: 579216 582549 461736 570257
0110100110000100: 461736 544424 579216 631477
0110100010010010: 461736 544424 579216 582549
0110100110000100: 461736 544424 579216 631477
0110100110000100: 461736 544424 579216 631477
0110100110000100: 461736 544424 579216 631477
0110100110000100: 461736 544424 579216 631477
0110100110000100: 461736 544424 579216 631477
0110100010010010: 461736 579216 544424 631477
0110100110000100: 461736 579216 544424 582549
0110100110000100: 461736 579216 544424 582549
0110100110000100: 461736 579216 544424 582549
0110100110000100: 461736 579216 544424 582549
0101101001001000: 522987 542823 631064 523732
0111100010001000: 522987 537417 542823 523732
0110100110010110: 522987 537417 542823 631064
0110100010010010: 522987 523732 542823 631064
0110100010010010: 522987 523732 542823 631064
0111100010001000: 522987 523732 537417 542823
0110100010010010: 522987 523732 537417 631064
0110100010010010: 522987 523732 537417 570257
0110100110000100: 522987 542823 523732 631064
0111100010001000: 522987 542823 537417 523732
0110100010010010: 522987 542823 537417 570257
0110100110010110: 522987 542823 537417 631064
0110100110010110: 522987 542823 537417 631064
0111100010001000: 522987 542823 523732 537417
0110100110000100: 522987 542823 523732 631064
0110100110000100: 522987 542823 523732 631064
0110100110000100: 522987 542823 523732 631064
0110100110010110: 522987 542823 537417 631064
0101101001001000: 522987 542823 631064 523732
0101101001011010: 522987 542823 631064 537417
0101101001011010: 522987 542823 631064 537417
0101101001011010: 522987 542823 631064 537417
0111100010001000: 522987 537417 542823 523732
0110100110010110: 522987 537417 542823 631064
0111100010001000: 522987 537417 523732 542823
0110100110000100: 522987 537417 523732 631064
0110100110000100: 522987 537417 523732 570257
0111100010001000: 522987 537417 542823 523732
0111100010001000: 522987 537417 542823 523732
0110100110000100: 522987 537417 542823 570257
0110100110010110: 522987 537417 542823 631064
0110100110010110: 522987 537417 542823 631064
0111100010001000: 522987 537417 523732 542823
0111100010001000: 522987 537417 523732 542823
0111100010001000: 522987 537417 542823 523732
0111100010001000: 522987 537417 542823 523732
0110100110000100: 522987 537417 523732 631064
0110100110000100: 522987 537417 523732 570257
0110100110000100: 522987 537417 523732 631064
0110100110000100: 522987 537417 523732 570257
0111100010001000: 522987 537417 523732 542823
0110100110000100: 522987 537417 542823 570257
0110100110000100: 522987 537417 542823 570257
0111100010001000: 522987 537417 542823 523732
0111100010001000: 522987 537417 542823 523732
0110100110010110: 522987 537417 542823 631064
0110100110010110: 522987 537417 542823 631064
0110100110010110: 542823 522987 631064 537417
0110100010010010: 542823 631064 522987 523732
0110100110010110: 542823 631064 522987 537417
0110100110010110: 542823 631064 522987 537417
0110100110010110: 542823 631064 522987 537417
0110100110010110: 542823 631064 522987 537417
0110100110010110: 542823 522987 631064 537417
0110100110000100: 542823 522987 631064 523732
0110100110010110: 542823 522987 631064 537417
0110100110010110: 542823 522987 631064 537417
0110100110000100: 542823 522987 631064 523732
0110100110000100: 542823 522987 631064 523732
0110100110010110: 542823 522987 631064 537417
0110100110010110: 631064 537417 542823 522987
0110100010010010: 631064 542823 537417 570257
0110100110010110: 631064 542823 537417 522987
0110100110010110: 631064 542823 537417 522987
0110100110010110: 631064 542823 537417 522987
0110100110010110: 631064 537417 542823 522987
0110100110000100: 631064 537417 542823 570257
0110100110010110: 631064 537417 542823 522987
0110100110010110: 631064 537417 542823 522987
0110100110000100: 631064 537417 542823 570257
0110100110000100: 631064 537417 542823 570257
0110100110010110: 631064 537417 542823 522987
0110100010010010: 544424 631477 461736 579216
0110100110000100: 544424 461736 631477 579216
0110100110000100: 544424 461736 631477 579216
0110100110000100: 544424 461736 631477 579216
