0110010010100010100000100: 480134 629561 464519 553711 514129
0110010011100000100001000: 480134 629561 464519 634257 553711
0110010010100010100000100: 480134 629561 464519 634257 514129
0110010011100000100001000: 480134 629561 464519 576140 634257
0110010010100010100000100: 480134 629561 464519 576140 514129
0110010011100000100001000: 629561 634257 553711 633649 549822
0110010011100000100001000: 629561 634257 553711 633649 546031
0110010011100000100001000: 629561 634257 480134 633649 549822
0110010011100000100001000: 629561 634257 480134 633649 546031
0110010011100110110001100: 629561 576140 634257 633649 549822
0110010011100110110001100: 629561 576140 634257 633649 546031
0110010011100000100001000: 629561 576140 480134 633649 549822
0110010011100000100001000: 629561 576140 480134 633649 546031
0111010101110001000101010: 629561 576140 553711 634257 549822
0111010101110001000101010: 629561 576140 553711 634257 546031
0111010101110001000101010: 629561 576140 553711 634257 633649
0111110100110001000010000: 629561 576140 553711 480134 634257
0111010101110001000001000: 629561 576140 553711 480134 549822
0111010101110001000001000: 629561 576140 553711 480134 546031
0111010101110001000001000: 629561 576140 553711 480134 633649
0111010100110001000100010: 629561 576140 553711 480134 464519
0110010010100010100000100: 629561 480134 634257 464519 549822
0110010010100010100000100: 629561 480134 634257 464519 546031
0110010010100010100000100: 629561 480134 634257 464519 633649
0110010010100010100000100: 629561 480134 576140 464519 549822
0110010010100010100000100: 629561 480134 576140 464519 546031
0110010010100010100000100: 629561 480134 576140 464519 633649
0110010011100000100001000: 599042 546031 514129 576140 634257
0110010010100010100000100: 599042 514129 546031 464519 549822
0110010010100010100000100: 599042 514129 546031 464519 634257
0110010010100010100000100: 599042 514129 546031 464519 576140
0110010010100010100000100: 514129 599042 464519 546031 480134
0110010011100000100001000: 576140 546031 553711 599042 634257
0110010011100100110001000: 576140 546031 633649 634257 599042
0110010011100100110001000: 576140 546031 629561 634257 599042
0111010101110001000001000: 576140 546031 549822 553711 599042
0111110100110001000010000: 576140 546031 549822 633649 553711
0111010101110001000001000: 576140 546031 549822 633649 599042
0111110100110001000010000: 576140 546031 549822 629561 633649
0111010101110001000001000: 576140 546031 549822 629561 599042
0111010100110001000100010: 576140 546031 549822 629561 480134
0110010011100100110001000: 576140 629561 549822 634257 480134
0110010010100010100000100: 576140 629561 546031 480134 599042
0110010011100100110001000: 576140 629561 546031 634257 480134
0110010011100100110001000: 576140 629561 633649 634257 480134
0111010100110001000100010: 576140 629561 553711 546031 599042
0111110100110001000110010: 576140 629561 553711 546031 549822
0111110100110001000010000: 576140 629561 553711 633649 549822
0111110100110001000010000: 576140 629561 553711 633649 546031
0110010011100100110001000: 633649 576140 634257 549822 553711
0110010011100100110001000: 633649 576140 634257 546031 553711
0111010101110001000001000: 634257 546031 549822 633649 599042
0111110100110001000010000: 634257 546031 549822 629561 633649
0111010101110001000001000: 634257 546031 549822 629561 599042
0111010100110001000100010: 634257 546031 549822 629561 553711
0111010100110001000100010: 634257 546031 549822 629561 480134
0110010011100000100001000: 634257 629561 549822 480134 553711
0110010010100010100000100: 634257 629561 546031 553711 599042
0110010011100000100001000: 634257 629561 546031 480134 553711
0110010010100010100000100: 634257 629561 546031 480134 599042
0110010011100000100001000: 634257 629561 633649 480134 553711
0111110110110001100010000: 546031 549822 576140 634257 599042
0111010110110011100000100: 546031 549822 576140 634257 553711
0111010110110011100100110: 546031 549822 576140 634257 633649
0111010110110011100100110: 546031 549822 576140 634257 629561
0110010011100000100001000: 546031 634257 599042 629561 633649
0111010100110001000100010: 546031 634257 549822 599042 514129
0110010011100000100001000: 546031 576140 599042 633649 553711
0110010011100000100001000: 546031 576140 599042 629561 633649
0111010100110001000100010: 546031 576140 549822 599042 514129
0110010010100010100000100: 546031 599042 634257 514129 633649
0110010010100010100000100: 546031 599042 634257 514129 629561
0110010010100010100000100: 546031 599042 576140 514129 553711
0110010010100010100000100: 546031 599042 576140 514129 633649
0110010010100010100000100: 546031 599042 576140 514129 629561
0110010010100010100000100: 464519 480134 514129 629561 599042
