Vertex,0110100110000100,0110100010010010
643105,40.0,8.0
556291,40.0,8.0
618953,40.0,8.0
571682,39.0,8.0
623823,39.0,8.0
547087,29.0,6.0
489874,19.0,4.0
591588,29.0,6.0
583868,19.0,4.0
503753,9.0,2.0
562083,9.0,2.0
graph,78.0,16.0
