Vertex,0111100010001000,0110100110010110,0101101001011010,0101101101001100,0111101011011010,0101101001001000,0111100010011010,0111101111001100,0111101011001000,0100101001010010,0100101101000100,0111100110011110,0110101111010110,0110101111000100,0110100110000100,0110100010010010,0110101011010010,0111101111011110,0111100110001100,0101101101011110,0100101101010110
554368,634.0,379.0,127.0,32.0,226.0,160.0,122.0,270.0,614.0,39.0,12.0,13.0,213.0,274.0,569.0,276.0,176.0,310.0,158.0,20.0,4.0
632665,136.0,0.0,0.0,8.0,54.0,55.0,40.0,54.0,218.0,25.0,0.0,4.0,58.0,94.0,173.0,86.0,56.0,0.0,52.0,6.0,0.0
631903,226.0,70.0,27.0,4.0,21.0,83.0,32.0,18.0,167.0,51.0,6.0,2.0,24.0,70.0,285.0,152.0,38.0,0.0,38.0,3.0,0.0
505443,317.0,140.0,38.0,16.0,96.0,82.0,69.0,126.0,261.0,9.0,4.0,5.0,77.0,118.0,339.0,158.0,74.0,0.0,76.0,4.0,4.0
501829,80.0,35.0,15.0,42.0,250.0,67.0,98.0,306.0,571.0,24.0,0.0,14.0,226.0,265.0,232.0,127.0,179.0,310.0,164.0,18.0,2.0
649820,286.0,101.0,33.0,10.0,96.0,72.0,30.0,126.0,175.0,30.0,4.0,4.0,84.0,79.0,272.0,138.0,53.0,0.0,45.0,5.0,0.0
466113,286.0,105.0,33.0,2.0,0.0,60.0,27.0,0.0,104.0,26.0,6.0,0.0,0.0,43.0,258.0,134.0,23.0,0.0,24.0,0.0,0.0
536906,222.0,101.0,33.0,10.0,130.0,55.0,44.0,162.0,210.0,20.0,0.0,6.0,118.0,93.0,189.0,84.0,57.0,155.0,55.0,8.0,2.0
594989,163.0,70.0,27.0,22.0,87.0,82.0,68.0,108.0,360.0,43.0,4.0,3.0,81.0,163.0,263.0,139.0,107.0,310.0,97.0,5.0,2.0
635047,254.0,136.0,48.0,6.0,0.0,35.0,24.0,0.0,135.0,12.0,0.0,0.0,0.0,59.0,136.0,60.0,33.0,0.0,36.0,0.0,0.0
654316,152.0,0.0,0.0,10.0,114.0,62.0,46.0,144.0,253.0,26.0,0.0,4.0,108.0,109.0,201.0,99.0,65.0,155.0,61.0,6.0,0.0
588614,125.0,239.0,78.0,22.0,126.0,79.0,44.0,126.0,223.0,42.0,8.0,13.0,119.0,107.0,305.0,143.0,73.0,0.0,76.0,17.0,2.0
575175,59.0,35.0,11.0,8.0,0.0,42.0,39.0,0.0,83.0,16.0,4.0,0.0,0.0,40.0,219.0,101.0,28.0,0.0,28.0,0.0,4.0
505080,24.0,0.0,0.0,8.0,0.0,24.0,39.0,0.0,83.0,3.0,2.0,0.0,0.0,40.0,126.0,48.0,28.0,0.0,28.0,0.0,4.0
618969,24.0,0.0,0.0,8.0,0.0,42.0,4.0,0.0,42.0,22.0,4.0,0.0,0.0,24.0,157.0,95.0,24.0,0.0,16.0,0.0,0.0
587538,23.0,0.0,0.0,2.0,0.0,38.0,2.0,0.0,14.0,27.0,2.0,0.0,0.0,7.0,131.0,80.0,5.0,0.0,5.0,0.0,0.0
601423,101.0,105.0,38.0,14.0,0.0,74.0,12.0,0.0,87.0,33.0,8.0,0.0,0.0,47.0,281.0,140.0,37.0,0.0,33.0,0.0,0.0
graph,778.0,379.0,127.0,56.0,300.0,278.0,185.0,360.0,900.0,112.0,16.0,17.0,277.0,408.0,1034.0,515.0,264.0,310.0,248.0,23.0,6.0
