0110010011100000100001000: 607682 574590 475995 480440 503168
0110010011100000100001000: 607682 574590 615607 480440 503168
0110010011100000100001000: 607682 574590 591239 480440 503168
0110010011100100110001000: 607682 574590 648239 480440 503168
0110010010100010100000100: 607682 475995 574590 510514 503168
0110010010100010100000100: 607682 475995 574590 510514 480440
0110010010100010100000100: 607682 615607 574590 572888 503168
0110010010100010100000100: 607682 615607 574590 572888 480440
0110010010100010100000100: 607682 615607 475995 572888 510514
0111010101110001000001000: 607682 615607 591239 574590 572888
0111010101110001000001000: 607682 615607 591239 475995 572888
0111010100110001000100010: 607682 591239 615607 574590 503168
0111010100110001000100010: 607682 591239 615607 574590 480440
0111110100110001000010000: 607682 591239 615607 475995 574590
0111010100110001000100010: 607682 591239 615607 475995 510514
0111010110110011100000100: 607682 591239 615607 648239 572888
0111110110110001100010000: 607682 591239 648239 615607 574590
0111110110110001100010000: 607682 591239 648239 615607 475995
0111010110110011100000100: 607682 591239 648239 615607 555208
0111010110110011100000100: 607682 591239 648239 615607 480440
0110010010100010100000100: 607682 648239 574590 555208 503168
0110010011100100110001000: 607682 648239 574590 480440 555208
0110010010100010100000100: 607682 648239 475995 555208 510514
0110010011100000100001000: 607682 648239 475995 480440 555208
0110010010100010100000100: 607682 648239 475995 480440 510514
0111110000100001000010000: 607682 648239 615607 475995 574590
0110010010100010100100110: 607682 648239 615607 555208 572888
0110010011100000100001000: 607682 648239 615607 480440 555208
0110010010100010100000100: 607682 648239 615607 480440 572888
0111010101110001000001000: 607682 648239 591239 574590 555208
0111010100110001000100010: 607682 648239 591239 574590 503168
0111010101110001000101010: 607682 648239 591239 574590 480440
0111110100110001000010000: 607682 648239 591239 475995 574590
0111010101110001000001000: 607682 648239 591239 475995 555208
0111010101110001000001000: 607682 648239 591239 475995 480440
0111010100110001000100010: 607682 648239 591239 475995 510514
0110010010100010100000100: 648239 480440 555208 475641 572888
0110010011100000100001000: 648239 480440 555208 574590 475641
0110010010100010100000100: 648239 480440 555208 574590 572888
0110010011100000100001000: 648239 480440 591239 574590 475641
0110010011100100110001000: 648239 480440 607682 574590 475641
0110010010100010100100110: 648239 591239 555208 615607 572888
0110010010100010100000100: 648239 591239 480440 615607 475641
0110010010100010100000100: 648239 591239 480440 615607 574590
0110010010100010100000100: 648239 607682 555208 574590 572888
0110010011100000100001000: 648239 607682 555208 475995 574590
0110010010100010100000100: 648239 607682 555208 475995 572888
0110010011100000100001000: 648239 607682 555208 615607 574590
0110010011100000100001000: 648239 607682 555208 615607 475995
0110010010100010100000100: 648239 607682 480440 475995 475641
0110010011100000100001000: 648239 607682 480440 615607 475995
0110010010100010100000100: 648239 607682 480440 615607 475641
0110010011100100110001000: 648239 607682 480440 574590 475995
0110010011100100110001000: 648239 607682 480440 574590 615607
0111010100110001000100010: 648239 607682 591239 555208 572888
0111110100110001000010000: 648239 607682 591239 480440 555208
0111010100110001000100010: 648239 607682 591239 480440 475641
0110010011100000100001000: 591239 648239 615607 480440 555208
0110010010100010100000100: 591239 648239 615607 480440 572888
0110010010100010100000100: 615607 607682 572888 574590 555208
0110010011100000100001000: 615607 607682 572888 475995 574590
0110010010100010100000100: 615607 607682 572888 475995 555208
0110010011100000100001000: 615607 607682 572888 648239 574590
0110010011100000100001000: 615607 607682 572888 648239 475995
0111010100110001000100010: 615607 607682 591239 572888 555208
0110010010100010100000100: 475995 607682 510514 574590 648455
0110010011100000100001000: 475995 607682 510514 615607 574590
0110010010100010100000100: 475995 607682 510514 615607 648455
0110010011100000100001000: 475995 607682 510514 591239 574590
0110010010100010100000100: 475995 607682 510514 591239 648455
0110010011100000100001000: 475995 607682 510514 648239 574590
0110010011100000100001000: 475995 607682 510514 648239 615607
0110010010100010100000100: 475995 607682 510514 648239 648455
0110010011100000100001000: 480440 574590 475641 607682 503168
0110010011100000100001000: 480440 648239 475641 591239 555208
0110010011100000100001000: 480440 648239 475641 607682 555208
0110010010100010100000100: 480440 648239 574590 555208 503168
0110010011100000100001000: 480440 648239 574590 591239 555208
0110010010100010100000100: 480440 648239 574590 591239 503168
0110010010100010100000100: 574590 480440 503168 475641 608433
0110010011100000100001000: 574590 480440 503168 648239 475641
0110010010100010100000100: 574590 480440 503168 648239 608433
0110010010100010100000100: 574590 607682 503168 475995 608433
0110010011100000100001000: 574590 607682 503168 615607 475995
0110010010100010100000100: 574590 607682 503168 615607 608433
0110010011100000100001000: 574590 607682 503168 591239 475995
0110010010100010100000100: 574590 607682 503168 591239 608433
0110010011100000100001000: 574590 607682 503168 648239 475995
0110010011100000100001000: 574590 607682 503168 648239 615607
0110010010100010100000100: 574590 607682 503168 648239 608433
0110010010100010100000100: 574590 607682 480440 475995 475641
0110010011100000100001000: 574590 607682 480440 615607 475995
0110010010100010100000100: 574590 607682 480440 615607 475641
0110010011100000100001000: 574590 607682 480440 591239 475995
0110010010100010100000100: 574590 607682 480440 591239 475641
0110010010100010100000100: 648455 510514 611596 475995 515793
0110010010100010100000100: 510514 475995 648455 607682 611596
0110010010100010100000100: 555208 648239 572888 480440 615607
0110010011100000100001000: 555208 648239 572888 591239 480440
0110010011100000100001000: 555208 648239 572888 607682 480440
0110010010100010100000100: 515793 611596 608433 648455 503168
0110010010100010100000100: 611596 648455 515793 510514 608433
0110010010100010100000100: 503168 574590 608433 480440 515793
0110010011100000100001000: 503168 574590 608433 607682 480440
0110010010100010100000100: 503168 574590 608433 607682 515793
0110010010100010100000100: 608433 515793 503168 611596 574590
