Vertex,0110100010010010,0111100110011110,0100101001010010,0110100110000100,0110100110010110,0111101111001100,0110101111000100,0101101101001100,0111101011011010,0100101101010110,0101101001001000,0110101111010110,0111100010001000,0100101101000100,0111100110001100,0111100010011010,0111101011001000,0101101001011010,0101101101011110,0110101011010010
510017,235.0,2.0,75.0,427.0,35.0,36.0,144.0,24.0,32.0,4.0,129.0,34.0,269.0,14.0,90.0,64.0,312.0,14.0,2.0,96.0
466332,163.0,0.0,64.0,267.0,0.0,0.0,24.0,8.0,0.0,0.0,86.0,0.0,96.0,8.0,16.0,4.0,42.0,0.0,0.0,24.0
460145,356.0,0.0,193.0,610.0,33.0,0.0,12.0,4.0,0.0,2.0,190.0,0.0,246.0,22.0,10.0,8.0,21.0,12.0,0.0,12.0
508200,242.0,2.0,68.0,461.0,169.0,36.0,177.0,26.0,32.0,6.0,130.0,34.0,255.0,6.0,112.0,99.0,387.0,61.0,2.0,117.0
591522,314.0,4.0,86.0,627.0,342.0,36.0,174.0,28.0,41.0,10.0,187.0,48.0,436.0,22.0,111.0,110.0,375.0,136.0,5.0,114.0
462691,683.0,3.0,180.0,1374.0,511.0,54.0,323.0,54.0,49.0,22.0,406.0,51.0,1100.0,62.0,209.0,203.0,696.0,189.0,4.0,217.0
535658,34.0,0.0,12.0,49.0,0.0,0.0,0.0,0.0,0.0,0.0,14.0,0.0,24.0,4.0,0.0,0.0,0.0,0.0,0.0,0.0
601617,411.0,2.0,152.0,767.0,268.0,18.0,237.0,46.0,21.0,22.0,231.0,24.0,416.0,44.0,163.0,168.0,497.0,102.0,3.0,159.0
487059,163.0,0.0,32.0,321.0,35.0,0.0,79.0,14.0,0.0,2.0,90.0,0.0,99.0,4.0,52.0,42.0,168.0,11.0,0.0,53.0
604839,156.0,0.0,35.0,316.0,35.0,18.0,80.0,12.0,12.0,2.0,84.0,10.0,223.0,2.0,52.0,51.0,174.0,11.0,0.0,52.0
496300,151.0,0.0,45.0,313.0,103.0,0.0,70.0,16.0,0.0,6.0,89.0,0.0,185.0,20.0,49.0,54.0,141.0,44.0,0.0,50.0
493293,115.0,2.0,22.0,258.0,68.0,18.0,114.0,20.0,21.0,4.0,81.0,24.0,132.0,8.0,74.0,58.0,245.0,28.0,3.0,72.0
654053,232.0,0.0,90.0,429.0,105.0,0.0,68.0,16.0,0.0,8.0,115.0,0.0,184.0,18.0,49.0,59.0,132.0,35.0,0.0,52.0
578295,221.0,0.0,64.0,442.0,68.0,0.0,32.0,4.0,0.0,0.0,126.0,0.0,331.0,4.0,20.0,18.0,71.0,23.0,0.0,22.0
527517,188.0,1.0,59.0,351.0,35.0,18.0,134.0,20.0,17.0,4.0,109.0,17.0,213.0,6.0,83.0,64.0,293.0,16.0,2.0,88.0
550634,347.0,0.0,80.0,697.0,169.0,0.0,115.0,14.0,0.0,8.0,208.0,0.0,497.0,26.0,71.0,84.0,259.0,63.0,0.0,71.0
512663,158.0,1.0,61.0,311.0,70.0,18.0,66.0,8.0,17.0,2.0,92.0,17.0,254.0,4.0,40.0,33.0,147.0,24.0,2.0,42.0
550157,380.0,3.0,114.0,723.0,272.0,36.0,144.0,24.0,38.0,6.0,220.0,41.0,473.0,26.0,92.0,75.0,309.0,112.0,5.0,96.0
537688,296.0,0.0,93.0,555.0,138.0,0.0,27.0,2.0,0.0,0.0,152.0,0.0,442.0,14.0,16.0,20.0,63.0,48.0,0.0,15.0
605996,184.0,0.0,73.0,333.0,35.0,0.0,14.0,4.0,0.0,0.0,109.0,0.0,180.0,16.0,10.0,4.0,28.0,16.0,0.0,10.0
593039,185.0,0.0,68.0,357.0,0.0,0.0,76.0,12.0,0.0,4.0,120.0,0.0,165.0,6.0,49.0,42.0,166.0,0.0,0.0,50.0
501500,93.0,0.0,29.0,156.0,35.0,0.0,19.0,6.0,0.0,0.0,48.0,0.0,39.0,6.0,13.0,4.0,35.0,16.0,0.0,17.0
559922,56.0,0.0,10.0,130.0,0.0,0.0,30.0,4.0,0.0,4.0,32.0,0.0,77.0,10.0,19.0,36.0,67.0,0.0,0.0,18.0
632051,128.0,0.0,27.0,258.0,35.0,0.0,11.0,2.0,0.0,0.0,68.0,0.0,187.0,22.0,7.0,4.0,24.0,16.0,0.0,7.0
507385,113.0,0.0,24.0,224.0,35.0,0.0,42.0,8.0,0.0,4.0,56.0,0.0,77.0,10.0,29.0,44.0,88.0,11.0,0.0,30.0
graph,1401.0,5.0,439.0,2689.0,649.0,72.0,553.0,94.0,70.0,30.0,793.0,75.0,1650.0,96.0,359.0,337.0,1185.0,247.0,7.0,371.0
