Vertex,0111110110110001100010000,0111010100110001000100010,0111110110110011100010100,0111110100110001000110010,0111010101110001000001000,0111110100110001000010000,0110010010100010100100110,0111010101110001000101010,0111010110110011100000100,0111110000100001000010000,0110010010100010100000100,0110010011100100110001000,0110010011100000100001000
566824,10.0,11.0,2.0,3.0,8.0,28.0,0.0,0.0,1.0,13.0,11.0,1.0,23.0
554368,18.0,27.0,3.0,3.0,17.0,55.0,1.0,1.0,3.0,48.0,64.0,8.0,131.0
573231,7.0,9.0,1.0,2.0,8.0,24.0,0.0,0.0,1.0,22.0,25.0,1.0,46.0
490374,13.0,11.0,3.0,1.0,2.0,23.0,0.0,0.0,1.0,16.0,13.0,1.0,28.0
630683,0.0,4.0,0.0,0.0,6.0,0.0,0.0,0.0,1.0,0.0,22.0,0.0,19.0
652788,13.0,10.0,3.0,1.0,1.0,23.0,0.0,0.0,2.0,16.0,16.0,1.0,30.0
557583,10.0,10.0,2.0,3.0,12.0,29.0,0.0,1.0,2.0,13.0,15.0,0.0,27.0
608854,0.0,5.0,0.0,0.0,6.0,1.0,1.0,0.0,1.0,0.0,44.0,1.0,39.0
606424,7.0,12.0,1.0,2.0,12.0,25.0,1.0,1.0,2.0,22.0,48.0,8.0,70.0
612268,0.0,6.0,0.0,0.0,0.0,0.0,1.0,0.0,0.0,0.0,28.0,0.0,40.0
458187,4.0,10.0,0.0,0.0,3.0,22.0,1.0,0.0,0.0,30.0,37.0,1.0,81.0
482597,0.0,8.0,0.0,0.0,5.0,1.0,0.0,1.0,1.0,0.0,36.0,8.0,47.0
535963,0.0,2.0,0.0,0.0,0.0,0.0,0.0,0.0,0.0,0.0,28.0,0.0,7.0
583875,4.0,4.0,0.0,0.0,2.0,22.0,0.0,1.0,0.0,30.0,20.0,8.0,48.0
599819,0.0,1.0,0.0,0.0,0.0,0.0,0.0,0.0,0.0,0.0,33.0,1.0,6.0
503285,0.0,5.0,0.0,0.0,0.0,0.0,0.0,0.0,0.0,0.0,23.0,0.0,34.0
487409,4.0,0.0,0.0,0.0,3.0,22.0,0.0,0.0,0.0,30.0,7.0,1.0,39.0
graph,18.0,27.0,3.0,3.0,17.0,55.0,1.0,1.0,3.0,48.0,94.0,8.0,143.0
