Vertex,0101101001011010,0111101011001000,0111100010001000,0110100010010010,0110100110000100,0101101001001000,0111100110011110,0111101011011010,0110101111010110,0101101101011110,0111100010011010,0110101011010010,0100101001010010,0101101101001100,0111100110001100,0100101101000100,0110100110010110,0110101111000100,0111101111001100
510989,20.0,248.0,426.0,135.0,241.0,56.0,2.0,30.0,27.0,1.0,52.0,62.0,29.0,8.0,60.0,6.0,70.0,106.0,36.0
554368,82.0,1438.0,1293.0,366.0,763.0,218.0,28.0,405.0,365.0,24.0,260.0,359.0,28.0,54.0,358.0,6.0,210.0,615.0,468.0
476234,50.0,82.0,89.0,187.0,320.0,84.0,0.0,0.0,0.0,0.0,14.0,41.0,42.0,14.0,34.0,10.0,140.0,45.0,0.0
547323,56.0,220.0,463.0,196.0,351.0,104.0,1.0,41.0,37.0,2.0,40.0,60.0,45.0,8.0,52.0,12.0,140.0,96.0,54.0
649795,40.0,261.0,425.0,176.0,308.0,78.0,6.0,91.0,81.0,3.0,48.0,61.0,43.0,6.0,60.0,12.0,105.0,109.0,108.0
547962,21.0,481.0,348.0,167.0,329.0,62.0,10.0,125.0,108.0,6.0,112.0,125.0,32.0,22.0,127.0,4.0,72.0,209.0,144.0
633047,30.0,161.0,416.0,90.0,168.0,48.0,0.0,0.0,0.0,0.0,30.0,40.0,20.0,4.0,36.0,0.0,70.0,68.0,0.0
523410,0.0,220.0,344.0,50.0,98.0,28.0,1.0,18.0,17.0,2.0,44.0,44.0,6.0,0.0,44.0,0.0,0.0,88.0,18.0
506539,24.0,457.0,353.0,196.0,340.0,89.0,8.0,152.0,142.0,9.0,82.0,128.0,62.0,20.0,112.0,14.0,72.0,202.0,180.0
557658,10.0,298.0,427.0,180.0,351.0,93.0,4.0,88.0,81.0,5.0,54.0,80.0,38.0,12.0,72.0,8.0,37.0,130.0,108.0
589510,16.0,430.0,506.0,286.0,539.0,114.0,12.0,171.0,152.0,11.0,95.0,101.0,48.0,18.0,114.0,10.0,74.0,183.0,198.0
494226,47.0,512.0,469.0,246.0,477.0,104.0,11.0,140.0,125.0,8.0,107.0,133.0,44.0,26.0,138.0,8.0,144.0,223.0,162.0
554431,0.0,280.0,304.0,74.0,136.0,34.0,3.0,48.0,44.0,3.0,56.0,56.0,13.0,0.0,56.0,2.0,0.0,112.0,54.0
495798,6.0,399.0,388.0,191.0,370.0,74.0,13.0,160.0,142.0,9.0,95.0,93.0,35.0,14.0,101.0,6.0,37.0,169.0,180.0
466507,0.0,348.0,319.0,144.0,244.0,53.0,9.0,116.0,105.0,6.0,66.0,75.0,35.0,6.0,78.0,6.0,0.0,143.0,126.0
618362,30.0,145.0,68.0,141.0,302.0,70.0,2.0,17.0,17.0,3.0,34.0,48.0,27.0,16.0,51.0,2.0,70.0,70.0,18.0
619789,16.0,79.0,106.0,133.0,273.0,73.0,0.0,0.0,0.0,0.0,10.0,29.0,26.0,10.0,28.0,6.0,35.0,39.0,0.0
542036,0.0,126.0,68.0,89.0,225.0,48.0,2.0,18.0,17.0,4.0,33.0,36.0,3.0,12.0,43.0,2.0,0.0,58.0,18.0
562014,0.0,41.0,24.0,115.0,185.0,50.0,0.0,0.0,0.0,0.0,4.0,24.0,26.0,8.0,16.0,4.0,0.0,24.0,0.0
657025,0.0,58.0,76.0,102.0,196.0,44.0,0.0,0.0,0.0,0.0,8.0,17.0,22.0,6.0,20.0,2.0,0.0,27.0,0.0
graph,112.0,1571.0,1728.0,816.0,1554.0,381.0,28.0,405.0,365.0,24.0,311.0,403.0,156.0,66.0,400.0,30.0,319.0,679.0,468.0
