0101101001001000: 585661 562983 589992 467401
0101101001001000: 585661 562983 589992 593422
0101101001001000: 585661 562983 589992 620454
0101101001001000: 585661 562983 589992 569872
0101101001001000: 585661 562983 589992 566492
0111101011001000: 585661 467401 569872 562983
0111101011001000: 585661 467401 569872 593422
0111101011001000: 585661 467401 569872 620454
0111101011001000: 585661 467401 569872 504865
0101101001001000: 585661 467401 476662 562983
0101101001001000: 585661 467401 476662 593422
0101101001001000: 585661 467401 476662 620454
0101101001001000: 585661 467401 476662 566492
0101101001001000: 585661 467401 476662 504865
0101101101001100: 585661 467401 476662 569872
0111100010001000: 585661 593422 467401 562983
0101101001001000: 585661 593422 633864 562983
0101101001001000: 585661 593422 633864 467401
0101101001001000: 585661 593422 633864 620454
0101101001001000: 585661 593422 633864 569872
0101101001001000: 585661 593422 633864 566492
0101101001001000: 585661 593422 633864 504865
0101101001001000: 585661 593422 519836 562983
0101101001001000: 585661 593422 519836 467401
0101101001001000: 585661 593422 519836 620454
0101101001001000: 585661 593422 519836 569872
0101101001001000: 585661 593422 519836 566492
0101101001001000: 585661 593422 519836 504865
0100101101000100: 585661 593422 519836 633864
0111100010001000: 585661 620454 467401 562983
0111100010001000: 585661 620454 593422 562983
0111100010001000: 585661 620454 593422 467401
0111101011001000: 585661 620454 566492 562983
0111101011001000: 585661 620454 566492 467401
0111101011001000: 585661 620454 566492 593422
0111100010001000: 585661 569872 593422 562983
0111100010001000: 585661 569872 620454 562983
0111100010001000: 585661 569872 620454 593422
0111101011001000: 585661 569872 467401 562983
0111101011001000: 585661 569872 467401 593422
0111101011001000: 585661 569872 467401 620454
0111101011001000: 585661 569872 467401 504865
0111101011001000: 585661 569872 566492 562983
0111101011001000: 585661 569872 566492 593422
0111101111001100: 585661 569872 566492 467401
0111100010001000: 585661 566492 467401 562983
0111100010001000: 585661 566492 593422 562983
0111100010001000: 585661 566492 593422 467401
0111101011001000: 585661 566492 620454 562983
0111101011001000: 585661 566492 620454 467401
0111101011001000: 585661 566492 620454 593422
0111101011001000: 585661 566492 569872 562983
0111101011001000: 585661 566492 569872 593422
0111101111001100: 585661 566492 569872 620454
0111101011001000: 585661 566492 504865 562983
0111101011001000: 585661 566492 504865 467401
0111101011001000: 585661 566492 504865 593422
0111101111001100: 585661 566492 504865 620454
0111101111001100: 585661 566492 504865 569872
0101101001001000: 585661 566492 572803 562983
0101101001001000: 585661 566492 572803 467401
0101101001001000: 585661 566492 572803 593422
0101101101001100: 585661 566492 572803 620454
0101101101001100: 585661 566492 572803 569872
0101101101001100: 585661 566492 572803 504865
0110100110010110: 585661 504865 562983 589992
0111100010001000: 585661 504865 467401 562983
0111100010001000: 585661 504865 593422 562983
0111100010001000: 585661 504865 593422 467401
0111100010001000: 585661 504865 620454 562983
0111100010001000: 585661 504865 620454 467401
0111100010001000: 585661 504865 620454 593422
0111100010001000: 585661 504865 569872 562983
0111100010001000: 585661 504865 569872 593422
0111100010001000: 585661 504865 569872 620454
0111101011001000: 585661 504865 566492 562983
0111101011001000: 585661 504865 566492 467401
0111101011001000: 585661 504865 566492 593422
0101101001001000: 585661 504865 589992 467401
0101101001001000: 585661 504865 589992 593422
0101101001001000: 585661 504865 589992 620454
0101101001001000: 585661 504865 589992 569872
0101101101001100: 585661 504865 589992 566492
0101101001001000: 585661 504865 511476 562983
0101101001001000: 585661 504865 511476 467401
0101101001001000: 585661 504865 511476 593422
0101101001001000: 585661 504865 511476 620454
0101101001001000: 585661 504865 511476 569872
0101101101001100: 585661 504865 511476 566492
0100101101000100: 585661 504865 511476 589992
0110100110000100: 585661 562983 467401 589992
0110100010010010: 585661 562983 467401 476662
0111100010011010: 585661 562983 467401 569872
0110100010010010: 585661 562983 467401 476662
0111100010001000: 585661 562983 593422 467401
0110100110000100: 585661 562983 593422 589992
0110100010010010: 585661 562983 593422 633864
0110100010010010: 585661 562983 593422 519836
0110100010010010: 585661 562983 593422 633864
0110100010010010: 585661 562983 593422 519836
0111100010001000: 585661 562983 620454 467401
0111100010001000: 585661 562983 620454 593422
0110100110000100: 585661 562983 620454 589992
0111100010011010: 585661 562983 620454 566492
0111100010001000: 585661 562983 569872 593422
0111100010001000: 585661 562983 569872 620454
0110100110000100: 585661 562983 569872 589992
0111100010011010: 585661 562983 569872 467401
0111100010011010: 585661 562983 569872 566492
0111100010001000: 585661 562983 566492 467401
0111100010001000: 585661 562983 566492 593422
0110100110000100: 585661 562983 566492 589992
0110100010010010: 585661 562983 566492 572803
0111100010011010: 585661 562983 566492 620454
0111100010011010: 585661 562983 566492 569872
0111100010011010: 585661 562983 566492 504865
0110100010010010: 585661 562983 566492 572803
0111100010001000: 585661 562983 504865 467401
0111100010001000: 585661 562983 504865 593422
0111100010001000: 585661 562983 504865 620454
0111100010001000: 585661 562983 504865 569872
0110100010010010: 585661 562983 504865 511476
0111100010011010: 585661 562983 504865 566492
0110100010010010: 585661 562983 504865 511476
0110100110010110: 585661 562983 504865 589992
0110100110010110: 585661 562983 504865 589992
0110100110000100: 585661 562983 467401 589992
0110100110000100: 585661 562983 467401 589992
0110100110000100: 585661 562983 467401 589992
0110100110000100: 585661 562983 593422 589992
0110100110000100: 585661 562983 593422 589992
0110100110000100: 585661 562983 593422 589992
0110100110000100: 585661 562983 620454 589992
0110100110000100: 585661 562983 620454 589992
0110100110000100: 585661 562983 620454 589992
0110100110000100: 585661 562983 569872 589992
0110100110000100: 585661 562983 569872 589992
0110100110000100: 585661 562983 569872 589992
0110100110000100: 585661 562983 566492 589992
0110100110000100: 585661 562983 566492 589992
0110100110000100: 585661 562983 566492 589992
0110100110010110: 585661 562983 504865 589992
0101101001001000: 585661 562983 589992 467401
0101101001001000: 585661 562983 589992 593422
0101101001001000: 585661 562983 589992 620454
0101101001001000: 585661 562983 589992 569872
0101101001001000: 585661 562983 589992 566492
0101101001011010: 585661 562983 589992 504865
0101101001011010: 585661 562983 589992 504865
0101101001011010: 585661 562983 589992 504865
0110100110000100: 585661 467401 562983 476662
0110100010010010: 585661 467401 562983 589992
0110100010010010: 585661 467401 562983 589992
0111100010001000: 585661 467401 593422 562983
0110100110000100: 585661 467401 593422 476662
0110100010010010: 585661 467401 593422 633864
0110100010010010: 585661 467401 593422 519836
0110100010010010: 585661 467401 593422 633864
0110100010010010: 585661 467401 593422 519836
0111100010001000: 585661 467401 620454 562983
0111100010001000: 585661 467401 620454 593422
0110100110000100: 585661 467401 620454 476662
0111100010011010: 585661 467401 620454 566492
0111100010001000: 585661 467401 566492 562983
0111100010001000: 585661 467401 566492 593422
0110100110000100: 585661 467401 566492 476662
0110100010010010: 585661 467401 566492 572803
0111100010011010: 585661 467401 566492 620454
0111100010011010: 585661 467401 566492 504865
0110100010010010: 585661 467401 566492 572803
0111100010001000: 585661 467401 504865 562983
0111100010001000: 585661 467401 504865 593422
0111100010001000: 585661 467401 504865 620454
0110100110000100: 585661 467401 504865 476662
0110100010010010: 585661 467401 504865 589992
0110100010010010: 585661 467401 504865 511476
0111100010011010: 585661 467401 504865 566492
0110100010010010: 585661 467401 504865 589992
0110100010010010: 585661 467401 504865 511476
0111100010001000: 585661 467401 562983 593422
0111100010001000: 585661 467401 562983 620454
0111100010001000: 585661 467401 562983 566492
0111100010001000: 585661 467401 562983 504865
0110100110000100: 585661 467401 562983 476662
0110100110000100: 585661 467401 562983 476662
0111100110001100: 585661 467401 562983 569872
0110100110000100: 585661 467401 562983 476662
0110100010010010: 585661 467401 562983 589992
0110100110000100: 585661 467401 593422 476662
0110100110000100: 585661 467401 593422 476662
0111100110001100: 585661 467401 593422 569872
0110100110000100: 585661 467401 593422 476662
0110100110000100: 585661 467401 620454 476662
0110100110000100: 585661 467401 620454 476662
0111100110001100: 585661 467401 620454 569872
0110100110000100: 585661 467401 620454 476662
0110100110000100: 585661 467401 566492 476662
0110100110000100: 585661 467401 566492 476662
0110100110000100: 585661 467401 566492 476662
0110100110000100: 585661 467401 504865 476662
0110100110000100: 585661 467401 504865 476662
0111100110001100: 585661 467401 504865 569872
0110100110000100: 585661 467401 504865 476662
0111101011001000: 585661 467401 569872 562983
0111101011001000: 585661 467401 569872 593422
0111101011001000: 585661 467401 569872 620454
0111101011001000: 585661 467401 569872 504865
0111101011011010: 585661 467401 569872 566492
0111101011011010: 585661 467401 569872 566492
0111101011011010: 585661 467401 569872 566492
0110101111000100: 585661 467401 569872 476662
0101101001001000: 585661 467401 476662 562983
0101101001001000: 585661 467401 476662 593422
0101101001001000: 585661 467401 476662 620454
0101101001001000: 585661 467401 476662 566492
0101101001001000: 585661 467401 476662 504865
0101101101001100: 585661 467401 476662 569872
0111101011001000: 585661 467401 569872 562983
0111101011001000: 585661 467401 569872 593422
0111101011001000: 585661 467401 569872 620454
0111101011001000: 585661 467401 569872 504865
0111101011001000: 585661 467401 569872 562983
0111101011001000: 585661 467401 569872 593422
0111101011001000: 585661 467401 569872 620454
0111101011001000: 585661 467401 569872 504865
0110101111000100: 585661 467401 569872 476662
0110101111000100: 585661 467401 569872 476662
0110101111000100: 585661 467401 569872 476662
0110101111000100: 585661 467401 569872 476662
0110101111000100: 585661 467401 569872 476662
0110100110000100: 585661 593422 562983 633864
0110100110000100: 585661 593422 562983 519836
0110100010010010: 585661 593422 562983 589992
0110100010010010: 585661 593422 562983 589992
0111100010001000: 585661 593422 467401 562983
0110100110000100: 585661 593422 467401 633864
0110100110000100: 585661 593422 467401 519836
0110100010010010: 585661 593422 467401 476662
0111100010011010: 585661 593422 467401 569872
0110100010010010: 585661 593422 467401 476662
0111100010001000: 585661 593422 620454 562983
0111100010001000: 585661 593422 620454 467401
0110100110000100: 585661 593422 620454 633864
0110100110000100: 585661 593422 620454 519836
0111100010011010: 585661 593422 620454 566492
0111100010001000: 585661 593422 569872 562983
0111100010001000: 585661 593422 569872 620454
0110100110000100: 585661 593422 569872 633864
0110100110000100: 585661 593422 569872 519836
0111100010011010: 585661 593422 569872 467401
0111100010011010: 585661 593422 569872 566492
0111100010001000: 585661 593422 566492 562983
0111100010001000: 585661 593422 566492 467401
0110100110000100: 585661 593422 566492 633864
0110100110000100: 585661 593422 566492 519836
0110100010010010: 585661 593422 566492 572803
0111100010011010: 585661 593422 566492 620454
0111100010011010: 585661 593422 566492 569872
0111100010011010: 585661 593422 566492 504865
0110100010010010: 585661 593422 566492 572803
0111100010001000: 585661 593422 504865 562983
0111100010001000: 585661 593422 504865 467401
0111100010001000: 585661 593422 504865 620454
0111100010001000: 585661 593422 504865 569872
0110100110000100: 585661 593422 504865 633864
0110100110000100: 585661 593422 504865 519836
0110100010010010: 585661 593422 504865 589992
0110100010010010: 585661 593422 504865 511476
0111100010011010: 585661 593422 504865 566492
0110100010010010: 585661 593422 504865 589992
0110100010010010: 585661 593422 504865 511476
0111100010001000: 585661 593422 562983 467401
0111100010001000: 585661 593422 562983 620454
0111100010001000: 585661 593422 562983 569872
0111100010001000: 585661 593422 562983 566492
0111100010001000: 585661 593422 562983 504865
0110100110000100: 585661 593422 562983 633864
0110100110000100: 585661 593422 562983 519836
0110100110000100: 585661 593422 562983 633864
0110100110000100: 585661 593422 562983 519836
0110100110000100: 585661 593422 562983 633864
0110100110000100: 585661 593422 562983 519836
0110100010010010: 585661 593422 562983 589992
0111100010001000: 585661 593422 467401 562983
0111100010001000: 585661 593422 467401 620454
0111100010001000: 585661 593422 467401 566492
0111100010001000: 585661 593422 467401 504865
0111100010001000: 585661 593422 467401 562983
0110100110000100: 585661 593422 467401 633864
0110100110000100: 585661 593422 467401 519836
0110100110000100: 585661 593422 467401 633864
0110100110000100: 585661 593422 467401 519836
0110100110000100: 585661 593422 467401 633864
0110100110000100: 585661 593422 467401 519836
0110100110000100: 585661 593422 620454 633864
0110100110000100: 585661 593422 620454 519836
0110100110000100: 585661 593422 620454 633864
0110100110000100: 585661 593422 620454 519836
0110100110000100: 585661 593422 620454 633864
0110100110000100: 585661 593422 620454 519836
0110100110000100: 585661 593422 569872 633864
0110100110000100: 585661 593422 569872 519836
0110100110000100: 585661 593422 569872 633864
0110100110000100: 585661 593422 569872 519836
0110100110000100: 585661 593422 569872 633864
0110100110000100: 585661 593422 569872 519836
0110100110000100: 585661 593422 566492 633864
0110100110000100: 585661 593422 566492 519836
0110100110000100: 585661 593422 566492 633864
0110100110000100: 585661 593422 566492 519836
0110100110000100: 585661 593422 566492 633864
0110100110000100: 585661 593422 566492 519836
0110100110000100: 585661 593422 504865 633864
0110100110000100: 585661 593422 504865 519836
0110100110000100: 585661 593422 504865 633864
0110100110000100: 585661 593422 504865 519836
0110100110000100: 585661 593422 504865 633864
0110100110000100: 585661 593422 504865 519836
0101101001001000: 585661 593422 633864 562983
0101101001001000: 585661 593422 633864 467401
0101101001001000: 585661 593422 633864 620454
0101101001001000: 585661 593422 633864 569872
0101101001001000: 585661 593422 633864 566492
0101101001001000: 585661 593422 633864 504865
0100101001010010: 585661 593422 633864 481744
0100101001010010: 585661 593422 633864 481744
0100101001010010: 585661 593422 633864 481744
0100101001010010: 585661 593422 633864 481744
0101101001001000: 585661 593422 519836 562983
0101101001001000: 585661 593422 519836 467401
0101101001001000: 585661 593422 519836 620454
0101101001001000: 585661 593422 519836 569872
0101101001001000: 585661 593422 519836 566492
0101101001001000: 585661 593422 519836 504865
0100101001010010: 585661 593422 519836 498674
0100101001010010: 585661 593422 519836 498674
0100101101000100: 585661 593422 519836 633864
0100101001010010: 585661 593422 519836 498674
0100101001010010: 585661 593422 519836 498674
0110100010010010: 585661 620454 562983 589992
0110100010010010: 585661 620454 562983 589992
0111100010001000: 585661 620454 467401 562983
0110100010010010: 585661 620454 467401 476662
0111100010011010: 585661 620454 467401 569872
0110100010010010: 585661 620454 467401 476662
0111100010001000: 585661 620454 593422 562983
0111100010001000: 585661 620454 593422 467401
0110100010010010: 585661 620454 593422 633864
0110100010010010: 585661 620454 593422 519836
0110100010010010: 585661 620454 593422 633864
0110100010010010: 585661 620454 593422 519836
0111100010001000: 585661 620454 569872 562983
0111100010001000: 585661 620454 569872 593422
0111100010011010: 585661 620454 569872 467401
0111100010001000: 585661 620454 504865 562983
0111100010001000: 585661 620454 504865 467401
0111100010001000: 585661 620454 504865 593422
0111100010001000: 585661 620454 504865 569872
0110100010010010: 585661 620454 504865 589992
0110100010010010: 585661 620454 504865 511476
0110100010010010: 585661 620454 504865 589992
0110100010010010: 585661 620454 504865 511476
0111100010001000: 585661 620454 562983 467401
0111100010001000: 585661 620454 562983 593422
0111100010001000: 585661 620454 562983 569872
0111100010001000: 585661 620454 562983 504865
0111100110001100: 585661 620454 562983 566492
0111100010001000: 585661 620454 467401 562983
0111100010001000: 585661 620454 467401 593422
0111100010001000: 585661 620454 467401 504865
0111100010001000: 585661 620454 467401 562983
0111100110001100: 585661 620454 467401 566492
0111100010001000: 585661 620454 593422 562983
0111100010001000: 585661 620454 593422 467401
0111100010001000: 585661 620454 593422 569872
0111100010001000: 585661 620454 593422 504865
0111100010001000: 585661 620454 593422 562983
0111100010001000: 585661 620454 593422 467401
0111100110001100: 585661 620454 593422 566492
0111101011001000: 585661 620454 566492 562983
0111101011001000: 585661 620454 566492 467401
0111101011001000: 585661 620454 566492 593422
0110101011010010: 585661 620454 566492 572803
0110101011010010: 585661 620454 566492 572803
0111101011011010: 585661 620454 566492 569872
0111101011011010: 585661 620454 566492 504865
0111101011011010: 585661 620454 566492 569872
0111101011011010: 585661 620454 566492 504865
0111101011011010: 585661 620454 566492 569872
0111101011011010: 585661 620454 566492 504865
0110101011010010: 585661 620454 566492 572803
0110101011010010: 585661 620454 566492 572803
0111101011001000: 585661 620454 566492 562983
0111101011001000: 585661 620454 566492 467401
0111101011001000: 585661 620454 566492 593422
0111101011001000: 585661 620454 566492 562983
0111101011001000: 585661 620454 566492 467401
0111101011001000: 585661 620454 566492 593422
0110100010010010: 585661 569872 562983 589992
0110100010010010: 585661 569872 562983 589992
0111100010001000: 585661 569872 593422 562983
0110100010010010: 585661 569872 593422 633864
0110100010010010: 585661 569872 593422 519836
0110100010010010: 585661 569872 593422 633864
0110100010010010: 585661 569872 593422 519836
0111100010001000: 585661 569872 620454 562983
0111100010001000: 585661 569872 620454 593422
0111100010001000: 585661 569872 504865 562983
0111100010001000: 585661 569872 504865 593422
0111100010001000: 585661 569872 504865 620454
0110100010010010: 585661 569872 504865 589992
0110100010010010: 585661 569872 504865 511476
0110100010010010: 585661 569872 504865 589992
0110100010010010: 585661 569872 504865 511476
0111100010001000: 585661 569872 562983 593422
0111100010001000: 585661 569872 562983 620454
0111100010001000: 585661 569872 562983 504865
0111100110001100: 585661 569872 562983 467401
0111100110001100: 585661 569872 562983 566492
0110100010010010: 585661 569872 562983 589992
0111100010001000: 585661 569872 593422 562983
0111100010001000: 585661 569872 593422 620454
0111100010001000: 585661 569872 593422 504865
0111100010001000: 585661 569872 593422 562983
0111100110001100: 585661 569872 593422 467401
0111100110001100: 585661 569872 593422 566492
0111100010001000: 585661 569872 620454 562983
0111100010001000: 585661 569872 620454 593422
0111100010001000: 585661 569872 620454 504865
0111100010001000: 585661 569872 620454 562983
0111100010001000: 585661 569872 620454 593422
0111100110001100: 585661 569872 620454 467401
0111100110001100: 585661 569872 504865 467401
0111101011001000: 585661 569872 467401 562983
0111101011001000: 585661 569872 467401 593422
0111101011001000: 585661 569872 467401 620454
0111101011001000: 585661 569872 467401 504865
0110101011010010: 585661 569872 467401 476662
0110101011010010: 585661 569872 467401 476662
0110101011010010: 585661 569872 467401 476662
0110101011010010: 585661 569872 467401 476662
0111101011001000: 585661 569872 566492 562983
0111101011001000: 585661 569872 566492 593422
0110101011010010: 585661 569872 566492 572803
0110101011010010: 585661 569872 566492 572803
0111101111001100: 585661 569872 566492 467401
0111101011011010: 585661 569872 566492 620454
0111101011011010: 585661 569872 566492 504865
0111101011011010: 585661 569872 566492 620454
0111101011011010: 585661 569872 566492 504865
0111101011011010: 585661 569872 566492 620454
0111101011011010: 585661 569872 566492 504865
0110101011010010: 585661 569872 566492 572803
0110101011010010: 585661 569872 566492 572803
0111101011001000: 585661 569872 467401 562983
0111101011001000: 585661 569872 467401 593422
0111101011001000: 585661 569872 467401 620454
0111101011001000: 585661 569872 467401 504865
0111101011001000: 585661 569872 467401 562983
0111101011001000: 585661 569872 467401 593422
0111101011001000: 585661 569872 467401 620454
0111101011001000: 585661 569872 467401 504865
0111101111001100: 585661 569872 467401 566492
0111101111001100: 585661 569872 467401 566492
0111101011001000: 585661 569872 566492 562983
0111101011001000: 585661 569872 566492 593422
0111101011001000: 585661 569872 566492 562983
0111101011001000: 585661 569872 566492 593422
0111101111001100: 585661 569872 566492 467401
0111101111001100: 585661 569872 566492 467401
0111101111001100: 585661 569872 566492 467401
0111101011001000: 585661 569872 467401 562983
0111101011001000: 585661 569872 467401 593422
0111101011001000: 585661 569872 467401 620454
0111101011001000: 585661 569872 467401 504865
0111101011001000: 585661 569872 467401 562983
0111101011001000: 585661 569872 467401 593422
0111101011001000: 585661 569872 467401 620454
0111101011001000: 585661 569872 467401 504865
0111101111001100: 585661 569872 467401 566492
0111101111001100: 585661 569872 467401 566492
0111101111001100: 585661 569872 566492 467401
0111101111001100: 585661 569872 566492 467401
0111101111001100: 585661 569872 566492 467401
0110100110000100: 585661 566492 562983 572803
0110100010010010: 585661 566492 562983 589992
0110100010010010: 585661 566492 562983 589992
0111100010001000: 585661 566492 467401 562983
0110100110000100: 585661 566492 467401 572803
0110100010010010: 585661 566492 467401 476662
0110100010010010: 585661 566492 467401 476662
0111100010001000: 585661 566492 593422 562983
0111100010001000: 585661 566492 593422 467401
0110100110000100: 585661 566492 593422 572803
0110100010010010: 585661 566492 593422 633864
0110100010010010: 585661 566492 593422 519836
0110100010010010: 585661 566492 593422 633864
0110100010010010: 585661 566492 593422 519836
0111100010001000: 585661 566492 562983 467401
0111100010001000: 585661 566492 562983 593422
0110100110000100: 585661 566492 562983 572803
0110100110000100: 585661 566492 562983 572803
0111100110001100: 585661 566492 562983 620454
0111100110001100: 585661 566492 562983 569872
0111100110001100: 585661 566492 562983 504865
0110100110000100: 585661 566492 562983 572803
0110100010010010: 585661 566492 562983 589992
0111100010001000: 585661 566492 467401 562983
0111100010001000: 585661 566492 467401 593422
0111100010001000: 585661 566492 467401 562983
0110100110000100: 585661 566492 467401 572803
0110100110000100: 585661 566492 467401 572803
0111100110001100: 585661 566492 467401 620454
0111100110001100: 585661 566492 467401 504865
0110100110000100: 585661 566492 467401 572803
0110100010010010: 585661 566492 467401 476662
0111100010001000: 585661 566492 593422 562983
0111100010001000: 585661 566492 593422 467401
0111100010001000: 585661 566492 593422 562983
0111100010001000: 585661 566492 593422 467401
0110100110000100: 585661 566492 593422 572803
0110100110000100: 585661 566492 593422 572803
0111100110001100: 585661 566492 593422 620454
0111100110001100: 585661 566492 593422 569872
0111100110001100: 585661 566492 593422 504865
0110100110000100: 585661 566492 593422 572803
0110100010010010: 585661 566492 593422 633864
0110100010010010: 585661 566492 593422 519836
0111101011001000: 585661 566492 620454 562983
0111101011001000: 585661 566492 620454 467401
0111101011001000: 585661 566492 620454 593422
0111101011001000: 585661 566492 569872 562983
0111101011001000: 585661 566492 569872 593422
0111101111001100: 585661 566492 569872 620454
0111101011011010: 585661 566492 569872 467401
0111101011011010: 585661 566492 569872 467401
0111101011011010: 585661 566492 569872 467401
0111101011001000: 585661 566492 504865 562983
0111101011001000: 585661 566492 504865 467401
0111101011001000: 585661 566492 504865 593422
0110101011010010: 585661 566492 504865 589992
0110101011010010: 585661 566492 504865 511476
0110101011010010: 585661 566492 504865 589992
0110101011010010: 585661 566492 504865 511476
0111101111001100: 585661 566492 504865 620454
0111101111001100: 585661 566492 504865 569872
0110101011010010: 585661 566492 504865 589992
0110101011010010: 585661 566492 504865 511476
0110101011010010: 585661 566492 504865 589992
0110101011010010: 585661 566492 504865 511476
0110101011010010: 585661 566492 504865 589992
0110101011010010: 585661 566492 504865 511476
0101101001001000: 585661 566492 572803 562983
0101101001001000: 585661 566492 572803 467401
0101101001001000: 585661 566492 572803 593422
0100101001010010: 585661 566492 572803 643031
0100101001010010: 585661 566492 572803 541542
0100101001010010: 585661 566492 572803 643031
0100101001010010: 585661 566492 572803 541542
0101101101001100: 585661 566492 572803 620454
0101101101001100: 585661 566492 572803 569872
0101101101001100: 585661 566492 572803 504865
0100101001010010: 585661 566492 572803 643031
0100101001010010: 585661 566492 572803 541542
0100101001010010: 585661 566492 572803 643031
0100101001010010: 585661 566492 572803 541542
0111101011001000: 585661 566492 620454 562983
0111101011001000: 585661 566492 620454 467401
0111101011001000: 585661 566492 620454 593422
0111101011001000: 585661 566492 620454 562983
0111101011001000: 585661 566492 620454 467401
0111101011001000: 585661 566492 620454 593422
0110101111000100: 585661 566492 620454 572803
0110101111000100: 585661 566492 620454 572803
0111101111001100: 585661 566492 620454 569872
0111101111001100: 585661 566492 620454 504865
0111101111001100: 585661 566492 620454 569872
0111101111001100: 585661 566492 620454 504865
0110101111000100: 585661 566492 620454 572803
0111101011001000: 585661 566492 569872 562983
0111101011001000: 585661 566492 569872 593422
0111101011001000: 585661 566492 569872 562983
0111101011001000: 585661 566492 569872 593422
0110101111000100: 585661 566492 569872 572803
0110101111000100: 585661 566492 569872 572803
0111101111001100: 585661 566492 569872 620454
0111101111001100: 585661 566492 569872 504865
0111101111001100: 585661 566492 569872 620454
0111101111001100: 585661 566492 569872 504865
0110101111000100: 585661 566492 569872 572803
0111101111001100: 585661 566492 569872 620454
0111101011011010: 585661 566492 569872 467401
0111101011011010: 585661 566492 569872 467401
0111101011001000: 585661 566492 504865 562983
0111101011001000: 585661 566492 504865 467401
0111101011001000: 585661 566492 504865 593422
0111101011001000: 585661 566492 504865 562983
0111101011001000: 585661 566492 504865 467401
0111101011001000: 585661 566492 504865 593422
0110101111000100: 585661 566492 504865 572803
0110101111000100: 585661 566492 504865 572803
0111101111001100: 585661 566492 504865 620454
0111101111001100: 585661 566492 504865 569872
0111101111001100: 585661 566492 504865 620454
0111101111001100: 585661 566492 504865 569872
0110101111000100: 585661 566492 504865 572803
0111101111001100: 585661 566492 504865 620454
0111101111001100: 585661 566492 504865 569872
0110101011010010: 585661 566492 504865 589992
0110101011010010: 585661 566492 504865 511476
0110101011010010: 585661 566492 504865 589992
0110101011010010: 585661 566492 504865 511476
0111101011001000: 585661 566492 620454 562983
0111101011001000: 585661 566492 620454 467401
0111101011001000: 585661 566492 620454 593422
0111101011001000: 585661 566492 620454 562983
0111101011001000: 585661 566492 620454 467401
0111101011001000: 585661 566492 620454 593422
0111101111001100: 585661 566492 620454 569872
0111101111001100: 585661 566492 620454 504865
0110101111000100: 585661 566492 620454 572803
0111101111001100: 585661 566492 620454 569872
0111101111001100: 585661 566492 620454 504865
0111101011001000: 585661 566492 569872 562983
0111101011001000: 585661 566492 569872 593422
0111101011001000: 585661 566492 569872 562983
0111101011001000: 585661 566492 569872 593422
0111101111001100: 585661 566492 569872 620454
0111101111001100: 585661 566492 569872 504865
0110101111000100: 585661 566492 569872 572803
0111101111001100: 585661 566492 569872 620454
0111101111001100: 585661 566492 569872 504865
0111101111001100: 585661 566492 569872 620454
0111101011011010: 585661 566492 569872 467401
0111101111001100: 585661 566492 504865 620454
0111101111001100: 585661 566492 504865 569872
0110101111000100: 585661 566492 504865 572803
0111101111001100: 585661 566492 504865 620454
0111101111001100: 585661 566492 504865 569872
0111101111001100: 585661 566492 504865 620454
0111101111001100: 585661 566492 504865 569872
0110101011010010: 585661 566492 504865 589992
0110101011010010: 585661 566492 504865 511476
0110100110000100: 585661 504865 562983 511476
0110100110010110: 585661 504865 562983 589992
0110100110010110: 585661 504865 562983 589992
0111100010001000: 585661 504865 467401 562983
0110100110000100: 585661 504865 467401 589992
0110100110000100: 585661 504865 467401 511476
0110100010010010: 585661 504865 467401 476662
0111100010011010: 585661 504865 467401 569872
0110100010010010: 585661 504865 467401 476662
0111100010001000: 585661 504865 593422 562983
0111100010001000: 585661 504865 593422 467401
0110100110000100: 585661 504865 593422 589992
0110100110000100: 585661 504865 593422 511476
0110100010010010: 585661 504865 593422 633864
0110100010010010: 585661 504865 593422 519836
0110100010010010: 585661 504865 593422 633864
0110100010010010: 585661 504865 593422 519836
0111100010001000: 585661 504865 620454 562983
0111100010001000: 585661 504865 620454 467401
0111100010001000: 585661 504865 620454 593422
0110100110000100: 585661 504865 620454 589992
0110100110000100: 585661 504865 620454 511476
0111100010001000: 585661 504865 569872 562983
0111100010001000: 585661 504865 569872 593422
0111100010001000: 585661 504865 569872 620454
0110100110000100: 585661 504865 569872 589992
0110100110000100: 585661 504865 569872 511476
0111100010011010: 585661 504865 569872 467401
0111100010001000: 585661 504865 562983 467401
0111100010001000: 585661 504865 562983 593422
0111100010001000: 585661 504865 562983 620454
0111100010001000: 585661 504865 562983 569872
0110100110000100: 585661 504865 562983 511476
0110100110000100: 585661 504865 562983 511476
0111100110001100: 585661 504865 562983 566492
0110100110000100: 585661 504865 562983 511476
0110100110010110: 585661 504865 562983 589992
0110100110010110: 585661 504865 562983 589992
0110100110010110: 585661 504865 562983 589992
0111100010001000: 585661 504865 467401 562983
0111100010001000: 585661 504865 467401 593422
0111100010001000: 585661 504865 467401 620454
0111100010001000: 585661 504865 467401 562983
0110100110000100: 585661 504865 467401 589992
0110100110000100: 585661 504865 467401 511476
0110100110000100: 585661 504865 467401 589992
0110100110000100: 585661 504865 467401 511476
0111100110001100: 585661 504865 467401 566492
0110100110000100: 585661 504865 467401 589992
0110100110000100: 585661 504865 467401 511476
0110100010010010: 585661 504865 467401 476662
0111100010001000: 585661 504865 593422 562983
0111100010001000: 585661 504865 593422 467401
0111100010001000: 585661 504865 593422 620454
0111100010001000: 585661 504865 593422 569872
0111100010001000: 585661 504865 593422 562983
0111100010001000: 585661 504865 593422 467401
0110100110000100: 585661 504865 593422 589992
0110100110000100: 585661 504865 593422 511476
0110100110000100: 585661 504865 593422 589992
0110100110000100: 585661 504865 593422 511476
0111100110001100: 585661 504865 593422 566492
0110100110000100: 585661 504865 593422 589992
0110100110000100: 585661 504865 593422 511476
0110100010010010: 585661 504865 593422 633864
0110100010010010: 585661 504865 593422 519836
0111100010001000: 585661 504865 620454 562983
0111100010001000: 585661 504865 620454 467401
0111100010001000: 585661 504865 620454 593422
0111100010001000: 585661 504865 620454 569872
0111100010001000: 585661 504865 620454 562983
0111100010001000: 585661 504865 620454 467401
0111100010001000: 585661 504865 620454 593422
0110100110000100: 585661 504865 620454 589992
0110100110000100: 585661 504865 620454 511476
0110100110000100: 585661 504865 620454 589992
0110100110000100: 585661 504865 620454 511476
0110100110000100: 585661 504865 620454 589992
0110100110000100: 585661 504865 620454 511476
0111100010001000: 585661 504865 569872 562983
0111100010001000: 585661 504865 569872 593422
0111100010001000: 585661 504865 569872 620454
0111100010001000: 585661 504865 569872 562983
0111100010001000: 585661 504865 569872 593422
0111100010001000: 585661 504865 569872 620454
0110100110000100: 585661 504865 569872 589992
0110100110000100: 585661 504865 569872 511476
0110100110000100: 585661 504865 569872 589992
0110100110000100: 585661 504865 569872 511476
0110100110000100: 585661 504865 569872 589992
0110100110000100: 585661 504865 569872 511476
0111101011001000: 585661 504865 566492 562983
0111101011001000: 585661 504865 566492 467401
0111101011001000: 585661 504865 566492 593422
0110101011010010: 585661 504865 566492 572803
0110101011010010: 585661 504865 566492 572803
0111101011011010: 585661 504865 566492 620454
0111101011011010: 585661 504865 566492 569872
0111101011011010: 585661 504865 566492 620454
0111101011011010: 585661 504865 566492 569872
0111101011011010: 585661 504865 566492 620454
0111101011011010: 585661 504865 566492 569872
0110101011010010: 585661 504865 566492 572803
0110101011010010: 585661 504865 566492 572803
0110101111000100: 585661 504865 566492 589992
0110101111000100: 585661 504865 566492 511476
0101101001001000: 585661 504865 589992 467401
0101101001001000: 585661 504865 589992 593422
0101101001001000: 585661 504865 589992 620454
0101101001001000: 585661 504865 589992 569872
0101101101001100: 585661 504865 589992 566492
0101101001011010: 585661 504865 589992 562983
0101101001011010: 585661 504865 589992 562983
0101101001011010: 585661 504865 589992 562983
0101101001011010: 585661 504865 589992 562983
0101101001011010: 585661 504865 589992 562983
0101101001001000: 585661 504865 511476 562983
0101101001001000: 585661 504865 511476 467401
0101101001001000: 585661 504865 511476 593422
0101101001001000: 585661 504865 511476 620454
0101101001001000: 585661 504865 511476 569872
0100101001010010: 585661 504865 511476 580482
0100101001010010: 585661 504865 511476 580482
0101101101001100: 585661 504865 511476 566492
0100101101000100: 585661 504865 511476 589992
0100101001010010: 585661 504865 511476 580482
0100101001010010: 585661 504865 511476 580482
0111101011001000: 585661 504865 566492 562983
0111101011001000: 585661 504865 566492 467401
0111101011001000: 585661 504865 566492 593422
0111101011001000: 585661 504865 566492 562983
0111101011001000: 585661 504865 566492 467401
0111101011001000: 585661 504865 566492 593422
0110101111000100: 585661 504865 566492 589992
0110101111000100: 585661 504865 566492 511476
0110101111000100: 585661 504865 566492 589992
0110101111000100: 585661 504865 566492 511476
0110101111000100: 585661 504865 566492 589992
0110101111000100: 585661 504865 566492 511476
0110101111000100: 585661 504865 566492 589992
0110101111000100: 585661 504865 566492 511476
0111101011001000: 585661 504865 566492 562983
0111101011001000: 585661 504865 566492 467401
0111101011001000: 585661 504865 566492 593422
0111101011001000: 585661 504865 566492 562983
0111101011001000: 585661 504865 566492 467401
0111101011001000: 585661 504865 566492 593422
0110101111000100: 585661 504865 566492 589992
0110101111000100: 585661 504865 566492 511476
0101101001001000: 504865 589992 562983 511476
0101101001001000: 504865 589992 562983 566492
0101101001001000: 504865 511476 580482 589992
0101101001001000: 504865 511476 580482 566492
0101101001001000: 504865 511476 580482 585661
0111100010001000: 504865 566492 511476 589992
0111101011001000: 504865 566492 585661 589992
0111101011001000: 504865 566492 585661 511476
0110100110010110: 504865 585661 589992 562983
0111100010001000: 504865 585661 511476 589992
0111101011001000: 504865 585661 566492 589992
0111101011001000: 504865 585661 566492 511476
0110100110000100: 504865 589992 511476 562983
0110100010010010: 504865 589992 511476 580482
0110100010010010: 504865 589992 511476 580482
0111100010001000: 504865 589992 566492 511476
0110100110000100: 504865 589992 566492 562983
0110100010010010: 504865 589992 566492 572803
0110100010010010: 504865 589992 566492 620454
0110100010010010: 504865 589992 566492 569872
0111100010011010: 504865 589992 566492 585661
0111100010001000: 504865 589992 585661 511476
0110100010010010: 504865 589992 585661 467401
0110100010010010: 504865 589992 585661 593422
0110100010010010: 504865 589992 585661 620454
0110100010010010: 504865 589992 585661 569872
0111100010011010: 504865 589992 585661 566492
0110100110010110: 504865 589992 585661 562983
0110100110010110: 504865 589992 585661 562983
0110100110000100: 504865 589992 511476 562983
0110100110000100: 504865 589992 511476 562983
0110100110000100: 504865 589992 511476 562983
0110100110000100: 504865 589992 566492 562983
0110100110000100: 504865 589992 566492 562983
0110100110000100: 504865 589992 566492 562983
0110100110010110: 504865 589992 585661 562983
0101101001001000: 504865 589992 562983 511476
0101101001001000: 504865 589992 562983 566492
0101101001011010: 504865 589992 562983 585661
0101101001011010: 504865 589992 562983 585661
0101101001011010: 504865 589992 562983 585661
0110100110000100: 504865 511476 589992 580482
0110100010010010: 504865 511476 589992 562983
0110100010010010: 504865 511476 589992 562983
0111100010001000: 504865 511476 566492 589992
0110100110000100: 504865 511476 566492 580482
0110100010010010: 504865 511476 566492 572803
0110100010010010: 504865 511476 566492 620454
0110100010010010: 504865 511476 566492 569872
0111100010011010: 504865 511476 566492 585661
0111100010001000: 504865 511476 585661 589992
0110100110000100: 504865 511476 585661 580482
0110100010010010: 504865 511476 585661 562983
0110100010010010: 504865 511476 585661 467401
0110100010010010: 504865 511476 585661 593422
0110100010010010: 504865 511476 585661 620454
0110100010010010: 504865 511476 585661 569872
0111100010011010: 504865 511476 585661 566492
0111100010001000: 504865 511476 589992 566492
0111100010001000: 504865 511476 589992 585661
0110100110000100: 504865 511476 589992 580482
0110100110000100: 504865 511476 589992 580482
0110100110000100: 504865 511476 589992 580482
0110100110000100: 504865 511476 566492 580482
0110100110000100: 504865 511476 566492 580482
0110100110000100: 504865 511476 566492 580482
0110100110000100: 504865 511476 585661 580482
0110100110000100: 504865 511476 585661 580482
0110100110000100: 504865 511476 585661 580482
0101101001001000: 504865 511476 580482 589992
0101101001001000: 504865 511476 580482 566492
0101101001001000: 504865 511476 580482 585661
0100101001010010: 504865 511476 580482 504462
0100101001010010: 504865 511476 580482 504462
0100101001010010: 504865 511476 580482 504462
0110100110000100: 504865 566492 589992 572803
0110100110000100: 504865 566492 589992 620454
0110100110000100: 504865 566492 589992 569872
0110100010010010: 504865 566492 589992 562983
0110100010010010: 504865 566492 589992 562983
0111100010001000: 504865 566492 511476 589992
0110100110000100: 504865 566492 511476 572803
0110100110000100: 504865 566492 511476 620454
0110100110000100: 504865 566492 511476 569872
0110100010010010: 504865 566492 511476 580482
0110100010010010: 504865 566492 511476 580482
0111100010001000: 504865 566492 589992 511476
0110100110000100: 504865 566492 589992 572803
0110100110000100: 504865 566492 589992 620454
0110100110000100: 504865 566492 589992 569872
0110100110000100: 504865 566492 589992 572803
0110100110000100: 504865 566492 589992 620454
0110100110000100: 504865 566492 589992 569872
0111100110001100: 504865 566492 589992 585661
0110100010010010: 504865 566492 589992 562983
0111100010001000: 504865 566492 511476 589992
0111100010001000: 504865 566492 511476 589992
0110100110000100: 504865 566492 511476 572803
0110100110000100: 504865 566492 511476 620454
0110100110000100: 504865 566492 511476 569872
0110100110000100: 504865 566492 511476 572803
0110100110000100: 504865 566492 511476 620454
0110100110000100: 504865 566492 511476 569872
0111100110001100: 504865 566492 511476 585661
0110100010010010: 504865 566492 511476 580482
0111101011001000: 504865 566492 585661 589992
0111101011001000: 504865 566492 585661 511476
0110101011010010: 504865 566492 585661 562983
0110101011010010: 504865 566492 585661 467401
0110101011010010: 504865 566492 585661 593422
0110101011010010: 504865 566492 585661 562983
0110101011010010: 504865 566492 585661 467401
0110101011010010: 504865 566492 585661 593422
0111101011001000: 504865 566492 585661 589992
0111101011001000: 504865 566492 585661 511476
0111101011001000: 504865 566492 585661 589992
0111101011001000: 504865 566492 585661 511476
0111100010001000: 504865 566492 589992 511476
0111100010001000: 504865 566492 589992 511476
0110100010010010: 504865 566492 589992 562983
0111100010001000: 504865 566492 511476 589992
0111100010001000: 504865 566492 511476 589992
0110100010010010: 504865 566492 511476 580482
0111101011001000: 504865 566492 585661 589992
0111101011001000: 504865 566492 585661 511476
0111101011001000: 504865 566492 585661 589992
0111101011001000: 504865 566492 585661 511476
0110101111000100: 504865 566492 585661 572803
0110101111000100: 504865 566492 585661 572803
0111101011001000: 504865 566492 585661 589992
0111101011001000: 504865 566492 585661 511476
0110101111010110: 504865 566492 585661 620454
0110101111010110: 504865 566492 585661 569872
0110101111010110: 504865 566492 585661 620454
0110101111010110: 504865 566492 585661 569872
0110101111000100: 504865 566492 585661 572803
0110101111010110: 504865 566492 585661 620454
0110101111010110: 504865 566492 585661 569872
0111101011001000: 504865 566492 585661 589992
0111101011001000: 504865 566492 585661 511476
0110100110000100: 504865 566492 589992 572803
0110100110000100: 504865 566492 589992 620454
0110100110000100: 504865 566492 589992 569872
0110100110000100: 504865 566492 589992 572803
0110100110000100: 504865 566492 589992 620454
0110100110000100: 504865 566492 589992 569872
0111100110001100: 504865 566492 589992 585661
0111100110001100: 504865 566492 589992 585661
0111100110001100: 504865 566492 589992 585661
0111100010001000: 504865 566492 589992 511476
0110100010010010: 504865 566492 589992 562983
0110100010010010: 504865 566492 589992 562983
0110100110000100: 504865 566492 511476 572803
0110100110000100: 504865 566492 511476 620454
0110100110000100: 504865 566492 511476 569872
0110100110000100: 504865 566492 511476 572803
0110100110000100: 504865 566492 511476 620454
0110100110000100: 504865 566492 511476 569872
0111100110001100: 504865 566492 511476 585661
0111100110001100: 504865 566492 511476 585661
0111100110001100: 504865 566492 511476 585661
0111100010001000: 504865 566492 511476 589992
0111100010001000: 504865 566492 511476 589992
0110100010010010: 504865 566492 511476 580482
0110100010010010: 504865 566492 511476 580482
0111101011001000: 504865 566492 585661 589992
0111101011001000: 504865 566492 585661 511476
0110100110010110: 504865 585661 589992 562983
0111100010001000: 504865 585661 511476 589992
0110100010010010: 504865 585661 511476 580482
0110100010010010: 504865 585661 511476 580482
0111100010001000: 504865 585661 589992 511476
0110100110000100: 504865 585661 589992 467401
0110100110000100: 504865 585661 589992 593422
0110100110000100: 504865 585661 589992 620454
0110100110000100: 504865 585661 589992 569872
0111100110001100: 504865 585661 589992 566492
0110100110010110: 504865 585661 589992 562983
0110100110010110: 504865 585661 589992 562983
0111100010001000: 504865 585661 511476 589992
0111100010001000: 504865 585661 511476 589992
0110100110000100: 504865 585661 511476 562983
0110100110000100: 504865 585661 511476 467401
0110100110000100: 504865 585661 511476 593422
0110100110000100: 504865 585661 511476 620454
0110100110000100: 504865 585661 511476 569872
0111100110001100: 504865 585661 511476 566492
0110100010010010: 504865 585661 511476 580482
0111101011001000: 504865 585661 566492 589992
0111101011001000: 504865 585661 566492 511476
0111101011001000: 504865 585661 566492 589992
0111101011001000: 504865 585661 566492 511476
0111101011001000: 504865 585661 566492 589992
0111101011001000: 504865 585661 566492 511476
0111100010001000: 504865 585661 589992 511476
0111100010001000: 504865 585661 589992 511476
0111100010001000: 504865 585661 511476 589992
0111100010001000: 504865 585661 511476 589992
0110100010010010: 504865 585661 511476 580482
0111101011001000: 504865 585661 566492 589992
0111101011001000: 504865 585661 566492 511476
0111101011001000: 504865 585661 566492 589992
0111101011001000: 504865 585661 566492 511476
0110101111000100: 504865 585661 566492 562983
0110101111000100: 504865 585661 566492 467401
0110101111000100: 504865 585661 566492 593422
0110101111000100: 504865 585661 566492 562983
0110101111000100: 504865 585661 566492 467401
0110101111000100: 504865 585661 566492 593422
0111101011001000: 504865 585661 566492 589992
0111101011001000: 504865 585661 566492 511476
0110101111010110: 504865 585661 566492 620454
0110101111010110: 504865 585661 566492 569872
0110101011010010: 504865 585661 566492 572803
0110101111010110: 504865 585661 566492 620454
0110101111010110: 504865 585661 566492 569872
0110101111010110: 504865 585661 566492 620454
0110101111010110: 504865 585661 566492 569872
0111101011001000: 504865 585661 566492 589992
0111101011001000: 504865 585661 566492 511476
0110100110000100: 504865 585661 589992 467401
0110100110000100: 504865 585661 589992 593422
0110100110000100: 504865 585661 589992 620454
0110100110000100: 504865 585661 589992 569872
0110100110000100: 504865 585661 589992 467401
0110100110000100: 504865 585661 589992 593422
0110100110000100: 504865 585661 589992 620454
0110100110000100: 504865 585661 589992 569872
0111100110001100: 504865 585661 589992 566492
0111100110001100: 504865 585661 589992 566492
0111100110001100: 504865 585661 589992 566492
0111100010001000: 504865 585661 589992 511476
0110100110010110: 504865 585661 589992 562983
0110100110010110: 504865 585661 589992 562983
0110100110000100: 504865 585661 511476 562983
0110100110000100: 504865 585661 511476 467401
0110100110000100: 504865 585661 511476 593422
0110100110000100: 504865 585661 511476 620454
0110100110000100: 504865 585661 511476 569872
0110100110000100: 504865 585661 511476 562983
0110100110000100: 504865 585661 511476 467401
0110100110000100: 504865 585661 511476 593422
0110100110000100: 504865 585661 511476 620454
0110100110000100: 504865 585661 511476 569872
0111100110001100: 504865 585661 511476 566492
0111100110001100: 504865 585661 511476 566492
0111100110001100: 504865 585661 511476 566492
0111100010001000: 504865 585661 511476 589992
0111100010001000: 504865 585661 511476 589992
0110100010010010: 504865 585661 511476 580482
0110100010010010: 504865 585661 511476 580482
0111101011001000: 504865 585661 566492 589992
0111101011001000: 504865 585661 566492 511476
0111101011001000: 504865 585661 566492 589992
0111101011001000: 504865 585661 566492 511476
0111101011001000: 504865 585661 566492 589992
0111101011001000: 504865 585661 566492 511476
0111101011001000: 504865 585661 566492 589992
0111101011001000: 504865 585661 566492 511476
0101101001001000: 566492 572803 643031 620454
0101101001001000: 566492 572803 643031 569872
0101101001001000: 566492 572803 643031 504865
0101101001001000: 566492 572803 643031 585661
0101101001001000: 566492 572803 541542 620454
0101101001001000: 566492 572803 541542 569872
0101101001001000: 566492 572803 541542 504865
0101101001001000: 566492 572803 541542 585661
0100101101000100: 566492 572803 541542 643031
0111101011001000: 566492 620454 585661 572803
0111100010001000: 566492 569872 620454 572803
0111101011001000: 566492 569872 585661 572803
0110101111010110: 566492 569872 585661 467401
0101101001001000: 566492 569872 467401 572803
0101101001001000: 566492 569872 467401 620454
0101101001001000: 566492 569872 467401 504865
0101101101011110: 566492 569872 467401 585661
0111100010001000: 566492 504865 620454 572803
0111100010001000: 566492 504865 569872 572803
0111100010001000: 566492 504865 569872 620454
0111101011001000: 566492 504865 585661 572803
0101101001001000: 566492 504865 589992 572803
0101101001001000: 566492 504865 589992 620454
0101101001001000: 566492 504865 589992 569872
0101101101001100: 566492 504865 589992 585661
0101101001001000: 566492 504865 511476 572803
0101101001001000: 566492 504865 511476 620454
0101101001001000: 566492 504865 511476 569872
0101101101001100: 566492 504865 511476 585661
0100101101000100: 566492 504865 511476 589992
0111101011001000: 566492 585661 620454 572803
0111101011001000: 566492 585661 569872 572803
0111101111001100: 566492 585661 569872 620454
0110101111010110: 566492 585661 569872 467401
0111101011001000: 566492 585661 504865 572803
0111101111001100: 566492 585661 504865 620454
0111101111001100: 566492 585661 504865 569872
0110100110000100: 566492 572803 620454 643031
0110100110000100: 566492 572803 620454 541542
0111100010011010: 566492 572803 620454 585661
0111100010001000: 566492 572803 569872 620454
0110100110000100: 566492 572803 569872 643031
0110100110000100: 566492 572803 569872 541542
0110100010010010: 566492 572803 569872 467401
0111100010011010: 566492 572803 569872 585661
0110100010010010: 566492 572803 569872 467401
0111100010001000: 566492 572803 504865 620454
0111100010001000: 566492 572803 504865 569872
0110100110000100: 566492 572803 504865 643031
0110100110000100: 566492 572803 504865 541542
0110100010010010: 566492 572803 504865 589992
0110100010010010: 566492 572803 504865 511476
0111100010011010: 566492 572803 504865 585661
0110100010010010: 566492 572803 504865 589992
0110100010010010: 566492 572803 504865 511476
0110100110000100: 566492 572803 585661 643031
0110100110000100: 566492 572803 585661 541542
0110100010010010: 566492 572803 585661 562983
0110100010010010: 566492 572803 585661 467401
0110100010010010: 566492 572803 585661 593422
0111100010011010: 566492 572803 585661 620454
0111100010011010: 566492 572803 585661 569872
0111100010011010: 566492 572803 585661 504865
0110100110000100: 566492 572803 620454 643031
0110100110000100: 566492 572803 620454 541542
0110100110000100: 566492 572803 620454 643031
0110100110000100: 566492 572803 620454 541542
0110100110000100: 566492 572803 620454 643031
0110100110000100: 566492 572803 620454 541542
0110100110000100: 566492 572803 569872 643031
0110100110000100: 566492 572803 569872 541542
0110100110000100: 566492 572803 569872 643031
0110100110000100: 566492 572803 569872 541542
0110100110000100: 566492 572803 569872 643031
0110100110000100: 566492 572803 569872 541542
0110100110000100: 566492 572803 504865 643031
0110100110000100: 566492 572803 504865 541542
0110100110000100: 566492 572803 504865 643031
0110100110000100: 566492 572803 504865 541542
0110100110000100: 566492 572803 504865 643031
0110100110000100: 566492 572803 504865 541542
0110100110000100: 566492 572803 585661 643031
0110100110000100: 566492 572803 585661 541542
0110100110000100: 566492 572803 585661 643031
0110100110000100: 566492 572803 585661 541542
0110100110000100: 566492 572803 585661 643031
0110100110000100: 566492 572803 585661 541542
0101101001001000: 566492 572803 643031 620454
0101101001001000: 566492 572803 643031 569872
0101101001001000: 566492 572803 643031 504865
0101101001001000: 566492 572803 643031 585661
0100101001010010: 566492 572803 643031 518335
0100101001010010: 566492 572803 643031 518335
0100101001010010: 566492 572803 643031 518335
0100101001010010: 566492 572803 643031 518335
0101101001001000: 566492 572803 541542 620454
0101101001001000: 566492 572803 541542 569872
0101101001001000: 566492 572803 541542 504865
0101101001001000: 566492 572803 541542 585661
0100101001010010: 566492 572803 541542 465041
0100101001010010: 566492 572803 541542 465041
0100101101000100: 566492 572803 541542 643031
0100101001010010: 566492 572803 541542 465041
0100101001010010: 566492 572803 541542 465041
0110100010010010: 566492 620454 572803 643031
0110100010010010: 566492 620454 572803 541542
0110100010010010: 566492 620454 572803 643031
0110100010010010: 566492 620454 572803 541542
0111100010001000: 566492 620454 569872 572803
0110100010010010: 566492 620454 569872 467401
0110100010010010: 566492 620454 569872 467401
0111100010001000: 566492 620454 504865 572803
0111100010001000: 566492 620454 504865 569872
0110100010010010: 566492 620454 504865 589992
0110100010010010: 566492 620454 504865 511476
0110100010010010: 566492 620454 504865 589992
0110100010010010: 566492 620454 504865 511476
0111100010001000: 566492 620454 572803 569872
0111100010001000: 566492 620454 572803 504865
0111100110001100: 566492 620454 572803 585661
0111101011001000: 566492 620454 585661 572803
0110101011010010: 566492 620454 585661 562983
0110101011010010: 566492 620454 585661 467401
0110101011010010: 566492 620454 585661 593422
0110101011010010: 566492 620454 585661 562983
0110101011010010: 566492 620454 585661 467401
0110101011010010: 566492 620454 585661 593422
0111101011011010: 566492 620454 585661 569872
0111101011011010: 566492 620454 585661 504865
0111101011011010: 566492 620454 585661 569872
0111101011011010: 566492 620454 585661 504865
0111101011011010: 566492 620454 585661 569872
0111101011011010: 566492 620454 585661 504865
0111101011001000: 566492 620454 585661 572803
0111101011001000: 566492 620454 585661 572803
0111101011001000: 566492 620454 585661 572803
0111101011001000: 566492 620454 585661 572803
0110100110000100: 566492 569872 572803 467401
0110100010010010: 566492 569872 572803 643031
0110100010010010: 566492 569872 572803 541542
0110100010010010: 566492 569872 572803 643031
0110100010010010: 566492 569872 572803 541542
0111100010001000: 566492 569872 620454 572803
0110100110000100: 566492 569872 620454 467401
0111100010001000: 566492 569872 504865 572803
0111100010001000: 566492 569872 504865 620454
0110100110000100: 566492 569872 504865 467401
0110100010010010: 566492 569872 504865 589992
0110100010010010: 566492 569872 504865 511476
0110100010010010: 566492 569872 504865 589992
0110100010010010: 566492 569872 504865 511476
0111100010001000: 566492 569872 572803 620454
0111100010001000: 566492 569872 572803 504865
0110100110000100: 566492 569872 572803 467401
0110100110000100: 566492 569872 572803 467401
0111100110001100: 566492 569872 572803 585661
0110100110000100: 566492 569872 572803 467401
0111100010001000: 566492 569872 620454 572803
0111100010001000: 566492 569872 620454 504865
0111100010001000: 566492 569872 620454 572803
0110100110000100: 566492 569872 620454 467401
0110100110000100: 566492 569872 620454 467401
0110100110000100: 566492 569872 620454 467401
0110100110000100: 566492 569872 504865 467401
0110100110000100: 566492 569872 504865 467401
0110100110000100: 566492 569872 504865 467401
0111101011001000: 566492 569872 585661 572803
0110101011010010: 566492 569872 585661 562983
0110101011010010: 566492 569872 585661 593422
0110101011010010: 566492 569872 585661 562983
0110101011010010: 566492 569872 585661 593422
0111101011011010: 566492 569872 585661 620454
0111101011011010: 566492 569872 585661 504865
0111101011011010: 566492 569872 585661 620454
0111101011011010: 566492 569872 585661 504865
0111101011011010: 566492 569872 585661 620454
0111101011011010: 566492 569872 585661 504865
0111101011001000: 566492 569872 585661 572803
0111101011001000: 566492 569872 585661 572803
0110101111010110: 566492 569872 585661 467401
0101101001001000: 566492 569872 467401 572803
0101101001001000: 566492 569872 467401 620454
0101101001001000: 566492 569872 467401 504865
0100101001010010: 566492 569872 467401 476662
0100101001010010: 566492 569872 467401 476662
0100101001010010: 566492 569872 467401 476662
0101101101011110: 566492 569872 467401 585661
0111101011001000: 566492 569872 585661 572803
0111101011001000: 566492 569872 585661 572803
0110101111010110: 566492 569872 585661 467401
0110101111010110: 566492 569872 585661 467401
0110101111010110: 566492 569872 585661 467401
0110101111010110: 566492 569872 585661 467401
0110100010010010: 566492 504865 572803 643031
0110100010010010: 566492 504865 572803 541542
0110100010010010: 566492 504865 572803 643031
0110100010010010: 566492 504865 572803 541542
0111100010001000: 566492 504865 620454 572803
0111100010001000: 566492 504865 569872 572803
0111100010001000: 566492 504865 569872 620454
0110100010010010: 566492 504865 569872 467401
0110100010010010: 566492 504865 569872 467401
0111100010001000: 566492 504865 572803 620454
0111100010001000: 566492 504865 572803 569872
0110100110000100: 566492 504865 572803 589992
0110100110000100: 566492 504865 572803 511476
0111100110001100: 566492 504865 572803 585661
0110100110000100: 566492 504865 572803 589992
0110100110000100: 566492 504865 572803 511476
0110100010010010: 566492 504865 572803 643031
0110100010010010: 566492 504865 572803 541542
0111100010001000: 566492 504865 620454 572803
0111100010001000: 566492 504865 620454 569872
0111100010001000: 566492 504865 620454 572803
0110100110000100: 566492 504865 620454 589992
0110100110000100: 566492 504865 620454 511476
0110100110000100: 566492 504865 620454 589992
0110100110000100: 566492 504865 620454 511476
0111100010001000: 566492 504865 569872 572803
0111100010001000: 566492 504865 569872 620454
0111100010001000: 566492 504865 569872 572803
0111100010001000: 566492 504865 569872 620454
0110100110000100: 566492 504865 569872 589992
0110100110000100: 566492 504865 569872 511476
0110100110000100: 566492 504865 569872 589992
0110100110000100: 566492 504865 569872 511476
0110100010010010: 566492 504865 569872 467401
0111101011001000: 566492 504865 585661 572803
0111101011011010: 566492 504865 585661 620454
0111101011011010: 566492 504865 585661 569872
0111101011011010: 566492 504865 585661 620454
0111101011011010: 566492 504865 585661 569872
0111101011011010: 566492 504865 585661 620454
0111101011011010: 566492 504865 585661 569872
0111101011001000: 566492 504865 585661 572803
0111101011001000: 566492 504865 585661 572803
0110101111000100: 566492 504865 585661 589992
0110101111000100: 566492 504865 585661 511476
0101101001001000: 566492 504865 589992 572803
0101101001001000: 566492 504865 589992 620454
0101101001001000: 566492 504865 589992 569872
0100101001010010: 566492 504865 589992 562983
0100101001010010: 566492 504865 589992 562983
0101101101001100: 566492 504865 589992 585661
0100101001010010: 566492 504865 589992 562983
0100101001010010: 566492 504865 589992 562983
0101101001001000: 566492 504865 511476 572803
0101101001001000: 566492 504865 511476 620454
0101101001001000: 566492 504865 511476 569872
0100101001010010: 566492 504865 511476 580482
0100101001010010: 566492 504865 511476 580482
0101101101001100: 566492 504865 511476 585661
0100101101000100: 566492 504865 511476 589992
0100101001010010: 566492 504865 511476 580482
0100101001010010: 566492 504865 511476 580482
0111101011001000: 566492 504865 585661 572803
0111101011001000: 566492 504865 585661 572803
0110101111000100: 566492 504865 585661 589992
0110101111000100: 566492 504865 585661 511476
0110101111000100: 566492 504865 585661 589992
0110101111000100: 566492 504865 585661 511476
0110101111000100: 566492 504865 585661 589992
0110101111000100: 566492 504865 585661 511476
0110101111000100: 566492 504865 585661 589992
0110101111000100: 566492 504865 585661 511476
0110101111000100: 566492 504865 585661 589992
0110101111000100: 566492 504865 585661 511476
0110100010010010: 566492 585661 572803 643031
0110100010010010: 566492 585661 572803 541542
0110100010010010: 566492 585661 572803 643031
0110100010010010: 566492 585661 572803 541542
0110100110000100: 566492 585661 572803 562983
0110100110000100: 566492 585661 572803 467401
0110100110000100: 566492 585661 572803 593422
0111100110001100: 566492 585661 572803 620454
0111100110001100: 566492 585661 572803 569872
0111100110001100: 566492 585661 572803 504865
0110100010010010: 566492 585661 572803 643031
0110100010010010: 566492 585661 572803 541542
0111101011001000: 566492 585661 620454 572803
0111101011001000: 566492 585661 569872 572803
0110101111010110: 566492 585661 569872 467401
0111101011001000: 566492 585661 504865 572803
0110101011010010: 566492 585661 504865 589992
0110101011010010: 566492 585661 504865 511476
0110101011010010: 566492 585661 504865 589992
0110101011010010: 566492 585661 504865 511476
0110100010010010: 566492 585661 572803 643031
0110100010010010: 566492 585661 572803 541542
0111101011001000: 566492 585661 620454 572803
0111101011001000: 566492 585661 620454 572803
0110101111000100: 566492 585661 620454 562983
0110101111000100: 566492 585661 620454 467401
0110101111000100: 566492 585661 620454 593422
0110101111000100: 566492 585661 620454 562983
0110101111000100: 566492 585661 620454 467401
0110101111000100: 566492 585661 620454 593422
0111101111001100: 566492 585661 620454 569872
0111101111001100: 566492 585661 620454 504865
0111101011001000: 566492 585661 620454 572803
0111101011001000: 566492 585661 569872 572803
0111101011001000: 566492 585661 569872 572803
0110101111000100: 566492 585661 569872 562983
0110101111000100: 566492 585661 569872 593422
0110101111000100: 566492 585661 569872 562983
0110101111000100: 566492 585661 569872 593422
0111101111001100: 566492 585661 569872 620454
0111101111001100: 566492 585661 569872 504865
0111101011001000: 566492 585661 569872 572803
0111101111001100: 566492 585661 569872 620454
0110101111010110: 566492 585661 569872 467401
0110101111010110: 566492 585661 569872 467401
0110101111010110: 566492 585661 569872 467401
0110101111010110: 566492 585661 569872 467401
0111101011001000: 566492 585661 504865 572803
0111101011001000: 566492 585661 504865 572803
0110101111000100: 566492 585661 504865 562983
0110101111000100: 566492 585661 504865 467401
0110101111000100: 566492 585661 504865 593422
0110101111000100: 566492 585661 504865 562983
0110101111000100: 566492 585661 504865 467401
0110101111000100: 566492 585661 504865 593422
0111101111001100: 566492 585661 504865 620454
0111101111001100: 566492 585661 504865 569872
0111101011001000: 566492 585661 504865 572803
0111101111001100: 566492 585661 504865 620454
0111101111001100: 566492 585661 504865 569872
0110101011010010: 566492 585661 504865 589992
0110101011010010: 566492 585661 504865 511476
0110101011010010: 566492 585661 504865 589992
0110101011010010: 566492 585661 504865 511476
0110100110000100: 566492 585661 572803 562983
0110100110000100: 566492 585661 572803 467401
0110100110000100: 566492 585661 572803 593422
0110100110000100: 566492 585661 572803 562983
0110100110000100: 566492 585661 572803 467401
0110100110000100: 566492 585661 572803 593422
0111100110001100: 566492 585661 572803 620454
0111100110001100: 566492 585661 572803 569872
0111100110001100: 566492 585661 572803 504865
0111100110001100: 566492 585661 572803 620454
0111100110001100: 566492 585661 572803 569872
0111100110001100: 566492 585661 572803 504865
0111100110001100: 566492 585661 572803 620454
0111100110001100: 566492 585661 572803 569872
0111100110001100: 566492 585661 572803 504865
0110100010010010: 566492 585661 572803 643031
0110100010010010: 566492 585661 572803 541542
0110100010010010: 566492 585661 572803 643031
0110100010010010: 566492 585661 572803 541542
0111101011001000: 566492 585661 620454 572803
0111101011001000: 566492 585661 620454 572803
0111101111001100: 566492 585661 620454 569872
0111101111001100: 566492 585661 620454 504865
0111101011001000: 566492 585661 620454 572803
0111101011001000: 566492 585661 569872 572803
0111101011001000: 566492 585661 569872 572803
0111101111001100: 566492 585661 569872 620454
0111101111001100: 566492 585661 569872 504865
0111101011001000: 566492 585661 569872 572803
0110101111010110: 566492 585661 569872 467401
0111101011001000: 566492 585661 504865 572803
0111101011001000: 566492 585661 504865 572803
0111101111001100: 566492 585661 504865 620454
0111101111001100: 566492 585661 504865 569872
0111101011001000: 566492 585661 504865 572803
0111101111001100: 569872 585661 566492 467401
0110100110000100: 569872 467401 566492 476662
0110100010010010: 569872 467401 566492 572803
0110100010010010: 569872 467401 566492 620454
0110100010010010: 569872 467401 566492 504865
0110100110000100: 569872 467401 566492 476662
0110100110000100: 569872 467401 566492 476662
0110101011010010: 569872 467401 585661 562983
0110101011010010: 569872 467401 585661 593422
0110101011010010: 569872 467401 585661 620454
0110101011010010: 569872 467401 585661 504865
0110101011010010: 569872 467401 585661 562983
0110101011010010: 569872 467401 585661 593422
0110101011010010: 569872 467401 585661 620454
0110101011010010: 569872 467401 585661 504865
0111101011011010: 569872 467401 585661 566492
0111101011011010: 569872 467401 585661 566492
0111101011011010: 569872 467401 585661 566492
0110101111000100: 569872 467401 585661 476662
0110101111000100: 569872 467401 585661 476662
0110101111000100: 569872 467401 585661 476662
0111101011011010: 569872 467401 585661 566492
0110100110000100: 569872 467401 566492 476662
0110100110000100: 569872 467401 566492 476662
0110100110000100: 569872 467401 566492 476662
0111100110011110: 569872 467401 566492 585661
0111101011011010: 569872 467401 585661 566492
0110100010010010: 569872 566492 467401 476662
0110100110000100: 569872 566492 467401 572803
0110100110000100: 569872 566492 467401 620454
0110100110000100: 569872 566492 467401 504865
0110100010010010: 569872 566492 467401 476662
0111101011011010: 569872 566492 585661 467401
0111101011011010: 569872 566492 585661 467401
0111101011011010: 569872 566492 585661 467401
0110101111000100: 569872 566492 585661 572803
0110101111000100: 569872 566492 585661 572803
0110101111010110: 569872 566492 585661 620454
0110101111010110: 569872 566492 585661 504865
0110101111010110: 569872 566492 585661 620454
0110101111010110: 569872 566492 585661 504865
0110101111000100: 569872 566492 585661 572803
0110101111010110: 569872 566492 585661 620454
0111101011011010: 569872 566492 585661 467401
0110100110000100: 569872 566492 467401 572803
0110100110000100: 569872 566492 467401 620454
0110100110000100: 569872 566492 467401 504865
0110100110000100: 569872 566492 467401 572803
0110100110000100: 569872 566492 467401 620454
0110100110000100: 569872 566492 467401 504865
0110100010010010: 569872 566492 467401 476662
0111100110011110: 569872 566492 467401 585661
0111101011011010: 569872 566492 585661 467401
0110101111000100: 569872 585661 467401 562983
0110101111000100: 569872 585661 467401 593422
0110101111000100: 569872 585661 467401 620454
0110101111000100: 569872 585661 467401 504865
0110101111000100: 569872 585661 467401 562983
0110101111000100: 569872 585661 467401 593422
0110101111000100: 569872 585661 467401 620454
0110101111000100: 569872 585661 467401 504865
0111101111001100: 569872 585661 467401 566492
0110101011010010: 569872 585661 467401 476662
0110101111000100: 569872 585661 566492 562983
0110101111000100: 569872 585661 566492 593422
0110101111000100: 569872 585661 566492 562983
0110101111000100: 569872 585661 566492 593422
0111101111001100: 569872 585661 566492 467401
0111101111001100: 569872 585661 566492 467401
0110101111010110: 569872 585661 566492 620454
0110101111010110: 569872 585661 566492 504865
0110101011010010: 569872 585661 566492 572803
0110101111010110: 569872 585661 566492 620454
0110101111010110: 569872 585661 566492 504865
0110101111010110: 569872 585661 566492 620454
0111101111001100: 569872 585661 467401 566492
0111101111001100: 569872 585661 566492 467401
0111101011001000: 498674 608750 536951 519836
0111101011001000: 498674 536951 608750 519836
0101101001001000: 498674 519836 593422 608750
0101101001001000: 498674 519836 593422 536951
0110100010010010: 498674 608750 519836 593422
0110100010010010: 498674 608750 519836 593422
0111100110001100: 498674 608750 519836 536951
0111101011001000: 498674 608750 536951 519836
0111101011001000: 498674 608750 536951 519836
0111101011001000: 498674 608750 536951 519836
0110100010010010: 498674 536951 519836 593422
0110100010010010: 498674 536951 519836 593422
0111100110001100: 498674 536951 519836 608750
0111101011001000: 498674 536951 608750 519836
0111101011001000: 498674 536951 608750 519836
0111101011001000: 498674 536951 608750 519836
0111101011001000: 498674 536951 608750 519836
0111101011001000: 498674 536951 608750 519836
0110100110000100: 498674 519836 608750 593422
0111100010011010: 498674 519836 608750 536951
0110100110000100: 498674 519836 536951 593422
0111100010011010: 498674 519836 536951 608750
0110100110000100: 498674 519836 608750 593422
0110100110000100: 498674 519836 608750 593422
0110100110000100: 498674 519836 608750 593422
0110100110000100: 498674 519836 536951 593422
0110100110000100: 498674 519836 536951 593422
0110100110000100: 498674 519836 536951 593422
0101101001001000: 498674 519836 593422 608750
0101101001001000: 498674 519836 593422 536951
0100101001010010: 498674 519836 593422 633864
0100101001010010: 498674 519836 593422 585661
0100101001010010: 498674 519836 593422 633864
0100101001010010: 498674 519836 593422 585661
0101101001001000: 498674 519836 593422 608750
0101101001001000: 498674 519836 593422 536951
0101101001001000: 498674 519836 593422 608750
0101101001001000: 498674 519836 593422 536951
0110100110000100: 519836 593422 498674 633864
0110100110000100: 519836 593422 498674 585661
0110100010010010: 519836 593422 498674 608750
0110100010010010: 519836 593422 498674 536951
0110100110000100: 519836 593422 498674 633864
0110100110000100: 519836 593422 498674 585661
0110100110000100: 519836 593422 498674 633864
0110100110000100: 519836 593422 498674 585661
0110100110000100: 519836 593422 498674 633864
0110100110000100: 519836 593422 498674 585661
0110100110000100: 519836 593422 498674 633864
0110100110000100: 519836 593422 498674 585661
0110100110000100: 519836 593422 498674 633864
0110100110000100: 519836 593422 498674 585661
0110100010010010: 519836 498674 593422 633864
0110100010010010: 519836 498674 593422 585661
0110100110000100: 519836 498674 593422 608750
0110100110000100: 519836 498674 593422 536951
0110100110000100: 519836 498674 593422 608750
0110100110000100: 519836 498674 593422 536951
0110100110000100: 519836 498674 593422 608750
0110100110000100: 519836 498674 593422 536951
0110100110000100: 519836 498674 593422 608750
0110100110000100: 519836 498674 593422 536951
0110100110000100: 541542 572803 465041 643031
0110100110000100: 541542 572803 465041 566492
0110100010010010: 541542 572803 465041 504462
0110100110000100: 541542 572803 465041 643031
0110100110000100: 541542 572803 465041 566492
0110100110000100: 541542 572803 465041 643031
0110100110000100: 541542 572803 465041 566492
0110100010010010: 541542 572803 465041 504462
0110100110000100: 541542 572803 465041 643031
0110100110000100: 541542 572803 465041 566492
0110100110000100: 541542 572803 465041 643031
0110100110000100: 541542 572803 465041 566492
0110100010010010: 541542 572803 465041 504462
0110100110000100: 541542 465041 572803 504462
0110100010010010: 541542 465041 572803 643031
0110100010010010: 541542 465041 572803 566492
0110100110000100: 541542 465041 572803 504462
0110100110000100: 541542 465041 572803 504462
0110100110000100: 541542 465041 572803 504462
0110100110000100: 541542 465041 572803 504462
0110100110000100: 541542 465041 572803 504462
0110100110000100: 465041 504462 541542 580482
0110100010010010: 465041 504462 541542 572803
0110100110000100: 465041 504462 541542 580482
0110100110000100: 465041 504462 541542 580482
0110100110000100: 465041 504462 541542 580482
0110100110000100: 465041 504462 541542 580482
0110100110000100: 465041 504462 541542 580482
0110100010010010: 465041 541542 504462 580482
0110100110000100: 465041 541542 504462 572803
0110100110000100: 465041 541542 504462 572803
0110100110000100: 465041 541542 504462 572803
0110100110000100: 465041 541542 504462 572803
0110100110000100: 481744 633864 518335 593422
0110100010010010: 481744 633864 518335 643031
0110100110000100: 481744 633864 518335 593422
0110100110000100: 481744 633864 518335 593422
0110100110000100: 481744 633864 518335 593422
0110100110000100: 481744 633864 518335 593422
0110100110000100: 481744 633864 518335 593422
0110100110000100: 481744 518335 633864 643031
0110100010010010: 481744 518335 633864 593422
0110100110000100: 481744 518335 633864 643031
0110100110000100: 481744 518335 633864 643031
0110100110000100: 481744 518335 633864 643031
0110100110000100: 481744 518335 633864 643031
0110100110000100: 481744 518335 633864 643031
0110100110000100: 518335 643031 481744 572803
0110100010010010: 518335 643031 481744 633864
0110100110000100: 518335 643031 481744 572803
0110100110000100: 518335 643031 481744 572803
0110100110000100: 518335 643031 481744 572803
0110100110000100: 518335 643031 481744 572803
0110100110000100: 518335 643031 481744 572803
0110100010010010: 518335 481744 643031 572803
0110100110000100: 518335 481744 643031 633864
0110100110000100: 518335 481744 643031 633864
0110100110000100: 518335 481744 643031 633864
0110100110000100: 518335 481744 643031 633864
0110101011010010: 536951 608750 498674 519836
0110101011010010: 536951 608750 498674 519836
0110101111000100: 536951 498674 608750 519836
0110101111000100: 536951 498674 608750 519836
0110100110000100: 504462 580482 465041 511476
0110100010010010: 504462 580482 465041 541542
0110100110000100: 504462 580482 465041 511476
0110100110000100: 504462 580482 465041 511476
0110100110000100: 504462 580482 465041 511476
0110100110000100: 504462 580482 465041 511476
0110100110000100: 504462 580482 465041 511476
0110100010010010: 504462 465041 580482 511476
0110100110000100: 504462 465041 580482 541542
0110100110000100: 504462 465041 580482 541542
0110100110000100: 504462 465041 580482 541542
0110100110000100: 504462 465041 580482 541542
0110101111000100: 620454 566492 585661 572803
0110101111000100: 620454 566492 585661 572803
0110101111010110: 620454 566492 585661 569872
0110101111010110: 620454 566492 585661 504865
0110101111010110: 620454 566492 585661 569872
0110101111010110: 620454 566492 585661 504865
0110101111000100: 620454 566492 585661 572803
0110101111000100: 620454 585661 566492 562983
0110101111000100: 620454 585661 566492 467401
0110101111000100: 620454 585661 566492 593422
0110101111000100: 620454 585661 566492 562983
0110101111000100: 620454 585661 566492 467401
0110101111000100: 620454 585661 566492 593422
0110101111010110: 620454 585661 566492 569872
0110101111010110: 620454 585661 566492 504865
0110101011010010: 620454 585661 566492 572803
0110101111010110: 620454 585661 566492 569872
0110101111010110: 620454 585661 566492 504865
0110100110000100: 511476 580482 504865 504462
0110100010010010: 511476 580482 504865 589992
0110100010010010: 511476 580482 504865 566492
0110100010010010: 511476 580482 504865 585661
0110100110000100: 511476 580482 504865 504462
0110100110000100: 511476 580482 504865 504462
0110100110000100: 511476 580482 504865 504462
0110100110000100: 511476 580482 504865 504462
0110100110000100: 511476 580482 504865 504462
0110100010010010: 511476 504865 580482 504462
0110100110000100: 511476 504865 580482 589992
0110100110000100: 511476 504865 580482 566492
0110100110000100: 511476 504865 580482 585661
0110100010010010: 511476 504865 580482 504462
0110100110000100: 511476 504865 580482 589992
0110100110000100: 511476 504865 580482 566492
0110100110000100: 511476 504865 580482 585661
0110100110000100: 511476 504865 580482 589992
0110100110000100: 511476 504865 580482 566492
0110100110000100: 511476 504865 580482 585661
0110100010010010: 511476 504865 580482 504462
0101101001001000: 593422 633864 481744 519836
0101101001001000: 593422 633864 481744 585661
0101101001001000: 593422 519836 498674 633864
0101101001001000: 593422 519836 498674 585661
0111100010001000: 593422 585661 519836 633864
0110100110000100: 593422 633864 519836 481744
0110100010010010: 593422 633864 519836 498674
0110100010010010: 593422 633864 519836 498674
0111100010001000: 593422 633864 585661 519836
0110100110000100: 593422 633864 585661 481744
0110100010010010: 593422 633864 585661 562983
0110100010010010: 593422 633864 585661 467401
0110100010010010: 593422 633864 585661 620454
0110100010010010: 593422 633864 585661 569872
0110100010010010: 593422 633864 585661 566492
0110100010010010: 593422 633864 585661 504865
0110100110000100: 593422 633864 519836 481744
0110100110000100: 593422 633864 519836 481744
0110100110000100: 593422 633864 519836 481744
0110100110000100: 593422 633864 585661 481744
0110100110000100: 593422 633864 585661 481744
0110100110000100: 593422 633864 585661 481744
0101101001001000: 593422 633864 481744 519836
0101101001001000: 593422 633864 481744 585661
0100101001010010: 593422 633864 481744 518335
0100101001010010: 593422 633864 481744 518335
0100101001010010: 593422 633864 481744 518335
0110100010010010: 593422 519836 633864 481744
0110100010010010: 593422 519836 633864 481744
0111100010001000: 593422 519836 585661 633864
0110100010010010: 593422 519836 585661 562983
0110100010010010: 593422 519836 585661 467401
0110100010010010: 593422 519836 585661 620454
0110100010010010: 593422 519836 585661 569872
0110100010010010: 593422 519836 585661 566492
0110100010010010: 593422 519836 585661 504865
0111100010001000: 593422 519836 633864 585661
0110100110000100: 593422 519836 633864 498674
0110100110000100: 593422 519836 633864 498674
0110100110000100: 593422 519836 585661 498674
0110100110000100: 593422 519836 585661 498674
0101101001001000: 593422 519836 498674 633864
0101101001001000: 593422 519836 498674 585661
0100101001010010: 593422 519836 498674 608750
0100101001010010: 593422 519836 498674 536951
0100101001010010: 593422 519836 498674 608750
0100101001010010: 593422 519836 498674 536951
0101101001001000: 593422 519836 498674 633864
0101101001001000: 593422 519836 498674 585661
0101101001001000: 593422 519836 498674 633864
0110100010010010: 593422 585661 633864 481744
0110100010010010: 593422 585661 633864 481744
0111100010001000: 593422 585661 519836 633864
0110100010010010: 593422 585661 519836 498674
0110100010010010: 593422 585661 519836 498674
0111100010001000: 593422 585661 633864 519836
0110100110000100: 593422 585661 633864 562983
0110100110000100: 593422 585661 633864 467401
0110100110000100: 593422 585661 633864 620454
0110100110000100: 593422 585661 633864 569872
0110100110000100: 593422 585661 633864 566492
0110100110000100: 593422 585661 633864 504865
0110100010010010: 593422 585661 633864 481744
0111100010001000: 593422 585661 519836 633864
0111100010001000: 593422 585661 519836 633864
0110100110000100: 593422 585661 519836 562983
0110100110000100: 593422 585661 519836 467401
0110100110000100: 593422 585661 519836 620454
0110100110000100: 593422 585661 519836 569872
0110100110000100: 593422 585661 519836 566492
0110100110000100: 593422 585661 519836 504865
0110100010010010: 593422 585661 519836 498674
0111100010001000: 593422 585661 633864 519836
0111100010001000: 593422 585661 633864 519836
0110100010010010: 593422 585661 633864 481744
0111100010001000: 593422 585661 519836 633864
0111100010001000: 593422 585661 519836 633864
0110100010010010: 593422 585661 519836 498674
0110100110000100: 593422 585661 633864 562983
0110100110000100: 593422 585661 633864 467401
0110100110000100: 593422 585661 633864 620454
0110100110000100: 593422 585661 633864 569872
0110100110000100: 593422 585661 633864 566492
0110100110000100: 593422 585661 633864 504865
0110100110000100: 593422 585661 633864 562983
0110100110000100: 593422 585661 633864 467401
0110100110000100: 593422 585661 633864 620454
0110100110000100: 593422 585661 633864 569872
0110100110000100: 593422 585661 633864 566492
0110100110000100: 593422 585661 633864 504865
0111100010001000: 593422 585661 633864 519836
0110100010010010: 593422 585661 633864 481744
0110100010010010: 593422 585661 633864 481744
0110100110000100: 593422 585661 519836 562983
0110100110000100: 593422 585661 519836 467401
0110100110000100: 593422 585661 519836 620454
0110100110000100: 593422 585661 519836 569872
0110100110000100: 593422 585661 519836 566492
0110100110000100: 593422 585661 519836 504865
0110100110000100: 593422 585661 519836 562983
0110100110000100: 593422 585661 519836 467401
0110100110000100: 593422 585661 519836 620454
0110100110000100: 593422 585661 519836 569872
0110100110000100: 593422 585661 519836 566492
0110100110000100: 593422 585661 519836 504865
0111100010001000: 593422 585661 519836 633864
0111100010001000: 593422 585661 519836 633864
0110100010010010: 593422 585661 519836 498674
0110100010010010: 593422 585661 519836 498674
0110100010010010: 633864 593422 481744 518335
0110100110000100: 633864 593422 481744 519836
0110100110000100: 633864 593422 481744 585661
0110100010010010: 633864 593422 481744 518335
0110100110000100: 633864 593422 481744 519836
0110100110000100: 633864 593422 481744 585661
0110100110000100: 633864 593422 481744 519836
0110100110000100: 633864 593422 481744 585661
0110100010010010: 633864 593422 481744 518335
0110100010010010: 633864 481744 593422 519836
0110100010010010: 633864 481744 593422 585661
0110100110000100: 633864 481744 593422 518335
0110100110000100: 633864 481744 593422 518335
0110100110000100: 633864 481744 593422 518335
0110100110000100: 633864 481744 593422 518335
0110100010010010: 580482 511476 504462 465041
0110100110000100: 580482 511476 504462 504865
0110100110000100: 580482 511476 504462 504865
0110100110000100: 580482 511476 504462 504865
0110100110000100: 580482 511476 504462 504865
0110100010010010: 580482 504462 511476 504865
0110100110000100: 580482 504462 511476 465041
0110100110000100: 580482 504462 511476 465041
0110100110000100: 580482 504462 511476 465041
0110100110000100: 580482 504462 511476 465041
0111101011001000: 467401 569872 585661 476662
0111101011001000: 467401 585661 569872 476662
0110100010010010: 467401 476662 569872 566492
0111100010011010: 467401 476662 569872 585661
0110100010010010: 467401 476662 585661 562983
0110100010010010: 467401 476662 585661 593422
0110100010010010: 467401 476662 585661 620454
0110100010010010: 467401 476662 585661 566492
0110100010010010: 467401 476662 585661 504865
0111100010011010: 467401 476662 585661 569872
0110100110000100: 467401 569872 476662 566492
0111100110001100: 467401 569872 476662 585661
0111101011001000: 467401 569872 585661 476662
0111101011001000: 467401 569872 585661 476662
0111101011001000: 467401 569872 585661 476662
0111101011001000: 467401 569872 585661 476662
0111101011001000: 467401 569872 585661 476662
0111101011001000: 467401 569872 585661 476662
0110101111010110: 467401 569872 585661 566492
0110101111010110: 467401 569872 585661 566492
0111101011001000: 467401 569872 585661 476662
0110100110000100: 467401 569872 476662 566492
0110100110000100: 467401 569872 476662 566492
0111100110001100: 467401 569872 476662 585661
0111100110001100: 467401 569872 476662 585661
0111100110001100: 467401 569872 476662 585661
0111101011001000: 467401 569872 585661 476662
0110100110000100: 467401 585661 476662 562983
0110100110000100: 467401 585661 476662 593422
0110100110000100: 467401 585661 476662 620454
0110100110000100: 467401 585661 476662 566492
0110100110000100: 467401 585661 476662 504865
0111100110001100: 467401 585661 476662 569872
0111101011001000: 467401 585661 569872 476662
0111101011001000: 467401 585661 569872 476662
0111101011001000: 467401 585661 569872 476662
0111101011001000: 467401 585661 569872 476662
0111101011001000: 467401 585661 569872 476662
0110101111000100: 467401 585661 569872 562983
0110101111000100: 467401 585661 569872 593422
0110101111000100: 467401 585661 569872 620454
0110101111000100: 467401 585661 569872 504865
0110101111000100: 467401 585661 569872 562983
0110101111000100: 467401 585661 569872 593422
0110101111000100: 467401 585661 569872 620454
0110101111000100: 467401 585661 569872 504865
0111101011001000: 467401 585661 569872 476662
0110101111010110: 467401 585661 569872 566492
0110101111010110: 467401 585661 569872 566492
0111101011001000: 467401 585661 569872 476662
0110100110000100: 467401 585661 476662 562983
0110100110000100: 467401 585661 476662 593422
0110100110000100: 467401 585661 476662 620454
0110100110000100: 467401 585661 476662 566492
0110100110000100: 467401 585661 476662 504865
0110100110000100: 467401 585661 476662 562983
0110100110000100: 467401 585661 476662 593422
0110100110000100: 467401 585661 476662 620454
0110100110000100: 467401 585661 476662 566492
0110100110000100: 467401 585661 476662 504865
0111100110001100: 467401 585661 476662 569872
0111100110001100: 467401 585661 476662 569872
0111100110001100: 467401 585661 476662 569872
0111101011001000: 467401 585661 569872 476662
0111101011001000: 467401 585661 569872 476662
0111101011001000: 467401 585661 569872 476662
0111101011001000: 467401 585661 569872 476662
0101101001001000: 572803 643031 518335 541542
0101101001001000: 572803 643031 518335 566492
0101101001001000: 572803 541542 465041 643031
0101101001001000: 572803 541542 465041 566492
0111100010001000: 572803 566492 541542 643031
0110100110000100: 572803 643031 541542 518335
0110100010010010: 572803 643031 541542 465041
0110100010010010: 572803 643031 541542 465041
0111100010001000: 572803 643031 566492 541542
0110100110000100: 572803 643031 566492 518335
0110100010010010: 572803 643031 566492 620454
0110100010010010: 572803 643031 566492 569872
0110100010010010: 572803 643031 566492 504865
0110100010010010: 572803 643031 566492 585661
0110100110000100: 572803 643031 541542 518335
0110100110000100: 572803 643031 541542 518335
0110100110000100: 572803 643031 541542 518335
0110100110000100: 572803 643031 566492 518335
0110100110000100: 572803 643031 566492 518335
0110100110000100: 572803 643031 566492 518335
0101101001001000: 572803 643031 518335 541542
0101101001001000: 572803 643031 518335 566492
0100101001010010: 572803 643031 518335 481744
0100101001010010: 572803 643031 518335 481744
0100101001010010: 572803 643031 518335 481744
0110100010010010: 572803 541542 643031 518335
0110100010010010: 572803 541542 643031 518335
0111100010001000: 572803 541542 566492 643031
0110100010010010: 572803 541542 566492 620454
0110100010010010: 572803 541542 566492 569872
0110100010010010: 572803 541542 566492 504865
0110100010010010: 572803 541542 566492 585661
0111100010001000: 572803 541542 643031 566492
0110100110000100: 572803 541542 643031 465041
0110100110000100: 572803 541542 643031 465041
0110100110000100: 572803 541542 566492 465041
0110100110000100: 572803 541542 566492 465041
0101101001001000: 572803 541542 465041 643031
0101101001001000: 572803 541542 465041 566492
0100101001010010: 572803 541542 465041 504462
0100101001010010: 572803 541542 465041 504462
0100101001010010: 572803 541542 465041 504462
0110100010010010: 572803 566492 643031 518335
0110100010010010: 572803 566492 643031 518335
0111100010001000: 572803 566492 541542 643031
0110100010010010: 572803 566492 541542 465041
0110100010010010: 572803 566492 541542 465041
0111100010001000: 572803 566492 643031 541542
0110100110000100: 572803 566492 643031 620454
0110100110000100: 572803 566492 643031 569872
0110100110000100: 572803 566492 643031 504865
0110100110000100: 572803 566492 643031 585661
0110100010010010: 572803 566492 643031 518335
0111100010001000: 572803 566492 541542 643031
0111100010001000: 572803 566492 541542 643031
0110100110000100: 572803 566492 541542 620454
0110100110000100: 572803 566492 541542 569872
0110100110000100: 572803 566492 541542 504865
0110100110000100: 572803 566492 541542 585661
0110100010010010: 572803 566492 541542 465041
0111100010001000: 572803 566492 643031 541542
0111100010001000: 572803 566492 643031 541542
0110100010010010: 572803 566492 643031 518335
0111100010001000: 572803 566492 541542 643031
0111100010001000: 572803 566492 541542 643031
0110100010010010: 572803 566492 541542 465041
0110100110000100: 572803 566492 643031 620454
0110100110000100: 572803 566492 643031 569872
0110100110000100: 572803 566492 643031 504865
0110100110000100: 572803 566492 643031 585661
0110100110000100: 572803 566492 643031 620454
0110100110000100: 572803 566492 643031 569872
0110100110000100: 572803 566492 643031 504865
0110100110000100: 572803 566492 643031 585661
0111100010001000: 572803 566492 643031 541542
0110100010010010: 572803 566492 643031 518335
0110100010010010: 572803 566492 643031 518335
0110100110000100: 572803 566492 541542 620454
0110100110000100: 572803 566492 541542 569872
0110100110000100: 572803 566492 541542 504865
0110100110000100: 572803 566492 541542 585661
0110100110000100: 572803 566492 541542 620454
0110100110000100: 572803 566492 541542 569872
0110100110000100: 572803 566492 541542 504865
0110100110000100: 572803 566492 541542 585661
0111100010001000: 572803 566492 541542 643031
0111100010001000: 572803 566492 541542 643031
0110100010010010: 572803 566492 541542 465041
0110100010010010: 572803 566492 541542 465041
0110101111000100: 608750 498674 536951 519836
0110101111000100: 608750 498674 536951 519836
0110100010010010: 643031 572803 518335 481744
0110100110000100: 643031 572803 518335 541542
0110100110000100: 643031 572803 518335 566492
0110100010010010: 643031 572803 518335 481744
0110100110000100: 643031 572803 518335 541542
0110100110000100: 643031 572803 518335 566492
0110100110000100: 643031 572803 518335 541542
0110100110000100: 643031 572803 518335 566492
0110100010010010: 643031 572803 518335 481744
0110100010010010: 643031 518335 572803 541542
0110100010010010: 643031 518335 572803 566492
0110100110000100: 643031 518335 572803 481744
0110100110000100: 643031 518335 572803 481744
0110100110000100: 643031 518335 572803 481744
0110100110000100: 643031 518335 572803 481744
0110100110010110: 589992 504865 562983 585661
0110100010010010: 589992 562983 504865 511476
0110100010010010: 589992 562983 504865 566492
0110100110010110: 589992 562983 504865 585661
0110100110010110: 589992 562983 504865 585661
0110100110010110: 589992 562983 504865 585661
0110100110010110: 589992 562983 504865 585661
0110100110010110: 589992 504865 562983 585661
0110100110000100: 589992 504865 562983 511476
0110100110000100: 589992 504865 562983 566492
0110100110010110: 589992 504865 562983 585661
0110100110010110: 589992 504865 562983 585661
0110100110000100: 589992 504865 562983 511476
0110100110000100: 589992 504865 562983 566492
0110100110000100: 589992 504865 562983 511476
0110100110000100: 589992 504865 562983 566492
0110100110010110: 589992 504865 562983 585661
0110100110010110: 562983 585661 589992 504865
0110100010010010: 562983 589992 585661 467401
0110100010010010: 562983 589992 585661 593422
0110100010010010: 562983 589992 585661 620454
0110100010010010: 562983 589992 585661 569872
0110100010010010: 562983 589992 585661 566492
0110100110010110: 562983 589992 585661 504865
0110100110010110: 562983 589992 585661 504865
0110100110010110: 562983 589992 585661 504865
0110100110010110: 562983 585661 589992 504865
0110100110000100: 562983 585661 589992 467401
0110100110000100: 562983 585661 589992 593422
0110100110000100: 562983 585661 589992 620454
0110100110000100: 562983 585661 589992 569872
0110100110000100: 562983 585661 589992 566492
0110100110010110: 562983 585661 589992 504865
0110100110010110: 562983 585661 589992 504865
0110100110000100: 562983 585661 589992 467401
0110100110000100: 562983 585661 589992 593422
0110100110000100: 562983 585661 589992 620454
0110100110000100: 562983 585661 589992 569872
0110100110000100: 562983 585661 589992 566492
0110100110000100: 562983 585661 589992 467401
0110100110000100: 562983 585661 589992 593422
0110100110000100: 562983 585661 589992 620454
0110100110000100: 562983 585661 589992 569872
0110100110000100: 562983 585661 589992 566492
0110100110010110: 562983 585661 589992 504865
