0111010101110001000001000: 518245 528530 462691 621663 642048
0111010101110001000001000: 518245 528530 462691 506929 642048
0111010101110001000001000: 518245 528530 462691 480527 642048
0110010010100010100000100: 518245 621663 528530 611312 642048
0110010010100010100000100: 518245 652376 528530 552290 642048
0110010010100010100000100: 518245 652376 621663 552290 611312
0110010010100010100000100: 518245 506929 528530 552290 642048
0110010011100000100001000: 518245 506929 528530 607701 552290
0110010010100010100100110: 518245 506929 528530 607701 642048
0110010010100010100000100: 518245 506929 621663 552290 611312
0110010011100000100001000: 518245 506929 621663 607701 552290
0110010010100010100000100: 518245 506929 621663 607701 611312
0111110000100001000010000: 518245 506929 652376 621663 528530
0110010011100100110001000: 518245 506929 652376 552290 607701
0110010011100100110001000: 518245 506929 462691 552290 607701
0110010011100000100001000: 518245 506929 480527 607701 552290
0110010010100010100000100: 518245 462691 621663 552290 611312
0110010011100000100001000: 518245 462691 621663 546147 552290
0110010010100010100000100: 518245 462691 621663 546147 611312
0110010011100000100001000: 518245 462691 621663 521492 552290
0110010011100000100001000: 518245 462691 621663 521492 546147
0110010010100010100100110: 518245 462691 621663 521492 611312
0110010010100010100000100: 518245 462691 506929 546147 607701
0110010011100000100001000: 518245 462691 506929 521492 546147
0110010010100010100000100: 518245 462691 506929 521492 607701
0110010011100100110001000: 518245 462691 506929 552290 546147
0110010011100100110001000: 518245 462691 506929 552290 521492
0110010011100000100001000: 518245 462691 480527 521492 552290
0110010011100100110001000: 518245 462691 480527 546147 552290
0110010011100100110001000: 518245 462691 480527 546147 521492
0111010101110001000001000: 518245 462691 528530 621663 552290
0111010101110001000001000: 518245 462691 528530 621663 546147
0111010101110001000001000: 518245 462691 528530 621663 521492
0111010100110001000100010: 518245 462691 528530 621663 611312
0111110100110001000010000: 518245 462691 528530 506929 621663
0111010101110001000001000: 518245 462691 528530 506929 546147
0111010101110001000001000: 518245 462691 528530 506929 521492
0111010100110001000100010: 518245 462691 528530 506929 607701
0111010101110001000101010: 518245 462691 528530 506929 552290
0111110100110001000010000: 518245 462691 528530 480527 621663
0111110100110001000010000: 518245 462691 528530 480527 506929
0111010101110001000001000: 518245 462691 528530 480527 552290
0111010101110001000001000: 518245 462691 528530 480527 521492
0111010101110001000101010: 518245 462691 528530 480527 546147
0111010110110011100000100: 518245 462691 528530 652376 642048
0111010110110011100000100: 518245 462691 528530 554368 642048
0111010101110001000001000: 518245 462691 652376 621663 546147
0111010101110001000001000: 518245 462691 652376 621663 521492
0111010100110001000100010: 518245 462691 652376 621663 611312
0111110100110001000010000: 518245 462691 652376 506929 621663
0111010101110001000001000: 518245 462691 652376 506929 546147
0111010101110001000001000: 518245 462691 652376 506929 521492
0111010100110001000100010: 518245 462691 652376 506929 607701
0111110100110001000010000: 518245 462691 652376 480527 621663
0111110100110001000010000: 518245 462691 652376 480527 506929
0111010101110001000001000: 518245 462691 652376 480527 521492
0111010101110001000101010: 518245 462691 652376 480527 546147
0111110110110001100010000: 518245 462691 652376 528530 621663
0111110110110001100010000: 518245 462691 652376 528530 506929
0111110110110001100010000: 518245 462691 652376 528530 480527
0111110110110001100010000: 518245 462691 554368 528530 621663
0111110110110001100010000: 518245 462691 554368 528530 506929
0111010110110011100000100: 518245 462691 554368 528530 581938
0111010110110011100000100: 518245 462691 554368 528530 607701
0111110111110101110011000: 518245 462691 554368 652376 528530
0110010010100010100000100: 518245 480527 528530 546147 642048
0110010010100010100000100: 518245 480527 621663 546147 611312
0111110000100001000010000: 518245 480527 652376 621663 528530
0110010010100010100000100: 518245 480527 652376 546147 552290
0111110000100001000010000: 518245 480527 506929 621663 528530
0111110000100001000010000: 518245 480527 506929 652376 528530
0111110000100001000010000: 518245 480527 506929 652376 621663
0110010010100010100000100: 518245 480527 506929 546147 552290
0110010010100010100000100: 518245 480527 506929 546147 607701
0111110000100001000010000: 518245 480527 462691 506929 621663
0110010010100010100000100: 518245 554368 528530 552290 642048
0110010011100000100001000: 518245 554368 528530 581938 552290
0110010010100010100000100: 518245 554368 528530 581938 642048
0110010011100000100001000: 518245 554368 528530 607701 552290
0110010011100000100001000: 518245 554368 528530 607701 581938
0110010010100010100100110: 518245 554368 528530 607701 642048
0110010011100000100001000: 518245 554368 528530 546147 552290
0110010011100000100001000: 518245 554368 528530 546147 581938
0110010011100000100001000: 518245 554368 528530 546147 607701
0110010010100010100000100: 518245 554368 528530 546147 642048
0110010011100000100001000: 518245 554368 528530 521492 552290
0110010011100000100001000: 518245 554368 528530 521492 581938
0110010011100000100001000: 518245 554368 528530 521492 607701
0110010011100000100001000: 518245 554368 528530 521492 546147
0110010010100010100000100: 518245 554368 528530 521492 642048
0110010010100010100000100: 518245 554368 621663 552290 611312
0110010011100000100001000: 518245 554368 621663 581938 552290
0110010010100010100000100: 518245 554368 621663 581938 611312
0110010011100000100001000: 518245 554368 621663 607701 552290
0110010011100000100001000: 518245 554368 621663 607701 581938
0110010010100010100000100: 518245 554368 621663 607701 611312
0110010011100000100001000: 518245 554368 621663 546147 552290
0110010011100000100001000: 518245 554368 621663 546147 581938
0110010011100000100001000: 518245 554368 621663 546147 607701
0110010010100010100000100: 518245 554368 621663 546147 611312
0110010011100000100001000: 518245 554368 621663 521492 552290
0110010011100000100001000: 518245 554368 621663 521492 581938
0110010011100000100001000: 518245 554368 621663 521492 607701
0110010011100000100001000: 518245 554368 621663 521492 546147
0110010010100010100100110: 518245 554368 621663 521492 611312
0111110000100001000010000: 518245 554368 506929 621663 528530
0110010011100000100001000: 518245 554368 506929 546147 581938
0110010011100000100001000: 518245 554368 506929 521492 581938
0110010011100000100001000: 518245 554368 506929 521492 546147
0110010011100100110001000: 518245 554368 506929 552290 581938
0110010011100100110001000: 518245 554368 506929 552290 546147
0110010011100100110001000: 518245 554368 506929 552290 521492
0110010011100100110001000: 518245 554368 506929 607701 581938
0110010011100100110001000: 518245 554368 506929 607701 546147
0110010011100100110001000: 518245 554368 506929 607701 521492
0110010011100110110001100: 518245 554368 506929 607701 552290
0111010101110001000001000: 518245 554368 652376 528530 581938
0111010101110001000001000: 518245 554368 652376 528530 607701
0111010101110001000001000: 518245 554368 652376 528530 546147
0111010101110001000001000: 518245 554368 652376 528530 521492
0111010100110001000100010: 518245 554368 652376 528530 642048
0111110100110001000010000: 518245 554368 652376 621663 528530
0111010101110001000001000: 518245 554368 652376 621663 581938
0111010101110001000001000: 518245 554368 652376 621663 607701
0111010101110001000001000: 518245 554368 652376 621663 546147
0111010101110001000001000: 518245 554368 652376 621663 521492
0111010100110001000100010: 518245 554368 652376 621663 611312
0111110100110001000010000: 518245 554368 652376 506929 528530
0111110100110001000010000: 518245 554368 652376 506929 621663
0111010101110001000001000: 518245 554368 652376 506929 581938
0111010101110001000001000: 518245 554368 652376 506929 546147
0111010101110001000001000: 518245 554368 652376 506929 521492
0111010101110001000101010: 518245 554368 652376 506929 607701
0111010101110001000001000: 518245 554368 462691 621663 581938
0111010101110001000001000: 518245 554368 462691 621663 607701
0111010100110001000100010: 518245 554368 462691 621663 611312
0111110100110001000010000: 518245 554368 462691 506929 621663
0111010101110001000001000: 518245 554368 462691 506929 581938
0111010101110001000101010: 518245 554368 462691 506929 607701
0111110110110011100010100: 518245 554368 462691 480527 528530
0111110110110101110010000: 518245 554368 462691 652376 621663
0111110110110101110010000: 518245 554368 462691 652376 506929
0111110111110101110011000: 518245 554368 462691 652376 480527
0111010101110001000001000: 518245 554368 480527 528530 552290
0111010101110001000001000: 518245 554368 480527 528530 581938
0111010101110001000001000: 518245 554368 480527 528530 607701
0111010101110001000001000: 518245 554368 480527 528530 521492
0111010100110001000100010: 518245 554368 480527 528530 642048
0111110100110001000010000: 518245 554368 480527 621663 528530
0111010101110001000001000: 518245 554368 480527 621663 552290
0111010101110001000001000: 518245 554368 480527 621663 581938
0111010101110001000001000: 518245 554368 480527 621663 607701
0111010101110001000001000: 518245 554368 480527 621663 521492
0111010100110001000100010: 518245 554368 480527 621663 611312
0111110100110001000010000: 518245 554368 480527 506929 528530
0111110100110001000010000: 518245 554368 480527 506929 621663
0111010101110001000001000: 518245 554368 480527 506929 581938
0111010101110001000001000: 518245 554368 480527 506929 521492
0111010101110001000101010: 518245 554368 480527 506929 552290
0111010101110001000101010: 518245 554368 480527 506929 607701
0111110110110001100010000: 518245 554368 480527 652376 528530
0111110110110001100010000: 518245 554368 480527 652376 621663
0111110110110001100010000: 518245 554368 480527 652376 506929
0111110110110001100010000: 518245 554368 480527 462691 621663
0111110110110001100010000: 518245 554368 480527 462691 506929
0111010101110001000001000: 554368 552290 652376 581938 506929
0111010101110001000101010: 554368 552290 652376 607701 506929
0111010101110001000001000: 554368 552290 652376 546147 506929
0111010101110001000001000: 554368 552290 652376 480527 506929
0111010101110001000001000: 554368 552290 652376 521492 506929
0111010101110001000001000: 554368 552290 462691 581938 506929
0111010101110001000101010: 554368 552290 462691 607701 506929
0111010101110001000001000: 554368 552290 462691 480527 506929
0111010100110001000100010: 554368 652376 552290 581938 540984
0111010100110001000100010: 554368 652376 552290 581938 579988
0111110100110001000010000: 554368 652376 552290 607701 581938
0111010100110001000100010: 554368 652376 552290 607701 642048
0111110100110001000010000: 554368 652376 552290 546147 581938
0111110100110001000010000: 554368 652376 552290 546147 607701
0111110100110001000010000: 554368 652376 552290 480527 581938
0111110100110001000010000: 554368 652376 552290 480527 607701
0111110100110001000010000: 554368 652376 552290 521492 581938
0111110100110001000010000: 554368 652376 552290 521492 607701
0111110100110001000010000: 554368 652376 552290 521492 546147
0111110100110001000010000: 554368 652376 552290 521492 480527
0111010100110001000100010: 554368 652376 552290 521492 611312
0111010100110001000100010: 554368 652376 552290 521492 579988
0111110110110001100010000: 554368 652376 518245 552290 581938
0111110110110001100010000: 554368 652376 518245 552290 607701
0111110110110001100010000: 554368 652376 518245 552290 546147
0111110110110001100010000: 554368 652376 518245 552290 521492
0111010110110011100000100: 554368 652376 518245 552290 528530
0111010110110011100000100: 554368 652376 518245 552290 621663
0111010110110011100100110: 554368 652376 518245 552290 506929
0110010010100010100000100: 554368 581938 552290 540984 506929
0110010011100000100001000: 554368 581938 552290 579988 540984
0110010010100010100000100: 554368 581938 552290 579988 506929
0110010011100000100001000: 554368 581938 652376 579988 540984
0110010011100000100001000: 554368 581938 607701 579988 540984
0110010011100000100001000: 554368 581938 546147 579988 540984
0110010011100000100001000: 554368 581938 462691 579988 540984
0110010011100000100001000: 554368 581938 480527 579988 540984
0110010011100100110001000: 554368 581938 521492 579988 540984
0110010011100000100001000: 554368 581938 518245 579988 540984
0110010011100100110001000: 554368 607701 552290 506929 642048
0110010011100000100001000: 554368 607701 652376 642048 506929
0110010010100010100000100: 554368 607701 581938 506929 540984
0110010010100010100000100: 554368 607701 581938 506929 579988
0110010011100000100001000: 554368 607701 581938 642048 506929
0110010010100010100000100: 554368 607701 581938 642048 540984
0110010010100010100000100: 554368 607701 581938 642048 579988
0110010011100000100001000: 554368 607701 546147 642048 506929
0110010011100000100001000: 554368 607701 462691 642048 506929
0110010011100000100001000: 554368 607701 480527 642048 506929
0110010011100000100001000: 554368 607701 521492 642048 506929
0110010011100100110001000: 554368 607701 518245 506929 642048
0111110000100001000010000: 554368 546147 607701 581938 552290
0111110000100001000010000: 554368 546147 607701 581938 652376
0111010110110011100000100: 554368 546147 462691 480527 528530
0111110110110001100010000: 554368 546147 480527 462691 581938
0111110110110001100010000: 554368 546147 480527 462691 607701
0110010010100010100000100: 554368 462691 581938 528530 540984
0110010010100010100000100: 554368 462691 581938 528530 579988
0110010010100010100000100: 554368 462691 607701 528530 506929
0110010010100010100100110: 554368 462691 607701 528530 642048
0111010101110001000001000: 554368 462691 552290 581938 528530
0111010100110001000100010: 554368 462691 552290 581938 540984
0111010100110001000100010: 554368 462691 552290 581938 579988
0111110100110001000010000: 554368 462691 552290 607701 581938
0111010101110001000001000: 554368 462691 552290 607701 528530
0111010100110001000100010: 554368 462691 552290 607701 642048
0111110100110001000010000: 554368 462691 552290 480527 581938
0111110100110001000010000: 554368 462691 552290 480527 607701
0111010101110001000001000: 554368 462691 552290 480527 528530
0111010110110011100000100: 554368 462691 552290 546147 506929
0111010110110011100000100: 554368 462691 552290 521492 506929
0111010101110001000001000: 554368 462691 652376 581938 528530
0111010100110001000100010: 554368 462691 652376 581938 540984
0111010100110001000100010: 554368 462691 652376 581938 579988
0111110100110001000010000: 554368 462691 652376 607701 581938
0111010101110001000001000: 554368 462691 652376 607701 528530
0111010100110001000100010: 554368 462691 652376 607701 506929
0111010100110001000100010: 554368 462691 652376 607701 642048
0111110100110001000010000: 554368 462691 652376 480527 581938
0111110100110001000010000: 554368 462691 652376 480527 607701
0111010101110001000001000: 554368 462691 652376 480527 528530
0111110110110101110010000: 554368 462691 652376 552290 581938
0111110110110101110010000: 554368 462691 652376 552290 607701
0111110110110101110010000: 554368 462691 652376 552290 480527
0111110111110101110011000: 554368 462691 652376 552290 546147
0111110111110101110011000: 554368 462691 652376 552290 521492
0111110111110111110011100: 554368 462691 652376 518245 552290
0111010101110001000001000: 554368 462691 546147 581938 528530
0111010100110001000100010: 554368 462691 546147 581938 540984
0111010100110001000100010: 554368 462691 546147 581938 579988
0111110100110001000010000: 554368 462691 546147 607701 581938
0111010101110001000001000: 554368 462691 546147 607701 528530
0111010100110001000100010: 554368 462691 546147 607701 506929
0111010100110001000100010: 554368 462691 546147 607701 642048
0111110110110001100010000: 554368 462691 546147 552290 581938
0111110110110001100010000: 554368 462691 546147 552290 607701
0111110110110011100010100: 554368 462691 546147 552290 480527
0111110110110001100010000: 554368 462691 546147 652376 581938
0111110110110001100010000: 554368 462691 546147 652376 607701
0111110110110011100010100: 554368 462691 546147 652376 480527
0111110110110011100010100: 554368 462691 546147 521492 480527
0111010101110001000001000: 554368 462691 521492 581938 528530
0111010101110001000001000: 554368 462691 521492 607701 528530
0111010101110001000001000: 554368 462691 521492 480527 528530
0111110110110001100010000: 554368 462691 521492 552290 581938
0111110110110001100010000: 554368 462691 521492 552290 607701
0111110110110001100010000: 554368 462691 521492 552290 480527
0111010110110011100000100: 554368 462691 521492 552290 611312
0111010110110011100000100: 554368 462691 521492 552290 579988
0111110110110001100010000: 554368 462691 521492 652376 581938
0111110110110001100010000: 554368 462691 521492 652376 607701
0111110110110001100010000: 554368 462691 521492 652376 480527
0111010110110011100000100: 554368 462691 521492 652376 611312
0111010110110011100000100: 554368 462691 521492 652376 579988
0111110110110001100010000: 554368 462691 521492 546147 581938
0111110110110001100010000: 554368 462691 521492 546147 607701
0111110111110001100011000: 554368 462691 521492 546147 552290
0111110111110001100011000: 554368 462691 521492 546147 652376
0111010110110011100000100: 554368 462691 521492 546147 611312
0111010110110011100000100: 554368 462691 521492 546147 579988
0111010110110011100000100: 554368 462691 521492 518245 611312
0111010110110011100000100: 554368 462691 521492 518245 579988
0111110110110001100010000: 554368 462691 518245 552290 581938
0111110110110001100010000: 554368 462691 518245 552290 607701
0111010110110011100000100: 554368 462691 518245 552290 621663
0111010110110011100100110: 554368 462691 518245 552290 506929
0111110110110001100010000: 554368 462691 518245 546147 581938
0111110110110001100010000: 554368 462691 518245 546147 607701
0111110111110001100011000: 554368 462691 518245 546147 552290
0111010110110011100000100: 554368 462691 518245 546147 621663
0111010110110011100000100: 554368 462691 518245 546147 506929
0111110110110001100010000: 554368 462691 518245 521492 581938
0111110110110001100010000: 554368 462691 518245 521492 607701
0111110111110001100011000: 554368 462691 518245 521492 552290
0111110111110001100011000: 554368 462691 518245 521492 546147
0111010110110011100000100: 554368 462691 518245 521492 621663
0111010110110011100000100: 554368 462691 518245 521492 506929
0111110111110101110011000: 554368 462691 518245 652376 546147
0111110111110101110011000: 554368 462691 518245 652376 521492
0111110000100001000010000: 554368 480527 607701 581938 552290
0111110000100001000010000: 554368 480527 607701 581938 652376
0111110000100001000010000: 554368 480527 462691 607701 581938
0111010100110001000100010: 554368 480527 546147 552290 506929
0111110100110001000110010: 554368 480527 546147 652376 552290
0111110100110001000010000: 554368 480527 546147 581938 552290
0111110100110001000010000: 554368 480527 546147 581938 652376
0111010100110001000100010: 554368 480527 546147 581938 540984
0111010100110001000100010: 554368 480527 546147 581938 579988
0111110100110001000010000: 554368 480527 546147 607701 552290
0111110100110001000010000: 554368 480527 546147 607701 652376
0111110100110001000010000: 554368 480527 546147 607701 581938
0111010100110001000100010: 554368 480527 546147 607701 506929
0111010100110001000100010: 554368 480527 546147 607701 642048
0111110100110001000010000: 554368 480527 546147 521492 552290
0111110100110001000010000: 554368 480527 546147 521492 652376
0111110100110001000010000: 554368 480527 546147 521492 581938
0111110100110001000010000: 554368 480527 546147 521492 607701
0111010100110001000100010: 554368 480527 546147 521492 611312
0111010100110001000100010: 554368 480527 546147 521492 579988
0111110110110001100010000: 554368 480527 518245 546147 552290
0111110110110001100010000: 554368 480527 518245 546147 581938
0111110110110001100010000: 554368 480527 518245 546147 607701
0111110110110001100010000: 554368 480527 518245 546147 521492
0111010110110011100000100: 554368 480527 518245 546147 528530
0111010110110011100000100: 554368 480527 518245 546147 621663
0111010110110011100000100: 554368 480527 518245 546147 506929
0110010010100010100000100: 554368 521492 552290 611312 506929
0110010011100000100001000: 554368 521492 552290 579988 611312
0110010010100010100000100: 554368 521492 552290 579988 506929
0110010011100000100001000: 554368 521492 652376 579988 611312
0110010010100010100000100: 554368 521492 581938 611312 540984
0110010011100100110001000: 554368 521492 581938 579988 611312
0111110000100001000010000: 554368 521492 607701 581938 552290
0111110000100001000010000: 554368 521492 607701 581938 652376
0110010010100010100000100: 554368 521492 607701 611312 506929
0110010010100010100000100: 554368 521492 607701 611312 642048
0110010011100000100001000: 554368 521492 607701 579988 611312
0110010010100010100000100: 554368 521492 607701 579988 506929
0110010010100010100000100: 554368 521492 607701 579988 642048
0111110000100001000010000: 554368 521492 546147 581938 552290
0111110000100001000010000: 554368 521492 546147 581938 652376
0111110000100001000010000: 554368 521492 546147 607701 552290
0111110000100001000010000: 554368 521492 546147 607701 652376
0111110000100001000010000: 554368 521492 546147 607701 581938
0110010011100000100001000: 554368 521492 546147 579988 611312
0111110000100001000010000: 554368 521492 480527 581938 552290
0111110000100001000010000: 554368 521492 480527 581938 652376
0111110000100001000010000: 554368 521492 480527 607701 552290
0111110000100001000010000: 554368 521492 480527 607701 652376
0111110000100001000010000: 554368 521492 480527 607701 581938
0110010011100000100001000: 554368 521492 480527 579988 611312
0110010011100000100001000: 554368 521492 518245 579988 611312
0111010101110001000001000: 554368 521492 462691 581938 611312
0111010100110001000100010: 554368 521492 462691 581938 540984
0111010101110001000101010: 554368 521492 462691 581938 579988
0111110100110001000010000: 554368 521492 462691 607701 581938
0111010101110001000001000: 554368 521492 462691 607701 611312
0111010101110001000001000: 554368 521492 462691 607701 579988
0111010100110001000100010: 554368 521492 462691 607701 506929
0111010100110001000100010: 554368 521492 462691 607701 642048
0111110100110001000010000: 554368 521492 462691 480527 581938
0111110100110001000010000: 554368 521492 462691 480527 607701
0111010101110001000001000: 554368 521492 462691 480527 611312
0111010101110001000001000: 554368 521492 462691 480527 579988
0110010011100000100001000: 554368 518245 552290 621663 528530
0110010011100100110001000: 554368 518245 552290 506929 528530
0110010011100100110001000: 554368 518245 552290 506929 621663
0110010010100010100000100: 554368 518245 581938 528530 540984
0110010010100010100000100: 554368 518245 581938 528530 579988
0110010011100000100001000: 554368 518245 581938 621663 528530
0110010010100010100000100: 554368 518245 581938 621663 540984
0110010010100010100000100: 554368 518245 581938 621663 579988
0110010011100000100001000: 554368 518245 581938 506929 528530
0110010011100000100001000: 554368 518245 581938 506929 621663
0110010010100010100000100: 554368 518245 581938 506929 540984
0110010010100010100000100: 554368 518245 581938 506929 579988
0111110000100001000010000: 554368 518245 607701 581938 552290
0110010011100000100001000: 554368 518245 607701 621663 528530
0110010010100010100000100: 554368 518245 607701 621663 642048
0110010011100100110001000: 554368 518245 607701 506929 528530
0110010011100100110001000: 554368 518245 607701 506929 621663
0111110000100001000010000: 554368 518245 546147 581938 552290
0111110000100001000010000: 554368 518245 546147 607701 552290
0111110000100001000010000: 554368 518245 546147 607701 581938
0110010011100000100001000: 554368 518245 546147 621663 528530
0110010011100000100001000: 554368 518245 546147 506929 528530
0110010011100000100001000: 554368 518245 546147 506929 621663
0111110000100001000010000: 554368 518245 521492 581938 552290
0111110000100001000010000: 554368 518245 521492 607701 552290
0111110000100001000010000: 554368 518245 521492 607701 581938
0111110000100001000010000: 554368 518245 521492 546147 552290
0111110000100001000010000: 554368 518245 521492 546147 581938
0111110000100001000010000: 554368 518245 521492 546147 607701
0110010010100010100000100: 554368 518245 521492 528530 611312
0110010010100010100000100: 554368 518245 521492 528530 579988
0110010011100000100001000: 554368 518245 521492 621663 528530
0110010010100010100000100: 554368 518245 521492 621663 579988
0110010011100000100001000: 554368 518245 521492 506929 528530
0110010011100000100001000: 554368 518245 521492 506929 621663
0110010010100010100000100: 554368 518245 521492 506929 611312
0110010010100010100000100: 554368 518245 521492 506929 579988
0111010100110001000100010: 554368 518245 652376 581938 540984
0111010100110001000100010: 554368 518245 652376 581938 579988
0111110100110001000010000: 554368 518245 652376 607701 581938
0111010100110001000100010: 554368 518245 652376 607701 642048
0111110100110001000010000: 554368 518245 652376 546147 581938
0111110100110001000010000: 554368 518245 652376 546147 607701
0111110100110001000010000: 554368 518245 652376 521492 581938
0111110100110001000010000: 554368 518245 652376 521492 607701
0111110100110001000010000: 554368 518245 652376 521492 546147
0111010100110001000100010: 554368 518245 652376 521492 611312
0111010100110001000100010: 554368 518245 652376 521492 579988
0111110110110011100010100: 554368 518245 652376 480527 552290
0111010100110001000100010: 554368 518245 462691 581938 540984
0111010100110001000100010: 554368 518245 462691 581938 579988
0111110100110001000010000: 554368 518245 462691 607701 581938
0111010100110001000100010: 554368 518245 462691 607701 642048
0111110110110011100010100: 554368 518245 462691 480527 552290
0111110110110011100010100: 554368 518245 462691 480527 521492
0111110110110101110010000: 554368 518245 462691 652376 581938
0111110110110101110010000: 554368 518245 462691 652376 607701
0111110100110001000010000: 554368 518245 480527 581938 552290
0111010100110001000100010: 554368 518245 480527 581938 540984
0111010100110001000100010: 554368 518245 480527 581938 579988
0111110100110001000010000: 554368 518245 480527 607701 552290
0111110100110001000010000: 554368 518245 480527 607701 581938
0111010100110001000100010: 554368 518245 480527 607701 642048
0111110100110001000010000: 554368 518245 480527 521492 552290
0111110100110001000010000: 554368 518245 480527 521492 581938
0111110100110001000010000: 554368 518245 480527 521492 607701
0111010100110001000100010: 554368 518245 480527 521492 611312
0111010100110001000100010: 554368 518245 480527 521492 579988
0111110110110001100010000: 554368 518245 480527 652376 581938
0111110110110001100010000: 554368 518245 480527 652376 607701
0111110110110001100010000: 554368 518245 480527 652376 521492
0111110110110011100010100: 554368 518245 480527 652376 546147
0111110110110001100010000: 554368 518245 480527 462691 581938
0111110110110001100010000: 554368 518245 480527 462691 607701
0111110110110011100110110: 554368 518245 480527 462691 546147
0110010010100010100000100: 521492 579988 611312 581938 621663
0110010010100010100000100: 521492 462691 611312 528530 621663
0110010011100000100001000: 521492 462691 611312 552290 528530
0110010010100010100000100: 521492 462691 611312 552290 621663
0110010011100000100001000: 521492 462691 611312 652376 528530
0110010010100010100000100: 521492 462691 611312 652376 621663
0110010011100000100001000: 521492 462691 611312 546147 528530
0110010011100000100001000: 521492 462691 611312 546147 552290
0110010011100000100001000: 521492 462691 611312 546147 652376
0110010010100010100000100: 521492 462691 611312 546147 621663
0110010011100000100001000: 521492 462691 611312 518245 552290
0110010011100000100001000: 521492 462691 611312 518245 546147
0110010010100010100000100: 521492 462691 579988 528530 581938
0110010011100000100001000: 521492 462691 579988 552290 528530
0110010010100010100000100: 521492 462691 579988 552290 581938
0110010011100000100001000: 521492 462691 579988 652376 528530
0110010010100010100000100: 521492 462691 579988 652376 581938
0110010011100000100001000: 521492 462691 579988 546147 528530
0110010011100000100001000: 521492 462691 579988 546147 552290
0110010011100000100001000: 521492 462691 579988 546147 652376
0110010010100010100000100: 521492 462691 579988 546147 581938
0110010011100000100001000: 521492 462691 579988 518245 552290
0110010011100000100001000: 521492 462691 579988 518245 546147
0110010010100010100000100: 521492 462691 579988 518245 581938
0111010101110001000001000: 521492 462691 554368 611312 528530
0111010101110001000001000: 521492 462691 554368 579988 528530
0110010010100010100000100: 521492 554368 611312 552290 621663
0110010010100010100000100: 521492 554368 611312 652376 621663
0110010011100000100001000: 521492 554368 611312 581938 552290
0110010011100000100001000: 521492 554368 611312 581938 652376
0110010010100010100000100: 521492 554368 611312 581938 621663
0110010011100000100001000: 521492 554368 611312 607701 552290
0110010011100000100001000: 521492 554368 611312 607701 652376
0110010011100000100001000: 521492 554368 611312 607701 581938
0110010010100010100000100: 521492 554368 611312 607701 621663
0110010011100000100001000: 521492 554368 611312 546147 552290
0110010011100000100001000: 521492 554368 611312 546147 652376
0110010011100000100001000: 521492 554368 611312 546147 581938
0110010011100000100001000: 521492 554368 611312 546147 607701
0110010010100010100000100: 521492 554368 611312 546147 621663
0110010011100000100001000: 521492 554368 611312 480527 552290
0110010011100000100001000: 521492 554368 611312 480527 652376
0110010011100000100001000: 521492 554368 611312 480527 581938
0110010011100000100001000: 521492 554368 611312 480527 607701
0110010010100010100000100: 521492 554368 611312 480527 621663
0110010011100000100001000: 521492 554368 611312 518245 552290
0110010011100000100001000: 521492 554368 611312 518245 581938
0110010011100000100001000: 521492 554368 611312 518245 607701
0110010011100000100001000: 521492 554368 611312 518245 546147
0110010011100000100001000: 521492 554368 579988 607701 552290
0110010011100000100001000: 521492 554368 579988 607701 652376
0110010011100000100001000: 521492 554368 579988 546147 552290
0110010011100000100001000: 521492 554368 579988 546147 652376
0110010011100000100001000: 521492 554368 579988 546147 607701
0110010011100000100001000: 521492 554368 579988 480527 552290
0110010011100000100001000: 521492 554368 579988 480527 652376
0110010011100000100001000: 521492 554368 579988 480527 607701
0110010011100000100001000: 521492 554368 579988 518245 552290
0110010011100000100001000: 521492 554368 579988 518245 607701
0110010011100000100001000: 521492 554368 579988 518245 546147
0110010011100100110001000: 521492 554368 579988 581938 552290
0110010011100100110001000: 521492 554368 579988 581938 652376
0110010011100100110001000: 521492 554368 579988 581938 607701
0110010011100100110001000: 521492 554368 579988 581938 546147
0110010011100100110001000: 521492 554368 579988 581938 480527
0110010011100100110001000: 521492 554368 579988 581938 518245
0111010100110001000100010: 521492 554368 462691 611312 621663
0111110100110001000010000: 521492 554368 462691 579988 611312
0110010011100000100001000: 480527 518245 546147 621663 528530
0110010011100000100001000: 480527 518245 546147 652376 528530
0110010011100000100001000: 480527 518245 546147 652376 621663
0110010011100000100001000: 480527 518245 546147 506929 528530
0110010011100000100001000: 480527 518245 546147 506929 621663
0110010011100000100001000: 480527 518245 546147 506929 652376
0110010011100100110001000: 480527 518245 546147 462691 621663
0110010011100100110001000: 480527 518245 546147 462691 506929
0111010101110001000001000: 462691 528530 518245 552290 642048
0111010101110001000001000: 462691 528530 518245 546147 642048
0111010101110001000001000: 462691 528530 518245 521492 642048
0110010010100010100000100: 462691 552290 528530 506929 642048
0111010101110001000001000: 462691 552290 652376 528530 506929
0111010101110001000001000: 462691 552290 652376 546147 506929
0111010101110001000001000: 462691 552290 652376 521492 506929
0111010101110001000001000: 462691 552290 554368 528530 506929
0111010100110001000100010: 462691 652376 552290 528530 642048
0111110100110001000010000: 462691 652376 552290 546147 528530
0111010100110001000100010: 462691 652376 552290 546147 480527
0111110100110001000010000: 462691 652376 552290 521492 528530
0111110100110001000010000: 462691 652376 552290 521492 546147
0111010100110001000100010: 462691 652376 552290 521492 611312
0111010100110001000100010: 462691 652376 552290 521492 579988
0111110110110001100010000: 462691 652376 518245 552290 546147
0111110110110001100010000: 462691 652376 518245 552290 521492
0111010110110011100000100: 462691 652376 518245 552290 621663
0111010110110011100000100: 462691 652376 518245 552290 480527
0111010110110011100100110: 462691 652376 518245 552290 506929
0110010010100010100000100: 462691 546147 528530 480527 642048
0110010010100010100000100: 462691 546147 552290 480527 506929
0110010010100010100000100: 462691 521492 528530 611312 642048
0110010011100000100001000: 462691 521492 528530 579988 611312
0110010010100010100000100: 462691 521492 528530 579988 642048
0110010010100010100000100: 462691 521492 552290 611312 506929
0110010011100000100001000: 462691 521492 552290 579988 611312
0110010010100010100000100: 462691 521492 552290 579988 506929
0110010011100000100001000: 462691 521492 652376 579988 611312
0111110000100001000010000: 462691 521492 546147 552290 528530
0111110000100001000010000: 462691 521492 546147 652376 528530
0110010010100010100000100: 462691 521492 546147 611312 480527
0110010011100000100001000: 462691 521492 546147 579988 611312
0110010010100010100000100: 462691 521492 546147 579988 480527
0110010011100000100001000: 462691 521492 518245 579988 611312
0110010010100010100000100: 462691 554368 528530 581938 642048
0110010011100000100001000: 462691 554368 528530 607701 581938
0110010011100000100001000: 462691 554368 528530 480527 581938
0110010011100000100001000: 462691 554368 528530 480527 607701
0110010010100010100000100: 462691 554368 528530 480527 642048
0111010100110001000100010: 462691 554368 552290 528530 642048
0111010100110001000100010: 462691 554368 652376 528530 642048
0111110110110101110010000: 462691 554368 652376 552290 528530
0111010100110001000100010: 462691 554368 546147 528530 642048
0111110110110001100010000: 462691 554368 546147 552290 528530
0111110110110001100010000: 462691 554368 546147 652376 528530
0111010100110001000100010: 462691 554368 521492 528530 642048
0111110110110001100010000: 462691 554368 521492 552290 528530
0111110110110001100010000: 462691 554368 521492 652376 528530
0111110110110001100010000: 462691 554368 521492 546147 528530
0110010011100000100001000: 462691 518245 552290 480527 621663
0110010011100100110001000: 462691 518245 552290 506929 621663
0110010011100100110001000: 462691 518245 552290 506929 480527
0110010011100000100001000: 462691 518245 546147 506929 621663
0111110000100001000010000: 462691 518245 521492 546147 552290
0110010010100010100000100: 462691 518245 521492 621663 579988
0110010011100000100001000: 462691 518245 521492 506929 621663
0110010010100010100000100: 462691 518245 521492 506929 611312
0110010010100010100000100: 462691 518245 521492 506929 579988
0110010011100000100001000: 462691 518245 521492 480527 621663
0110010011100000100001000: 462691 518245 521492 480527 506929
0110010010100010100000100: 462691 518245 521492 480527 611312
0110010010100010100000100: 462691 518245 521492 480527 579988
0111110100110001000010000: 462691 518245 528530 546147 552290
0111110100110001000010000: 462691 518245 528530 521492 552290
0111110100110001000010000: 462691 518245 528530 521492 546147
0111010100110001000100010: 462691 518245 528530 521492 611312
0111010100110001000100010: 462691 518245 528530 521492 579988
0111110100110001000010000: 462691 518245 652376 521492 546147
0111010100110001000100010: 462691 518245 652376 521492 611312
0111010100110001000100010: 462691 518245 652376 521492 579988
0111110110110001100010000: 462691 518245 652376 528530 546147
0111110110110001100010000: 462691 518245 652376 528530 521492
0111110110110011100010100: 462691 518245 652376 528530 552290
0111110110110011100010100: 462691 518245 554368 528530 552290
0111110110110011100010100: 462691 518245 554368 528530 546147
0111110110110011100010100: 462691 518245 554368 528530 521492
0110010010100010100000100: 522862 608838 540984 642048 581938
0110010011100000100001000: 608838 642048 522862 607701 528530
0110010010100010100000100: 608838 522862 642048 540984 528530
0110010010100010100000100: 608838 522862 642048 540984 607701
0110010010100010100000100: 642048 607701 528530 506929 462691
0110010011100000100001000: 642048 607701 528530 554368 506929
0110010011100000100001000: 642048 607701 608838 554368 506929
0110010010100010100000100: 642048 608838 528530 522862 462691
0110010010100010100000100: 642048 608838 528530 522862 518245
0110010010100010100000100: 642048 608838 607701 522862 506929
0110010010100010100000100: 642048 608838 607701 522862 554368
0110010011100000100001000: 546147 462691 480527 552290 528530
0110010011100000100001000: 546147 462691 480527 652376 528530
0110010011100000100001000: 546147 462691 480527 521492 528530
0110010011100000100001000: 546147 462691 480527 521492 552290
0110010011100000100001000: 546147 462691 480527 521492 652376
0110010010100010100000100: 506929 607701 552290 642048 652376
0110010010100010100000100: 506929 607701 552290 642048 462691
0110010011100000100001000: 506929 518245 552290 621663 528530
0110010011100000100001000: 506929 518245 552290 480527 528530
0110010011100000100001000: 506929 518245 552290 480527 621663
0110010011100100110001000: 506929 518245 552290 652376 528530
0110010011100100110001000: 506929 518245 552290 652376 621663
0110010011100100110001000: 506929 518245 552290 652376 480527
0110010011100000100001000: 506929 518245 607701 621663 528530
0110010010100010100000100: 506929 518245 607701 621663 642048
0110010011100000100001000: 506929 518245 607701 652376 528530
0110010011100000100001000: 506929 518245 607701 652376 621663
0110010010100010100000100: 506929 518245 607701 652376 642048
0110010011100000100001000: 506929 518245 607701 462691 621663
0110010010100010100000100: 506929 518245 607701 462691 642048
0110010011100000100001000: 506929 518245 607701 480527 528530
0110010011100000100001000: 506929 518245 607701 480527 621663
0110010011100000100001000: 506929 518245 607701 480527 652376
0110010011100000100001000: 506929 518245 607701 480527 462691
0110010010100010100000100: 506929 518245 607701 480527 642048
0110010011100000100001000: 607701 506929 642048 518245 552290
0110010010100010100000100: 607701 642048 506929 528530 552290
0110010011100000100001000: 607701 642048 506929 608838 528530
0110010010100010100000100: 607701 642048 506929 608838 552290
0110010010100010100000100: 607701 642048 506929 608838 518245
0110010011100000100001000: 607701 642048 554368 608838 528530
0110010011100000100001000: 607701 554368 506929 581938 652376
0110010011100000100001000: 607701 554368 506929 546147 652376
0110010011100000100001000: 607701 554368 506929 546147 581938
0110010011100000100001000: 607701 554368 506929 462691 581938
0110010011100000100001000: 607701 554368 506929 480527 652376
0110010011100000100001000: 607701 554368 506929 480527 581938
0110010011100000100001000: 607701 554368 506929 480527 462691
0110010011100000100001000: 607701 554368 506929 521492 652376
0110010011100000100001000: 607701 554368 506929 521492 581938
0110010011100000100001000: 607701 554368 506929 521492 546147
0110010011100000100001000: 607701 554368 506929 521492 480527
0110010011100100110001000: 607701 554368 506929 552290 581938
0110010011100100110001000: 607701 554368 506929 552290 546147
0110010011100100110001000: 607701 554368 506929 552290 480527
0110010011100100110001000: 607701 554368 506929 552290 521492
0110010010100010100000100: 607701 554368 642048 552290 528530
0110010010100010100000100: 607701 554368 642048 552290 608838
0110010010100010100000100: 607701 554368 642048 652376 528530
0110010010100010100000100: 607701 554368 642048 652376 608838
0110010011100000100001000: 607701 554368 642048 581938 552290
0110010011100000100001000: 607701 554368 642048 581938 652376
0110010010100010100000100: 607701 554368 642048 581938 528530
0110010010100010100000100: 607701 554368 642048 581938 608838
0110010011100000100001000: 607701 554368 642048 546147 552290
0110010011100000100001000: 607701 554368 642048 546147 652376
0110010011100000100001000: 607701 554368 642048 546147 581938
0110010010100010100000100: 607701 554368 642048 546147 528530
0110010010100010100000100: 607701 554368 642048 546147 608838
0110010011100000100001000: 607701 554368 642048 462691 581938
0110010010100010100000100: 607701 554368 642048 462691 608838
0110010011100000100001000: 607701 554368 642048 480527 552290
0110010011100000100001000: 607701 554368 642048 480527 652376
0110010011100000100001000: 607701 554368 642048 480527 581938
0110010011100000100001000: 607701 554368 642048 480527 462691
0110010010100010100000100: 607701 554368 642048 480527 528530
0110010010100010100000100: 607701 554368 642048 480527 608838
0110010011100000100001000: 607701 554368 642048 521492 552290
0110010011100000100001000: 607701 554368 642048 521492 652376
0110010011100000100001000: 607701 554368 642048 521492 581938
0110010011100000100001000: 607701 554368 642048 521492 546147
0110010011100000100001000: 607701 554368 642048 521492 480527
0110010010100010100000100: 607701 554368 642048 521492 528530
0110010010100010100000100: 607701 554368 642048 521492 608838
0110010011100000100001000: 607701 554368 642048 518245 552290
0110010011100000100001000: 607701 554368 642048 518245 581938
0110010011100000100001000: 607701 554368 642048 518245 546147
0110010011100000100001000: 607701 554368 642048 518245 521492
0110010010100010100000100: 607701 554368 642048 518245 608838
0110010010100010100000100: 581938 579988 540984 521492 522862
0110010010100010100000100: 581938 554368 540984 552290 522862
0110010010100010100000100: 581938 554368 540984 652376 522862
0110010011100000100001000: 581938 554368 540984 607701 552290
0110010011100000100001000: 581938 554368 540984 607701 652376
0110010010100010100000100: 581938 554368 540984 607701 522862
0110010011100000100001000: 581938 554368 540984 546147 552290
0110010011100000100001000: 581938 554368 540984 546147 652376
0110010011100000100001000: 581938 554368 540984 546147 607701
0110010010100010100000100: 581938 554368 540984 546147 522862
0110010011100000100001000: 581938 554368 540984 462691 607701
0110010010100010100000100: 581938 554368 540984 462691 522862
0110010011100000100001000: 581938 554368 540984 480527 552290
0110010011100000100001000: 581938 554368 540984 480527 652376
0110010011100000100001000: 581938 554368 540984 480527 607701
0110010011100000100001000: 581938 554368 540984 480527 462691
0110010010100010100000100: 581938 554368 540984 480527 522862
0110010011100000100001000: 581938 554368 540984 521492 552290
0110010011100000100001000: 581938 554368 540984 521492 652376
0110010011100000100001000: 581938 554368 540984 521492 607701
0110010011100000100001000: 581938 554368 540984 521492 546147
0110010011100000100001000: 581938 554368 540984 521492 480527
0110010010100010100000100: 581938 554368 540984 521492 522862
0110010011100000100001000: 581938 554368 540984 518245 552290
0110010011100000100001000: 581938 554368 540984 518245 607701
0110010011100000100001000: 581938 554368 540984 518245 546147
0110010011100000100001000: 581938 554368 540984 518245 521492
0110010010100010100000100: 581938 554368 540984 518245 522862
0110010011100000100001000: 581938 554368 579988 607701 552290
0110010011100000100001000: 581938 554368 579988 607701 652376
0110010011100000100001000: 581938 554368 579988 546147 552290
0110010011100000100001000: 581938 554368 579988 546147 652376
0110010011100000100001000: 581938 554368 579988 546147 607701
0110010011100000100001000: 581938 554368 579988 462691 607701
0110010011100000100001000: 581938 554368 579988 480527 552290
0110010011100000100001000: 581938 554368 579988 480527 652376
0110010011100000100001000: 581938 554368 579988 480527 607701
0110010011100000100001000: 581938 554368 579988 480527 462691
0110010011100000100001000: 581938 554368 579988 518245 552290
0110010011100000100001000: 581938 554368 579988 518245 607701
0110010011100000100001000: 581938 554368 579988 518245 546147
0110010010100010100000100: 579988 521492 581938 611312 540984
0110010011100000100001000: 579988 521492 581938 462691 611312
0110010010100010100000100: 579988 521492 581938 462691 540984
0110010011100000100001000: 652376 518245 552290 621663 528530
0110010011100000100001000: 652376 518245 552290 480527 528530
0110010011100000100001000: 652376 518245 552290 480527 621663
0110010010100010100000100: 552290 462691 506929 528530 607701
0110010011100000100001000: 552290 462691 506929 546147 528530
0110010010100010100000100: 552290 462691 506929 546147 607701
0110010011100000100001000: 552290 462691 506929 521492 528530
0110010011100000100001000: 552290 462691 506929 521492 546147
0110010010100010100000100: 552290 462691 506929 521492 607701
0111010100110001000100010: 552290 462691 652376 506929 607701
0110010011100000100001000: 552290 554368 506929 546147 581938
0110010011100000100001000: 552290 554368 506929 480527 581938
0110010011100000100001000: 552290 554368 506929 521492 581938
0110010011100000100001000: 552290 554368 506929 521492 546147
0110010011100000100001000: 552290 554368 506929 521492 480527
0111110110110101110010000: 552290 554368 462691 652376 506929
0110010010100010100000100: 621663 518245 611312 528530 521492
0110010011100000100001000: 621663 518245 611312 652376 528530
0110010010100010100000100: 621663 518245 611312 652376 521492
0110010011100000100001000: 621663 518245 611312 506929 528530
0110010011100000100001000: 621663 518245 611312 506929 652376
0110010010100010100000100: 621663 518245 611312 506929 521492
0110010011100000100001000: 621663 518245 611312 462691 506929
0110010011100000100001000: 621663 518245 611312 480527 528530
0110010011100000100001000: 621663 518245 611312 480527 652376
0110010011100000100001000: 621663 518245 611312 480527 506929
0110010011100000100001000: 621663 518245 611312 480527 462691
0110010010100010100000100: 621663 518245 611312 480527 521492
0110010011100000100001000: 621663 518245 611312 554368 528530
0110010011100000100001000: 621663 518245 611312 554368 506929
0110010010100010100000100: 611312 521492 621663 579988 518245
0110010011100000100001000: 611312 521492 621663 462691 579988
0110010011100000100001000: 611312 521492 621663 554368 579988
0110010011100000100001000: 540984 581938 522862 554368 579988
0110010010100010100000100: 540984 522862 581938 608838 579988
0110010010100010100000100: 540984 522862 581938 608838 554368
0110010011100000100001000: 528530 642048 462691 608838 607701
0110010011100000100001000: 528530 642048 518245 608838 607701
0110010010100010100000100: 528530 462691 642048 552290 607701
0110010010100010100000100: 528530 462691 642048 552290 608838
0110010010100010100000100: 528530 462691 642048 652376 607701
0110010010100010100000100: 528530 462691 642048 652376 608838
0110010011100000100001000: 528530 462691 642048 546147 552290
0110010011100000100001000: 528530 462691 642048 546147 652376
0110010010100010100000100: 528530 462691 642048 546147 607701
0110010010100010100000100: 528530 462691 642048 546147 608838
0110010011100000100001000: 528530 462691 642048 521492 552290
0110010011100000100001000: 528530 462691 642048 521492 652376
0110010011100000100001000: 528530 462691 642048 521492 546147
0110010010100010100000100: 528530 462691 642048 521492 607701
0110010010100010100000100: 528530 462691 642048 521492 608838
0110010010100010100000100: 528530 462691 642048 554368 608838
0110010010100010100000100: 528530 518245 642048 621663 607701
0110010010100010100000100: 528530 518245 642048 621663 608838
0110010011100000100001000: 528530 518245 642048 652376 621663
0110010010100010100000100: 528530 518245 642048 652376 607701
0110010010100010100000100: 528530 518245 642048 652376 608838
0110010011100000100001000: 528530 518245 642048 506929 621663
0110010011100000100001000: 528530 518245 642048 506929 652376
0110010010100010100000100: 528530 518245 642048 506929 608838
0110010011100000100001000: 528530 518245 642048 480527 621663
0110010011100000100001000: 528530 518245 642048 480527 652376
0110010011100000100001000: 528530 518245 642048 480527 506929
0110010010100010100000100: 528530 518245 642048 480527 607701
0110010010100010100000100: 528530 518245 642048 480527 608838
0110010011100000100001000: 528530 518245 642048 554368 621663
0110010011100000100001000: 528530 518245 642048 554368 506929
0110010010100010100000100: 528530 518245 642048 554368 608838
0111010100110001000100010: 528530 518245 462691 642048 607701
0111010100110001000100010: 528530 518245 462691 642048 608838
