Vertex,0111100110001100,0101101001001000,0101101001011010,0110100010010010,0111100110011110,0110101111000100,0100101101000100,0111101011001000,0100101001010010,0101101101011110,0111100010001000,0111101011011010,0110100110000100,0110101011010010,0111101111001100,0100101101010110,0111100010011010,0110101111010110,0101101101001100,0110100110010110
462691,165.0,230.0,109.0,438.0,11.0,244.0,34.0,516.0,134.0,15.0,510.0,102.0,829.0,168.0,108.0,10.0,131.0,95.0,44.0,305.0
465364,20.0,108.0,38.0,245.0,0.0,32.0,14.0,71.0,62.0,0.0,346.0,0.0,494.0,22.0,0.0,0.0,18.0,0.0,4.0,105.0
587182,4.0,101.0,16.0,206.0,0.0,8.0,10.0,20.0,58.0,0.0,265.0,0.0,425.0,4.0,0.0,0.0,4.0,0.0,0.0,35.0
555691,63.0,107.0,98.0,195.0,1.0,95.0,12.0,208.0,57.0,0.0,322.0,14.0,375.0,63.0,18.0,2.0,41.0,10.0,14.0,272.0
572897,40.0,68.0,11.0,154.0,1.0,63.0,4.0,135.0,52.0,1.0,131.0,16.0,268.0,45.0,18.0,2.0,35.0,17.0,10.0,35.0
613865,135.0,145.0,46.0,300.0,10.0,178.0,18.0,388.0,97.0,13.0,252.0,98.0,522.0,121.0,108.0,6.0,84.0,88.0,30.0,138.0
472523,56.0,138.0,40.0,257.0,5.0,96.0,12.0,217.0,71.0,7.0,254.0,38.0,455.0,60.0,36.0,0.0,38.0,41.0,12.0,101.0
478388,172.0,140.0,56.0,304.0,10.0,235.0,14.0,508.0,80.0,13.0,285.0,98.0,538.0,160.0,108.0,8.0,119.0,88.0,40.0,169.0
603147,65.0,103.0,16.0,230.0,1.0,94.0,8.0,200.0,49.0,0.0,236.0,14.0,429.0,64.0,18.0,2.0,46.0,10.0,16.0,35.0
641952,82.0,84.0,24.0,148.0,5.0,135.0,0.0,301.0,43.0,7.0,136.0,38.0,296.0,87.0,36.0,2.0,65.0,41.0,18.0,66.0
545837,8.0,44.0,16.0,110.0,0.0,12.0,8.0,20.0,25.0,0.0,120.0,0.0,212.0,12.0,0.0,0.0,2.0,0.0,4.0,35.0
458628,54.0,118.0,22.0,245.0,2.0,65.0,24.0,134.0,79.0,4.0,271.0,30.0,459.0,47.0,36.0,2.0,32.0,27.0,14.0,70.0
591937,34.0,76.0,41.0,187.0,0.0,48.0,16.0,84.0,66.0,0.0,107.0,0.0,291.0,48.0,0.0,0.0,14.0,0.0,16.0,105.0
460145,100.0,230.0,113.0,423.0,8.0,139.0,36.0,288.0,144.0,11.0,461.0,44.0,792.0,98.0,36.0,12.0,88.0,48.0,28.0,303.0
608476,69.0,108.0,42.0,207.0,6.0,98.0,14.0,209.0,76.0,9.0,208.0,52.0,371.0,67.0,54.0,2.0,40.0,51.0,18.0,103.0
626954,23.0,52.0,0.0,108.0,0.0,26.0,4.0,62.0,40.0,0.0,107.0,0.0,203.0,14.0,0.0,0.0,8.0,0.0,4.0,0.0
553917,10.0,52.0,0.0,115.0,0.0,14.0,12.0,28.0,40.0,0.0,86.0,0.0,177.0,10.0,0.0,0.0,4.0,0.0,4.0,0.0
612854,10.0,48.0,16.0,91.0,0.0,14.0,12.0,28.0,21.0,0.0,116.0,0.0,182.0,10.0,0.0,0.0,4.0,0.0,4.0,35.0
650961,10.0,81.0,0.0,197.0,0.0,12.0,8.0,20.0,77.0,0.0,125.0,0.0,323.0,12.0,0.0,0.0,9.0,0.0,4.0,0.0
615836,0.0,16.0,0.0,33.0,0.0,0.0,4.0,0.0,6.0,0.0,54.0,0.0,76.0,0.0,0.0,0.0,0.0,0.0,0.0,0.0
654575,8.0,71.0,0.0,171.0,0.0,12.0,8.0,19.0,82.0,0.0,110.0,0.0,257.0,12.0,0.0,0.0,2.0,0.0,4.0,0.0
509353,4.0,51.0,0.0,91.0,0.0,8.0,0.0,20.0,22.0,0.0,104.0,0.0,185.0,4.0,0.0,0.0,4.0,0.0,0.0,0.0
578751,0.0,15.0,0.0,43.0,0.0,0.0,0.0,0.0,17.0,0.0,38.0,0.0,90.0,0.0,0.0,0.0,0.0,0.0,0.0,0.0
547598,0.0,18.0,0.0,46.0,0.0,0.0,0.0,0.0,6.0,0.0,0.0,0.0,83.0,0.0,0.0,0.0,0.0,0.0,0.0,0.0
graph,283.0,551.0,176.0,1136.0,15.0,407.0,68.0,869.0,351.0,20.0,1161.0,136.0,2083.0,282.0,144.0,12.0,197.0,129.0,72.0,478.0
