Vertex,0111101011001000,0111100010001000,0110101011010010,0101101001001000,0100101101010110,0110100010010010,0110101111000100,0101101101001100,0100101101000100,0110100110000100,0111100110001100,0101101001011010,0100101001010010,0111100010011010,0110100110010110
648939,78.0,149.0,28.0,87.0,0.0,179.0,38.0,8.0,12.0,315.0,25.0,0.0,66.0,19.0,0.0
474172,10.0,102.0,2.0,57.0,0.0,114.0,4.0,0.0,4.0,216.0,2.0,0.0,35.0,2.0,0.0
606887,0.0,24.0,0.0,22.0,0.0,61.0,0.0,0.0,4.0,87.0,0.0,0.0,22.0,0.0,0.0
532661,10.0,40.0,2.0,16.0,0.0,24.0,4.0,0.0,0.0,56.0,2.0,0.0,2.0,2.0,0.0
613581,78.0,39.0,28.0,35.0,0.0,69.0,38.0,8.0,0.0,135.0,25.0,0.0,18.0,19.0,0.0
509056,78.0,146.0,28.0,37.0,0.0,117.0,38.0,8.0,2.0,272.0,25.0,0.0,24.0,19.0,0.0
467288,23.0,117.0,7.0,98.0,2.0,165.0,11.0,2.0,10.0,293.0,8.0,0.0,60.0,12.0,0.0
514373,0.0,184.0,0.0,69.0,0.0,149.0,0.0,0.0,8.0,310.0,0.0,6.0,52.0,0.0,37.0
504074,21.0,15.0,12.0,25.0,0.0,51.0,12.0,4.0,0.0,90.0,8.0,0.0,16.0,2.0,0.0
592533,14.0,39.0,5.0,14.0,0.0,44.0,7.0,2.0,2.0,95.0,5.0,0.0,10.0,2.0,0.0
578494,23.0,221.0,7.0,29.0,0.0,141.0,11.0,2.0,2.0,323.0,8.0,6.0,19.0,19.0,37.0
555968,33.0,53.0,9.0,41.0,2.0,68.0,15.0,2.0,4.0,145.0,10.0,0.0,24.0,22.0,0.0
617180,0.0,100.0,0.0,60.0,0.0,112.0,0.0,0.0,8.0,213.0,0.0,0.0,43.0,0.0,0.0
503088,0.0,53.0,0.0,33.0,0.0,60.0,0.0,0.0,4.0,118.0,0.0,0.0,20.0,0.0,0.0
584193,0.0,24.0,0.0,20.0,0.0,60.0,0.0,0.0,4.0,80.0,0.0,0.0,26.0,0.0,0.0
594789,10.0,68.0,2.0,28.0,0.0,40.0,4.0,0.0,0.0,104.0,2.0,6.0,15.0,2.0,37.0
500965,0.0,30.0,0.0,22.0,0.0,62.0,0.0,0.0,0.0,103.0,0.0,0.0,22.0,0.0,0.0
493059,0.0,0.0,0.0,12.0,0.0,47.0,0.0,0.0,0.0,62.0,0.0,0.0,10.0,0.0,0.0
617996,0.0,72.0,0.0,6.0,0.0,49.0,0.0,0.0,0.0,114.0,0.0,0.0,9.0,0.0,0.0
462631,33.0,113.0,9.0,30.0,2.0,73.0,15.0,2.0,0.0,194.0,10.0,6.0,25.0,22.0,37.0
588818,33.0,15.0,9.0,9.0,2.0,22.0,15.0,2.0,0.0,55.0,10.0,0.0,6.0,22.0,0.0
626494,0.0,30.0,0.0,23.0,0.0,65.0,0.0,0.0,0.0,108.0,0.0,0.0,21.0,0.0,0.0
623404,0.0,15.0,0.0,8.0,0.0,27.0,0.0,0.0,0.0,58.0,0.0,0.0,9.0,0.0,0.0
611417,0.0,15.0,0.0,7.0,0.0,25.0,0.0,0.0,0.0,58.0,0.0,0.0,8.0,0.0,0.0
487796,0.0,0.0,0.0,8.0,0.0,28.0,0.0,0.0,0.0,48.0,0.0,0.0,6.0,0.0,0.0
graph,111.0,416.0,37.0,199.0,2.0,463.0,53.0,10.0,16.0,913.0,35.0,6.0,142.0,41.0,37.0
