0111010110110011100000100: 646807 492205 474307 647162 539928
0111010110110011100000100: 646807 492205 474307 647162 483522
0111110110110001100010000: 646807 492205 647162 474307 591565
0111110110110001100010000: 646807 492205 647162 474307 491071
0110010011100000100001000: 646807 474307 591565 483522 539928
0110010011100000100001000: 646807 474307 491071 483522 539928
0110010011100000100001000: 646807 474307 647162 483522 539928
0111010101110001000001000: 646807 474307 492205 591565 539928
0111010101110001000001000: 646807 474307 492205 591565 483522
0111010101110001000001000: 646807 474307 492205 491071 539928
0111010101110001000001000: 646807 474307 492205 491071 483522
0111010100110001000100010: 646807 474307 492205 491071 638888
0110010010100010100000100: 646807 491071 474307 638888 539928
0110010010100010100000100: 646807 491071 474307 638888 483522
0111010101110001000001000: 646807 491071 591565 492205 638888
0111010101110001000001000: 646807 491071 591565 474307 638888
0111010100110001000100010: 646807 491071 591565 474307 539928
0111010100110001000100010: 646807 491071 591565 474307 483522
0111110100110001000110010: 646807 491071 591565 474307 492205
0111110100110001000010000: 646807 491071 591565 647162 474307
0111010101110001000001000: 646807 491071 591565 647162 638888
0111010100110001000100010: 646807 647162 492205 491071 638888
0111110100110001000110010: 646807 647162 492205 491071 591565
0110010010100010100000100: 491071 646807 638888 492205 598372
0110010010100010100000100: 491071 646807 638888 474307 598372
0110010011100000100001000: 491071 646807 638888 647162 474307
0110010010100010100000100: 491071 646807 638888 647162 598372
0111010100110001000100010: 491071 646807 591565 638888 598372
0110010011100000100001000: 483522 474307 598372 492205 539928
0110010011100000100001000: 483522 474307 598372 646807 539928
0110010010100010100000100: 483522 598372 474307 638888 539928
0110010010100010100000100: 483522 598372 474307 638888 492205
0110010010100010100000100: 483522 598372 474307 638888 646807
0110010010100010100000100: 598372 483522 638888 474307 491071
0110010010100010100000100: 474307 483522 492205 598372 647162
0110010011100000100001000: 474307 646807 539928 647162 591565
0110010011100000100001000: 474307 646807 539928 647162 491071
0110010010100010100000100: 474307 646807 483522 591565 598372
0110010010100010100000100: 474307 646807 483522 491071 598372
0110010011100000100001000: 474307 646807 483522 647162 591565
0110010011100000100001000: 474307 646807 483522 647162 491071
0110010010100010100000100: 474307 646807 483522 647162 598372
0111110100110001000010000: 474307 646807 492205 483522 539928
0111010100110001000100010: 474307 646807 492205 483522 598372
0110010011100000100001000: 492205 474307 647162 483522 539928
0110010010100010100000100: 638888 491071 598372 591565 483522
0110010010100010100000100: 638888 491071 598372 646807 483522
