Vertex,0100101001010010,0110100110010110,0111100010001000,0110100010010010,0101101101001100,0110101111000100,0111101011001000,0110100110000100,0101101001011010,0100101101010110,0111100110001100,0100101101000100,0110101011010010,0111100010011010,0101101001001000
523068,23.0,144.0,224.0,167.0,4.0,47.0,116.0,301.0,29.0,2.0,46.0,10.0,26.0,31.0,62.0
604584,16.0,107.0,128.0,99.0,4.0,37.0,89.0,205.0,23.0,4.0,38.0,6.0,22.0,41.0,38.0
587742,3.0,35.0,39.0,48.0,0.0,5.0,14.0,81.0,11.0,0.0,5.0,4.0,2.0,2.0,18.0
622296,27.0,109.0,216.0,154.0,4.0,47.0,117.0,299.0,22.0,2.0,46.0,6.0,26.0,30.0,48.0
569930,32.0,72.0,191.0,150.0,0.0,10.0,28.0,280.0,12.0,0.0,11.0,10.0,4.0,11.0,55.0
543969,12.0,0.0,72.0,85.0,4.0,42.0,103.0,190.0,0.0,0.0,40.0,0.0,24.0,21.0,38.0
621421,19.0,35.0,74.0,89.0,4.0,32.0,75.0,172.0,10.0,4.0,33.0,6.0,20.0,39.0,28.0
616661,0.0,35.0,54.0,50.0,0.0,5.0,13.0,101.0,11.0,0.0,5.0,0.0,2.0,2.0,22.0
471730,17.0,144.0,200.0,111.0,4.0,37.0,89.0,230.0,28.0,4.0,38.0,10.0,22.0,41.0,38.0
541584,15.0,0.0,54.0,52.0,0.0,0.0,0.0,102.0,0.0,0.0,0.0,4.0,0.0,0.0,16.0
612606,22.0,0.0,78.0,72.0,0.0,0.0,0.0,133.0,0.0,0.0,0.0,4.0,0.0,0.0,23.0
491440,21.0,0.0,48.0,78.0,4.0,12.0,20.0,168.0,0.0,0.0,10.0,0.0,12.0,9.0,19.0
623455,0.0,0.0,54.0,24.0,0.0,5.0,14.0,66.0,0.0,0.0,5.0,0.0,2.0,2.0,12.0
538098,25.0,35.0,113.0,101.0,4.0,17.0,34.0,210.0,10.0,0.0,15.0,2.0,14.0,11.0,30.0
475554,10.0,0.0,0.0,39.0,0.0,0.0,0.0,55.0,0.0,0.0,0.0,0.0,0.0,0.0,10.0
531767,34.0,0.0,83.0,95.0,0.0,0.0,0.0,186.0,0.0,0.0,0.0,2.0,0.0,0.0,23.0
480025,12.0,0.0,24.0,34.0,0.0,0.0,0.0,69.0,0.0,0.0,0.0,0.0,0.0,0.0,4.0
graph,72.0,179.0,413.0,362.0,8.0,74.0,178.0,712.0,39.0,4.0,73.0,16.0,44.0,60.0,121.0
