Vertex,0110100110010110,0111100110001100,0101101001001000,0111100010011010,0110100010010010,0100101001010010,0100101101000100,0110101111000100,0101101001011010,0111100010001000,0111101011001000,0110100110000100,0101101101001100,0110101011010010
561428,70.0,13.0,64.0,10.0,110.0,8.0,4.0,23.0,22.0,158.0,53.0,224.0,2.0,13.0
622682,0.0,13.0,16.0,10.0,21.0,2.0,0.0,23.0,0.0,48.0,53.0,50.0,2.0,13.0
577851,35.0,13.0,24.0,10.0,32.0,4.0,0.0,23.0,16.0,48.0,53.0,72.0,2.0,13.0
634694,35.0,2.0,18.0,2.0,30.0,0.0,0.0,4.0,6.0,72.0,10.0,63.0,0.0,2.0
536571,35.0,2.0,18.0,2.0,30.0,0.0,0.0,4.0,6.0,72.0,10.0,63.0,0.0,2.0
636740,0.0,2.0,34.0,2.0,63.0,10.0,2.0,4.0,0.0,87.0,10.0,129.0,0.0,2.0
537354,35.0,2.0,38.0,2.0,63.0,14.0,2.0,4.0,16.0,87.0,10.0,131.0,0.0,2.0
518387,35.0,0.0,16.0,0.0,30.0,0.0,0.0,0.0,6.0,0.0,0.0,56.0,0.0,0.0
567846,35.0,5.0,24.0,2.0,30.0,4.0,2.0,7.0,16.0,15.0,13.0,72.0,2.0,5.0
656339,0.0,0.0,18.0,0.0,41.0,14.0,2.0,0.0,0.0,15.0,0.0,73.0,0.0,0.0
541839,0.0,0.0,12.0,0.0,18.0,0.0,2.0,0.0,0.0,15.0,0.0,42.0,0.0,0.0
583854,0.0,0.0,22.0,0.0,44.0,16.0,2.0,0.0,0.0,15.0,0.0,81.0,0.0,0.0
graph,70.0,13.0,76.0,10.0,128.0,18.0,4.0,23.0,22.0,158.0,53.0,264.0,2.0,13.0
