0110100110000100: 559851 519467 641064 527167
0110100110000100: 559851 519467 641064 616677
0110100010010010: 559851 519467 641064 460288
0110100110000100: 559851 519467 641064 527167
0110100110000100: 559851 519467 641064 616677
0110100110000100: 559851 519467 641064 527167
0110100110000100: 559851 519467 641064 616677
0110100010010010: 559851 519467 641064 460288
0110100110000100: 559851 519467 641064 527167
0110100110000100: 559851 519467 641064 616677
0110100110000100: 559851 519467 641064 527167
0110100110000100: 559851 519467 641064 616677
0110100010010010: 559851 519467 641064 460288
0110100110000100: 559851 641064 519467 460288
0110100010010010: 559851 641064 519467 527167
0110100010010010: 559851 641064 519467 616677
0110100110000100: 559851 641064 519467 460288
0110100110000100: 559851 641064 519467 460288
0110100110000100: 559851 641064 519467 460288
0110100110000100: 559851 641064 519467 460288
0110100110000100: 559851 641064 519467 460288
0110100110000100: 641064 460288 559851 506471
0110100110000100: 641064 460288 559851 557958
0110100010010010: 641064 460288 559851 519467
0110100110000100: 641064 460288 559851 506471
0110100110000100: 641064 460288 559851 557958
0110100110000100: 641064 460288 559851 506471
0110100110000100: 641064 460288 559851 557958
0110100010010010: 641064 460288 559851 519467
0110100110000100: 641064 460288 559851 506471
0110100110000100: 641064 460288 559851 557958
0110100110000100: 641064 460288 559851 506471
0110100110000100: 641064 460288 559851 557958
0110100010010010: 641064 460288 559851 519467
0110100010010010: 641064 559851 460288 506471
0110100010010010: 641064 559851 460288 557958
0110100110000100: 641064 559851 460288 519467
0110100110000100: 641064 559851 460288 519467
0110100110000100: 641064 559851 460288 519467
0110100110000100: 641064 559851 460288 519467
0110100110000100: 557958 460288 616677 506471
0110100110000100: 557958 460288 616677 641064
0110100010010010: 557958 460288 616677 519467
0110100010010010: 557958 460288 616677 558222
0110100110000100: 557958 460288 616677 506471
0110100110000100: 557958 460288 616677 641064
0110100110000100: 557958 460288 616677 506471
0110100110000100: 557958 460288 616677 641064
0110100110000100: 557958 460288 616677 506471
0110100110000100: 557958 460288 616677 641064
0110100110000100: 557958 460288 616677 506471
0110100110000100: 557958 460288 616677 641064
0110100110000100: 557958 460288 616677 506471
0110100110000100: 557958 460288 616677 641064
0110100110000100: 557958 616677 460288 519467
0110100110000100: 557958 616677 460288 558222
0110100010010010: 557958 616677 460288 506471
0110100010010010: 557958 616677 460288 641064
0110100110000100: 557958 616677 460288 519467
0110100110000100: 557958 616677 460288 558222
0110100110000100: 557958 616677 460288 519467
0110100110000100: 557958 616677 460288 558222
0110100110000100: 557958 616677 460288 519467
0110100110000100: 557958 616677 460288 558222
0110100110000100: 557958 616677 460288 519467
0110100110000100: 557958 616677 460288 558222
0110100110000100: 557958 616677 460288 519467
0110100110000100: 557958 616677 460288 558222
0101101001001000: 616677 558222 595273 519467
0101101001001000: 616677 558222 595273 557958
0111100010001000: 616677 557958 558222 519467
0101101001001000: 616677 557958 460288 519467
0101101001001000: 616677 557958 460288 558222
0110100110000100: 616677 519467 558222 527167
0110100110000100: 616677 519467 558222 559851
0110100010010010: 616677 519467 558222 595273
0110100010010010: 616677 519467 558222 595273
0111100010001000: 616677 519467 557958 558222
0110100110000100: 616677 519467 557958 527167
0110100110000100: 616677 519467 557958 559851
0110100010010010: 616677 519467 557958 460288
0110100010010010: 616677 519467 557958 460288
0110100110000100: 616677 519467 558222 527167
0110100110000100: 616677 519467 558222 559851
0110100110000100: 616677 519467 558222 527167
0110100110000100: 616677 519467 558222 559851
0110100010010010: 616677 519467 558222 595273
0110100110000100: 616677 519467 557958 527167
0110100110000100: 616677 519467 557958 559851
0110100110000100: 616677 519467 557958 527167
0110100110000100: 616677 519467 557958 559851
0110100010010010: 616677 519467 557958 460288
0111100010001000: 616677 519467 558222 557958
0111100010001000: 616677 519467 558222 557958
0110100010010010: 616677 519467 558222 595273
0111100010001000: 616677 519467 557958 558222
0111100010001000: 616677 519467 557958 558222
0110100010010010: 616677 519467 557958 460288
0110100110000100: 616677 519467 558222 527167
0110100110000100: 616677 519467 558222 559851
0110100110000100: 616677 519467 558222 527167
0110100110000100: 616677 519467 558222 559851
0111100010001000: 616677 519467 558222 557958
0110100010010010: 616677 519467 558222 595273
0110100010010010: 616677 519467 558222 595273
0110100110000100: 616677 519467 557958 527167
0110100110000100: 616677 519467 557958 559851
0110100110000100: 616677 519467 557958 527167
0110100110000100: 616677 519467 557958 559851
0111100010001000: 616677 519467 557958 558222
0111100010001000: 616677 519467 557958 558222
0110100010010010: 616677 519467 557958 460288
0110100010010010: 616677 519467 557958 460288
0110100110000100: 616677 558222 519467 595273
0110100010010010: 616677 558222 519467 527167
0110100010010010: 616677 558222 519467 559851
0111100010001000: 616677 558222 557958 519467
0110100110000100: 616677 558222 557958 595273
0110100010010010: 616677 558222 557958 460288
0110100010010010: 616677 558222 557958 460288
0111100010001000: 616677 558222 519467 557958
0110100110000100: 616677 558222 519467 595273
0110100110000100: 616677 558222 519467 595273
0110100110000100: 616677 558222 519467 595273
0110100110000100: 616677 558222 557958 595273
0110100110000100: 616677 558222 557958 595273
0110100110000100: 616677 558222 557958 595273
0101101001001000: 616677 558222 595273 519467
0101101001001000: 616677 558222 595273 557958
0100101001010010: 616677 558222 595273 527167
0100101001010010: 616677 558222 595273 527167
0100101001010010: 616677 558222 595273 527167
0110100010010010: 616677 557958 519467 527167
0110100010010010: 616677 557958 519467 559851
0111100010001000: 616677 557958 558222 519467
0110100010010010: 616677 557958 558222 595273
0110100010010010: 616677 557958 558222 595273
0111100010001000: 616677 557958 519467 558222
0110100110000100: 616677 557958 519467 460288
0110100110000100: 616677 557958 519467 460288
0111100010001000: 616677 557958 558222 519467
0111100010001000: 616677 557958 558222 519467
0110100110000100: 616677 557958 558222 460288
0110100110000100: 616677 557958 558222 460288
0101101001001000: 616677 557958 460288 519467
0101101001001000: 616677 557958 460288 558222
0100101001010010: 616677 557958 460288 506471
0100101001010010: 616677 557958 460288 641064
0100101001010010: 616677 557958 460288 506471
0100101001010010: 616677 557958 460288 641064
0101101001001000: 616677 557958 460288 519467
0101101001001000: 616677 557958 460288 558222
0101101001001000: 616677 557958 460288 519467
0101101001001000: 616677 557958 460288 558222
0101101001001000: 460288 557958 616677 506471
0101101001001000: 460288 557958 616677 641064
0111100010001000: 460288 641064 557958 506471
0101101001001000: 460288 641064 559851 506471
0101101001001000: 460288 641064 559851 557958
0110100010010010: 460288 506471 557958 616677
0110100010010010: 460288 506471 557958 616677
0111100010001000: 460288 506471 641064 557958
0110100010010010: 460288 506471 641064 559851
0110100010010010: 460288 506471 641064 559851
0111100010001000: 460288 557958 641064 506471
0110100010010010: 460288 557958 641064 559851
0110100010010010: 460288 557958 641064 559851
0111100010001000: 460288 557958 506471 641064
0110100110000100: 460288 557958 506471 616677
0110100110000100: 460288 557958 506471 616677
0110100110000100: 460288 557958 641064 616677
0110100110000100: 460288 557958 641064 616677
0101101001001000: 460288 557958 616677 506471
0101101001001000: 460288 557958 616677 641064
0100101001010010: 460288 557958 616677 519467
0100101001010010: 460288 557958 616677 558222
0100101001010010: 460288 557958 616677 519467
0100101001010010: 460288 557958 616677 558222
0101101001001000: 460288 557958 616677 506471
0101101001001000: 460288 557958 616677 641064
0101101001001000: 460288 557958 616677 506471
0111100010001000: 460288 641064 557958 506471
0110100010010010: 460288 641064 557958 616677
0110100010010010: 460288 641064 557958 616677
0111100010001000: 460288 641064 506471 557958
0110100110000100: 460288 641064 506471 559851
0110100110000100: 460288 641064 506471 559851
0111100010001000: 460288 641064 557958 506471
0111100010001000: 460288 641064 557958 506471
0110100110000100: 460288 641064 557958 559851
0110100110000100: 460288 641064 557958 559851
0101101001001000: 460288 641064 559851 506471
0101101001001000: 460288 641064 559851 557958
0100101001010010: 460288 641064 559851 519467
0100101001010010: 460288 641064 559851 519467
0100101001010010: 460288 641064 559851 519467
0110100110000100: 558222 595273 616677 527167
0110100010010010: 558222 595273 616677 519467
0110100010010010: 558222 595273 616677 557958
0110100110000100: 558222 595273 616677 527167
0110100110000100: 558222 595273 616677 527167
0110100110000100: 558222 595273 616677 527167
0110100110000100: 558222 595273 616677 527167
0110100110000100: 558222 595273 616677 527167
0110100010010010: 558222 616677 595273 527167
0110100110000100: 558222 616677 595273 519467
0110100110000100: 558222 616677 595273 557958
0110100010010010: 558222 616677 595273 527167
0110100110000100: 558222 616677 595273 519467
0110100110000100: 558222 616677 595273 557958
0110100110000100: 558222 616677 595273 519467
0110100110000100: 558222 616677 595273 557958
0110100010010010: 558222 616677 595273 527167
0101101001001000: 519467 527167 595273 616677
0101101001001000: 519467 527167 595273 559851
0111100010001000: 519467 559851 616677 527167
0101101001001000: 519467 559851 641064 527167
0101101001001000: 519467 559851 641064 616677
0110100110000100: 519467 527167 616677 595273
0110100010010010: 519467 527167 616677 558222
0110100010010010: 519467 527167 616677 557958
0111100010001000: 519467 527167 559851 616677
0110100110000100: 519467 527167 559851 595273
0110100010010010: 519467 527167 559851 641064
0110100010010010: 519467 527167 559851 641064
0110100110000100: 519467 527167 616677 595273
0110100110000100: 519467 527167 616677 595273
0110100110000100: 519467 527167 616677 595273
0110100110000100: 519467 527167 559851 595273
0110100110000100: 519467 527167 559851 595273
0110100110000100: 519467 527167 559851 595273
0101101001001000: 519467 527167 595273 616677
0101101001001000: 519467 527167 595273 559851
0100101001010010: 519467 527167 595273 558222
0100101001010010: 519467 527167 595273 558222
0100101001010010: 519467 527167 595273 558222
0110100010010010: 519467 616677 527167 595273
0110100010010010: 519467 616677 527167 595273
0111100010001000: 519467 616677 559851 527167
0110100010010010: 519467 616677 559851 641064
0110100010010010: 519467 616677 559851 641064
0111100010001000: 519467 616677 527167 559851
0110100110000100: 519467 616677 527167 558222
0110100110000100: 519467 616677 527167 557958
0110100010010010: 519467 616677 527167 595273
0110100110000100: 519467 616677 559851 558222
0110100110000100: 519467 616677 559851 557958
0110100010010010: 519467 616677 559851 641064
0111100010001000: 519467 616677 527167 559851
0111100010001000: 519467 616677 527167 559851
0110100010010010: 519467 616677 527167 595273
0111100010001000: 519467 616677 559851 527167
0111100010001000: 519467 616677 559851 527167
0110100010010010: 519467 616677 559851 641064
0110100110000100: 519467 616677 527167 558222
0110100110000100: 519467 616677 527167 557958
0110100110000100: 519467 616677 527167 558222
0110100110000100: 519467 616677 527167 557958
0111100010001000: 519467 616677 527167 559851
0110100010010010: 519467 616677 527167 595273
0110100010010010: 519467 616677 527167 595273
0110100110000100: 519467 616677 559851 558222
0110100110000100: 519467 616677 559851 557958
0110100110000100: 519467 616677 559851 558222
0110100110000100: 519467 616677 559851 557958
0111100010001000: 519467 616677 559851 527167
0111100010001000: 519467 616677 559851 527167
0110100010010010: 519467 616677 559851 641064
0110100010010010: 519467 616677 559851 641064
0110100010010010: 519467 559851 527167 595273
0110100010010010: 519467 559851 527167 595273
0111100010001000: 519467 559851 616677 527167
0110100010010010: 519467 559851 616677 558222
0110100010010010: 519467 559851 616677 557958
0111100010001000: 519467 559851 527167 616677
0110100110000100: 519467 559851 527167 641064
0110100110000100: 519467 559851 527167 641064
0111100010001000: 519467 559851 616677 527167
0111100010001000: 519467 559851 616677 527167
0110100110000100: 519467 559851 616677 641064
0110100110000100: 519467 559851 616677 641064
0101101001001000: 519467 559851 641064 527167
0101101001001000: 519467 559851 641064 616677
0100101001010010: 519467 559851 641064 460288
0100101001010010: 519467 559851 641064 460288
0100101001010010: 519467 559851 641064 460288
0110100110000100: 595273 527167 558222 519467
0110100010010010: 595273 527167 558222 616677
0110100110000100: 595273 527167 558222 519467
0110100110000100: 595273 527167 558222 519467
0110100110000100: 595273 527167 558222 519467
0110100110000100: 595273 527167 558222 519467
0110100110000100: 595273 527167 558222 519467
0110100010010010: 595273 558222 527167 519467
0110100110000100: 595273 558222 527167 616677
0110100110000100: 595273 558222 527167 616677
0110100110000100: 595273 558222 527167 616677
0110100110000100: 595273 558222 527167 616677
0110100010010010: 527167 595273 519467 616677
0110100010010010: 527167 595273 519467 559851
0110100110000100: 527167 595273 519467 558222
0110100110000100: 527167 595273 519467 558222
0110100110000100: 527167 595273 519467 558222
0110100110000100: 527167 595273 519467 558222
0110100010010010: 527167 519467 595273 558222
0110100110000100: 527167 519467 595273 616677
0110100110000100: 527167 519467 595273 559851
0110100010010010: 527167 519467 595273 558222
0110100110000100: 527167 519467 595273 616677
0110100110000100: 527167 519467 595273 559851
0110100110000100: 527167 519467 595273 616677
0110100110000100: 527167 519467 595273 559851
0110100010010010: 527167 519467 595273 558222
