Vertex,0110010010100010100000100,0111110111110001100011000,0111110100110001000110010,0111010101110001000001000,0111010101110001000101010,0111110110110001100010000,0111110100110001000010000,0111010100110001000100010,0111110110110011100010100,0110010011100100110001000,0111110111110111110011100,0111110000100001000010000,0111110111110101110011000,0111010110110011100000100,0111110110110101110010000,0110010010100010100100110,0110010011100000100001000,0111010110110011100100110
554368,107.0,14.0,7.0,123.0,8.0,105.0,120.0,83.0,7.0,25.0,3.0,84.0,21.0,42.0,31.0,1.0,258.0,1.0
563259,84.0,8.0,4.0,58.0,0.0,44.0,62.0,36.0,2.0,5.0,1.0,60.0,8.0,23.0,6.0,2.0,195.0,0.0
548828,59.0,0.0,0.0,24.0,5.0,22.0,45.0,24.0,0.0,18.0,0.0,48.0,0.0,0.0,5.0,0.0,115.0,0.0
572528,45.0,0.0,0.0,18.0,0.0,0.0,3.0,9.0,0.0,0.0,0.0,0.0,0.0,8.0,1.0,1.0,67.0,0.0
531256,46.0,0.0,0.0,18.0,0.0,0.0,3.0,9.0,0.0,0.0,0.0,0.0,0.0,8.0,1.0,1.0,67.0,0.0
537713,66.0,6.0,9.0,70.0,7.0,32.0,81.0,35.0,1.0,25.0,0.0,49.0,9.0,12.0,8.0,0.0,145.0,1.0
493564,67.0,6.0,4.0,41.0,3.0,57.0,54.0,39.0,5.0,12.0,3.0,46.0,8.0,22.0,11.0,0.0,120.0,0.0
567500,51.0,7.0,5.0,34.0,4.0,39.0,66.0,27.0,3.0,18.0,1.0,56.0,7.0,13.0,6.0,0.0,125.0,1.0
543618,30.0,0.0,0.0,29.0,0.0,22.0,45.0,13.0,0.0,3.0,0.0,48.0,0.0,0.0,5.0,1.0,100.0,0.0
630736,40.0,6.0,9.0,67.0,5.0,32.0,80.0,27.0,1.0,7.0,0.0,49.0,9.0,9.0,8.0,0.0,113.0,0.0
465161,21.0,1.0,2.0,38.0,0.0,27.0,41.0,9.0,5.0,3.0,0.0,40.0,2.0,6.0,3.0,0.0,89.0,0.0
550435,24.0,4.0,7.0,38.0,3.0,41.0,79.0,38.0,6.0,2.0,2.0,33.0,9.0,10.0,12.0,0.0,86.0,0.0
564617,33.0,5.0,8.0,59.0,1.0,50.0,77.0,46.0,9.0,4.0,2.0,24.0,11.0,16.0,11.0,0.0,79.0,0.0
561428,103.0,13.0,5.0,134.0,6.0,94.0,91.0,77.0,6.0,13.0,3.0,45.0,21.0,40.0,31.0,1.0,192.0,1.0
576666,37.0,0.0,0.0,20.0,2.0,0.0,3.0,21.0,0.0,12.0,0.0,0.0,0.0,5.0,1.0,0.0,88.0,0.0
595269,67.0,0.0,0.0,24.0,3.0,2.0,0.0,19.0,0.0,9.0,0.0,0.0,0.0,9.0,2.0,0.0,73.0,0.0
650294,63.0,0.0,0.0,36.0,4.0,0.0,3.0,18.0,0.0,16.0,0.0,0.0,0.0,10.0,2.0,0.0,82.0,1.0
474225,39.0,0.0,0.0,0.0,0.0,0.0,0.0,16.0,0.0,0.0,0.0,0.0,0.0,0.0,0.0,1.0,35.0,0.0
531130,37.0,0.0,0.0,22.0,2.0,0.0,0.0,20.0,0.0,6.0,0.0,0.0,0.0,5.0,1.0,0.0,53.0,0.0
511520,32.0,0.0,0.0,35.0,2.0,19.0,31.0,11.0,0.0,7.0,0.0,29.0,0.0,1.0,5.0,0.0,72.0,0.0
513887,31.0,0.0,0.0,37.0,0.0,19.0,31.0,12.0,0.0,2.0,0.0,29.0,0.0,1.0,5.0,1.0,82.0,0.0
550028,39.0,0.0,0.0,0.0,0.0,0.0,0.0,15.0,0.0,0.0,0.0,0.0,0.0,0.0,0.0,1.0,27.0,0.0
500420,29.0,0.0,0.0,0.0,0.0,0.0,0.0,6.0,0.0,2.0,0.0,0.0,0.0,0.0,0.0,0.0,6.0,0.0
638684,25.0,0.0,0.0,0.0,0.0,0.0,0.0,5.0,0.0,1.0,0.0,0.0,0.0,0.0,0.0,0.0,6.0,0.0
graph,235.0,14.0,12.0,185.0,11.0,121.0,183.0,123.0,9.0,38.0,3.0,128.0,21.0,48.0,31.0,2.0,455.0,1.0
