Vertex,0110101011010010,0101101101011110,0111101111001100,0111100110011110,0100101101010110,0100101101000100,0111101011011010,0101101001011010,0110100010010010,0101101001001000,0111100110001100,0111100010011010,0110100110000100,0110100110010110,0100101001010010,0101101101001100,0111100010001000,0110101111000100,0110101111010110,0111101011001000
521006,44.0,4.0,18.0,2.0,0.0,6.0,18.0,48.0,60.0,34.0,46.0,22.0,119.0,105.0,8.0,12.0,77.0,68.0,17.0,150.0
617118,34.0,4.0,18.0,2.0,2.0,2.0,18.0,32.0,53.0,30.0,44.0,25.0,96.0,70.0,17.0,8.0,31.0,56.0,17.0,129.0
507623,34.0,4.0,18.0,2.0,2.0,2.0,18.0,16.0,62.0,33.0,44.0,25.0,119.0,35.0,15.0,8.0,31.0,56.0,17.0,129.0
477980,42.0,0.0,0.0,0.0,2.0,2.0,0.0,32.0,70.0,47.0,36.0,23.0,143.0,70.0,26.0,12.0,39.0,54.0,0.0,109.0
548495,30.0,0.0,0.0,0.0,0.0,0.0,0.0,16.0,52.0,29.0,26.0,14.0,94.0,35.0,15.0,8.0,24.0,42.0,0.0,89.0
506276,4.0,0.0,0.0,0.0,0.0,0.0,0.0,0.0,21.0,14.0,4.0,4.0,49.0,0.0,0.0,0.0,32.0,8.0,0.0,20.0
501997,21.0,4.0,18.0,2.0,2.0,6.0,18.0,32.0,48.0,40.0,25.0,15.0,111.0,70.0,14.0,6.0,53.0,29.0,17.0,62.0
612961,19.0,0.0,0.0,0.0,0.0,2.0,0.0,16.0,44.0,23.0,21.0,6.0,80.0,35.0,13.0,6.0,15.0,26.0,0.0,56.0
479516,5.0,0.0,0.0,0.0,0.0,2.0,0.0,0.0,41.0,22.0,5.0,2.0,85.0,0.0,14.0,2.0,23.0,7.0,0.0,14.0
492900,7.0,0.0,0.0,0.0,0.0,2.0,0.0,0.0,40.0,16.0,13.0,4.0,78.0,0.0,12.0,2.0,15.0,14.0,0.0,34.0
514840,0.0,0.0,0.0,0.0,0.0,0.0,0.0,0.0,41.0,12.0,0.0,0.0,62.0,0.0,14.0,0.0,0.0,0.0,0.0,0.0
graph,60.0,4.0,18.0,2.0,2.0,6.0,18.0,48.0,133.0,75.0,66.0,35.0,259.0,105.0,37.0,16.0,85.0,90.0,17.0,198.0
