0110010011100000100001000: 570191 633463 483282 600713 468011
0110010011100100110001000: 570191 633463 483282 545029 600713
0110010011100100110001000: 570191 633463 583173 600713 468011
0110010011100100110001000: 570191 633463 583173 600713 545029
0110010011100000100001000: 570191 633463 541041 545029 600713
0110010011100100110001000: 570191 633463 541041 468011 600713
0110010011100000100001000: 570191 633463 521470 600713 468011
0110010011100000100001000: 570191 633463 521470 545029 600713
0110010011100000100001000: 570191 633463 457203 600713 468011
0110010011100100110001000: 570191 633463 457203 545029 600713
0110010011100000100001000: 570191 633463 652427 600713 468011
0110010011100000100001000: 570191 633463 652427 545029 600713
0111010101110001000101010: 570191 483282 521470 633463 545029
0111010101110001000001000: 570191 483282 521470 583173 545029
0111010101110001000001000: 570191 483282 521470 541041 545029
0111010101110001000001000: 570191 483282 521470 652427 545029
0111110110110001100010000: 570191 483282 457203 521470 633463
0111110110110001100010000: 570191 483282 457203 521470 541041
0111110110110001100010000: 570191 483282 457203 521470 652427
0111010110110011100000100: 570191 483282 457203 521470 476397
0110010010100010100000100: 570191 583173 483282 600713 545029
0111010101110001000101010: 570191 583173 457203 633463 600713
0111010101110001000001000: 570191 583173 457203 541041 600713
0111010101110001000001000: 570191 583173 457203 521470 600713
0111010101110001000001000: 570191 583173 457203 652427 600713
0110010010100010100100110: 570191 541041 483282 468011 545029
0111110000100001000010000: 570191 541041 583173 483282 633463
0110010010100010100000100: 570191 541041 583173 468011 600713
0111010101110001000101010: 570191 541041 652427 633463 468011
0111010101110001000001000: 570191 541041 652427 483282 468011
0111010101110001000001000: 570191 541041 652427 583173 468011
0111010101110001000001000: 570191 541041 652427 521470 468011
0111010101110001000001000: 570191 541041 652427 457203 468011
0111110000100001000010000: 570191 521470 541041 583173 633463
0111010100110001000100010: 570191 521470 483282 633463 468011
0111010100110001000100010: 570191 521470 483282 633463 600713
0111110100110001000010000: 570191 521470 483282 583173 633463
0111010100110001000100010: 570191 521470 483282 583173 600713
0111110100110001000010000: 570191 521470 483282 541041 633463
0111110100110001000010000: 570191 521470 483282 541041 583173
0111010100110001000100010: 570191 521470 483282 541041 468011
0111110100110001000010000: 570191 521470 483282 652427 633463
0111110100110001000010000: 570191 521470 483282 652427 583173
0110010010100010100000100: 570191 457203 633463 476397 468011
0110010010100010100000100: 570191 457203 633463 476397 600713
0110010011100100110001000: 570191 457203 633463 545029 476397
0110010010100010100000100: 570191 457203 541041 476397 468011
0110010011100000100001000: 570191 457203 541041 545029 476397
0110010010100010100100110: 570191 457203 541041 545029 468011
0111110000100001000010000: 570191 457203 521470 541041 633463
0110010011100000100001000: 570191 457203 521470 545029 476397
0110010011100000100001000: 570191 457203 652427 545029 476397
0111010101110001000001000: 570191 457203 483282 633463 476397
0111010100110001000100010: 570191 457203 483282 633463 468011
0111010100110001000100010: 570191 457203 483282 633463 600713
0111110100110001000010000: 570191 457203 483282 541041 633463
0111010101110001000001000: 570191 457203 483282 541041 476397
0111010100110001000100010: 570191 457203 483282 541041 468011
0111110100110001000010000: 570191 457203 483282 652427 633463
0111010101110001000001000: 570191 457203 483282 652427 476397
0111110110110011100010100: 570191 457203 483282 583173 521470
0111010101110001000001000: 570191 457203 583173 633463 476397
0111010100110001000100010: 570191 457203 583173 633463 468011
0111010101110001000101010: 570191 457203 583173 633463 545029
0111110100110001000010000: 570191 457203 583173 541041 633463
0111010101110001000001000: 570191 457203 583173 541041 476397
0111010101110001000001000: 570191 457203 583173 541041 545029
0111010100110001000100010: 570191 457203 583173 541041 468011
0111110100110001000010000: 570191 457203 583173 521470 633463
0111110100110001000010000: 570191 457203 583173 521470 541041
0111010101110001000001000: 570191 457203 583173 521470 476397
0111010101110001000001000: 570191 457203 583173 521470 545029
0111110100110001000010000: 570191 457203 583173 652427 633463
0111110100110001000010000: 570191 457203 583173 652427 521470
0111010101110001000001000: 570191 457203 583173 652427 476397
0111010101110001000001000: 570191 457203 583173 652427 545029
0111110110110001100010000: 570191 457203 583173 483282 633463
0111110110110001100010000: 570191 457203 583173 483282 541041
0111110110110001100010000: 570191 457203 583173 483282 652427
0111010110110011100000100: 570191 457203 583173 483282 600713
0111110000100001000010000: 570191 652427 583173 483282 633463
0111110000100001000010000: 570191 652427 521470 583173 633463
0111110000100001000010000: 570191 652427 457203 521470 633463
0111010100110001000100010: 570191 652427 541041 633463 600713
0111010100110001000100010: 570191 652427 541041 633463 545029
0111110100110001000010000: 570191 652427 541041 483282 633463
0111010100110001000100010: 570191 652427 541041 483282 545029
0111110100110001000010000: 570191 652427 541041 583173 633463
0111110100110001000010000: 570191 652427 541041 583173 483282
0111010100110001000100010: 570191 652427 541041 583173 600713
0111110100110001000010000: 570191 652427 541041 521470 633463
0111110100110001000010000: 570191 652427 541041 521470 583173
0111110100110001000110010: 570191 652427 541041 521470 483282
0111110100110001000010000: 570191 652427 541041 457203 633463
0111110100110001000010000: 570191 652427 541041 457203 521470
0111010100110001000100010: 570191 652427 541041 457203 476397
0111010100110001000100010: 570191 652427 541041 457203 545029
0111110100110001000110010: 570191 652427 541041 457203 483282
0111110100110001000110010: 570191 652427 541041 457203 583173
0111010101110001000001000: 545029 633463 468011 483282 600713
0111010101110001000101010: 545029 633463 468011 483282 570191
0111010101110001000001000: 545029 633463 468011 457203 600713
0111010101110001000101010: 545029 633463 468011 457203 570191
0111010101110001000001000: 545029 468011 633463 483282 541041
0111010100110001000100010: 545029 468011 633463 483282 521470
0111010101110001000001000: 545029 468011 633463 457203 541041
0111010100110001000100010: 545029 468011 633463 457203 583173
0111010100110001000100010: 545029 468011 633463 457203 476397
0110010010100010100000100: 545029 483282 633463 521470 600713
0110010010100010100000100: 545029 483282 468011 521470 541041
0111010101110001000001000: 545029 483282 457203 633463 521470
0111010101110001000001000: 545029 483282 457203 468011 521470
0110010010100010100100110: 545029 457203 633463 583173 600713
0110010011100000100001000: 545029 457203 633463 476397 583173
0110010010100010100000100: 545029 457203 633463 476397 600713
0110010010100010100000100: 545029 457203 468011 583173 541041
0110010011100000100001000: 545029 457203 468011 476397 583173
0110010010100010100000100: 545029 457203 468011 476397 541041
0110010011100000100001000: 545029 457203 468011 570191 476397
0111010101110001000001000: 545029 457203 483282 633463 583173
0111010101110001000001000: 545029 457203 483282 633463 476397
0111010100110001000100010: 545029 457203 483282 633463 600713
0111010101110001000001000: 545029 457203 483282 468011 583173
0111010101110001000001000: 545029 457203 483282 468011 476397
0111010100110001000100010: 545029 457203 483282 468011 541041
0111110100110001000110010: 545029 457203 483282 468011 633463
0111010101110001000001000: 457203 483282 545029 583173 521470
0111010101110001000001000: 457203 483282 545029 476397 521470
0111010110110011100000100: 457203 483282 545029 570191 468011
0111110110110001100010000: 457203 483282 570191 545029 476397
0111010110110011100000100: 457203 483282 570191 545029 541041
0111010110110011100000100: 457203 483282 570191 545029 652427
0111010110110011100100110: 457203 483282 570191 545029 633463
0110010010100010100000100: 457203 583173 483282 600713 521470
0111010101110001000001000: 457203 583173 570191 476397 600713
0111010101110001000001000: 457203 583173 570191 545029 600713
0110010010100010100000100: 457203 545029 583173 468011 600713
0111010100110001000100010: 457203 545029 483282 583173 600713
0111110100110001000010000: 457203 545029 483282 476397 583173
0110010011100000100001000: 457203 570191 476397 541041 633463
0110010011100000100001000: 457203 570191 476397 521470 633463
0110010011100000100001000: 457203 570191 476397 521470 541041
0110010011100000100001000: 457203 570191 476397 652427 633463
0110010011100000100001000: 457203 570191 476397 652427 521470
0110010011100000100001000: 457203 570191 545029 521470 541041
0110010010100010100000100: 457203 570191 545029 521470 468011
0110010011100000100001000: 457203 570191 545029 652427 521470
0110010010100010100000100: 457203 570191 545029 652427 468011
0110010011100100110001000: 457203 570191 545029 633463 541041
0110010011100100110001000: 457203 570191 545029 633463 521470
0110010011100100110001000: 457203 570191 545029 633463 652427
0111110110110011100010100: 457203 570191 483282 583173 545029
0111110100110001000010000: 457203 570191 583173 545029 476397
0111010100110001000100010: 457203 570191 583173 545029 468011
0111110110110001100010000: 457203 570191 583173 483282 476397
0110010011100000100001000: 541041 570191 468011 583173 483282
0110010010100010100000100: 541041 570191 468011 583173 545029
0110010011100000100001000: 541041 570191 468011 521470 583173
0110010010100010100000100: 541041 570191 468011 521470 545029
0110010011100000100001000: 541041 570191 468011 457203 521470
0110010011100100110001000: 541041 570191 468011 633463 483282
0110010011100100110001000: 541041 570191 468011 633463 583173
0110010011100100110001000: 541041 570191 468011 633463 521470
0110010011100100110001000: 541041 570191 468011 633463 457203
0111010100110001000100010: 541041 652427 570191 468011 545029
0110010010100010100000100: 583173 457203 600713 483282 633463
0110010011100000100001000: 583173 457203 600713 476397 483282
0110010010100010100000100: 583173 457203 600713 476397 633463
0110010011100000100001000: 583173 457203 600713 545029 476397
0110010011100000100001000: 583173 570191 600713 541041 483282
0110010011100000100001000: 583173 570191 600713 521470 541041
0110010011100000100001000: 583173 570191 600713 652427 483282
0110010011100000100001000: 583173 570191 600713 652427 521470
0110010011100100110001000: 583173 570191 600713 633463 483282
0110010011100100110001000: 583173 570191 600713 633463 541041
0110010011100100110001000: 583173 570191 600713 633463 521470
0110010011100100110001000: 583173 570191 600713 633463 652427
0110010010100010100000100: 600713 583173 633463 457203 468011
0110010011100000100001000: 483282 457203 521470 476397 583173
0110010010100010100000100: 483282 570191 545029 583173 468011
0110010011100000100001000: 483282 570191 545029 541041 583173
0110010011100000100001000: 483282 570191 545029 652427 583173
0110010010100010100000100: 483282 570191 545029 652427 468011
0110010011100100110001000: 483282 570191 545029 633463 583173
0110010011100100110001000: 483282 570191 545029 633463 541041
0110010011100100110001000: 483282 570191 545029 633463 652427
0111010100110001000100010: 483282 570191 521470 545029 468011
0111110110110011100010100: 483282 570191 457203 521470 545029
0111010101110001000001000: 468011 633463 545029 541041 600713
0111010101110001000101010: 468011 633463 545029 541041 570191
0110010010100010100000100: 468011 541041 633463 652427 600713
0110010010100010100000100: 468011 545029 541041 483282 652427
0110010010100010100000100: 468011 545029 541041 457203 652427
0111010100110001000100010: 468011 545029 633463 541041 652427
0110010010100010100000100: 633463 600713 468011 583173 541041
0110010010100010100000100: 633463 545029 600713 483282 583173
0111010100110001000100010: 633463 545029 468011 600713 583173
0111110100110001000010000: 633463 545029 468011 570191 600713
0111010100110001000100010: 633463 545029 468011 570191 583173
0111010100110001000100010: 633463 545029 468011 570191 521470
0111010100110001000100010: 633463 545029 468011 570191 652427
0110010011100000100001000: 633463 570191 468011 583173 483282
0110010011100000100001000: 633463 570191 468011 521470 583173
0110010011100000100001000: 633463 570191 468011 457203 521470
0110010011100000100001000: 633463 570191 468011 652427 483282
0110010011100000100001000: 633463 570191 468011 652427 583173
0110010011100000100001000: 633463 570191 468011 652427 521470
0110010011100000100001000: 633463 570191 468011 652427 457203
0110010011100000100001000: 633463 570191 600713 541041 483282
0110010011100000100001000: 633463 570191 600713 521470 541041
0110010011100000100001000: 633463 570191 600713 457203 541041
0110010011100000100001000: 633463 570191 600713 457203 521470
0110010011100000100001000: 633463 570191 600713 652427 483282
0110010011100000100001000: 633463 570191 600713 652427 521470
0110010011100000100001000: 633463 570191 600713 652427 457203
0110010011100000100001000: 633463 570191 545029 541041 583173
0110010011100000100001000: 633463 570191 545029 521470 583173
0110010011100000100001000: 633463 570191 545029 521470 541041
0110010011100000100001000: 633463 570191 545029 652427 583173
0110010011100000100001000: 633463 570191 545029 652427 521470
