0110100110000100: 487641 551765 567008 473481
0110100110000100: 487641 551765 567008 470271
0110100010010010: 487641 551765 567008 516618
0110100110000100: 487641 551765 567008 473481
0110100110000100: 487641 551765 567008 470271
0110100110000100: 487641 551765 567008 473481
0110100110000100: 487641 551765 567008 470271
0110100010010010: 487641 551765 567008 516618
0110100110000100: 487641 551765 567008 473481
0110100110000100: 487641 551765 567008 470271
0110100110000100: 487641 551765 567008 473481
0110100110000100: 487641 551765 567008 470271
0110100010010010: 487641 551765 567008 516618
0110100110000100: 487641 567008 551765 516618
0110100010010010: 487641 567008 551765 473481
0110100010010010: 487641 567008 551765 470271
0110100110000100: 487641 567008 551765 516618
0110100110000100: 487641 567008 551765 516618
0110100110000100: 487641 567008 551765 516618
0110100110000100: 487641 567008 551765 516618
0110100110000100: 487641 567008 551765 516618
0110100110000100: 567008 516618 487641 466099
0110100010010010: 567008 516618 487641 551765
0110100110000100: 567008 516618 487641 466099
0110100110000100: 567008 516618 487641 466099
0110100110000100: 567008 516618 487641 466099
0110100110000100: 567008 516618 487641 466099
0110100110000100: 567008 516618 487641 466099
0110100010010010: 567008 487641 516618 466099
0110100110000100: 567008 487641 516618 551765
0110100110000100: 567008 487641 516618 551765
0110100110000100: 567008 487641 516618 551765
0110100110000100: 567008 487641 516618 551765
0111101011001000: 470271 473481 601496 613913
0111101011001000: 470271 473481 551765 613913
0111101111001100: 470271 473481 551765 601496
0111101011001000: 470271 601496 473481 613913
0101101001001000: 470271 613913 614387 473481
0101101001001000: 470271 613913 614387 601496
0101101001001000: 470271 613913 614387 551765
0111100010001000: 470271 551765 613913 601496
0111101011001000: 470271 551765 473481 613913
0101101001001000: 470271 551765 487641 601496
0101101001001000: 470271 551765 487641 613913
0101101101001100: 470271 551765 487641 473481
0110100110000100: 470271 473481 613913 534598
0110100010010010: 470271 473481 613913 614387
0110100010010010: 470271 473481 613913 614387
0110100110000100: 470271 473481 613913 534598
0110100110000100: 470271 473481 613913 534598
0111100110001100: 470271 473481 613913 601496
0111100110001100: 470271 473481 613913 551765
0110100010010010: 470271 473481 613913 614387
0111101011001000: 470271 473481 601496 613913
0110101011010010: 470271 473481 601496 569603
0110101011010010: 470271 473481 601496 466099
0110101011010010: 470271 473481 601496 625923
0110101011010010: 470271 473481 601496 569603
0110101011010010: 470271 473481 601496 466099
0110101011010010: 470271 473481 601496 625923
0111101011001000: 470271 473481 601496 613913
0111101011001000: 470271 473481 551765 613913
0110101011010010: 470271 473481 551765 487641
0110101011010010: 470271 473481 551765 487641
0111101111001100: 470271 473481 551765 601496
0110101011010010: 470271 473481 551765 487641
0110101011010010: 470271 473481 551765 487641
0110101011010010: 470271 473481 551765 487641
0110100010010010: 470271 473481 613913 614387
0111101011001000: 470271 473481 601496 613913
0111101011001000: 470271 473481 601496 613913
0110101111000100: 470271 473481 601496 534598
0110101111000100: 470271 473481 601496 534598
0111101111001100: 470271 473481 601496 551765
0111101011001000: 470271 473481 601496 613913
0111101111001100: 470271 473481 601496 551765
0110101111000100: 470271 473481 601496 534598
0111101011001000: 470271 473481 601496 613913
0111101011001000: 470271 473481 551765 613913
0111101011001000: 470271 473481 551765 613913
0110101111000100: 470271 473481 551765 534598
0110101111000100: 470271 473481 551765 534598
0111101111001100: 470271 473481 551765 601496
0111101011001000: 470271 473481 551765 613913
0111101111001100: 470271 473481 551765 601496
0111101111001100: 470271 473481 551765 601496
0110101011010010: 470271 473481 551765 487641
0110101011010010: 470271 473481 551765 487641
0110100110000100: 470271 473481 613913 534598
0110100110000100: 470271 473481 613913 534598
0111100110001100: 470271 473481 613913 601496
0111100110001100: 470271 473481 613913 551765
0111100110001100: 470271 473481 613913 601496
0111100110001100: 470271 473481 613913 551765
0111100110001100: 470271 473481 613913 601496
0111100110001100: 470271 473481 613913 551765
0110100010010010: 470271 473481 613913 614387
0110100010010010: 470271 473481 613913 614387
0111101111001100: 470271 473481 601496 551765
0111101111001100: 470271 473481 601496 551765
0111101011001000: 470271 473481 601496 613913
0111101111001100: 470271 473481 551765 601496
0111101111001100: 470271 473481 551765 601496
0111101011001000: 470271 473481 551765 613913
0111101111001100: 470271 473481 551765 601496
0110101011010010: 470271 473481 551765 487641
0110100110000100: 470271 601496 613913 569603
0110100110000100: 470271 601496 613913 466099
0110100110000100: 470271 601496 613913 625923
0110100010010010: 470271 601496 613913 614387
0110100010010010: 470271 601496 613913 614387
0111100010001000: 470271 601496 551765 613913
0110100110000100: 470271 601496 551765 569603
0110100110000100: 470271 601496 551765 466099
0110100110000100: 470271 601496 551765 625923
0110100010010010: 470271 601496 551765 487641
0110100010010010: 470271 601496 551765 487641
0110100110000100: 470271 601496 613913 569603
0110100110000100: 470271 601496 613913 466099
0110100110000100: 470271 601496 613913 625923
0110100110000100: 470271 601496 613913 569603
0110100110000100: 470271 601496 613913 466099
0110100110000100: 470271 601496 613913 625923
0111100110001100: 470271 601496 613913 473481
0110100010010010: 470271 601496 613913 614387
0110100110000100: 470271 601496 551765 569603
0110100110000100: 470271 601496 551765 466099
0110100110000100: 470271 601496 551765 625923
0110100110000100: 470271 601496 551765 569603
0110100110000100: 470271 601496 551765 466099
0110100110000100: 470271 601496 551765 625923
0110100010010010: 470271 601496 551765 487641
0111101011001000: 470271 601496 473481 613913
0110101011010010: 470271 601496 473481 534598
0110101011010010: 470271 601496 473481 534598
0111101011011010: 470271 601496 473481 551765
0111101011011010: 470271 601496 473481 551765
0111101011011010: 470271 601496 473481 551765
0111101011001000: 470271 601496 473481 613913
0111100010001000: 470271 601496 613913 551765
0111100010001000: 470271 601496 613913 551765
0110100010010010: 470271 601496 613913 614387
0111100010001000: 470271 601496 551765 613913
0111100010001000: 470271 601496 551765 613913
0110100010010010: 470271 601496 551765 487641
0111101011001000: 470271 601496 473481 613913
0111101011001000: 470271 601496 473481 613913
0110101111000100: 470271 601496 473481 569603
0110101111000100: 470271 601496 473481 466099
0110101111000100: 470271 601496 473481 625923
0110101111000100: 470271 601496 473481 569603
0110101111000100: 470271 601496 473481 466099
0110101111000100: 470271 601496 473481 625923
0111101011001000: 470271 601496 473481 613913
0110101011010010: 470271 601496 473481 534598
0111101011001000: 470271 601496 473481 613913
0111101011011010: 470271 601496 473481 551765
0110100110000100: 470271 601496 613913 569603
0110100110000100: 470271 601496 613913 466099
0110100110000100: 470271 601496 613913 625923
0110100110000100: 470271 601496 613913 569603
0110100110000100: 470271 601496 613913 466099
0110100110000100: 470271 601496 613913 625923
0111100110001100: 470271 601496 613913 473481
0111100110001100: 470271 601496 613913 473481
0111100110001100: 470271 601496 613913 473481
0111100010001000: 470271 601496 613913 551765
0110100010010010: 470271 601496 613913 614387
0110100010010010: 470271 601496 613913 614387
0110100110000100: 470271 601496 551765 569603
0110100110000100: 470271 601496 551765 466099
0110100110000100: 470271 601496 551765 625923
0110100110000100: 470271 601496 551765 569603
0110100110000100: 470271 601496 551765 466099
0110100110000100: 470271 601496 551765 625923
0111100010001000: 470271 601496 551765 613913
0111100010001000: 470271 601496 551765 613913
0110100010010010: 470271 601496 551765 487641
0110100010010010: 470271 601496 551765 487641
0111100110011110: 470271 601496 551765 473481
0111101011001000: 470271 601496 473481 613913
0111101011001000: 470271 601496 473481 613913
0111101011001000: 470271 601496 473481 613913
0111101011001000: 470271 601496 473481 613913
0111101011011010: 470271 601496 473481 551765
0110100110000100: 470271 613913 473481 614387
0110100010010010: 470271 613913 473481 534598
0111100010011010: 470271 613913 473481 601496
0111100010011010: 470271 613913 473481 551765
0110100110000100: 470271 613913 601496 614387
0110100010010010: 470271 613913 601496 569603
0110100010010010: 470271 613913 601496 466099
0110100010010010: 470271 613913 601496 625923
0111100010011010: 470271 613913 601496 473481
0111100010001000: 470271 613913 551765 601496
0110100110000100: 470271 613913 551765 614387
0110100010010010: 470271 613913 551765 487641
0111100010011010: 470271 613913 551765 473481
0110100010010010: 470271 613913 551765 487641
0110100110000100: 470271 613913 473481 614387
0110100110000100: 470271 613913 473481 614387
0110100110000100: 470271 613913 473481 614387
0111100010001000: 470271 613913 601496 551765
0110100110000100: 470271 613913 601496 614387
0110100110000100: 470271 613913 601496 614387
0110100110000100: 470271 613913 601496 614387
0110100110000100: 470271 613913 551765 614387
0110100110000100: 470271 613913 551765 614387
0110100110000100: 470271 613913 551765 614387
0101101001001000: 470271 613913 614387 473481
0101101001001000: 470271 613913 614387 601496
0101101001001000: 470271 613913 614387 551765
0100101001010010: 470271 613913 614387 569603
0100101001010010: 470271 613913 614387 569603
0100101001010010: 470271 613913 614387 569603
0110100110000100: 470271 551765 601496 487641
0110100010010010: 470271 551765 601496 569603
0110100010010010: 470271 551765 601496 466099
0110100010010010: 470271 551765 601496 625923
0111100010001000: 470271 551765 613913 601496
0110100110000100: 470271 551765 613913 487641
0110100010010010: 470271 551765 613913 614387
0110100010010010: 470271 551765 613913 614387
0111100010001000: 470271 551765 601496 613913
0110100110000100: 470271 551765 601496 487641
0110100110000100: 470271 551765 601496 487641
0110100110000100: 470271 551765 601496 487641
0111100010001000: 470271 551765 613913 601496
0111100010001000: 470271 551765 613913 601496
0110100110000100: 470271 551765 613913 487641
0110100110000100: 470271 551765 613913 487641
0111100110001100: 470271 551765 613913 473481
0110100110000100: 470271 551765 613913 487641
0110100010010010: 470271 551765 613913 614387
0111101011001000: 470271 551765 473481 613913
0110101011010010: 470271 551765 473481 534598
0110101011010010: 470271 551765 473481 534598
0111101011011010: 470271 551765 473481 601496
0111101011011010: 470271 551765 473481 601496
0111101011011010: 470271 551765 473481 601496
0111101011001000: 470271 551765 473481 613913
0111101011001000: 470271 551765 473481 613913
0110101111000100: 470271 551765 473481 487641
0101101001001000: 470271 551765 487641 601496
0101101001001000: 470271 551765 487641 613913
0100101001010010: 470271 551765 487641 567008
0100101001010010: 470271 551765 487641 567008
0101101101001100: 470271 551765 487641 473481
0100101001010010: 470271 551765 487641 567008
0100101001010010: 470271 551765 487641 567008
0111101011001000: 470271 551765 473481 613913
0111101011001000: 470271 551765 473481 613913
0110101111000100: 470271 551765 473481 487641
0110101111000100: 470271 551765 473481 487641
0110101111000100: 470271 551765 473481 487641
0110101111000100: 470271 551765 473481 487641
0111101011001000: 470271 551765 473481 613913
0111101011001000: 470271 551765 473481 613913
0110101111000100: 470271 551765 473481 487641
0111101011001000: 551765 473481 470271 487641
0111101011001000: 551765 470271 473481 487641
0101101001001000: 551765 487641 567008 473481
0101101001001000: 551765 487641 567008 470271
0110100110000100: 551765 473481 487641 601496
0110100110000100: 551765 473481 487641 534598
0110100010010010: 551765 473481 487641 567008
0110100010010010: 551765 473481 487641 567008
0110100110000100: 551765 473481 487641 601496
0110100110000100: 551765 473481 487641 534598
0110100110000100: 551765 473481 487641 601496
0110100110000100: 551765 473481 487641 534598
0111100110001100: 551765 473481 487641 470271
0110100010010010: 551765 473481 487641 567008
0111101011001000: 551765 473481 470271 487641
0110101011010010: 551765 473481 470271 613913
0110101011010010: 551765 473481 470271 613913
0111101011001000: 551765 473481 470271 487641
0110100010010010: 551765 473481 487641 567008
0111101011001000: 551765 473481 470271 487641
0111101011001000: 551765 473481 470271 487641
0110101111000100: 551765 473481 470271 534598
0110101111000100: 551765 473481 470271 534598
0111101011001000: 551765 473481 470271 487641
0110101111010110: 551765 473481 470271 601496
0110101111010110: 551765 473481 470271 601496
0110101111000100: 551765 473481 470271 534598
0110101111010110: 551765 473481 470271 601496
0111101011001000: 551765 473481 470271 487641
0110100110000100: 551765 473481 487641 601496
0110100110000100: 551765 473481 487641 534598
0110100110000100: 551765 473481 487641 601496
0110100110000100: 551765 473481 487641 534598
0111100110001100: 551765 473481 487641 470271
0111100110001100: 551765 473481 487641 470271
0111100110001100: 551765 473481 487641 470271
0110100010010010: 551765 473481 487641 567008
0110100010010010: 551765 473481 487641 567008
0111101011001000: 551765 473481 470271 487641
0110100010010010: 551765 470271 487641 567008
0110100010010010: 551765 470271 487641 567008
0110100110000100: 551765 470271 487641 601496
0110100110000100: 551765 470271 487641 613913
0111100110001100: 551765 470271 487641 473481
0110100010010010: 551765 470271 487641 567008
0111101011001000: 551765 470271 473481 487641
0111101011001000: 551765 470271 473481 487641
0110100010010010: 551765 470271 487641 567008
0111101011001000: 551765 470271 473481 487641
0111101011001000: 551765 470271 473481 487641
0110101111000100: 551765 470271 473481 613913
0110101111000100: 551765 470271 473481 613913
0111101011001000: 551765 470271 473481 487641
0110101111010110: 551765 470271 473481 601496
0110101111010110: 551765 470271 473481 601496
0110101111000100: 551765 470271 473481 613913
0110101111010110: 551765 470271 473481 601496
0111101011001000: 551765 470271 473481 487641
0110100110000100: 551765 470271 487641 601496
0110100110000100: 551765 470271 487641 613913
0110100110000100: 551765 470271 487641 601496
0110100110000100: 551765 470271 487641 613913
0111100110001100: 551765 470271 487641 473481
0111100110001100: 551765 470271 487641 473481
0111100110001100: 551765 470271 487641 473481
0110100010010010: 551765 470271 487641 567008
0110100010010010: 551765 470271 487641 567008
0111101011001000: 551765 470271 473481 487641
0111101011001000: 551765 470271 473481 487641
0111101011001000: 551765 470271 473481 487641
0111101011001000: 551765 470271 473481 487641
0110100010010010: 551765 487641 473481 601496
0110100010010010: 551765 487641 473481 534598
0111100010011010: 551765 487641 473481 470271
0110100010010010: 551765 487641 470271 601496
0110100010010010: 551765 487641 470271 613913
0111100010011010: 551765 487641 470271 473481
0110100110000100: 551765 487641 473481 567008
0110100110000100: 551765 487641 473481 567008
0110100110000100: 551765 487641 470271 567008
0110100110000100: 551765 487641 470271 567008
0101101001001000: 551765 487641 567008 473481
0101101001001000: 551765 487641 567008 470271
0100101001010010: 551765 487641 567008 516618
0100101001010010: 551765 487641 567008 516618
0100101001010010: 551765 487641 567008 516618
0110100110000100: 613913 614387 470271 569603
0110100010010010: 613913 614387 470271 473481
0110100010010010: 613913 614387 470271 601496
0110100010010010: 613913 614387 470271 551765
0110100110000100: 613913 614387 470271 569603
0110100110000100: 613913 614387 470271 569603
0110100110000100: 613913 614387 470271 569603
0110100110000100: 613913 614387 470271 569603
0110100110000100: 613913 614387 470271 569603
0110100010010010: 613913 470271 614387 569603
0110100110000100: 613913 470271 614387 473481
0110100110000100: 613913 470271 614387 601496
0110100110000100: 613913 470271 614387 551765
0110100010010010: 613913 470271 614387 569603
0110100110000100: 613913 470271 614387 473481
0110100110000100: 613913 470271 614387 601496
0110100110000100: 613913 470271 614387 551765
0110100110000100: 613913 470271 614387 473481
0110100110000100: 613913 470271 614387 601496
0110100110000100: 613913 470271 614387 551765
0110100010010010: 613913 470271 614387 569603
0110100110010110: 625923 534598 601496 473481
0110100110000100: 625923 601496 534598 569603
0110100110000100: 625923 601496 534598 466099
0110100110000100: 625923 601496 534598 470271
0110100010010010: 625923 601496 534598 600985
0110100110010110: 625923 601496 534598 473481
0110100110010110: 625923 601496 534598 473481
0110100110000100: 625923 601496 534598 569603
0110100110000100: 625923 601496 534598 466099
0110100110000100: 625923 601496 534598 470271
0110100110000100: 625923 601496 534598 569603
0110100110000100: 625923 601496 534598 466099
0110100110000100: 625923 601496 534598 470271
0110100010010010: 625923 601496 534598 600985
0110100110010110: 625923 601496 534598 473481
0110100110000100: 625923 601496 534598 569603
0110100110000100: 625923 601496 534598 466099
0110100110000100: 625923 601496 534598 470271
0110100110000100: 625923 601496 534598 569603
0110100110000100: 625923 601496 534598 466099
0110100110000100: 625923 601496 534598 470271
0110100010010010: 625923 601496 534598 600985
0110100110010110: 625923 601496 534598 473481
0110100110000100: 625923 534598 601496 600985
0110100010010010: 625923 534598 601496 569603
0110100010010010: 625923 534598 601496 466099
0110100010010010: 625923 534598 601496 470271
0110100110010110: 625923 534598 601496 473481
0110100110010110: 625923 534598 601496 473481
0110100110000100: 625923 534598 601496 600985
0110100110000100: 625923 534598 601496 600985
0110100110010110: 625923 534598 601496 473481
0110100110010110: 625923 534598 601496 473481
0110100110010110: 625923 534598 601496 473481
0110100110000100: 625923 534598 601496 600985
0110100110000100: 625923 534598 601496 600985
0110100110010110: 625923 534598 601496 473481
0110100110000100: 625923 534598 601496 600985
0110100110010110: 534598 625923 473481 601496
0111100010001000: 534598 625923 600985 473481
0101101001001000: 534598 625923 601496 600985
0110100110000100: 534598 473481 600985 601496
0110100110000100: 534598 473481 600985 551765
0110100110000100: 534598 473481 600985 470271
0110100010010010: 534598 473481 600985 490763
0110100010010010: 534598 473481 600985 634471
0111100010001000: 534598 473481 625923 600985
0110100110000100: 534598 473481 625923 551765
0110100110000100: 534598 473481 625923 470271
0110100110010110: 534598 473481 625923 601496
0110100110010110: 534598 473481 625923 601496
0110100110000100: 534598 473481 600985 601496
0110100110000100: 534598 473481 600985 551765
0110100110000100: 534598 473481 600985 470271
0110100110000100: 534598 473481 600985 601496
0110100110000100: 534598 473481 600985 551765
0110100110000100: 534598 473481 600985 470271
0110100010010010: 534598 473481 600985 490763
0110100010010010: 534598 473481 600985 634471
0110100110000100: 534598 473481 625923 551765
0110100110000100: 534598 473481 625923 470271
0110100110000100: 534598 473481 625923 551765
0110100110000100: 534598 473481 625923 470271
0110100110010110: 534598 473481 625923 601496
0111100010001000: 534598 473481 600985 625923
0111100010001000: 534598 473481 600985 625923
0111100010001000: 534598 473481 600985 625923
0111100010001000: 534598 473481 625923 600985
0111100010001000: 534598 473481 625923 600985
0110100110000100: 534598 473481 600985 601496
0110100110000100: 534598 473481 600985 551765
0110100110000100: 534598 473481 600985 470271
0110100110000100: 534598 473481 600985 601496
0110100110000100: 534598 473481 600985 551765
0110100110000100: 534598 473481 600985 470271
0111100010001000: 534598 473481 600985 625923
0110100010010010: 534598 473481 600985 490763
0110100010010010: 534598 473481 600985 634471
0110100110000100: 534598 473481 625923 551765
0110100110000100: 534598 473481 625923 470271
0110100110000100: 534598 473481 625923 551765
0110100110000100: 534598 473481 625923 470271
0111100010001000: 534598 473481 625923 600985
0111100010001000: 534598 473481 625923 600985
0110100110010110: 534598 473481 625923 601496
0110100110010110: 534598 473481 625923 601496
0110100110000100: 534598 600985 473481 490763
0110100110000100: 534598 600985 473481 634471
0110100010010010: 534598 600985 473481 601496
0110100010010010: 534598 600985 473481 551765
0110100010010010: 534598 600985 473481 470271
0111100010001000: 534598 600985 625923 473481
0110100110000100: 534598 600985 625923 490763
0110100110000100: 534598 600985 625923 634471
0110100010010010: 534598 600985 625923 601496
0110100010010010: 534598 600985 625923 601496
0111100010001000: 534598 600985 473481 625923
0110100110000100: 534598 600985 473481 490763
0110100110000100: 534598 600985 473481 634471
0110100110000100: 534598 600985 473481 490763
0110100110000100: 534598 600985 473481 634471
0110100110000100: 534598 600985 625923 490763
0110100110000100: 534598 600985 625923 634471
0110100110000100: 534598 600985 625923 490763
0110100110000100: 534598 600985 625923 634471
0110100010010010: 534598 600985 625923 601496
0111100010001000: 534598 600985 473481 625923
0111100010001000: 534598 600985 473481 625923
0111100010001000: 534598 600985 473481 625923
0111100010001000: 534598 600985 625923 473481
0111100010001000: 534598 600985 625923 473481
0110100010010010: 534598 600985 625923 601496
0110100110000100: 534598 600985 473481 490763
0110100110000100: 534598 600985 473481 634471
0110100110000100: 534598 600985 473481 490763
0110100110000100: 534598 600985 473481 634471
0111100010001000: 534598 600985 473481 625923
0110100110000100: 534598 600985 473481 490763
0110100110000100: 534598 600985 473481 634471
0110100110000100: 534598 600985 625923 490763
0110100110000100: 534598 600985 625923 634471
0110100110000100: 534598 600985 625923 490763
0110100110000100: 534598 600985 625923 634471
0111100010001000: 534598 600985 625923 473481
0111100010001000: 534598 600985 625923 473481
0110100010010010: 534598 600985 625923 601496
0110100010010010: 534598 600985 625923 601496
0110100010010010: 534598 625923 473481 551765
0110100010010010: 534598 625923 473481 470271
0110100110010110: 534598 625923 473481 601496
0111100010001000: 534598 625923 600985 473481
0110100010010010: 534598 625923 600985 490763
0110100010010010: 534598 625923 600985 634471
0111100010001000: 534598 625923 473481 600985
0110100110010110: 534598 625923 473481 601496
0110100110010110: 534598 625923 473481 601496
0111100010001000: 534598 625923 600985 473481
0111100010001000: 534598 625923 600985 473481
0110100110000100: 534598 625923 600985 601496
0110100110000100: 534598 625923 600985 601496
0101101001001000: 534598 625923 601496 600985
0100101001010010: 534598 625923 601496 569603
0100101001010010: 534598 625923 601496 466099
0100101001010010: 534598 625923 601496 470271
0100101001010010: 534598 625923 601496 569603
0100101001010010: 534598 625923 601496 466099
0100101001010010: 534598 625923 601496 470271
0101101001011010: 534598 625923 601496 473481
0101101001011010: 534598 625923 601496 473481
0101101001011010: 534598 625923 601496 473481
0101101001001000: 534598 625923 601496 600985
0101101001001000: 534598 625923 601496 600985
0110100110000100: 466099 516618 601496 567008
0110100010010010: 466099 516618 601496 569603
0110100010010010: 466099 516618 601496 473481
0110100010010010: 466099 516618 601496 625923
0110100010010010: 466099 516618 601496 470271
0110100110000100: 466099 516618 601496 567008
0110100110000100: 466099 516618 601496 567008
0110100110000100: 466099 516618 601496 567008
0110100110000100: 466099 516618 601496 567008
0110100110000100: 466099 516618 601496 567008
0110100110000100: 466099 601496 516618 569603
0110100110000100: 466099 601496 516618 473481
0110100110000100: 466099 601496 516618 625923
0110100110000100: 466099 601496 516618 470271
0110100010010010: 466099 601496 516618 567008
0110100110000100: 466099 601496 516618 569603
0110100110000100: 466099 601496 516618 473481
0110100110000100: 466099 601496 516618 625923
0110100110000100: 466099 601496 516618 470271
0110100110000100: 466099 601496 516618 569603
0110100110000100: 466099 601496 516618 473481
0110100110000100: 466099 601496 516618 625923
0110100110000100: 466099 601496 516618 470271
0110100010010010: 466099 601496 516618 567008
0110100110000100: 466099 601496 516618 569603
0110100110000100: 466099 601496 516618 473481
0110100110000100: 466099 601496 516618 625923
0110100110000100: 466099 601496 516618 470271
0110100110000100: 466099 601496 516618 569603
0110100110000100: 466099 601496 516618 473481
0110100110000100: 466099 601496 516618 625923
0110100110000100: 466099 601496 516618 470271
0110100010010010: 466099 601496 516618 567008
0101101001001000: 601496 569603 497231 473481
0101101001001000: 601496 569603 497231 466099
0101101001001000: 601496 569603 497231 625923
0101101001001000: 601496 569603 497231 470271
0101101001001000: 601496 569603 614387 473481
0101101001001000: 601496 569603 614387 466099
0101101001001000: 601496 569603 614387 625923
0101101001001000: 601496 569603 614387 470271
0100101101000100: 601496 569603 614387 497231
0111101011001000: 601496 473481 470271 569603
0111101011001000: 601496 473481 470271 466099
0111101011001000: 601496 473481 470271 625923
0110101111010110: 601496 473481 470271 551765
0101101001001000: 601496 473481 534598 569603
0101101001001000: 601496 473481 534598 466099
0101101101001100: 601496 473481 534598 470271
0101101001001000: 601496 473481 551765 569603
0101101001001000: 601496 473481 551765 466099
0101101001001000: 601496 473481 551765 625923
0100101101000100: 601496 473481 551765 534598
0111100010001000: 601496 466099 473481 569603
0101101001001000: 601496 466099 516618 569603
0101101001001000: 601496 466099 516618 473481
0101101001001000: 601496 466099 516618 625923
0101101001001000: 601496 466099 516618 470271
0111100010001000: 601496 625923 473481 569603
0110100110010110: 601496 625923 473481 534598
0111100010001000: 601496 625923 466099 569603
0111100010001000: 601496 625923 466099 473481
0101101001001000: 601496 625923 534598 569603
0101101001001000: 601496 625923 534598 466099
0101101001001000: 601496 625923 534598 470271
0111100010001000: 601496 470271 466099 569603
0111100010001000: 601496 470271 625923 569603
0111100010001000: 601496 470271 625923 466099
0111101011001000: 601496 470271 473481 569603
0111101011001000: 601496 470271 473481 466099
0111101011001000: 601496 470271 473481 625923
0110101111010110: 601496 470271 473481 551765
0101101001001000: 601496 470271 613913 569603
0101101001001000: 601496 470271 613913 466099
0101101001001000: 601496 470271 613913 625923
0101101101001100: 601496 470271 613913 473481
0101101001001000: 601496 470271 551765 569603
0101101001001000: 601496 470271 551765 466099
0101101001001000: 601496 470271 551765 625923
0100101101000100: 601496 470271 551765 613913
0110100110000100: 601496 569603 473481 497231
0110100110000100: 601496 569603 473481 614387
0110100010010010: 601496 569603 473481 534598
0110100010010010: 601496 569603 473481 551765
0111100010011010: 601496 569603 473481 470271
0110100010010010: 601496 569603 473481 534598
0110100010010010: 601496 569603 473481 551765
0111100010001000: 601496 569603 466099 473481
0110100110000100: 601496 569603 466099 497231
0110100110000100: 601496 569603 466099 614387
0110100010010010: 601496 569603 466099 516618
0110100010010010: 601496 569603 466099 516618
0111100010001000: 601496 569603 625923 473481
0111100010001000: 601496 569603 625923 466099
0110100110000100: 601496 569603 625923 497231
0110100110000100: 601496 569603 625923 614387
0110100010010010: 601496 569603 625923 534598
0110100010010010: 601496 569603 625923 534598
0111100010001000: 601496 569603 470271 466099
0111100010001000: 601496 569603 470271 625923
0110100110000100: 601496 569603 470271 497231
0110100110000100: 601496 569603 470271 614387
0110100010010010: 601496 569603 470271 613913
0110100010010010: 601496 569603 470271 551765
0111100010011010: 601496 569603 470271 473481
0110100010010010: 601496 569603 470271 613913
0110100010010010: 601496 569603 470271 551765
0110100110000100: 601496 569603 473481 497231
0110100110000100: 601496 569603 473481 614387
0110100110000100: 601496 569603 473481 497231
0110100110000100: 601496 569603 473481 614387
0110100110000100: 601496 569603 473481 497231
0110100110000100: 601496 569603 473481 614387
0110100110000100: 601496 569603 466099 497231
0110100110000100: 601496 569603 466099 614387
0110100110000100: 601496 569603 466099 497231
0110100110000100: 601496 569603 466099 614387
0110100110000100: 601496 569603 466099 497231
0110100110000100: 601496 569603 466099 614387
0110100010010010: 601496 569603 466099 516618
0110100110000100: 601496 569603 625923 497231
0110100110000100: 601496 569603 625923 614387
0110100110000100: 601496 569603 625923 497231
0110100110000100: 601496 569603 625923 614387
0110100110000100: 601496 569603 625923 497231
0110100110000100: 601496 569603 625923 614387
0110100010010010: 601496 569603 625923 534598
0110100110000100: 601496 569603 470271 497231
0110100110000100: 601496 569603 470271 614387
0110100110000100: 601496 569603 470271 497231
0110100110000100: 601496 569603 470271 614387
0110100110000100: 601496 569603 470271 497231
0110100110000100: 601496 569603 470271 614387
0101101001001000: 601496 569603 497231 473481
0101101001001000: 601496 569603 497231 466099
0101101001001000: 601496 569603 497231 625923
0101101001001000: 601496 569603 497231 470271
0100101001010010: 601496 569603 497231 490763
0100101001010010: 601496 569603 497231 490763
0100101001010010: 601496 569603 497231 490763
0100101001010010: 601496 569603 497231 490763
0101101001001000: 601496 569603 614387 473481
0101101001001000: 601496 569603 614387 466099
0101101001001000: 601496 569603 614387 625923
0101101001001000: 601496 569603 614387 470271
0100101001010010: 601496 569603 614387 613913
0100101001010010: 601496 569603 614387 613913
0100101101000100: 601496 569603 614387 497231
0100101001010010: 601496 569603 614387 613913
0100101001010010: 601496 569603 614387 613913
0110100110000100: 601496 473481 569603 534598
0110100110000100: 601496 473481 569603 551765
0110100010010010: 601496 473481 569603 497231
0110100010010010: 601496 473481 569603 614387
0110100010010010: 601496 473481 569603 497231
0110100010010010: 601496 473481 569603 614387
0111100010001000: 601496 473481 466099 569603
0110100110000100: 601496 473481 466099 534598
0110100110000100: 601496 473481 466099 551765
0110100010010010: 601496 473481 466099 516618
0110100010010010: 601496 473481 466099 516618
0111100010001000: 601496 473481 625923 569603
0111100010001000: 601496 473481 625923 466099
0110100110000100: 601496 473481 625923 551765
0110100110010110: 601496 473481 625923 534598
0110100110010110: 601496 473481 625923 534598
0111100010001000: 601496 473481 569603 466099
0111100010001000: 601496 473481 569603 625923
0110100110000100: 601496 473481 569603 534598
0110100110000100: 601496 473481 569603 551765
0110100110000100: 601496 473481 569603 534598
0110100110000100: 601496 473481 569603 551765
0111100110001100: 601496 473481 569603 470271
0110100110000100: 601496 473481 569603 534598
0110100110000100: 601496 473481 569603 551765
0110100010010010: 601496 473481 569603 497231
0110100010010010: 601496 473481 569603 614387
0110100110000100: 601496 473481 466099 534598
0110100110000100: 601496 473481 466099 551765
0110100110000100: 601496 473481 466099 534598
0110100110000100: 601496 473481 466099 551765
0111100110001100: 601496 473481 466099 470271
0110100110000100: 601496 473481 466099 534598
0110100110000100: 601496 473481 466099 551765
0110100010010010: 601496 473481 466099 516618
0110100110000100: 601496 473481 625923 551765
0110100110000100: 601496 473481 625923 551765
0111100110001100: 601496 473481 625923 470271
0110100110000100: 601496 473481 625923 551765
0110100110010110: 601496 473481 625923 534598
0111101011001000: 601496 473481 470271 569603
0111101011001000: 601496 473481 470271 466099
0111101011001000: 601496 473481 470271 625923
0110101011010010: 601496 473481 470271 613913
0110101011010010: 601496 473481 470271 613913
0110101011010010: 601496 473481 470271 613913
0110101011010010: 601496 473481 470271 613913
0110101111010110: 601496 473481 470271 551765
0110101111000100: 601496 473481 470271 534598
0101101001001000: 601496 473481 534598 569603
0101101001001000: 601496 473481 534598 466099
0100101001010010: 601496 473481 534598 600985
0100101001010010: 601496 473481 534598 600985
0101101101001100: 601496 473481 534598 470271
0101101001011010: 601496 473481 534598 625923
0101101001011010: 601496 473481 534598 625923
0101101001011010: 601496 473481 534598 625923
0100101001010010: 601496 473481 534598 600985
0100101001010010: 601496 473481 534598 600985
0101101001011010: 601496 473481 534598 625923
0101101001001000: 601496 473481 551765 569603
0101101001001000: 601496 473481 551765 466099
0101101001001000: 601496 473481 551765 625923
0100101001010010: 601496 473481 551765 487641
0100101001010010: 601496 473481 551765 487641
0100101101000100: 601496 473481 551765 534598
0100101001010010: 601496 473481 551765 487641
0100101001010010: 601496 473481 551765 487641
0101101101011110: 601496 473481 551765 470271
0111101011001000: 601496 473481 470271 569603
0111101011001000: 601496 473481 470271 466099
0111101011001000: 601496 473481 470271 625923
0111101011001000: 601496 473481 470271 569603
0111101011001000: 601496 473481 470271 466099
0111101011001000: 601496 473481 470271 625923
0110101111000100: 601496 473481 470271 534598
0110101111000100: 601496 473481 470271 534598
0110101111000100: 601496 473481 470271 534598
0110101111010110: 601496 473481 470271 551765
0110101111010110: 601496 473481 470271 551765
0110101111000100: 601496 473481 470271 534598
0110101111010110: 601496 473481 470271 551765
0110101111000100: 601496 473481 470271 534598
0110100010010010: 601496 466099 569603 497231
0110100010010010: 601496 466099 569603 614387
0110100010010010: 601496 466099 569603 497231
0110100010010010: 601496 466099 569603 614387
0111100010001000: 601496 466099 473481 569603
0110100010010010: 601496 466099 473481 534598
0110100010010010: 601496 466099 473481 551765
0111100010011010: 601496 466099 473481 470271
0110100010010010: 601496 466099 473481 534598
0110100010010010: 601496 466099 473481 551765
0111100010001000: 601496 466099 625923 569603
0111100010001000: 601496 466099 625923 473481
0110100010010010: 601496 466099 625923 534598
0110100010010010: 601496 466099 625923 534598
0111100010001000: 601496 466099 470271 569603
0111100010001000: 601496 466099 470271 625923
0110100010010010: 601496 466099 470271 613913
0110100010010010: 601496 466099 470271 551765
0111100010011010: 601496 466099 470271 473481
0110100010010010: 601496 466099 470271 613913
0110100010010010: 601496 466099 470271 551765
0111100010001000: 601496 466099 569603 473481
0111100010001000: 601496 466099 569603 625923
0111100010001000: 601496 466099 569603 470271
0110100110000100: 601496 466099 569603 516618
0110100110000100: 601496 466099 569603 516618
0111100010001000: 601496 466099 473481 569603
0111100010001000: 601496 466099 473481 625923
0111100010001000: 601496 466099 473481 569603
0110100110000100: 601496 466099 473481 516618
0110100110000100: 601496 466099 473481 516618
0110100110000100: 601496 466099 625923 516618
0110100110000100: 601496 466099 625923 516618
0110100110000100: 601496 466099 470271 516618
0110100110000100: 601496 466099 470271 516618
0101101001001000: 601496 466099 516618 569603
0101101001001000: 601496 466099 516618 473481
0101101001001000: 601496 466099 516618 625923
0101101001001000: 601496 466099 516618 470271
0100101001010010: 601496 466099 516618 567008
0100101001010010: 601496 466099 516618 567008
0100101001010010: 601496 466099 516618 567008
0110100010010010: 601496 625923 569603 497231
0110100010010010: 601496 625923 569603 614387
0110100010010010: 601496 625923 569603 497231
0110100010010010: 601496 625923 569603 614387
0111100010001000: 601496 625923 473481 569603
0110100010010010: 601496 625923 473481 551765
0111100010011010: 601496 625923 473481 470271
0110100010010010: 601496 625923 473481 551765
0110100110010110: 601496 625923 473481 534598
0111100010001000: 601496 625923 466099 569603
0111100010001000: 601496 625923 466099 473481
0110100010010010: 601496 625923 466099 516618
0110100010010010: 601496 625923 466099 516618
0111100010001000: 601496 625923 470271 569603
0111100010001000: 601496 625923 470271 466099
0110100010010010: 601496 625923 470271 613913
0110100010010010: 601496 625923 470271 551765
0111100010011010: 601496 625923 470271 473481
0110100010010010: 601496 625923 470271 613913
0110100010010010: 601496 625923 470271 551765
0111100010001000: 601496 625923 569603 473481
0111100010001000: 601496 625923 569603 466099
0111100010001000: 601496 625923 569603 470271
0110100110000100: 601496 625923 569603 534598
0110100110000100: 601496 625923 569603 534598
0111100010001000: 601496 625923 473481 569603
0111100010001000: 601496 625923 473481 466099
0111100010001000: 601496 625923 473481 569603
0110100110010110: 601496 625923 473481 534598
0110100110010110: 601496 625923 473481 534598
0111100010001000: 601496 625923 466099 569603
0111100010001000: 601496 625923 466099 473481
0111100010001000: 601496 625923 466099 470271
0111100010001000: 601496 625923 466099 569603
0111100010001000: 601496 625923 466099 473481
0110100110000100: 601496 625923 466099 534598
0110100110000100: 601496 625923 466099 534598
0110100110000100: 601496 625923 470271 534598
0110100110000100: 601496 625923 470271 534598
0101101001001000: 601496 625923 534598 569603
0101101001001000: 601496 625923 534598 466099
0101101001001000: 601496 625923 534598 470271
0100101001010010: 601496 625923 534598 600985
0100101001010010: 601496 625923 534598 600985
0101101001011010: 601496 625923 534598 473481
0101101001011010: 601496 625923 534598 473481
0101101001011010: 601496 625923 534598 473481
0100101001010010: 601496 625923 534598 600985
0110100010010010: 601496 470271 569603 497231
0110100010010010: 601496 470271 569603 614387
0110100010010010: 601496 470271 569603 497231
0110100010010010: 601496 470271 569603 614387
0111100010001000: 601496 470271 466099 569603
0110100010010010: 601496 470271 466099 516618
0110100010010010: 601496 470271 466099 516618
0111100010001000: 601496 470271 625923 569603
0111100010001000: 601496 470271 625923 466099
0110100010010010: 601496 470271 625923 534598
0110100010010010: 601496 470271 625923 534598
0111100010001000: 601496 470271 569603 466099
0111100010001000: 601496 470271 569603 625923
0110100110000100: 601496 470271 569603 613913
0110100110000100: 601496 470271 569603 551765
0111100110001100: 601496 470271 569603 473481
0110100110000100: 601496 470271 569603 613913
0110100110000100: 601496 470271 569603 551765
0110100010010010: 601496 470271 569603 497231
0110100010010010: 601496 470271 569603 614387
0111100010001000: 601496 470271 466099 569603
0111100010001000: 601496 470271 466099 625923
0111100010001000: 601496 470271 466099 569603
0110100110000100: 601496 470271 466099 613913
0110100110000100: 601496 470271 466099 551765
0111100110001100: 601496 470271 466099 473481
0110100110000100: 601496 470271 466099 613913
0110100110000100: 601496 470271 466099 551765
0110100010010010: 601496 470271 466099 516618
0111100010001000: 601496 470271 625923 569603
0111100010001000: 601496 470271 625923 466099
0111100010001000: 601496 470271 625923 569603
0111100010001000: 601496 470271 625923 466099
0110100110000100: 601496 470271 625923 613913
0110100110000100: 601496 470271 625923 551765
0111100110001100: 601496 470271 625923 473481
0110100110000100: 601496 470271 625923 613913
0110100110000100: 601496 470271 625923 551765
0110100010010010: 601496 470271 625923 534598
0111101011001000: 601496 470271 473481 569603
0111101011001000: 601496 470271 473481 466099
0111101011001000: 601496 470271 473481 625923
0110101011010010: 601496 470271 473481 534598
0110101011010010: 601496 470271 473481 534598
0110101111010110: 601496 470271 473481 551765
0110101111000100: 601496 470271 473481 613913
0101101001001000: 601496 470271 613913 569603
0101101001001000: 601496 470271 613913 466099
0101101001001000: 601496 470271 613913 625923
0100101001010010: 601496 470271 613913 614387
0100101001010010: 601496 470271 613913 614387
0101101101001100: 601496 470271 613913 473481
0100101001010010: 601496 470271 613913 614387
0100101001010010: 601496 470271 613913 614387
0101101001001000: 601496 470271 551765 569603
0101101001001000: 601496 470271 551765 466099
0101101001001000: 601496 470271 551765 625923
0100101001010010: 601496 470271 551765 487641
0100101001010010: 601496 470271 551765 487641
0100101101000100: 601496 470271 551765 613913
0100101001010010: 601496 470271 551765 487641
0100101001010010: 601496 470271 551765 487641
0101101101011110: 601496 470271 551765 473481
0111101011001000: 601496 470271 473481 569603
0111101011001000: 601496 470271 473481 466099
0111101011001000: 601496 470271 473481 625923
0111101011001000: 601496 470271 473481 569603
0111101011001000: 601496 470271 473481 466099
0111101011001000: 601496 470271 473481 625923
0110101111000100: 601496 470271 473481 613913
0110101111000100: 601496 470271 473481 613913
0110101111000100: 601496 470271 473481 613913
0110101111010110: 601496 470271 473481 551765
0110101111010110: 601496 470271 473481 551765
0110101111000100: 601496 470271 473481 613913
0110101111010110: 601496 470271 473481 551765
0111101011001000: 601496 470271 473481 569603
0111101011001000: 601496 470271 473481 466099
0111101011001000: 601496 470271 473481 625923
0111101011001000: 601496 470271 473481 569603
0111101011001000: 601496 470271 473481 466099
0111101011001000: 601496 470271 473481 625923
0110101111000100: 601496 470271 473481 613913
0110101111010110: 601496 470271 473481 551765
0110100110000100: 614387 569603 613913 497231
0110100110000100: 614387 569603 613913 601496
0110100010010010: 614387 569603 613913 470271
0110100110000100: 614387 569603 613913 497231
0110100110000100: 614387 569603 613913 601496
0110100110000100: 614387 569603 613913 497231
0110100110000100: 614387 569603 613913 601496
0110100010010010: 614387 569603 613913 470271
0110100110000100: 614387 569603 613913 497231
0110100110000100: 614387 569603 613913 601496
0110100110000100: 614387 569603 613913 497231
0110100110000100: 614387 569603 613913 601496
0110100010010010: 614387 569603 613913 470271
0110100010010010: 614387 613913 569603 497231
0110100010010010: 614387 613913 569603 601496
0110100110000100: 614387 613913 569603 470271
0110100110000100: 614387 613913 569603 470271
0110100110000100: 614387 613913 569603 470271
0110100110000100: 614387 613913 569603 470271
0110100110000100: 634471 600985 498321 490763
0110100110000100: 634471 600985 498321 534598
0110100110000100: 634471 600985 498321 490763
0110100110000100: 634471 600985 498321 534598
0110100110000100: 634471 600985 498321 490763
0110100110000100: 634471 600985 498321 534598
0110100110000100: 634471 600985 498321 490763
0110100110000100: 634471 600985 498321 534598
0110100110000100: 634471 600985 498321 490763
0110100110000100: 634471 600985 498321 534598
0110100010010010: 634471 498321 600985 490763
0110100010010010: 634471 498321 600985 534598
0101101001001000: 600985 490763 497231 634471
0101101001001000: 600985 490763 497231 534598
0101101001001000: 600985 634471 498321 490763
0101101001001000: 600985 634471 498321 534598
0111100010001000: 600985 534598 634471 490763
0110100110000100: 600985 490763 634471 497231
0110100010010010: 600985 490763 634471 498321
0110100010010010: 600985 490763 634471 498321
0111100010001000: 600985 490763 534598 634471
0110100110000100: 600985 490763 534598 497231
0110100010010010: 600985 490763 534598 473481
0110100010010010: 600985 490763 534598 625923
0110100110000100: 600985 490763 634471 497231
0110100110000100: 600985 490763 634471 497231
0110100110000100: 600985 490763 634471 497231
0110100110000100: 600985 490763 534598 497231
0110100110000100: 600985 490763 534598 497231
0110100110000100: 600985 490763 534598 497231
0101101001001000: 600985 490763 497231 634471
0101101001001000: 600985 490763 497231 534598
0100101001010010: 600985 490763 497231 569603
0100101001010010: 600985 490763 497231 569603
0100101001010010: 600985 490763 497231 569603
0110100010010010: 600985 634471 490763 497231
0110100010010010: 600985 634471 490763 497231
0111100010001000: 600985 634471 534598 490763
0110100010010010: 600985 634471 534598 473481
0110100010010010: 600985 634471 534598 625923
0111100010001000: 600985 634471 490763 534598
0110100110000100: 600985 634471 490763 498321
0110100110000100: 600985 634471 490763 498321
0110100110000100: 600985 634471 534598 498321
0110100110000100: 600985 634471 534598 498321
0101101001001000: 600985 634471 498321 490763
0101101001001000: 600985 634471 498321 534598
0110100010010010: 600985 534598 490763 497231
0110100010010010: 600985 534598 490763 497231
0111100010001000: 600985 534598 634471 490763
0110100010010010: 600985 534598 634471 498321
0110100010010010: 600985 534598 634471 498321
0111100010001000: 600985 534598 490763 634471
0110100110000100: 600985 534598 490763 473481
0110100110000100: 600985 534598 490763 625923
0110100010010010: 600985 534598 490763 497231
0111100010001000: 600985 534598 634471 490763
0111100010001000: 600985 534598 634471 490763
0110100110000100: 600985 534598 634471 473481
0110100110000100: 600985 534598 634471 625923
0110100010010010: 600985 534598 634471 498321
0111100010001000: 600985 534598 490763 634471
0111100010001000: 600985 534598 490763 634471
0110100010010010: 600985 534598 490763 497231
0111100010001000: 600985 534598 634471 490763
0111100010001000: 600985 534598 634471 490763
0110100010010010: 600985 534598 634471 498321
0110100110000100: 600985 534598 490763 473481
0110100110000100: 600985 534598 490763 625923
0110100110000100: 600985 534598 490763 473481
0110100110000100: 600985 534598 490763 625923
0111100010001000: 600985 534598 490763 634471
0110100010010010: 600985 534598 490763 497231
0110100010010010: 600985 534598 490763 497231
0110100110000100: 600985 534598 634471 473481
0110100110000100: 600985 534598 634471 625923
0110100110000100: 600985 534598 634471 473481
0110100110000100: 600985 534598 634471 625923
0111100010001000: 600985 534598 634471 490763
0111100010001000: 600985 534598 634471 490763
0110100010010010: 600985 534598 634471 498321
0110100010010010: 600985 534598 634471 498321
0111101011001000: 473481 601496 470271 534598
0110100110010110: 473481 534598 601496 625923
0101101001001000: 473481 534598 600985 601496
0101101001001000: 473481 534598 600985 551765
0101101001001000: 473481 534598 600985 470271
0101101001001000: 473481 534598 625923 551765
0101101001001000: 473481 534598 625923 470271
0100101101000100: 473481 534598 625923 600985
0111100010001000: 473481 551765 534598 601496
0111101011001000: 473481 551765 470271 534598
0101101001001000: 473481 551765 487641 601496
0101101001001000: 473481 551765 487641 534598
0101101101001100: 473481 551765 487641 470271
0111101011001000: 473481 470271 601496 534598
0111101011001000: 473481 470271 551765 534598
0111101111001100: 473481 470271 551765 601496
0110100010010010: 473481 601496 534598 600985
0110100010010010: 473481 601496 534598 600985
0110100110010110: 473481 601496 534598 625923
0111100010001000: 473481 601496 551765 534598
0110100010010010: 473481 601496 551765 487641
0110100010010010: 473481 601496 551765 487641
0110100110000100: 473481 601496 534598 569603
0110100110000100: 473481 601496 534598 466099
0111100110001100: 473481 601496 534598 470271
0110100010010010: 473481 601496 534598 600985
0110100110010110: 473481 601496 534598 625923
0110100110000100: 473481 601496 551765 569603
0110100110000100: 473481 601496 551765 466099
0110100110000100: 473481 601496 551765 625923
0110100010010010: 473481 601496 551765 487641
0111101011001000: 473481 601496 470271 534598
0111101011011010: 473481 601496 470271 551765
0111101011011010: 473481 601496 470271 551765
0111101011011010: 473481 601496 470271 551765
0111101011001000: 473481 601496 470271 534598
0111100010001000: 473481 601496 534598 551765
0111100010001000: 473481 601496 534598 551765
0110100010010010: 473481 601496 534598 600985
0111100010001000: 473481 601496 551765 534598
0111100010001000: 473481 601496 551765 534598
0110100010010010: 473481 601496 551765 487641
0111101011001000: 473481 601496 470271 534598
0111101011001000: 473481 601496 470271 534598
0110101111000100: 473481 601496 470271 569603
0110101111000100: 473481 601496 470271 466099
0110101111000100: 473481 601496 470271 625923
0110101111000100: 473481 601496 470271 569603
0110101111000100: 473481 601496 470271 466099
0110101111000100: 473481 601496 470271 625923
0111101011001000: 473481 601496 470271 534598
0110101011010010: 473481 601496 470271 613913
0111101011001000: 473481 601496 470271 534598
0111101011011010: 473481 601496 470271 551765
0110100110000100: 473481 601496 534598 569603
0110100110000100: 473481 601496 534598 466099
0110100110000100: 473481 601496 534598 569603
0110100110000100: 473481 601496 534598 466099
0111100110001100: 473481 601496 534598 470271
0111100110001100: 473481 601496 534598 470271
0111100110001100: 473481 601496 534598 470271
0111100010001000: 473481 601496 534598 551765
0110100010010010: 473481 601496 534598 600985
0110100110010110: 473481 601496 534598 625923
0110100010010010: 473481 601496 534598 600985
0110100110010110: 473481 601496 534598 625923
0110100110000100: 473481 601496 551765 569603
0110100110000100: 473481 601496 551765 466099
0110100110000100: 473481 601496 551765 625923
0110100110000100: 473481 601496 551765 569603
0110100110000100: 473481 601496 551765 466099
0110100110000100: 473481 601496 551765 625923
0111100010001000: 473481 601496 551765 534598
0111100010001000: 473481 601496 551765 534598
0110100010010010: 473481 601496 551765 487641
0110100010010010: 473481 601496 551765 487641
0111100110011110: 473481 601496 551765 470271
0111101011001000: 473481 601496 470271 534598
0111101011011010: 473481 601496 470271 551765
0110100010010010: 473481 534598 601496 569603
0110100010010010: 473481 534598 601496 466099
0111100010011010: 473481 534598 601496 470271
0110100110010110: 473481 534598 601496 625923
0111100010001000: 473481 534598 551765 601496
0110100010010010: 473481 534598 551765 487641
0111100010011010: 473481 534598 551765 470271
0110100010010010: 473481 534598 551765 487641
0110100010010010: 473481 534598 470271 613913
0111100010011010: 473481 534598 470271 601496
0111100010011010: 473481 534598 470271 551765
0111100010001000: 473481 534598 601496 551765
0110100110000100: 473481 534598 601496 600985
0110100110000100: 473481 534598 601496 600985
0110100110010110: 473481 534598 601496 625923
0110100110010110: 473481 534598 601496 625923
0110100110000100: 473481 534598 551765 600985
0110100110000100: 473481 534598 551765 625923
0110100110000100: 473481 534598 551765 600985
0110100110000100: 473481 534598 551765 625923
0110100110000100: 473481 534598 470271 600985
0110100110000100: 473481 534598 470271 625923
0110100110000100: 473481 534598 470271 600985
0110100110000100: 473481 534598 470271 625923
0101101001001000: 473481 534598 600985 601496
0101101001001000: 473481 534598 600985 551765
0101101001001000: 473481 534598 600985 470271
0100101001010010: 473481 534598 600985 490763
0100101001010010: 473481 534598 600985 634471
0100101001010010: 473481 534598 600985 490763
0100101001010010: 473481 534598 600985 634471
0100101001010010: 473481 534598 600985 490763
0100101001010010: 473481 534598 600985 634471
0101101001001000: 473481 534598 625923 551765
0101101001001000: 473481 534598 625923 470271
0100101101000100: 473481 534598 625923 600985
0101101001011010: 473481 534598 625923 601496
0101101001011010: 473481 534598 625923 601496
0101101001011010: 473481 534598 625923 601496
0101101001011010: 473481 534598 625923 601496
0110100010010010: 473481 551765 601496 569603
0110100010010010: 473481 551765 601496 466099
0110100010010010: 473481 551765 601496 625923
0111100010001000: 473481 551765 534598 601496
0110100010010010: 473481 551765 534598 600985
0110100010010010: 473481 551765 534598 625923
0110100010010010: 473481 551765 534598 600985
0110100010010010: 473481 551765 534598 625923
0111100010001000: 473481 551765 601496 534598
0110100110000100: 473481 551765 601496 487641
0110100110000100: 473481 551765 601496 487641
0111100010001000: 473481 551765 534598 601496
0111100010001000: 473481 551765 534598 601496
0110100110000100: 473481 551765 534598 487641
0111100110001100: 473481 551765 534598 470271
0110100110000100: 473481 551765 534598 487641
0111101011001000: 473481 551765 470271 534598
0111101011011010: 473481 551765 470271 601496
0111101011011010: 473481 551765 470271 601496
0111101011011010: 473481 551765 470271 601496
0111101011001000: 473481 551765 470271 534598
0111101011001000: 473481 551765 470271 534598
0110101111000100: 473481 551765 470271 487641
0101101001001000: 473481 551765 487641 601496
0101101001001000: 473481 551765 487641 534598
0100101001010010: 473481 551765 487641 567008
0100101001010010: 473481 551765 487641 567008
0101101101001100: 473481 551765 487641 470271
0100101001010010: 473481 551765 487641 567008
0100101001010010: 473481 551765 487641 567008
0111101011001000: 473481 551765 470271 534598
0111101011001000: 473481 551765 470271 534598
0110101111000100: 473481 551765 470271 487641
0110101111000100: 473481 551765 470271 487641
0110101111000100: 473481 551765 470271 487641
0110101111000100: 473481 551765 470271 487641
0110101111000100: 473481 551765 470271 487641
0110100010010010: 473481 470271 534598 600985
0110100010010010: 473481 470271 534598 625923
0110100010010010: 473481 470271 534598 600985
0110100010010010: 473481 470271 534598 625923
0110100110000100: 473481 470271 534598 613913
0111100110001100: 473481 470271 534598 601496
0111100110001100: 473481 470271 534598 551765
0110100010010010: 473481 470271 534598 600985
0110100010010010: 473481 470271 534598 625923
0111101011001000: 473481 470271 601496 534598
0111101011001000: 473481 470271 601496 534598
0111101011001000: 473481 470271 601496 534598
0111101011001000: 473481 470271 551765 534598
0110101011010010: 473481 470271 551765 487641
0110101011010010: 473481 470271 551765 487641
0110100010010010: 473481 470271 534598 600985
0110100010010010: 473481 470271 534598 625923
0111101011001000: 473481 470271 601496 534598
0111101011001000: 473481 470271 601496 534598
0110101111000100: 473481 470271 601496 613913
0110101111000100: 473481 470271 601496 613913
0111101111001100: 473481 470271 601496 551765
0111101011001000: 473481 470271 601496 534598
0110101111000100: 473481 470271 601496 613913
0111101011001000: 473481 470271 601496 534598
0111101011001000: 473481 470271 551765 534598
0111101011001000: 473481 470271 551765 534598
0110101111000100: 473481 470271 551765 613913
0110101111000100: 473481 470271 551765 613913
0111101111001100: 473481 470271 551765 601496
0111101011001000: 473481 470271 551765 534598
0111101111001100: 473481 470271 551765 601496
0110101011010010: 473481 470271 551765 487641
0110101011010010: 473481 470271 551765 487641
0110100110000100: 473481 470271 534598 613913
0110100110000100: 473481 470271 534598 613913
0111100110001100: 473481 470271 534598 601496
0111100110001100: 473481 470271 534598 551765
0111100110001100: 473481 470271 534598 601496
0111100110001100: 473481 470271 534598 551765
0111100110001100: 473481 470271 534598 601496
0111100110001100: 473481 470271 534598 551765
0110100010010010: 473481 470271 534598 600985
0110100010010010: 473481 470271 534598 625923
0110100010010010: 473481 470271 534598 600985
0110100010010010: 473481 470271 534598 625923
0111101011001000: 473481 470271 601496 534598
0111101011001000: 473481 470271 601496 534598
0111101111001100: 473481 470271 601496 551765
0111101011001000: 473481 470271 601496 534598
0111101011001000: 473481 470271 601496 534598
0111101011001000: 473481 470271 551765 534598
0111101011001000: 473481 470271 551765 534598
0111101111001100: 473481 470271 551765 601496
0111101011001000: 473481 470271 551765 534598
0110100110000100: 490763 497231 600985 569603
0110100010010010: 490763 497231 600985 634471
0110100010010010: 490763 497231 600985 534598
0110100110000100: 490763 497231 600985 569603
0110100110000100: 490763 497231 600985 569603
0110100110000100: 490763 497231 600985 569603
0110100110000100: 490763 497231 600985 569603
0110100110000100: 490763 497231 600985 569603
0110100010010010: 490763 600985 497231 569603
0110100110000100: 490763 600985 497231 634471
0110100110000100: 490763 600985 497231 534598
0110100010010010: 490763 600985 497231 569603
0110100110000100: 490763 600985 497231 634471
0110100110000100: 490763 600985 497231 534598
0110100110000100: 490763 600985 497231 634471
0110100110000100: 490763 600985 497231 534598
0110100010010010: 490763 600985 497231 569603
0110100110000100: 497231 569603 490763 614387
0110100110000100: 497231 569603 490763 601496
0110100010010010: 497231 569603 490763 600985
0110100110000100: 497231 569603 490763 614387
0110100110000100: 497231 569603 490763 601496
0110100110000100: 497231 569603 490763 614387
0110100110000100: 497231 569603 490763 601496
0110100010010010: 497231 569603 490763 600985
0110100110000100: 497231 569603 490763 614387
0110100110000100: 497231 569603 490763 601496
0110100110000100: 497231 569603 490763 614387
0110100110000100: 497231 569603 490763 601496
0110100010010010: 497231 569603 490763 600985
0110100010010010: 497231 490763 569603 614387
0110100010010010: 497231 490763 569603 601496
0110100110000100: 497231 490763 569603 600985
0110100110000100: 497231 490763 569603 600985
0110100110000100: 497231 490763 569603 600985
0110100110000100: 497231 490763 569603 600985
0110100010010010: 516618 466099 567008 487641
0110100110000100: 516618 466099 567008 601496
0110100110000100: 516618 466099 567008 601496
0110100110000100: 516618 466099 567008 601496
0110100110000100: 516618 466099 567008 601496
0110100010010010: 516618 567008 466099 601496
0110100110000100: 516618 567008 466099 487641
0110100110000100: 516618 567008 466099 487641
0110100110000100: 516618 567008 466099 487641
0110100110000100: 516618 567008 466099 487641
0101101001001000: 569603 497231 490763 614387
0101101001001000: 569603 497231 490763 601496
0101101001001000: 569603 614387 613913 497231
0101101001001000: 569603 614387 613913 601496
0111100010001000: 569603 601496 614387 497231
0110100010010010: 569603 497231 614387 613913
0110100010010010: 569603 497231 614387 613913
0111100010001000: 569603 497231 601496 614387
0110100010010010: 569603 497231 601496 473481
0110100010010010: 569603 497231 601496 466099
0110100010010010: 569603 497231 601496 625923
0110100010010010: 569603 497231 601496 470271
0110100110000100: 569603 497231 614387 490763
0110100110000100: 569603 497231 614387 490763
0110100110000100: 569603 497231 601496 490763
0110100110000100: 569603 497231 601496 490763
0101101001001000: 569603 497231 490763 614387
0101101001001000: 569603 497231 490763 601496
0100101001010010: 569603 497231 490763 600985
0100101001010010: 569603 497231 490763 600985
0100101001010010: 569603 497231 490763 600985
0110100010010010: 569603 614387 497231 490763
0110100010010010: 569603 614387 497231 490763
0111100010001000: 569603 614387 601496 497231
0110100010010010: 569603 614387 601496 473481
0110100010010010: 569603 614387 601496 466099
0110100010010010: 569603 614387 601496 625923
0110100010010010: 569603 614387 601496 470271
0111100010001000: 569603 614387 497231 601496
0110100110000100: 569603 614387 497231 613913
0110100110000100: 569603 614387 497231 613913
0110100110000100: 569603 614387 601496 613913
0110100110000100: 569603 614387 601496 613913
0101101001001000: 569603 614387 613913 497231
0101101001001000: 569603 614387 613913 601496
0100101001010010: 569603 614387 613913 470271
0100101001010010: 569603 614387 613913 470271
0100101001010010: 569603 614387 613913 470271
0110100010010010: 569603 601496 497231 490763
0110100010010010: 569603 601496 497231 490763
0111100010001000: 569603 601496 614387 497231
0110100010010010: 569603 601496 614387 613913
0110100010010010: 569603 601496 614387 613913
0111100010001000: 569603 601496 497231 614387
0110100110000100: 569603 601496 497231 473481
0110100110000100: 569603 601496 497231 466099
0110100110000100: 569603 601496 497231 625923
0110100110000100: 569603 601496 497231 470271
0110100010010010: 569603 601496 497231 490763
0111100010001000: 569603 601496 614387 497231
0111100010001000: 569603 601496 614387 497231
0110100110000100: 569603 601496 614387 473481
0110100110000100: 569603 601496 614387 466099
0110100110000100: 569603 601496 614387 625923
0110100110000100: 569603 601496 614387 470271
0110100010010010: 569603 601496 614387 613913
0111100010001000: 569603 601496 497231 614387
0111100010001000: 569603 601496 497231 614387
0110100010010010: 569603 601496 497231 490763
0111100010001000: 569603 601496 614387 497231
0111100010001000: 569603 601496 614387 497231
0110100010010010: 569603 601496 614387 613913
0110100110000100: 569603 601496 497231 473481
0110100110000100: 569603 601496 497231 466099
0110100110000100: 569603 601496 497231 625923
0110100110000100: 569603 601496 497231 470271
0110100110000100: 569603 601496 497231 473481
0110100110000100: 569603 601496 497231 466099
0110100110000100: 569603 601496 497231 625923
0110100110000100: 569603 601496 497231 470271
0111100010001000: 569603 601496 497231 614387
0110100010010010: 569603 601496 497231 490763
0110100010010010: 569603 601496 497231 490763
0110100110000100: 569603 601496 614387 473481
0110100110000100: 569603 601496 614387 466099
0110100110000100: 569603 601496 614387 625923
0110100110000100: 569603 601496 614387 470271
0110100110000100: 569603 601496 614387 473481
0110100110000100: 569603 601496 614387 466099
0110100110000100: 569603 601496 614387 625923
0110100110000100: 569603 601496 614387 470271
0111100010001000: 569603 601496 614387 497231
0111100010001000: 569603 601496 614387 497231
0110100010010010: 569603 601496 614387 613913
0110100010010010: 569603 601496 614387 613913
