0101101001001000: 530437 614216 511282 563852
0101101001001000: 530437 614216 511282 591721
0111100010001000: 530437 591721 563852 614216
0101101001001000: 530437 591721 519031 614216
0101101001001000: 530437 591721 519031 563852
0110100110000100: 530437 614216 563852 511282
0110100010010010: 530437 614216 563852 596122
0110100010010010: 530437 614216 563852 465507
0110100010010010: 530437 614216 563852 638784
0111100010001000: 530437 614216 591721 563852
0110100110000100: 530437 614216 591721 511282
0110100010010010: 530437 614216 591721 519031
0110100010010010: 530437 614216 591721 519031
0110100110000100: 530437 614216 563852 511282
0110100110000100: 530437 614216 563852 511282
0110100110000100: 530437 614216 563852 511282
0110100110000100: 530437 614216 591721 511282
0110100110000100: 530437 614216 591721 511282
0110100110000100: 530437 614216 591721 511282
0101101001001000: 530437 614216 511282 563852
0101101001001000: 530437 614216 511282 591721
0100101001010010: 530437 614216 511282 519031
0100101001010010: 530437 614216 511282 630702
0100101001010010: 530437 614216 511282 638784
0100101001010010: 530437 614216 511282 519031
0100101001010010: 530437 614216 511282 630702
0100101001010010: 530437 614216 511282 638784
0101101001001000: 530437 614216 511282 563852
0101101001001000: 530437 614216 511282 591721
0110100110000100: 530437 563852 614216 596122
0110100110000100: 530437 563852 614216 465507
0110100110000100: 530437 563852 614216 638784
0110100010010010: 530437 563852 614216 511282
0110100010010010: 530437 563852 614216 511282
0111100010001000: 530437 563852 591721 614216
0110100110000100: 530437 563852 591721 596122
0110100110000100: 530437 563852 591721 465507
0110100110000100: 530437 563852 591721 638784
0110100010010010: 530437 563852 591721 519031
0110100010010010: 530437 563852 591721 519031
0111100010001000: 530437 563852 614216 591721
0110100110000100: 530437 563852 614216 596122
0110100110000100: 530437 563852 614216 465507
0110100110000100: 530437 563852 614216 638784
0110100110000100: 530437 563852 614216 596122
0110100110000100: 530437 563852 614216 465507
0110100110000100: 530437 563852 614216 638784
0110100010010010: 530437 563852 614216 511282
0110100110000100: 530437 563852 591721 596122
0110100110000100: 530437 563852 591721 465507
0110100110000100: 530437 563852 591721 638784
0110100110000100: 530437 563852 591721 596122
0110100110000100: 530437 563852 591721 465507
0110100110000100: 530437 563852 591721 638784
0110100010010010: 530437 563852 591721 519031
0111100010001000: 530437 563852 614216 591721
0111100010001000: 530437 563852 614216 591721
0110100010010010: 530437 563852 614216 511282
0111100010001000: 530437 563852 591721 614216
0111100010001000: 530437 563852 591721 614216
0110100010010010: 530437 563852 591721 519031
0110100110000100: 530437 563852 614216 596122
0110100110000100: 530437 563852 614216 465507
0110100110000100: 530437 563852 614216 638784
0110100110000100: 530437 563852 614216 596122
0110100110000100: 530437 563852 614216 465507
0110100110000100: 530437 563852 614216 638784
0111100010001000: 530437 563852 614216 591721
0110100010010010: 530437 563852 614216 511282
0110100010010010: 530437 563852 614216 511282
0110100110000100: 530437 563852 591721 596122
0110100110000100: 530437 563852 591721 465507
0110100110000100: 530437 563852 591721 638784
0110100110000100: 530437 563852 591721 596122
0110100110000100: 530437 563852 591721 465507
0110100110000100: 530437 563852 591721 638784
0111100010001000: 530437 563852 591721 614216
0111100010001000: 530437 563852 591721 614216
0110100010010010: 530437 563852 591721 519031
0110100010010010: 530437 563852 591721 519031
0110100110000100: 530437 591721 614216 519031
0110100010010010: 530437 591721 614216 511282
0110100010010010: 530437 591721 614216 511282
0111100010001000: 530437 591721 563852 614216
0110100110000100: 530437 591721 563852 519031
0110100010010010: 530437 591721 563852 596122
0110100010010010: 530437 591721 563852 465507
0110100010010010: 530437 591721 563852 638784
0111100010001000: 530437 591721 614216 563852
0110100110000100: 530437 591721 614216 519031
0110100110000100: 530437 591721 614216 519031
0110100110000100: 530437 591721 614216 519031
0111100010001000: 530437 591721 563852 614216
0111100010001000: 530437 591721 563852 614216
0110100110000100: 530437 591721 563852 519031
0110100110000100: 530437 591721 563852 519031
0110100110000100: 530437 591721 563852 519031
0101101001001000: 530437 591721 519031 614216
0101101001001000: 530437 591721 519031 563852
0100101001010010: 530437 591721 519031 596122
0100101001010010: 530437 591721 519031 511282
0100101001010010: 530437 591721 519031 596122
0100101001010010: 530437 591721 519031 511282
0101101001001000: 530437 591721 519031 614216
0101101001001000: 530437 591721 519031 563852
0101101001001000: 530437 591721 519031 614216
0101101001001000: 530437 591721 519031 563852
0110100110000100: 591721 519031 530437 596122
0110100110000100: 591721 519031 530437 511282
0110100010010010: 591721 519031 530437 614216
0110100010010010: 591721 519031 530437 563852
0110100110000100: 591721 519031 530437 596122
0110100110000100: 591721 519031 530437 511282
0110100110000100: 591721 519031 530437 596122
0110100110000100: 591721 519031 530437 511282
0110100110000100: 591721 519031 530437 596122
0110100110000100: 591721 519031 530437 511282
0110100110000100: 591721 519031 530437 596122
0110100110000100: 591721 519031 530437 511282
0110100110000100: 591721 519031 530437 596122
0110100110000100: 591721 519031 530437 511282
0110100010010010: 591721 530437 519031 596122
0110100010010010: 591721 530437 519031 511282
0110100110000100: 591721 530437 519031 614216
0110100110000100: 591721 530437 519031 563852
0110100110000100: 591721 530437 519031 614216
0110100110000100: 591721 530437 519031 563852
0110100110000100: 591721 530437 519031 614216
0110100110000100: 591721 530437 519031 563852
0110100110000100: 591721 530437 519031 614216
0110100110000100: 591721 530437 519031 563852
0110100110000100: 638784 563852 511282 596122
0110100110000100: 638784 563852 511282 465507
0110100110000100: 638784 563852 511282 530437
0110100010010010: 638784 563852 511282 519031
0110100010010010: 638784 563852 511282 614216
0110100010010010: 638784 563852 511282 630702
0110100110000100: 638784 563852 511282 596122
0110100110000100: 638784 563852 511282 465507
0110100110000100: 638784 563852 511282 530437
0110100110000100: 638784 563852 511282 596122
0110100110000100: 638784 563852 511282 465507
0110100110000100: 638784 563852 511282 530437
0110100110000100: 638784 563852 511282 596122
0110100110000100: 638784 563852 511282 465507
0110100110000100: 638784 563852 511282 530437
0110100110000100: 638784 563852 511282 596122
0110100110000100: 638784 563852 511282 465507
0110100110000100: 638784 563852 511282 530437
0110100110000100: 638784 563852 511282 596122
0110100110000100: 638784 563852 511282 465507
0110100110000100: 638784 563852 511282 530437
0110100110000100: 638784 511282 563852 519031
0110100110000100: 638784 511282 563852 614216
0110100110000100: 638784 511282 563852 630702
0110100010010010: 638784 511282 563852 596122
0110100010010010: 638784 511282 563852 465507
0110100010010010: 638784 511282 563852 530437
0110100110000100: 638784 511282 563852 519031
0110100110000100: 638784 511282 563852 614216
0110100110000100: 638784 511282 563852 630702
0110100110000100: 638784 511282 563852 519031
0110100110000100: 638784 511282 563852 614216
0110100110000100: 638784 511282 563852 630702
0110100110000100: 638784 511282 563852 519031
0110100110000100: 638784 511282 563852 614216
0110100110000100: 638784 511282 563852 630702
0110100110000100: 638784 511282 563852 519031
0110100110000100: 638784 511282 563852 614216
0110100110000100: 638784 511282 563852 630702
0110100110000100: 638784 511282 563852 519031
0110100110000100: 638784 511282 563852 614216
0110100110000100: 638784 511282 563852 630702
0101101001001000: 511282 519031 596122 614216
0101101001001000: 511282 519031 596122 630702
0101101001001000: 511282 519031 596122 638784
0101101001001000: 511282 519031 591721 614216
0101101001001000: 511282 519031 591721 630702
0101101001001000: 511282 519031 591721 638784
0100101101000100: 511282 519031 591721 596122
0101101001001000: 511282 614216 530437 519031
0101101001001000: 511282 614216 530437 630702
0101101001001000: 511282 614216 530437 638784
0111100010001000: 511282 630702 614216 519031
0101101001001000: 511282 630702 465507 519031
0101101001001000: 511282 630702 465507 614216
0101101001001000: 511282 630702 465507 638784
0111100010001000: 511282 638784 614216 519031
0111100010001000: 511282 638784 630702 519031
0111100010001000: 511282 638784 630702 614216
0101101001001000: 511282 638784 563852 519031
0101101001001000: 511282 638784 563852 614216
0101101001001000: 511282 638784 563852 630702
0110100110000100: 511282 519031 614216 596122
0110100110000100: 511282 519031 614216 591721
0110100010010010: 511282 519031 614216 530437
0110100010010010: 511282 519031 614216 530437
0111100010001000: 511282 519031 630702 614216
0110100110000100: 511282 519031 630702 596122
0110100110000100: 511282 519031 630702 591721
0110100010010010: 511282 519031 630702 465507
0110100010010010: 511282 519031 630702 465507
0111100010001000: 511282 519031 638784 614216
0111100010001000: 511282 519031 638784 630702
0110100110000100: 511282 519031 638784 596122
0110100110000100: 511282 519031 638784 591721
0110100010010010: 511282 519031 638784 563852
0110100010010010: 511282 519031 638784 563852
0110100110000100: 511282 519031 614216 596122
0110100110000100: 511282 519031 614216 591721
0110100110000100: 511282 519031 614216 596122
0110100110000100: 511282 519031 614216 591721
0110100110000100: 511282 519031 614216 596122
0110100110000100: 511282 519031 614216 591721
0110100010010010: 511282 519031 614216 530437
0110100110000100: 511282 519031 630702 596122
0110100110000100: 511282 519031 630702 591721
0110100110000100: 511282 519031 630702 596122
0110100110000100: 511282 519031 630702 591721
0110100110000100: 511282 519031 630702 596122
0110100110000100: 511282 519031 630702 591721
0110100010010010: 511282 519031 630702 465507
0110100110000100: 511282 519031 638784 596122
0110100110000100: 511282 519031 638784 591721
0110100110000100: 511282 519031 638784 596122
0110100110000100: 511282 519031 638784 591721
0110100110000100: 511282 519031 638784 596122
0110100110000100: 511282 519031 638784 591721
0110100010010010: 511282 519031 638784 563852
0101101001001000: 511282 519031 596122 614216
0101101001001000: 511282 519031 596122 630702
0101101001001000: 511282 519031 596122 638784
0100101001010010: 511282 519031 596122 563852
0100101001010010: 511282 519031 596122 563852
0100101001010010: 511282 519031 596122 563852
0100101001010010: 511282 519031 596122 563852
0101101001001000: 511282 519031 591721 614216
0101101001001000: 511282 519031 591721 630702
0101101001001000: 511282 519031 591721 638784
0100101001010010: 511282 519031 591721 530437
0100101001010010: 511282 519031 591721 530437
0100101101000100: 511282 519031 591721 596122
0100101001010010: 511282 519031 591721 530437
0100101001010010: 511282 519031 591721 530437
0110100110000100: 511282 614216 519031 530437
0110100010010010: 511282 614216 519031 596122
0110100010010010: 511282 614216 519031 591721
0110100010010010: 511282 614216 519031 596122
0110100010010010: 511282 614216 519031 591721
0111100010001000: 511282 614216 630702 519031
0110100110000100: 511282 614216 630702 530437
0110100010010010: 511282 614216 630702 465507
0110100010010010: 511282 614216 630702 465507
0111100010001000: 511282 614216 638784 519031
0111100010001000: 511282 614216 638784 630702
0110100110000100: 511282 614216 638784 530437
0110100010010010: 511282 614216 638784 563852
0110100010010010: 511282 614216 638784 563852
0111100010001000: 511282 614216 519031 630702
0111100010001000: 511282 614216 519031 638784
0110100110000100: 511282 614216 519031 530437
0110100110000100: 511282 614216 519031 530437
0110100110000100: 511282 614216 519031 530437
0110100110000100: 511282 614216 630702 530437
0110100110000100: 511282 614216 630702 530437
0110100110000100: 511282 614216 630702 530437
0110100110000100: 511282 614216 638784 530437
0110100110000100: 511282 614216 638784 530437
0110100110000100: 511282 614216 638784 530437
0101101001001000: 511282 614216 530437 519031
0101101001001000: 511282 614216 530437 630702
0101101001001000: 511282 614216 530437 638784
0100101001010010: 511282 614216 530437 563852
0100101001010010: 511282 614216 530437 591721
0100101001010010: 511282 614216 530437 563852
0100101001010010: 511282 614216 530437 591721
0100101001010010: 511282 614216 530437 563852
0100101001010010: 511282 614216 530437 591721
0110100110000100: 511282 630702 519031 465507
0110100010010010: 511282 630702 519031 596122
0110100010010010: 511282 630702 519031 591721
0110100010010010: 511282 630702 519031 596122
0110100010010010: 511282 630702 519031 591721
0111100010001000: 511282 630702 614216 519031
0110100110000100: 511282 630702 614216 465507
0110100010010010: 511282 630702 614216 530437
0110100010010010: 511282 630702 614216 530437
0111100010001000: 511282 630702 638784 519031
0111100010001000: 511282 630702 638784 614216
0110100110000100: 511282 630702 638784 465507
0110100010010010: 511282 630702 638784 563852
0110100010010010: 511282 630702 638784 563852
0111100010001000: 511282 630702 519031 614216
0111100010001000: 511282 630702 519031 638784
0110100110000100: 511282 630702 519031 465507
0110100110000100: 511282 630702 519031 465507
0110100110000100: 511282 630702 519031 465507
0111100010001000: 511282 630702 614216 519031
0111100010001000: 511282 630702 614216 638784
0111100010001000: 511282 630702 614216 519031
0110100110000100: 511282 630702 614216 465507
0110100110000100: 511282 630702 614216 465507
0110100110000100: 511282 630702 614216 465507
0110100110000100: 511282 630702 638784 465507
0110100110000100: 511282 630702 638784 465507
0110100110000100: 511282 630702 638784 465507
0101101001001000: 511282 630702 465507 519031
0101101001001000: 511282 630702 465507 614216
0101101001001000: 511282 630702 465507 638784
0100101001010010: 511282 630702 465507 554944
0100101001010010: 511282 630702 465507 563852
0100101001010010: 511282 630702 465507 554944
0100101001010010: 511282 630702 465507 563852
0100101001010010: 511282 630702 465507 554944
0100101001010010: 511282 630702 465507 563852
0110100010010010: 511282 638784 519031 596122
0110100010010010: 511282 638784 519031 591721
0110100010010010: 511282 638784 519031 596122
0110100010010010: 511282 638784 519031 591721
0111100010001000: 511282 638784 614216 519031
0110100010010010: 511282 638784 614216 530437
0110100010010010: 511282 638784 614216 530437
0111100010001000: 511282 638784 630702 519031
0111100010001000: 511282 638784 630702 614216
0110100010010010: 511282 638784 630702 465507
0110100010010010: 511282 638784 630702 465507
0111100010001000: 511282 638784 519031 614216
0111100010001000: 511282 638784 519031 630702
0110100110000100: 511282 638784 519031 563852
0110100110000100: 511282 638784 519031 563852
0111100010001000: 511282 638784 614216 519031
0111100010001000: 511282 638784 614216 630702
0111100010001000: 511282 638784 614216 519031
0110100110000100: 511282 638784 614216 563852
0110100110000100: 511282 638784 614216 563852
0111100010001000: 511282 638784 630702 519031
0111100010001000: 511282 638784 630702 614216
0111100010001000: 511282 638784 630702 519031
0111100010001000: 511282 638784 630702 614216
0110100110000100: 511282 638784 630702 563852
0110100110000100: 511282 638784 630702 563852
0101101001001000: 511282 638784 563852 519031
0101101001001000: 511282 638784 563852 614216
0101101001001000: 511282 638784 563852 630702
0100101001010010: 511282 638784 563852 596122
0100101001010010: 511282 638784 563852 465507
0100101001010010: 511282 638784 563852 530437
0100101001010010: 511282 638784 563852 596122
0100101001010010: 511282 638784 563852 465507
0100101001010010: 511282 638784 563852 530437
0101101001001000: 511282 638784 563852 519031
0101101001001000: 511282 638784 563852 614216
0101101001001000: 511282 638784 563852 630702
0101101001001000: 511282 638784 563852 519031
0101101001001000: 511282 638784 563852 614216
0101101001001000: 511282 638784 563852 630702
0101101001001000: 563852 596122 519031 465507
0101101001001000: 563852 596122 519031 638784
0101101001001000: 563852 596122 519031 530437
0101101001001000: 563852 465507 554944 596122
0101101001001000: 563852 465507 554944 638784
0101101001001000: 563852 465507 554944 530437
0101101001001000: 563852 465507 630702 596122
0101101001001000: 563852 465507 630702 638784
0101101001001000: 563852 465507 630702 530437
0100101101000100: 563852 465507 630702 554944
0111100010001000: 563852 638784 465507 596122
0101101001001000: 563852 638784 511282 596122
0101101001001000: 563852 638784 511282 465507
0101101001001000: 563852 638784 511282 530437
0111100010001000: 563852 530437 465507 596122
0111100010001000: 563852 530437 638784 596122
0111100010001000: 563852 530437 638784 465507
0101101001001000: 563852 530437 614216 596122
0101101001001000: 563852 530437 614216 465507
0101101001001000: 563852 530437 614216 638784
0101101001001000: 563852 530437 591721 596122
0101101001001000: 563852 530437 591721 465507
0101101001001000: 563852 530437 591721 638784
0100101101000100: 563852 530437 591721 614216
0110100110000100: 563852 596122 465507 519031
0110100010010010: 563852 596122 465507 554944
0110100010010010: 563852 596122 465507 630702
0110100010010010: 563852 596122 465507 554944
0110100010010010: 563852 596122 465507 630702
0111100010001000: 563852 596122 638784 465507
0110100110000100: 563852 596122 638784 519031
0110100010010010: 563852 596122 638784 511282
0110100010010010: 563852 596122 638784 511282
0111100010001000: 563852 596122 530437 465507
0111100010001000: 563852 596122 530437 638784
0110100110000100: 563852 596122 530437 519031
0110100010010010: 563852 596122 530437 614216
0110100010010010: 563852 596122 530437 591721
0110100010010010: 563852 596122 530437 614216
0110100010010010: 563852 596122 530437 591721
0110100110000100: 563852 596122 465507 519031
0110100110000100: 563852 596122 465507 519031
0110100110000100: 563852 596122 465507 519031
0110100110000100: 563852 596122 638784 519031
0110100110000100: 563852 596122 638784 519031
0110100110000100: 563852 596122 638784 519031
0110100110000100: 563852 596122 530437 519031
0110100110000100: 563852 596122 530437 519031
0110100110000100: 563852 596122 530437 519031
0101101001001000: 563852 596122 519031 465507
0101101001001000: 563852 596122 519031 638784
0101101001001000: 563852 596122 519031 530437
0100101001010010: 563852 596122 519031 511282
0100101001010010: 563852 596122 519031 591721
0100101001010010: 563852 596122 519031 511282
0100101001010010: 563852 596122 519031 591721
0100101001010010: 563852 596122 519031 511282
0100101001010010: 563852 596122 519031 591721
0110100110000100: 563852 465507 596122 554944
0110100110000100: 563852 465507 596122 630702
0110100010010010: 563852 465507 596122 519031
0110100010010010: 563852 465507 596122 519031
0111100010001000: 563852 465507 638784 596122
0110100110000100: 563852 465507 638784 554944
0110100110000100: 563852 465507 638784 630702
0110100010010010: 563852 465507 638784 511282
0110100010010010: 563852 465507 638784 511282
0111100010001000: 563852 465507 530437 596122
0111100010001000: 563852 465507 530437 638784
0110100110000100: 563852 465507 530437 554944
0110100110000100: 563852 465507 530437 630702
0110100010010010: 563852 465507 530437 614216
0110100010010010: 563852 465507 530437 591721
0110100010010010: 563852 465507 530437 614216
0110100010010010: 563852 465507 530437 591721
0111100010001000: 563852 465507 596122 638784
0111100010001000: 563852 465507 596122 530437
0110100110000100: 563852 465507 596122 554944
0110100110000100: 563852 465507 596122 630702
0110100110000100: 563852 465507 596122 554944
0110100110000100: 563852 465507 596122 630702
0110100110000100: 563852 465507 596122 554944
0110100110000100: 563852 465507 596122 630702
0110100010010010: 563852 465507 596122 519031
0110100110000100: 563852 465507 638784 554944
0110100110000100: 563852 465507 638784 630702
0110100110000100: 563852 465507 638784 554944
0110100110000100: 563852 465507 638784 630702
0110100110000100: 563852 465507 638784 554944
0110100110000100: 563852 465507 638784 630702
0110100010010010: 563852 465507 638784 511282
0110100110000100: 563852 465507 530437 554944
0110100110000100: 563852 465507 530437 630702
0110100110000100: 563852 465507 530437 554944
0110100110000100: 563852 465507 530437 630702
0110100110000100: 563852 465507 530437 554944
0110100110000100: 563852 465507 530437 630702
0101101001001000: 563852 465507 554944 596122
0101101001001000: 563852 465507 554944 638784
0101101001001000: 563852 465507 554944 530437
0101101001001000: 563852 465507 630702 596122
0101101001001000: 563852 465507 630702 638784
0101101001001000: 563852 465507 630702 530437
0100101001010010: 563852 465507 630702 511282
0100101001010010: 563852 465507 630702 511282
0100101101000100: 563852 465507 630702 554944
0100101001010010: 563852 465507 630702 511282
0100101001010010: 563852 465507 630702 511282
0110100010010010: 563852 638784 596122 519031
0110100010010010: 563852 638784 596122 519031
0111100010001000: 563852 638784 465507 596122
0110100010010010: 563852 638784 465507 554944
0110100010010010: 563852 638784 465507 630702
0110100010010010: 563852 638784 465507 554944
0110100010010010: 563852 638784 465507 630702
0111100010001000: 563852 638784 530437 596122
0111100010001000: 563852 638784 530437 465507
0110100010010010: 563852 638784 530437 614216
0110100010010010: 563852 638784 530437 591721
0110100010010010: 563852 638784 530437 614216
0110100010010010: 563852 638784 530437 591721
0111100010001000: 563852 638784 596122 465507
0111100010001000: 563852 638784 596122 530437
0110100110000100: 563852 638784 596122 511282
0110100110000100: 563852 638784 596122 511282
0111100010001000: 563852 638784 465507 596122
0111100010001000: 563852 638784 465507 530437
0111100010001000: 563852 638784 465507 596122
0110100110000100: 563852 638784 465507 511282
0110100110000100: 563852 638784 465507 511282
0110100110000100: 563852 638784 530437 511282
0110100110000100: 563852 638784 530437 511282
0101101001001000: 563852 638784 511282 596122
0101101001001000: 563852 638784 511282 465507
0101101001001000: 563852 638784 511282 530437
0100101001010010: 563852 638784 511282 519031
0100101001010010: 563852 638784 511282 614216
0100101001010010: 563852 638784 511282 630702
0100101001010010: 563852 638784 511282 519031
0100101001010010: 563852 638784 511282 614216
0100101001010010: 563852 638784 511282 630702
0101101001001000: 563852 638784 511282 596122
0101101001001000: 563852 638784 511282 465507
0101101001001000: 563852 638784 511282 530437
0101101001001000: 563852 638784 511282 596122
0101101001001000: 563852 638784 511282 465507
0110100010010010: 563852 530437 596122 519031
0110100010010010: 563852 530437 596122 519031
0111100010001000: 563852 530437 465507 596122
0110100010010010: 563852 530437 465507 554944
0110100010010010: 563852 530437 465507 630702
0110100010010010: 563852 530437 465507 554944
0110100010010010: 563852 530437 465507 630702
0111100010001000: 563852 530437 638784 596122
0111100010001000: 563852 530437 638784 465507
0110100010010010: 563852 530437 638784 511282
0110100010010010: 563852 530437 638784 511282
0111100010001000: 563852 530437 596122 465507
0111100010001000: 563852 530437 596122 638784
0110100110000100: 563852 530437 596122 614216
0110100110000100: 563852 530437 596122 591721
0110100110000100: 563852 530437 596122 614216
0110100110000100: 563852 530437 596122 591721
0110100010010010: 563852 530437 596122 519031
0111100010001000: 563852 530437 465507 596122
0111100010001000: 563852 530437 465507 638784
0111100010001000: 563852 530437 465507 596122
0110100110000100: 563852 530437 465507 614216
0110100110000100: 563852 530437 465507 591721
0110100110000100: 563852 530437 465507 614216
0110100110000100: 563852 530437 465507 591721
0111100010001000: 563852 530437 638784 596122
0111100010001000: 563852 530437 638784 465507
0111100010001000: 563852 530437 638784 596122
0111100010001000: 563852 530437 638784 465507
0110100110000100: 563852 530437 638784 614216
0110100110000100: 563852 530437 638784 591721
0110100110000100: 563852 530437 638784 614216
0110100110000100: 563852 530437 638784 591721
0110100010010010: 563852 530437 638784 511282
0101101001001000: 563852 530437 614216 596122
0101101001001000: 563852 530437 614216 465507
0101101001001000: 563852 530437 614216 638784
0100101001010010: 563852 530437 614216 511282
0100101001010010: 563852 530437 614216 511282
0100101001010010: 563852 530437 614216 511282
0100101001010010: 563852 530437 614216 511282
0101101001001000: 563852 530437 591721 596122
0101101001001000: 563852 530437 591721 465507
0101101001001000: 563852 530437 591721 638784
0100101001010010: 563852 530437 591721 519031
0100101001010010: 563852 530437 591721 519031
0100101101000100: 563852 530437 591721 614216
0100101001010010: 563852 530437 591721 519031
0100101001010010: 563852 530437 591721 519031
0110100110000100: 630702 465507 511282 554944
0110100110000100: 630702 465507 511282 563852
0110100010010010: 630702 465507 511282 519031
0110100010010010: 630702 465507 511282 614216
0110100010010010: 630702 465507 511282 638784
0110100110000100: 630702 465507 511282 554944
0110100110000100: 630702 465507 511282 563852
0110100110000100: 630702 465507 511282 554944
0110100110000100: 630702 465507 511282 563852
0110100110000100: 630702 465507 511282 554944
0110100110000100: 630702 465507 511282 563852
0110100110000100: 630702 465507 511282 554944
0110100110000100: 630702 465507 511282 563852
0110100110000100: 630702 465507 511282 554944
0110100110000100: 630702 465507 511282 563852
0110100010010010: 630702 511282 465507 554944
0110100010010010: 630702 511282 465507 563852
0110100110000100: 630702 511282 465507 519031
0110100110000100: 630702 511282 465507 614216
0110100110000100: 630702 511282 465507 638784
0110100010010010: 630702 511282 465507 554944
0110100010010010: 630702 511282 465507 563852
0110100110000100: 630702 511282 465507 519031
0110100110000100: 630702 511282 465507 614216
0110100110000100: 630702 511282 465507 638784
0110100110000100: 630702 511282 465507 519031
0110100110000100: 630702 511282 465507 614216
0110100110000100: 630702 511282 465507 638784
0110100010010010: 630702 511282 465507 554944
0110100010010010: 630702 511282 465507 563852
0101101001001000: 465507 630702 511282 554944
0101101001001000: 465507 630702 511282 563852
0111100010001000: 465507 563852 630702 554944
0110100010010010: 465507 554944 630702 511282
0110100010010010: 465507 554944 630702 511282
0111100010001000: 465507 554944 563852 630702
0110100010010010: 465507 554944 563852 596122
0110100010010010: 465507 554944 563852 638784
0110100010010010: 465507 554944 563852 530437
0111100010001000: 465507 630702 563852 554944
0110100010010010: 465507 630702 563852 596122
0110100010010010: 465507 630702 563852 638784
0110100010010010: 465507 630702 563852 530437
0111100010001000: 465507 630702 554944 563852
0110100110000100: 465507 630702 554944 511282
0110100110000100: 465507 630702 554944 511282
0110100110000100: 465507 630702 563852 511282
0110100110000100: 465507 630702 563852 511282
0101101001001000: 465507 630702 511282 554944
0101101001001000: 465507 630702 511282 563852
0100101001010010: 465507 630702 511282 519031
0100101001010010: 465507 630702 511282 614216
0100101001010010: 465507 630702 511282 638784
0100101001010010: 465507 630702 511282 519031
0100101001010010: 465507 630702 511282 614216
0100101001010010: 465507 630702 511282 638784
0101101001001000: 465507 630702 511282 554944
0101101001001000: 465507 630702 511282 563852
0101101001001000: 465507 630702 511282 554944
0111100010001000: 465507 563852 630702 554944
0110100010010010: 465507 563852 630702 511282
0110100010010010: 465507 563852 630702 511282
0111100010001000: 465507 563852 554944 630702
0110100110000100: 465507 563852 554944 596122
0110100110000100: 465507 563852 554944 638784
0110100110000100: 465507 563852 554944 530437
0111100010001000: 465507 563852 630702 554944
0111100010001000: 465507 563852 630702 554944
0110100110000100: 465507 563852 630702 596122
0110100110000100: 465507 563852 630702 638784
0110100110000100: 465507 563852 630702 530437
0110100010010010: 465507 563852 630702 511282
0111100010001000: 465507 563852 554944 630702
0111100010001000: 465507 563852 554944 630702
0111100010001000: 465507 563852 630702 554944
0111100010001000: 465507 563852 630702 554944
0110100010010010: 465507 563852 630702 511282
0110100110000100: 465507 563852 554944 596122
0110100110000100: 465507 563852 554944 638784
0110100110000100: 465507 563852 554944 530437
0110100110000100: 465507 563852 554944 596122
0110100110000100: 465507 563852 554944 638784
0110100110000100: 465507 563852 554944 530437
0111100010001000: 465507 563852 554944 630702
0110100110000100: 465507 563852 630702 596122
0110100110000100: 465507 563852 630702 638784
0110100110000100: 465507 563852 630702 530437
0110100110000100: 465507 563852 630702 596122
0110100110000100: 465507 563852 630702 638784
0110100110000100: 465507 563852 630702 530437
0111100010001000: 465507 563852 630702 554944
0111100010001000: 465507 563852 630702 554944
0110100010010010: 465507 563852 630702 511282
0110100010010010: 465507 563852 630702 511282
0110100010010010: 614216 511282 530437 563852
0110100010010010: 614216 511282 530437 591721
0110100110000100: 614216 511282 530437 519031
0110100110000100: 614216 511282 530437 630702
0110100110000100: 614216 511282 530437 638784
0110100010010010: 614216 511282 530437 563852
0110100010010010: 614216 511282 530437 591721
0110100110000100: 614216 511282 530437 519031
0110100110000100: 614216 511282 530437 630702
0110100110000100: 614216 511282 530437 638784
0110100110000100: 614216 511282 530437 519031
0110100110000100: 614216 511282 530437 630702
0110100110000100: 614216 511282 530437 638784
0110100010010010: 614216 511282 530437 563852
0110100010010010: 614216 511282 530437 591721
0110100010010010: 614216 530437 511282 519031
0110100010010010: 614216 530437 511282 630702
0110100010010010: 614216 530437 511282 638784
0110100110000100: 614216 530437 511282 563852
0110100110000100: 614216 530437 511282 591721
0110100110000100: 614216 530437 511282 563852
0110100110000100: 614216 530437 511282 591721
0110100110000100: 614216 530437 511282 563852
0110100110000100: 614216 530437 511282 591721
0110100110000100: 614216 530437 511282 563852
0110100110000100: 614216 530437 511282 591721
0110100110000100: 596122 519031 563852 511282
0110100110000100: 596122 519031 563852 591721
0110100010010010: 596122 519031 563852 465507
0110100010010010: 596122 519031 563852 638784
0110100010010010: 596122 519031 563852 530437
0110100110000100: 596122 519031 563852 511282
0110100110000100: 596122 519031 563852 591721
0110100110000100: 596122 519031 563852 511282
0110100110000100: 596122 519031 563852 591721
0110100110000100: 596122 519031 563852 511282
0110100110000100: 596122 519031 563852 591721
0110100110000100: 596122 519031 563852 511282
0110100110000100: 596122 519031 563852 591721
0110100110000100: 596122 519031 563852 511282
0110100110000100: 596122 519031 563852 591721
0110100010010010: 596122 563852 519031 511282
0110100010010010: 596122 563852 519031 591721
0110100110000100: 596122 563852 519031 465507
0110100110000100: 596122 563852 519031 638784
0110100110000100: 596122 563852 519031 530437
0110100010010010: 596122 563852 519031 511282
0110100010010010: 596122 563852 519031 591721
0110100110000100: 596122 563852 519031 465507
0110100110000100: 596122 563852 519031 638784
0110100110000100: 596122 563852 519031 530437
0110100110000100: 596122 563852 519031 465507
0110100110000100: 596122 563852 519031 638784
0110100110000100: 596122 563852 519031 530437
0110100010010010: 596122 563852 519031 511282
0110100010010010: 596122 563852 519031 591721
0101101001001000: 519031 596122 563852 511282
0101101001001000: 519031 596122 563852 591721
0111100010001000: 519031 591721 511282 596122
0101101001001000: 519031 591721 530437 596122
0101101001001000: 519031 591721 530437 511282
0110100010010010: 519031 596122 511282 614216
0110100010010010: 519031 596122 511282 630702
0110100010010010: 519031 596122 511282 638784
0111100010001000: 519031 596122 591721 511282
0110100010010010: 519031 596122 591721 530437
0110100010010010: 519031 596122 591721 530437
0110100110000100: 519031 596122 511282 563852
0110100110000100: 519031 596122 511282 563852
0110100110000100: 519031 596122 591721 563852
0110100110000100: 519031 596122 591721 563852
0101101001001000: 519031 596122 563852 511282
0101101001001000: 519031 596122 563852 591721
0100101001010010: 519031 596122 563852 465507
0100101001010010: 519031 596122 563852 638784
0100101001010010: 519031 596122 563852 530437
0100101001010010: 519031 596122 563852 465507
0100101001010010: 519031 596122 563852 638784
0100101001010010: 519031 596122 563852 530437
0101101001001000: 519031 596122 563852 511282
0101101001001000: 519031 596122 563852 591721
0110100010010010: 519031 511282 596122 563852
0110100010010010: 519031 511282 596122 563852
0111100010001000: 519031 511282 591721 596122
0110100010010010: 519031 511282 591721 530437
0110100010010010: 519031 511282 591721 530437
0111100010001000: 519031 511282 596122 591721
0110100110000100: 519031 511282 596122 614216
0110100110000100: 519031 511282 596122 630702
0110100110000100: 519031 511282 596122 638784
0110100010010010: 519031 511282 596122 563852
0110100110000100: 519031 511282 591721 614216
0110100110000100: 519031 511282 591721 630702
0110100110000100: 519031 511282 591721 638784
0110100010010010: 519031 511282 591721 530437
0111100010001000: 519031 511282 596122 591721
0111100010001000: 519031 511282 596122 591721
0110100010010010: 519031 511282 596122 563852
0111100010001000: 519031 511282 591721 596122
0111100010001000: 519031 511282 591721 596122
0110100010010010: 519031 511282 591721 530437
0110100110000100: 519031 511282 596122 614216
0110100110000100: 519031 511282 596122 630702
0110100110000100: 519031 511282 596122 638784
0110100110000100: 519031 511282 596122 614216
0110100110000100: 519031 511282 596122 630702
0110100110000100: 519031 511282 596122 638784
0111100010001000: 519031 511282 596122 591721
0110100010010010: 519031 511282 596122 563852
0110100010010010: 519031 511282 596122 563852
0110100110000100: 519031 511282 591721 614216
0110100110000100: 519031 511282 591721 630702
0110100110000100: 519031 511282 591721 638784
0110100110000100: 519031 511282 591721 614216
0110100110000100: 519031 511282 591721 630702
0110100110000100: 519031 511282 591721 638784
0111100010001000: 519031 511282 591721 596122
0111100010001000: 519031 511282 591721 596122
0110100010010010: 519031 511282 591721 530437
0110100010010010: 519031 511282 591721 530437
0110100010010010: 519031 591721 596122 563852
0110100010010010: 519031 591721 596122 563852
0111100010001000: 519031 591721 511282 596122
0110100010010010: 519031 591721 511282 614216
0110100010010010: 519031 591721 511282 630702
0110100010010010: 519031 591721 511282 638784
0111100010001000: 519031 591721 596122 511282
0110100110000100: 519031 591721 596122 530437
0110100110000100: 519031 591721 596122 530437
0111100010001000: 519031 591721 511282 596122
0111100010001000: 519031 591721 511282 596122
0110100110000100: 519031 591721 511282 530437
0110100110000100: 519031 591721 511282 530437
0101101001001000: 519031 591721 530437 596122
0101101001001000: 519031 591721 530437 511282
0100101001010010: 519031 591721 530437 614216
0100101001010010: 519031 591721 530437 563852
0100101001010010: 519031 591721 530437 614216
0100101001010010: 519031 591721 530437 563852
0101101001001000: 519031 591721 530437 596122
0101101001001000: 519031 591721 530437 511282
0101101001001000: 519031 591721 530437 596122
0101101001001000: 519031 591721 530437 511282
