Vertex,0110010010100010100000100,0111110110110001100010000,0111010100110001000100010,0111110100110001000010000,0111010110110011100000100,0111110000100001000010000,0111010101110001000001000,0110010011100000100001000,0111110110110011100010100,0111110100110001000110010,0110010010100010100100110
492189,7.0,4.0,3.0,4.0,2.0,0.0,6.0,3.0,2.0,1.0,0.0
554368,8.0,6.0,6.0,6.0,4.0,1.0,10.0,11.0,2.0,1.0,1.0
656212,10.0,3.0,4.0,4.0,2.0,1.0,5.0,9.0,1.0,1.0,1.0
583127,11.0,6.0,2.0,2.0,4.0,1.0,4.0,9.0,2.0,0.0,0.0
460806,13.0,0.0,4.0,0.0,1.0,0.0,3.0,4.0,0.0,0.0,1.0
618521,4.0,1.0,0.0,0.0,2.0,0.0,4.0,5.0,0.0,0.0,0.0
586275,7.0,4.0,3.0,4.0,2.0,0.0,6.0,3.0,2.0,1.0,0.0
518214,10.0,3.0,4.0,4.0,2.0,1.0,5.0,9.0,1.0,1.0,1.0
633677,2.0,3.0,0.0,6.0,0.0,1.0,4.0,8.0,0.0,0.0,0.0
632690,13.0,0.0,4.0,0.0,1.0,0.0,3.0,4.0,0.0,0.0,1.0
graph,17.0,6.0,6.0,6.0,4.0,1.0,10.0,13.0,2.0,1.0,1.0
