Vertex,0100101001010010,0100101101010110,0111100110001100,0110101111010110,0101101001001000,0101101001011010,0101101101011110,0111101011011010,0110100110010110,0110101011010010,0111100010001000,0101101101001100,0110100010010010,0111101011001000,0111100110011110,0110101111000100,0110100110000100,0111101111001100,0111100010011010,0100101101000100
478288,40.0,2.0,71.0,24.0,75.0,26.0,4.0,21.0,68.0,61.0,134.0,14.0,162.0,209.0,4.0,94.0,297.0,18.0,51.0,6.0
497796,65.0,4.0,75.0,24.0,87.0,76.0,4.0,21.0,243.0,62.0,272.0,16.0,212.0,211.0,4.0,95.0,388.0,18.0,66.0,22.0
564804,41.0,2.0,72.0,24.0,83.0,82.0,4.0,21.0,280.0,61.0,385.0,14.0,249.0,209.0,4.0,94.0,446.0,18.0,59.0,18.0
602013,22.0,0.0,16.0,0.0,26.0,0.0,0.0,0.0,0.0,24.0,24.0,8.0,69.0,38.0,0.0,24.0,111.0,0.0,4.0,4.0
546593,114.0,2.0,105.0,24.0,194.0,156.0,4.0,21.0,418.0,84.0,555.0,24.0,377.0,324.0,4.0,142.0,693.0,18.0,58.0,44.0
544655,64.0,0.0,14.0,0.0,96.0,51.0,0.0,0.0,138.0,11.0,255.0,2.0,193.0,48.0,0.0,20.0,338.0,0.0,8.0,18.0
538113,72.0,4.0,114.0,0.0,132.0,124.0,0.0,0.0,389.0,89.0,519.0,26.0,344.0,342.0,0.0,150.0,587.0,0.0,75.0,30.0
605956,22.0,0.0,0.0,0.0,14.0,0.0,0.0,0.0,0.0,0.0,0.0,0.0,51.0,0.0,0.0,0.0,69.0,0.0,0.0,0.0
585945,45.0,2.0,45.0,0.0,59.0,0.0,0.0,0.0,0.0,42.0,91.0,12.0,136.0,135.0,0.0,63.0,251.0,0.0,43.0,4.0
557285,51.0,0.0,4.0,0.0,89.0,15.0,0.0,0.0,35.0,4.0,182.0,0.0,177.0,20.0,0.0,8.0,313.0,0.0,4.0,12.0
621106,25.0,0.0,4.0,0.0,71.0,38.0,0.0,0.0,105.0,4.0,163.0,0.0,145.0,20.0,0.0,8.0,264.0,0.0,4.0,6.0
470232,78.0,0.0,78.0,0.0,148.0,80.0,0.0,0.0,212.0,54.0,485.0,16.0,356.0,237.0,0.0,100.0,608.0,0.0,37.0,32.0
462418,16.0,0.0,20.0,0.0,58.0,56.0,0.0,0.0,175.0,14.0,252.0,4.0,141.0,59.0,0.0,25.0,288.0,0.0,8.0,16.0
594117,114.0,0.0,22.0,0.0,139.0,60.0,0.0,0.0,212.0,14.0,500.0,4.0,368.0,59.0,0.0,25.0,617.0,0.0,21.0,42.0
584275,23.0,0.0,0.0,0.0,34.0,0.0,0.0,0.0,0.0,0.0,92.0,0.0,85.0,0.0,0.0,0.0,161.0,0.0,0.0,6.0
470991,97.0,0.0,8.0,0.0,114.0,38.0,0.0,0.0,105.0,5.0,319.0,2.0,268.0,21.0,0.0,9.0,446.0,0.0,2.0,30.0
490114,22.0,0.0,0.0,0.0,22.0,0.0,0.0,0.0,0.0,0.0,24.0,0.0,61.0,0.0,0.0,0.0,97.0,0.0,0.0,4.0
480506,97.0,0.0,8.0,0.0,112.0,38.0,0.0,0.0,105.0,5.0,308.0,2.0,262.0,21.0,0.0,9.0,428.0,0.0,2.0,28.0
634312,21.0,0.0,8.0,0.0,41.0,16.0,0.0,0.0,35.0,5.0,138.0,2.0,91.0,21.0,0.0,9.0,191.0,0.0,2.0,8.0
608525,6.0,0.0,8.0,0.0,24.0,0.0,0.0,0.0,0.0,5.0,114.0,2.0,44.0,21.0,0.0,9.0,116.0,0.0,2.0,6.0
589631,28.0,0.0,0.0,0.0,30.0,0.0,0.0,0.0,0.0,0.0,54.0,0.0,79.0,0.0,0.0,0.0,120.0,0.0,0.0,8.0
612249,22.0,0.0,0.0,0.0,10.0,0.0,0.0,0.0,0.0,0.0,0.0,0.0,40.0,0.0,0.0,0.0,55.0,0.0,0.0,0.0
511073,43.0,0.0,8.0,0.0,50.0,0.0,0.0,0.0,0.0,12.0,54.0,4.0,122.0,21.0,0.0,12.0,164.0,0.0,2.0,8.0
graph,282.0,4.0,170.0,24.0,427.0,214.0,4.0,21.0,630.0,139.0,1230.0,38.0,1008.0,504.0,4.0,224.0,1762.0,18.0,112.0,88.0
