Vertex,0110100110010110,0111100010001000,0110100010010010,0100101001010010,0101101001011010,0101101001001000,0110100110000100
470656,37.0,39.0,21.0,4.0,6.0,10.0,55.0
625929,37.0,39.0,34.0,10.0,6.0,12.0,75.0
538995,37.0,63.0,40.0,4.0,6.0,12.0,100.0
652376,37.0,63.0,23.0,0.0,6.0,2.0,77.0
618014,0.0,39.0,45.0,8.0,0.0,12.0,99.0
534021,0.0,15.0,33.0,8.0,0.0,12.0,63.0
631236,0.0,15.0,33.0,6.0,0.0,10.0,62.0
579555,0.0,24.0,8.0,0.0,0.0,0.0,33.0
611721,0.0,15.0,17.0,0.0,0.0,6.0,38.0
536409,0.0,0.0,10.0,0.0,0.0,4.0,14.0
graph,37.0,78.0,66.0,10.0,6.0,20.0,154.0
