Vertex,0110100010010010,0111100010011010,0101101001001000,0101101101001100,0101101101011110,0111101011011010,0110100110000100,0111100110001100,0101101001011010,0110100110010110,0111101111001100,0111101111011110,0111101011001000,0111100110011110,0111100010001000,0110101011010010,0100101001010010,0110101111000100,0110101111010110,0100101101010110,0100101101000100
561428,580.0,168.0,316.0,62.0,18.0,211.0,1143.0,287.0,151.0,383.0,234.0,155.0,1019.0,18.0,1009.0,279.0,83.0,449.0,179.0,0.0,28.0
608566,183.0,20.0,83.0,2.0,0.0,0.0,334.0,26.0,36.0,103.0,0.0,0.0,111.0,0.0,377.0,23.0,42.0,45.0,0.0,0.0,8.0
503412,176.0,0.0,65.0,0.0,0.0,0.0,279.0,0.0,0.0,0.0,0.0,0.0,0.0,0.0,113.0,0.0,59.0,0.0,0.0,0.0,10.0
612954,239.0,62.0,123.0,24.0,2.0,43.0,447.0,97.0,82.0,212.0,54.0,0.0,342.0,2.0,341.0,108.0,61.0,157.0,37.0,2.0,12.0
546315,91.0,20.0,52.0,2.0,0.0,0.0,190.0,26.0,36.0,103.0,0.0,0.0,111.0,0.0,318.0,23.0,14.0,45.0,0.0,0.0,2.0
518245,244.0,34.0,105.0,12.0,4.0,48.0,436.0,48.0,48.0,142.0,54.0,0.0,173.0,3.0,407.0,58.0,41.0,80.0,44.0,0.0,12.0
497089,207.0,107.0,78.0,28.0,8.0,126.0,385.0,154.0,21.0,72.0,144.0,155.0,506.0,9.0,261.0,138.0,46.0,221.0,108.0,0.0,6.0
590171,207.0,67.0,91.0,20.0,8.0,86.0,380.0,101.0,56.0,142.0,90.0,0.0,350.0,9.0,300.0,92.0,36.0,152.0,71.0,0.0,8.0
584041,273.0,117.0,98.0,32.0,8.0,98.0,501.0,204.0,72.0,214.0,108.0,155.0,619.0,9.0,378.0,150.0,49.0,262.0,81.0,2.0,8.0
641473,167.0,51.0,79.0,12.0,4.0,34.0,310.0,71.0,34.0,105.0,36.0,0.0,267.0,4.0,286.0,66.0,26.0,114.0,27.0,0.0,2.0
510680,133.0,36.0,77.0,8.0,2.0,17.0,262.0,48.0,0.0,0.0,18.0,0.0,198.0,1.0,270.0,52.0,17.0,86.0,17.0,0.0,4.0
584453,343.0,95.0,145.0,32.0,6.0,95.0,616.0,159.0,44.0,144.0,108.0,155.0,498.0,7.0,423.0,138.0,86.0,219.0,81.0,0.0,16.0
621796,386.0,71.0,181.0,12.0,4.0,48.0,709.0,105.0,38.0,107.0,54.0,0.0,327.0,5.0,496.0,72.0,101.0,135.0,37.0,2.0,18.0
471164,176.0,19.0,74.0,8.0,4.0,20.0,314.0,36.0,60.0,173.0,18.0,0.0,103.0,3.0,119.0,24.0,52.0,44.0,17.0,0.0,10.0
470609,141.0,37.0,86.0,14.0,4.0,18.0,307.0,72.0,55.0,140.0,18.0,0.0,184.0,2.0,160.0,53.0,28.0,82.0,17.0,2.0,14.0
520603,179.0,14.0,78.0,12.0,0.0,0.0,330.0,44.0,45.0,142.0,0.0,0.0,116.0,0.0,200.0,36.0,48.0,54.0,0.0,0.0,16.0
588101,307.0,16.0,112.0,10.0,0.0,0.0,502.0,33.0,22.0,70.0,0.0,0.0,84.0,0.0,254.0,29.0,101.0,40.0,0.0,0.0,18.0
457846,108.0,8.0,48.0,8.0,0.0,0.0,205.0,23.0,26.0,72.0,0.0,0.0,66.0,0.0,93.0,24.0,24.0,32.0,0.0,0.0,6.0
566126,124.0,8.0,61.0,8.0,0.0,0.0,246.0,29.0,16.0,35.0,0.0,0.0,75.0,0.0,123.0,24.0,22.0,35.0,0.0,0.0,8.0
472246,47.0,2.0,24.0,4.0,0.0,0.0,84.0,8.0,0.0,0.0,0.0,0.0,20.0,0.0,0.0,12.0,4.0,12.0,0.0,0.0,0.0
518619,117.0,8.0,60.0,6.0,0.0,0.0,224.0,23.0,0.0,0.0,0.0,0.0,62.0,0.0,84.0,17.0,30.0,28.0,0.0,0.0,4.0
538194,223.0,4.0,89.0,2.0,0.0,0.0,377.0,13.0,6.0,37.0,0.0,0.0,35.0,0.0,223.0,7.0,79.0,14.0,0.0,0.0,18.0
606039,156.0,4.0,75.0,2.0,0.0,0.0,269.0,13.0,0.0,0.0,0.0,0.0,34.0,0.0,114.0,7.0,54.0,14.0,0.0,0.0,8.0
569250,77.0,0.0,32.0,0.0,0.0,0.0,114.0,0.0,0.0,0.0,0.0,0.0,0.0,0.0,39.0,0.0,33.0,0.0,0.0,0.0,4.0
graph,1221.0,242.0,558.0,80.0,18.0,211.0,2241.0,405.0,212.0,599.0,234.0,155.0,1325.0,18.0,1597.0,358.0,284.0,580.0,179.0,2.0,60.0
