0110010011100000100001000: 520948 561428 651400 644581 523881
0110010011100000100001000: 520948 561428 651400 644581 573372
0110010011100000100001000: 520948 561428 651400 512769 523881
0110010011100000100001000: 520948 561428 651400 512769 573372
0110010011100000100001000: 520948 561428 651400 512769 644581
0110010010100010100100110: 512769 591715 473114 573372 523881
0110010011100000100001000: 512769 591715 473114 644581 573372
0110010010100010100000100: 512769 591715 473114 644581 523881
0110010011100000100001000: 512769 561428 473114 644581 573372
0110010011100000100001000: 512769 561428 473114 520948 573372
0110010011100000100001000: 512769 561428 473114 520948 644581
0110010011100100110001000: 512769 561428 473114 523881 644581
0110010011100100110001000: 512769 561428 473114 523881 520948
0110010011100000100001000: 512769 561428 591715 520948 523881
0110010011100100110001000: 512769 561428 591715 573372 520948
0110010011100100110001000: 512769 561428 591715 644581 523881
0110010011100100110001000: 512769 561428 591715 644581 520948
0110010011100110110001100: 512769 561428 591715 644581 573372
0111010101110001000001000: 561428 523881 573372 644581 473114
0111010101110001000101010: 561428 523881 573372 512769 473114
0111010101110001000001000: 561428 523881 573372 520948 473114
0111010100110001000100010: 561428 573372 523881 644581 618290
0111010101110001000101010: 561428 573372 523881 644581 591715
0111110100110001000010000: 561428 573372 523881 512769 644581
0111010101110001000101010: 561428 573372 523881 512769 591715
0111110100110001000010000: 561428 573372 523881 520948 644581
0111110100110001000010000: 561428 573372 523881 520948 512769
0111010101110001000001000: 561428 573372 523881 520948 591715
0111010100110001000100010: 561428 573372 523881 520948 651400
0110010010100010100000100: 561428 644581 523881 591715 473114
0110010011100000100001000: 561428 644581 523881 618290 591715
0110010010100010100000100: 561428 644581 523881 618290 473114
0110010011100100110001000: 561428 644581 573372 591715 618290
0110010011100100110001000: 561428 644581 512769 591715 618290
0110010011100000100001000: 561428 644581 520948 618290 591715
0110010011100100110001000: 561428 512769 523881 473114 591715
0110010011100100110001000: 561428 512769 573372 591715 473114
0110010010100010100000100: 561428 512769 644581 473114 618290
0110010011100100110001000: 561428 512769 644581 591715 473114
0110010011100000100001000: 561428 512769 520948 591715 473114
0110010010100010100000100: 561428 520948 523881 651400 473114
0110010010100010100000100: 561428 520948 573372 651400 591715
0110010010100010100000100: 561428 520948 644581 651400 591715
0110010010100010100000100: 561428 520948 644581 651400 618290
0111110000100001000010000: 561428 520948 512769 644581 523881
0111110000100001000010000: 561428 520948 512769 644581 573372
0110010010100010100000100: 561428 520948 512769 651400 473114
0110010010100010100000100: 561428 520948 512769 651400 591715
0110010011100000100001000: 644581 591715 618290 512769 573372
0110010010100010100000100: 644581 618290 591715 613176 573372
0110010010100010100000100: 644581 618290 591715 613176 512769
0110010011100000100001000: 644581 561428 591715 520948 523881
0110010011100100110001000: 644581 561428 591715 573372 520948
0110010010100010100000100: 644581 561428 618290 523881 613176
0110010010100010100000100: 644581 561428 618290 573372 613176
0110010011100000100001000: 644581 561428 618290 512769 523881
0110010011100000100001000: 644581 561428 618290 512769 573372
0110010010100010100000100: 644581 561428 618290 512769 613176
0110010011100000100001000: 644581 561428 618290 520948 523881
0110010011100000100001000: 644581 561428 618290 520948 573372
0110010011100000100001000: 644581 561428 618290 520948 512769
0110010010100010100000100: 644581 561428 618290 520948 613176
0110010011100000100001000: 618290 644581 613176 561428 591715
0110010010100010100000100: 591715 644581 573372 618290 523881
0110010010100010100000100: 591715 512769 644581 473114 618290
0111010101110001000001000: 573372 523881 561428 591715 473114
0110010010100010100000100: 573372 591715 523881 644581 473114
0110010011100000100001000: 573372 591715 523881 512769 644581
0110010011100000100001000: 523881 561428 473114 520948 644581
