Vertex,0100101001010010,0110101111000100,0110100010010010,0111100110011110,0100101101010110,0101101001001000,0110100110010110,0111101111001100,0111100010001000,0110101111010110,0101101101001100,0111100110001100,0110100110000100,0101101101011110,0111101011001000,0100101101000100,0110101011010010,0101101001011010,0111100010011010,0111101011011010
457833,18.0,161.0,123.0,6.0,0.0,51.0,0.0,126.0,469.0,84.0,6.0,86.0,234.0,2.0,391.0,2.0,87.0,0.0,74.0,101.0
554368,0.0,709.0,567.0,18.0,0.0,346.0,315.0,306.0,2476.0,205.0,46.0,397.0,1211.0,7.0,1685.0,8.0,401.0,124.0,314.0,252.0
522136,38.0,198.0,178.0,9.0,0.0,62.0,0.0,180.0,427.0,128.0,8.0,110.0,322.0,5.0,482.0,2.0,106.0,0.0,102.0,149.0
588412,13.0,152.0,132.0,4.0,0.0,65.0,0.0,54.0,495.0,37.0,8.0,83.0,259.0,1.0,366.0,2.0,84.0,0.0,68.0,47.0
537624,16.0,96.0,128.0,2.0,0.0,67.0,35.0,36.0,568.0,27.0,4.0,50.0,242.0,1.0,230.0,2.0,54.0,14.0,44.0,30.0
479060,16.0,24.0,126.0,0.0,0.0,63.0,35.0,0.0,0.0,0.0,8.0,16.0,212.0,0.0,39.0,0.0,24.0,14.0,4.0,0.0
478596,3.0,16.0,47.0,0.0,0.0,26.0,0.0,0.0,15.0,0.0,4.0,13.0,108.0,0.0,35.0,0.0,10.0,0.0,4.0,0.0
598392,18.0,111.0,115.0,1.0,0.0,59.0,35.0,18.0,551.0,10.0,6.0,59.0,221.0,0.0,265.0,0.0,63.0,14.0,50.0,15.0
604665,19.0,130.0,90.0,3.0,0.0,54.0,0.0,72.0,510.0,54.0,4.0,68.0,196.0,3.0,316.0,0.0,68.0,0.0,62.0,60.0
639784,14.0,88.0,136.0,1.0,0.0,66.0,70.0,54.0,625.0,30.0,4.0,48.0,275.0,0.0,211.0,4.0,50.0,22.0,46.0,39.0
567402,30.0,180.0,215.0,6.0,2.0,100.0,70.0,90.0,554.0,57.0,16.0,106.0,405.0,2.0,421.0,2.0,106.0,28.0,86.0,74.0
494959,22.0,102.0,173.0,3.0,0.0,91.0,142.0,36.0,633.0,20.0,4.0,58.0,349.0,0.0,252.0,6.0,52.0,47.0,46.0,30.0
645131,39.0,118.0,176.0,2.0,2.0,110.0,105.0,18.0,559.0,24.0,8.0,66.0,344.0,3.0,277.0,2.0,68.0,44.0,58.0,21.0
594267,16.0,152.0,122.0,4.0,0.0,63.0,107.0,54.0,530.0,30.0,8.0,83.0,250.0,0.0,364.0,4.0,84.0,33.0,68.0,44.0
518466,10.0,203.0,102.0,5.0,0.0,39.0,37.0,72.0,422.0,40.0,10.0,114.0,178.0,0.0,493.0,0.0,109.0,6.0,90.0,58.0
597660,11.0,96.0,121.0,2.0,0.0,62.0,35.0,36.0,568.0,20.0,4.0,50.0,243.0,0.0,230.0,0.0,54.0,16.0,44.0,28.0
494679,14.0,111.0,114.0,1.0,0.0,64.0,35.0,18.0,551.0,10.0,6.0,59.0,230.0,0.0,263.0,0.0,63.0,14.0,50.0,14.0
475259,23.0,138.0,154.0,3.0,2.0,91.0,70.0,36.0,566.0,27.0,12.0,78.0,322.0,2.0,320.0,2.0,84.0,28.0,70.0,30.0
616109,17.0,31.0,123.0,0.0,0.0,67.0,35.0,0.0,15.0,0.0,10.0,21.0,226.0,0.0,56.0,2.0,29.0,14.0,6.0,0.0
637534,25.0,43.0,156.0,2.0,2.0,101.0,70.0,18.0,68.0,17.0,10.0,32.0,345.0,2.0,88.0,6.0,31.0,28.0,24.0,16.0
551448,16.0,29.0,122.0,0.0,0.0,68.0,35.0,0.0,75.0,0.0,6.0,23.0,268.0,0.0,66.0,4.0,17.0,14.0,8.0,0.0
532718,19.0,19.0,125.0,0.0,0.0,71.0,35.0,0.0,23.0,0.0,6.0,13.0,228.0,0.0,33.0,2.0,17.0,16.0,4.0,0.0
611996,19.0,37.0,171.0,0.0,0.0,90.0,142.0,0.0,80.0,0.0,10.0,31.0,340.0,0.0,77.0,6.0,27.0,44.0,14.0,0.0
graph,104.0,736.0,879.0,18.0,2.0,469.0,352.0,306.0,2695.0,205.0,52.0,416.0,1752.0,7.0,1740.0,14.0,422.0,130.0,334.0,252.0
