0110010011100000100001000: 606103 587163 554978 571670 500476
0111010101110001000001000: 606103 587163 584312 554978 500476
0111010101110001000001000: 606103 587163 584312 554978 571670
0110010010100010100000100: 606103 554978 587163 538364 500476
0110010010100010100100110: 606103 554978 587163 538364 571670
0110010011100100110001000: 606103 584312 554978 538364 550331
0111010101110001000001000: 606103 584312 587163 554978 550331
0111010101110001000101010: 606103 584312 587163 554978 538364
0110010011100100110001000: 584312 587163 550331 571670 500476
0110010011100100110001000: 584312 587163 538364 571670 500476
0111010101110001000001000: 584312 587163 606103 550331 500476
0111010101110001000101010: 584312 587163 606103 550331 571670
0111010101110001000001000: 584312 587163 606103 538364 500476
0111010101110001000101010: 584312 587163 606103 538364 571670
0110010010100010100000100: 584312 538364 587163 554978 500476
0110010011100100110001000: 584312 538364 587163 571670 554978
0110010011100100110001000: 584312 538364 550331 571670 554978
0110010011100100110001000: 584312 538364 606103 554978 571670
0110010010100010100000100: 584312 606103 550331 554978 571670
0111110100110001000010000: 584312 606103 587163 538364 550331
0110010010100010100000100: 538364 571670 554978 554251 606103
0110010011100000100001000: 538364 571670 554978 587163 554251
0110010011100000100001000: 538364 571670 554978 550331 554251
0110010011100000100001000: 538364 571670 554978 550331 587163
0110010010100010100000100: 538364 571670 554978 550331 606103
0110010011100100110001000: 538364 571670 584312 587163 554251
0110010011100100110001000: 538364 571670 584312 550331 554251
0110010011100000100001000: 538364 584312 554978 550331 587163
0110010010100010100000100: 538364 584312 571670 606103 554251
0110010011100100110001000: 538364 584312 571670 550331 606103
0110010011100110110001100: 538364 584312 571670 550331 587163
0110010010100010100000100: 571670 587163 554251 500476 655622
0110010011100000100001000: 571670 587163 554251 584312 500476
0110010010100010100000100: 571670 587163 554251 584312 655622
0110010011100000100001000: 571670 587163 554251 606103 500476
0110010010100010100000100: 571670 587163 554251 606103 655622
0110010011100000100001000: 571670 587163 550331 606103 500476
0110010011100000100001000: 571670 587163 538364 606103 500476
0110010010100010100000100: 571670 550331 554251 584312 655622
0110010010100010100000100: 571670 538364 554251 554978 655622
0110010011100000100001000: 571670 538364 554251 584312 554978
0110010010100010100000100: 571670 538364 554251 584312 655622
0110010010100010100000100: 571670 538364 587163 554978 500476
0111110000100001000010000: 571670 538364 550331 587163 554251
0110010011100100110001000: 550331 571670 584312 587163 554251
0110010010100010100000100: 550331 584312 571670 606103 554251
0110010011100000100001000: 587163 571670 500476 550331 554251
0110010011100000100001000: 587163 571670 500476 538364 554251
0110010011100000100001000: 587163 571670 500476 538364 550331
0110010011100000100001000: 587163 571670 606103 550331 554251
0110010011100000100001000: 587163 571670 606103 538364 554251
0110010011100000100001000: 587163 571670 606103 538364 550331
0110010011100000100001000: 587163 584312 500476 538364 550331
0110010010100010100000100: 587163 606103 571670 554978 554251
0110010010100010100000100: 587163 606103 571670 554978 550331
0111110100110001000010000: 587163 606103 584312 571670 500476
0111010100110001000100010: 587163 606103 584312 571670 554251
0110010010100010100000100: 554251 571670 655622 587163 599745
0110010011100000100001000: 554251 571670 655622 550331 587163
0110010010100010100000100: 554251 571670 655622 550331 599745
0110010011100000100001000: 554251 571670 655622 538364 587163
0110010011100000100001000: 554251 571670 655622 538364 550331
0110010010100010100000100: 554251 571670 655622 538364 599745
