Vertex,0111101111011110,0100101101000100,0100101101010110,0111101011001000,0110100110010110,0111101111001100,0111100110001100,0111100110011110,0110101011010010,0110100110000100,0110100010010010,0110101111010110,0111101011011010,0101101101001100,0100101001010010,0101101001011010,0101101101011110,0111100010001000,0111100010011010,0101101001001000,0110101111000100
462691,5425.0,6.0,0.0,1673.0,280.0,1350.0,508.0,35.0,540.0,379.0,184.0,918.0,1016.0,132.0,0.0,118.0,39.0,365.0,260.0,106.0,771.0
588135,0.0,4.0,0.0,477.0,105.0,162.0,106.0,0.0,102.0,318.0,175.0,90.0,108.0,4.0,18.0,33.0,0.0,411.0,98.0,88.0,194.0
570191,5115.0,6.0,0.0,1671.0,210.0,1332.0,505.0,39.0,525.0,417.0,211.0,922.0,1020.0,126.0,24.0,85.0,42.0,381.0,266.0,114.0,768.0
565461,310.0,16.0,0.0,758.0,212.0,396.0,238.0,20.0,233.0,527.0,293.0,311.0,321.0,58.0,77.0,81.0,17.0,310.0,124.0,144.0,349.0
657480,0.0,14.0,0.0,420.0,212.0,0.0,149.0,0.0,157.0,482.0,287.0,0.0,0.0,50.0,63.0,75.0,0.0,214.0,60.0,131.0,205.0
565578,1550.0,4.0,4.0,934.0,245.0,594.0,261.0,13.0,268.0,310.0,154.0,400.0,448.0,52.0,27.0,109.0,19.0,342.0,171.0,91.0,417.0
557269,2170.0,12.0,4.0,1022.0,350.0,846.0,299.0,39.0,327.0,498.0,280.0,680.0,703.0,78.0,93.0,145.0,47.0,259.0,186.0,153.0,475.0
558613,310.0,16.0,0.0,684.0,140.0,522.0,185.0,20.0,206.0,471.0,260.0,423.0,441.0,44.0,65.0,59.0,28.0,370.0,116.0,146.0,311.0
500336,3565.0,16.0,2.0,1149.0,280.0,1026.0,344.0,46.0,386.0,393.0,221.0,808.0,842.0,100.0,55.0,118.0,57.0,306.0,186.0,114.0,542.0
504745,2480.0,0.0,0.0,824.0,33.0,648.0,218.0,10.0,197.0,269.0,133.0,416.0,464.0,34.0,26.0,12.0,9.0,336.0,146.0,80.0,350.0
483619,5115.0,4.0,0.0,1528.0,214.0,1008.0,482.0,34.0,484.0,301.0,159.0,693.0,773.0,120.0,18.0,82.0,29.0,170.0,237.0,70.0,700.0
579305,2635.0,14.0,0.0,1260.0,245.0,738.0,380.0,16.0,424.0,464.0,247.0,522.0,567.0,108.0,65.0,102.0,20.0,331.0,194.0,144.0,592.0
544271,775.0,10.0,0.0,840.0,175.0,558.0,233.0,15.0,254.0,514.0,288.0,387.0,423.0,52.0,78.0,72.0,14.0,365.0,153.0,147.0,381.0
489873,3410.0,16.0,2.0,1493.0,387.0,882.0,462.0,48.0,422.0,560.0,307.0,700.0,742.0,100.0,94.0,150.0,50.0,401.0,252.0,151.0,666.0
655056,0.0,10.0,4.0,786.0,385.0,270.0,284.0,24.0,328.0,454.0,211.0,248.0,257.0,112.0,37.0,164.0,39.0,201.0,113.0,129.0,404.0
590365,0.0,8.0,0.0,572.0,70.0,180.0,166.0,9.0,135.0,334.0,175.0,142.0,155.0,22.0,41.0,31.0,10.0,292.0,94.0,87.0,239.0
474930,0.0,12.0,0.0,441.0,105.0,0.0,168.0,0.0,232.0,361.0,187.0,0.0,0.0,80.0,35.0,44.0,0.0,98.0,48.0,109.0,248.0
graph,8215.0,42.0,4.0,4133.0,912.0,2628.0,1247.0,92.0,1305.0,1763.0,943.0,1915.0,2070.0,318.0,204.0,370.0,105.0,1288.0,676.0,501.0,1903.0
