Vertex,0111110110110001100010000,0111010101110001000001000,0110010010100010100100110,0110010011100100110001000,0111010100110001000100010,0110010011100000100001000,0111110100110001000010000,0110010010100010100000100,0111010101110001000101010,0111110000100001000010000,0111110100110001000110010
474410,1.0,32.0,0.0,12.0,11.0,102.0,64.0,16.0,2.0,97.0,4.0
554368,9.0,39.0,1.0,41.0,51.0,532.0,152.0,79.0,4.0,329.0,6.0
461070,0.0,11.0,0.0,10.0,7.0,86.0,0.0,22.0,1.0,0.0,0.0
477502,1.0,4.0,0.0,15.0,9.0,183.0,34.0,22.0,0.0,130.0,0.0
587445,1.0,4.0,0.0,14.0,5.0,133.0,34.0,13.0,0.0,130.0,0.0
587670,1.0,4.0,1.0,4.0,5.0,152.0,34.0,22.0,0.0,130.0,0.0
533294,1.0,12.0,0.0,3.0,13.0,93.0,64.0,3.0,1.0,97.0,3.0
523700,1.0,12.0,0.0,11.0,14.0,119.0,64.0,22.0,3.0,97.0,3.0
541078,9.0,4.0,0.0,4.0,13.0,99.0,50.0,3.0,0.0,104.0,2.0
528592,9.0,4.0,0.0,4.0,13.0,99.0,50.0,3.0,0.0,104.0,2.0
471061,9.0,4.0,0.0,4.0,25.0,87.0,82.0,3.0,0.0,70.0,4.0
644876,1.0,4.0,0.0,25.0,9.0,164.0,34.0,20.0,0.0,130.0,0.0
647780,1.0,3.0,1.0,13.0,8.0,187.0,34.0,33.0,1.0,130.0,0.0
483517,1.0,31.0,0.0,10.0,23.0,147.0,64.0,23.0,4.0,97.0,4.0
528165,0.0,20.0,0.0,8.0,16.0,68.0,0.0,29.0,3.0,0.0,1.0
595864,0.0,12.0,0.0,0.0,15.0,42.0,0.0,18.0,1.0,0.0,1.0
636373,0.0,0.0,0.0,12.0,8.0,91.0,0.0,19.0,0.0,0.0,0.0
493180,0.0,0.0,0.0,13.0,8.0,101.0,0.0,17.0,0.0,0.0,0.0
563534,0.0,0.0,0.0,1.0,4.0,61.0,0.0,10.0,0.0,0.0,0.0
624658,0.0,0.0,1.0,0.0,4.0,52.0,0.0,32.0,0.0,0.0,0.0
474325,0.0,0.0,1.0,1.0,4.0,62.0,0.0,31.0,0.0,0.0,0.0
graph,9.0,40.0,1.0,41.0,53.0,532.0,152.0,88.0,4.0,329.0,6.0
