0111010101110001000001000: 524464 495837 516983 654765 503677
0111010101110001000001000: 524464 495837 516983 510642 503677
0110010010100010100000100: 524464 654765 495837 643201 503677
0110010011100000100001000: 524464 654765 495837 489874 643201
0110010010100010100000100: 524464 654765 495837 489874 503677
0110010011100000100001000: 524464 654765 570191 489874 643201
0110010011100000100001000: 524464 654765 510642 489874 643201
0110010011100100110001000: 524464 654765 516983 489874 643201
0110010010100010100000100: 524464 570191 495837 600683 503677
0110010011100000100001000: 524464 570191 495837 573922 600683
0110010010100010100100110: 524464 570191 495837 573922 503677
0110010010100010100000100: 524464 570191 654765 600683 643201
0110010010100010100000100: 524464 570191 654765 600683 489874
0110010011100000100001000: 524464 570191 654765 573922 600683
0110010010100010100000100: 524464 570191 654765 573922 489874
0110010010100010100100110: 524464 570191 654765 573922 643201
0111010101110001000001000: 524464 570191 510642 495837 600683
0111010101110001000001000: 524464 570191 510642 654765 600683
0111010110110011100000100: 524464 570191 510642 516983 557073
0111010101110001000001000: 524464 570191 516983 654765 600683
0111010101110001000001000: 524464 570191 516983 654765 573922
0111110110110001100010000: 524464 570191 516983 510642 654765
0111010110110011100000100: 524464 570191 516983 510642 489874
0110010010100010100100110: 524464 510642 495837 573922 503677
0110010011100000100001000: 524464 510642 495837 557073 573922
0110010010100010100000100: 524464 510642 495837 557073 503677
0110010010100010100000100: 524464 510642 654765 573922 489874
0110010010100010100100110: 524464 510642 654765 573922 643201
0110010011100000100001000: 524464 510642 654765 557073 573922
0110010010100010100000100: 524464 510642 654765 557073 643201
0110010010100010100000100: 524464 510642 654765 557073 489874
0110010011100000100001000: 524464 510642 516983 557073 573922
0111010101110001000001000: 524464 510642 570191 495837 557073
0111010100110001000100010: 524464 510642 570191 495837 503677
0111110100110001000010000: 524464 510642 570191 654765 495837
0111010101110001000001000: 524464 510642 570191 654765 557073
0111010100110001000100010: 524464 510642 570191 654765 643201
0111010100110001000100010: 524464 510642 570191 654765 489874
0110010010100010100000100: 524464 516983 510642 489874 573922
0110010010100010100000100: 524464 516983 510642 489874 557073
0111010100110001000100010: 524464 516983 495837 654765 643201
0111010101110001000101010: 524464 516983 495837 654765 489874
0111110100110001000010000: 524464 516983 495837 510642 654765
0111010101110001000001000: 524464 516983 495837 510642 489874
0111010100110001000100010: 524464 516983 495837 510642 573922
0111010100110001000100010: 524464 516983 495837 510642 557073
0111010110110011100000100: 524464 516983 495837 570191 503677
0111010100110001000100010: 524464 516983 570191 654765 643201
0111010101110001000101010: 524464 516983 570191 654765 489874
0111110110110001100010000: 524464 516983 570191 495837 654765
0111110110110011100010100: 524464 516983 570191 495837 510642
0111010110110011100000100: 524464 516983 570191 495837 600683
0111010110110011100000100: 524464 516983 570191 495837 573922
0111010101110001000001000: 516983 495837 524464 489874 503677
0110010010100010100000100: 516983 570191 495837 600683 503677
0110010011100000100001000: 516983 570191 495837 573922 600683
0110010010100010100100110: 516983 570191 495837 573922 503677
0110010011100000100001000: 516983 570191 495837 510642 600683
0110010010100010100000100: 516983 570191 495837 510642 503677
0110010011100000100001000: 516983 570191 489874 573922 600683
0110010011100000100001000: 516983 570191 489874 510642 600683
0111010101110001000001000: 516983 570191 524464 489874 600683
0111010101110001000001000: 516983 570191 524464 489874 573922
0110010010100010100000100: 516983 489874 495837 654765 503677
0110010010100010100000100: 516983 489874 570191 654765 600683
0110010010100010100000100: 516983 489874 570191 654765 573922
0110010010100010100000100: 516983 489874 570191 654765 510642
0110010011100100110001000: 516983 524464 489874 654765 510642
0111110110110001100010000: 516983 524464 570191 495837 489874
0110010010100010100000100: 525114 643201 636325 654765 600683
0110010011100000100001000: 525114 643201 636325 573922 654765
0110010010100010100000100: 525114 643201 636325 573922 600683
0111010101110001000001000: 525114 643201 484680 636325 654765
0111010101110001000001000: 525114 643201 484680 636325 573922
0110010010100010100100110: 525114 484680 636325 557073 600683
0111010101110001000001000: 525114 484680 643201 636325 557073
0111010100110001000100010: 525114 484680 643201 636325 600683
0110010011100000100001000: 510642 573922 557073 631766 503677
0110010011100000100001000: 510642 573922 557073 643201 503677
0110010011100000100001000: 510642 573922 557073 643201 631766
0110010011100000100001000: 510642 573922 524464 631766 503677
0110010011100000100001000: 510642 573922 524464 643201 503677
0110010011100000100001000: 510642 573922 524464 643201 631766
0111010101110001000001000: 510642 573922 570191 557073 503677
0111010101110001000001000: 510642 573922 570191 557073 631766
0111010101110001000001000: 510642 573922 570191 557073 643201
0110010011100100110001000: 510642 570191 557073 600683 516983
0111010101110001000001000: 510642 570191 573922 557073 516983
0111010100110001000100010: 510642 570191 573922 557073 484680
0111010101110001000101010: 510642 570191 573922 557073 600683
0111010110110011100000100: 510642 570191 573922 524464 503677
0111010110110011100000100: 510642 570191 573922 524464 631766
0111010110110011100000100: 510642 570191 573922 524464 643201
0111010101110001000101010: 510642 570191 524464 557073 600683
0111110110110001100010000: 510642 570191 524464 573922 557073
0111010110110011100000100: 510642 570191 524464 573922 495837
0111010110110011100000100: 510642 570191 524464 573922 654765
0110010010100010100000100: 510642 557073 573922 484680 503677
0110010010100010100000100: 510642 557073 573922 484680 631766
0110010010100010100100110: 510642 557073 573922 484680 643201
0110010011100000100001000: 510642 557073 573922 600683 484680
0110010010100010100000100: 510642 557073 573922 600683 503677
0110010010100010100000100: 510642 557073 573922 600683 631766
0110010010100010100000100: 510642 557073 573922 600683 643201
0110010010100010100000100: 510642 557073 570191 484680 516983
0110010011100100110001000: 510642 557073 570191 600683 484680
0110010011100000100001000: 510642 557073 524464 600683 484680
0110010010100010100000100: 510642 524464 573922 495837 631766
0110010010100010100000100: 510642 524464 573922 495837 643201
0110010011100000100001000: 510642 524464 573922 654765 495837
0110010010100010100000100: 510642 524464 573922 654765 503677
0110010010100010100000100: 510642 524464 573922 654765 631766
0110010011100000100001000: 510642 524464 573922 516983 654765
0110010010100010100000100: 510642 524464 573922 516983 503677
0110010010100010100000100: 510642 524464 573922 516983 631766
0110010010100010100000100: 510642 524464 573922 516983 643201
0110010010100010100000100: 510642 524464 557073 495837 484680
0110010010100010100000100: 510642 524464 557073 495837 600683
0110010011100000100001000: 510642 524464 557073 654765 495837
0110010010100010100000100: 510642 524464 557073 654765 484680
0110010010100010100000100: 510642 524464 557073 654765 600683
0110010011100000100001000: 510642 524464 557073 516983 654765
0110010010100010100000100: 510642 524464 557073 516983 484680
0110010010100010100000100: 510642 524464 557073 516983 600683
0111010100110001000100010: 510642 524464 570191 557073 484680
0110010010100010100000100: 557073 600683 484680 636325 643201
0110010011100000100001000: 557073 600683 484680 570191 636325
0110010010100010100000100: 557073 600683 484680 570191 643201
0110010010100010100000100: 557073 600683 484680 570191 525114
0110010011100100110001000: 557073 600683 510642 570191 636325
0110010010100010100000100: 557073 510642 484680 573922 525114
0110010010100010100000100: 557073 510642 484680 570191 643201
0110010010100010100000100: 557073 510642 484680 570191 525114
0110010011100000100001000: 557073 510642 484680 524464 573922
0110010010100010100000100: 557073 510642 484680 524464 643201
0110010010100010100000100: 557073 510642 484680 524464 525114
0110010010100010100000100: 557073 510642 600683 573922 636325
0110010011100000100001000: 557073 510642 600683 524464 573922
0110010010100010100000100: 557073 510642 600683 524464 636325
0110010010100010100000100: 489874 516983 654765 495837 643201
0110010011100000100001000: 489874 516983 654765 570191 495837
0110010010100010100000100: 489874 516983 654765 570191 643201
0110010011100000100001000: 570191 600683 573922 557073 636325
0110010011100000100001000: 570191 600683 516983 557073 636325
0110010011100000100001000: 570191 600683 524464 557073 636325
0110010010100010100000100: 570191 573922 600683 503677 636325
0110010010100010100000100: 570191 573922 600683 503677 557073
0110010011100000100001000: 570191 573922 600683 631766 503677
0110010010100010100000100: 570191 573922 600683 631766 636325
0110010010100010100000100: 570191 573922 600683 631766 557073
0110010011100000100001000: 570191 573922 600683 643201 503677
0110010011100000100001000: 570191 573922 600683 643201 631766
0110010010100010100000100: 570191 573922 600683 643201 636325
0110010010100010100000100: 570191 573922 600683 643201 557073
0110010011100000100001000: 570191 573922 516983 631766 503677
0110010011100000100001000: 570191 573922 516983 643201 503677
0110010011100000100001000: 570191 573922 516983 643201 631766
0110010011100000100001000: 570191 573922 524464 631766 503677
0110010011100000100001000: 570191 573922 524464 643201 503677
0110010011100000100001000: 570191 573922 524464 643201 631766
0111010101110001000001000: 570191 573922 510642 600683 503677
0111010101110001000001000: 570191 573922 510642 600683 631766
0111010101110001000001000: 570191 573922 510642 600683 643201
0111010101110001000001000: 570191 573922 510642 516983 503677
0111010101110001000001000: 570191 573922 510642 516983 631766
0111010101110001000001000: 570191 573922 510642 516983 643201
0111010100110001000100010: 570191 510642 573922 600683 636325
0111110100110001000010000: 570191 510642 573922 516983 600683
0111010100110001000100010: 570191 510642 573922 516983 495837
0111010100110001000100010: 570191 510642 573922 516983 489874
0111110110110001100010000: 570191 510642 524464 573922 600683
0110010010100010100000100: 570191 516983 600683 495837 636325
0110010010100010100000100: 570191 516983 600683 495837 557073
0110010011100000100001000: 570191 516983 600683 489874 495837
0110010010100010100000100: 570191 516983 600683 489874 636325
0110010010100010100000100: 570191 516983 600683 489874 557073
0110010010100010100000100: 570191 516983 573922 495837 631766
0110010010100010100000100: 570191 516983 573922 495837 643201
0110010011100000100001000: 570191 516983 573922 489874 495837
0110010010100010100000100: 570191 516983 573922 489874 503677
0110010010100010100000100: 570191 516983 573922 489874 631766
0110010010100010100000100: 570191 516983 573922 489874 643201
0110010010100010100000100: 570191 516983 510642 495837 557073
0110010011100000100001000: 570191 516983 510642 489874 495837
0110010010100010100000100: 570191 516983 510642 489874 557073
0110010010100010100000100: 570191 524464 600683 495837 636325
0110010010100010100000100: 570191 524464 600683 495837 557073
0110010011100000100001000: 570191 524464 600683 654765 495837
0110010010100010100000100: 570191 524464 600683 654765 636325
0110010010100010100000100: 570191 524464 600683 654765 557073
0110010010100010100000100: 570191 524464 573922 495837 631766
0110010010100010100000100: 570191 524464 573922 495837 643201
0110010011100000100001000: 570191 524464 573922 654765 495837
0110010010100010100000100: 570191 524464 573922 654765 503677
0110010010100010100000100: 570191 524464 573922 654765 631766
0111010100110001000100010: 570191 524464 510642 600683 636325
0111110110110011100010100: 570191 524464 510642 516983 573922
0111010100110001000100010: 570191 524464 516983 600683 636325
0111010100110001000100010: 570191 524464 516983 600683 557073
0111110100110001000010000: 570191 524464 516983 573922 600683
0111010100110001000100010: 570191 524464 516983 573922 503677
0111010100110001000100010: 570191 524464 516983 573922 631766
0111010100110001000100010: 570191 524464 516983 573922 643201
0111110110110001100010000: 570191 524464 516983 510642 600683
0110010010100010100000100: 573922 631766 503677 646125 495837
0110010010100010100000100: 573922 643201 503677 654765 495837
0110010011100000100001000: 573922 643201 503677 484680 654765
0110010010100010100000100: 573922 643201 503677 484680 495837
0110010011100000100001000: 573922 643201 503677 525114 654765
0110010010100010100000100: 573922 643201 503677 525114 495837
0110010010100010100000100: 573922 643201 631766 654765 646125
0110010011100000100001000: 573922 643201 631766 484680 654765
0110010010100010100000100: 573922 643201 631766 484680 646125
0110010011100000100001000: 573922 643201 631766 525114 654765
0110010010100010100000100: 573922 643201 631766 525114 646125
0110010011100000100001000: 573922 643201 570191 484680 654765
0110010011100000100001000: 573922 643201 570191 525114 654765
0110010011100000100001000: 573922 643201 510642 484680 654765
0110010011100000100001000: 573922 643201 510642 525114 654765
0110010010100010100000100: 573922 570191 503677 600683 495837
0110010011100000100001000: 573922 570191 503677 516983 600683
0110010011100000100001000: 573922 570191 503677 524464 600683
0110010010100010100000100: 573922 570191 631766 600683 646125
0110010011100000100001000: 573922 570191 631766 516983 600683
0110010010100010100000100: 573922 570191 631766 516983 646125
0110010011100000100001000: 573922 570191 631766 524464 600683
0110010010100010100000100: 573922 570191 631766 524464 646125
0111110000100001000010000: 573922 570191 643201 631766 503677
0110010010100010100000100: 573922 570191 643201 600683 654765
0110010010100010100000100: 573922 570191 643201 600683 484680
0110010010100010100000100: 573922 570191 643201 600683 525114
0110010011100000100001000: 573922 570191 643201 516983 600683
0110010010100010100000100: 573922 570191 643201 516983 654765
0110010010100010100000100: 573922 570191 643201 516983 484680
0110010010100010100000100: 573922 570191 643201 516983 525114
0110010011100000100001000: 573922 570191 643201 524464 600683
0110010010100010100000100: 573922 570191 643201 524464 484680
0110010010100010100000100: 573922 570191 643201 524464 525114
0110010010100010100000100: 573922 510642 503677 557073 495837
0110010011100000100001000: 573922 510642 503677 524464 557073
0110010010100010100000100: 573922 510642 631766 557073 646125
0110010011100000100001000: 573922 510642 631766 524464 557073
0110010010100010100000100: 573922 510642 631766 524464 646125
0111110000100001000010000: 573922 510642 643201 631766 503677
0110010010100010100000100: 573922 510642 643201 557073 654765
0110010010100010100000100: 573922 510642 643201 557073 525114
0110010011100000100001000: 573922 510642 643201 524464 557073
0110010010100010100000100: 573922 510642 643201 524464 484680
0110010010100010100000100: 573922 510642 643201 524464 525114
0111010100110001000100010: 573922 510642 570191 503677 495837
0111110100110001000010000: 573922 510642 570191 631766 503677
0111010100110001000100010: 573922 510642 570191 631766 646125
0111110100110001000010000: 573922 510642 570191 643201 503677
0111110100110001000010000: 573922 510642 570191 643201 631766
0111010100110001000100010: 573922 510642 570191 643201 654765
0111010100110001000100010: 573922 510642 570191 643201 484680
0111010100110001000100010: 573922 510642 570191 643201 525114
0110010010100010100000100: 600683 570191 636325 573922 525114
0110010010100010100000100: 600683 570191 636325 510642 525114
0110010011100000100001000: 600683 570191 636325 516983 573922
0110010011100000100001000: 600683 570191 636325 516983 510642
0110010010100010100000100: 600683 570191 636325 516983 525114
0110010011100000100001000: 600683 570191 636325 524464 573922
0110010010100010100000100: 600683 570191 636325 524464 525114
0110010011100000100001000: 600683 570191 557073 516983 573922
0110010011100000100001000: 600683 570191 557073 524464 573922
0110010011100000100001000: 600683 557073 636325 510642 484680
0110010010100010100000100: 600683 557073 636325 510642 525114
0110010010100010100000100: 600683 557073 570191 484680 573922
0110010010100010100000100: 600683 557073 570191 484680 516983
0110010010100010100000100: 600683 557073 570191 484680 524464
0110010011100000100001000: 484680 643201 557073 573922 654765
0111010101110001000001000: 484680 643201 525114 557073 654765
0111010101110001000001000: 484680 643201 525114 557073 573922
0110010010100010100000100: 484680 557073 643201 600683 654765
0110010010100010100000100: 484680 557073 643201 600683 573922
0110010011100000100001000: 484680 557073 643201 510642 600683
0110010010100010100000100: 484680 557073 643201 510642 654765
0110010011100000100001000: 484680 557073 525114 510642 600683
0110010010100010100000100: 484680 525114 557073 636325 510642
0111010100110001000100010: 484680 525114 643201 557073 600683
0111010100110001000100010: 484680 525114 643201 557073 510642
0110010011100000100001000: 643201 654765 484680 524464 489874
0110010011100000100001000: 643201 654765 573922 524464 489874
0110010011100000100001000: 643201 654765 525114 524464 489874
0110010010100010100000100: 643201 484680 654765 557073 489874
0110010010100010100000100: 643201 484680 654765 557073 524464
0110010010100010100000100: 643201 573922 654765 503677 489874
0110010010100010100000100: 643201 573922 654765 503677 524464
0110010011100000100001000: 643201 573922 654765 631766 503677
0110010010100010100000100: 643201 573922 654765 631766 489874
0110010010100010100000100: 643201 573922 654765 631766 524464
0110010011100000100001000: 643201 573922 654765 570191 503677
0110010011100000100001000: 643201 573922 654765 570191 631766
0110010010100010100000100: 643201 573922 654765 570191 489874
0110010011100000100001000: 643201 573922 654765 510642 503677
0110010011100000100001000: 643201 573922 654765 510642 631766
0110010010100010100000100: 643201 573922 654765 510642 489874
0110010010100010100000100: 643201 573922 484680 503677 557073
0110010011100000100001000: 643201 573922 484680 631766 503677
0110010010100010100000100: 643201 573922 484680 631766 557073
0110010011100000100001000: 643201 573922 484680 570191 503677
0110010011100000100001000: 643201 573922 484680 570191 631766
0110010010100010100000100: 643201 573922 484680 570191 557073
0110010011100000100001000: 643201 573922 484680 510642 503677
0110010011100000100001000: 643201 573922 484680 510642 631766
0110010011100000100001000: 643201 573922 525114 631766 503677
0110010011100000100001000: 643201 573922 525114 570191 503677
0110010011100000100001000: 643201 573922 525114 570191 631766
0110010011100000100001000: 643201 573922 525114 510642 503677
0110010011100000100001000: 643201 573922 525114 510642 631766
0110010010100010100000100: 643201 525114 654765 636325 489874
0110010010100010100000100: 643201 525114 654765 636325 524464
0110010010100010100000100: 643201 525114 573922 636325 503677
0110010010100010100000100: 643201 525114 573922 636325 631766
0110010010100010100000100: 643201 525114 573922 636325 570191
0110010010100010100000100: 643201 525114 573922 636325 510642
0111010100110001000100010: 643201 525114 484680 654765 489874
0111010100110001000100010: 643201 525114 484680 654765 524464
0111110100110001000010000: 643201 525114 484680 573922 654765
0111010100110001000100010: 643201 525114 484680 573922 503677
0111010100110001000100010: 643201 525114 484680 573922 631766
0111010100110001000100010: 643201 525114 484680 573922 570191
0111010100110001000100010: 643201 525114 484680 573922 510642
0110010011100000100001000: 631766 573922 646125 643201 503677
0110010011100000100001000: 631766 573922 646125 570191 503677
0110010011100000100001000: 631766 573922 646125 570191 643201
0110010011100000100001000: 631766 573922 646125 510642 503677
0110010011100000100001000: 631766 573922 646125 510642 643201
0110010010100010100000100: 503677 573922 495837 631766 516983
0110010010100010100000100: 503677 573922 495837 631766 524464
0110010011100000100001000: 503677 573922 495837 643201 631766
0110010010100010100000100: 503677 573922 495837 643201 516983
0110010010100010100000100: 503677 573922 495837 643201 524464
0110010011100000100001000: 503677 573922 495837 570191 631766
0110010011100000100001000: 503677 573922 495837 570191 643201
0110010011100000100001000: 503677 573922 495837 510642 631766
0110010011100000100001000: 503677 573922 495837 510642 643201
0110010010100010100000100: 503677 573922 495837 510642 516983
0110010011100000100001000: 636325 600683 525114 557073 570191
0110010010100010100000100: 636325 525114 600683 643201 570191
0110010010100010100000100: 636325 525114 600683 643201 557073
0110010010100010100000100: 636325 525114 600683 484680 570191
0110010011100000100001000: 654765 643201 489874 573922 484680
0110010011100000100001000: 654765 643201 489874 525114 573922
0110010011100000100001000: 654765 643201 524464 573922 484680
0110010011100000100001000: 654765 643201 524464 525114 573922
0110010010100010100000100: 654765 489874 643201 516983 484680
0110010010100010100000100: 654765 489874 643201 516983 573922
0110010010100010100000100: 654765 489874 643201 516983 525114
0110010010100010100000100: 654765 524464 643201 495837 484680
0110010010100010100000100: 654765 524464 643201 495837 573922
0110010010100010100000100: 654765 524464 643201 495837 525114
0110010011100000100001000: 654765 524464 643201 570191 495837
0110010010100010100000100: 654765 524464 643201 570191 484680
0110010010100010100000100: 654765 524464 643201 570191 525114
0110010011100000100001000: 654765 524464 643201 510642 495837
0110010010100010100000100: 654765 524464 643201 510642 484680
0110010010100010100000100: 654765 524464 643201 510642 525114
0110010011100000100001000: 654765 524464 643201 516983 510642
0110010010100010100000100: 654765 524464 643201 516983 484680
0110010010100010100000100: 654765 524464 643201 516983 573922
0110010010100010100000100: 654765 524464 643201 516983 525114
0110010011100000100001000: 654765 524464 489874 570191 495837
0110010011100000100001000: 654765 524464 489874 510642 495837
0110010011100000100001000: 495837 516983 503677 489874 570191
0110010010100010100000100: 495837 516983 503677 489874 573922
0110010010100010100000100: 495837 524464 503677 654765 573922
0110010011100000100001000: 495837 524464 503677 570191 654765
0110010011100000100001000: 495837 524464 503677 510642 654765
0111010100110001000100010: 495837 524464 516983 503677 573922
