0111010101110001000001000: 554368 582984 488949 570070 535120
0111010101110001000001000: 554368 582984 488949 537783 535120
0111010101110001000001000: 554368 582984 488949 651572 535120
0111010101110001000101010: 554368 582984 488949 555343 535120
0111010101110001000001000: 554368 582984 488949 476801 535120
0111010101110001000001000: 554368 582984 488949 474588 535120
0111010110110011100000100: 554368 582984 488949 595993 512279
0111010101110001000001000: 554368 582984 595993 570070 535120
0111010101110001000001000: 554368 582984 595993 574761 535120
0111010101110001000001000: 554368 582984 595993 537783 535120
0111010101110001000001000: 554368 582984 595993 651572 535120
0111010101110001000001000: 554368 582984 595993 476801 535120
0111010101110001000001000: 554368 582984 595993 474588 535120
0111110110110001100010000: 554368 582984 595993 488949 570070
0111110110110001100010000: 554368 582984 595993 488949 537783
0111110110110001100010000: 554368 582984 595993 488949 651572
0111110110110001100010000: 554368 582984 595993 488949 476801
0111110110110001100010000: 554368 582984 595993 488949 474588
0111010110110011100000100: 554368 582984 595993 488949 462624
0111010110110011100000100: 554368 582984 595993 488949 539046
0111010110110011100000100: 554368 582984 595993 488949 456927
0111010110110011100000100: 554368 582984 595993 524435 462624
0111010110110011100000100: 554368 582984 595993 524435 539046
0111010110110011100000100: 554368 582984 595993 524435 456927
0111010101110001000001000: 554368 582984 524435 570070 535120
0111010101110001000001000: 554368 582984 524435 574761 535120
0111010101110001000001000: 554368 582984 524435 537783 535120
0111010101110001000001000: 554368 582984 524435 651572 535120
0111010101110001000101010: 554368 582984 524435 555343 535120
0111010101110001000001000: 554368 582984 524435 476801 535120
0111010101110001000001000: 554368 582984 524435 476746 535120
0111110110110001100010000: 554368 582984 524435 488949 570070
0111110110110001100010000: 554368 582984 524435 488949 537783
0111110110110001100010000: 554368 582984 524435 488949 651572
0111110110110001100010000: 554368 582984 524435 488949 555343
0111110110110001100010000: 554368 582984 524435 488949 476801
0111010110110011100100110: 554368 582984 524435 488949 512279
0111110110110001100010000: 554368 582984 524435 595993 570070
0111110110110001100010000: 554368 582984 524435 595993 574761
0111110110110001100010000: 554368 582984 524435 595993 537783
0111110110110001100010000: 554368 582984 524435 595993 651572
0111110110110001100010000: 554368 582984 524435 595993 476801
0111110111110001100011000: 554368 582984 524435 595993 488949
0111010110110011100000100: 554368 582984 524435 595993 512279
0111010110110011100000100: 554368 570070 651572 476746 539046
0111110110110001100010000: 554368 570070 476746 651572 582984
0111110110110001100010000: 554368 570070 476746 651572 574761
0111110110110001100010000: 554368 570070 476746 651572 555343
0111110110110001100010000: 554368 570070 476746 651572 474588
0111110110110001100010000: 554368 570070 476746 651572 524435
0111010101110001000001000: 554368 488949 582984 570070 512279
0111110100110001000010000: 554368 488949 582984 537783 570070
0111010101110001000001000: 554368 488949 582984 537783 512279
0111010101110001000001000: 554368 488949 582984 651572 512279
0111010100110001000100010: 554368 488949 582984 651572 539046
0111110100110001000010000: 554368 488949 582984 555343 570070
0111110100110001000010000: 554368 488949 582984 555343 537783
0111110100110001000010000: 554368 488949 582984 555343 651572
0111010101110001000001000: 554368 488949 582984 555343 512279
0111110100110001000010000: 554368 488949 582984 476801 570070
0111110100110001000010000: 554368 488949 582984 476801 537783
0111110100110001000010000: 554368 488949 582984 476801 651572
0111110100110001000010000: 554368 488949 582984 476801 555343
0111010101110001000001000: 554368 488949 582984 476801 512279
0111010100110001000100010: 554368 488949 582984 476801 456927
0111110100110001000010000: 554368 488949 582984 474588 570070
0111110100110001000010000: 554368 488949 582984 474588 651572
0111110100110001000010000: 554368 488949 582984 474588 476801
0111010101110001000001000: 554368 488949 582984 474588 512279
0111010100110001000100010: 554368 488949 582984 474588 539046
0111010100110001000100010: 554368 488949 582984 474588 456927
0111110110110011100010100: 554368 488949 582984 574761 595993
0111110110110011100010100: 554368 488949 582984 574761 524435
0111010110110011100000100: 554368 488949 582984 574761 535120
0111110110110011100010100: 554368 488949 582984 476746 524435
0111010110110011100000100: 554368 488949 582984 476746 535120
0111010101110001000001000: 554368 488949 574761 570070 512279
0111110100110001000010000: 554368 488949 574761 537783 570070
0111010101110001000001000: 554368 488949 574761 537783 512279
0111110100110001000010000: 554368 488949 574761 595993 570070
0111110100110001000010000: 554368 488949 574761 595993 537783
0111010101110001000001000: 554368 488949 574761 595993 512279
0111010100110001000100010: 554368 488949 574761 595993 462624
0111010100110001000100010: 554368 488949 574761 595993 539046
0111010100110001000100010: 554368 488949 574761 595993 456927
0111110100110001000010000: 554368 488949 574761 651572 595993
0111010101110001000001000: 554368 488949 574761 651572 512279
0111010100110001000100010: 554368 488949 574761 651572 539046
0111110100110001000010000: 554368 488949 574761 555343 570070
0111110100110001000010000: 554368 488949 574761 555343 537783
0111110100110001000010000: 554368 488949 574761 555343 651572
0111010101110001000001000: 554368 488949 574761 555343 512279
0111010100110001000100010: 554368 488949 574761 555343 535120
0111110100110001000010000: 554368 488949 574761 476801 570070
0111110100110001000010000: 554368 488949 574761 476801 537783
0111110100110001000010000: 554368 488949 574761 476801 595993
0111110100110001000010000: 554368 488949 574761 476801 651572
0111110100110001000010000: 554368 488949 574761 476801 555343
0111010101110001000001000: 554368 488949 574761 476801 512279
0111010100110001000100010: 554368 488949 574761 476801 456927
0111110100110001000010000: 554368 488949 574761 474588 570070
0111110100110001000010000: 554368 488949 574761 474588 595993
0111110100110001000010000: 554368 488949 574761 474588 651572
0111110100110001000010000: 554368 488949 574761 474588 476801
0111010101110001000001000: 554368 488949 574761 474588 512279
0111010100110001000100010: 554368 488949 574761 474588 539046
0111010100110001000100010: 554368 488949 574761 474588 456927
0111110100110001000010000: 554368 488949 574761 524435 570070
0111110100110001000010000: 554368 488949 574761 524435 537783
0111110100110001000010000: 554368 488949 574761 524435 595993
0111110100110001000010000: 554368 488949 574761 524435 651572
0111110100110001000010000: 554368 488949 574761 524435 555343
0111110100110001000010000: 554368 488949 574761 524435 476801
0111010101110001000101010: 554368 488949 574761 524435 512279
0111110110110001100010000: 554368 488949 574761 582984 570070
0111110110110001100010000: 554368 488949 574761 582984 537783
0111110110110001100010000: 554368 488949 574761 582984 651572
0111110110110001100010000: 554368 488949 574761 582984 555343
0111110110110001100010000: 554368 488949 574761 582984 476801
0111110110110001100010000: 554368 488949 574761 582984 474588
0111010101110001000001000: 554368 488949 476746 537783 512279
0111010101110001000001000: 554368 488949 476746 651572 512279
0111010101110001000001000: 554368 488949 476746 555343 512279
0111010101110001000001000: 554368 488949 476746 474588 512279
0111010101110001000101010: 554368 488949 476746 524435 512279
0111110110110001100010000: 554368 488949 476746 582984 537783
0111110110110001100010000: 554368 488949 476746 582984 651572
0111110110110001100010000: 554368 488949 476746 582984 555343
0111110110110001100010000: 554368 488949 476746 582984 474588
0111110110110001100010000: 554368 488949 476746 574761 537783
0111110110110001100010000: 554368 488949 476746 574761 651572
0111110110110001100010000: 554368 488949 476746 574761 555343
0111110110110001100010000: 554368 488949 476746 574761 474588
0111110110110001100010000: 554368 488949 476746 574761 524435
0111110111110001100011000: 554368 488949 476746 574761 582984
0111110000100001000010000: 554368 537783 574761 570070 582984
0111110110110001100010000: 554368 537783 474588 651572 582984
0111110110110001100010000: 554368 537783 474588 651572 574761
0111110110110001100010000: 554368 537783 474588 651572 488949
0111110110110001100010000: 554368 537783 474588 651572 595993
0111110110110001100010000: 554368 537783 474588 651572 476801
0111110110110001100010000: 554368 537783 474588 651572 476746
0111010110110011100000100: 554368 537783 474588 651572 456927
0111010110110011100100110: 554368 537783 474588 651572 539046
0110010011100000100001000: 554368 595993 570070 539046 462624
0110010011100000100001000: 554368 595993 570070 456927 462624
0110010011100000100001000: 554368 595993 570070 456927 539046
0110010011100000100001000: 554368 595993 574761 539046 462624
0110010011100000100001000: 554368 595993 574761 456927 462624
0110010011100000100001000: 554368 595993 574761 456927 539046
0110010010100010100100110: 554368 595993 488949 462624 512279
0110010011100000100001000: 554368 595993 488949 539046 462624
0110010010100010100000100: 554368 595993 488949 539046 512279
0110010011100000100001000: 554368 595993 488949 456927 462624
0110010011100000100001000: 554368 595993 488949 456927 539046
0110010010100010100000100: 554368 595993 488949 456927 512279
0111110000100001000010000: 554368 595993 537783 574761 570070
0111110000100001000010000: 554368 595993 537783 488949 570070
0110010011100000100001000: 554368 595993 537783 539046 462624
0110010011100000100001000: 554368 595993 537783 456927 462624
0110010011100000100001000: 554368 595993 537783 456927 539046
0110010011100000100001000: 554368 595993 651572 456927 462624
0110010011100100110001000: 554368 595993 651572 539046 462624
0110010011100100110001000: 554368 595993 651572 539046 456927
0110010011100000100001000: 554368 595993 476801 539046 462624
0110010011100100110001000: 554368 595993 476801 456927 462624
0110010011100100110001000: 554368 595993 476801 456927 539046
0110010011100100110001000: 554368 595993 474588 539046 462624
0110010011100100110001000: 554368 595993 474588 456927 462624
0110010011100000100001000: 554368 595993 524435 539046 462624
0110010011100000100001000: 554368 595993 524435 456927 462624
0110010011100000100001000: 554368 595993 524435 456927 539046
0111010101110001000001000: 554368 595993 582984 570070 462624
0111010101110001000001000: 554368 595993 582984 570070 539046
0111010101110001000001000: 554368 595993 582984 570070 456927
0111110100110001000010000: 554368 595993 582984 574761 570070
0111010101110001000001000: 554368 595993 582984 574761 462624
0111010101110001000001000: 554368 595993 582984 574761 539046
0111010101110001000001000: 554368 595993 582984 574761 456927
0111110100110001000010000: 554368 595993 582984 537783 570070
0111110100110001000010000: 554368 595993 582984 537783 574761
0111010101110001000001000: 554368 595993 582984 537783 462624
0111010101110001000001000: 554368 595993 582984 537783 539046
0111010101110001000001000: 554368 595993 582984 537783 456927
0111110100110001000010000: 554368 595993 582984 651572 574761
0111010101110001000001000: 554368 595993 582984 651572 462624
0111010101110001000001000: 554368 595993 582984 651572 456927
0111010101110001000101010: 554368 595993 582984 651572 539046
0111110100110001000010000: 554368 595993 582984 476801 570070
0111110100110001000010000: 554368 595993 582984 476801 574761
0111110100110001000010000: 554368 595993 582984 476801 537783
0111110100110001000010000: 554368 595993 582984 476801 651572
0111010101110001000001000: 554368 595993 582984 476801 462624
0111010101110001000001000: 554368 595993 582984 476801 539046
0111010101110001000101010: 554368 595993 582984 476801 456927
0111110100110001000010000: 554368 595993 582984 474588 570070
0111110100110001000010000: 554368 595993 582984 474588 574761
0111110100110001000010000: 554368 595993 582984 474588 651572
0111110100110001000010000: 554368 595993 582984 474588 476801
0111010101110001000001000: 554368 595993 582984 474588 462624
0111010101110001000101010: 554368 595993 582984 474588 539046
0111010101110001000101010: 554368 595993 582984 474588 456927
0111110110110011100010100: 554368 595993 582984 555343 488949
0111110110110011100010100: 554368 595993 582984 555343 524435
0111110110110011100010100: 554368 595993 582984 476746 524435
0111010110110011100000100: 554368 595993 582984 476746 535120
0111010101110001000001000: 554368 595993 555343 570070 462624
0111010101110001000001000: 554368 595993 555343 570070 539046
0111010101110001000001000: 554368 595993 555343 570070 456927
0111010101110001000001000: 554368 595993 555343 574761 462624
0111010101110001000001000: 554368 595993 555343 574761 539046
0111010101110001000001000: 554368 595993 555343 574761 456927
0111010101110001000001000: 554368 595993 555343 488949 462624
0111010101110001000001000: 554368 595993 555343 488949 539046
0111010101110001000001000: 554368 595993 555343 488949 456927
0111010101110001000001000: 554368 595993 555343 537783 462624
0111010101110001000001000: 554368 595993 555343 537783 539046
0111010101110001000001000: 554368 595993 555343 537783 456927
0111010101110001000001000: 554368 595993 555343 651572 462624
0111010101110001000001000: 554368 595993 555343 651572 456927
0111010101110001000101010: 554368 595993 555343 651572 539046
0111010101110001000001000: 554368 595993 555343 476801 462624
0111010101110001000001000: 554368 595993 555343 476801 539046
0111010101110001000101010: 554368 595993 555343 476801 456927
0111010101110001000001000: 554368 595993 555343 524435 462624
0111010101110001000001000: 554368 595993 555343 524435 539046
0111010101110001000001000: 554368 595993 555343 524435 456927
0111110110110001100010000: 554368 595993 555343 582984 570070
0111110110110001100010000: 554368 595993 555343 582984 574761
0111110110110001100010000: 554368 595993 555343 582984 537783
0111110110110001100010000: 554368 595993 555343 582984 651572
0111110110110001100010000: 554368 595993 555343 582984 476801
0111010110110011100100110: 554368 595993 555343 582984 535120
0111010110110011100000100: 554368 595993 555343 476746 535120
0111010101110001000001000: 554368 595993 476746 574761 462624
0111010101110001000001000: 554368 595993 476746 574761 539046
0111010101110001000001000: 554368 595993 476746 574761 456927
0111010101110001000001000: 554368 595993 476746 537783 462624
0111010101110001000001000: 554368 595993 476746 537783 539046
0111010101110001000001000: 554368 595993 476746 537783 456927
0111010101110001000001000: 554368 595993 476746 651572 462624
0111010101110001000001000: 554368 595993 476746 651572 456927
0111010101110001000101010: 554368 595993 476746 651572 539046
0111010101110001000001000: 554368 595993 476746 474588 462624
0111010101110001000101010: 554368 595993 476746 474588 539046
0111010101110001000101010: 554368 595993 476746 474588 456927
0111010101110001000001000: 554368 595993 476746 524435 462624
0111010101110001000001000: 554368 595993 476746 524435 539046
0111010101110001000001000: 554368 595993 476746 524435 456927
0111110110110001100010000: 554368 595993 476746 582984 574761
0111110110110001100010000: 554368 595993 476746 582984 537783
0111110110110001100010000: 554368 595993 476746 582984 651572
0111110110110001100010000: 554368 595993 476746 582984 474588
0111110110110001100010000: 554368 595993 476746 555343 574761
0111110110110001100010000: 554368 595993 476746 555343 537783
0111110110110001100010000: 554368 595993 476746 555343 651572
0111110110110001100010000: 554368 595993 476746 555343 524435
0111110111110001100011000: 554368 595993 476746 555343 582984
0110010010100010100000100: 554368 651572 582984 539046 535120
0110010010100010100000100: 554368 651572 488949 539046 512279
0111010101110001000001000: 554368 651572 570070 582984 539046
0111010100110001000100010: 554368 651572 570070 582984 535120
0111110100110001000010000: 554368 651572 570070 574761 582984
0111010101110001000001000: 554368 651572 570070 574761 539046
0111010101110001000001000: 554368 651572 570070 488949 539046
0111010100110001000100010: 554368 651572 570070 488949 512279
0111110100110001000110010: 554368 651572 570070 488949 582984
0111110100110001000110010: 554368 651572 570070 488949 574761
0111110100110001000010000: 554368 651572 570070 595993 574761
0111110100110001000010000: 554368 651572 570070 595993 488949
0111010100110001000100010: 554368 651572 570070 595993 462624
0111010100110001000100010: 554368 651572 570070 595993 456927
0111110100110001000110010: 554368 651572 570070 595993 582984
0111010101110001000101010: 554368 651572 570070 595993 539046
0111110100110001000010000: 554368 651572 570070 555343 582984
0111110100110001000010000: 554368 651572 570070 555343 574761
0111110100110001000010000: 554368 651572 570070 555343 488949
0111010101110001000001000: 554368 651572 570070 555343 539046
0111010100110001000100010: 554368 651572 570070 555343 535120
0111110100110001000010000: 554368 651572 570070 476801 582984
0111110100110001000010000: 554368 651572 570070 476801 574761
0111110100110001000010000: 554368 651572 570070 476801 488949
0111110100110001000010000: 554368 651572 570070 476801 595993
0111110100110001000010000: 554368 651572 570070 476801 555343
0111010101110001000001000: 554368 651572 570070 476801 539046
0111010100110001000100010: 554368 651572 570070 476801 456927
0111110100110001000010000: 554368 651572 570070 474588 582984
0111110100110001000010000: 554368 651572 570070 474588 574761
0111110100110001000010000: 554368 651572 570070 474588 488949
0111110100110001000010000: 554368 651572 570070 474588 595993
0111110100110001000010000: 554368 651572 570070 474588 476801
0111010100110001000100010: 554368 651572 570070 474588 456927
0111010101110001000101010: 554368 651572 570070 474588 539046
0111110100110001000010000: 554368 651572 570070 524435 574761
0111110100110001000010000: 554368 651572 570070 524435 488949
0111110100110001000010000: 554368 651572 570070 524435 595993
0111110100110001000010000: 554368 651572 570070 524435 555343
0111110100110001000010000: 554368 651572 570070 524435 476801
0111010101110001000001000: 554368 651572 570070 524435 539046
0111010100110001000100010: 554368 651572 570070 524435 512279
0111110110110011100010100: 554368 651572 570070 537783 476746
0111010101110001000001000: 554368 651572 537783 582984 539046
0111010100110001000100010: 554368 651572 537783 582984 535120
0111110100110001000010000: 554368 651572 537783 574761 582984
0111010101110001000001000: 554368 651572 537783 574761 539046
0111010101110001000001000: 554368 651572 537783 488949 539046
0111010100110001000100010: 554368 651572 537783 488949 512279
0111110100110001000110010: 554368 651572 537783 488949 582984
0111110100110001000110010: 554368 651572 537783 488949 574761
0111110100110001000010000: 554368 651572 537783 595993 574761
0111110100110001000010000: 554368 651572 537783 595993 488949
0111010100110001000100010: 554368 651572 537783 595993 462624
0111010100110001000100010: 554368 651572 537783 595993 456927
0111110100110001000110010: 554368 651572 537783 595993 582984
0111010101110001000101010: 554368 651572 537783 595993 539046
0111110100110001000010000: 554368 651572 537783 555343 582984
0111110100110001000010000: 554368 651572 537783 555343 574761
0111110100110001000010000: 554368 651572 537783 555343 488949
0111010101110001000001000: 554368 651572 537783 555343 539046
0111010100110001000100010: 554368 651572 537783 555343 535120
0111110100110001000010000: 554368 651572 537783 476801 582984
0111110100110001000010000: 554368 651572 537783 476801 574761
0111110100110001000010000: 554368 651572 537783 476801 488949
0111110100110001000010000: 554368 651572 537783 476801 595993
0111110100110001000010000: 554368 651572 537783 476801 555343
0111010101110001000001000: 554368 651572 537783 476801 539046
0111010100110001000100010: 554368 651572 537783 476801 456927
0111110100110001000010000: 554368 651572 537783 524435 574761
0111110100110001000010000: 554368 651572 537783 524435 488949
0111110100110001000010000: 554368 651572 537783 524435 595993
0111110100110001000010000: 554368 651572 537783 524435 555343
0111110100110001000010000: 554368 651572 537783 524435 476801
0111010101110001000001000: 554368 651572 537783 524435 539046
0111010100110001000100010: 554368 651572 537783 524435 512279
0111110100110001000010000: 554368 651572 537783 476746 582984
0111110100110001000010000: 554368 651572 537783 476746 574761
0111110100110001000010000: 554368 651572 537783 476746 555343
0111110100110001000010000: 554368 651572 537783 476746 524435
0111010101110001000001000: 554368 651572 537783 476746 539046
0111110110110001100010000: 554368 651572 537783 570070 582984
0111110110110001100010000: 554368 651572 537783 570070 574761
0111110110110001100010000: 554368 651572 537783 570070 488949
0111110110110001100010000: 554368 651572 537783 570070 595993
0111110110110001100010000: 554368 651572 537783 570070 555343
0111110110110001100010000: 554368 651572 537783 570070 476801
0111110110110001100010000: 554368 651572 537783 570070 524435
0111110110110011100010100: 554368 651572 537783 570070 474588
0111110000100001000010000: 554368 555343 574761 570070 582984
0110010010100010100000100: 554368 555343 488949 535120 512279
0111110000100001000010000: 554368 555343 537783 570070 582984
0111110000100001000010000: 554368 555343 537783 574761 582984
0111110000100001000010000: 554368 555343 537783 574761 570070
0111110000100001000010000: 554368 555343 537783 488949 570070
0111110000100001000010000: 554368 555343 651572 574761 582984
0110010010100010100000100: 554368 555343 651572 535120 539046
0111010101110001000001000: 554368 555343 595993 570070 535120
0111110100110001000010000: 554368 555343 595993 574761 570070
0111010101110001000001000: 554368 555343 595993 574761 535120
0111110100110001000010000: 554368 555343 595993 488949 570070
0111010101110001000001000: 554368 555343 595993 488949 535120
0111010100110001000100010: 554368 555343 595993 488949 512279
0111110100110001000110010: 554368 555343 595993 488949 574761
0111110100110001000010000: 554368 555343 595993 537783 570070
0111110100110001000010000: 554368 555343 595993 537783 574761
0111110100110001000010000: 554368 555343 595993 537783 488949
0111010101110001000001000: 554368 555343 595993 537783 535120
0111110100110001000010000: 554368 555343 595993 651572 574761
0111110100110001000010000: 554368 555343 595993 651572 488949
0111010101110001000001000: 554368 555343 595993 651572 535120
0111110100110001000110010: 554368 555343 595993 651572 570070
0111110100110001000110010: 554368 555343 595993 651572 537783
0111110100110001000010000: 554368 555343 595993 476801 570070
0111110100110001000010000: 554368 555343 595993 476801 574761
0111110100110001000010000: 554368 555343 595993 476801 488949
0111110100110001000010000: 554368 555343 595993 476801 537783
0111110100110001000010000: 554368 555343 595993 476801 651572
0111010101110001000001000: 554368 555343 595993 476801 535120
0111110100110001000010000: 554368 555343 595993 524435 570070
0111110100110001000010000: 554368 555343 595993 524435 574761
0111110100110001000010000: 554368 555343 595993 524435 488949
0111110100110001000010000: 554368 555343 595993 524435 537783
0111110100110001000010000: 554368 555343 595993 524435 651572
0111110100110001000010000: 554368 555343 595993 524435 476801
0111010101110001000001000: 554368 555343 595993 524435 535120
0111010100110001000100010: 554368 555343 595993 524435 512279
0111110110110011100010100: 554368 555343 595993 474588 582984
0111110110110011100010100: 554368 555343 595993 474588 476746
0111010110110011100000100: 554368 555343 595993 474588 462624
0111010101110001000101010: 554368 555343 474588 582984 535120
0111010101110001000001000: 554368 555343 474588 570070 535120
0111010101110001000001000: 554368 555343 474588 574761 535120
0111010101110001000001000: 554368 555343 474588 488949 535120
0111010101110001000001000: 554368 555343 474588 651572 535120
0111010101110001000001000: 554368 555343 474588 476801 535120
0111010101110001000001000: 554368 555343 474588 476746 535120
0111110110110001100010000: 554368 555343 474588 595993 570070
0111110110110001100010000: 554368 555343 474588 595993 574761
0111110110110001100010000: 554368 555343 474588 595993 488949
0111110110110001100010000: 554368 555343 474588 595993 651572
0111110110110001100010000: 554368 555343 474588 595993 476801
0111010110110011100100110: 554368 555343 474588 595993 539046
0111010110110011100100110: 554368 555343 474588 595993 456927
0110010010100010100000100: 554368 476801 582984 456927 535120
0111110000100001000010000: 554368 476801 574761 570070 582984
0110010010100010100000100: 554368 476801 488949 456927 512279
0111110000100001000010000: 554368 476801 537783 570070 582984
0111110000100001000010000: 554368 476801 537783 574761 582984
0111110000100001000010000: 554368 476801 537783 574761 570070
0111110000100001000010000: 554368 476801 537783 488949 570070
0111110000100001000010000: 554368 476801 595993 574761 570070
0111110000100001000010000: 554368 476801 595993 488949 570070
0111110000100001000010000: 554368 476801 595993 537783 570070
0111110000100001000010000: 554368 476801 595993 537783 574761
0111110000100001000010000: 554368 476801 595993 537783 488949
0111110000100001000010000: 554368 476801 651572 574761 582984
0111110000100001000010000: 554368 476801 651572 595993 574761
0111110000100001000010000: 554368 476801 651572 595993 488949
0110010010100010100000100: 554368 476801 651572 456927 539046
0111110000100001000010000: 554368 476801 555343 570070 582984
0111110000100001000010000: 554368 476801 555343 574761 582984
0111110000100001000010000: 554368 476801 555343 574761 570070
0111110000100001000010000: 554368 476801 555343 488949 570070
0111110000100001000010000: 554368 476801 555343 537783 582984
0111110000100001000010000: 554368 476801 555343 537783 570070
0111110000100001000010000: 554368 476801 555343 537783 574761
0111110000100001000010000: 554368 476801 555343 537783 488949
0111110000100001000010000: 554368 476801 555343 651572 582984
0111110000100001000010000: 554368 476801 555343 651572 574761
0111110000100001000010000: 554368 476801 555343 651572 488949
0110010010100010100000100: 554368 476801 555343 456927 535120
0111010101110001000001000: 554368 476801 476746 582984 456927
0111010101110001000001000: 554368 476801 476746 574761 456927
0111010101110001000001000: 554368 476801 476746 537783 456927
0111010101110001000001000: 554368 476801 476746 651572 456927
0111010101110001000001000: 554368 476801 476746 555343 456927
0111010101110001000101010: 554368 476801 476746 474588 456927
0111010101110001000001000: 554368 476801 476746 524435 456927
0110010010100010100000100: 554368 474588 582984 539046 535120
0110010011100000100001000: 554368 474588 582984 456927 539046
0110010010100010100000100: 554368 474588 582984 456927 535120
0110010011100000100001000: 554368 474588 570070 456927 539046
0111110000100001000010000: 554368 474588 574761 570070 582984
0110010011100000100001000: 554368 474588 574761 456927 539046
0110010010100010100000100: 554368 474588 488949 539046 512279
0110010011100000100001000: 554368 474588 488949 456927 539046
0110010010100010100000100: 554368 474588 488949 456927 512279
0111110000100001000010000: 554368 474588 595993 574761 570070
0111110000100001000010000: 554368 474588 595993 488949 570070
0110010011100110110001100: 554368 474588 595993 456927 539046
0111110000100001000010000: 554368 474588 651572 574761 582984
0111110000100001000010000: 554368 474588 651572 595993 574761
0111110000100001000010000: 554368 474588 651572 595993 488949
0110010011100100110001000: 554368 474588 651572 539046 456927
0111110000100001000010000: 554368 474588 476801 570070 582984
0111110000100001000010000: 554368 474588 476801 574761 582984
0111110000100001000010000: 554368 474588 476801 574761 570070
0111110000100001000010000: 554368 474588 476801 488949 570070
0111110000100001000010000: 554368 474588 476801 595993 570070
0111110000100001000010000: 554368 474588 476801 595993 574761
0111110000100001000010000: 554368 474588 476801 595993 488949
0111110000100001000010000: 554368 474588 476801 651572 582984
0111110000100001000010000: 554368 474588 476801 651572 574761
0111110000100001000010000: 554368 474588 476801 651572 488949
0111110000100001000010000: 554368 474588 476801 651572 595993
0110010011100100110001000: 554368 474588 476801 456927 539046
0110010011100000100001000: 554368 474588 476746 456927 539046
0111010101110001000001000: 554368 474588 537783 582984 539046
0111010101110001000001000: 554368 474588 537783 582984 456927
0111010100110001000100010: 554368 474588 537783 582984 535120
0111110100110001000010000: 554368 474588 537783 570070 582984
0111010101110001000001000: 554368 474588 537783 570070 539046
0111010101110001000001000: 554368 474588 537783 570070 456927
0111110100110001000010000: 554368 474588 537783 574761 582984
0111110100110001000010000: 554368 474588 537783 574761 570070
0111010101110001000001000: 554368 474588 537783 574761 539046
0111010101110001000001000: 554368 474588 537783 574761 456927
0111110100110001000010000: 554368 474588 537783 488949 570070
0111010101110001000001000: 554368 474588 537783 488949 539046
0111010101110001000001000: 554368 474588 537783 488949 456927
0111010100110001000100010: 554368 474588 537783 488949 512279
0111110100110001000110010: 554368 474588 537783 488949 582984
0111110100110001000110010: 554368 474588 537783 488949 574761
0111110100110001000010000: 554368 474588 537783 595993 570070
0111110100110001000010000: 554368 474588 537783 595993 574761
0111110100110001000010000: 554368 474588 537783 595993 488949
0111010100110001000100010: 554368 474588 537783 595993 462624
0111110100110001000110010: 554368 474588 537783 595993 582984
0111010101110001000101010: 554368 474588 537783 595993 539046
0111010101110001000101010: 554368 474588 537783 595993 456927
0111110100110001000010000: 554368 474588 537783 476801 582984
0111110100110001000010000: 554368 474588 537783 476801 570070
0111110100110001000010000: 554368 474588 537783 476801 574761
0111110100110001000010000: 554368 474588 537783 476801 488949
0111110100110001000010000: 554368 474588 537783 476801 595993
0111010101110001000001000: 554368 474588 537783 476801 539046
0111010101110001000101010: 554368 474588 537783 476801 456927
0111110100110001000010000: 554368 474588 537783 476746 582984
0111110100110001000010000: 554368 474588 537783 476746 574761
0111010101110001000001000: 554368 474588 537783 476746 539046
0111010101110001000001000: 554368 474588 537783 476746 456927
0111110110110011100010100: 554368 474588 537783 555343 651572
0111110110110011100010100: 554368 474588 537783 524435 651572
0111010101110001000001000: 554368 474588 555343 582984 539046
0111010101110001000001000: 554368 474588 555343 582984 456927
0111110100110001000010000: 554368 474588 555343 570070 582984
0111010101110001000001000: 554368 474588 555343 570070 539046
0111010101110001000001000: 554368 474588 555343 570070 456927
0111110100110001000010000: 554368 474588 555343 574761 582984
0111110100110001000010000: 554368 474588 555343 574761 570070
0111010101110001000001000: 554368 474588 555343 574761 539046
0111010101110001000001000: 554368 474588 555343 574761 456927
0111110100110001000010000: 554368 474588 555343 488949 570070
0111010101110001000001000: 554368 474588 555343 488949 539046
0111010101110001000001000: 554368 474588 555343 488949 456927
0111010100110001000100010: 554368 474588 555343 488949 512279
0111110100110001000110010: 554368 474588 555343 488949 582984
0111110100110001000110010: 554368 474588 555343 488949 574761
0111110100110001000010000: 554368 474588 555343 651572 582984
0111110100110001000010000: 554368 474588 555343 651572 574761
0111110100110001000010000: 554368 474588 555343 651572 488949
0111010101110001000001000: 554368 474588 555343 651572 456927
0111110100110001000110010: 554368 474588 555343 651572 570070
0111010101110001000101010: 554368 474588 555343 651572 539046
0111110100110001000010000: 554368 474588 555343 476801 582984
0111110100110001000010000: 554368 474588 555343 476801 570070
0111110100110001000010000: 554368 474588 555343 476801 574761
0111110100110001000010000: 554368 474588 555343 476801 488949
0111110100110001000010000: 554368 474588 555343 476801 651572
0111010101110001000001000: 554368 474588 555343 476801 539046
0111010101110001000101010: 554368 474588 555343 476801 456927
0111110100110001000010000: 554368 474588 555343 476746 582984
0111110100110001000010000: 554368 474588 555343 476746 574761
0111110100110001000010000: 554368 474588 555343 476746 651572
0111010101110001000001000: 554368 474588 555343 476746 539046
0111010101110001000001000: 554368 474588 555343 476746 456927
0111110110110001100010000: 554368 474588 555343 537783 582984
0111110110110001100010000: 554368 474588 555343 537783 570070
0111110110110001100010000: 554368 474588 555343 537783 574761
0111110110110001100010000: 554368 474588 555343 537783 488949
0111110110110001100010000: 554368 474588 555343 537783 476801
0111110110110001100010000: 554368 474588 555343 537783 476746
0111110110110011100010100: 554368 474588 555343 537783 595993
0111010110110011100000100: 554368 474588 555343 537783 535120
0111110110110011100010100: 554368 474588 555343 524435 595993
0111010110110011100000100: 554368 474588 555343 524435 535120
0111010101110001000001000: 554368 474588 524435 570070 539046
0111010101110001000001000: 554368 474588 524435 570070 456927
0111010101110001000001000: 554368 474588 524435 574761 539046
0111010101110001000001000: 554368 474588 524435 574761 456927
0111010101110001000001000: 554368 474588 524435 488949 539046
0111010101110001000001000: 554368 474588 524435 488949 456927
0111010101110001000101010: 554368 474588 524435 595993 539046
0111010101110001000101010: 554368 474588 524435 595993 456927
0111010101110001000001000: 554368 474588 524435 651572 456927
0111010101110001000101010: 554368 474588 524435 651572 539046
0111010101110001000001000: 554368 474588 524435 476801 539046
0111010101110001000101010: 554368 474588 524435 476801 456927
0111010101110001000001000: 554368 474588 524435 476746 539046
0111010101110001000001000: 554368 474588 524435 476746 456927
0111110110110001100010000: 554368 474588 524435 537783 570070
0111110110110001100010000: 554368 474588 524435 537783 574761
0111110110110001100010000: 554368 474588 524435 537783 488949
0111110110110001100010000: 554368 474588 524435 537783 595993
0111110110110001100010000: 554368 474588 524435 537783 476801
0111110110110001100010000: 554368 474588 524435 537783 476746
0111010110110011100000100: 554368 474588 524435 537783 512279
0111110110110001100010000: 554368 474588 524435 555343 570070
0111110110110001100010000: 554368 474588 524435 555343 574761
0111110110110001100010000: 554368 474588 524435 555343 488949
0111110110110001100010000: 554368 474588 524435 555343 651572
0111110110110001100010000: 554368 474588 524435 555343 476801
0111110110110001100010000: 554368 474588 524435 555343 476746
0111110111110001100011000: 554368 474588 524435 555343 537783
0111010110110011100000100: 554368 474588 524435 555343 512279
0111110000100001000010000: 554368 524435 537783 574761 570070
0111110000100001000010000: 554368 524435 537783 488949 570070
0111110000100001000010000: 554368 524435 595993 574761 570070
0111110000100001000010000: 554368 524435 595993 488949 570070
0111110000100001000010000: 554368 524435 595993 537783 570070
0111110000100001000010000: 554368 524435 595993 537783 574761
0111110000100001000010000: 554368 524435 595993 537783 488949
0110010010100010100000100: 554368 524435 595993 512279 539046
0110010010100010100000100: 554368 524435 595993 512279 456927
0110010010100010100100110: 554368 524435 595993 512279 462624
0111110000100001000010000: 554368 524435 651572 595993 574761
0111110000100001000010000: 554368 524435 651572 595993 488949
0110010010100010100000100: 554368 524435 651572 512279 539046
0111110000100001000010000: 554368 524435 555343 574761 570070
0111110000100001000010000: 554368 524435 555343 488949 570070
0111110000100001000010000: 554368 524435 555343 537783 570070
0111110000100001000010000: 554368 524435 555343 537783 574761
0111110000100001000010000: 554368 524435 555343 537783 488949
0111110000100001000010000: 554368 524435 555343 651572 574761
0111110000100001000010000: 554368 524435 555343 651572 488949
0110010010100010100000100: 554368 524435 555343 512279 535120
0111110000100001000010000: 554368 524435 476801 574761 570070
0111110000100001000010000: 554368 524435 476801 488949 570070
0111110000100001000010000: 554368 524435 476801 537783 570070
0111110000100001000010000: 554368 524435 476801 537783 574761
0111110000100001000010000: 554368 524435 476801 537783 488949
0111110000100001000010000: 554368 524435 476801 595993 570070
0111110000100001000010000: 554368 524435 476801 595993 574761
0111110000100001000010000: 554368 524435 476801 595993 488949
0111110000100001000010000: 554368 524435 476801 595993 537783
0111110000100001000010000: 554368 524435 476801 651572 574761
0111110000100001000010000: 554368 524435 476801 651572 488949
0111110000100001000010000: 554368 524435 476801 651572 595993
0111110000100001000010000: 554368 524435 476801 555343 570070
0111110000100001000010000: 554368 524435 476801 555343 574761
0111110000100001000010000: 554368 524435 476801 555343 488949
0111110000100001000010000: 554368 524435 476801 555343 537783
0111110000100001000010000: 554368 524435 476801 555343 651572
0110010010100010100000100: 554368 524435 476801 512279 456927
0111010101110001000001000: 554368 524435 582984 570070 512279
0111110100110001000010000: 554368 524435 582984 574761 570070
0111010101110001000001000: 554368 524435 582984 574761 512279
0111110100110001000010000: 554368 524435 582984 537783 570070
0111110100110001000010000: 554368 524435 582984 537783 574761
0111010101110001000001000: 554368 524435 582984 537783 512279
0111110100110001000010000: 554368 524435 582984 651572 574761
0111010101110001000001000: 554368 524435 582984 651572 512279
0111010100110001000100010: 554368 524435 582984 651572 539046
0111110100110001000110010: 554368 524435 582984 651572 570070
0111110100110001000110010: 554368 524435 582984 651572 537783
0111110100110001000010000: 554368 524435 582984 555343 570070
0111110100110001000010000: 554368 524435 582984 555343 574761
0111110100110001000010000: 554368 524435 582984 555343 537783
0111110100110001000010000: 554368 524435 582984 555343 651572
0111010101110001000001000: 554368 524435 582984 555343 512279
0111110100110001000010000: 554368 524435 582984 476801 570070
0111110100110001000010000: 554368 524435 582984 476801 574761
0111110100110001000010000: 554368 524435 582984 476801 537783
0111110100110001000010000: 554368 524435 582984 476801 651572
0111110100110001000010000: 554368 524435 582984 476801 555343
0111010101110001000001000: 554368 524435 582984 476801 512279
0111010100110001000100010: 554368 524435 582984 476801 456927
0111110100110001000010000: 554368 524435 582984 476746 574761
0111110100110001000010000: 554368 524435 582984 476746 537783
0111110100110001000010000: 554368 524435 582984 476746 651572
0111110100110001000010000: 554368 524435 582984 476746 555343
0111010101110001000001000: 554368 524435 582984 476746 512279
0111110110110011100010100: 554368 524435 582984 474588 488949
0111110110110011100010100: 554368 524435 582984 474588 595993
0111010110110011100000100: 554368 524435 582984 474588 535120
0111010101110001000001000: 554368 524435 474588 570070 512279
0111110100110001000010000: 554368 524435 474588 574761 570070
0111010101110001000001000: 554368 524435 474588 574761 512279
0111110100110001000010000: 554368 524435 474588 488949 570070
0111110100110001000110010: 554368 524435 474588 488949 574761
0111010101110001000101010: 554368 524435 474588 488949 512279
0111110100110001000010000: 554368 524435 474588 595993 570070
0111110100110001000010000: 554368 524435 474588 595993 574761
0111110100110001000010000: 554368 524435 474588 595993 488949
0111010101110001000001000: 554368 524435 474588 595993 512279
0111010100110001000100010: 554368 524435 474588 595993 462624
0111110100110001000010000: 554368 524435 474588 651572 574761
0111110100110001000010000: 554368 524435 474588 651572 488949
0111110100110001000010000: 554368 524435 474588 651572 595993
0111010101110001000001000: 554368 524435 474588 651572 512279
0111110100110001000110010: 554368 524435 474588 651572 570070
0111110100110001000010000: 554368 524435 474588 476801 570070
0111110100110001000010000: 554368 524435 474588 476801 574761
0111110100110001000010000: 554368 524435 474588 476801 488949
0111110100110001000010000: 554368 524435 474588 476801 595993
0111110100110001000010000: 554368 524435 474588 476801 651572
0111010101110001000001000: 554368 524435 474588 476801 512279
0111110100110001000010000: 554368 524435 474588 476746 574761
0111110100110001000010000: 554368 524435 474588 476746 651572
0111010101110001000001000: 554368 524435 474588 476746 512279
0111110110110001100010000: 554368 524435 474588 582984 570070
0111110110110001100010000: 554368 524435 474588 582984 574761
0111110110110001100010000: 554368 524435 474588 582984 651572
0111110110110001100010000: 554368 524435 474588 582984 476801
0111110110110001100010000: 554368 524435 474588 582984 476746
0111110110110011100010100: 554368 524435 474588 582984 537783
0111110110110011100010100: 554368 524435 474588 582984 555343
0111010110110011100000100: 554368 524435 474588 582984 539046
0111010110110011100000100: 554368 524435 474588 582984 456927
0111110000100001000010000: 554368 476746 537783 574761 582984
0111110000100001000010000: 554368 476746 651572 574761 582984
0111110000100001000010000: 554368 476746 555343 574761 582984
0111110000100001000010000: 554368 476746 555343 537783 582984
0111110000100001000010000: 554368 476746 555343 537783 574761
0111110000100001000010000: 554368 476746 555343 651572 582984
0111110000100001000010000: 554368 476746 555343 651572 574761
0111110000100001000010000: 554368 476746 474588 574761 582984
0111110000100001000010000: 554368 476746 474588 651572 582984
0111110000100001000010000: 554368 476746 474588 651572 574761
0111110000100001000010000: 554368 476746 524435 537783 574761
0111110000100001000010000: 554368 476746 524435 651572 574761
0111110000100001000010000: 554368 476746 524435 555343 574761
0111110000100001000010000: 554368 476746 524435 555343 537783
0111110000100001000010000: 554368 476746 524435 555343 651572
0111010100110001000100010: 554368 476746 570070 582984 535120
0111110100110001000010000: 554368 476746 570070 574761 582984
0111110100110001000010000: 554368 476746 570070 537783 582984
0111110100110001000010000: 554368 476746 570070 537783 574761
0111110100110001000010000: 554368 476746 570070 555343 582984
0111110100110001000010000: 554368 476746 570070 555343 574761
0111110100110001000010000: 554368 476746 570070 555343 537783
0111010100110001000100010: 554368 476746 570070 555343 535120
0111110100110001000010000: 554368 476746 570070 474588 582984
0111110100110001000010000: 554368 476746 570070 474588 574761
0111010100110001000100010: 554368 476746 570070 474588 539046
0111010100110001000100010: 554368 476746 570070 474588 456927
0111110100110001000110010: 554368 476746 570070 474588 537783
0111110100110001000110010: 554368 476746 570070 474588 555343
0111110100110001000010000: 554368 476746 570070 524435 574761
0111110100110001000010000: 554368 476746 570070 524435 537783
0111110100110001000010000: 554368 476746 570070 524435 555343
0111010100110001000100010: 554368 476746 570070 524435 512279
0111110100110001000110010: 554368 476746 570070 524435 582984
0111110100110001000110010: 554368 476746 570070 524435 474588
0111110110110011100010100: 554368 476746 570070 488949 651572
0111110110110011100010100: 554368 476746 570070 595993 651572
0111110110110011100010100: 554368 476746 570070 476801 651572
0111010100110001000100010: 554368 476746 488949 651572 539046
0111110100110001000110010: 554368 476746 488949 651572 537783
0111110100110001000010000: 554368 476746 488949 555343 537783
0111110100110001000010000: 554368 476746 488949 555343 651572
0111010100110001000100010: 554368 476746 488949 555343 535120
0111110100110001000010000: 554368 476746 488949 474588 651572
0111010100110001000100010: 554368 476746 488949 474588 539046
0111010100110001000100010: 554368 476746 488949 474588 456927
0111110100110001000110010: 554368 476746 488949 474588 537783
0111110100110001000110010: 554368 476746 488949 474588 555343
0111110100110001000010000: 554368 476746 488949 524435 537783
0111110100110001000010000: 554368 476746 488949 524435 651572
0111110100110001000010000: 554368 476746 488949 524435 555343
0111110100110001000110010: 554368 476746 488949 524435 474588
0111110110110001100010000: 554368 476746 488949 570070 537783
0111110110110001100010000: 554368 476746 488949 570070 555343
0111110110110001100010000: 554368 476746 488949 570070 474588
0111110110110001100010000: 554368 476746 488949 570070 524435
0111110110110011100010100: 554368 476746 488949 570070 582984
0111110110110011100010100: 554368 476746 488949 570070 574761
0111010110110011100000100: 554368 476746 488949 570070 512279
0111110110110011100010100: 554368 476746 488949 595993 574761
0111010110110011100000100: 554368 476746 488949 595993 512279
0111110110110011100010100: 554368 476746 488949 476801 582984
0111110110110011100010100: 554368 476746 488949 476801 574761
0111010110110011100000100: 554368 476746 488949 476801 512279
0111110100110001000010000: 554368 476746 595993 537783 574761
0111110100110001000010000: 554368 476746 595993 651572 574761
0111110100110001000110010: 554368 476746 595993 651572 537783
0111110100110001000010000: 554368 476746 595993 474588 574761
0111110100110001000010000: 554368 476746 595993 474588 651572
0111110100110001000110010: 554368 476746 595993 474588 537783
0111110100110001000010000: 554368 476746 595993 524435 574761
0111110100110001000010000: 554368 476746 595993 524435 537783
0111110100110001000010000: 554368 476746 595993 524435 651572
0111010100110001000100010: 554368 476746 595993 524435 512279
0111110100110001000110010: 554368 476746 595993 524435 474588
0111110110110001100010000: 554368 476746 595993 570070 574761
0111110110110001100010000: 554368 476746 595993 570070 537783
0111110110110001100010000: 554368 476746 595993 570070 474588
0111110110110001100010000: 554368 476746 595993 570070 524435
0111110110110011100010100: 554368 476746 595993 570070 582984
0111110110110011100010100: 554368 476746 595993 570070 555343
0111010110110011100000100: 554368 476746 595993 570070 462624
0111010110110011100000100: 554368 476746 595993 570070 539046
0111010110110011100000100: 554368 476746 595993 570070 456927
0111110110110001100010000: 554368 476746 595993 488949 537783
0111110110110001100010000: 554368 476746 595993 488949 651572
0111110110110001100010000: 554368 476746 595993 488949 474588
0111110110110001100010000: 554368 476746 595993 488949 524435
0111110111110001100011000: 554368 476746 595993 488949 570070
0111110110110011100010100: 554368 476746 595993 488949 555343
0111010110110011100000100: 554368 476746 595993 488949 462624
0111010110110011100000100: 554368 476746 595993 488949 539046
0111010110110011100000100: 554368 476746 595993 488949 456927
0111110110110011100110110: 554368 476746 595993 488949 582984
0111110110110011100010100: 554368 476746 595993 476801 582984
0111110110110011100010100: 554368 476746 595993 476801 555343
0111010110110011100000100: 554368 476746 595993 476801 462624
0111010110110011100000100: 554368 476746 595993 476801 539046
0111010100110001000100010: 554368 476746 476801 582984 535120
0111110100110001000010000: 554368 476746 476801 574761 582984
0111110100110001000010000: 554368 476746 476801 537783 582984
0111110100110001000010000: 554368 476746 476801 537783 574761
0111110100110001000010000: 554368 476746 476801 651572 582984
0111110100110001000010000: 554368 476746 476801 651572 574761
0111010100110001000100010: 554368 476746 476801 651572 539046
0111110100110001000110010: 554368 476746 476801 651572 537783
0111110100110001000010000: 554368 476746 476801 555343 582984
0111110100110001000010000: 554368 476746 476801 555343 574761
0111110100110001000010000: 554368 476746 476801 555343 537783
0111110100110001000010000: 554368 476746 476801 555343 651572
0111010100110001000100010: 554368 476746 476801 555343 535120
0111110100110001000010000: 554368 476746 476801 474588 582984
0111110100110001000010000: 554368 476746 476801 474588 574761
0111110100110001000010000: 554368 476746 476801 474588 651572
0111010100110001000100010: 554368 476746 476801 474588 539046
0111110100110001000110010: 554368 476746 476801 474588 537783
0111110100110001000110010: 554368 476746 476801 474588 555343
0111110100110001000010000: 554368 476746 476801 524435 574761
0111110100110001000010000: 554368 476746 476801 524435 537783
0111110100110001000010000: 554368 476746 476801 524435 651572
0111110100110001000010000: 554368 476746 476801 524435 555343
0111010100110001000100010: 554368 476746 476801 524435 512279
0111110100110001000110010: 554368 476746 476801 524435 582984
0111110100110001000110010: 554368 476746 476801 524435 474588
0111110110110001100010000: 554368 476746 476801 570070 582984
0111110110110001100010000: 554368 476746 476801 570070 574761
0111110110110001100010000: 554368 476746 476801 570070 537783
0111110110110001100010000: 554368 476746 476801 570070 555343
0111110110110001100010000: 554368 476746 476801 570070 474588
0111110110110001100010000: 554368 476746 476801 570070 524435
0111010110110011100000100: 554368 476746 476801 570070 456927
0111110110110001100010000: 554368 476746 476801 488949 537783
0111110110110001100010000: 554368 476746 476801 488949 651572
0111110110110001100010000: 554368 476746 476801 488949 555343
0111110110110001100010000: 554368 476746 476801 488949 474588
0111110110110001100010000: 554368 476746 476801 488949 524435
0111110111110001100011000: 554368 476746 476801 488949 570070
0111010110110011100000100: 554368 476746 476801 488949 456927
0111110110110001100010000: 554368 476746 476801 595993 574761
0111110110110001100010000: 554368 476746 476801 595993 537783
0111110110110001100010000: 554368 476746 476801 595993 651572
0111110110110001100010000: 554368 476746 476801 595993 474588
0111110110110001100010000: 554368 476746 476801 595993 524435
0111110111110001100011000: 554368 476746 476801 595993 570070
0111110111110001100011000: 554368 476746 476801 595993 488949
0111010110110011100100110: 554368 476746 476801 595993 456927
0110010010100010100000100: 476746 488949 570070 512279 651572
0110010011100000100001000: 476746 488949 570070 582984 512279
0110010010100010100000100: 476746 488949 570070 582984 651572
0110010011100000100001000: 476746 488949 570070 574761 512279
0110010011100000100001000: 476746 488949 570070 574761 582984
0110010010100010100000100: 476746 488949 570070 574761 651572
0110010011100000100001000: 476746 488949 595993 574761 512279
0110010011100100110001000: 476746 488949 595993 582984 512279
0110010011100100110001000: 476746 488949 595993 582984 574761
0110010011100000100001000: 476746 488949 476801 582984 512279
0110010011100000100001000: 476746 488949 476801 574761 512279
0110010011100000100001000: 476746 488949 476801 574761 582984
0110010010100010100000100: 476746 595993 570070 462624 651572
0110010011100000100001000: 476746 595993 570070 582984 462624
0110010010100010100000100: 476746 595993 570070 582984 651572
0110010011100000100001000: 476746 595993 570070 539046 462624
0110010011100000100001000: 476746 595993 570070 539046 582984
0110010010100010100100110: 476746 595993 570070 539046 651572
0110010011100000100001000: 476746 595993 570070 555343 462624
0110010011100000100001000: 476746 595993 570070 555343 582984
0110010011100000100001000: 476746 595993 570070 555343 539046
0110010010100010100000100: 476746 595993 570070 555343 651572
0110010011100000100001000: 476746 595993 570070 456927 462624
0110010011100000100001000: 476746 595993 570070 456927 582984
0110010011100000100001000: 476746 595993 570070 456927 539046
0110010011100000100001000: 476746 595993 570070 456927 555343
0110010010100010100000100: 476746 595993 570070 456927 651572
0110010010100010100000100: 476746 595993 488949 462624 574761
0110010010100010100100110: 476746 595993 488949 462624 512279
0110010011100000100001000: 476746 595993 488949 539046 462624
0110010010100010100000100: 476746 595993 488949 539046 512279
0110010010100010100000100: 476746 595993 488949 539046 574761
0110010011100000100001000: 476746 595993 488949 555343 462624
0110010011100000100001000: 476746 595993 488949 555343 539046
0110010010100010100000100: 476746 595993 488949 555343 512279
0110010010100010100000100: 476746 595993 488949 555343 574761
0110010011100000100001000: 476746 595993 488949 456927 462624
0110010011100000100001000: 476746 595993 488949 456927 539046
0110010011100000100001000: 476746 595993 488949 456927 555343
0110010010100010100000100: 476746 595993 488949 456927 512279
0110010010100010100000100: 476746 595993 488949 456927 574761
0110010011100100110001000: 476746 595993 488949 582984 462624
0110010011100100110001000: 476746 595993 488949 582984 539046
0110010011100100110001000: 476746 595993 488949 582984 555343
0110010011100100110001000: 476746 595993 488949 582984 456927
0110010011100000100001000: 476746 595993 476801 582984 462624
0110010011100000100001000: 476746 595993 476801 539046 462624
0110010011100000100001000: 476746 595993 476801 539046 582984
0110010011100000100001000: 476746 595993 476801 555343 462624
0110010011100000100001000: 476746 595993 476801 555343 582984
0110010011100000100001000: 476746 595993 476801 555343 539046
0110010011100100110001000: 476746 595993 476801 456927 462624
0110010011100100110001000: 476746 595993 476801 456927 582984
0110010011100100110001000: 476746 595993 476801 456927 539046
0110010011100100110001000: 476746 595993 476801 456927 555343
0110010010100010100000100: 476746 476801 570070 456927 651572
0110010010100010100000100: 476746 476801 488949 456927 512279
0110010010100010100000100: 476746 476801 488949 456927 582984
0110010010100010100000100: 476746 476801 488949 456927 574761
0111110000100001000010000: 476746 476801 595993 488949 570070
0110010011100100110001000: 524435 512279 582984 488949 462624
0110010011100000100001000: 524435 512279 474588 488949 462624
0110010011100100110001000: 524435 512279 554368 488949 462624
0110010010100010100000100: 524435 582984 512279 535120 462624
0110010011100000100001000: 524435 582984 512279 595993 535120
0110010010100010100100110: 524435 582984 512279 595993 462624
0110010011100100110001000: 524435 582984 512279 488949 535120
0110010011100100110001000: 524435 582984 512279 488949 595993
0110010011100000100001000: 524435 582984 474588 488949 535120
0110010011100000100001000: 524435 582984 474588 595993 535120
0110010011100000100001000: 524435 582984 474588 595993 488949
0111010101110001000001000: 524435 582984 554368 512279 535120
0110010010100010100000100: 524435 474588 512279 537783 462624
0110010010100010100000100: 524435 474588 512279 537783 488949
0110010011100000100001000: 524435 474588 512279 539046 537783
0110010010100010100000100: 524435 474588 512279 539046 462624
0110010010100010100000100: 524435 474588 512279 539046 488949
0110010011100000100001000: 524435 474588 512279 555343 537783
0110010011100000100001000: 524435 474588 512279 555343 539046
0110010010100010100000100: 524435 474588 512279 555343 462624
0110010010100010100000100: 524435 474588 512279 555343 488949
0110010011100000100001000: 524435 474588 512279 456927 537783
0110010011100000100001000: 524435 474588 512279 456927 539046
0110010011100000100001000: 524435 474588 512279 456927 555343
0110010010100010100000100: 524435 474588 512279 456927 462624
0110010010100010100000100: 524435 474588 512279 456927 488949
0110010010100010100000100: 524435 474588 582984 537783 535120
0110010010100010100000100: 524435 474588 582984 537783 488949
0110010010100010100000100: 524435 474588 582984 537783 595993
0110010011100000100001000: 524435 474588 582984 539046 537783
0110010010100010100000100: 524435 474588 582984 539046 535120
0110010010100010100000100: 524435 474588 582984 539046 488949
0110010010100010100100110: 524435 474588 582984 539046 595993
0110010011100000100001000: 524435 474588 582984 555343 537783
0110010011100000100001000: 524435 474588 582984 555343 539046
0110010010100010100000100: 524435 474588 582984 555343 488949
0110010010100010100100110: 524435 474588 582984 555343 535120
0110010010100010100100110: 524435 474588 582984 555343 595993
0110010011100000100001000: 524435 474588 582984 456927 537783
0110010011100000100001000: 524435 474588 582984 456927 539046
0110010011100000100001000: 524435 474588 582984 456927 555343
0110010010100010100000100: 524435 474588 582984 456927 535120
0110010010100010100000100: 524435 474588 582984 456927 488949
0110010010100010100100110: 524435 474588 582984 456927 595993
0111010101110001000001000: 524435 474588 554368 512279 539046
0111010101110001000001000: 524435 474588 554368 512279 456927
0110010010100010100000100: 524435 554368 512279 570070 462624
0110010011100000100001000: 524435 554368 512279 574761 570070
0110010010100010100000100: 524435 554368 512279 574761 462624
0110010011100000100001000: 524435 554368 512279 537783 570070
0110010011100000100001000: 524435 554368 512279 537783 574761
0110010010100010100000100: 524435 554368 512279 537783 462624
0110010011100000100001000: 524435 554368 512279 595993 570070
0110010011100000100001000: 524435 554368 512279 595993 574761
0110010011100000100001000: 524435 554368 512279 595993 537783
0110010011100000100001000: 524435 554368 512279 651572 574761
0110010011100000100001000: 524435 554368 512279 651572 595993
0110010010100010100000100: 524435 554368 512279 651572 462624
0110010011100000100001000: 524435 554368 512279 555343 570070
0110010011100000100001000: 524435 554368 512279 555343 574761
0110010011100000100001000: 524435 554368 512279 555343 537783
0110010011100000100001000: 524435 554368 512279 555343 651572
0110010010100010100000100: 524435 554368 512279 555343 462624
0110010011100000100001000: 524435 554368 512279 476801 570070
0110010011100000100001000: 524435 554368 512279 476801 574761
0110010011100000100001000: 524435 554368 512279 476801 537783
0110010011100000100001000: 524435 554368 512279 476801 595993
0110010011100000100001000: 524435 554368 512279 476801 651572
0110010011100000100001000: 524435 554368 512279 476801 555343
0110010010100010100000100: 524435 554368 512279 476801 462624
0110010011100000100001000: 524435 554368 512279 476746 574761
0110010011100000100001000: 524435 554368 512279 476746 537783
0110010011100000100001000: 524435 554368 512279 476746 651572
0110010011100000100001000: 524435 554368 512279 476746 555343
0110010010100010100000100: 524435 554368 512279 476746 462624
0110010011100100110001000: 524435 554368 512279 488949 570070
0110010011100100110001000: 524435 554368 512279 488949 537783
0110010011100100110001000: 524435 554368 512279 488949 595993
0110010011100100110001000: 524435 554368 512279 488949 651572
0110010011100100110001000: 524435 554368 512279 488949 555343
0110010011100100110001000: 524435 554368 512279 488949 476801
0111010100110001000100010: 524435 554368 582984 512279 462624
0111010100110001000100010: 524435 554368 474588 512279 462624
0111110110110001100010000: 524435 554368 474588 582984 512279
0110010011100100110001000: 474588 539046 537783 651572 595993
0110010011100100110001000: 474588 539046 555343 595993 651572
0110010011100100110001000: 474588 539046 456927 595993 651572
0110010011100000100001000: 474588 539046 524435 651572 595993
0110010010100010100000100: 474588 555343 537783 535120 651572
0110010011100000100001000: 474588 555343 537783 595993 535120
0110010010100010100000100: 474588 555343 537783 595993 651572
0110010010100010100000100: 474588 555343 539046 535120 651572
0110010011100100110001000: 474588 555343 539046 595993 535120
0110010011100100110001000: 474588 555343 456927 595993 535120
0110010011100000100001000: 474588 555343 524435 595993 535120
0111010101110001000001000: 474588 555343 554368 539046 535120
0111010101110001000001000: 474588 555343 554368 456927 535120
0110010010100010100000100: 474588 456927 537783 595993 651572
0110010011100000100001000: 474588 456927 537783 476801 595993
0110010010100010100000100: 474588 456927 537783 476801 651572
0110010010100010100000100: 474588 456927 539046 476801 651572
0110010011100100110001000: 474588 456927 539046 595993 476801
0111110000100001000010000: 474588 456927 555343 539046 537783
0110010010100010100000100: 474588 456927 555343 476801 535120
0110010011100100110001000: 474588 456927 555343 595993 476801
0110010011100000100001000: 474588 456927 524435 476801 595993
0110010010100010100000100: 474588 524435 537783 512279 651572
0110010011100000100001000: 474588 524435 537783 582984 512279
0110010010100010100000100: 474588 524435 537783 582984 651572
0110010010100010100000100: 474588 524435 539046 512279 595993
0110010010100010100000100: 474588 524435 539046 512279 651572
0110010011100000100001000: 474588 524435 539046 582984 512279
0110010010100010100000100: 474588 524435 539046 582984 651572
0111110000100001000010000: 474588 524435 555343 539046 537783
0110010010100010100000100: 474588 524435 555343 512279 535120
0110010010100010100000100: 474588 524435 555343 512279 595993
0110010011100000100001000: 474588 524435 555343 582984 512279
0111110000100001000010000: 474588 524435 456927 539046 537783
0111110000100001000010000: 474588 524435 456927 555343 537783
0111110000100001000010000: 474588 524435 456927 555343 539046
0110010010100010100000100: 474588 524435 456927 512279 595993
0110010010100010100000100: 474588 524435 456927 512279 476801
0110010011100000100001000: 474588 524435 456927 582984 512279
0110010010100010100000100: 474588 524435 456927 582984 476801
0110010011100000100001000: 474588 554368 539046 570070 582984
0110010011100000100001000: 474588 554368 539046 574761 582984
0110010011100000100001000: 474588 554368 539046 574761 570070
0110010011100000100001000: 474588 554368 539046 488949 570070
0110010011100000100001000: 474588 554368 539046 476801 582984
0110010011100000100001000: 474588 554368 539046 476801 570070
0110010011100000100001000: 474588 554368 539046 476801 574761
0110010011100000100001000: 474588 554368 539046 476801 488949
0110010011100000100001000: 474588 554368 539046 476746 582984
0110010011100000100001000: 474588 554368 539046 476746 574761
0110010011100100110001000: 474588 554368 539046 595993 570070
0110010011100100110001000: 474588 554368 539046 595993 574761
0110010011100100110001000: 474588 554368 539046 595993 488949
0110010011100100110001000: 474588 554368 539046 595993 476801
0110010011100100110001000: 474588 554368 539046 651572 582984
0110010011100100110001000: 474588 554368 539046 651572 574761
0110010011100100110001000: 474588 554368 539046 651572 488949
0110010011100100110001000: 474588 554368 539046 651572 476801
0110010011100100110001000: 474588 554368 539046 651572 476746
0110010011100110110001100: 474588 554368 539046 651572 595993
0110010011100000100001000: 474588 554368 456927 570070 582984
0110010011100000100001000: 474588 554368 456927 574761 582984
0110010011100000100001000: 474588 554368 456927 574761 570070
0110010011100000100001000: 474588 554368 456927 488949 570070
0110010011100000100001000: 474588 554368 456927 651572 582984
0110010011100000100001000: 474588 554368 456927 651572 574761
0110010011100000100001000: 474588 554368 456927 651572 488949
0110010011100000100001000: 474588 554368 456927 476746 582984
0110010011100000100001000: 474588 554368 456927 476746 574761
0110010011100000100001000: 474588 554368 456927 476746 651572
0110010011100100110001000: 474588 554368 456927 595993 570070
0110010011100100110001000: 474588 554368 456927 595993 574761
0110010011100100110001000: 474588 554368 456927 595993 488949
0110010011100100110001000: 474588 554368 456927 595993 651572
0110010011100100110001000: 474588 554368 456927 476801 582984
0110010011100100110001000: 474588 554368 456927 476801 570070
0110010011100100110001000: 474588 554368 456927 476801 574761
0110010011100100110001000: 474588 554368 456927 476801 488949
0110010011100100110001000: 474588 554368 456927 476801 651572
0110010011100110110001100: 474588 554368 456927 476801 595993
0111110100110001000010000: 474588 554368 537783 456927 539046
0111110100110001000010000: 474588 554368 555343 456927 539046
0111110110110001100010000: 474588 554368 555343 537783 539046
0111110110110001100010000: 474588 554368 555343 537783 456927
0111110100110001000010000: 474588 554368 524435 456927 539046
0111110110110001100010000: 474588 554368 524435 537783 539046
0111110110110001100010000: 474588 554368 524435 537783 456927
0111110110110001100010000: 474588 554368 524435 555343 539046
0111110110110001100010000: 474588 554368 524435 555343 456927
0110010011100000100001000: 456927 595993 476801 582984 462624
0110010011100000100001000: 456927 595993 476801 539046 462624
0110010011100000100001000: 456927 595993 476801 539046 582984
0110010011100000100001000: 456927 595993 476801 555343 462624
0110010011100000100001000: 456927 595993 476801 555343 582984
0110010011100000100001000: 456927 595993 476801 555343 539046
0110010011100000100001000: 456927 595993 474588 582984 462624
0110010011100000100001000: 456927 595993 474588 476746 462624
0110010011100000100001000: 456927 595993 474588 476746 582984
0110010011100100110001000: 456927 595993 474588 539046 462624
0110010011100100110001000: 456927 595993 474588 539046 582984
0110010011100100110001000: 456927 595993 474588 539046 476746
0110010011100100110001000: 456927 595993 474588 555343 462624
0110010011100100110001000: 456927 595993 474588 555343 582984
0110010011100100110001000: 456927 595993 474588 555343 476746
0110010010100010100000100: 456927 474588 595993 537783 462624
0110010010100010100000100: 456927 474588 595993 537783 582984
0110010010100010100000100: 456927 474588 595993 537783 476746
0110010011100000100001000: 456927 474588 595993 524435 537783
0110010010100010100000100: 456927 474588 595993 524435 462624
0110010010100010100000100: 456927 474588 595993 524435 476746
0110010011100100110001000: 456927 474588 595993 539046 537783
0110010011100100110001000: 456927 474588 595993 539046 524435
0110010011100100110001000: 456927 474588 595993 555343 537783
0110010011100100110001000: 456927 474588 595993 555343 524435
0110010011100110110001100: 456927 474588 595993 555343 539046
0110010010100010100000100: 456927 474588 476801 537783 476746
0110010011100000100001000: 456927 474588 476801 539046 537783
0110010010100010100000100: 456927 474588 476801 539046 476746
0110010011100000100001000: 456927 474588 476801 555343 537783
0110010011100000100001000: 456927 474588 476801 555343 539046
0110010010100010100000100: 456927 474588 476801 555343 476746
0110010011100000100001000: 456927 474588 476801 524435 537783
0110010011100000100001000: 456927 474588 476801 524435 539046
0110010011100000100001000: 456927 474588 476801 524435 555343
0110010010100010100000100: 456927 474588 476801 524435 476746
0110010011100100110001000: 476801 456927 476746 595993 474588
0110010010100010100000100: 476801 476746 456927 570070 474588
0110010011100000100001000: 476801 476746 456927 488949 570070
0110010010100010100000100: 476801 476746 456927 488949 474588
0110010011100100110001000: 476801 476746 456927 595993 570070
0110010011100100110001000: 476801 476746 456927 595993 488949
0110010011100000100001000: 476801 554368 456927 570070 582984
0110010011100000100001000: 476801 554368 456927 574761 582984
0110010011100000100001000: 476801 554368 456927 574761 570070
0110010011100000100001000: 476801 554368 456927 488949 570070
0110010011100000100001000: 476801 554368 456927 537783 582984
0110010011100000100001000: 476801 554368 456927 537783 570070
0110010011100000100001000: 476801 554368 456927 537783 574761
0110010011100000100001000: 476801 554368 456927 537783 488949
0110010011100000100001000: 476801 554368 456927 651572 582984
0110010011100000100001000: 476801 554368 456927 651572 574761
0110010011100000100001000: 476801 554368 456927 651572 488949
0110010011100000100001000: 476801 554368 456927 555343 582984
0110010011100000100001000: 476801 554368 456927 555343 570070
0110010011100000100001000: 476801 554368 456927 555343 574761
0110010011100000100001000: 476801 554368 456927 555343 488949
0110010011100000100001000: 476801 554368 456927 555343 537783
0110010011100000100001000: 476801 554368 456927 555343 651572
0110010011100000100001000: 476801 554368 456927 524435 570070
0110010011100000100001000: 476801 554368 456927 524435 574761
0110010011100000100001000: 476801 554368 456927 524435 488949
0110010011100000100001000: 476801 554368 456927 524435 537783
0110010011100000100001000: 476801 554368 456927 524435 651572
0110010011100000100001000: 476801 554368 456927 524435 555343
0110010011100100110001000: 476801 554368 456927 595993 570070
0110010011100100110001000: 476801 554368 456927 595993 574761
0110010011100100110001000: 476801 554368 456927 595993 488949
0110010011100100110001000: 476801 554368 456927 595993 537783
0110010011100100110001000: 476801 554368 456927 595993 651572
0110010011100100110001000: 476801 554368 456927 595993 524435
0110010011100000100001000: 555343 595993 535120 539046 462624
0110010011100000100001000: 555343 595993 535120 456927 462624
0110010011100000100001000: 555343 595993 535120 456927 539046
0110010011100000100001000: 555343 595993 535120 476746 462624
0110010011100000100001000: 555343 595993 535120 476746 539046
0110010011100000100001000: 555343 595993 535120 476746 456927
0110010011100100110001000: 555343 595993 535120 582984 462624
0110010011100100110001000: 555343 595993 535120 582984 539046
0110010011100100110001000: 555343 595993 535120 582984 456927
0110010011100100110001000: 555343 595993 535120 582984 476746
0110010011100000100001000: 555343 595993 474588 582984 462624
0110010011100000100001000: 555343 595993 474588 476746 462624
0110010011100000100001000: 555343 595993 474588 476746 582984
0110010011100100110001000: 555343 595993 474588 539046 462624
0110010011100100110001000: 555343 595993 474588 539046 582984
0110010011100100110001000: 555343 595993 474588 539046 476746
0111010101110001000001000: 555343 595993 554368 535120 462624
0111010101110001000001000: 555343 595993 554368 535120 539046
0111010101110001000001000: 555343 595993 554368 535120 456927
0110010010100010100000100: 555343 474588 535120 537783 582984
0110010011100000100001000: 555343 474588 535120 539046 537783
0110010010100010100000100: 555343 474588 535120 539046 582984
0110010011100000100001000: 555343 474588 535120 456927 537783
0110010011100000100001000: 555343 474588 535120 456927 539046
0110010010100010100000100: 555343 474588 535120 456927 582984
0110010011100000100001000: 555343 474588 535120 524435 537783
0110010011100000100001000: 555343 474588 535120 524435 539046
0110010011100000100001000: 555343 474588 535120 524435 456927
0110010010100010100000100: 555343 474588 595993 537783 462624
0110010010100010100000100: 555343 474588 595993 537783 582984
0110010010100010100000100: 555343 474588 595993 537783 476746
0110010011100000100001000: 555343 474588 595993 524435 537783
0110010010100010100000100: 555343 474588 595993 524435 462624
0110010010100010100000100: 555343 474588 595993 524435 476746
0110010011100100110001000: 555343 474588 595993 539046 537783
0110010011100100110001000: 555343 474588 595993 539046 524435
0110010011100000100001000: 555343 554368 535120 574761 570070
0110010011100000100001000: 555343 554368 535120 488949 570070
0110010011100000100001000: 555343 554368 535120 537783 570070
0110010011100000100001000: 555343 554368 535120 537783 574761
0110010011100000100001000: 555343 554368 535120 537783 488949
0110010011100000100001000: 555343 554368 535120 651572 574761
0110010011100000100001000: 555343 554368 535120 651572 488949
0110010011100000100001000: 555343 554368 535120 476801 570070
0110010011100000100001000: 555343 554368 535120 476801 574761
0110010011100000100001000: 555343 554368 535120 476801 488949
0110010011100000100001000: 555343 554368 535120 476801 537783
0110010011100000100001000: 555343 554368 535120 476801 651572
0110010011100000100001000: 555343 554368 535120 524435 570070
0110010011100000100001000: 555343 554368 535120 524435 574761
0110010011100000100001000: 555343 554368 535120 524435 488949
0110010011100000100001000: 555343 554368 535120 524435 537783
0110010011100000100001000: 555343 554368 535120 524435 651572
0110010011100000100001000: 555343 554368 535120 524435 476801
0110010011100000100001000: 555343 554368 535120 476746 574761
0110010011100000100001000: 555343 554368 535120 476746 537783
0110010011100000100001000: 555343 554368 535120 476746 651572
0110010011100000100001000: 555343 554368 535120 476746 524435
0110010011100100110001000: 555343 554368 535120 582984 570070
0110010011100100110001000: 555343 554368 535120 582984 574761
0110010011100100110001000: 555343 554368 535120 582984 537783
0110010011100100110001000: 555343 554368 535120 582984 651572
0110010011100100110001000: 555343 554368 535120 582984 476801
0110010011100100110001000: 555343 554368 535120 582984 476746
0111110110110001100010000: 555343 554368 474588 595993 535120
0110010011100000100001000: 539046 595993 651572 582984 462624
0110010011100000100001000: 539046 595993 651572 555343 462624
0110010011100000100001000: 539046 595993 651572 555343 582984
0110010011100000100001000: 539046 595993 651572 456927 462624
0110010011100000100001000: 539046 595993 651572 456927 582984
0110010011100000100001000: 539046 595993 651572 456927 555343
0110010011100000100001000: 539046 595993 651572 476746 462624
0110010011100000100001000: 539046 595993 651572 476746 582984
0110010011100000100001000: 539046 595993 651572 476746 555343
0110010011100000100001000: 539046 595993 651572 476746 456927
0110010011100000100001000: 539046 595993 474588 582984 462624
0110010011100000100001000: 539046 595993 474588 476746 462624
0110010011100000100001000: 539046 595993 474588 476746 582984
0110010010100010100000100: 539046 651572 595993 570070 462624
0110010010100010100000100: 539046 651572 595993 570070 582984
0110010010100010100000100: 539046 651572 595993 570070 555343
0110010010100010100000100: 539046 651572 595993 570070 456927
0110010011100000100001000: 539046 651572 595993 537783 570070
0110010010100010100000100: 539046 651572 595993 537783 462624
0110010010100010100000100: 539046 651572 595993 537783 582984
0110010010100010100000100: 539046 651572 595993 537783 555343
0110010010100010100000100: 539046 651572 595993 537783 456927
0110010010100010100000100: 539046 651572 595993 537783 476746
0110010011100100110001000: 539046 651572 474588 537783 570070
0110010010100010100000100: 539046 474588 595993 537783 462624
0110010010100010100000100: 539046 474588 595993 537783 582984
0110010010100010100000100: 539046 474588 595993 537783 476746
0110010011100000100001000: 539046 474588 595993 524435 537783
0110010010100010100000100: 539046 474588 595993 524435 462624
0110010010100010100000100: 539046 474588 595993 524435 476746
0110010010100010100000100: 539046 474588 651572 555343 570070
0110010011100000100001000: 539046 474588 651572 456927 555343
0110010010100010100000100: 539046 474588 651572 456927 570070
0110010011100000100001000: 539046 474588 651572 524435 555343
0110010011100000100001000: 539046 474588 651572 524435 456927
0110010010100010100000100: 539046 474588 651572 524435 570070
0110010011100100110001000: 539046 474588 651572 537783 555343
0110010011100100110001000: 539046 474588 651572 537783 456927
0110010011100100110001000: 539046 474588 651572 537783 524435
0110010010100010100000100: 651572 537783 570070 474588 476746
0110010011100000100001000: 651572 539046 570070 474588 595993
0110010010100010100000100: 651572 539046 570070 474588 476746
0110010011100000100001000: 651572 554368 539046 574761 582984
0110010011100000100001000: 651572 554368 539046 555343 582984
0110010011100000100001000: 651572 554368 539046 555343 574761
0110010011100000100001000: 651572 554368 539046 555343 488949
0110010011100000100001000: 651572 554368 539046 476801 582984
0110010011100000100001000: 651572 554368 539046 476801 574761
0110010011100000100001000: 651572 554368 539046 476801 488949
0110010011100000100001000: 651572 554368 539046 476801 555343
0110010011100000100001000: 651572 554368 539046 524435 574761
0110010011100000100001000: 651572 554368 539046 524435 488949
0110010011100000100001000: 651572 554368 539046 524435 555343
0110010011100000100001000: 651572 554368 539046 524435 476801
0110010011100000100001000: 651572 554368 539046 476746 582984
0110010011100000100001000: 651572 554368 539046 476746 574761
0110010011100000100001000: 651572 554368 539046 476746 555343
0110010011100000100001000: 651572 554368 539046 476746 524435
0110010011100100110001000: 651572 554368 539046 595993 574761
0110010011100100110001000: 651572 554368 539046 595993 488949
0110010011100100110001000: 651572 554368 539046 595993 476801
0110010011100100110001000: 651572 554368 539046 595993 524435
0111110110110001100010000: 651572 554368 537783 570070 539046
0110010010100010100000100: 595993 582984 462624 535120 512279
0110010011100000100001000: 595993 582984 462624 488949 535120
0110010010100010100100110: 595993 582984 462624 488949 512279
0110010011100000100001000: 595993 582984 462624 524435 535120
0110010011100000100001000: 595993 582984 462624 524435 488949
0110010011100000100001000: 595993 582984 539046 488949 535120
0110010011100000100001000: 595993 582984 539046 524435 535120
0110010011100000100001000: 595993 582984 539046 524435 488949
0110010011100000100001000: 595993 582984 555343 524435 488949
0110010011100100110001000: 595993 582984 555343 535120 488949
0110010011100100110001000: 595993 582984 555343 535120 524435
0110010011100000100001000: 595993 582984 456927 488949 535120
0110010011100000100001000: 595993 582984 456927 524435 535120
0110010011100000100001000: 595993 582984 456927 524435 488949
0110010011100000100001000: 595993 582984 476746 524435 535120
0110010011100100110001000: 595993 582984 476746 488949 535120
0110010011100100110001000: 595993 582984 476746 488949 524435
0111010101110001000001000: 595993 582984 554368 462624 535120
0111010101110001000001000: 595993 582984 554368 539046 535120
0111010101110001000001000: 595993 582984 554368 456927 535120
0110010010100010100000100: 595993 539046 462624 651572 512279
0110010011100000100001000: 595993 539046 462624 474588 651572
0110010010100010100000100: 595993 539046 462624 474588 512279
0110010010100010100000100: 595993 539046 582984 651572 535120
0110010010100010100000100: 595993 539046 582984 651572 488949
0110010010100010100000100: 595993 539046 582984 651572 524435
0110010011100000100001000: 595993 539046 582984 474588 651572
0110010010100010100000100: 595993 539046 582984 474588 535120
0110010010100010100000100: 595993 539046 582984 474588 488949
0110010011100000100001000: 595993 539046 476746 474588 651572
0110010010100010100000100: 595993 555343 462624 535120 512279
0110010011100000100001000: 595993 555343 462624 474588 535120
0110010010100010100000100: 595993 555343 462624 474588 512279
0110010010100010100000100: 595993 555343 582984 474588 488949
0110010011100100110001000: 595993 555343 582984 535120 474588
0111110000100001000010000: 595993 555343 539046 582984 462624
0110010010100010100000100: 595993 555343 539046 535120 651572
0110010011100000100001000: 595993 555343 476746 474588 535120
0110010010100010100000100: 595993 456927 462624 476801 512279
0110010011100000100001000: 595993 456927 462624 474588 476801
0110010010100010100000100: 595993 456927 462624 474588 512279
0110010010100010100000100: 595993 456927 582984 476801 535120
0110010010100010100000100: 595993 456927 582984 476801 488949
0110010010100010100000100: 595993 456927 582984 476801 524435
0110010011100000100001000: 595993 456927 582984 474588 476801
0110010010100010100000100: 595993 456927 582984 474588 535120
0110010010100010100000100: 595993 456927 582984 474588 488949
0111110000100001000010000: 595993 456927 539046 582984 462624
0110010010100010100000100: 595993 456927 539046 476801 651572
0111110000100001000010000: 595993 456927 555343 582984 462624
0111110000100001000010000: 595993 456927 555343 539046 462624
0111110000100001000010000: 595993 456927 555343 539046 582984
0110010010100010100000100: 595993 456927 555343 476801 535120
0110010010100010100000100: 595993 476746 462624 570070 512279
0110010011100000100001000: 595993 476746 462624 488949 570070
0110010011100000100001000: 595993 476746 462624 476801 570070
0110010011100000100001000: 595993 476746 462624 476801 488949
0110010010100010100000100: 595993 476746 462624 476801 512279
0110010010100010100000100: 595993 476746 582984 570070 535120
0110010010100010100000100: 595993 476746 582984 570070 524435
0110010011100000100001000: 595993 476746 582984 476801 570070
0110010010100010100000100: 595993 476746 582984 476801 535120
0110010010100010100000100: 595993 476746 582984 476801 524435
0110010011100100110001000: 595993 476746 582984 488949 570070
0110010011100100110001000: 595993 476746 582984 488949 476801
0111110000100001000010000: 595993 476746 539046 582984 462624
0110010010100010100000100: 595993 476746 539046 570070 474588
0110010011100000100001000: 595993 476746 539046 488949 570070
0110010010100010100000100: 595993 476746 539046 488949 651572
0110010010100010100000100: 595993 476746 539046 488949 474588
0110010011100000100001000: 595993 476746 539046 476801 570070
0110010011100000100001000: 595993 476746 539046 476801 488949
0110010010100010100000100: 595993 476746 539046 476801 651572
0110010010100010100000100: 595993 476746 539046 476801 474588
0111110000100001000010000: 595993 476746 555343 582984 462624
0111110000100001000010000: 595993 476746 555343 539046 462624
0111110000100001000010000: 595993 476746 555343 539046 582984
0110010010100010100000100: 595993 476746 555343 570070 535120
0110010010100010100000100: 595993 476746 555343 570070 474588
0110010011100000100001000: 595993 476746 555343 488949 570070
0110010010100010100000100: 595993 476746 555343 488949 535120
0110010010100010100000100: 595993 476746 555343 488949 474588
0110010011100000100001000: 595993 476746 555343 476801 570070
0110010011100000100001000: 595993 476746 555343 476801 488949
0110010010100010100000100: 595993 476746 555343 476801 535120
0110010010100010100000100: 595993 476746 555343 476801 474588
0111110000100001000010000: 595993 476746 456927 582984 462624
0111110000100001000010000: 595993 476746 456927 539046 462624
0111110000100001000010000: 595993 476746 456927 539046 582984
0111110000100001000010000: 595993 476746 456927 555343 462624
0111110000100001000010000: 595993 476746 456927 555343 582984
0111110000100001000010000: 595993 476746 456927 555343 539046
0110010010100010100000100: 595993 476746 456927 570070 474588
0110010011100000100001000: 595993 476746 456927 488949 570070
0110010010100010100000100: 595993 476746 456927 488949 474588
0110010010100010100000100: 595993 554368 462624 570070 512279
0110010011100000100001000: 595993 554368 462624 574761 570070
0110010010100010100000100: 595993 554368 462624 574761 512279
0110010011100000100001000: 595993 554368 462624 488949 570070
0110010011100000100001000: 595993 554368 462624 537783 570070
0110010011100000100001000: 595993 554368 462624 537783 574761
0110010011100000100001000: 595993 554368 462624 537783 488949
0110010010100010100000100: 595993 554368 462624 537783 512279
0110010011100000100001000: 595993 554368 462624 651572 574761
0110010011100000100001000: 595993 554368 462624 651572 488949
0110010010100010100000100: 595993 554368 462624 651572 512279
0110010011100000100001000: 595993 554368 462624 476801 570070
0110010011100000100001000: 595993 554368 462624 476801 574761
0110010011100000100001000: 595993 554368 462624 476801 488949
0110010011100000100001000: 595993 554368 462624 476801 537783
0110010011100000100001000: 595993 554368 462624 476801 651572
0110010010100010100000100: 595993 554368 462624 476801 512279
0110010011100000100001000: 595993 554368 462624 474588 570070
0110010011100000100001000: 595993 554368 462624 474588 574761
0110010011100000100001000: 595993 554368 462624 474588 488949
0110010011100000100001000: 595993 554368 462624 474588 651572
0110010011100000100001000: 595993 554368 462624 474588 476801
0110010010100010100000100: 595993 554368 462624 474588 512279
0110010011100000100001000: 595993 554368 462624 524435 570070
0110010011100000100001000: 595993 554368 462624 524435 574761
0110010011100000100001000: 595993 554368 462624 524435 488949
0110010011100000100001000: 595993 554368 462624 524435 537783
0110010011100000100001000: 595993 554368 462624 524435 651572
0110010011100000100001000: 595993 554368 462624 524435 476801
0110010011100000100001000: 595993 554368 539046 574761 570070
0110010011100000100001000: 595993 554368 539046 488949 570070
0110010011100000100001000: 595993 554368 539046 537783 570070
0110010011100000100001000: 595993 554368 539046 537783 574761
0110010011100000100001000: 595993 554368 539046 537783 488949
0110010011100000100001000: 595993 554368 539046 476801 570070
0110010011100000100001000: 595993 554368 539046 476801 574761
0110010011100000100001000: 595993 554368 539046 476801 488949
0110010011100000100001000: 595993 554368 539046 476801 537783
0110010011100000100001000: 595993 554368 539046 524435 570070
0110010011100000100001000: 595993 554368 539046 524435 574761
0110010011100000100001000: 595993 554368 539046 524435 488949
0110010011100000100001000: 595993 554368 539046 524435 537783
0110010011100000100001000: 595993 554368 539046 524435 476801
0111110000100001000010000: 595993 554368 456927 539046 462624
0110010011100000100001000: 595993 554368 456927 574761 570070
0110010011100000100001000: 595993 554368 456927 488949 570070
0110010011100000100001000: 595993 554368 456927 537783 570070
0110010011100000100001000: 595993 554368 456927 537783 574761
0110010011100000100001000: 595993 554368 456927 537783 488949
0110010011100000100001000: 595993 554368 456927 651572 574761
0110010011100000100001000: 595993 554368 456927 651572 488949
0110010011100000100001000: 595993 554368 456927 524435 570070
0110010011100000100001000: 595993 554368 456927 524435 574761
0110010011100000100001000: 595993 554368 456927 524435 488949
0110010011100000100001000: 595993 554368 456927 524435 537783
0110010011100000100001000: 595993 554368 456927 524435 651572
0111010100110001000100010: 595993 554368 582984 462624 512279
0111110100110001000010000: 595993 554368 582984 539046 462624
0111110100110001000010000: 595993 554368 582984 456927 462624
0111110100110001000010000: 595993 554368 582984 456927 539046
0111010100110001000100010: 595993 554368 555343 462624 512279
0111110100110001000010000: 595993 554368 555343 539046 462624
0111110100110001000010000: 595993 554368 555343 456927 462624
0111110100110001000010000: 595993 554368 555343 456927 539046
0111110110110001100010000: 595993 554368 555343 582984 462624
0111110110110001100010000: 595993 554368 555343 582984 539046
0111110110110001100010000: 595993 554368 555343 582984 456927
0111010100110001000100010: 595993 554368 476746 462624 512279
0111110100110001000010000: 595993 554368 476746 539046 462624
0111110100110001000010000: 595993 554368 476746 456927 462624
0111110100110001000010000: 595993 554368 476746 456927 539046
0111110110110001100010000: 595993 554368 476746 582984 462624
0111110110110001100010000: 595993 554368 476746 582984 539046
0111110110110001100010000: 595993 554368 476746 582984 456927
0111110110110001100010000: 595993 554368 476746 555343 462624
0111110110110001100010000: 595993 554368 476746 555343 539046
0111110110110001100010000: 595993 554368 476746 555343 456927
0110010010100010100000100: 537783 474588 651572 555343 570070
0110010011100000100001000: 537783 474588 651572 456927 555343
0110010010100010100000100: 537783 474588 651572 456927 570070
0110010011100000100001000: 537783 474588 651572 524435 555343
0110010011100000100001000: 537783 474588 651572 524435 456927
0110010010100010100000100: 537783 474588 651572 524435 570070
0110010011100000100001000: 488949 512279 574761 524435 462624
0110010011100000100001000: 488949 512279 476746 524435 462624
0110010010100010100000100: 488949 582984 512279 535120 462624
0110010011100000100001000: 488949 582984 512279 595993 535120
0110010011100000100001000: 488949 582984 574761 595993 535120
0110010011100000100001000: 488949 582984 574761 524435 535120
0110010011100000100001000: 488949 582984 574761 524435 595993
0110010011100000100001000: 488949 582984 476746 524435 535120
0111010101110001000001000: 488949 582984 554368 512279 535120
0110010010100010100000100: 488949 476746 512279 570070 462624
0110010010100010100000100: 488949 476746 512279 570070 524435
0110010011100000100001000: 488949 476746 512279 595993 570070
0110010010100010100000100: 488949 476746 512279 595993 524435
0110010011100000100001000: 488949 476746 512279 476801 570070
0110010011100000100001000: 488949 476746 512279 476801 595993
0110010010100010100000100: 488949 476746 512279 476801 462624
0110010010100010100000100: 488949 476746 512279 476801 524435
0110010010100010100000100: 488949 476746 582984 570070 535120
0110010010100010100000100: 488949 476746 582984 570070 524435
0110010011100000100001000: 488949 476746 582984 476801 570070
0110010010100010100000100: 488949 476746 582984 476801 535120
0110010010100010100000100: 488949 476746 582984 476801 524435
0111110000100001000010000: 488949 476746 574761 582984 512279
0110010011100000100001000: 488949 476746 574761 595993 570070
0110010011100000100001000: 488949 476746 574761 476801 570070
0110010011100000100001000: 488949 476746 574761 476801 595993
0110010010100010100000100: 488949 554368 512279 570070 462624
0110010011100000100001000: 488949 554368 512279 537783 570070
0110010010100010100000100: 488949 554368 512279 537783 462624
0110010011100000100001000: 488949 554368 512279 595993 570070
0110010011100000100001000: 488949 554368 512279 595993 537783
0110010011100000100001000: 488949 554368 512279 651572 595993
0110010010100010100000100: 488949 554368 512279 651572 462624
0110010011100000100001000: 488949 554368 512279 555343 570070
0110010011100000100001000: 488949 554368 512279 555343 537783
0110010011100000100001000: 488949 554368 512279 555343 651572
0110010010100010100000100: 488949 554368 512279 555343 462624
0110010011100000100001000: 488949 554368 512279 476801 570070
0110010011100000100001000: 488949 554368 512279 476801 537783
0110010011100000100001000: 488949 554368 512279 476801 595993
0110010011100000100001000: 488949 554368 512279 476801 651572
0110010011100000100001000: 488949 554368 512279 476801 555343
0110010010100010100000100: 488949 554368 512279 476801 462624
0110010011100000100001000: 488949 554368 512279 474588 570070
0110010011100000100001000: 488949 554368 512279 474588 595993
0110010011100000100001000: 488949 554368 512279 474588 651572
0110010011100000100001000: 488949 554368 512279 474588 476801
0110010010100010100000100: 488949 554368 512279 474588 462624
0111010100110001000100010: 488949 554368 582984 512279 462624
0111010100110001000100010: 488949 554368 574761 512279 462624
0111110110110001100010000: 488949 554368 574761 582984 512279
0111010100110001000100010: 488949 554368 476746 512279 462624
0111110110110001100010000: 488949 554368 476746 582984 512279
0111110110110001100010000: 488949 554368 476746 574761 512279
0110010011100000100001000: 570070 651572 476746 539046 537783
0110010010100010100000100: 570070 476746 651572 488949 537783
0110010010100010100000100: 570070 476746 651572 488949 539046
0110010011100000100001000: 570070 476746 651572 595993 488949
0110010010100010100000100: 570070 476746 651572 595993 537783
0110010011100000100001000: 570070 476746 651572 476801 488949
0110010011100000100001000: 570070 476746 651572 476801 595993
0110010010100010100000100: 570070 476746 651572 476801 537783
0110010010100010100000100: 570070 476746 651572 476801 539046
0110010011100000100001000: 535120 582984 555343 524435 488949
0110010010100010100000100: 535120 555343 582984 474588 488949
0110010010100010100000100: 582984 488949 535120 512279 555343
0110010011100000100001000: 582984 488949 535120 574761 512279
0110010010100010100000100: 582984 488949 535120 574761 555343
0110010011100000100001000: 582984 488949 535120 476746 512279
0110010011100000100001000: 582984 488949 535120 476746 574761
0110010010100010100000100: 582984 488949 535120 476746 555343
0110010011100000100001000: 582984 488949 595993 574761 512279
0110010011100000100001000: 582984 488949 524435 476746 574761
0110010011100100110001000: 582984 488949 524435 512279 574761
0110010011100100110001000: 582984 488949 524435 512279 476746
0110010011100000100001000: 582984 595993 535120 539046 462624
0110010011100000100001000: 582984 595993 535120 456927 462624
0110010011100000100001000: 582984 595993 535120 456927 539046
0110010011100000100001000: 582984 595993 535120 476746 462624
0110010011100000100001000: 582984 595993 535120 476746 539046
0110010011100000100001000: 582984 595993 535120 476746 456927
0110010010100010100000100: 582984 595993 488949 462624 574761
0110010011100000100001000: 582984 595993 488949 539046 462624
0110010010100010100000100: 582984 595993 488949 539046 512279
0110010010100010100000100: 582984 595993 488949 539046 574761
0110010011100000100001000: 582984 595993 488949 555343 462624
0110010011100000100001000: 582984 595993 488949 555343 539046
0110010010100010100000100: 582984 595993 488949 555343 512279
0110010010100010100000100: 582984 595993 488949 555343 574761
0110010011100000100001000: 582984 595993 488949 456927 462624
0110010011100000100001000: 582984 595993 488949 456927 539046
0110010011100000100001000: 582984 595993 488949 456927 555343
0110010010100010100000100: 582984 595993 488949 456927 512279
0110010010100010100000100: 582984 595993 488949 456927 574761
0110010011100000100001000: 582984 595993 524435 539046 462624
0110010011100000100001000: 582984 595993 524435 555343 462624
0110010011100000100001000: 582984 595993 524435 555343 539046
0110010011100000100001000: 582984 595993 524435 456927 462624
0110010011100000100001000: 582984 595993 524435 456927 539046
0110010011100000100001000: 582984 595993 524435 456927 555343
0110010011100000100001000: 582984 595993 524435 476746 462624
0110010011100000100001000: 582984 595993 524435 476746 539046
0110010011100000100001000: 582984 595993 524435 476746 555343
0110010011100000100001000: 582984 595993 524435 476746 456927
0110010010100010100000100: 582984 524435 535120 512279 555343
0110010011100000100001000: 582984 524435 535120 474588 512279
0110010010100010100000100: 582984 524435 488949 474588 574761
0110010010100010100000100: 582984 524435 488949 474588 476746
0110010011100100110001000: 582984 524435 488949 512279 474588
0111110000100001000010000: 582984 524435 595993 488949 535120
0110010010100010100000100: 582984 524435 595993 512279 539046
0110010010100010100000100: 582984 524435 595993 512279 555343
0110010010100010100000100: 582984 524435 595993 512279 456927
0110010010100010100000100: 582984 524435 595993 512279 476746
0110010011100000100001000: 582984 524435 595993 474588 512279
0110010010100010100000100: 582984 524435 595993 474588 462624
0110010010100010100000100: 582984 524435 595993 474588 476746
0110010011100000100001000: 582984 554368 535120 574761 570070
0110010011100000100001000: 582984 554368 535120 537783 570070
0110010011100000100001000: 582984 554368 535120 537783 574761
0110010011100000100001000: 582984 554368 535120 651572 574761
0110010011100000100001000: 582984 554368 535120 476801 570070
0110010011100000100001000: 582984 554368 535120 476801 574761
0110010011100000100001000: 582984 554368 535120 476801 537783
0110010011100000100001000: 582984 554368 535120 476801 651572
0110010011100000100001000: 582984 554368 535120 474588 570070
0110010011100000100001000: 582984 554368 535120 474588 574761
0110010011100000100001000: 582984 554368 535120 474588 651572
0110010011100000100001000: 582984 554368 535120 474588 476801
0110010011100000100001000: 582984 554368 535120 476746 574761
0110010011100000100001000: 582984 554368 535120 476746 537783
0110010011100000100001000: 582984 554368 535120 476746 651572
0110010011100000100001000: 582984 554368 535120 476746 474588
0111110110110001100010000: 582984 554368 595993 488949 535120
0111110110110001100010000: 582984 554368 524435 488949 535120
0111110110110001100010000: 582984 554368 524435 595993 535120
0110010011100000100001000: 462624 512279 595993 524435 488949
0110010011100000100001000: 462624 595993 512279 539046 582984
0110010010100010100000100: 462624 595993 512279 539046 488949
0110010010100010100000100: 462624 595993 512279 539046 524435
0110010011100000100001000: 462624 595993 512279 555343 582984
0110010011100000100001000: 462624 595993 512279 555343 539046
0110010010100010100000100: 462624 595993 512279 555343 488949
0110010010100010100000100: 462624 595993 512279 555343 524435
0110010011100000100001000: 462624 595993 512279 456927 582984
0110010011100000100001000: 462624 595993 512279 456927 539046
0110010011100000100001000: 462624 595993 512279 456927 555343
0110010010100010100000100: 462624 595993 512279 456927 488949
0110010010100010100000100: 462624 595993 512279 456927 524435
0110010011100000100001000: 462624 595993 512279 476746 582984
0110010011100000100001000: 462624 595993 512279 476746 539046
0110010011100000100001000: 462624 595993 512279 476746 555343
0110010011100000100001000: 462624 595993 512279 476746 456927
0110010010100010100000100: 462624 595993 512279 476746 524435
0110010011100000100001000: 462624 595993 512279 554368 539046
0110010011100000100001000: 462624 595993 512279 554368 456927
0110010011100000100001000: 512279 488949 462624 574761 582984
0110010010100010100000100: 512279 488949 462624 574761 595993
0110010011100000100001000: 512279 488949 462624 476746 582984
0110010011100000100001000: 512279 488949 462624 476746 574761
0110010011100000100001000: 512279 488949 524435 476746 574761
0110010011100000100001000: 512279 524435 462624 474588 582984
0110010010100010100000100: 512279 524435 462624 474588 595993
0110010010100010100000100: 512279 524435 488949 474588 574761
0110010010100010100000100: 512279 524435 488949 474588 476746
