Vertex,0101101001001000,0110100110000100,0110100010010010,0100101001010010,0111100010001000
549850,4.0,44.0,14.0,3.0,0.0
608003,8.0,48.0,18.0,3.0,8.0
655757,0.0,40.0,10.0,3.0,0.0
543233,12.0,72.0,30.0,9.0,8.0
477417,0.0,40.0,8.0,0.0,0.0
626110,0.0,40.0,8.0,0.0,0.0
603659,0.0,40.0,8.0,0.0,0.0
551622,0.0,40.0,8.0,0.0,0.0
515290,8.0,48.0,18.0,3.0,8.0
622130,4.0,44.0,14.0,3.0,0.0
491409,0.0,40.0,10.0,3.0,0.0
653054,8.0,48.0,18.0,3.0,8.0
633986,4.0,44.0,14.0,3.0,0.0
614964,0.0,40.0,10.0,3.0,0.0
473764,0.0,40.0,8.0,0.0,0.0
604328,0.0,39.0,8.0,0.0,0.0
599253,0.0,29.0,6.0,0.0,0.0
582871,0.0,40.0,8.0,0.0,0.0
525396,0.0,19.0,4.0,0.0,0.0
550169,0.0,9.0,2.0,0.0,0.0
graph,12.0,201.0,56.0,9.0,8.0
