0110100010010010: 479778 513964 534274 490780
0110100110000100: 479778 534274 513964 490780
0110100110000100: 479778 534274 513964 490780
0110100110000100: 479778 534274 513964 490780
0110100110000100: 479778 534274 513964 490780
0110100110000100: 479778 534274 513964 490780
0110100110000100: 534274 490780 479778 622238
0110100010010010: 534274 490780 479778 513964
0110100110000100: 534274 490780 479778 622238
0110100110000100: 534274 490780 479778 622238
0110100110000100: 534274 490780 479778 622238
0110100110000100: 534274 490780 479778 622238
0110100110000100: 534274 490780 479778 622238
0110100010010010: 534274 479778 490780 622238
0110100110000100: 534274 479778 490780 513964
0110100110000100: 534274 479778 490780 513964
0110100110000100: 534274 479778 490780 513964
0110100110000100: 534274 479778 490780 513964
0110100110000100: 638166 648339 602246 632004
0110100110000100: 638166 648339 602246 632004
0110100110000100: 638166 648339 602246 632004
0110100110000100: 638166 648339 602246 632004
0110100110000100: 638166 648339 602246 632004
0110100010010010: 638166 602246 648339 632004
0110100110000100: 622238 490780 512832 534274
0110100010010010: 622238 490780 512832 632004
0110100110000100: 622238 490780 512832 534274
0110100110000100: 622238 490780 512832 534274
0110100110000100: 622238 490780 512832 534274
0110100110000100: 622238 490780 512832 534274
0110100110000100: 622238 490780 512832 534274
0110100110000100: 622238 512832 490780 632004
0110100010010010: 622238 512832 490780 534274
0110100110000100: 622238 512832 490780 632004
0110100110000100: 622238 512832 490780 632004
0110100110000100: 622238 512832 490780 632004
0110100110000100: 622238 512832 490780 632004
0110100110000100: 622238 512832 490780 632004
0110100110000100: 512832 632004 622238 648339
0110100010010010: 512832 632004 622238 490780
0110100110000100: 512832 632004 622238 648339
0110100110000100: 512832 632004 622238 648339
0110100110000100: 512832 632004 622238 648339
0110100110000100: 512832 632004 622238 648339
0110100110000100: 512832 632004 622238 648339
0110100010010010: 512832 622238 632004 648339
0110100110000100: 512832 622238 632004 490780
0110100110000100: 512832 622238 632004 490780
0110100110000100: 512832 622238 632004 490780
0110100110000100: 512832 622238 632004 490780
0110100110000100: 632004 648339 512832 638166
0110100010010010: 632004 648339 512832 622238
0110100110000100: 632004 648339 512832 638166
0110100110000100: 632004 648339 512832 638166
0110100110000100: 632004 648339 512832 638166
0110100110000100: 632004 648339 512832 638166
0110100110000100: 632004 648339 512832 638166
0110100010010010: 632004 512832 648339 638166
0110100110000100: 632004 512832 648339 622238
0110100110000100: 632004 512832 648339 622238
0110100110000100: 632004 512832 648339 622238
0110100110000100: 632004 512832 648339 622238
0110100010010010: 648339 632004 638166 602246
0110100110000100: 648339 632004 638166 512832
0110100110000100: 648339 632004 638166 512832
0110100110000100: 648339 632004 638166 512832
0110100110000100: 648339 632004 638166 512832
0110100010010010: 648339 638166 632004 512832
0110100110000100: 648339 638166 632004 602246
0110100110000100: 648339 638166 632004 602246
0110100110000100: 648339 638166 632004 602246
0110100110000100: 648339 638166 632004 602246
0110100010010010: 490780 622238 534274 479778
0110100110000100: 490780 622238 534274 512832
0110100110000100: 490780 622238 534274 512832
0110100110000100: 490780 622238 534274 512832
0110100110000100: 490780 622238 534274 512832
0110100010010010: 490780 534274 622238 512832
0110100110000100: 490780 534274 622238 479778
0110100110000100: 490780 534274 622238 479778
0110100110000100: 490780 534274 622238 479778
0110100110000100: 490780 534274 622238 479778
