Vertex,0101101001001000,0110101111000100,0111101011001000,0111100110001100,0110100110000100,0110100110010110,0110100010010010,0111101111001100,0110101011010010,0101101101011110,0111101011011010,0100101101010110,0101101101001100,0110101111010110,0111100010001000,0111100010011010,0100101101000100,0111100110011110,0101101001011010,0100101001010010
601281,36.0,59.0,130.0,39.0,162.0,35.0,73.0,18.0,37.0,2.0,21.0,0.0,10.0,24.0,72.0,34.0,0.0,2.0,9.0,12.0
536180,122.0,63.0,140.0,41.0,452.0,105.0,262.0,18.0,39.0,2.0,21.0,2.0,10.0,24.0,259.0,43.0,18.0,2.0,30.0,84.0
570378,53.0,26.0,58.0,18.0,341.0,105.0,155.0,18.0,16.0,2.0,21.0,0.0,4.0,24.0,253.0,22.0,10.0,2.0,29.0,37.0
592700,120.0,33.0,72.0,21.0,448.0,140.0,263.0,18.0,21.0,2.0,21.0,0.0,6.0,24.0,296.0,12.0,24.0,2.0,51.0,88.0
600776,64.0,14.0,28.0,11.0,325.0,105.0,162.0,0.0,10.0,0.0,0.0,0.0,4.0,0.0,215.0,10.0,14.0,0.0,35.0,48.0
581145,103.0,7.0,14.0,5.0,295.0,70.0,166.0,0.0,5.0,0.0,0.0,0.0,2.0,0.0,157.0,2.0,18.0,0.0,32.0,65.0
616207,95.0,7.0,14.0,5.0,403.0,35.0,207.0,0.0,5.0,0.0,0.0,0.0,2.0,0.0,250.0,2.0,20.0,0.0,16.0,79.0
614482,79.0,11.0,24.0,8.0,433.0,35.0,220.0,0.0,7.0,0.0,0.0,0.0,2.0,0.0,290.0,10.0,18.0,0.0,10.0,72.0
600913,32.0,8.0,20.0,4.0,112.0,35.0,54.0,0.0,4.0,0.0,0.0,0.0,0.0,0.0,64.0,4.0,0.0,0.0,10.0,2.0
534598,44.0,8.0,20.0,4.0,142.0,0.0,76.0,0.0,4.0,0.0,0.0,0.0,0.0,0.0,79.0,4.0,2.0,0.0,0.0,24.0
513960,104.0,46.0,97.0,30.0,425.0,70.0,231.0,0.0,32.0,0.0,0.0,2.0,8.0,0.0,253.0,29.0,18.0,0.0,20.0,75.0
636351,29.0,0.0,0.0,0.0,144.0,0.0,83.0,0.0,0.0,0.0,0.0,0.0,0.0,0.0,87.0,0.0,6.0,0.0,0.0,34.0
535362,40.0,0.0,0.0,0.0,144.0,35.0,71.0,0.0,0.0,0.0,0.0,0.0,0.0,0.0,92.0,0.0,8.0,0.0,16.0,23.0
617666,33.0,12.0,21.0,10.0,177.0,0.0,102.0,0.0,12.0,0.0,0.0,0.0,4.0,0.0,78.0,8.0,6.0,0.0,0.0,39.0
564091,49.0,0.0,0.0,0.0,145.0,0.0,85.0,0.0,0.0,0.0,0.0,0.0,0.0,0.0,53.0,0.0,6.0,0.0,0.0,38.0
508831,91.0,7.0,13.0,5.0,267.0,35.0,142.0,0.0,5.0,0.0,0.0,0.0,2.0,0.0,150.0,2.0,16.0,0.0,16.0,65.0
647535,26.0,0.0,0.0,0.0,115.0,0.0,64.0,0.0,0.0,0.0,0.0,0.0,0.0,0.0,54.0,0.0,4.0,0.0,0.0,25.0
503014,10.0,0.0,0.0,0.0,29.0,0.0,18.0,0.0,0.0,0.0,0.0,0.0,0.0,0.0,15.0,0.0,2.0,0.0,0.0,7.0
629127,93.0,38.0,77.0,26.0,291.0,0.0,168.0,0.0,28.0,0.0,0.0,2.0,8.0,0.0,111.0,25.0,14.0,0.0,0.0,76.0
576656,46.0,38.0,77.0,26.0,187.0,0.0,97.0,0.0,28.0,0.0,0.0,2.0,8.0,0.0,70.0,25.0,6.0,0.0,0.0,30.0
578050,6.0,0.0,0.0,0.0,39.0,0.0,25.0,0.0,0.0,0.0,0.0,0.0,0.0,0.0,24.0,0.0,2.0,0.0,0.0,10.0
645258,20.0,0.0,0.0,0.0,74.0,0.0,52.0,0.0,0.0,0.0,0.0,0.0,0.0,0.0,15.0,0.0,2.0,0.0,0.0,21.0
506040,43.0,7.0,13.0,5.0,147.0,0.0,99.0,0.0,5.0,0.0,0.0,0.0,2.0,0.0,38.0,2.0,4.0,0.0,0.0,46.0
499718,34.0,4.0,10.0,2.0,119.0,35.0,57.0,0.0,2.0,0.0,0.0,0.0,0.0,0.0,61.0,2.0,6.0,0.0,10.0,0.0
graph,343.0,97.0,207.0,65.0,1354.0,210.0,733.0,18.0,65.0,2.0,21.0,2.0,18.0,24.0,759.0,59.0,56.0,2.0,71.0,250.0
