0110010011100000100001000: 594520 649391 602755 642286 551696
0110010011100000100001000: 594520 649391 602755 606973 551696
0110010011100000100001000: 594520 649391 511282 642286 551696
0110010011100000100001000: 594520 649391 511282 606973 551696
0111010101110001000001000: 594520 649391 554368 602755 642286
0110010010100010100000100: 594520 602755 649391 642243 551696
0110010010100010100100110: 594520 602755 649391 642243 642286
0110010010100010100100110: 594520 602755 649391 642243 606973
0110010011100000100001000: 594520 602755 649391 467288 642243
0110010010100010100000100: 594520 602755 649391 467288 551696
0110010010100010100000100: 594520 602755 649391 467288 642286
0110010010100010100100110: 594520 602755 649391 467288 606973
0111010101110001000001000: 594520 602755 511282 649391 642243
0111010101110001000001000: 594520 602755 511282 649391 467288
0110010010100010100000100: 594520 511282 649391 593673 551696
0110010010100010100000100: 594520 511282 649391 593673 642286
0110010010100010100000100: 594520 511282 649391 593673 606973
0110010011100000100001000: 594520 511282 649391 591202 593673
0110010010100010100000100: 594520 511282 649391 591202 551696
0110010010100010100000100: 594520 511282 649391 591202 642286
0110010010100010100000100: 594520 511282 649391 591202 606973
0111010101110001000001000: 594520 511282 602755 649391 593673
0111010101110001000001000: 594520 511282 602755 649391 591202
0111010100110001000100010: 594520 511282 602755 649391 551696
0111010100110001000100010: 594520 511282 602755 649391 642286
0111010100110001000100010: 594520 511282 602755 649391 606973
0111010110110011100000100: 594520 511282 554368 602755 551696
0111010110110011100000100: 594520 511282 554368 602755 577983
0111010110110011100000100: 594520 511282 554368 602755 606973
0111010110110011100100110: 594520 511282 554368 602755 642243
0111010110110011100100110: 594520 511282 554368 602755 467288
0110010011100000100001000: 594520 554368 602755 591202 551696
0110010011100000100001000: 594520 554368 602755 577983 551696
0110010011100000100001000: 594520 554368 602755 606973 551696
0110010011100000100001000: 594520 554368 602755 606973 591202
0110010011100000100001000: 594520 554368 602755 606973 577983
0110010011100100110001000: 594520 554368 602755 642243 551696
0110010011100100110001000: 594520 554368 602755 642243 591202
0110010011100100110001000: 594520 554368 602755 642243 577983
0110010011100100110001000: 594520 554368 602755 467288 551696
0110010011100100110001000: 594520 554368 602755 467288 577983
0110010011100110110001100: 594520 554368 602755 467288 642243
0111010101110001000001000: 594520 554368 649391 602755 591202
0111010101110001000001000: 594520 554368 649391 602755 577983
0111010101110001000101010: 594520 554368 649391 602755 642243
0111010101110001000101010: 594520 554368 649391 602755 467288
0111010110110011100000100: 594520 554368 649391 511282 642286
0111110110110011100010100: 594520 554368 511282 649391 602755
0111010110110011100000100: 594520 554368 511282 649391 593673
0110010011100000100001000: 554368 642243 551696 642286 602755
0110010011100000100001000: 554368 642243 591202 642286 602755
0110010011100100110001000: 554368 642243 467288 602755 642286
0110010011100100110001000: 554368 642243 649391 642286 602755
0110010011100000100001000: 554368 642243 577983 642286 602755
0110010011100100110001000: 554368 642243 511282 602755 642286
0110010011100100110001000: 554368 642243 594520 602755 642286
0111010101110001000001000: 554368 642243 606973 551696 602755
0111010101110001000001000: 554368 642243 606973 591202 602755
0111010101110001000001000: 554368 642243 606973 577983 602755
0111010101110001000101010: 554368 642243 606973 511282 602755
0111010101110001000101010: 554368 642243 606973 594520 602755
0110010010100010100000100: 554368 591202 642243 656511 602755
0110010010100010100000100: 554368 591202 642243 656511 642286
0111010110110011100000100: 554368 591202 467288 577983 602755
0111010101110001000001000: 554368 591202 577983 551696 656511
0111010101110001000001000: 554368 591202 577983 642243 656511
0111010101110001000001000: 554368 591202 577983 649391 656511
0111010101110001000001000: 554368 591202 577983 606973 656511
0111010101110001000001000: 554368 591202 577983 594520 656511
0111110110110001100010000: 554368 591202 577983 467288 551696
0111110110110001100010000: 554368 591202 577983 467288 642243
0111110110110001100010000: 554368 591202 577983 467288 649391
0111110110110001100010000: 554368 591202 577983 467288 594520
0111010110110011100100110: 554368 591202 577983 467288 593673
0111010101110001000001000: 554368 591202 511282 551696 656511
0111010101110001000001000: 554368 591202 511282 642243 656511
0111010101110001000001000: 554368 591202 511282 649391 656511
0111010101110001000001000: 554368 591202 511282 606973 656511
0111110110110001100010000: 554368 591202 511282 467288 551696
0111110110110001100010000: 554368 591202 511282 467288 642243
0111110110110001100010000: 554368 591202 511282 467288 649391
0111010110110011100100110: 554368 591202 511282 467288 593673
0111010110110011100100110: 554368 591202 511282 467288 602755
0111110110110001100010000: 554368 591202 511282 577983 551696
0111110110110001100010000: 554368 591202 511282 577983 642243
0111110110110001100010000: 554368 591202 511282 577983 649391
0111110110110001100010000: 554368 591202 511282 577983 606973
0111110111110001100011000: 554368 591202 511282 577983 467288
0111010110110011100000100: 554368 591202 511282 577983 602755
0111010110110011100100110: 554368 591202 511282 577983 593673
0110010011100000100001000: 554368 467288 551696 593673 656511
0110010011100000100001000: 554368 467288 551696 602755 656511
0110010011100000100001000: 554368 467288 551696 602755 593673
0110010010100010100000100: 554368 467288 642243 656511 642286
0110010011100000100001000: 554368 467288 642243 593673 656511
0110010010100010100000100: 554368 467288 642243 593673 642286
0110010011100100110001000: 554368 467288 642243 602755 656511
0110010011100100110001000: 554368 467288 642243 602755 593673
0110010011100000100001000: 554368 467288 649391 593673 656511
0110010011100000100001000: 554368 467288 649391 602755 656511
0110010011100000100001000: 554368 467288 649391 602755 593673
0110010011100000100001000: 554368 467288 577983 602755 656511
0110010011100100110001000: 554368 467288 577983 593673 656511
0110010011100100110001000: 554368 467288 577983 593673 602755
0110010011100100110001000: 554368 467288 511282 593673 656511
0110010011100100110001000: 554368 467288 511282 602755 656511
0110010011100000100001000: 554368 467288 594520 593673 656511
0110010011100100110001000: 554368 467288 594520 602755 656511
0110010011100100110001000: 554368 467288 594520 602755 593673
0111010101110001000001000: 554368 467288 591202 551696 593673
0111010101110001000001000: 554368 467288 591202 551696 602755
0111110100110001000010000: 554368 467288 591202 642243 551696
0111010101110001000001000: 554368 467288 591202 642243 593673
0111010100110001000100010: 554368 467288 591202 642243 642286
0111010101110001000101010: 554368 467288 591202 642243 602755
0111110100110001000010000: 554368 467288 591202 649391 642243
0111010101110001000001000: 554368 467288 591202 649391 593673
0111010101110001000001000: 554368 467288 591202 649391 602755
0111010100110001000100010: 554368 467288 591202 649391 642286
0111110100110001000010000: 554368 467288 591202 594520 551696
0111110100110001000010000: 554368 467288 591202 594520 642243
0111010101110001000001000: 554368 467288 591202 594520 593673
0111010101110001000101010: 554368 467288 591202 594520 602755
0111110110110011100010100: 554368 467288 591202 606973 577983
0111110110110011100010100: 554368 467288 591202 606973 511282
0111010101110001000001000: 554368 467288 606973 551696 656511
0111010101110001000001000: 554368 467288 606973 551696 593673
0111010101110001000001000: 554368 467288 606973 551696 602755
0111010101110001000001000: 554368 467288 606973 577983 656511
0111010101110001000001000: 554368 467288 606973 577983 602755
0111010101110001000101010: 554368 467288 606973 577983 593673
0111010101110001000001000: 554368 467288 606973 511282 656511
0111010101110001000101010: 554368 467288 606973 511282 593673
0111010101110001000101010: 554368 467288 606973 511282 602755
0111010101110001000001000: 554368 467288 606973 594520 656511
0111010101110001000001000: 554368 467288 606973 594520 593673
0111010101110001000101010: 554368 467288 606973 594520 602755
0111110110110001100010000: 554368 467288 606973 591202 551696
0111110110110001100010000: 554368 467288 606973 591202 594520
0111010110110011100000100: 554368 467288 606973 591202 642286
0110010010100010100000100: 554368 649391 591202 642286 656511
0110010010100010100000100: 554368 649391 467288 642286 656511
0110010010100010100000100: 554368 649391 467288 642286 593673
0110010010100010100000100: 554368 649391 467288 642286 602755
0111010100110001000100010: 554368 649391 551696 642243 602755
0111010101110001000101010: 554368 649391 551696 642243 642286
0111110100110001000010000: 554368 649391 551696 591202 642243
0111010101110001000001000: 554368 649391 551696 591202 642286
0111010100110001000100010: 554368 649391 551696 591202 656511
0111110100110001000010000: 554368 649391 551696 467288 642243
0111010101110001000001000: 554368 649391 551696 467288 642286
0111010100110001000100010: 554368 649391 551696 467288 656511
0111010100110001000100010: 554368 649391 551696 467288 593673
0111010100110001000100010: 554368 649391 551696 467288 602755
0111110100110001000110010: 554368 649391 551696 467288 591202
0111110100110001000010000: 554368 649391 551696 577983 642243
0111110100110001000010000: 554368 649391 551696 577983 467288
0111010101110001000001000: 554368 649391 551696 577983 642286
0111010100110001000100010: 554368 649391 551696 577983 593673
0111110100110001000010000: 554368 649391 551696 511282 642243
0111110100110001000010000: 554368 649391 551696 511282 467288
0111110100110001000010000: 554368 649391 551696 511282 577983
0111010101110001000001000: 554368 649391 551696 511282 642286
0111010100110001000100010: 554368 649391 551696 511282 593673
0111010100110001000100010: 554368 649391 551696 511282 602755
0111110110110001100010000: 554368 649391 606973 551696 591202
0111110110110001100010000: 554368 649391 606973 551696 577983
0111110110110001100010000: 554368 649391 606973 551696 511282
0111010101110001000101010: 554368 649391 594520 642243 642286
0111010101110001000001000: 554368 649391 594520 591202 642286
0111010101110001000001000: 554368 649391 594520 467288 642286
0111010101110001000001000: 554368 649391 594520 577983 642286
0111110110110001100010000: 554368 649391 594520 551696 642243
0111110110110001100010000: 554368 649391 594520 551696 591202
0111110110110001100010000: 554368 649391 594520 551696 467288
0111110110110001100010000: 554368 649391 594520 551696 577983
0111010110110011100000100: 554368 649391 594520 551696 602755
0111110110110001100010000: 554368 649391 594520 606973 591202
0111110110110001100010000: 554368 649391 594520 606973 577983
0111110111110001100011000: 554368 649391 594520 606973 551696
0111010110110011100000100: 554368 649391 594520 606973 602755
0110010010100010100000100: 554368 577983 642243 593673 602755
0110010010100010100000100: 554368 577983 642243 593673 642286
0111110000100001000010000: 554368 577983 467288 642243 551696
0111110000100001000010000: 554368 577983 649391 467288 642243
0110010010100010100000100: 554368 577983 649391 593673 642286
0111010101110001000001000: 554368 577983 591202 551696 593673
0111110100110001000010000: 554368 577983 591202 642243 551696
0111010101110001000001000: 554368 577983 591202 642243 593673
0111010100110001000100010: 554368 577983 591202 642243 602755
0111010100110001000100010: 554368 577983 591202 642243 642286
0111110100110001000010000: 554368 577983 591202 649391 642243
0111010101110001000001000: 554368 577983 591202 649391 593673
0111010100110001000100010: 554368 577983 591202 649391 642286
0111110100110001000110010: 554368 577983 591202 649391 551696
0111110100110001000010000: 554368 577983 591202 606973 551696
0111010101110001000001000: 554368 577983 591202 606973 593673
0111010100110001000100010: 554368 577983 591202 606973 642286
0111110100110001000010000: 554368 577983 591202 594520 551696
0111110100110001000010000: 554368 577983 591202 594520 642243
0111110100110001000010000: 554368 577983 591202 594520 606973
0111010101110001000001000: 554368 577983 591202 594520 593673
0111010100110001000100010: 554368 577983 591202 594520 602755
0110010011100000100001000: 554368 511282 551696 602755 593673
0110010010100010100000100: 554368 511282 642243 593673 642286
0110010011100100110001000: 554368 511282 642243 602755 593673
0111110000100001000010000: 554368 511282 467288 642243 551696
0110010011100110110001100: 554368 511282 467288 602755 593673
0111110000100001000010000: 554368 511282 649391 467288 642243
0110010010100010100000100: 554368 511282 649391 593673 642286
0110010011100000100001000: 554368 511282 649391 602755 593673
0110010010100010100000100: 554368 511282 649391 602755 642286
0111110000100001000010000: 554368 511282 577983 642243 551696
0111110000100001000010000: 554368 511282 577983 467288 551696
0111110000100001000010000: 554368 511282 577983 467288 642243
0111110000100001000010000: 554368 511282 577983 649391 642243
0111110000100001000010000: 554368 511282 577983 649391 467288
0110010011100100110001000: 554368 511282 577983 593673 602755
0110010011100000100001000: 554368 511282 606973 602755 593673
0111010101110001000001000: 554368 511282 591202 551696 593673
0111010101110001000001000: 554368 511282 591202 551696 602755
0111110100110001000010000: 554368 511282 591202 642243 551696
0111010101110001000001000: 554368 511282 591202 642243 593673
0111010100110001000100010: 554368 511282 591202 642243 642286
0111010101110001000101010: 554368 511282 591202 642243 602755
0111110100110001000010000: 554368 511282 591202 649391 642243
0111010101110001000001000: 554368 511282 591202 649391 593673
0111010101110001000001000: 554368 511282 591202 649391 602755
0111010100110001000100010: 554368 511282 591202 649391 642286
0111110100110001000110010: 554368 511282 591202 649391 551696
0111110100110001000010000: 554368 511282 591202 606973 551696
0111010101110001000001000: 554368 511282 591202 606973 593673
0111010101110001000001000: 554368 511282 591202 606973 602755
0111010100110001000100010: 554368 511282 591202 606973 642286
0111110110110011100010100: 554368 511282 591202 594520 467288
0111110110110011100010100: 554368 511282 591202 594520 577983
0111010110110011100000100: 554368 511282 591202 594520 656511
0111010101110001000001000: 554368 511282 594520 551696 593673
0111010101110001000001000: 554368 511282 594520 642243 593673
0111010101110001000101010: 554368 511282 594520 467288 593673
0111010101110001000101010: 554368 511282 594520 577983 593673
0111010101110001000001000: 554368 511282 594520 606973 593673
0111110110110001100010000: 554368 511282 594520 591202 551696
0111110110110001100010000: 554368 511282 594520 591202 642243
0111110110110001100010000: 554368 511282 594520 591202 606973
0110010010100010100000100: 554368 606973 591202 642286 656511
0110010010100010100000100: 554368 606973 577983 642286 593673
0111110000100001000010000: 554368 606973 511282 577983 551696
0110010010100010100000100: 554368 606973 511282 642286 593673
0110010010100010100000100: 554368 606973 511282 642286 602755
0111110100110001000010000: 554368 606973 642243 591202 551696
0111010100110001000100010: 554368 606973 642243 591202 656511
0111110100110001000010000: 554368 606973 642243 577983 551696
0111010100110001000100010: 554368 606973 642243 577983 593673
0111110100110001000110010: 554368 606973 642243 577983 591202
0111110100110001000010000: 554368 606973 642243 511282 551696
0111110100110001000010000: 554368 606973 642243 511282 577983
0111010100110001000100010: 554368 606973 642243 511282 593673
0111110100110001000110010: 554368 606973 642243 511282 591202
0111110100110001000010000: 554368 606973 642243 594520 551696
0111110100110001000010000: 554368 606973 642243 594520 591202
0111110100110001000010000: 554368 606973 642243 594520 577983
0111010110110011100000100: 554368 606973 642243 649391 602755
0111010101110001000001000: 554368 606973 467288 551696 642286
0111110100110001000010000: 554368 606973 467288 577983 551696
0111010101110001000001000: 554368 606973 467288 577983 642286
0111110100110001000010000: 554368 606973 467288 511282 551696
0111110100110001000010000: 554368 606973 467288 511282 577983
0111010101110001000001000: 554368 606973 467288 511282 642286
0111110100110001000010000: 554368 606973 467288 594520 551696
0111110100110001000010000: 554368 606973 467288 594520 577983
0111010101110001000001000: 554368 606973 467288 594520 642286
0111110110110001100010000: 554368 606973 467288 642243 551696
0111110110110001100010000: 554368 606973 467288 642243 577983
0111110110110001100010000: 554368 606973 467288 642243 511282
0111110110110001100010000: 554368 606973 467288 642243 594520
0111110110110011100010100: 554368 606973 467288 642243 591202
0111010110110011100000100: 554368 606973 467288 642243 656511
0111010110110011100000100: 554368 606973 467288 642243 593673
0111010110110011100100110: 554368 606973 467288 642243 602755
0111110110110011100010100: 554368 606973 467288 649391 591202
0111010110110011100000100: 554368 606973 467288 649391 656511
0111010110110011100000100: 554368 606973 467288 649391 593673
0111010110110011100000100: 554368 606973 467288 649391 602755
0111010100110001000100010: 554368 606973 649391 591202 656511
0111010100110001000100010: 554368 606973 649391 577983 593673
0111110100110001000110010: 554368 606973 649391 577983 591202
0111110100110001000010000: 554368 606973 649391 511282 577983
0111010100110001000100010: 554368 606973 649391 511282 593673
0111010100110001000100010: 554368 606973 649391 511282 602755
0111110100110001000110010: 554368 606973 649391 511282 591202
0111110110110001100010000: 554368 606973 649391 642243 591202
0111110110110001100010000: 554368 606973 649391 642243 577983
0111110110110001100010000: 554368 606973 649391 642243 511282
0111110110110011100010100: 554368 606973 649391 642243 551696
0111110110110011100010100: 554368 606973 649391 642243 594520
0111110110110001100010000: 554368 606973 649391 467288 577983
0111110110110001100010000: 554368 606973 649391 467288 511282
0111110111110001100011000: 554368 606973 649391 467288 642243
0111110110110011100010100: 554368 606973 649391 467288 551696
0111110110110011100010100: 554368 606973 649391 467288 594520
0111110000100001000010000: 554368 594520 591202 642243 551696
0110010010100010100000100: 554368 594520 591202 602755 656511
0111110000100001000010000: 554368 594520 467288 642243 551696
0111110000100001000010000: 554368 594520 577983 642243 551696
0111110000100001000010000: 554368 594520 577983 467288 551696
0111110000100001000010000: 554368 594520 577983 467288 642243
0110010010100010100000100: 554368 594520 577983 602755 593673
0111110000100001000010000: 554368 594520 606973 591202 551696
0111110000100001000010000: 554368 594520 606973 577983 551696
0110010010100010100000100: 554368 594520 606973 602755 642286
0111110100110001000010000: 554368 594520 649391 591202 642243
0111010100110001000100010: 554368 594520 649391 591202 656511
0111110100110001000010000: 554368 594520 649391 467288 642243
0111010100110001000100010: 554368 594520 649391 467288 656511
0111010100110001000100010: 554368 594520 649391 467288 593673
0111110100110001000110010: 554368 594520 649391 467288 591202
0111110100110001000010000: 554368 594520 649391 577983 642243
0111110100110001000010000: 554368 594520 649391 577983 467288
0111010100110001000100010: 554368 594520 649391 577983 593673
0111110100110001000110010: 554368 594520 649391 577983 591202
0111110110110011100010100: 554368 594520 649391 511282 551696
0111110110110011100010100: 554368 594520 649391 511282 606973
0111110100110001000010000: 554368 594520 511282 642243 551696
0111010100110001000100010: 554368 594520 511282 642243 642286
0111110100110001000010000: 554368 594520 511282 467288 551696
0111110100110001000010000: 554368 594520 511282 467288 642243
0111010100110001000100010: 554368 594520 511282 467288 656511
0111110100110001000010000: 554368 594520 511282 577983 551696
0111110100110001000010000: 554368 594520 511282 577983 642243
0111110100110001000010000: 554368 594520 511282 577983 467288
0111110100110001000010000: 554368 594520 511282 606973 551696
0111110100110001000010000: 554368 594520 511282 606973 577983
0111010100110001000100010: 554368 594520 511282 606973 642286
0111110100110001000110010: 554368 594520 511282 606973 642243
0111110100110001000110010: 554368 594520 511282 606973 467288
0111110110110001100010000: 554368 594520 511282 649391 642243
0111110110110001100010000: 554368 594520 511282 649391 467288
0111110110110001100010000: 554368 594520 511282 649391 577983
0111110110110011100010100: 554368 594520 511282 649391 591202
0111010101110001000101010: 606973 642243 642286 467288 602755
0111010110110011100000100: 606973 642243 554368 642286 551696
0111010110110011100000100: 606973 642243 554368 642286 591202
0111010110110011100000100: 606973 642243 554368 642286 577983
0111010110110011100000100: 606973 642243 554368 642286 511282
0111010110110011100000100: 606973 642243 554368 642286 594520
0110010011100000100001000: 606973 467288 642243 593673 656511
0110010011100000100001000: 606973 467288 642243 591202 593673
0110010011100100110001000: 606973 467288 642243 602755 656511
0110010011100100110001000: 606973 467288 642243 602755 593673
0110010011100100110001000: 606973 467288 642243 602755 591202
0110010011100000100001000: 606973 467288 649391 593673 656511
0110010011100000100001000: 606973 467288 649391 591202 593673
0110010011100000100001000: 606973 467288 649391 602755 656511
0110010011100000100001000: 606973 467288 649391 602755 593673
0110010011100000100001000: 606973 467288 649391 602755 591202
0110010011100000100001000: 606973 467288 642286 593673 656511
0110010011100000100001000: 606973 467288 642286 591202 593673
0110010011100000100001000: 606973 467288 642286 602755 656511
0110010011100000100001000: 606973 467288 642286 602755 593673
0110010011100000100001000: 606973 467288 642286 602755 591202
0111010101110001000001000: 606973 467288 554368 642286 656511
0111010101110001000001000: 606973 467288 554368 642286 593673
0111010101110001000001000: 606973 467288 554368 642286 602755
0110010010100010100000100: 606973 649391 642243 551696 602755
0110010011100000100001000: 606973 649391 642243 594520 551696
0110010010100010100000100: 606973 649391 467288 551696 656511
0110010010100010100000100: 606973 649391 467288 551696 593673
0110010010100010100000100: 606973 649391 467288 551696 591202
0110010010100010100000100: 606973 649391 467288 551696 602755
0110010011100000100001000: 606973 649391 467288 594520 551696
0110010010100010100000100: 606973 649391 467288 594520 656511
0110010010100010100000100: 606973 649391 467288 594520 593673
0110010010100010100000100: 606973 649391 467288 594520 591202
0111010101110001000001000: 606973 649391 642286 467288 551696
0111010101110001000001000: 606973 649391 642286 467288 594520
0111010110110011100000100: 606973 649391 554368 642286 591202
0111010110110011100000100: 606973 649391 554368 642286 577983
0111010110110011100000100: 606973 649391 554368 642286 511282
0111010100110001000100010: 606973 642286 642243 467288 656511
0111010100110001000100010: 606973 642286 642243 467288 593673
0111010100110001000100010: 606973 642286 642243 467288 591202
0111010110110011100000100: 606973 642286 642243 649391 602755
0111010100110001000100010: 606973 642286 649391 467288 656511
0111010100110001000100010: 606973 642286 649391 467288 593673
0111010100110001000100010: 606973 642286 649391 467288 591202
0111010100110001000100010: 606973 642286 649391 467288 602755
0111110110110001100010000: 606973 642286 649391 642243 467288
0111010110110011100000100: 606973 642286 649391 642243 551696
0111010110110011100000100: 606973 642286 649391 642243 594520
0110010011100000100001000: 606973 554368 642286 591202 551696
0110010011100000100001000: 606973 554368 642286 577983 551696
0110010011100000100001000: 606973 554368 642286 511282 551696
0110010011100000100001000: 606973 554368 642286 511282 577983
0110010011100000100001000: 606973 554368 642286 594520 551696
0110010011100000100001000: 606973 554368 642286 594520 591202
0110010011100000100001000: 606973 554368 642286 594520 577983
0111110110110011100010100: 606973 554368 642243 467288 642286
0111110110110011100110110: 606973 554368 649391 642243 642286
0111110110110011100010100: 606973 554368 649391 467288 642286
0110010010100010100000100: 642286 649391 642243 551696 602755
0110010011100000100001000: 642286 649391 642243 594520 551696
0110010011100100110001000: 511282 593673 602755 467288 577983
0110010011100000100001000: 511282 593673 594520 577983 467288
0110010011100100110001000: 511282 591202 593673 577983 656511
0110010011100110110001100: 511282 591202 593673 577983 467288
0110010011100000100001000: 511282 591202 602755 577983 656511
0110010011100100110001000: 511282 591202 602755 467288 577983
0110010011100000100001000: 511282 591202 594520 577983 656511
0110010011100000100001000: 511282 591202 594520 577983 467288
0111010101110001000001000: 511282 591202 554368 593673 656511
0111010101110001000001000: 511282 591202 554368 602755 656511
0110010010100010100000100: 511282 602755 593673 642243 577983
0110010011100100110001000: 511282 602755 593673 467288 642243
0110010010100010100000100: 511282 602755 591202 642243 656511
0110010010100010100000100: 511282 602755 591202 642243 577983
0110010011100100110001000: 511282 602755 591202 467288 642243
0111010101110001000001000: 511282 602755 594520 593673 642243
0111010101110001000101010: 511282 602755 594520 593673 467288
0111010101110001000001000: 511282 602755 594520 591202 642243
0111010101110001000101010: 511282 602755 594520 591202 467288
0110010011100000100001000: 511282 554368 593673 642243 551696
0110010011100000100001000: 511282 554368 593673 649391 642243
0110010011100000100001000: 511282 554368 593673 606973 551696
0110010011100100110001000: 511282 554368 593673 467288 551696
0110010011100100110001000: 511282 554368 593673 467288 642243
0110010011100100110001000: 511282 554368 593673 467288 649391
0110010011100100110001000: 511282 554368 593673 577983 551696
0110010011100100110001000: 511282 554368 593673 577983 642243
0110010011100100110001000: 511282 554368 593673 577983 649391
0110010011100100110001000: 511282 554368 593673 577983 606973
0110010011100110110001100: 511282 554368 593673 577983 467288
0110010011100000100001000: 511282 554368 602755 577983 551696
0110010011100000100001000: 511282 554368 602755 577983 649391
0110010011100000100001000: 511282 554368 602755 606973 551696
0110010011100000100001000: 511282 554368 602755 606973 577983
0110010011100100110001000: 511282 554368 602755 642243 551696
0110010011100100110001000: 511282 554368 602755 642243 649391
0110010011100100110001000: 511282 554368 602755 642243 577983
0110010011100100110001000: 511282 554368 602755 467288 551696
0110010011100100110001000: 511282 554368 602755 467288 649391
0110010011100100110001000: 511282 554368 602755 467288 577983
0110010011100110110001100: 511282 554368 602755 467288 642243
0111110100110001000010000: 511282 554368 591202 602755 593673
0111110110110001100010000: 511282 554368 594520 591202 593673
0110010010100010100000100: 511282 594520 593673 649391 467288
0110010010100010100000100: 511282 594520 593673 649391 577983
0110010010100010100000100: 511282 594520 591202 649391 656511
0110010010100010100000100: 511282 594520 591202 649391 467288
0110010010100010100000100: 511282 594520 591202 649391 577983
0111010100110001000100010: 511282 594520 602755 593673 577983
0111110100110001000010000: 511282 594520 602755 591202 593673
0111010100110001000100010: 511282 594520 602755 591202 656511
0111010100110001000100010: 511282 594520 602755 591202 577983
0111110110110001100010000: 511282 594520 554368 602755 593673
0111110110110011100010100: 511282 594520 554368 602755 591202
0110010010100010100000100: 602755 467288 642243 656511 642286
0110010011100000100001000: 602755 467288 642243 593673 656511
0110010010100010100000100: 602755 467288 642243 593673 642286
0110010011100000100001000: 602755 467288 642243 591202 593673
0110010010100010100000100: 602755 467288 642243 591202 642286
0110010011100000100001000: 602755 467288 511282 606973 656511
0110010011100100110001000: 602755 467288 511282 593673 656511
0110010011100100110001000: 602755 467288 511282 593673 606973
0110010011100100110001000: 602755 467288 511282 591202 606973
0110010011100000100001000: 602755 467288 594520 593673 656511
0110010011100000100001000: 602755 467288 594520 591202 593673
0110010011100000100001000: 602755 467288 594520 606973 656511
0110010011100000100001000: 602755 467288 594520 606973 593673
0110010011100000100001000: 602755 467288 594520 606973 591202
0110010010100010100000100: 602755 511282 642243 593673 642286
0110010010100010100000100: 602755 511282 642243 593673 606973
0110010011100000100001000: 602755 511282 642243 591202 593673
0110010010100010100000100: 602755 511282 642243 591202 642286
0110010010100010100000100: 602755 511282 642243 591202 606973
0110010011100110110001100: 602755 511282 467288 591202 593673
0110010010100010100000100: 602755 594520 467288 649391 656511
0110010010100010100000100: 602755 594520 467288 649391 593673
0110010010100010100000100: 602755 594520 467288 649391 591202
0111010100110001000100010: 602755 594520 511282 642243 642286
0111010100110001000100010: 602755 594520 511282 642243 606973
0111110100110001000010000: 602755 594520 511282 467288 642243
0111010100110001000100010: 602755 594520 511282 467288 656511
0111010100110001000100010: 602755 594520 511282 467288 606973
0111010101110001000001000: 577983 591202 554368 593673 656511
0110010011100000100001000: 577983 554368 593673 642243 551696
0110010011100000100001000: 577983 554368 593673 649391 642243
0110010011100000100001000: 577983 554368 593673 606973 551696
0110010011100000100001000: 577983 554368 593673 594520 551696
0110010011100000100001000: 577983 554368 593673 594520 642243
0110010011100000100001000: 577983 554368 593673 594520 606973
0110010011100100110001000: 577983 554368 593673 467288 551696
0110010011100100110001000: 577983 554368 593673 467288 642243
0110010011100100110001000: 577983 554368 593673 467288 649391
0110010011100100110001000: 577983 554368 593673 467288 594520
0110010011100000100001000: 649391 606973 551696 467288 642243
0110010011100000100001000: 649391 606973 594520 467288 642243
0111110100110001000010000: 649391 606973 642286 594520 551696
0111010100110001000100010: 649391 606973 642286 594520 602755
0111010100110001000100010: 649391 606973 642286 594520 511282
0110010011100000100001000: 649391 554368 642286 577983 467288
0110010011100000100001000: 649391 554368 642286 511282 467288
0110010011100000100001000: 649391 554368 642286 511282 577983
0110010011100100110001000: 649391 554368 642286 642243 591202
0110010011100100110001000: 649391 554368 642286 642243 467288
0110010011100100110001000: 649391 554368 642286 642243 577983
0110010011100100110001000: 649391 554368 642286 642243 511282
0111110110110011100010100: 649391 554368 606973 551696 642286
0111110110110011100010100: 649391 554368 606973 594520 642286
0111110110110001100010000: 649391 554368 594520 551696 642286
0110010010100010100000100: 649391 594520 642286 511282 642243
0110010010100010100000100: 649391 594520 606973 511282 642243
0110010010100010100000100: 649391 594520 606973 511282 467288
0110010011100000100001000: 467288 593673 656511 511282 577983
0110010011100000100001000: 467288 593673 606973 511282 577983
0110010011100000100001000: 467288 591202 606973 511282 577983
0111010101110001000101010: 467288 591202 656511 593673 577983
0111010101110001000101010: 467288 591202 656511 593673 511282
0111110100110001000010000: 467288 591202 656511 602755 593673
0111010101110001000001000: 467288 591202 656511 602755 577983
0111010100110001000100010: 467288 591202 656511 602755 642243
0111010100110001000100010: 467288 591202 656511 602755 594520
0111010101110001000101010: 467288 591202 656511 602755 511282
0111110100110001000010000: 467288 591202 656511 606973 593673
0111110100110001000010000: 467288 591202 656511 606973 602755
0111010101110001000001000: 467288 591202 656511 606973 577983
0111010101110001000001000: 467288 591202 656511 606973 511282
0111010100110001000100010: 467288 591202 656511 606973 642243
0111010100110001000100010: 467288 591202 656511 606973 649391
0111010100110001000100010: 467288 591202 656511 606973 642286
0111110110110001100010000: 467288 591202 554368 656511 593673
0111110110110001100010000: 467288 591202 554368 656511 602755
0111010110110011100000100: 467288 591202 554368 656511 551696
0111010110110011100000100: 467288 591202 554368 656511 642243
0111010110110011100000100: 467288 591202 554368 656511 649391
0111010110110011100000100: 467288 591202 554368 656511 594520
0110010011100000100001000: 467288 602755 656511 511282 642243
0110010011100000100001000: 467288 602755 656511 594520 642243
0110010010100010100000100: 467288 602755 593673 642243 577983
0110010011100000100001000: 467288 602755 593673 594520 642243
0110010010100010100000100: 467288 602755 593673 594520 577983
0110010010100010100000100: 467288 602755 591202 642243 577983
0110010011100000100001000: 467288 602755 591202 594520 642243
0110010010100010100000100: 467288 602755 591202 594520 577983
0110010011100100110001000: 467288 602755 606973 642243 511282
0110010011100100110001000: 467288 602755 606973 642243 594520
0110010011100000100001000: 467288 606973 656511 649391 642243
0110010010100010100000100: 467288 606973 593673 642243 577983
0110010010100010100000100: 467288 606973 593673 642243 511282
0110010011100000100001000: 467288 606973 593673 649391 642243
0110010010100010100000100: 467288 606973 593673 649391 577983
0110010010100010100000100: 467288 606973 593673 649391 511282
0110010010100010100000100: 467288 606973 593673 642286 577983
0110010010100010100000100: 467288 606973 593673 642286 511282
0110010010100010100000100: 467288 606973 591202 642243 577983
0110010010100010100000100: 467288 606973 591202 642243 511282
0110010011100000100001000: 467288 606973 591202 649391 642243
0110010010100010100000100: 467288 606973 591202 649391 577983
0110010010100010100000100: 467288 606973 591202 649391 511282
0110010010100010100000100: 467288 606973 591202 642286 577983
0110010010100010100000100: 467288 606973 591202 642286 511282
0111110000100001000010000: 467288 606973 602755 593673 656511
0111110000100001000010000: 467288 606973 602755 591202 593673
0110010010100010100000100: 467288 606973 602755 649391 511282
0110010010100010100000100: 467288 606973 602755 642286 511282
0110010010100010100000100: 467288 606973 602755 642286 594520
0110010011100100110001000: 467288 606973 602755 642243 649391
0110010011100000100001000: 467288 554368 656511 642243 551696
0110010011100000100001000: 467288 554368 656511 649391 642243
0110010011100000100001000: 467288 554368 656511 577983 551696
0110010011100000100001000: 467288 554368 656511 577983 642243
0110010011100000100001000: 467288 554368 656511 577983 649391
0110010011100000100001000: 467288 554368 656511 511282 551696
0110010011100000100001000: 467288 554368 656511 511282 642243
0110010011100000100001000: 467288 554368 656511 511282 649391
0110010011100000100001000: 467288 554368 656511 511282 577983
0110010011100000100001000: 467288 554368 656511 594520 551696
0110010011100000100001000: 467288 554368 656511 594520 642243
0110010011100000100001000: 467288 554368 656511 594520 577983
0110010011100000100001000: 467288 554368 593673 642243 551696
0110010011100000100001000: 467288 554368 593673 649391 642243
0110010011100000100001000: 467288 554368 593673 594520 551696
0110010011100000100001000: 467288 554368 593673 594520 642243
0111110000100001000010000: 467288 554368 602755 593673 656511
0110010011100000100001000: 467288 554368 602755 577983 551696
0110010011100000100001000: 467288 554368 602755 577983 649391
0110010011100100110001000: 467288 554368 602755 642243 551696
0110010011100100110001000: 467288 554368 602755 642243 649391
0110010011100100110001000: 467288 554368 602755 642243 577983
0111110100110001000010000: 467288 554368 591202 602755 593673
0111110110110011100010100: 467288 554368 591202 606973 656511
0111110100110001000010000: 467288 554368 606973 593673 656511
0111110100110001000010000: 467288 554368 606973 602755 656511
0111110100110001000010000: 467288 554368 606973 602755 593673
0111110110110001100010000: 467288 554368 606973 591202 593673
0111110110110001100010000: 467288 554368 606973 591202 602755
0110010011100000100001000: 591202 467288 577983 606973 602755
0110010011100100110001000: 591202 467288 577983 593673 602755
0110010011100100110001000: 591202 467288 577983 593673 606973
0110010011100100110001000: 591202 467288 511282 593673 606973
0111110100110001000010000: 591202 467288 656511 511282 577983
0111010100110001000100010: 591202 467288 656511 511282 594520
0110010011100000100001000: 591202 511282 656511 602755 593673
0110010011100000100001000: 591202 511282 656511 594520 593673
0110010010100010100000100: 591202 511282 467288 594520 606973
0110010011100100110001000: 591202 511282 467288 593673 594520
0110010011100100110001000: 591202 511282 577983 593673 602755
0110010011100100110001000: 591202 511282 577983 593673 594520
0110010011100000100001000: 591202 554368 656511 642243 551696
0110010011100000100001000: 591202 554368 656511 649391 642243
0110010011100000100001000: 591202 554368 656511 606973 551696
0110010011100000100001000: 591202 554368 656511 594520 551696
0110010011100000100001000: 591202 554368 656511 594520 642243
0110010011100000100001000: 591202 554368 656511 594520 606973
0111110110110011100010100: 591202 554368 467288 577983 656511
0111110110110011100010100: 591202 554368 467288 511282 656511
0111110110110001100010000: 591202 554368 511282 577983 656511
0110010011100000100001000: 642243 602755 642286 511282 467288
0110010011100000100001000: 642243 602755 642286 594520 467288
0110010010100010100000100: 642243 642286 602755 649391 467288
0110010010100010100000100: 642243 642286 602755 649391 511282
0110010010100010100000100: 642243 606973 602755 649391 511282
0111010100110001000100010: 642243 606973 642286 602755 511282
0111010100110001000100010: 642243 606973 642286 602755 594520
0111110110110001100010000: 642243 606973 554368 642286 602755
0110010011100000100001000: 642243 554368 602755 591202 551696
0110010011100000100001000: 642243 554368 602755 649391 591202
0110010011100000100001000: 642243 554368 602755 577983 551696
0110010011100000100001000: 642243 554368 602755 577983 649391
0110010011100000100001000: 642243 554368 642286 591202 551696
0110010011100000100001000: 642243 554368 642286 467288 551696
0110010011100000100001000: 642243 554368 642286 577983 551696
0110010011100000100001000: 642243 554368 642286 577983 467288
0110010011100000100001000: 642243 554368 642286 511282 551696
0110010011100000100001000: 642243 554368 642286 511282 467288
0110010011100000100001000: 642243 554368 642286 511282 577983
0110010011100000100001000: 642243 554368 642286 594520 551696
0110010011100000100001000: 642243 554368 642286 594520 591202
0110010011100000100001000: 642243 554368 642286 594520 467288
0110010011100000100001000: 642243 554368 642286 594520 577983
0110010011100000100001000: 593673 467288 577983 602755 656511
0110010011100000100001000: 593673 467288 577983 606973 656511
0110010011100000100001000: 593673 467288 577983 606973 602755
0110010011100000100001000: 593673 467288 511282 606973 656511
0110010010100010100000100: 593673 511282 467288 594520 656511
0110010010100010100000100: 593673 511282 467288 594520 606973
