0111010101110001000001000: 629244 524744 616519 584138 591750
0110010010100010100000100: 591750 603630 524744 515941 616519
0110010010100010100000100: 591750 603630 524744 515941 629244
0110010010100010100000100: 603630 591750 515941 524744 654878
0110010010100010100000100: 515941 603630 654878 591750 488737
0110010010100010100000100: 654878 515941 488737 603630 556772
0110010010100010100000100: 524744 629244 591750 584138 603630
0111010100110001000100010: 524744 629244 616519 591750 603630
