Vertex,0111110111110101110011000,0111010101110001000101010,0111010100110001000100010,0111110110110101110010000,0111110100110001000110010,0110010011100000100001000,0111110111110111110111110,0111110100110001000010000,0111010110110011100100110,0110010011100110110001100,0111110110110001100010000,0110010010100010100000100,0111110110110011100110110,0111010110110011100000100,0111110000100001000010000,0110010010100010100100110,0111010101110001000001000,0110010011100100110001000,0111110111110001100011000,0111110110110011100010100,0111110111110111110011100
550207,29.0,18.0,68.0,16.0,63.0,266.0,0.0,409.0,0.0,3.0,239.0,132.0,5.0,20.0,244.0,4.0,96.0,54.0,46.0,65.0,2.0
476816,12.0,13.0,53.0,20.0,40.0,275.0,0.0,335.0,1.0,2.0,198.0,106.0,5.0,25.0,185.0,2.0,100.0,56.0,21.0,57.0,0.0
525527,14.0,17.0,49.0,19.0,32.0,283.0,0.0,332.0,1.0,2.0,199.0,112.0,5.0,28.0,190.0,3.0,115.0,55.0,21.0,62.0,0.0
462691,100.0,47.0,109.0,75.0,41.0,361.0,3.0,345.0,12.0,6.0,392.0,189.0,24.0,99.0,121.0,7.0,221.0,129.0,72.0,147.0,26.0
646085,26.0,8.0,44.0,18.0,42.0,251.0,0.0,433.0,1.0,1.0,220.0,82.0,3.0,20.0,284.0,0.0,101.0,43.0,45.0,51.0,3.0
523763,49.0,27.0,82.0,33.0,82.0,222.0,0.0,429.0,2.0,0.0,258.0,162.0,3.0,42.0,156.0,6.0,153.0,27.0,31.0,88.0,8.0
596741,54.0,19.0,59.0,33.0,60.0,242.0,1.0,440.0,1.0,1.0,255.0,84.0,3.0,19.0,255.0,1.0,144.0,40.0,44.0,57.0,4.0
506471,22.0,35.0,95.0,25.0,42.0,284.0,0.0,341.0,6.0,3.0,221.0,150.0,5.0,41.0,195.0,5.0,171.0,48.0,14.0,68.0,1.0
515153,53.0,40.0,81.0,43.0,49.0,331.0,1.0,408.0,5.0,0.0,258.0,165.0,2.0,44.0,252.0,10.0,189.0,60.0,46.0,68.0,9.0
654463,52.0,34.0,74.0,28.0,41.0,323.0,0.0,351.0,13.0,6.0,312.0,143.0,19.0,68.0,214.0,6.0,134.0,97.0,66.0,106.0,17.0
561428,184.0,64.0,154.0,122.0,52.0,533.0,4.0,466.0,13.0,5.0,576.0,138.0,23.0,166.0,245.0,3.0,410.0,100.0,154.0,191.0,46.0
493850,58.0,18.0,81.0,40.0,79.0,257.0,1.0,445.0,3.0,1.0,263.0,123.0,5.0,34.0,200.0,2.0,165.0,37.0,43.0,69.0,7.0
494948,8.0,4.0,15.0,22.0,6.0,265.0,0.0,140.0,0.0,0.0,140.0,29.0,0.0,38.0,128.0,0.0,181.0,20.0,7.0,18.0,0.0
592717,23.0,0.0,27.0,19.0,18.0,258.0,0.0,423.0,0.0,0.0,207.0,37.0,0.0,22.0,348.0,0.0,92.0,26.0,51.0,40.0,4.0
580533,73.0,19.0,73.0,72.0,48.0,212.0,3.0,402.0,7.0,2.0,288.0,67.0,9.0,44.0,252.0,0.0,147.0,42.0,52.0,57.0,17.0
508659,108.0,61.0,141.0,106.0,81.0,419.0,4.0,406.0,16.0,4.0,394.0,191.0,15.0,116.0,119.0,2.0,336.0,105.0,55.0,129.0,24.0
461119,59.0,20.0,103.0,48.0,57.0,390.0,1.0,384.0,8.0,4.0,360.0,190.0,13.0,83.0,166.0,7.0,206.0,82.0,52.0,102.0,21.0
650911,56.0,23.0,105.0,50.0,62.0,353.0,1.0,415.0,2.0,2.0,282.0,172.0,7.0,66.0,194.0,4.0,213.0,59.0,49.0,81.0,13.0
554368,223.0,18.0,136.0,171.0,160.0,391.0,5.0,1276.0,4.0,0.0,971.0,53.0,27.0,121.0,674.0,2.0,313.0,32.0,192.0,297.0,51.0
657530,43.0,24.0,86.0,55.0,42.0,268.0,1.0,330.0,10.0,3.0,245.0,110.0,12.0,68.0,140.0,1.0,157.0,65.0,17.0,90.0,12.0
472230,4.0,6.0,67.0,26.0,20.0,211.0,0.0,330.0,0.0,0.0,178.0,91.0,0.0,15.0,242.0,1.0,80.0,16.0,2.0,18.0,0.0
651694,0.0,6.0,74.0,6.0,0.0,216.0,0.0,2.0,0.0,0.0,10.0,98.0,0.0,32.0,2.0,1.0,97.0,15.0,0.0,0.0,0.0
594522,0.0,35.0,113.0,21.0,13.0,320.0,0.0,44.0,5.0,0.0,36.0,215.0,0.0,60.0,12.0,8.0,216.0,55.0,0.0,9.0,0.0
637549,0.0,4.0,61.0,7.0,0.0,169.0,0.0,4.0,0.0,0.0,18.0,136.0,0.0,34.0,7.0,5.0,103.0,22.0,0.0,0.0,0.0
graph,250.0,112.0,390.0,215.0,226.0,1420.0,5.0,1778.0,22.0,9.0,1304.0,595.0,37.0,261.0,965.0,16.0,828.0,257.0,216.0,374.0,53.0
