0101101001001000: 547571 582199 606992 479702
0101101001001000: 547571 582199 606992 538113
0111100010001000: 547571 538113 582199 479702
0110100110000100: 547571 479702 582199 639127
0110100110000100: 547571 479702 582199 495285
0110100010010010: 547571 479702 582199 606992
0110100010010010: 547571 479702 582199 606992
0111100010001000: 547571 479702 538113 582199
0110100110000100: 547571 479702 538113 639127
0110100110000100: 547571 479702 538113 495285
0110100010010010: 547571 479702 538113 579696
0110100010010010: 547571 479702 538113 598938
0110100110000100: 547571 479702 582199 639127
0110100110000100: 547571 479702 582199 495285
0110100110000100: 547571 479702 582199 639127
0110100110000100: 547571 479702 582199 495285
0110100010010010: 547571 479702 582199 606992
0110100110000100: 547571 479702 538113 639127
0110100110000100: 547571 479702 538113 495285
0110100110000100: 547571 479702 538113 639127
0110100110000100: 547571 479702 538113 495285
0111100010001000: 547571 479702 582199 538113
0111100010001000: 547571 479702 582199 538113
0110100010010010: 547571 479702 582199 606992
0111100010001000: 547571 479702 538113 582199
0111100010001000: 547571 479702 538113 582199
0111100010001000: 547571 479702 538113 582199
0110100110000100: 547571 479702 582199 639127
0110100110000100: 547571 479702 582199 495285
0110100110000100: 547571 479702 582199 639127
0110100110000100: 547571 479702 582199 495285
0111100010001000: 547571 479702 582199 538113
0110100010010010: 547571 479702 582199 606992
0110100010010010: 547571 479702 582199 606992
0110100110000100: 547571 479702 538113 639127
0110100110000100: 547571 479702 538113 495285
0110100110000100: 547571 479702 538113 639127
0110100110000100: 547571 479702 538113 495285
0111100010001000: 547571 479702 538113 582199
0111100010001000: 547571 479702 538113 582199
0110100110000100: 547571 479702 538113 639127
0110100110000100: 547571 479702 538113 495285
0110100110000100: 547571 582199 479702 606992
0110100010010010: 547571 582199 479702 639127
0110100010010010: 547571 582199 479702 495285
0111100010001000: 547571 582199 538113 479702
0110100110000100: 547571 582199 538113 606992
0110100010010010: 547571 582199 538113 579696
0110100010010010: 547571 582199 538113 598938
0111100010001000: 547571 582199 479702 538113
0110100110000100: 547571 582199 479702 606992
0110100110000100: 547571 582199 479702 606992
0110100110000100: 547571 582199 479702 606992
0110100110000100: 547571 582199 538113 606992
0110100110000100: 547571 582199 538113 606992
0110100110000100: 547571 582199 538113 606992
0101101001001000: 547571 582199 606992 479702
0101101001001000: 547571 582199 606992 538113
0100101001010010: 547571 582199 606992 579696
0100101001010010: 547571 582199 606992 579696
0100101001010010: 547571 582199 606992 579696
0110100110000100: 547571 538113 479702 579696
0110100110000100: 547571 538113 479702 598938
0110100010010010: 547571 538113 479702 639127
0110100010010010: 547571 538113 479702 495285
0111100010001000: 547571 538113 582199 479702
0110100110000100: 547571 538113 582199 579696
0110100110000100: 547571 538113 582199 598938
0110100010010010: 547571 538113 582199 606992
0110100010010010: 547571 538113 582199 606992
0111100010001000: 547571 538113 479702 582199
0110100110000100: 547571 538113 479702 579696
0110100110000100: 547571 538113 479702 598938
0110100110000100: 547571 538113 479702 579696
0110100110000100: 547571 538113 479702 598938
0111100010001000: 547571 538113 582199 479702
0111100010001000: 547571 538113 582199 479702
0110100110000100: 547571 538113 582199 579696
0110100110000100: 547571 538113 582199 598938
0110100110000100: 547571 538113 582199 579696
0110100110000100: 547571 538113 582199 598938
0110100010010010: 547571 538113 582199 606992
0111100010001000: 547571 538113 479702 582199
0111100010001000: 547571 538113 479702 582199
0111100010001000: 547571 538113 479702 582199
0111100010001000: 547571 538113 582199 479702
0111100010001000: 547571 538113 582199 479702
0110100010010010: 547571 538113 582199 606992
0110100110000100: 547571 538113 479702 579696
0110100110000100: 547571 538113 479702 598938
0110100110000100: 547571 538113 479702 579696
0110100110000100: 547571 538113 479702 598938
0111100010001000: 547571 538113 479702 582199
0110100110000100: 547571 538113 479702 579696
0110100110000100: 547571 538113 479702 598938
0110100110000100: 547571 538113 582199 579696
0110100110000100: 547571 538113 582199 598938
0110100110000100: 547571 538113 582199 579696
0110100110000100: 547571 538113 582199 598938
0111100010001000: 547571 538113 582199 479702
0111100010001000: 547571 538113 582199 479702
0110100010010010: 547571 538113 582199 606992
0110100010010010: 547571 538113 582199 606992
0111100010001000: 538113 547571 598938 579696
0110100110000100: 538113 579696 598938 568459
0110100110000100: 538113 579696 598938 606992
0110100010010010: 538113 579696 598938 639127
0110100010010010: 538113 579696 598938 478160
0111100010001000: 538113 579696 547571 598938
0110100110000100: 538113 579696 547571 568459
0110100110000100: 538113 579696 547571 606992
0110100010010010: 538113 579696 547571 479702
0110100010010010: 538113 579696 547571 582199
0110100110000100: 538113 579696 598938 568459
0110100110000100: 538113 579696 598938 606992
0110100110000100: 538113 579696 598938 568459
0110100110000100: 538113 579696 598938 606992
0110100110000100: 538113 579696 547571 568459
0110100110000100: 538113 579696 547571 606992
0110100110000100: 538113 579696 547571 568459
0110100110000100: 538113 579696 547571 606992
0111100010001000: 538113 579696 598938 547571
0111100010001000: 538113 579696 598938 547571
0111100010001000: 538113 579696 598938 547571
0111100010001000: 538113 579696 547571 598938
0111100010001000: 538113 579696 547571 598938
0111100010001000: 538113 579696 547571 598938
0110100110000100: 538113 579696 598938 568459
0110100110000100: 538113 579696 598938 606992
0110100110000100: 538113 579696 598938 568459
0110100110000100: 538113 579696 598938 606992
0111100010001000: 538113 579696 598938 547571
0110100110000100: 538113 579696 598938 568459
0110100110000100: 538113 579696 598938 606992
0110100110000100: 538113 579696 547571 568459
0110100110000100: 538113 579696 547571 606992
0110100110000100: 538113 579696 547571 568459
0110100110000100: 538113 579696 547571 606992
0111100010001000: 538113 579696 547571 598938
0111100010001000: 538113 579696 547571 598938
0110100110000100: 538113 579696 547571 568459
0110100110000100: 538113 579696 547571 606992
0110100110000100: 538113 598938 579696 639127
0110100110000100: 538113 598938 579696 478160
0110100010010010: 538113 598938 579696 568459
0110100010010010: 538113 598938 579696 606992
0111100010001000: 538113 598938 547571 579696
0110100110000100: 538113 598938 547571 639127
0110100110000100: 538113 598938 547571 478160
0110100010010010: 538113 598938 547571 479702
0110100010010010: 538113 598938 547571 582199
0111100010001000: 538113 598938 579696 547571
0110100110000100: 538113 598938 579696 639127
0110100110000100: 538113 598938 579696 478160
0110100110000100: 538113 598938 579696 639127
0110100110000100: 538113 598938 579696 478160
0110100110000100: 538113 598938 547571 639127
0110100110000100: 538113 598938 547571 478160
0110100110000100: 538113 598938 547571 639127
0110100110000100: 538113 598938 547571 478160
0111100010001000: 538113 598938 579696 547571
0111100010001000: 538113 598938 579696 547571
0111100010001000: 538113 598938 579696 547571
0111100010001000: 538113 598938 547571 579696
0111100010001000: 538113 598938 547571 579696
0111100010001000: 538113 598938 547571 579696
0110100110000100: 538113 598938 579696 639127
0110100110000100: 538113 598938 579696 478160
0110100110000100: 538113 598938 579696 639127
0110100110000100: 538113 598938 579696 478160
0111100010001000: 538113 598938 579696 547571
0110100110000100: 538113 598938 579696 639127
0110100110000100: 538113 598938 579696 478160
0110100110000100: 538113 598938 547571 639127
0110100110000100: 538113 598938 547571 478160
0110100110000100: 538113 598938 547571 639127
0110100110000100: 538113 598938 547571 478160
0111100010001000: 538113 598938 547571 579696
0111100010001000: 538113 598938 547571 579696
0110100110000100: 538113 598938 547571 639127
0110100110000100: 538113 598938 547571 478160
0110100010010010: 538113 547571 579696 568459
0110100010010010: 538113 547571 579696 606992
0111100010001000: 538113 547571 598938 579696
0110100010010010: 538113 547571 598938 639127
0110100010010010: 538113 547571 598938 478160
0111100010001000: 538113 547571 579696 598938
0110100110000100: 538113 547571 579696 479702
0110100110000100: 538113 547571 579696 582199
0111100010001000: 538113 547571 598938 579696
0111100010001000: 538113 547571 598938 579696
0110100110000100: 538113 547571 598938 479702
0110100110000100: 538113 547571 598938 582199
0111100010001000: 538113 547571 579696 598938
0111100010001000: 538113 547571 579696 598938
0111100010001000: 538113 547571 579696 598938
0111100010001000: 538113 547571 598938 579696
0111100010001000: 538113 547571 598938 579696
0111100010001000: 538113 547571 598938 579696
0110100110000100: 538113 547571 579696 479702
0110100110000100: 538113 547571 579696 582199
0110100110000100: 538113 547571 579696 479702
0110100110000100: 538113 547571 579696 582199
0111100010001000: 538113 547571 579696 598938
0110100110000100: 538113 547571 579696 479702
0110100110000100: 538113 547571 579696 582199
0110100110000100: 538113 547571 598938 479702
0110100110000100: 538113 547571 598938 582199
0110100110000100: 538113 547571 598938 479702
0110100110000100: 538113 547571 598938 582199
0111100010001000: 538113 547571 598938 579696
0111100010001000: 538113 547571 598938 579696
0110100110000100: 538113 547571 598938 479702
0110100110000100: 538113 547571 598938 582199
0110100110010110: 598938 478160 639127 536906
0111100010001000: 598938 538113 478160 639127
0110100110000100: 598938 639127 478160 479702
0110100010010010: 598938 639127 478160 568459
0110100110010110: 598938 639127 478160 536906
0110100110010110: 598938 639127 478160 536906
0111100010001000: 598938 639127 538113 478160
0110100110000100: 598938 639127 538113 479702
0110100110000100: 598938 639127 538113 536906
0110100010010010: 598938 639127 538113 579696
0110100010010010: 598938 639127 538113 547571
0110100110000100: 598938 639127 478160 479702
0110100110000100: 598938 639127 478160 479702
0110100110010110: 598938 639127 478160 536906
0110100110000100: 598938 639127 538113 479702
0110100110000100: 598938 639127 538113 536906
0110100110000100: 598938 639127 538113 479702
0110100110000100: 598938 639127 538113 536906
0111100010001000: 598938 639127 478160 538113
0111100010001000: 598938 639127 478160 538113
0111100010001000: 598938 639127 478160 538113
0111100010001000: 598938 639127 538113 478160
0111100010001000: 598938 639127 538113 478160
0111100010001000: 598938 639127 538113 478160
0110100110000100: 598938 639127 478160 479702
0110100110000100: 598938 639127 478160 479702
0111100010001000: 598938 639127 478160 538113
0110100110010110: 598938 639127 478160 536906
0110100110000100: 598938 639127 478160 479702
0110100110000100: 598938 639127 538113 479702
0110100110000100: 598938 639127 538113 536906
0110100110000100: 598938 639127 538113 479702
0110100110000100: 598938 639127 538113 536906
0111100010001000: 598938 639127 538113 478160
0111100010001000: 598938 639127 538113 478160
0110100110000100: 598938 639127 538113 479702
0110100110000100: 598938 639127 538113 536906
0110100110000100: 598938 478160 639127 568459
0110100010010010: 598938 478160 639127 479702
0110100110010110: 598938 478160 639127 536906
0110100110010110: 598938 478160 639127 536906
0111100010001000: 598938 478160 538113 639127
0110100110000100: 598938 478160 538113 568459
0110100110000100: 598938 478160 538113 536906
0110100010010010: 598938 478160 538113 579696
0110100010010010: 598938 478160 538113 547571
0111100010001000: 598938 478160 639127 538113
0110100110000100: 598938 478160 639127 568459
0110100110000100: 598938 478160 639127 568459
0110100110010110: 598938 478160 639127 536906
0110100110010110: 598938 478160 639127 536906
0110100110010110: 598938 478160 639127 536906
0110100110000100: 598938 478160 538113 568459
0110100110000100: 598938 478160 538113 536906
0110100110000100: 598938 478160 538113 568459
0110100110000100: 598938 478160 538113 536906
0111100010001000: 598938 478160 639127 538113
0111100010001000: 598938 478160 639127 538113
0111100010001000: 598938 478160 639127 538113
0111100010001000: 598938 478160 538113 639127
0111100010001000: 598938 478160 538113 639127
0111100010001000: 598938 478160 538113 639127
0110100110000100: 598938 478160 639127 568459
0110100110000100: 598938 478160 639127 568459
0111100010001000: 598938 478160 639127 538113
0110100110010110: 598938 478160 639127 536906
0110100110000100: 598938 478160 639127 568459
0110100110000100: 598938 478160 538113 568459
0110100110000100: 598938 478160 538113 536906
0110100110000100: 598938 478160 538113 568459
0110100110000100: 598938 478160 538113 536906
0111100010001000: 598938 478160 538113 639127
0111100010001000: 598938 478160 538113 639127
0110100110000100: 598938 478160 538113 568459
0110100110000100: 598938 478160 538113 536906
0110100010010010: 598938 538113 639127 479702
0110100010010010: 598938 538113 639127 536906
0111100010001000: 598938 538113 478160 639127
0110100010010010: 598938 538113 478160 568459
0110100010010010: 598938 538113 478160 536906
0111100010001000: 598938 538113 639127 478160
0110100110000100: 598938 538113 639127 579696
0110100110000100: 598938 538113 639127 547571
0111100010001000: 598938 538113 478160 639127
0111100010001000: 598938 538113 478160 639127
0110100110000100: 598938 538113 478160 579696
0110100110000100: 598938 538113 478160 547571
0111100010001000: 598938 538113 639127 478160
0111100010001000: 598938 538113 639127 478160
0111100010001000: 598938 538113 639127 478160
0111100010001000: 598938 538113 478160 639127
0111100010001000: 598938 538113 478160 639127
0111100010001000: 598938 538113 478160 639127
0110100110000100: 598938 538113 639127 579696
0110100110000100: 598938 538113 639127 547571
0110100110000100: 598938 538113 639127 579696
0110100110000100: 598938 538113 639127 547571
0111100010001000: 598938 538113 639127 478160
0110100110000100: 598938 538113 639127 579696
0110100110000100: 598938 538113 639127 547571
0110100110000100: 598938 538113 478160 579696
0110100110000100: 598938 538113 478160 547571
0110100110000100: 598938 538113 478160 579696
0110100110000100: 598938 538113 478160 547571
0111100010001000: 598938 538113 478160 639127
0111100010001000: 598938 538113 478160 639127
0110100110000100: 598938 538113 478160 579696
0110100110000100: 598938 538113 478160 547571
0110100110000100: 578154 633681 536906 611356
0110100010010010: 578154 633681 536906 639127
0110100010010010: 578154 633681 536906 624829
0110100010010010: 578154 633681 536906 478160
0110100110000100: 578154 633681 536906 611356
0110100110000100: 578154 633681 536906 611356
0110100110000100: 578154 633681 536906 611356
0110100110000100: 578154 633681 536906 611356
0110100110000100: 578154 633681 536906 611356
0110100110000100: 578154 536906 633681 639127
0110100110000100: 578154 536906 633681 624829
0110100110000100: 578154 536906 633681 478160
0110100010010010: 578154 536906 633681 611356
0110100110000100: 578154 536906 633681 639127
0110100110000100: 578154 536906 633681 624829
0110100110000100: 578154 536906 633681 478160
0110100110000100: 578154 536906 633681 639127
0110100110000100: 578154 536906 633681 624829
0110100110000100: 578154 536906 633681 478160
0110100010010010: 578154 536906 633681 611356
0110100110000100: 578154 536906 633681 639127
0110100110000100: 578154 536906 633681 624829
0110100110000100: 578154 536906 633681 478160
0110100110000100: 578154 536906 633681 639127
0110100110000100: 578154 536906 633681 624829
0110100110000100: 578154 536906 633681 478160
0110100010010010: 578154 536906 633681 611356
0101101001001000: 536906 639127 479702 624829
0101101001001000: 536906 639127 479702 478160
0101101001001000: 536906 639127 479702 578154
0101101001001000: 536906 639127 598938 624829
0101101001001000: 536906 639127 598938 578154
0100101101000100: 536906 639127 598938 479702
0101101001001000: 536906 624829 459647 639127
0101101001001000: 536906 624829 459647 478160
0101101001001000: 536906 624829 459647 578154
0101101001001000: 536906 624829 493815 639127
0101101001001000: 536906 624829 493815 478160
0101101001001000: 536906 624829 493815 578154
0100101101000100: 536906 624829 493815 459647
0110100110010110: 536906 478160 639127 598938
0111100010001000: 536906 478160 624829 639127
0101101001001000: 536906 478160 568459 639127
0101101001001000: 536906 478160 568459 624829
0101101001001000: 536906 478160 568459 578154
0101101001001000: 536906 478160 598938 624829
0101101001001000: 536906 478160 598938 578154
0100101101000100: 536906 478160 598938 568459
0111100010001000: 536906 578154 624829 639127
0111100010001000: 536906 578154 478160 639127
0111100010001000: 536906 578154 478160 624829
0101101001001000: 536906 578154 633681 639127
0101101001001000: 536906 578154 633681 624829
0101101001001000: 536906 578154 633681 478160
0110100110000100: 536906 639127 624829 479702
0110100110000100: 536906 639127 624829 598938
0110100010010010: 536906 639127 624829 459647
0110100010010010: 536906 639127 624829 493815
0110100010010010: 536906 639127 624829 459647
0110100010010010: 536906 639127 624829 493815
0111100010001000: 536906 639127 478160 624829
0110100110000100: 536906 639127 478160 479702
0110100010010010: 536906 639127 478160 568459
0110100010010010: 536906 639127 478160 568459
0110100110010110: 536906 639127 478160 598938
0110100110010110: 536906 639127 478160 598938
0111100010001000: 536906 639127 578154 624829
0111100010001000: 536906 639127 578154 478160
0110100110000100: 536906 639127 578154 479702
0110100110000100: 536906 639127 578154 598938
0110100010010010: 536906 639127 578154 633681
0110100010010010: 536906 639127 578154 633681
0110100110000100: 536906 639127 624829 479702
0110100110000100: 536906 639127 624829 598938
0110100110000100: 536906 639127 624829 479702
0110100110000100: 536906 639127 624829 598938
0110100110000100: 536906 639127 624829 479702
0110100110000100: 536906 639127 624829 598938
0110100110000100: 536906 639127 478160 479702
0110100110000100: 536906 639127 478160 479702
0110100110000100: 536906 639127 478160 479702
0110100110010110: 536906 639127 478160 598938
0110100110000100: 536906 639127 578154 479702
0110100110000100: 536906 639127 578154 598938
0110100110000100: 536906 639127 578154 479702
0110100110000100: 536906 639127 578154 598938
0110100110000100: 536906 639127 578154 479702
0110100110000100: 536906 639127 578154 598938
0110100010010010: 536906 639127 578154 633681
0101101001001000: 536906 639127 479702 624829
0101101001001000: 536906 639127 479702 478160
0101101001001000: 536906 639127 479702 578154
0100101001010010: 536906 639127 479702 495285
0100101001010010: 536906 639127 479702 547571
0100101001010010: 536906 639127 479702 495285
0100101001010010: 536906 639127 479702 547571
0100101001010010: 536906 639127 479702 495285
0100101001010010: 536906 639127 479702 547571
0101101001001000: 536906 639127 598938 624829
0101101001001000: 536906 639127 598938 578154
0100101001010010: 536906 639127 598938 538113
0100101001010010: 536906 639127 598938 538113
0100101101000100: 536906 639127 598938 479702
0101101001011010: 536906 639127 598938 478160
0101101001011010: 536906 639127 598938 478160
0101101001011010: 536906 639127 598938 478160
0100101001010010: 536906 639127 598938 538113
0110100110000100: 536906 624829 639127 459647
0110100110000100: 536906 624829 639127 493815
0110100010010010: 536906 624829 639127 479702
0110100010010010: 536906 624829 639127 598938
0110100010010010: 536906 624829 639127 479702
0110100010010010: 536906 624829 639127 598938
0111100010001000: 536906 624829 478160 639127
0110100110000100: 536906 624829 478160 459647
0110100110000100: 536906 624829 478160 493815
0110100010010010: 536906 624829 478160 568459
0110100010010010: 536906 624829 478160 598938
0110100010010010: 536906 624829 478160 568459
0110100010010010: 536906 624829 478160 598938
0111100010001000: 536906 624829 578154 639127
0111100010001000: 536906 624829 578154 478160
0110100110000100: 536906 624829 578154 459647
0110100110000100: 536906 624829 578154 493815
0110100010010010: 536906 624829 578154 633681
0110100010010010: 536906 624829 578154 633681
0111100010001000: 536906 624829 639127 478160
0111100010001000: 536906 624829 639127 578154
0110100110000100: 536906 624829 639127 459647
0110100110000100: 536906 624829 639127 493815
0110100110000100: 536906 624829 639127 459647
0110100110000100: 536906 624829 639127 493815
0110100110000100: 536906 624829 639127 459647
0110100110000100: 536906 624829 639127 493815
0110100110000100: 536906 624829 478160 459647
0110100110000100: 536906 624829 478160 493815
0110100110000100: 536906 624829 478160 459647
0110100110000100: 536906 624829 478160 493815
0110100110000100: 536906 624829 478160 459647
0110100110000100: 536906 624829 478160 493815
0110100110000100: 536906 624829 578154 459647
0110100110000100: 536906 624829 578154 493815
0110100110000100: 536906 624829 578154 459647
0110100110000100: 536906 624829 578154 493815
0110100110000100: 536906 624829 578154 459647
0110100110000100: 536906 624829 578154 493815
0110100010010010: 536906 624829 578154 633681
0101101001001000: 536906 624829 459647 639127
0101101001001000: 536906 624829 459647 478160
0101101001001000: 536906 624829 459647 578154
0100101001010010: 536906 624829 459647 611356
0100101001010010: 536906 624829 459647 611356
0100101001010010: 536906 624829 459647 611356
0100101001010010: 536906 624829 459647 611356
0101101001001000: 536906 624829 493815 639127
0101101001001000: 536906 624829 493815 478160
0101101001001000: 536906 624829 493815 578154
0100101001010010: 536906 624829 493815 457196
0100101001010010: 536906 624829 493815 457196
0100101101000100: 536906 624829 493815 459647
0100101001010010: 536906 624829 493815 457196
0100101001010010: 536906 624829 493815 457196
0110100110000100: 536906 478160 639127 568459
0110100010010010: 536906 478160 639127 479702
0110100010010010: 536906 478160 639127 479702
0110100110010110: 536906 478160 639127 598938
0110100110010110: 536906 478160 639127 598938
0111100010001000: 536906 478160 624829 639127
0110100110000100: 536906 478160 624829 568459
0110100110000100: 536906 478160 624829 598938
0110100010010010: 536906 478160 624829 459647
0110100010010010: 536906 478160 624829 493815
0110100010010010: 536906 478160 624829 459647
0110100010010010: 536906 478160 624829 493815
0111100010001000: 536906 478160 578154 639127
0111100010001000: 536906 478160 578154 624829
0110100110000100: 536906 478160 578154 568459
0110100110000100: 536906 478160 578154 598938
0110100010010010: 536906 478160 578154 633681
0110100010010010: 536906 478160 578154 633681
0111100010001000: 536906 478160 639127 624829
0111100010001000: 536906 478160 639127 578154
0110100110000100: 536906 478160 639127 568459
0110100110000100: 536906 478160 639127 568459
0110100110000100: 536906 478160 639127 568459
0110100110010110: 536906 478160 639127 598938
0110100110010110: 536906 478160 639127 598938
0111100010001000: 536906 478160 624829 639127
0111100010001000: 536906 478160 624829 578154
0111100010001000: 536906 478160 624829 639127
0110100110000100: 536906 478160 624829 568459
0110100110000100: 536906 478160 624829 598938
0110100110000100: 536906 478160 624829 568459
0110100110000100: 536906 478160 624829 598938
0110100110000100: 536906 478160 624829 568459
0110100110000100: 536906 478160 624829 598938
0110100110000100: 536906 478160 578154 568459
0110100110000100: 536906 478160 578154 598938
0110100110000100: 536906 478160 578154 568459
0110100110000100: 536906 478160 578154 598938
0110100110000100: 536906 478160 578154 568459
0110100110000100: 536906 478160 578154 598938
0110100010010010: 536906 478160 578154 633681
0101101001001000: 536906 478160 568459 639127
0101101001001000: 536906 478160 568459 624829
0101101001001000: 536906 478160 568459 578154
0100101001010010: 536906 478160 568459 579696
0100101001010010: 536906 478160 568459 579696
0100101001010010: 536906 478160 568459 579696
0100101001010010: 536906 478160 568459 579696
0101101001001000: 536906 478160 598938 624829
0101101001001000: 536906 478160 598938 578154
0100101001010010: 536906 478160 598938 538113
0100101001010010: 536906 478160 598938 538113
0100101101000100: 536906 478160 598938 568459
0101101001011010: 536906 478160 598938 639127
0101101001011010: 536906 478160 598938 639127
0101101001011010: 536906 478160 598938 639127
0100101001010010: 536906 478160 598938 538113
0110100010010010: 536906 578154 639127 479702
0110100010010010: 536906 578154 639127 598938
0110100010010010: 536906 578154 639127 479702
0110100010010010: 536906 578154 639127 598938
0111100010001000: 536906 578154 624829 639127
0110100010010010: 536906 578154 624829 459647
0110100010010010: 536906 578154 624829 493815
0110100010010010: 536906 578154 624829 459647
0110100010010010: 536906 578154 624829 493815
0111100010001000: 536906 578154 478160 639127
0111100010001000: 536906 578154 478160 624829
0110100010010010: 536906 578154 478160 568459
0110100010010010: 536906 578154 478160 598938
0110100010010010: 536906 578154 478160 568459
0110100010010010: 536906 578154 478160 598938
0111100010001000: 536906 578154 639127 624829
0111100010001000: 536906 578154 639127 478160
0110100110000100: 536906 578154 639127 633681
0110100110000100: 536906 578154 639127 633681
0111100010001000: 536906 578154 624829 639127
0111100010001000: 536906 578154 624829 478160
0111100010001000: 536906 578154 624829 639127
0110100110000100: 536906 578154 624829 633681
0110100110000100: 536906 578154 624829 633681
0111100010001000: 536906 578154 478160 639127
0111100010001000: 536906 578154 478160 624829
0111100010001000: 536906 578154 478160 639127
0111100010001000: 536906 578154 478160 624829
0110100110000100: 536906 578154 478160 633681
0110100110000100: 536906 578154 478160 633681
0101101001001000: 536906 578154 633681 639127
0101101001001000: 536906 578154 633681 624829
0101101001001000: 536906 578154 633681 478160
0100101001010010: 536906 578154 633681 611356
0100101001010010: 536906 578154 633681 611356
0100101001010010: 536906 578154 633681 611356
0110100110000100: 633681 611356 578154 459647
0110100010010010: 633681 611356 578154 536906
0110100110000100: 633681 611356 578154 459647
0110100110000100: 633681 611356 578154 459647
0110100110000100: 633681 611356 578154 459647
0110100110000100: 633681 611356 578154 459647
0110100110000100: 633681 611356 578154 459647
0110100010010010: 633681 578154 611356 459647
0110100110000100: 633681 578154 611356 536906
0110100110000100: 633681 578154 611356 536906
0110100110000100: 633681 578154 611356 536906
0110100110000100: 633681 578154 611356 536906
0110100110000100: 611356 459647 633681 624829
0110100010010010: 611356 459647 633681 578154
0110100110000100: 611356 459647 633681 624829
0110100110000100: 611356 459647 633681 624829
0110100110000100: 611356 459647 633681 624829
0110100110000100: 611356 459647 633681 624829
0110100110000100: 611356 459647 633681 624829
0110100010010010: 611356 633681 459647 624829
0110100110000100: 611356 633681 459647 578154
0110100110000100: 611356 633681 459647 578154
0110100110000100: 611356 633681 459647 578154
0110100110000100: 611356 633681 459647 578154
0110100110000100: 606992 579696 582199 568459
0110100110000100: 606992 579696 582199 538113
0110100010010010: 606992 579696 582199 547571
0110100110000100: 606992 579696 582199 568459
0110100110000100: 606992 579696 582199 538113
0110100110000100: 606992 579696 582199 568459
0110100110000100: 606992 579696 582199 538113
0110100010010010: 606992 579696 582199 547571
0110100110000100: 606992 579696 582199 568459
0110100110000100: 606992 579696 582199 538113
0110100110000100: 606992 579696 582199 568459
0110100110000100: 606992 579696 582199 538113
0110100010010010: 606992 579696 582199 547571
0110100110000100: 606992 582199 579696 547571
0110100010010010: 606992 582199 579696 568459
0110100010010010: 606992 582199 579696 538113
0110100110000100: 606992 582199 579696 547571
0110100110000100: 606992 582199 579696 547571
0110100110000100: 606992 582199 579696 547571
0110100110000100: 606992 582199 579696 547571
0110100110000100: 606992 582199 579696 547571
0110100010010010: 582199 606992 547571 479702
0110100010010010: 582199 606992 547571 538113
0110100110000100: 582199 606992 547571 579696
0110100110000100: 582199 606992 547571 579696
0110100110000100: 582199 606992 547571 579696
0110100110000100: 582199 606992 547571 579696
0110100010010010: 582199 547571 606992 579696
0110100110000100: 582199 547571 606992 479702
0110100110000100: 582199 547571 606992 538113
0110100010010010: 582199 547571 606992 579696
0110100110000100: 582199 547571 606992 479702
0110100110000100: 582199 547571 606992 538113
0110100110000100: 582199 547571 606992 479702
0110100110000100: 582199 547571 606992 538113
0110100010010010: 582199 547571 606992 579696
0101101001001000: 478160 568459 579696 536906
0101101001001000: 478160 568459 579696 598938
0111100010001000: 478160 598938 536906 568459
0110100110010110: 478160 598938 536906 639127
0110100110000100: 478160 568459 536906 579696
0110100010010010: 478160 568459 536906 639127
0110100010010010: 478160 568459 536906 624829
0110100010010010: 478160 568459 536906 578154
0111100010001000: 478160 568459 598938 536906
0110100110000100: 478160 568459 598938 579696
0110100010010010: 478160 568459 598938 639127
0110100010010010: 478160 568459 598938 538113
0110100110000100: 478160 568459 536906 579696
0110100110000100: 478160 568459 536906 579696
0110100110000100: 478160 568459 536906 579696
0110100110000100: 478160 568459 598938 579696
0110100110000100: 478160 568459 598938 579696
0110100110000100: 478160 568459 598938 579696
0101101001001000: 478160 568459 579696 536906
0101101001001000: 478160 568459 579696 598938
0100101001010010: 478160 568459 579696 606992
0100101001010010: 478160 568459 579696 538113
0100101001010010: 478160 568459 579696 606992
0100101001010010: 478160 568459 579696 538113
0101101001001000: 478160 568459 579696 536906
0101101001001000: 478160 568459 579696 598938
0110100010010010: 478160 536906 568459 579696
0110100010010010: 478160 536906 568459 579696
0111100010001000: 478160 536906 598938 568459
0110100010010010: 478160 536906 598938 538113
0110100110010110: 478160 536906 598938 639127
0111100010001000: 478160 536906 568459 598938
0110100110000100: 478160 536906 568459 639127
0110100110000100: 478160 536906 568459 624829
0110100110000100: 478160 536906 568459 578154
0110100010010010: 478160 536906 568459 579696
0110100110000100: 478160 536906 598938 624829
0110100110000100: 478160 536906 598938 578154
0110100010010010: 478160 536906 598938 538113
0110100110010110: 478160 536906 598938 639127
0111100010001000: 478160 536906 568459 598938
0111100010001000: 478160 536906 568459 598938
0110100010010010: 478160 536906 568459 579696
0111100010001000: 478160 536906 598938 568459
0111100010001000: 478160 536906 598938 568459
0111100010001000: 478160 536906 598938 568459
0110100110000100: 478160 536906 568459 639127
0110100110000100: 478160 536906 568459 624829
0110100110000100: 478160 536906 568459 578154
0110100110000100: 478160 536906 568459 639127
0110100110000100: 478160 536906 568459 624829
0110100110000100: 478160 536906 568459 578154
0111100010001000: 478160 536906 568459 598938
0110100010010010: 478160 536906 568459 579696
0110100010010010: 478160 536906 568459 579696
0110100110000100: 478160 536906 598938 624829
0110100110000100: 478160 536906 598938 578154
0110100110000100: 478160 536906 598938 624829
0110100110000100: 478160 536906 598938 578154
0111100010001000: 478160 536906 598938 568459
0111100010001000: 478160 536906 598938 568459
0110100010010010: 478160 536906 598938 538113
0110100110010110: 478160 536906 598938 639127
0110100010010010: 478160 598938 568459 579696
0110100010010010: 478160 598938 568459 579696
0111100010001000: 478160 598938 536906 568459
0110100010010010: 478160 598938 536906 624829
0110100010010010: 478160 598938 536906 578154
0110100110010110: 478160 598938 536906 639127
0111100010001000: 478160 598938 568459 536906
0110100110000100: 478160 598938 568459 639127
0110100110000100: 478160 598938 568459 538113
0110100010010010: 478160 598938 568459 579696
0111100010001000: 478160 598938 536906 568459
0111100010001000: 478160 598938 536906 568459
0110100110000100: 478160 598938 536906 538113
0110100110010110: 478160 598938 536906 639127
0110100110010110: 478160 598938 536906 639127
0111100010001000: 478160 598938 568459 536906
0111100010001000: 478160 598938 568459 536906
0110100010010010: 478160 598938 568459 579696
0111100010001000: 478160 598938 536906 568459
0111100010001000: 478160 598938 536906 568459
0111100010001000: 478160 598938 536906 568459
0110100110000100: 478160 598938 568459 639127
0110100110000100: 478160 598938 568459 538113
0110100110000100: 478160 598938 568459 639127
0110100110000100: 478160 598938 568459 538113
0111100010001000: 478160 598938 568459 536906
0110100010010010: 478160 598938 568459 579696
0110100010010010: 478160 598938 568459 579696
0110100110000100: 478160 598938 536906 538113
0110100110000100: 478160 598938 536906 538113
0111100010001000: 478160 598938 536906 568459
0111100010001000: 478160 598938 536906 568459
0110100110010110: 478160 598938 536906 639127
0110100110000100: 478160 598938 536906 538113
0110100110000100: 568459 579696 478160 606992
0110100110000100: 568459 579696 478160 538113
0110100010010010: 568459 579696 478160 536906
0110100010010010: 568459 579696 478160 598938
0110100110000100: 568459 579696 478160 606992
0110100110000100: 568459 579696 478160 538113
0110100110000100: 568459 579696 478160 606992
0110100110000100: 568459 579696 478160 538113
0110100110000100: 568459 579696 478160 606992
0110100110000100: 568459 579696 478160 538113
0110100110000100: 568459 579696 478160 606992
0110100110000100: 568459 579696 478160 538113
0110100110000100: 568459 579696 478160 606992
0110100110000100: 568459 579696 478160 538113
0110100010010010: 568459 478160 579696 606992
0110100010010010: 568459 478160 579696 538113
0110100110000100: 568459 478160 579696 536906
0110100110000100: 568459 478160 579696 598938
0110100110000100: 568459 478160 579696 536906
0110100110000100: 568459 478160 579696 598938
0110100110000100: 568459 478160 579696 536906
0110100110000100: 568459 478160 579696 598938
0110100110000100: 568459 478160 579696 536906
0110100110000100: 568459 478160 579696 598938
0111100010001000: 479702 547571 495285 639127
0110100110000100: 479702 639127 495285 536906
0110100110000100: 479702 639127 495285 598938
0111100010001000: 479702 639127 547571 495285
0110100110000100: 479702 639127 547571 536906
0110100110000100: 479702 639127 547571 598938
0110100010010010: 479702 639127 547571 582199
0110100010010010: 479702 639127 547571 538113
0110100110000100: 479702 639127 495285 536906
0110100110000100: 479702 639127 495285 598938
0110100110000100: 479702 639127 495285 536906
0110100110000100: 479702 639127 495285 598938
0110100110000100: 479702 639127 547571 536906
0110100110000100: 479702 639127 547571 598938
0110100110000100: 479702 639127 547571 536906
0110100110000100: 479702 639127 547571 598938
0111100010001000: 479702 639127 495285 547571
0111100010001000: 479702 639127 495285 547571
0111100010001000: 479702 639127 547571 495285
0111100010001000: 479702 639127 547571 495285
0111100010001000: 479702 639127 547571 495285
0110100110000100: 479702 639127 495285 536906
0110100110000100: 479702 639127 495285 598938
0110100110000100: 479702 639127 495285 536906
0110100110000100: 479702 639127 495285 598938
0111100010001000: 479702 639127 495285 547571
0110100110000100: 479702 639127 547571 536906
0110100110000100: 479702 639127 547571 598938
0110100110000100: 479702 639127 547571 536906
0110100110000100: 479702 639127 547571 598938
0111100010001000: 479702 639127 547571 495285
0111100010001000: 479702 639127 547571 495285
0110100110000100: 479702 639127 547571 536906
0110100110000100: 479702 639127 547571 598938
0110100010010010: 479702 495285 639127 536906
0110100010010010: 479702 495285 639127 598938
0111100010001000: 479702 495285 547571 639127
0110100010010010: 479702 495285 547571 582199
0110100010010010: 479702 495285 547571 538113
0111100010001000: 479702 495285 639127 547571
0110100010010010: 479702 547571 639127 536906
0110100010010010: 479702 547571 639127 598938
0111100010001000: 479702 547571 495285 639127
0111100010001000: 479702 547571 639127 495285
0110100110000100: 479702 547571 639127 582199
0110100110000100: 479702 547571 639127 538113
0111100010001000: 479702 547571 495285 639127
0111100010001000: 479702 547571 495285 639127
0110100110000100: 479702 547571 495285 582199
0110100110000100: 479702 547571 495285 538113
0111100010001000: 479702 547571 639127 495285
0111100010001000: 479702 547571 639127 495285
0111100010001000: 479702 547571 639127 495285
0111100010001000: 479702 547571 495285 639127
0111100010001000: 479702 547571 495285 639127
0110100110000100: 479702 547571 639127 582199
0110100110000100: 479702 547571 639127 538113
0110100110000100: 479702 547571 639127 582199
0110100110000100: 479702 547571 639127 538113
0111100010001000: 479702 547571 639127 495285
0110100110000100: 479702 547571 639127 582199
0110100110000100: 479702 547571 639127 538113
0110100110000100: 479702 547571 495285 582199
0110100110000100: 479702 547571 495285 538113
0110100110000100: 479702 547571 495285 582199
0110100110000100: 479702 547571 495285 538113
0111100010001000: 479702 547571 495285 639127
0111100010001000: 479702 547571 495285 639127
0110100010010010: 493815 457196 624829 459647
0110100010010010: 493815 457196 624829 536906
0110100110000100: 493815 624829 457196 459647
0110100110000100: 493815 624829 457196 536906
0110100110000100: 493815 624829 457196 459647
0110100110000100: 493815 624829 457196 536906
0110100110000100: 493815 624829 457196 459647
0110100110000100: 493815 624829 457196 536906
0110100110000100: 493815 624829 457196 459647
0110100110000100: 493815 624829 457196 536906
0110100110000100: 493815 624829 457196 459647
0110100110000100: 493815 624829 457196 536906
0101101001001000: 624829 459647 611356 493815
0101101001001000: 624829 459647 611356 536906
0101101001001000: 624829 493815 457196 459647
0101101001001000: 624829 493815 457196 536906
0111100010001000: 624829 536906 493815 459647
0110100110000100: 624829 459647 493815 611356
0110100010010010: 624829 459647 493815 457196
0110100010010010: 624829 459647 493815 457196
0111100010001000: 624829 459647 536906 493815
0110100110000100: 624829 459647 536906 611356
0110100010010010: 624829 459647 536906 639127
0110100010010010: 624829 459647 536906 478160
0110100010010010: 624829 459647 536906 578154
0110100110000100: 624829 459647 493815 611356
0110100110000100: 624829 459647 493815 611356
0110100110000100: 624829 459647 493815 611356
0110100110000100: 624829 459647 536906 611356
0110100110000100: 624829 459647 536906 611356
0110100110000100: 624829 459647 536906 611356
0101101001001000: 624829 459647 611356 493815
0101101001001000: 624829 459647 611356 536906
0100101001010010: 624829 459647 611356 633681
0100101001010010: 624829 459647 611356 633681
0100101001010010: 624829 459647 611356 633681
0110100010010010: 624829 493815 459647 611356
0110100010010010: 624829 493815 459647 611356
0111100010001000: 624829 493815 536906 459647
0110100010010010: 624829 493815 536906 639127
0110100010010010: 624829 493815 536906 478160
0110100010010010: 624829 493815 536906 578154
0111100010001000: 624829 493815 459647 536906
0110100110000100: 624829 493815 459647 457196
0110100110000100: 624829 493815 459647 457196
0110100110000100: 624829 493815 536906 457196
0110100110000100: 624829 493815 536906 457196
0101101001001000: 624829 493815 457196 459647
0101101001001000: 624829 493815 457196 536906
0110100010010010: 624829 536906 459647 611356
0110100010010010: 624829 536906 459647 611356
0111100010001000: 624829 536906 493815 459647
0110100010010010: 624829 536906 493815 457196
0110100010010010: 624829 536906 493815 457196
0111100010001000: 624829 536906 459647 493815
0110100110000100: 624829 536906 459647 639127
0110100110000100: 624829 536906 459647 478160
0110100110000100: 624829 536906 459647 578154
0110100010010010: 624829 536906 459647 611356
0111100010001000: 624829 536906 493815 459647
0111100010001000: 624829 536906 493815 459647
0110100110000100: 624829 536906 493815 639127
0110100110000100: 624829 536906 493815 478160
0110100110000100: 624829 536906 493815 578154
0110100010010010: 624829 536906 493815 457196
0111100010001000: 624829 536906 459647 493815
0111100010001000: 624829 536906 459647 493815
0110100010010010: 624829 536906 459647 611356
0111100010001000: 624829 536906 493815 459647
0111100010001000: 624829 536906 493815 459647
0110100010010010: 624829 536906 493815 457196
0110100110000100: 624829 536906 459647 639127
0110100110000100: 624829 536906 459647 478160
0110100110000100: 624829 536906 459647 578154
0110100110000100: 624829 536906 459647 639127
0110100110000100: 624829 536906 459647 478160
0110100110000100: 624829 536906 459647 578154
0111100010001000: 624829 536906 459647 493815
0110100010010010: 624829 536906 459647 611356
0110100010010010: 624829 536906 459647 611356
0110100110000100: 624829 536906 493815 639127
0110100110000100: 624829 536906 493815 478160
0110100110000100: 624829 536906 493815 578154
0110100110000100: 624829 536906 493815 639127
0110100110000100: 624829 536906 493815 478160
0110100110000100: 624829 536906 493815 578154
0111100010001000: 624829 536906 493815 459647
0111100010001000: 624829 536906 493815 459647
0110100010010010: 624829 536906 493815 457196
0110100010010010: 624829 536906 493815 457196
0110100010010010: 459647 624829 611356 633681
0110100110000100: 459647 624829 611356 493815
0110100110000100: 459647 624829 611356 536906
0110100010010010: 459647 624829 611356 633681
0110100110000100: 459647 624829 611356 493815
0110100110000100: 459647 624829 611356 536906
0110100110000100: 459647 624829 611356 493815
0110100110000100: 459647 624829 611356 536906
0110100010010010: 459647 624829 611356 633681
0110100010010010: 459647 611356 624829 493815
0110100010010010: 459647 611356 624829 536906
0110100110000100: 459647 611356 624829 633681
0110100110000100: 459647 611356 624829 633681
0110100110000100: 459647 611356 624829 633681
0110100110000100: 459647 611356 624829 633681
0101101001001000: 579696 568459 478160 606992
0101101001001000: 579696 568459 478160 538113
0101101001001000: 579696 606992 582199 568459
0101101001001000: 579696 606992 582199 538113
0111100010001000: 579696 538113 606992 568459
0110100010010010: 579696 568459 606992 582199
0110100010010010: 579696 568459 606992 582199
0111100010001000: 579696 568459 538113 606992
0110100010010010: 579696 568459 538113 598938
0110100010010010: 579696 568459 538113 547571
0110100110000100: 579696 568459 606992 478160
0110100110000100: 579696 568459 606992 478160
0110100110000100: 579696 568459 538113 478160
0110100110000100: 579696 568459 538113 478160
0101101001001000: 579696 568459 478160 606992
0101101001001000: 579696 568459 478160 538113
0100101001010010: 579696 568459 478160 536906
0100101001010010: 579696 568459 478160 598938
0100101001010010: 579696 568459 478160 536906
0100101001010010: 579696 568459 478160 598938
0101101001001000: 579696 568459 478160 606992
0101101001001000: 579696 568459 478160 538113
0110100010010010: 579696 606992 568459 478160
0110100010010010: 579696 606992 568459 478160
0111100010001000: 579696 606992 538113 568459
0110100010010010: 579696 606992 538113 598938
0110100010010010: 579696 606992 538113 547571
0111100010001000: 579696 606992 568459 538113
0110100110000100: 579696 606992 568459 582199
0110100110000100: 579696 606992 568459 582199
0110100110000100: 579696 606992 538113 582199
0110100110000100: 579696 606992 538113 582199
0101101001001000: 579696 606992 582199 568459
0101101001001000: 579696 606992 582199 538113
0100101001010010: 579696 606992 582199 547571
0100101001010010: 579696 606992 582199 547571
0100101001010010: 579696 606992 582199 547571
0110100010010010: 579696 538113 568459 478160
0110100010010010: 579696 538113 568459 478160
0111100010001000: 579696 538113 606992 568459
0110100010010010: 579696 538113 606992 582199
0110100010010010: 579696 538113 606992 582199
0111100010001000: 579696 538113 568459 606992
0110100110000100: 579696 538113 568459 598938
0110100110000100: 579696 538113 568459 547571
0110100010010010: 579696 538113 568459 478160
0111100010001000: 579696 538113 606992 568459
0111100010001000: 579696 538113 606992 568459
0110100110000100: 579696 538113 606992 598938
0110100110000100: 579696 538113 606992 547571
0110100010010010: 579696 538113 606992 582199
0111100010001000: 579696 538113 568459 606992
0111100010001000: 579696 538113 568459 606992
0110100010010010: 579696 538113 568459 478160
0111100010001000: 579696 538113 606992 568459
0111100010001000: 579696 538113 606992 568459
0110100010010010: 579696 538113 606992 582199
0110100110000100: 579696 538113 568459 598938
0110100110000100: 579696 538113 568459 547571
0110100110000100: 579696 538113 568459 598938
0110100110000100: 579696 538113 568459 547571
0111100010001000: 579696 538113 568459 606992
0110100010010010: 579696 538113 568459 478160
0110100010010010: 579696 538113 568459 478160
0110100110000100: 579696 538113 606992 598938
0110100110000100: 579696 538113 606992 547571
0110100110000100: 579696 538113 606992 598938
0110100110000100: 579696 538113 606992 547571
0111100010001000: 579696 538113 606992 568459
0111100010001000: 579696 538113 606992 568459
0110100010010010: 579696 538113 606992 582199
0110100010010010: 579696 538113 606992 582199
0111100010001000: 639127 598938 536906 479702
0110100110010110: 639127 598938 536906 478160
0110100010010010: 639127 479702 536906 624829
0110100010010010: 639127 479702 536906 478160
0110100010010010: 639127 479702 536906 578154
0111100010001000: 639127 479702 598938 536906
0110100010010010: 639127 479702 598938 478160
0110100010010010: 639127 479702 598938 538113
0110100110000100: 639127 479702 536906 495285
0110100110000100: 639127 479702 536906 547571
0110100110000100: 639127 479702 598938 495285
0110100110000100: 639127 479702 598938 547571
0111100010001000: 639127 479702 536906 598938
0111100010001000: 639127 479702 536906 598938
0111100010001000: 639127 479702 536906 598938
0111100010001000: 639127 479702 598938 536906
0111100010001000: 639127 479702 598938 536906
0111100010001000: 639127 479702 598938 536906
0110100110000100: 639127 479702 536906 495285
0110100110000100: 639127 479702 536906 547571
0110100110000100: 639127 479702 536906 495285
0110100110000100: 639127 479702 536906 547571
0111100010001000: 639127 479702 536906 598938
0110100110000100: 639127 479702 536906 495285
0110100110000100: 639127 479702 536906 547571
0110100110000100: 639127 479702 598938 495285
0110100110000100: 639127 479702 598938 547571
0110100110000100: 639127 479702 598938 495285
0110100110000100: 639127 479702 598938 547571
0111100010001000: 639127 479702 598938 536906
0111100010001000: 639127 479702 598938 536906
0110100110000100: 639127 479702 598938 495285
0110100110000100: 639127 479702 598938 547571
0110100010010010: 639127 536906 479702 495285
0110100010010010: 639127 536906 479702 547571
0111100010001000: 639127 536906 598938 479702
0110100010010010: 639127 536906 598938 538113
0110100110010110: 639127 536906 598938 478160
0111100010001000: 639127 536906 479702 598938
0110100110000100: 639127 536906 479702 624829
0110100110000100: 639127 536906 479702 478160
0110100110000100: 639127 536906 479702 578154
0110100010010010: 639127 536906 479702 495285
0110100010010010: 639127 536906 479702 547571
0110100110000100: 639127 536906 598938 624829
0110100110000100: 639127 536906 598938 578154
0110100010010010: 639127 536906 598938 538113
0110100110010110: 639127 536906 598938 478160
0111100010001000: 639127 536906 479702 598938
0111100010001000: 639127 536906 479702 598938
0111100010001000: 639127 536906 479702 598938
0111100010001000: 639127 536906 598938 479702
0111100010001000: 639127 536906 598938 479702
0111100010001000: 639127 536906 598938 479702
0110100110000100: 639127 536906 479702 624829
0110100110000100: 639127 536906 479702 478160
0110100110000100: 639127 536906 479702 578154
0110100110000100: 639127 536906 479702 624829
0110100110000100: 639127 536906 479702 478160
0110100110000100: 639127 536906 479702 578154
0111100010001000: 639127 536906 479702 598938
0110100010010010: 639127 536906 479702 495285
0110100010010010: 639127 536906 479702 547571
0110100110000100: 639127 536906 598938 624829
0110100110000100: 639127 536906 598938 578154
0110100110000100: 639127 536906 598938 624829
0110100110000100: 639127 536906 598938 578154
0111100010001000: 639127 536906 598938 479702
0111100010001000: 639127 536906 598938 479702
0110100010010010: 639127 536906 598938 538113
0110100110010110: 639127 536906 598938 478160
0110100010010010: 639127 598938 479702 495285
0110100010010010: 639127 598938 479702 547571
0111100010001000: 639127 598938 536906 479702
0110100010010010: 639127 598938 536906 624829
0110100010010010: 639127 598938 536906 578154
0110100110010110: 639127 598938 536906 478160
0111100010001000: 639127 598938 479702 536906
0110100110000100: 639127 598938 479702 478160
0110100110000100: 639127 598938 479702 538113
0111100010001000: 639127 598938 536906 479702
0111100010001000: 639127 598938 536906 479702
0110100110000100: 639127 598938 536906 538113
0110100110010110: 639127 598938 536906 478160
0110100110010110: 639127 598938 536906 478160
0111100010001000: 639127 598938 479702 536906
0111100010001000: 639127 598938 479702 536906
0111100010001000: 639127 598938 479702 536906
0111100010001000: 639127 598938 536906 479702
0111100010001000: 639127 598938 536906 479702
0111100010001000: 639127 598938 536906 479702
0110100110000100: 639127 598938 479702 478160
0110100110000100: 639127 598938 479702 538113
0110100110000100: 639127 598938 479702 478160
0110100110000100: 639127 598938 479702 538113
0111100010001000: 639127 598938 479702 536906
0110100110000100: 639127 598938 479702 478160
0110100110000100: 639127 598938 479702 538113
0110100110000100: 639127 598938 536906 538113
0110100110000100: 639127 598938 536906 538113
0111100010001000: 639127 598938 536906 479702
0111100010001000: 639127 598938 536906 479702
0110100110010110: 639127 598938 536906 478160
0110100110000100: 639127 598938 536906 538113
