0110010011100100110001000: 657389 556641 465950 590727 537447
0110010011100000100001000: 657389 556641 487698 537447 590727
0110010011100000100001000: 537447 556641 570130 657389 590727
0110010010100010100000100: 537447 570130 556641 530824 590727
0110010010100010100000100: 537447 570130 556641 530824 657389
0110010010100010100000100: 570130 537447 530824 556641 458057
0110010010100010100000100: 556641 537447 590727 570130 465950
0110010011100100110001000: 556641 657389 590727 465950 487698
0110010010100010100000100: 556641 657389 537447 465950 570130
0110010011100000100001000: 556641 657389 537447 487698 465950
0110010010100010100000100: 556641 657389 537447 487698 570130
0110010010100010100000100: 458057 626210 530824 573874 570130
0110010010100010100000100: 626210 458057 573874 530824 460146
0110010010100010100000100: 530824 570130 458057 537447 626210
