Vertex,0111110110110001100010000,0111110000100001000010000,0111010100110001000100010,0111010101110001000001000,0110010011100000100001000,0111010110110011100000100,0110010010100010100100110,0110010010100010100000100,0111110100110001000010000
477966,3.0,1.0,11.0,6.0,10.0,2.0,0.0,10.0,6.0
457203,3.0,6.0,11.0,6.0,52.0,2.0,2.0,38.0,6.0
553084,3.0,4.0,6.0,3.0,26.0,2.0,1.0,23.0,3.0
600530,3.0,4.0,5.0,3.0,22.0,2.0,0.0,22.0,3.0
534878,0.0,0.0,2.0,3.0,11.0,1.0,1.0,30.0,0.0
466429,0.0,0.0,1.0,3.0,7.0,1.0,0.0,18.0,0.0
484310,1.0,5.0,2.0,2.0,27.0,0.0,1.0,13.0,4.0
635653,0.0,0.0,2.0,0.0,4.0,0.0,0.0,19.0,0.0
539712,1.0,5.0,2.0,2.0,27.0,0.0,0.0,11.0,4.0
616034,1.0,5.0,4.0,2.0,38.0,0.0,2.0,23.0,4.0
592581,0.0,0.0,3.0,0.0,19.0,0.0,1.0,19.0,0.0
566771,0.0,0.0,2.0,0.0,15.0,0.0,1.0,15.0,0.0
561982,0.0,0.0,2.0,0.0,9.0,0.0,1.0,14.0,0.0
630124,0.0,0.0,2.0,0.0,8.0,0.0,0.0,5.0,0.0
graph,3.0,6.0,11.0,6.0,55.0,2.0,2.0,52.0,6.0
