Vertex,0110100010010010,0111101011011010,0101101101001100,0110101111010110,0101101001001000,0110101111000100,0100101101010110,0111100010001000,0100101101000100,0111100110001100,0111100110011110,0110100110010110,0111101011001000,0100101001010010,0111100010011010,0101101001011010,0111101111001100,0110101011010010,0110100110000100
476568,92.0,0.0,0.0,0.0,24.0,0.0,0.0,94.0,4.0,0.0,0.0,0.0,0.0,24.0,0.0,0.0,0.0,0.0,210.0
598257,49.0,0.0,0.0,0.0,10.0,0.0,0.0,24.0,0.0,0.0,0.0,0.0,0.0,20.0,0.0,0.0,0.0,0.0,81.0
502029,65.0,0.0,2.0,0.0,28.0,7.0,0.0,39.0,6.0,5.0,0.0,0.0,14.0,14.0,2.0,0.0,0.0,5.0,108.0
504741,125.0,0.0,0.0,0.0,68.0,16.0,0.0,187.0,4.0,8.0,0.0,66.0,40.0,26.0,8.0,24.0,0.0,8.0,281.0
465144,94.0,0.0,0.0,0.0,20.0,0.0,0.0,129.0,4.0,0.0,0.0,0.0,0.0,31.0,0.0,0.0,0.0,0.0,248.0
512332,202.0,0.0,14.0,0.0,117.0,81.0,6.0,190.0,12.0,59.0,0.0,99.0,174.0,87.0,65.0,36.0,0.0,53.0,425.0
482431,272.0,14.0,16.0,10.0,157.0,88.0,8.0,253.0,20.0,67.0,1.0,99.0,191.0,77.0,62.0,36.0,18.0,56.0,538.0
463101,97.0,0.0,4.0,0.0,20.0,12.0,0.0,105.0,2.0,10.0,0.0,0.0,21.0,34.0,8.0,0.0,0.0,12.0,249.0
594676,143.0,0.0,0.0,0.0,74.0,12.0,0.0,195.0,10.0,6.0,0.0,0.0,30.0,48.0,6.0,0.0,0.0,6.0,317.0
637283,128.0,0.0,4.0,0.0,78.0,42.0,2.0,143.0,6.0,25.0,0.0,66.0,97.0,26.0,26.0,24.0,0.0,24.0,260.0
510385,129.0,0.0,4.0,0.0,46.0,16.0,0.0,131.0,8.0,12.0,0.0,0.0,30.0,45.0,11.0,0.0,0.0,14.0,275.0
514487,94.0,14.0,6.0,10.0,40.0,31.0,0.0,98.0,0.0,21.0,1.0,0.0,64.0,24.0,16.0,0.0,18.0,23.0,226.0
521006,233.0,0.0,2.0,0.0,117.0,27.0,2.0,225.0,16.0,15.0,0.0,0.0,64.0,76.0,18.0,0.0,0.0,15.0,445.0
545211,112.0,14.0,14.0,10.0,46.0,77.0,2.0,39.0,0.0,59.0,1.0,0.0,168.0,26.0,44.0,0.0,18.0,49.0,220.0
541849,129.0,14.0,14.0,10.0,60.0,85.0,4.0,103.0,0.0,64.0,1.0,66.0,187.0,29.0,57.0,24.0,18.0,53.0,254.0
494616,53.0,0.0,4.0,0.0,18.0,16.0,0.0,15.0,0.0,13.0,0.0,0.0,32.0,17.0,4.0,0.0,0.0,10.0,90.0
550809,47.0,0.0,2.0,0.0,16.0,7.0,0.0,0.0,0.0,5.0,0.0,0.0,14.0,18.0,2.0,0.0,0.0,5.0,66.0
562666,102.0,0.0,10.0,0.0,43.0,55.0,2.0,75.0,2.0,40.0,0.0,0.0,117.0,32.0,41.0,0.0,0.0,37.0,218.0
581844,58.0,0.0,2.0,0.0,29.0,19.0,2.0,38.0,4.0,11.0,0.0,0.0,44.0,17.0,14.0,0.0,0.0,11.0,109.0
573817,32.0,0.0,2.0,0.0,21.0,19.0,2.0,38.0,4.0,11.0,0.0,0.0,44.0,3.0,14.0,0.0,0.0,11.0,71.0
571209,40.0,0.0,4.0,0.0,28.0,34.0,2.0,55.0,2.0,21.0,0.0,0.0,77.0,6.0,22.0,0.0,0.0,20.0,93.0
graph,574.0,14.0,26.0,10.0,265.0,161.0,8.0,544.0,26.0,113.0,1.0,99.0,352.0,170.0,105.0,36.0,18.0,103.0,1196.0
