Vertex,0111010110110011100100110,0110010011100110110001100,0110010010100010100100110,0110010011100100110001000,0111110100110001000010000,0110010010100010100000100,0111010101110001000001000,0111010100110001000100010,0110010011100000100001000,0111110110110001100010000,0111110000100001000010000
588588,0.0,0.0,3.0,3.0,0.0,21.0,0.0,4.0,30.0,0.0,1.0
532025,0.0,0.0,3.0,2.0,0.0,26.0,4.0,4.0,18.0,1.0,0.0
653891,1.0,2.0,3.0,7.0,2.0,28.0,2.0,4.0,31.0,0.0,1.0
594308,2.0,1.0,2.0,4.0,2.0,21.0,4.0,8.0,17.0,1.0,0.0
609372,0.0,0.0,1.0,0.0,0.0,20.0,0.0,2.0,11.0,0.0,0.0
490536,0.0,0.0,0.0,0.0,0.0,11.0,0.0,0.0,9.0,0.0,0.0
515895,0.0,0.0,1.0,3.0,0.0,17.0,0.0,2.0,19.0,0.0,1.0
467288,2.0,2.0,1.0,8.0,1.0,16.0,2.0,4.0,18.0,1.0,1.0
482597,2.0,2.0,1.0,8.0,1.0,16.0,2.0,4.0,18.0,1.0,1.0
614840,1.0,2.0,0.0,3.0,2.0,10.0,2.0,0.0,12.0,0.0,0.0
471966,2.0,1.0,0.0,2.0,2.0,9.0,4.0,8.0,7.0,1.0,0.0
graph,2.0,2.0,3.0,8.0,2.0,39.0,4.0,8.0,38.0,1.0,1.0
