Vertex,0101101101011110,0100101101000100,0111100110011110,0110100110000100,0111101111011110,0111100110001100,0101101001011010,0100101101010110,0111100010001000,0101101001001000,0111100010011010,0111101011011010,0110101111000100,0100101001010010,0110100110010110,0110101111010110,0111101111001100,0101101101001100,0111101011001000,0110101011010010,0110100010010010
554368,51.0,2.0,57.0,1008.0,620.0,1047.0,65.0,0.0,7895.0,288.0,982.0,1130.0,2027.0,0.0,175.0,1057.0,1386.0,38.0,4998.0,1053.0,500.0
530087,9.0,8.0,6.0,190.0,0.0,124.0,14.0,0.0,1222.0,55.0,118.0,99.0,244.0,23.0,35.0,102.0,108.0,4.0,601.0,128.0,105.0
593960,7.0,0.0,4.0,255.0,155.0,165.0,14.0,0.0,1160.0,77.0,150.0,151.0,317.0,23.0,35.0,138.0,198.0,10.0,770.0,169.0,127.0
518715,1.0,0.0,2.0,212.0,0.0,106.0,11.0,0.0,1280.0,58.0,100.0,18.0,205.0,7.0,35.0,17.0,18.0,2.0,511.0,103.0,117.0
526582,2.0,6.0,2.0,275.0,0.0,104.0,22.0,0.0,1347.0,68.0,102.0,31.0,200.0,35.0,70.0,27.0,36.0,4.0,491.0,106.0,162.0
638398,2.0,4.0,2.0,259.0,0.0,102.0,0.0,0.0,1312.0,74.0,96.0,32.0,200.0,16.0,0.0,34.0,36.0,4.0,491.0,106.0,144.0
495106,7.0,12.0,6.0,254.0,0.0,113.0,14.0,0.0,1310.0,72.0,110.0,120.0,223.0,25.0,35.0,115.0,144.0,2.0,554.0,113.0,126.0
542063,6.0,0.0,5.0,301.0,155.0,173.0,21.0,2.0,1237.0,92.0,157.0,164.0,323.0,36.0,68.0,148.0,216.0,14.0,777.0,175.0,139.0
622391,17.0,20.0,14.0,465.0,155.0,203.0,54.0,2.0,1076.0,153.0,193.0,311.0,389.0,78.0,138.0,308.0,378.0,10.0,950.0,205.0,253.0
626662,12.0,20.0,16.0,703.0,0.0,184.0,92.0,2.0,1397.0,178.0,167.0,197.0,329.0,97.0,280.0,183.0,216.0,18.0,791.0,179.0,352.0
625557,0.0,0.0,0.0,189.0,0.0,64.0,11.0,0.0,1424.0,54.0,64.0,0.0,128.0,0.0,35.0,0.0,0.0,0.0,320.0,64.0,105.0
550157,5.0,4.0,11.0,392.0,310.0,252.0,28.0,2.0,1056.0,77.0,240.0,223.0,466.0,27.0,107.0,188.0,288.0,20.0,1129.0,252.0,194.0
582295,6.0,12.0,6.0,278.0,0.0,152.0,26.0,0.0,1188.0,86.0,140.0,156.0,294.0,28.0,68.0,152.0,198.0,8.0,717.0,156.0,141.0
499220,1.0,2.0,3.0,147.0,155.0,135.0,0.0,2.0,1207.0,28.0,148.0,56.0,262.0,3.0,0.0,47.0,72.0,4.0,647.0,134.0,57.0
568602,4.0,4.0,8.0,215.0,155.0,161.0,0.0,2.0,1103.0,42.0,174.0,107.0,314.0,24.0,0.0,91.0,126.0,4.0,777.0,160.0,111.0
512462,7.0,10.0,9.0,245.0,0.0,162.0,0.0,0.0,1110.0,54.0,164.0,126.0,311.0,58.0,0.0,115.0,144.0,6.0,764.0,163.0,153.0
534394,10.0,16.0,15.0,427.0,0.0,172.0,54.0,0.0,1287.0,103.0,160.0,253.0,331.0,52.0,173.0,233.0,306.0,6.0,819.0,169.0,223.0
460708,6.0,18.0,12.0,503.0,0.0,160.0,35.0,0.0,1271.0,127.0,142.0,168.0,303.0,56.0,105.0,152.0,198.0,10.0,739.0,161.0,267.0
576084,2.0,4.0,4.0,141.0,0.0,141.0,0.0,0.0,1198.0,31.0,132.0,48.0,272.0,20.0,0.0,44.0,54.0,4.0,675.0,138.0,79.0
470011,0.0,4.0,1.0,364.0,155.0,158.0,37.0,0.0,1329.0,95.0,136.0,98.0,293.0,31.0,107.0,80.0,144.0,18.0,695.0,169.0,180.0
606223,15.0,22.0,13.0,389.0,0.0,158.0,40.0,0.0,1162.0,113.0,152.0,257.0,310.0,72.0,103.0,254.0,306.0,4.0,766.0,158.0,222.0
642074,20.0,26.0,18.0,651.0,465.0,296.0,82.0,4.0,1045.0,183.0,261.0,456.0,543.0,92.0,243.0,432.0,576.0,34.0,1284.0,309.0,357.0
566580,14.0,26.0,14.0,476.0,155.0,205.0,64.0,0.0,1147.0,143.0,184.0,319.0,393.0,72.0,173.0,311.0,396.0,14.0,951.0,213.0,257.0
588206,0.0,0.0,0.0,289.0,0.0,8.0,11.0,0.0,0.0,80.0,2.0,0.0,9.0,3.0,35.0,0.0,0.0,2.0,21.0,5.0,162.0
492698,0.0,6.0,0.0,581.0,0.0,52.0,48.0,0.0,119.0,159.0,20.0,0.0,71.0,50.0,142.0,0.0,0.0,22.0,133.0,63.0,303.0
652567,0.0,0.0,0.0,154.0,0.0,8.0,0.0,0.0,0.0,44.0,2.0,0.0,12.0,8.0,0.0,0.0,0.0,4.0,21.0,12.0,87.0
590287,0.0,6.0,0.0,405.0,0.0,39.0,25.0,0.0,138.0,106.0,12.0,0.0,51.0,36.0,70.0,0.0,0.0,14.0,104.0,37.0,193.0
graph,51.0,58.0,57.0,2442.0,620.0,1161.0,192.0,4.0,8755.0,660.0,1077.0,1130.0,2205.0,243.0,558.0,1057.0,1386.0,70.0,5374.0,1175.0,1279.0
