Vertex,0111101011001000,0100101101000100,0111100010011010,0110100010010010,0110100110000100,0101101001011010,0110101111000100,0110101011010010,0101101101001100,0111100110001100,0111100010001000,0100101001010010,0101101001001000,0110100110010110
573706,121.0,2.0,16.0,82.0,153.0,28.0,52.0,28.0,8.0,40.0,93.0,14.0,37.0,70.0
650988,121.0,2.0,16.0,110.0,199.0,0.0,52.0,28.0,8.0,40.0,93.0,21.0,42.0,0.0
520883,121.0,8.0,16.0,153.0,297.0,28.0,52.0,28.0,8.0,40.0,188.0,19.0,82.0,70.0
524974,20.0,4.0,2.0,47.0,101.0,14.0,9.0,5.0,2.0,8.0,45.0,9.0,25.0,35.0
535718,19.0,4.0,2.0,47.0,101.0,14.0,9.0,5.0,2.0,8.0,45.0,9.0,26.0,35.0
557269,10.0,2.0,2.0,74.0,141.0,14.0,4.0,2.0,0.0,2.0,87.0,11.0,41.0,35.0
555275,10.0,2.0,2.0,80.0,151.0,14.0,4.0,2.0,0.0,2.0,87.0,17.0,42.0,35.0
539877,21.0,2.0,2.0,44.0,92.0,0.0,9.0,5.0,2.0,8.0,30.0,10.0,16.0,0.0
585153,21.0,2.0,2.0,52.0,96.0,0.0,9.0,5.0,2.0,8.0,30.0,14.0,20.0,0.0
577231,10.0,0.0,2.0,27.0,63.0,0.0,4.0,2.0,0.0,2.0,72.0,0.0,18.0,0.0
472953,10.0,0.0,2.0,51.0,111.0,0.0,4.0,2.0,0.0,2.0,72.0,6.0,26.0,0.0
533969,0.0,2.0,0.0,32.0,57.0,0.0,0.0,0.0,0.0,0.0,15.0,7.0,17.0,0.0
559710,0.0,2.0,0.0,55.0,88.0,0.0,0.0,0.0,0.0,0.0,15.0,17.0,24.0,0.0
636368,0.0,0.0,0.0,44.0,76.0,0.0,0.0,0.0,0.0,0.0,0.0,10.0,16.0,0.0
630844,0.0,0.0,0.0,10.0,14.0,0.0,0.0,0.0,0.0,0.0,0.0,4.0,4.0,0.0
graph,121.0,8.0,16.0,227.0,435.0,28.0,52.0,28.0,8.0,40.0,218.0,42.0,109.0,70.0
