Vertex,0111010101110001000101010,0110010011100110110001100,0110010010100010100100110,0110010010100010100000100,0111010110110011100000100,0111110000100001000010000,0111010100110001000100010,0111110100110001000110010,0111010101110001000001000,0110010011100000100001000,0111110100110001000010000,0110010011100100110001000,0111110110110001100010000
654600,4.0,1.0,2.0,45.0,2.0,48.0,11.0,2.0,9.0,114.0,31.0,20.0,7.0
484853,7.0,1.0,5.0,129.0,1.0,7.0,7.0,0.0,17.0,150.0,3.0,35.0,0.0
640372,2.0,0.0,0.0,29.0,2.0,25.0,23.0,4.0,18.0,66.0,48.0,3.0,7.0
603684,4.0,1.0,4.0,80.0,0.0,43.0,17.0,3.0,18.0,156.0,42.0,21.0,1.0
519834,0.0,0.0,0.0,45.0,0.0,4.0,3.0,0.0,0.0,39.0,0.0,4.0,0.0
648763,2.0,0.0,5.0,72.0,0.0,4.0,8.0,0.0,9.0,95.0,0.0,18.0,0.0
542392,7.0,1.0,2.0,101.0,0.0,45.0,15.0,3.0,32.0,185.0,44.0,34.0,1.0
550157,9.0,1.0,8.0,162.0,2.0,111.0,44.0,5.0,56.0,364.0,92.0,45.0,7.0
502994,0.0,0.0,1.0,46.0,2.0,44.0,14.0,2.0,13.0,101.0,31.0,5.0,7.0
630282,0.0,0.0,1.0,50.0,0.0,57.0,8.0,0.0,8.0,150.0,26.0,5.0,1.0
564324,1.0,0.0,4.0,77.0,0.0,57.0,7.0,0.0,7.0,156.0,26.0,14.0,1.0
514946,2.0,0.0,0.0,22.0,0.0,39.0,13.0,3.0,20.0,83.0,42.0,3.0,1.0
654009,5.0,0.0,2.0,38.0,0.0,40.0,11.0,3.0,34.0,94.0,44.0,16.0,1.0
498583,1.0,0.0,0.0,32.0,0.0,57.0,3.0,0.0,7.0,105.0,26.0,13.0,1.0
517162,0.0,0.0,1.0,40.0,0.0,0.0,5.0,0.0,0.0,51.0,0.0,0.0,0.0
466237,0.0,0.0,0.0,13.0,0.0,0.0,4.0,0.0,0.0,42.0,0.0,0.0,0.0
461125,0.0,0.0,1.0,44.0,1.0,0.0,4.0,0.0,7.0,39.0,0.0,0.0,0.0
558650,0.0,0.0,1.0,78.0,0.0,0.0,5.0,0.0,0.0,64.0,0.0,1.0,0.0
559356,0.0,0.0,2.0,76.0,0.0,0.0,5.0,0.0,8.0,62.0,1.0,2.0,0.0
502053,0.0,0.0,1.0,73.0,0.0,2.0,6.0,0.0,9.0,79.0,2.0,4.0,0.0
644385,1.0,0.0,0.0,31.0,0.0,2.0,6.0,0.0,8.0,81.0,2.0,12.0,0.0
542861,0.0,0.0,0.0,60.0,0.0,0.0,1.0,0.0,0.0,25.0,0.0,0.0,0.0
524479,0.0,0.0,0.0,20.0,0.0,0.0,0.0,0.0,0.0,7.0,0.0,0.0,0.0
522858,0.0,0.0,0.0,22.0,0.0,0.0,0.0,0.0,0.0,7.0,0.0,0.0,0.0
graph,9.0,1.0,8.0,277.0,2.0,117.0,44.0,5.0,56.0,463.0,92.0,51.0,7.0
