Vertex,0111101011011010,0110100110010110,0100101101000100,0101101001011010,0101101001001000,0110101011010010,0111100010011010,0111100110011110,0111100010001000,0100101001010010,0111101011001000,0111101111001100,0101101101001100,0110101111000100,0111100110001100,0110101111010110,0110100110000100,0110100010010010
512849,0.0,70.0,2.0,24.0,42.0,10.0,10.0,0.0,199.0,4.0,50.0,0.0,0.0,20.0,10.0,0.0,135.0,61.0
626188,0.0,35.0,2.0,10.0,34.0,0.0,0.0,0.0,15.0,2.0,0.0,0.0,0.0,0.0,0.0,0.0,113.0,54.0
460726,0.0,35.0,0.0,10.0,24.0,10.0,10.0,0.0,184.0,0.0,50.0,0.0,0.0,20.0,10.0,0.0,84.0,42.0
578226,0.0,35.0,2.0,14.0,36.0,5.0,2.0,0.0,15.0,4.0,20.0,0.0,2.0,9.0,8.0,0.0,122.0,54.0
547439,14.0,35.0,0.0,14.0,28.0,23.0,20.0,1.0,144.0,4.0,110.0,18.0,2.0,45.0,26.0,10.0,94.0,43.0
554368,46.0,105.0,2.0,40.0,78.0,73.0,64.0,5.0,431.0,0.0,351.0,54.0,6.0,143.0,82.0,30.0,273.0,123.0
575723,32.0,0.0,0.0,0.0,14.0,31.0,28.0,4.0,104.0,2.0,150.0,36.0,2.0,61.0,34.0,20.0,71.0,29.0
528343,14.0,0.0,0.0,0.0,14.0,35.0,32.0,1.0,96.0,2.0,170.0,18.0,2.0,69.0,38.0,10.0,51.0,25.0
508413,32.0,0.0,0.0,0.0,13.0,31.0,28.0,4.0,104.0,2.0,151.0,36.0,2.0,61.0,34.0,20.0,71.0,29.0
583699,14.0,0.0,0.0,0.0,12.0,18.0,18.0,1.0,144.0,0.0,90.0,18.0,0.0,36.0,18.0,10.0,50.0,20.0
532434,16.0,35.0,0.0,16.0,27.0,23.0,20.0,2.0,144.0,4.0,110.0,18.0,2.0,45.0,26.0,10.0,105.0,49.0
623295,16.0,35.0,0.0,16.0,27.0,23.0,20.0,2.0,144.0,4.0,111.0,18.0,2.0,45.0,26.0,10.0,105.0,49.0
575272,0.0,35.0,0.0,16.0,31.0,10.0,4.0,0.0,0.0,4.0,41.0,0.0,4.0,18.0,16.0,0.0,118.0,54.0
graph,46.0,105.0,2.0,40.0,95.0,73.0,64.0,5.0,431.0,8.0,351.0,54.0,6.0,143.0,82.0,30.0,348.0,158.0
