Vertex,0111110110110011100110110,0110010010100010100000100,0110010011100110110001100,0110010010100010100100110,0111110000100001000010000,0111110110110101110010000,0111110111110111110011100,0111110111110101110011000,0111110110110011100010100,0111010100110001000100010,0111110100110001000110010,0111110100110001000010000,0111010110110011100000100,0110010011100000100001000,0111110111110001100011000,0111010101110001000001000,0111010101110001000101010,0110010011100100110001000,0111110110110001100010000,0111010110110011100100110
480518,2.0,121.0,5.0,14.0,62.0,0.0,0.0,2.0,4.0,20.0,0.0,31.0,22.0,240.0,5.0,48.0,10.0,86.0,35.0,5.0
483282,2.0,125.0,1.0,11.0,16.0,17.0,1.0,6.0,12.0,66.0,0.0,62.0,49.0,154.0,7.0,137.0,20.0,48.0,71.0,9.0
509240,0.0,71.0,0.0,2.0,1.0,0.0,0.0,0.0,0.0,12.0,0.0,2.0,8.0,94.0,0.0,18.0,2.0,16.0,1.0,0.0
642156,0.0,88.0,3.0,16.0,59.0,1.0,0.0,1.0,4.0,13.0,0.0,29.0,11.0,208.0,5.0,40.0,13.0,89.0,23.0,4.0
559691,0.0,84.0,0.0,2.0,40.0,1.0,0.0,1.0,5.0,16.0,1.0,34.0,8.0,145.0,0.0,55.0,7.0,20.0,21.0,0.0
633067,0.0,81.0,0.0,13.0,54.0,1.0,0.0,1.0,4.0,17.0,0.0,26.0,14.0,184.0,5.0,39.0,2.0,32.0,23.0,0.0
573171,1.0,123.0,2.0,15.0,28.0,17.0,1.0,6.0,10.0,53.0,1.0,66.0,35.0,189.0,3.0,124.0,27.0,56.0,44.0,5.0
558899,0.0,54.0,0.0,0.0,8.0,2.0,0.0,0.0,0.0,8.0,0.0,11.0,2.0,66.0,0.0,44.0,3.0,11.0,14.0,0.0
592700,1.0,109.0,4.0,13.0,49.0,17.0,1.0,6.0,4.0,36.0,0.0,46.0,27.0,207.0,3.0,88.0,17.0,79.0,40.0,6.0
495690,0.0,187.0,3.0,27.0,8.0,2.0,0.0,0.0,0.0,25.0,0.0,8.0,8.0,219.0,0.0,38.0,10.0,86.0,3.0,4.0
595785,2.0,156.0,3.0,18.0,11.0,9.0,1.0,2.0,11.0,44.0,1.0,35.0,33.0,211.0,0.0,100.0,19.0,88.0,32.0,7.0
570191,2.0,179.0,5.0,24.0,96.0,8.0,1.0,4.0,13.0,52.0,1.0,68.0,47.0,359.0,7.0,108.0,26.0,143.0,67.0,9.0
538679,0.0,162.0,1.0,26.0,10.0,1.0,0.0,1.0,3.0,27.0,1.0,18.0,16.0,214.0,0.0,53.0,15.0,72.0,12.0,2.0
541345,0.0,71.0,0.0,0.0,6.0,1.0,0.0,0.0,0.0,11.0,0.0,9.0,4.0,67.0,0.0,22.0,3.0,14.0,4.0,0.0
604993,0.0,98.0,1.0,8.0,50.0,1.0,0.0,0.0,0.0,15.0,0.0,26.0,6.0,177.0,0.0,23.0,7.0,42.0,11.0,0.0
541992,0.0,64.0,0.0,3.0,48.0,1.0,0.0,0.0,0.0,9.0,0.0,24.0,4.0,138.0,0.0,21.0,3.0,24.0,11.0,0.0
613301,0.0,84.0,2.0,11.0,55.0,2.0,0.0,0.0,0.0,10.0,0.0,33.0,0.0,179.0,0.0,43.0,6.0,66.0,15.0,4.0
534365,0.0,112.0,0.0,10.0,6.0,2.0,0.0,0.0,0.0,17.0,0.0,10.0,4.0,145.0,0.0,35.0,6.0,28.0,6.0,0.0
556814,0.0,174.0,0.0,25.0,7.0,0.0,0.0,0.0,0.0,35.0,0.0,2.0,6.0,177.0,0.0,10.0,2.0,46.0,0.0,0.0
483856,0.0,67.0,0.0,2.0,1.0,2.0,0.0,0.0,0.0,9.0,0.0,5.0,6.0,102.0,0.0,29.0,2.0,19.0,2.0,0.0
graph,2.0,442.0,6.0,48.0,123.0,17.0,1.0,6.0,14.0,99.0,1.0,109.0,62.0,695.0,7.0,215.0,40.0,213.0,87.0,11.0
