Vertex,0110101011010010,0111101011001000,0100101101000100,0101101001001000,0110100110000100,0110100010010010,0111101111001100,0111100110001100,0111100010011010,0111101011011010,0100101001010010,0111100110011110,0111100010001000,0110101111010110,0110101111000100,0101101101001100
624722,4.0,20.0,2.0,48.0,161.0,82.0,0.0,4.0,4.0,0.0,23.0,0.0,79.0,0.0,8.0,0.0
474254,0.0,0.0,4.0,35.0,103.0,55.0,0.0,0.0,0.0,0.0,22.0,0.0,30.0,0.0,0.0,0.0
570090,0.0,0.0,6.0,52.0,155.0,93.0,0.0,0.0,0.0,0.0,40.0,0.0,53.0,0.0,0.0,0.0
545211,17.0,81.0,8.0,85.0,299.0,162.0,18.0,20.0,14.0,14.0,35.0,1.0,164.0,10.0,33.0,2.0
644784,0.0,0.0,2.0,17.0,77.0,35.0,0.0,0.0,0.0,0.0,9.0,0.0,15.0,0.0,0.0,0.0
523480,0.0,0.0,0.0,4.0,44.0,18.0,0.0,0.0,0.0,0.0,7.0,0.0,0.0,0.0,0.0,0.0
582608,6.0,30.0,0.0,14.0,57.0,23.0,18.0,6.0,6.0,14.0,0.0,1.0,48.0,10.0,12.0,0.0
545261,11.0,51.0,0.0,32.0,110.0,58.0,18.0,14.0,8.0,14.0,16.0,1.0,48.0,10.0,21.0,2.0
585661,4.0,20.0,0.0,22.0,97.0,45.0,0.0,4.0,4.0,0.0,6.0,0.0,64.0,0.0,8.0,0.0
521142,17.0,81.0,0.0,15.0,58.0,28.0,18.0,20.0,14.0,14.0,2.0,1.0,24.0,10.0,33.0,2.0
592642,4.0,20.0,8.0,68.0,253.0,137.0,0.0,4.0,4.0,0.0,34.0,0.0,132.0,0.0,8.0,0.0
579039,5.0,21.0,2.0,30.0,97.0,55.0,0.0,8.0,2.0,0.0,22.0,0.0,15.0,0.0,9.0,2.0
530492,0.0,0.0,0.0,0.0,40.0,12.0,0.0,0.0,0.0,0.0,6.0,0.0,0.0,0.0,0.0,0.0
589789,0.0,0.0,4.0,22.0,97.0,44.0,0.0,0.0,0.0,0.0,7.0,0.0,38.0,0.0,0.0,0.0
571702,0.0,0.0,0.0,6.0,51.0,22.0,0.0,0.0,0.0,0.0,7.0,0.0,0.0,0.0,0.0,0.0
463597,0.0,0.0,4.0,22.0,97.0,46.0,0.0,0.0,0.0,0.0,10.0,0.0,38.0,0.0,0.0,0.0
550488,0.0,0.0,0.0,16.0,76.0,41.0,0.0,0.0,0.0,0.0,10.0,0.0,0.0,0.0,0.0,0.0
graph,17.0,81.0,10.0,122.0,468.0,239.0,18.0,20.0,14.0,14.0,64.0,1.0,187.0,10.0,33.0,2.0
