Vertex,0100101101010110,0101101101001100,0111100110011110,0111100010011010,0100101001010010,0101101101011110,0111101011011010,0110101011010010,0110100010010010,0110100110000100,0101101001001000,0101101001011010,0111100110001100,0111101011001000,0110100110010110,0110101111010110,0110101111000100,0111101111001100,0111100010001000,0100101101000100
581446,2.0,10.0,0.0,43.0,44.0,0.0,12.0,43.0,118.0,217.0,52.0,0.0,58.0,145.0,0.0,10.0,65.0,18.0,94.0,4.0
516658,8.0,12.0,6.0,70.0,79.0,6.0,51.0,60.0,200.0,377.0,91.0,43.0,93.0,242.0,138.0,51.0,102.0,54.0,188.0,8.0
509879,2.0,14.0,6.0,61.0,51.0,6.0,51.0,75.0,184.0,353.0,81.0,19.0,100.0,299.0,72.0,51.0,127.0,54.0,241.0,10.0
484173,2.0,10.0,0.0,44.0,40.0,0.0,0.0,37.0,110.0,206.0,45.0,0.0,50.0,113.0,0.0,0.0,53.0,0.0,8.0,0.0
493999,0.0,0.0,0.0,8.0,47.0,0.0,0.0,8.0,118.0,209.0,58.0,22.0,17.0,52.0,70.0,0.0,19.0,0.0,117.0,4.0
648801,2.0,2.0,2.0,27.0,25.0,1.0,18.0,23.0,103.0,204.0,54.0,21.0,34.0,118.0,68.0,17.0,47.0,18.0,134.0,0.0
578023,4.0,10.0,2.0,30.0,39.0,2.0,18.0,39.0,112.0,219.0,57.0,12.0,40.0,113.0,33.0,17.0,53.0,18.0,77.0,0.0
621812,4.0,16.0,6.0,56.0,36.0,6.0,51.0,74.0,110.0,210.0,67.0,12.0,81.0,260.0,33.0,51.0,116.0,54.0,104.0,0.0
616047,4.0,10.0,0.0,48.0,69.0,0.0,0.0,37.0,157.0,273.0,66.0,12.0,52.0,117.0,33.0,0.0,53.0,0.0,47.0,4.0
595173,2.0,10.0,1.0,56.0,34.0,0.0,14.0,47.0,150.0,275.0,55.0,0.0,70.0,196.0,0.0,10.0,83.0,18.0,94.0,0.0
635540,0.0,2.0,0.0,6.0,2.0,0.0,0.0,9.0,30.0,80.0,16.0,0.0,15.0,42.0,0.0,0.0,17.0,0.0,93.0,6.0
480934,0.0,2.0,0.0,6.0,19.0,0.0,0.0,9.0,78.0,150.0,40.0,10.0,15.0,40.0,37.0,0.0,17.0,0.0,117.0,10.0
575753,8.0,22.0,7.0,91.0,61.0,5.0,53.0,93.0,226.0,448.0,124.0,32.0,114.0,357.0,103.0,51.0,157.0,54.0,229.0,10.0
602193,0.0,8.0,3.0,39.0,10.0,1.0,32.0,38.0,78.0,167.0,30.0,11.0,53.0,169.0,35.0,27.0,71.0,36.0,55.0,0.0
538841,0.0,0.0,0.0,8.0,4.0,0.0,0.0,8.0,58.0,112.0,32.0,11.0,8.0,40.0,35.0,0.0,16.0,0.0,88.0,0.0
646807,2.0,4.0,3.0,27.0,8.0,1.0,32.0,26.0,72.0,146.0,34.0,0.0,31.0,114.0,0.0,27.0,48.0,36.0,55.0,0.0
532343,0.0,4.0,0.0,4.0,0.0,0.0,0.0,10.0,48.0,94.0,22.0,11.0,13.0,35.0,35.0,0.0,16.0,0.0,15.0,0.0
graph,10.0,34.0,9.0,156.0,142.0,7.0,83.0,159.0,488.0,935.0,231.0,54.0,211.0,613.0,173.0,78.0,265.0,90.0,439.0,14.0
