Vertex,0111110100110001000010000,0111110110110001100010000,0110010011100110110001100,0111110000100001000010000,0110010010100010100000100,0110010011100000100001000,0111010101110001000101010,0111110111110001100011000,0111110110110011100110110,0110010011100100110001000,0111010110110011100000100,0110010010100010100100110,0111110110110011100010100,0111010101110001000001000,0111110100110001000110010,0111010100110001000100010
489998,0.0,0.0,0.0,0.0,36.0,10.0,0.0,0.0,0.0,5.0,0.0,0.0,0.0,0.0,0.0,5.0
581642,3.0,2.0,0.0,0.0,54.0,67.0,3.0,0.0,0.0,13.0,3.0,0.0,0.0,20.0,0.0,18.0
578905,1.0,0.0,0.0,0.0,57.0,43.0,0.0,0.0,0.0,5.0,1.0,0.0,0.0,8.0,0.0,11.0
642111,66.0,15.0,0.0,31.0,80.0,117.0,3.0,0.0,0.0,14.0,7.0,0.0,3.0,24.0,6.0,27.0
564688,56.0,29.0,0.0,23.0,61.0,85.0,3.0,0.0,0.0,11.0,13.0,0.0,6.0,30.0,12.0,30.0
546321,0.0,0.0,0.0,0.0,41.0,20.0,0.0,0.0,0.0,3.0,0.0,0.0,0.0,0.0,0.0,7.0
510142,6.0,9.0,1.0,5.0,58.0,52.0,3.0,0.0,0.0,8.0,3.0,0.0,0.0,22.0,0.0,14.0
517121,60.0,28.0,0.0,30.0,32.0,63.0,1.0,3.0,0.0,5.0,6.0,0.0,7.0,34.0,10.0,16.0
564950,151.0,82.0,0.0,68.0,112.0,215.0,6.0,4.0,1.0,19.0,36.0,2.0,22.0,90.0,26.0,76.0
656528,55.0,29.0,0.0,23.0,31.0,60.0,1.0,0.0,0.0,1.0,11.0,0.0,6.0,26.0,12.0,25.0
563249,2.0,1.0,0.0,0.0,19.0,54.0,0.0,0.0,0.0,1.0,9.0,0.0,2.0,16.0,0.0,18.0
613013,62.0,25.0,0.0,21.0,34.0,58.0,1.0,0.0,0.0,3.0,7.0,0.0,7.0,29.0,10.0,16.0
556059,53.0,28.0,0.0,44.0,26.0,83.0,3.0,3.0,1.0,10.0,10.0,1.0,5.0,14.0,4.0,16.0
563852,49.0,57.0,1.0,13.0,78.0,94.0,6.0,4.0,1.0,11.0,25.0,0.0,16.0,46.0,14.0,41.0
594639,53.0,32.0,1.0,34.0,54.0,97.0,4.0,3.0,0.0,9.0,9.0,2.0,9.0,28.0,7.0,21.0
513960,51.0,34.0,0.0,33.0,40.0,74.0,3.0,3.0,1.0,10.0,11.0,1.0,10.0,23.0,7.0,23.0
591154,60.0,23.0,0.0,21.0,29.0,55.0,1.0,0.0,0.0,1.0,6.0,0.0,7.0,22.0,10.0,17.0
467136,54.0,27.0,0.0,23.0,26.0,47.0,0.0,0.0,0.0,2.0,5.0,0.0,5.0,21.0,12.0,17.0
643624,0.0,2.0,1.0,0.0,69.0,46.0,6.0,0.0,0.0,11.0,6.0,2.0,0.0,15.0,0.0,12.0
485076,8.0,7.0,1.0,1.0,58.0,70.0,6.0,0.0,1.0,13.0,17.0,2.0,5.0,22.0,0.0,25.0
graph,158.0,86.0,1.0,74.0,199.0,282.0,10.0,4.0,1.0,31.0,37.0,2.0,22.0,98.0,26.0,87.0
