Vertex,0110101111000100,0110100110010110,0101101101001100,0111100110001100,0101101001011010,0110100110000100,0100101101000100,0101101001001000,0100101001010010,0111100110011110,0110101111010110,0111100010011010,0111101111001100,0111101011001000,0111100010001000,0101101101011110,0111101011011010,0110101011010010,0100101101010110,0110100010010010
483038,0.0,0.0,0.0,0.0,0.0,111.0,0.0,26.0,14.0,0.0,0.0,0.0,0.0,0.0,0.0,0.0,0.0,0.0,0.0,67.0
607307,24.0,0.0,0.0,12.0,0.0,202.0,0.0,52.0,6.0,0.0,0.0,12.0,0.0,60.0,240.0,0.0,0.0,12.0,0.0,94.0
644352,21.0,0.0,6.0,16.0,0.0,172.0,6.0,37.0,20.0,0.0,0.0,4.0,0.0,38.0,69.0,0.0,0.0,17.0,0.0,86.0
561428,366.0,175.0,60.0,236.0,65.0,972.0,30.0,273.0,50.0,9.0,88.0,141.0,108.0,794.0,841.0,8.0,102.0,240.0,2.0,487.0
498114,159.0,210.0,26.0,105.0,70.0,402.0,12.0,101.0,23.0,4.0,44.0,54.0,54.0,347.0,412.0,3.0,50.0,101.0,0.0,201.0
486049,47.0,105.0,14.0,34.0,41.0,227.0,14.0,61.0,7.0,0.0,0.0,10.0,0.0,91.0,153.0,0.0,0.0,39.0,0.0,98.0
647997,153.0,348.0,26.0,106.0,118.0,385.0,20.0,99.0,31.0,5.0,51.0,57.0,54.0,335.0,386.0,5.0,56.0,97.0,2.0,195.0
588432,233.0,383.0,42.0,148.0,139.0,625.0,34.0,181.0,47.0,7.0,78.0,95.0,90.0,492.0,627.0,9.0,86.0,159.0,4.0,310.0
470154,22.0,35.0,4.0,14.0,14.0,208.0,10.0,56.0,30.0,0.0,0.0,8.0,0.0,46.0,188.0,0.0,0.0,14.0,0.0,106.0
562882,35.0,70.0,10.0,28.0,25.0,298.0,10.0,76.0,35.0,0.0,0.0,15.0,0.0,68.0,108.0,0.0,0.0,27.0,0.0,151.0
586445,190.0,315.0,36.0,118.0,117.0,440.0,20.0,121.0,29.0,7.0,78.0,64.0,90.0,397.0,441.0,8.0,84.0,134.0,0.0,219.0
500802,53.0,35.0,2.0,32.0,11.0,244.0,2.0,58.0,13.0,2.0,10.0,31.0,18.0,130.0,216.0,0.0,17.0,27.0,0.0,114.0
608406,64.0,173.0,12.0,46.0,60.0,226.0,12.0,60.0,14.0,2.0,17.0,35.0,18.0,140.0,194.0,2.0,19.0,42.0,4.0,108.0
483090,80.0,35.0,12.0,53.0,10.0,224.0,10.0,64.0,14.0,4.0,34.0,45.0,36.0,178.0,147.0,5.0,36.0,48.0,4.0,111.0
641222,22.0,35.0,4.0,14.0,10.0,210.0,8.0,60.0,6.0,0.0,0.0,8.0,0.0,46.0,164.0,0.0,0.0,14.0,0.0,102.0
610720,43.0,138.0,10.0,30.0,50.0,300.0,18.0,85.0,40.0,0.0,0.0,12.0,0.0,84.0,257.0,0.0,0.0,31.0,0.0,156.0
506362,24.0,35.0,0.0,12.0,10.0,210.0,0.0,60.0,0.0,0.0,0.0,12.0,0.0,60.0,240.0,0.0,0.0,12.0,0.0,102.0
643318,0.0,0.0,0.0,0.0,0.0,179.0,6.0,55.0,32.0,0.0,0.0,0.0,0.0,0.0,39.0,0.0,0.0,0.0,0.0,109.0
643780,90.0,0.0,4.0,54.0,0.0,157.0,0.0,34.0,3.0,2.0,10.0,47.0,18.0,220.0,136.0,0.0,17.0,46.0,0.0,67.0
490506,24.0,0.0,0.0,12.0,0.0,284.0,2.0,85.0,24.0,0.0,0.0,12.0,0.0,60.0,255.0,0.0,0.0,12.0,0.0,146.0
584591,53.0,0.0,2.0,30.0,0.0,208.0,0.0,54.0,4.0,2.0,10.0,24.0,18.0,130.0,192.0,0.0,17.0,27.0,0.0,99.0
541188,0.0,0.0,0.0,0.0,0.0,85.0,2.0,26.0,6.0,0.0,0.0,0.0,0.0,0.0,15.0,0.0,0.0,0.0,0.0,44.0
562838,9.0,0.0,2.0,8.0,0.0,79.0,0.0,20.0,4.0,0.0,0.0,2.0,0.0,20.0,0.0,0.0,0.0,5.0,0.0,44.0
637499,0.0,0.0,0.0,0.0,0.0,14.0,0.0,4.0,4.0,0.0,0.0,0.0,0.0,0.0,0.0,0.0,0.0,0.0,0.0,14.0
531277,0.0,0.0,0.0,0.0,0.0,14.0,0.0,4.0,4.0,0.0,0.0,0.0,0.0,0.0,0.0,0.0,0.0,0.0,0.0,10.0
graph,428.0,523.0,68.0,277.0,185.0,1619.0,54.0,438.0,115.0,11.0,105.0,172.0,126.0,934.0,1330.0,10.0,121.0,276.0,4.0,810.0
