Vertex,0111110111110001100011000,0111110110110001100010000,0111110110110011100010100,0110010010100010100000100,0111010110110011100000100,0111010101110001000101010,0110010011100000100001000,0111010100110001000100010,0110010011100100110001000,0111110100110001000110010,0111110000100001000010000,0111010101110001000001000,0111110100110001000010000
478510,1.0,7.0,1.0,16.0,4.0,2.0,35.0,7.0,4.0,1.0,4.0,12.0,6.0
501829,1.0,11.0,2.0,22.0,7.0,3.0,27.0,20.0,3.0,3.0,2.0,20.0,6.0
463246,0.0,0.0,0.0,13.0,2.0,2.0,17.0,3.0,3.0,0.0,0.0,6.0,1.0
573346,0.0,4.0,0.0,11.0,0.0,2.0,18.0,13.0,3.0,0.0,2.0,8.0,4.0
487330,0.0,3.0,0.0,13.0,1.0,2.0,7.0,6.0,3.0,3.0,1.0,9.0,3.0
562476,1.0,7.0,1.0,3.0,2.0,0.0,23.0,5.0,2.0,1.0,4.0,6.0,5.0
554165,1.0,7.0,2.0,10.0,5.0,1.0,21.0,10.0,1.0,1.0,3.0,5.0,5.0
528343,0.0,2.0,2.0,18.0,3.0,2.0,16.0,9.0,3.0,0.0,1.0,8.0,5.0
615892,0.0,0.0,0.0,5.0,2.0,0.0,18.0,2.0,1.0,0.0,0.0,4.0,1.0
561428,1.0,11.0,2.0,18.0,7.0,2.0,20.0,15.0,4.0,3.0,2.0,20.0,6.0
631075,0.0,3.0,0.0,6.0,1.0,1.0,8.0,4.0,0.0,3.0,1.0,10.0,3.0
535781,0.0,0.0,0.0,17.0,1.0,2.0,4.0,11.0,3.0,0.0,0.0,2.0,0.0
607233,0.0,0.0,0.0,8.0,0.0,1.0,6.0,10.0,0.0,0.0,0.0,0.0,0.0
graph,1.0,11.0,2.0,32.0,7.0,4.0,44.0,23.0,6.0,3.0,4.0,22.0,9.0
