0110010011100000100001000: 506204 618119 614146 516536 563920
0110010011100000100001000: 618119 516536 563920 632674 585161
0110010011100000100001000: 618119 516536 563920 540408 585161
0110010011100000100001000: 618119 516536 563920 507334 585161
0110010011100000100001000: 618119 516536 563920 507334 632674
0110010011100000100001000: 618119 516536 563920 507334 540408
0110010011100000100001000: 618119 516536 563920 605191 632674
0110010011100000100001000: 618119 516536 563920 605191 540408
0110010011100100110001000: 618119 516536 563920 507599 585161
0110010011100100110001000: 618119 516536 563920 507599 632674
0110010011100100110001000: 618119 516536 563920 507599 540408
0110010011100100110001000: 618119 516536 563920 507599 507334
0110010011100100110001000: 618119 516536 563920 507599 605191
0110010011100000100001000: 618119 516536 506204 632674 585161
0110010011100000100001000: 618119 516536 506204 540408 585161
0110010011100000100001000: 618119 516536 506204 507599 585161
0110010011100000100001000: 618119 516536 506204 507599 632674
0110010011100000100001000: 618119 516536 506204 507599 540408
0110010011100000100001000: 618119 516536 506204 507334 585161
0110010011100000100001000: 618119 516536 506204 507334 632674
0110010011100000100001000: 618119 516536 506204 507334 540408
0110010011100000100001000: 618119 516536 506204 507334 507599
0110010011100000100001000: 618119 516536 506204 605191 632674
0110010011100000100001000: 618119 516536 506204 605191 540408
0110010011100000100001000: 618119 516536 506204 605191 507599
0110010010100010100000100: 618119 506204 563920 614146 507599
0110010010100010100000100: 618119 506204 516536 614146 585161
0110010010100010100000100: 618119 506204 516536 614146 632674
0110010010100010100000100: 618119 506204 516536 614146 540408
0110010010100010100000100: 618119 506204 516536 614146 507599
0110010010100010100000100: 618119 506204 516536 614146 507334
0110010010100010100000100: 618119 506204 516536 614146 605191
0110010011100000100001000: 546390 585161 576184 559536 558676
0110010011100000100001000: 546390 585161 576184 516536 558676
0110010011100000100001000: 546390 585161 576184 516536 559536
0110010011100000100001000: 546390 585161 576184 605191 558676
0110010011100000100001000: 546390 585161 576184 605191 559536
0110010010100010100000100: 546390 576184 585161 632674 558676
0110010010100010100000100: 546390 576184 585161 632674 559536
0110010010100010100000100: 546390 576184 585161 632674 605191
0110010010100010100100110: 546390 576184 585161 632674 516536
0110010011100000100001000: 546390 576184 585161 617380 632674
0110010010100010100000100: 546390 576184 585161 617380 558676
0110010010100010100000100: 546390 576184 585161 617380 559536
0110010010100010100000100: 546390 576184 585161 617380 516536
0110010010100010100000100: 546390 576184 585161 617380 605191
0110010011100100110001000: 576184 632674 617380 626564 540408
0110010011100100110001000: 576184 632674 617380 626564 516536
0110010011100000100001000: 576184 632674 546390 540408 626564
0110010011100000100001000: 576184 632674 546390 516536 626564
0110010010100010100000100: 576184 617380 632674 533626 516536
0110010010100010100100110: 576184 617380 632674 533626 540408
0110010011100100110001000: 576184 617380 632674 626564 533626
0110010011100000100001000: 576184 617380 546390 533626 626564
0110010010100010100000100: 576184 546390 632674 585161 626564
0110010010100010100000100: 576184 546390 632674 585161 540408
0110010010100010100000100: 576184 546390 617380 585161 626564
0110010010100010100000100: 576184 546390 617380 585161 533626
0110010011100000100001000: 605191 585161 507334 546390 558676
0110010011100100110001000: 605191 585161 507334 559536 558676
0110010011100100110001000: 605191 585161 507334 559536 546390
0111010110110011100000100: 605191 516536 585161 507334 558676
0111010110110011100000100: 605191 516536 585161 507334 546390
0111010110110011100100110: 605191 516536 507334 585161 559536
0110010011100100110001000: 507334 559536 516536 585161 656753
0110010011100100110001000: 507334 559536 605191 585161 656753
0110010010100010100000100: 507334 516536 559536 632674 656753
0110010010100010100000100: 507334 516536 559536 540408 656753
0110010011100000100001000: 507334 516536 559536 507599 632674
0110010011100000100001000: 507334 516536 559536 507599 540408
0110010010100010100000100: 507334 516536 559536 507599 656753
0110010011100000100001000: 507334 516536 559536 618119 632674
0110010011100000100001000: 507334 516536 559536 618119 540408
0110010011100000100001000: 507334 516536 559536 618119 507599
0110010010100010100000100: 507334 516536 559536 618119 656753
0110010011100100110001000: 507334 516536 559536 585161 632674
0110010011100100110001000: 507334 516536 559536 585161 540408
0110010011100100110001000: 507334 516536 559536 585161 507599
0110010011100100110001000: 507334 516536 559536 585161 618119
0111010101110001000001000: 507334 516536 605191 559536 632674
0111010101110001000001000: 507334 516536 605191 559536 540408
0111010101110001000001000: 507334 516536 605191 559536 507599
0111010101110001000001000: 507334 516536 605191 559536 618119
0111010100110001000100010: 507334 605191 516536 559536 656753
0110010011100000100001000: 516536 585161 632674 559536 558676
0110010011100000100001000: 516536 585161 632674 546390 558676
0110010011100000100001000: 516536 585161 632674 546390 559536
0110010011100000100001000: 516536 585161 540408 559536 558676
0110010011100000100001000: 516536 585161 540408 546390 558676
0110010011100000100001000: 516536 585161 540408 546390 559536
0110010011100000100001000: 516536 585161 507599 559536 558676
0110010011100000100001000: 516536 585161 507599 546390 558676
0110010011100000100001000: 516536 585161 507599 546390 559536
0110010011100000100001000: 516536 585161 507334 546390 558676
0110010011100100110001000: 516536 585161 507334 559536 558676
0110010011100100110001000: 516536 585161 507334 559536 546390
0110010011100000100001000: 516536 585161 618119 559536 558676
0110010011100000100001000: 516536 585161 618119 546390 558676
0110010011100000100001000: 516536 585161 618119 546390 559536
0111010101110001000001000: 516536 585161 605191 632674 558676
0111010101110001000001000: 516536 585161 605191 632674 559536
0111010101110001000001000: 516536 585161 605191 632674 546390
0111010101110001000001000: 516536 585161 605191 540408 558676
0111010101110001000001000: 516536 585161 605191 540408 559536
0111010101110001000001000: 516536 585161 605191 540408 546390
0111010101110001000001000: 516536 585161 605191 507599 558676
0111010101110001000001000: 516536 585161 605191 507599 559536
0111010101110001000001000: 516536 585161 605191 507599 546390
0111010101110001000001000: 516536 585161 605191 618119 558676
0111010101110001000001000: 516536 585161 605191 618119 559536
0111010101110001000001000: 516536 585161 605191 618119 546390
0110010010100010100000100: 516536 632674 585161 626564 558676
0110010010100010100000100: 516536 632674 585161 626564 559536
0110010010100010100000100: 516536 632674 585161 626564 546390
0110010011100000100001000: 516536 632674 585161 576184 626564
0110010010100010100000100: 516536 632674 585161 576184 558676
0110010010100010100000100: 516536 632674 585161 576184 559536
0110010011100000100001000: 516536 632674 507599 576184 626564
0110010011100000100001000: 516536 632674 507334 576184 626564
0110010011100000100001000: 516536 632674 605191 576184 626564
0110010011100000100001000: 516536 632674 618119 576184 626564
0111010101110001000001000: 516536 632674 540408 585161 626564
0111010101110001000001000: 516536 632674 540408 585161 576184
0111010101110001000001000: 516536 632674 540408 507599 626564
0111010101110001000001000: 516536 632674 540408 507599 576184
0111010101110001000001000: 516536 632674 540408 507334 626564
0111010101110001000001000: 516536 632674 540408 507334 576184
0111010101110001000001000: 516536 632674 540408 605191 626564
0111010101110001000001000: 516536 632674 540408 605191 576184
0111010101110001000001000: 516536 632674 540408 618119 626564
0111010101110001000001000: 516536 632674 540408 618119 576184
0110010010100010100000100: 516536 540408 585161 533626 558676
0110010010100010100000100: 516536 540408 585161 533626 559536
0110010010100010100000100: 516536 540408 585161 533626 546390
0111010101110001000001000: 516536 540408 632674 585161 533626
0111010100110001000100010: 516536 540408 632674 585161 558676
0111010100110001000100010: 516536 540408 632674 585161 559536
0111010100110001000100010: 516536 540408 632674 585161 546390
0111110100110001000010000: 516536 540408 632674 507599 585161
0111010101110001000001000: 516536 540408 632674 507599 533626
0111010100110001000100010: 516536 540408 632674 507599 563920
0111110100110001000010000: 516536 540408 632674 507334 585161
0111110100110001000010000: 516536 540408 632674 507334 507599
0111010101110001000001000: 516536 540408 632674 507334 533626
0111010100110001000100010: 516536 540408 632674 507334 559536
0111110100110001000010000: 516536 540408 632674 605191 507599
0111010101110001000001000: 516536 540408 632674 605191 533626
0111110100110001000010000: 516536 540408 632674 618119 585161
0111110100110001000010000: 516536 540408 632674 618119 507599
0111110100110001000010000: 516536 540408 632674 618119 507334
0111110100110001000010000: 516536 540408 632674 618119 605191
0111010101110001000001000: 516536 540408 632674 618119 533626
0111010100110001000100010: 516536 540408 632674 618119 563920
0111010100110001000100010: 516536 540408 632674 618119 506204
0110010010100010100000100: 516536 507599 585161 563920 558676
0110010010100010100000100: 516536 507599 585161 563920 559536
0110010010100010100000100: 516536 507599 585161 563920 546390
0110010010100010100000100: 516536 507599 632674 563920 626564
0110010010100010100000100: 516536 507599 632674 563920 576184
0110010010100010100000100: 516536 507599 540408 563920 533626
0110010010100010100000100: 516536 507334 632674 559536 626564
0110010010100010100000100: 516536 507334 632674 559536 576184
0110010010100010100000100: 516536 507334 540408 559536 533626
0111110000100001000010000: 516536 507334 507599 632674 585161
0111110000100001000010000: 516536 507334 507599 540408 585161
0110010010100010100000100: 516536 507334 507599 559536 563920
0111010100110001000100010: 516536 605191 585161 632674 626564
0111010100110001000100010: 516536 605191 585161 632674 576184
0111010100110001000100010: 516536 605191 585161 540408 533626
0111110100110001000110010: 516536 605191 585161 540408 632674
0111110100110001000010000: 516536 605191 585161 507599 632674
0111110100110001000010000: 516536 605191 585161 507599 540408
0111010100110001000100010: 516536 605191 585161 507599 563920
0111110100110001000010000: 516536 605191 585161 618119 632674
0111110100110001000010000: 516536 605191 585161 618119 540408
0111110100110001000010000: 516536 605191 585161 618119 507599
0111010100110001000100010: 516536 605191 585161 618119 563920
0111010100110001000100010: 516536 605191 585161 618119 506204
0111010100110001000100010: 516536 605191 507334 632674 626564
0111010100110001000100010: 516536 605191 507334 632674 576184
0111010100110001000100010: 516536 605191 507334 540408 533626
0111110100110001000110010: 516536 605191 507334 540408 632674
0111110100110001000010000: 516536 605191 507334 507599 632674
0111110100110001000010000: 516536 605191 507334 507599 540408
0111010100110001000100010: 516536 605191 507334 507599 563920
0111110100110001000010000: 516536 605191 507334 618119 632674
0111110100110001000010000: 516536 605191 507334 618119 540408
0111110100110001000010000: 516536 605191 507334 618119 507599
0111010100110001000100010: 516536 605191 507334 618119 563920
0111010100110001000100010: 516536 605191 507334 618119 506204
0111110110110001100010000: 516536 605191 507334 585161 632674
0111110110110001100010000: 516536 605191 507334 585161 540408
0111110110110001100010000: 516536 605191 507334 585161 507599
0111110110110001100010000: 516536 605191 507334 585161 618119
0110010010100010100000100: 516536 618119 585161 563920 558676
0110010010100010100000100: 516536 618119 585161 563920 559536
0110010010100010100000100: 516536 618119 585161 563920 546390
0110010011100000100001000: 516536 618119 585161 506204 563920
0110010010100010100000100: 516536 618119 585161 506204 558676
0110010010100010100000100: 516536 618119 585161 506204 559536
0110010010100010100000100: 516536 618119 585161 506204 546390
0110010010100010100000100: 516536 618119 632674 563920 626564
0110010010100010100000100: 516536 618119 632674 563920 576184
0110010011100000100001000: 516536 618119 632674 506204 563920
0110010010100010100000100: 516536 618119 632674 506204 626564
0110010010100010100000100: 516536 618119 632674 506204 576184
0110010010100010100000100: 516536 618119 540408 563920 533626
0110010011100000100001000: 516536 618119 540408 506204 563920
0110010010100010100000100: 516536 618119 540408 506204 533626
0111110000100001000010000: 516536 618119 507599 632674 585161
0111110000100001000010000: 516536 618119 507599 540408 585161
0110010011100100110001000: 516536 618119 507599 563920 506204
0111110000100001000010000: 516536 618119 507334 632674 585161
0111110000100001000010000: 516536 618119 507334 540408 585161
0111110000100001000010000: 516536 618119 507334 507599 585161
0111110000100001000010000: 516536 618119 507334 507599 632674
0111110000100001000010000: 516536 618119 507334 507599 540408
0110010010100010100000100: 516536 618119 507334 563920 559536
0110010011100000100001000: 516536 618119 507334 506204 563920
0110010010100010100000100: 516536 618119 507334 506204 559536
0111110000100001000010000: 516536 618119 605191 507599 632674
0111110000100001000010000: 516536 618119 605191 507599 540408
0110010011100000100001000: 516536 618119 605191 506204 563920
0110010011100000100001000: 507599 516536 563920 632674 585161
0110010011100000100001000: 507599 516536 563920 540408 585161
0110010011100000100001000: 507599 516536 563920 507334 585161
0110010011100000100001000: 507599 516536 563920 507334 632674
0110010011100000100001000: 507599 516536 563920 507334 540408
0110010011100000100001000: 507599 516536 563920 605191 632674
0110010011100000100001000: 507599 516536 563920 605191 540408
0110010011100000100001000: 617380 626564 533626 632674 513136
0110010011100100110001000: 617380 626564 576184 632674 513136
0110010010100010100000100: 617380 533626 626564 540408 513136
0110010010100010100100110: 617380 533626 626564 540408 632674
0110010010100010100000100: 617380 576184 626564 546390 513136
0110010011100100110001000: 617380 576184 626564 632674 546390
0110010011100000100001000: 617380 576184 533626 546390 632674
0110010010100010100000100: 617380 576184 533626 546390 540408
0110010010100010100000100: 533626 617380 540408 626564 516536
0110010011100000100001000: 533626 617380 540408 576184 626564
0110010010100010100000100: 533626 617380 540408 576184 516536
0110010011100000100001000: 559536 585161 656753 546390 516536
0110010011100000100001000: 559536 585161 656753 546390 605191
0110010011100100110001000: 559536 585161 656753 558676 516536
0110010011100100110001000: 559536 585161 656753 558676 605191
0110010011100100110001000: 559536 585161 656753 558676 546390
0110010011100000100001000: 559536 585161 507334 546390 558676
0110010010100010100000100: 559536 507334 656753 516536 558676
0110010010100010100000100: 559536 507334 656753 605191 558676
0110010011100100110001000: 656753 559536 558676 585161 507334
0110010011100000100001000: 540408 632674 533626 576184 626564
0111010101110001000001000: 540408 632674 516536 533626 626564
0111010101110001000001000: 540408 632674 516536 533626 576184
0110010010100010100000100: 540408 516536 533626 585161 617380
0110010011100000100001000: 540408 516536 533626 507599 585161
0110010010100010100000100: 540408 516536 533626 507599 617380
0110010011100000100001000: 540408 516536 533626 507334 585161
0110010011100000100001000: 540408 516536 533626 507334 507599
0110010010100010100000100: 540408 516536 533626 507334 617380
0110010011100000100001000: 540408 516536 533626 605191 507599
0110010010100010100000100: 540408 516536 533626 605191 617380
0110010011100000100001000: 540408 516536 533626 618119 585161
0110010011100000100001000: 540408 516536 533626 618119 507599
0110010011100000100001000: 540408 516536 533626 618119 507334
0110010011100000100001000: 540408 516536 533626 618119 605191
0110010010100010100000100: 540408 516536 533626 618119 617380
0111010100110001000100010: 540408 516536 632674 533626 617380
0110010011100000100001000: 632674 626564 540408 617380 513136
0110010011100000100001000: 632674 626564 516536 617380 513136
0110010010100010100000100: 632674 540408 626564 533626 513136
0110010010100010100000100: 632674 516536 626564 585161 513136
0110010010100010100000100: 632674 516536 626564 585161 617380
0110010011100000100001000: 632674 516536 626564 507599 585161
0110010010100010100000100: 632674 516536 626564 507599 513136
0110010010100010100000100: 632674 516536 626564 507599 617380
0110010011100000100001000: 632674 516536 626564 507334 585161
0110010011100000100001000: 632674 516536 626564 507334 507599
0110010010100010100000100: 632674 516536 626564 507334 513136
0110010010100010100000100: 632674 516536 626564 507334 617380
0110010011100000100001000: 632674 516536 626564 605191 507599
0110010010100010100000100: 632674 516536 626564 605191 513136
0110010010100010100000100: 632674 516536 626564 605191 617380
0110010011100000100001000: 632674 516536 626564 618119 585161
0110010011100000100001000: 632674 516536 626564 618119 507599
0110010011100000100001000: 632674 516536 626564 618119 507334
0110010011100000100001000: 632674 516536 626564 618119 605191
0110010010100010100000100: 632674 516536 626564 618119 513136
0110010010100010100000100: 632674 516536 626564 618119 617380
0110010011100000100001000: 632674 516536 576184 507599 585161
0110010011100000100001000: 632674 516536 576184 507334 585161
0110010011100000100001000: 632674 516536 576184 507334 507599
0110010011100000100001000: 632674 516536 576184 605191 507599
0110010011100000100001000: 632674 516536 576184 618119 585161
0110010011100000100001000: 632674 516536 576184 618119 507599
0110010011100000100001000: 632674 516536 576184 618119 507334
0110010011100000100001000: 632674 516536 576184 618119 605191
0111010100110001000100010: 632674 516536 540408 626564 513136
0111010100110001000100010: 632674 516536 540408 626564 617380
0111110100110001000010000: 632674 516536 540408 576184 626564
0111010100110001000100010: 632674 516536 540408 576184 617380
0111010100110001000100010: 632674 516536 540408 576184 546390
0110010010100010100000100: 632674 576184 626564 546390 513136
0110010011100000100001000: 632674 576184 540408 546390 617380
0110010010100010100000100: 632674 576184 540408 546390 533626
0110010010100010100000100: 632674 576184 516536 617380 585161
0110010010100010100000100: 632674 576184 516536 617380 507599
0110010010100010100000100: 632674 576184 516536 617380 507334
0110010010100010100000100: 632674 576184 516536 617380 605191
0110010010100010100000100: 632674 576184 516536 617380 618119
0110010011100000100001000: 632674 576184 516536 546390 617380
0110010010100010100000100: 632674 576184 516536 546390 507599
0110010010100010100000100: 632674 576184 516536 546390 507334
0110010010100010100000100: 632674 576184 516536 546390 605191
0110010010100010100000100: 632674 576184 516536 546390 618119
0110010011100000100001000: 558676 585161 656753 546390 516536
0110010011100000100001000: 558676 585161 656753 546390 605191
0110010011100000100001000: 513136 626564 464588 617380 632674
0110010011100000100001000: 585161 559536 546390 507334 656753
0110010010100010100000100: 585161 516536 558676 632674 656753
0110010010100010100000100: 585161 516536 558676 540408 656753
0110010011100000100001000: 585161 516536 558676 507599 632674
0110010011100000100001000: 585161 516536 558676 507599 540408
0110010010100010100000100: 585161 516536 558676 507599 656753
0110010011100000100001000: 585161 516536 558676 507334 632674
0110010011100000100001000: 585161 516536 558676 507334 540408
0110010011100000100001000: 585161 516536 558676 507334 507599
0110010010100010100000100: 585161 516536 558676 507334 656753
0110010011100000100001000: 585161 516536 558676 618119 632674
0110010011100000100001000: 585161 516536 558676 618119 540408
0110010011100000100001000: 585161 516536 558676 618119 507599
0110010011100000100001000: 585161 516536 558676 618119 507334
0110010010100010100000100: 585161 516536 558676 618119 656753
0110010010100010100000100: 585161 516536 559536 632674 656753
0110010010100010100000100: 585161 516536 559536 540408 656753
0110010011100000100001000: 585161 516536 559536 507599 632674
0110010011100000100001000: 585161 516536 559536 507599 540408
0110010010100010100000100: 585161 516536 559536 507599 656753
0110010011100000100001000: 585161 516536 559536 618119 632674
0110010011100000100001000: 585161 516536 559536 618119 540408
0110010011100000100001000: 585161 516536 559536 618119 507599
0110010010100010100000100: 585161 516536 559536 618119 656753
0110010011100000100001000: 585161 516536 546390 507599 632674
0110010011100000100001000: 585161 516536 546390 507599 540408
0110010011100000100001000: 585161 516536 546390 507334 632674
0110010011100000100001000: 585161 516536 546390 507334 540408
0110010011100000100001000: 585161 516536 546390 507334 507599
0110010011100000100001000: 585161 516536 546390 618119 632674
0110010011100000100001000: 585161 516536 546390 618119 540408
0110010011100000100001000: 585161 516536 546390 618119 507599
0110010011100000100001000: 585161 516536 546390 618119 507334
0110010010100010100000100: 585161 605191 558676 507334 656753
0111010100110001000100010: 585161 605191 516536 558676 656753
0111110100110001000010000: 585161 605191 516536 559536 558676
0111010100110001000100010: 585161 605191 516536 559536 656753
0111110100110001000010000: 585161 605191 516536 546390 558676
0111110100110001000010000: 585161 605191 516536 546390 559536
0111010100110001000100010: 585161 605191 516536 546390 576184
0110010010100010100000100: 585161 546390 558676 576184 656753
0110010010100010100000100: 585161 546390 559536 576184 656753
0110010010100010100000100: 585161 546390 559536 576184 507334
0111110000100001000010000: 585161 546390 516536 559536 558676
0110010010100010100000100: 585161 546390 516536 576184 540408
0110010010100010100000100: 585161 546390 516536 576184 507599
0110010010100010100000100: 585161 546390 516536 576184 507334
0110010010100010100000100: 585161 546390 516536 576184 618119
0111110000100001000010000: 585161 546390 605191 559536 558676
0110010010100010100000100: 585161 546390 605191 576184 507334
0110010010100010100000100: 626564 632674 513136 540408 464588
0110010010100010100000100: 626564 632674 513136 516536 464588
0110010011100000100001000: 626564 632674 513136 576184 540408
0110010011100000100001000: 626564 632674 513136 576184 516536
0110010010100010100000100: 626564 632674 513136 576184 464588
0110010010100010100000100: 626564 617380 513136 533626 464588
0110010011100000100001000: 626564 617380 513136 576184 533626
0110010010100010100000100: 626564 617380 513136 576184 464588
0110010010100010100000100: 626564 617380 632674 533626 516536
