Vertex,0100101001010010,0111101111011110,0101101001011010,0100101101010110,0110100110000100,0110100110010110,0101101101011110,0100101101000100,0111100010001000,0111101011011010,0110101011010010,0101101101001100,0110101111000100,0111100110001100,0110101111010110,0101101001001000,0111101011001000,0110100010010010,0111100010011010,0111101111001100,0111100110011110
479482,204.0,0.0,180.0,0.0,1253.0,525.0,7.0,82.0,1013.0,101.0,166.0,44.0,227.0,159.0,98.0,357.0,463.0,704.0,75.0,126.0,8.0
587163,129.0,310.0,113.0,10.0,1049.0,315.0,27.0,44.0,701.0,327.0,385.0,94.0,559.0,402.0,315.0,293.0,1192.0,573.0,247.0,378.0,31.0
462278,132.0,155.0,133.0,10.0,1080.0,455.0,30.0,50.0,836.0,343.0,261.0,66.0,407.0,328.0,329.0,258.0,901.0,571.0,211.0,378.0,37.0
477967,107.0,0.0,76.0,0.0,668.0,210.0,0.0,40.0,624.0,0.0,44.0,8.0,68.0,48.0,0.0,186.0,151.0,377.0,24.0,0.0,0.0
538909,108.0,0.0,25.0,0.0,462.0,70.0,0.0,34.0,327.0,0.0,31.0,10.0,35.0,23.0,0.0,139.0,62.0,287.0,8.0,0.0,0.0
577934,24.0,0.0,50.0,0.0,385.0,140.0,0.0,22.0,498.0,0.0,44.0,8.0,68.0,48.0,0.0,101.0,150.0,172.0,24.0,0.0,0.0
580220,84.0,0.0,34.0,0.0,540.0,105.0,0.0,34.0,322.0,0.0,51.0,18.0,57.0,39.0,0.0,154.0,96.0,307.0,12.0,0.0,0.0
646853,165.0,155.0,223.0,14.0,1600.0,737.0,34.0,58.0,1458.0,417.0,462.0,104.0,700.0,521.0,407.0,398.0,1540.0,818.0,298.0,468.0,39.0
513465,22.0,0.0,53.0,0.0,362.0,173.0,0.0,6.0,469.0,0.0,47.0,6.0,98.0,80.0,0.0,83.0,251.0,151.0,38.0,0.0,0.0
470128,30.0,310.0,33.0,0.0,532.0,101.0,11.0,4.0,453.0,178.0,169.0,30.0,295.0,204.0,169.0,147.0,682.0,249.0,124.0,216.0,12.0
582292,195.0,310.0,172.0,4.0,1646.0,498.0,29.0,54.0,1475.0,398.0,332.0,68.0,573.0,441.0,376.0,405.0,1332.0,877.0,223.0,450.0,39.0
457525,140.0,0.0,129.0,14.0,1121.0,418.0,16.0,38.0,816.0,259.0,311.0,74.0,489.0,371.0,244.0,286.0,1091.0,567.0,269.0,288.0,25.0
512052,88.0,0.0,11.0,0.0,297.0,35.0,0.0,14.0,113.0,0.0,0.0,0.0,0.0,0.0,0.0,80.0,0.0,208.0,0.0,0.0,0.0
550208,93.0,0.0,15.0,0.0,399.0,35.0,0.0,20.0,126.0,0.0,12.0,4.0,12.0,8.0,0.0,122.0,19.0,261.0,2.0,0.0,0.0
522047,256.0,0.0,78.0,18.0,924.0,204.0,4.0,50.0,429.0,37.0,139.0,42.0,184.0,139.0,41.0,286.0,367.0,559.0,116.0,36.0,5.0
509121,34.0,0.0,36.0,0.0,479.0,142.0,0.0,6.0,377.0,0.0,34.0,4.0,60.0,44.0,0.0,114.0,147.0,243.0,30.0,0.0,0.0
559013,155.0,0.0,76.0,6.0,901.0,206.0,12.0,34.0,608.0,170.0,158.0,32.0,241.0,166.0,159.0,278.0,532.0,493.0,109.0,198.0,10.0
528190,62.0,0.0,6.0,2.0,487.0,37.0,4.0,16.0,253.0,54.0,73.0,22.0,102.0,85.0,47.0,128.0,214.0,256.0,58.0,72.0,2.0
648817,107.0,0.0,40.0,16.0,699.0,103.0,10.0,26.0,325.0,126.0,172.0,48.0,247.0,189.0,129.0,226.0,520.0,364.0,131.0,144.0,13.0
619615,154.0,0.0,76.0,4.0,853.0,202.0,6.0,40.0,642.0,93.0,124.0,32.0,181.0,125.0,88.0,238.0,386.0,468.0,82.0,108.0,6.0
580192,135.0,0.0,38.0,2.0,702.0,101.0,2.0,24.0,493.0,42.0,62.0,12.0,97.0,65.0,37.0,213.0,215.0,396.0,44.0,54.0,2.0
594888,59.0,0.0,26.0,4.0,556.0,68.0,8.0,10.0,380.0,109.0,101.0,22.0,162.0,109.0,105.0,135.0,362.0,263.0,93.0,126.0,8.0
601072,60.0,0.0,0.0,0.0,244.0,0.0,0.0,18.0,120.0,0.0,24.0,8.0,24.0,16.0,0.0,66.0,42.0,162.0,4.0,0.0,0.0
618232,45.0,0.0,15.0,0.0,294.0,35.0,0.0,4.0,339.0,0.0,20.0,0.0,44.0,32.0,0.0,71.0,115.0,149.0,20.0,0.0,0.0
590773,28.0,0.0,16.0,0.0,486.0,72.0,1.0,8.0,441.0,30.0,74.0,16.0,122.0,84.0,27.0,106.0,277.0,213.0,52.0,36.0,3.0
568722,6.0,0.0,0.0,0.0,321.0,0.0,3.0,4.0,299.0,48.0,48.0,8.0,75.0,49.0,51.0,78.0,168.0,139.0,28.0,54.0,4.0
509243,44.0,0.0,0.0,4.0,223.0,0.0,2.0,10.0,93.0,16.0,40.0,12.0,50.0,34.0,17.0,68.0,96.0,136.0,27.0,18.0,2.0
583965,58.0,0.0,6.0,4.0,421.0,37.0,2.0,10.0,138.0,16.0,80.0,24.0,103.0,75.0,17.0,104.0,205.0,229.0,63.0,18.0,2.0
graph,681.0,310.0,415.0,28.0,4746.0,1256.0,52.0,190.0,3542.0,691.0,866.0,204.0,1320.0,971.0,664.0,1280.0,2894.0,2548.0,603.0,792.0,62.0
