Vertex,0111100010001000,0100101101000100,0111100110001100,0101101001011010,0100101001010010,0110101111010110,0111101111011110,0111101011001000,0110100010010010,0111101011011010,0101101101001100,0110101011010010,0101101001001000,0110100110010110,0110101111000100,0110100110000100,0111100010011010,0111101111001100
518466,88.0,2.0,63.0,10.0,19.0,50.0,155.0,220.0,91.0,60.0,18.0,71.0,44.0,35.0,103.0,163.0,36.0,90.0
622619,112.0,0.0,13.0,0.0,0.0,30.0,0.0,53.0,27.0,36.0,2.0,13.0,18.0,0.0,23.0,63.0,10.0,54.0
554368,160.0,2.0,65.0,10.0,25.0,50.0,155.0,230.0,128.0,60.0,18.0,73.0,62.0,35.0,107.0,236.0,38.0,90.0
610880,88.0,4.0,22.0,10.0,20.0,0.0,0.0,65.0,95.0,0.0,8.0,22.0,40.0,35.0,32.0,176.0,10.0,0.0
615319,128.0,4.0,10.0,10.0,16.0,0.0,0.0,50.0,96.0,0.0,0.0,10.0,42.0,35.0,20.0,183.0,10.0,0.0
470919,72.0,0.0,41.0,0.0,14.0,20.0,155.0,153.0,73.0,24.0,10.0,45.0,34.0,0.0,69.0,129.0,26.0,36.0
653920,112.0,0.0,21.0,0.0,8.0,30.0,0.0,74.0,65.0,36.0,6.0,25.0,36.0,0.0,35.0,126.0,12.0,54.0
622987,72.0,0.0,33.0,0.0,0.0,20.0,155.0,132.0,26.0,24.0,6.0,33.0,16.0,0.0,57.0,56.0,24.0,36.0
553289,24.0,2.0,0.0,0.0,17.0,0.0,0.0,0.0,69.0,0.0,0.0,0.0,26.0,0.0,0.0,118.0,0.0,0.0
639192,0.0,0.0,18.0,0.0,18.0,0.0,0.0,49.0,59.0,0.0,8.0,22.0,24.0,0.0,26.0,94.0,6.0,0.0
627436,0.0,0.0,8.0,0.0,8.0,0.0,0.0,20.0,43.0,0.0,4.0,12.0,22.0,0.0,12.0,77.0,2.0,0.0
459500,80.0,0.0,10.0,0.0,10.0,0.0,0.0,50.0,58.0,0.0,0.0,10.0,26.0,0.0,20.0,101.0,10.0,0.0
536141,24.0,2.0,0.0,0.0,21.0,0.0,0.0,0.0,64.0,0.0,0.0,0.0,22.0,0.0,0.0,104.0,0.0,0.0
522403,0.0,0.0,0.0,0.0,8.0,0.0,0.0,0.0,14.0,0.0,0.0,0.0,4.0,0.0,0.0,14.0,0.0,0.0
graph,240.0,4.0,76.0,10.0,46.0,50.0,155.0,274.0,227.0,60.0,20.0,84.0,104.0,35.0,126.0,410.0,46.0,90.0
