0110010010100010100000100: 512026 562961 488491 611691 521621
0110010010100010100000100: 562961 512026 611691 488491 509265
0110010010100010100000100: 611691 562961 509265 512026 604539
0110010010100010100000100: 509265 611691 604539 562961 549057
0110010010100010100000100: 604539 509265 549057 611691 494271
0110010010100010100000100: 549057 494271 604539 472776 509265
