Vertex,0110010010100010100000100,0111110100110001000110010,0111110110110011100010100,0111110111110111110011100,0111110110110001100010000,0111010101110001000001000,0111010101110001000101010,0111010110110011100100110,0111110110110011100110110,0110010011100000100001000,0111110111110101110011000,0110010010100010100100110,0111110000100001000010000,0111110111110001100011000,0111010110110011100000100,0110010011100110110001100,0111110100110001000010000,0111010100110001000100010,0111110110110101110010000,0110010011100100110001000
511282,231.0,31.0,86.0,5.0,227.0,393.0,96.0,36.0,10.0,453.0,31.0,6.0,74.0,18.0,144.0,17.0,229.0,156.0,36.0,189.0
516536,298.0,18.0,106.0,5.0,276.0,369.0,95.0,45.0,13.0,679.0,39.0,22.0,111.0,29.0,189.0,29.0,252.0,162.0,33.0,294.0
628655,225.0,6.0,10.0,0.0,53.0,183.0,39.0,10.0,0.0,362.0,2.0,4.0,33.0,1.0,27.0,5.0,61.0,43.0,5.0,116.0
479937,215.0,30.0,19.0,0.0,74.0,158.0,36.0,2.0,0.0,365.0,9.0,7.0,65.0,7.0,35.0,1.0,160.0,105.0,12.0,75.0
558244,218.0,15.0,48.0,1.0,165.0,244.0,54.0,24.0,10.0,480.0,14.0,9.0,115.0,18.0,108.0,10.0,186.0,99.0,6.0,160.0
631064,242.0,6.0,13.0,0.0,61.0,140.0,43.0,15.0,2.0,498.0,1.0,11.0,81.0,3.0,50.0,14.0,102.0,71.0,5.0,188.0
494936,258.0,6.0,27.0,0.0,84.0,193.0,65.0,20.0,3.0,532.0,4.0,11.0,94.0,2.0,39.0,21.0,130.0,84.0,3.0,219.0
606554,213.0,5.0,24.0,0.0,92.0,178.0,44.0,14.0,2.0,538.0,4.0,6.0,147.0,12.0,30.0,13.0,171.0,53.0,2.0,166.0
576420,150.0,20.0,14.0,0.0,74.0,150.0,30.0,5.0,0.0,346.0,9.0,1.0,91.0,7.0,26.0,4.0,148.0,69.0,12.0,82.0
541863,255.0,10.0,22.0,1.0,42.0,132.0,32.0,5.0,1.0,388.0,3.0,16.0,39.0,1.0,67.0,4.0,54.0,119.0,9.0,109.0
486024,221.0,12.0,24.0,1.0,90.0,204.0,43.0,9.0,0.0,444.0,8.0,5.0,94.0,8.0,37.0,6.0,128.0,57.0,14.0,134.0
622150,404.0,16.0,50.0,0.0,148.0,305.0,102.0,38.0,11.0,775.0,5.0,27.0,129.0,6.0,94.0,34.0,198.0,137.0,2.0,369.0
493791,206.0,13.0,29.0,2.0,54.0,140.0,19.0,1.0,0.0,392.0,6.0,17.0,36.0,3.0,66.0,0.0,93.0,131.0,19.0,61.0
539719,321.0,7.0,33.0,0.0,108.0,211.0,70.0,24.0,7.0,579.0,4.0,10.0,84.0,7.0,73.0,22.0,126.0,74.0,3.0,250.0
547266,132.0,0.0,0.0,0.0,12.0,74.0,5.0,1.0,0.0,254.0,0.0,8.0,45.0,0.0,17.0,0.0,29.0,36.0,2.0,54.0
462691,269.0,25.0,108.0,4.0,324.0,459.0,107.0,48.0,12.0,762.0,43.0,8.0,189.0,36.0,175.0,24.0,314.0,171.0,35.0,297.0
573171,349.0,31.0,72.0,3.0,206.0,350.0,91.0,29.0,5.0,562.0,29.0,12.0,79.0,21.0,104.0,9.0,192.0,150.0,21.0,192.0
503699,188.0,16.0,45.0,3.0,107.0,151.0,47.0,8.0,3.0,453.0,17.0,10.0,87.0,12.0,87.0,5.0,156.0,128.0,21.0,112.0
490032,161.0,0.0,0.0,0.0,6.0,49.0,7.0,0.0,0.0,224.0,0.0,3.0,11.0,0.0,18.0,3.0,13.0,42.0,0.0,57.0
543953,243.0,10.0,5.0,0.0,58.0,138.0,33.0,8.0,0.0,337.0,1.0,6.0,74.0,0.0,25.0,9.0,95.0,59.0,5.0,129.0
595631,167.0,5.0,15.0,0.0,74.0,134.0,38.0,13.0,1.0,423.0,3.0,1.0,106.0,7.0,37.0,14.0,112.0,54.0,2.0,148.0
603480,67.0,3.0,10.0,0.0,67.0,111.0,5.0,0.0,0.0,327.0,3.0,0.0,104.0,7.0,30.0,0.0,98.0,23.0,2.0,45.0
474900,227.0,0.0,0.0,0.0,25.0,114.0,21.0,2.0,0.0,272.0,0.0,7.0,29.0,0.0,19.0,3.0,34.0,44.0,4.0,74.0
496436,133.0,0.0,0.0,0.0,10.0,70.0,7.0,1.0,0.0,277.0,0.0,2.0,45.0,0.0,19.0,2.0,32.0,36.0,1.0,67.0
529102,132.0,0.0,0.0,0.0,13.0,85.0,6.0,2.0,0.0,223.0,0.0,1.0,3.0,0.0,19.0,1.0,7.0,32.0,1.0,48.0
graph,1105.0,57.0,152.0,5.0,490.0,947.0,227.0,72.0,16.0,2189.0,47.0,42.0,393.0,41.0,307.0,50.0,624.0,427.0,51.0,727.0
