Vertex,0111010101110001000001000,0110010010100010100100110,0111010100110001000100010,0111110110110011100110110,0111010101110001000101010,0111010110110011100100110,0111110111110001100011000,0111110111110101110011000,0110010011100100110001000,0111110000100001000010000,0111110110110011100010100,0111110110110001100010000,0111010110110011100000100,0110010011100110110001100,0111110100110001000010000,0111110110110101110010000,0110010011100000100001000,0110010010100010100000100,0111110100110001000110010
526878,43.0,2.0,20.0,0.0,10.0,0.0,0.0,0.0,27.0,2.0,0.0,3.0,6.0,1.0,5.0,1.0,150.0,94.0,0.0
628603,25.0,0.0,19.0,0.0,6.0,0.0,0.0,0.0,37.0,120.0,0.0,18.0,2.0,1.0,81.0,1.0,210.0,56.0,0.0
477083,58.0,3.0,22.0,1.0,12.0,0.0,2.0,0.0,27.0,79.0,11.0,41.0,12.0,1.0,93.0,1.0,186.0,80.0,5.0
554368,220.0,2.0,95.0,1.0,36.0,2.0,6.0,3.0,98.0,265.0,32.0,135.0,48.0,1.0,299.0,12.0,614.0,115.0,18.0
506929,9.0,0.0,21.0,0.0,1.0,0.0,0.0,0.0,16.0,0.0,0.0,0.0,2.0,0.0,1.0,0.0,107.0,51.0,0.0
465661,105.0,4.0,49.0,0.0,17.0,0.0,1.0,3.0,26.0,56.0,8.0,42.0,10.0,1.0,128.0,12.0,210.0,105.0,16.0
495531,64.0,6.0,30.0,1.0,11.0,0.0,4.0,1.0,20.0,75.0,16.0,67.0,22.0,0.0,92.0,0.0,233.0,102.0,4.0
498701,79.0,4.0,52.0,1.0,10.0,2.0,4.0,1.0,29.0,61.0,23.0,63.0,25.0,0.0,105.0,0.0,185.0,90.0,8.0
577837,55.0,1.0,9.0,0.0,6.0,0.0,0.0,0.0,8.0,3.0,0.0,5.0,5.0,0.0,5.0,1.0,108.0,71.0,0.0
640961,70.0,0.0,30.0,0.0,6.0,0.0,1.0,3.0,6.0,85.0,6.0,35.0,2.0,0.0,109.0,12.0,140.0,20.0,10.0
462278,128.0,8.0,62.0,1.0,17.0,2.0,5.0,3.0,38.0,59.0,25.0,77.0,34.0,0.0,117.0,12.0,294.0,142.0,7.0
577390,52.0,3.0,22.0,0.0,3.0,0.0,0.0,1.0,8.0,100.0,2.0,34.0,7.0,0.0,86.0,0.0,196.0,53.0,6.0
537976,59.0,5.0,39.0,0.0,10.0,0.0,2.0,0.0,13.0,51.0,12.0,47.0,17.0,0.0,103.0,1.0,179.0,106.0,12.0
517110,60.0,2.0,19.0,0.0,8.0,1.0,1.0,0.0,22.0,9.0,5.0,10.0,14.0,0.0,18.0,1.0,176.0,75.0,1.0
586445,35.0,4.0,21.0,0.0,4.0,0.0,0.0,0.0,15.0,10.0,0.0,8.0,5.0,0.0,16.0,1.0,169.0,88.0,0.0
460872,52.0,0.0,22.0,0.0,6.0,1.0,1.0,0.0,21.0,9.0,5.0,10.0,12.0,0.0,17.0,1.0,163.0,64.0,1.0
626383,11.0,3.0,18.0,0.0,0.0,0.0,0.0,0.0,1.0,0.0,0.0,0.0,2.0,0.0,0.0,0.0,74.0,65.0,0.0
499293,51.0,2.0,25.0,0.0,9.0,1.0,1.0,0.0,37.0,99.0,3.0,29.0,7.0,0.0,85.0,1.0,201.0,84.0,6.0
526505,50.0,3.0,23.0,0.0,3.0,0.0,2.0,0.0,9.0,81.0,12.0,42.0,8.0,0.0,88.0,1.0,148.0,43.0,6.0
604146,32.0,0.0,7.0,0.0,5.0,1.0,0.0,0.0,27.0,120.0,0.0,18.0,2.0,0.0,81.0,1.0,175.0,28.0,0.0
516867,24.0,2.0,20.0,0.0,7.0,0.0,0.0,0.0,29.0,120.0,0.0,18.0,2.0,0.0,81.0,1.0,240.0,64.0,0.0
579549,23.0,1.0,15.0,0.0,3.0,0.0,0.0,0.0,11.0,1.0,0.0,3.0,6.0,0.0,0.0,0.0,122.0,59.0,0.0
graph,261.0,11.0,128.0,1.0,38.0,2.0,6.0,3.0,105.0,281.0,32.0,141.0,50.0,1.0,322.0,12.0,856.0,331.0,20.0
