Vertex,0100101101000100,0101101101001100,0101101001001000,0110100010010010,0100101001010010,0100101101010110,0110101111000100,0111101011001000,0110100110010110,0110101011010010,0111100010011010,0101101001011010,0111100110001100,0111100010001000,0110100110000100
651718,2.0,6.0,40.0,94.0,27.0,2.0,33.0,74.0,0.0,19.0,31.0,0.0,28.0,69.0,180.0
646309,0.0,4.0,23.0,63.0,26.0,2.0,26.0,61.0,0.0,14.0,21.0,0.0,22.0,15.0,101.0
457395,6.0,8.0,65.0,159.0,50.0,0.0,42.0,87.0,0.0,30.0,28.0,0.0,27.0,128.0,291.0
527107,0.0,0.0,6.0,14.0,5.0,0.0,4.0,10.0,0.0,2.0,2.0,0.0,2.0,30.0,40.0
607979,0.0,4.0,36.0,73.0,23.0,2.0,26.0,61.0,0.0,14.0,21.0,0.0,22.0,53.0,151.0
473606,0.0,6.0,27.0,62.0,23.0,0.0,21.0,41.0,0.0,17.0,4.0,0.0,16.0,0.0,90.0
609281,6.0,2.0,70.0,164.0,52.0,2.0,9.0,20.0,0.0,5.0,9.0,0.0,10.0,160.0,328.0
614678,8.0,2.0,51.0,146.0,41.0,0.0,7.0,14.0,0.0,5.0,2.0,0.0,5.0,152.0,272.0
639882,16.0,8.0,96.0,223.0,86.0,0.0,38.0,77.0,33.0,28.0,20.0,12.0,25.0,222.0,415.0
601126,0.0,8.0,42.0,81.0,26.0,0.0,38.0,77.0,0.0,28.0,20.0,0.0,25.0,39.0,155.0
493425,6.0,0.0,38.0,118.0,39.0,0.0,0.0,0.0,0.0,0.0,0.0,0.0,0.0,97.0,195.0
573546,0.0,0.0,41.0,72.0,23.0,0.0,0.0,0.0,0.0,0.0,0.0,0.0,0.0,76.0,158.0
478931,6.0,0.0,66.0,193.0,39.0,0.0,4.0,10.0,37.0,2.0,2.0,10.0,2.0,255.0,392.0
556444,4.0,0.0,51.0,106.0,28.0,0.0,4.0,10.0,33.0,2.0,2.0,12.0,2.0,102.0,199.0
487406,4.0,0.0,22.0,61.0,18.0,0.0,0.0,0.0,0.0,0.0,0.0,0.0,0.0,24.0,87.0
648080,2.0,0.0,14.0,55.0,24.0,0.0,0.0,0.0,0.0,0.0,0.0,0.0,0.0,24.0,77.0
482431,8.0,0.0,65.0,155.0,48.0,0.0,0.0,0.0,70.0,0.0,0.0,18.0,0.0,175.0,291.0
568942,6.0,0.0,52.0,110.0,29.0,0.0,4.0,10.0,70.0,2.0,2.0,18.0,2.0,137.0,210.0
622916,10.0,0.0,53.0,175.0,48.0,0.0,0.0,0.0,74.0,0.0,0.0,16.0,0.0,265.0,352.0
502919,6.0,0.0,34.0,93.0,28.0,0.0,0.0,0.0,74.0,0.0,0.0,16.0,0.0,113.0,169.0
577463,6.0,0.0,20.0,63.0,17.0,0.0,0.0,0.0,37.0,0.0,0.0,10.0,0.0,96.0,123.0
graph,24.0,12.0,228.0,570.0,175.0,2.0,64.0,138.0,107.0,42.0,41.0,28.0,47.0,558.0,1069.0
