0110010011100000100001000: 544608 581357 525977 491576 645670
0110010011100000100001000: 544608 581357 525977 543593 645670
0110010011100000100001000: 544608 581357 525977 546346 645670
0110010011100000100001000: 544608 581357 525977 546346 491576
0110010011100000100001000: 544608 581357 525977 546346 543593
0110010011100000100001000: 544608 581357 525977 489207 645670
0110010011100000100001000: 544608 581357 525977 489207 491576
0110010011100000100001000: 544608 581357 525977 489207 543593
0110010011100000100001000: 544608 581357 525977 489207 546346
0110010011100100110001000: 544608 581357 525977 558301 645670
0110010011100100110001000: 544608 581357 525977 558301 491576
0110010011100100110001000: 544608 581357 525977 558301 546346
0110010011100100110001000: 544608 581357 525977 558301 489207
0111010101110001000001000: 544608 581357 523275 525977 645670
0111010101110001000001000: 544608 581357 523275 525977 491576
0111010101110001000001000: 544608 581357 523275 525977 543593
0111010101110001000001000: 544608 581357 523275 525977 489207
0111010100110001000100010: 544608 581357 523275 525977 528343
0111010101110001000101010: 544608 581357 523275 525977 558301
0110010010100010100000100: 544608 525977 523275 528343 546346
0110010011100000100001000: 544608 525977 523275 558301 528343
0110010010100010100000100: 544608 525977 523275 558301 546346
0110010010100010100000100: 544608 525977 581357 528343 645670
0110010010100010100000100: 544608 525977 581357 528343 491576
0110010010100010100000100: 544608 525977 581357 528343 546346
0110010010100010100000100: 544608 525977 581357 528343 489207
0110010010100010100100110: 544608 525977 581357 528343 543593
0110010011100100110001000: 544608 525977 581357 558301 528343
0110010011100000100001000: 525977 528343 558301 621391 615340
0110010011100100110001000: 525977 528343 558301 543593 615340
0110010011100100110001000: 525977 528343 558301 543593 621391
0110010011100000100001000: 525977 528343 544608 543593 615340
0110010011100000100001000: 525977 528343 544608 621391 615340
0110010011100000100001000: 525977 528343 544608 621391 543593
0110010010100010100000100: 525977 558301 528343 546198 615340
0110010010100010100000100: 525977 558301 528343 546198 621391
0110010011100000100001000: 525977 558301 528343 581357 546198
0110010010100010100000100: 525977 558301 528343 581357 615340
0110010010100010100000100: 525977 558301 528343 581357 621391
0110010011100100110001000: 525977 558301 528343 543593 546198
0110010011100000100001000: 525977 558301 544608 543593 546198
0110010011100100110001000: 525977 558301 544608 581357 546198
0110010010100010100000100: 525977 544608 528343 523275 615340
0110010010100010100000100: 525977 544608 528343 523275 543593
0110010010100010100000100: 525977 544608 528343 523275 621391
0110010010100010100000100: 525977 544608 528343 581357 615340
0110010010100010100000100: 525977 544608 528343 581357 621391
0110010010100010100000100: 525977 544608 558301 523275 546198
0110010010100010100000100: 525977 544608 558301 523275 543593
0110010010100010100000100: 489207 581357 620235 523275 620535
0110010010100010100000100: 489207 581357 620235 523275 621391
0110010011100000100001000: 489207 581357 620235 645670 523275
0110010010100010100000100: 489207 581357 620235 645670 621391
0110010010100010100100110: 489207 581357 620235 645670 620535
0110010011100000100001000: 489207 581357 620235 491576 523275
0110010011100000100001000: 489207 581357 620235 491576 645670
0110010010100010100000100: 489207 581357 620235 491576 620535
0110010010100010100000100: 489207 581357 620235 491576 621391
0110010011100000100001000: 489207 581357 620235 543593 523275
0110010011100000100001000: 489207 581357 620235 543593 645670
0110010010100010100000100: 489207 581357 620235 543593 620535
0110010010100010100000100: 489207 581357 620235 543593 621391
0110010011100000100001000: 489207 581357 620235 558301 523275
0110010011100000100001000: 489207 581357 620235 558301 645670
0110010011100000100001000: 489207 581357 620235 558301 491576
0110010010100010100000100: 489207 581357 620235 558301 620535
0110010010100010100000100: 489207 581357 620235 558301 621391
0110010011100000100001000: 489207 581357 620235 546346 645670
0110010011100000100001000: 489207 581357 620235 546346 491576
0110010011100000100001000: 489207 581357 620235 546346 543593
0110010011100000100001000: 489207 581357 620235 546346 558301
0110010010100010100000100: 489207 581357 620235 546346 620535
0110010010100010100000100: 489207 581357 620235 546346 621391
0110010011100000100001000: 489207 581357 620235 544608 645670
0110010011100000100001000: 489207 581357 620235 544608 491576
0110010011100000100001000: 489207 581357 620235 544608 543593
0110010011100000100001000: 489207 581357 620235 544608 558301
0110010011100000100001000: 489207 581357 620235 544608 546346
0110010010100010100000100: 489207 581357 620235 544608 620535
0110010010100010100000100: 489207 581357 620235 544608 621391
0111010110110011100000100: 581357 523275 546346 544608 642127
0111010110110011100000100: 581357 523275 546346 544608 546198
0111010110110011100000100: 581357 523275 546346 544608 615340
0111110110110001100010000: 581357 523275 544608 546346 645670
0111110110110001100010000: 581357 523275 544608 546346 491576
0111110110110001100010000: 581357 523275 544608 546346 543593
0111110110110001100010000: 581357 523275 544608 546346 558301
0111110110110001100010000: 581357 523275 544608 546346 489207
0111010110110011100000100: 581357 523275 544608 546346 525977
0110010011100000100001000: 581357 645670 523275 620535 642127
0110010011100000100001000: 581357 645670 491576 620535 642127
0110010011100000100001000: 581357 645670 543593 620535 642127
0110010011100000100001000: 581357 645670 558301 620535 642127
0110010011100100110001000: 581357 645670 546346 642127 620535
0110010011100000100001000: 581357 645670 489207 620535 642127
0110010011100000100001000: 581357 645670 544608 620535 642127
0110010011100000100001000: 581357 543593 523275 507954 528343
0110010010100010100000100: 581357 543593 645670 528343 642127
0110010010100010100000100: 581357 543593 645670 528343 620535
0110010011100000100001000: 581357 543593 645670 507954 528343
0110010010100010100000100: 581357 543593 645670 507954 642127
0110010010100010100000100: 581357 543593 645670 507954 620535
0110010011100000100001000: 581357 543593 546346 507954 528343
0110010011100000100001000: 581357 543593 489207 507954 528343
0110010011100000100001000: 581357 543593 544608 507954 528343
0111010101110001000001000: 581357 543593 491576 523275 528343
0111010101110001000001000: 581357 543593 491576 523275 507954
0111110100110001000010000: 581357 543593 491576 645670 523275
0111010101110001000001000: 581357 543593 491576 645670 528343
0111010101110001000001000: 581357 543593 491576 645670 507954
0111010100110001000100010: 581357 543593 491576 645670 642127
0111010100110001000100010: 581357 543593 491576 645670 620535
0111110100110001000010000: 581357 543593 491576 546346 645670
0111010101110001000001000: 581357 543593 491576 546346 528343
0111010101110001000001000: 581357 543593 491576 546346 507954
0111010100110001000100010: 581357 543593 491576 546346 642127
0111010100110001000100010: 581357 543593 491576 546346 546198
0111010100110001000100010: 581357 543593 491576 546346 615340
0111110100110001000010000: 581357 543593 491576 489207 523275
0111110100110001000010000: 581357 543593 491576 489207 645670
0111110100110001000010000: 581357 543593 491576 489207 546346
0111010101110001000001000: 581357 543593 491576 489207 528343
0111010101110001000001000: 581357 543593 491576 489207 507954
0111010100110001000100010: 581357 543593 491576 489207 620235
0111110100110001000010000: 581357 543593 491576 544608 645670
0111110100110001000010000: 581357 543593 491576 544608 546346
0111110100110001000010000: 581357 543593 491576 544608 489207
0111010101110001000001000: 581357 543593 491576 544608 528343
0111010101110001000001000: 581357 543593 491576 544608 507954
0111010100110001000100010: 581357 543593 491576 544608 525977
0111010101110001000001000: 581357 543593 558301 523275 528343
0111010101110001000001000: 581357 543593 558301 523275 507954
0111010101110001000001000: 581357 543593 558301 645670 528343
0111010101110001000001000: 581357 543593 558301 645670 507954
0111010101110001000001000: 581357 543593 558301 546346 528343
0111010101110001000001000: 581357 543593 558301 546346 507954
0111010101110001000001000: 581357 543593 558301 489207 528343
0111010101110001000001000: 581357 543593 558301 489207 507954
0111010101110001000001000: 581357 543593 558301 544608 528343
0111010101110001000001000: 581357 543593 558301 544608 507954
0111110110110001100010000: 581357 543593 558301 491576 523275
0111110110110001100010000: 581357 543593 558301 491576 645670
0111110110110001100010000: 581357 543593 558301 491576 546346
0111110110110001100010000: 581357 543593 558301 491576 489207
0111110110110001100010000: 581357 543593 558301 491576 544608
0111010110110011100000100: 581357 543593 558301 491576 546198
0111010110110011100000100: 581357 543593 558301 491576 525977
0110010011100000100001000: 581357 558301 523275 525977 546198
0110010010100010100000100: 581357 558301 645670 546198 642127
0110010010100010100000100: 581357 558301 645670 546198 620535
0110010011100000100001000: 581357 558301 645670 525977 546198
0110010010100010100000100: 581357 558301 645670 525977 642127
0110010010100010100000100: 581357 558301 645670 525977 620535
0111110000100001000010000: 581357 558301 491576 645670 523275
0110010011100000100001000: 581357 558301 491576 525977 546198
0110010011100100110001000: 581357 558301 546346 546198 525977
0110010011100000100001000: 581357 558301 489207 525977 546198
0111010101110001000001000: 581357 558301 543593 523275 546198
0111010101110001000001000: 581357 558301 543593 523275 525977
0111110100110001000010000: 581357 558301 543593 645670 523275
0111010101110001000001000: 581357 558301 543593 645670 546198
0111010101110001000001000: 581357 558301 543593 645670 525977
0111010100110001000100010: 581357 558301 543593 645670 642127
0111010100110001000100010: 581357 558301 543593 645670 620535
0111110100110001000010000: 581357 558301 543593 546346 645670
0111010101110001000001000: 581357 558301 543593 546346 525977
0111010100110001000100010: 581357 558301 543593 546346 642127
0111010100110001000100010: 581357 558301 543593 546346 615340
0111010101110001000101010: 581357 558301 543593 546346 546198
0111110100110001000010000: 581357 558301 543593 489207 523275
0111110100110001000010000: 581357 558301 543593 489207 645670
0111110100110001000010000: 581357 558301 543593 489207 546346
0111010101110001000001000: 581357 558301 543593 489207 546198
0111010101110001000001000: 581357 558301 543593 489207 525977
0111010100110001000100010: 581357 558301 543593 489207 620235
0111110100110001000010000: 581357 558301 543593 544608 645670
0111110100110001000010000: 581357 558301 543593 544608 546346
0111110100110001000010000: 581357 558301 543593 544608 489207
0111010101110001000001000: 581357 558301 543593 544608 546198
0111010101110001000101010: 581357 558301 543593 544608 525977
0110010010100010100000100: 581357 546346 645670 546198 620535
0110010011100000100001000: 581357 546346 645670 615340 546198
0110010010100010100000100: 581357 546346 645670 615340 620535
0110010011100100110001000: 581357 546346 645670 642127 546198
0110010011100100110001000: 581357 546346 645670 642127 615340
0110010011100000100001000: 581357 546346 491576 546198 642127
0110010011100000100001000: 581357 546346 491576 615340 642127
0110010011100000100001000: 581357 546346 491576 615340 546198
0110010010100010100000100: 581357 546346 543593 642127 528343
0110010010100010100000100: 581357 546346 543593 642127 507954
0110010011100000100001000: 581357 546346 543593 546198 642127
0110010010100010100000100: 581357 546346 543593 546198 528343
0110010010100010100000100: 581357 546346 543593 546198 507954
0110010011100000100001000: 581357 546346 543593 615340 642127
0110010011100000100001000: 581357 546346 543593 615340 546198
0110010010100010100000100: 581357 546346 543593 615340 507954
0110010010100010100100110: 581357 546346 543593 615340 528343
0111110000100001000010000: 581357 546346 558301 491576 645670
0110010010100010100000100: 581357 546346 558301 642127 525977
0110010011100000100001000: 581357 546346 558301 615340 642127
0110010010100010100000100: 581357 546346 558301 615340 525977
0110010011100100110001000: 581357 546346 558301 546198 642127
0110010011100100110001000: 581357 546346 558301 546198 615340
0110010011100000100001000: 581357 546346 489207 546198 642127
0110010011100000100001000: 581357 546346 489207 615340 642127
0110010011100000100001000: 581357 546346 489207 615340 546198
0110010011100000100001000: 581357 546346 544608 546198 642127
0110010011100000100001000: 581357 546346 544608 615340 642127
0110010011100000100001000: 581357 546346 544608 615340 546198
0111010101110001000001000: 581357 546346 523275 645670 546198
0111010101110001000001000: 581357 546346 523275 645670 615340
0111010100110001000100010: 581357 546346 523275 645670 620535
0111010101110001000101010: 581357 546346 523275 645670 642127
0111110100110001000010000: 581357 546346 523275 491576 645670
0111010101110001000001000: 581357 546346 523275 491576 642127
0111010101110001000001000: 581357 546346 523275 491576 546198
0111010101110001000001000: 581357 546346 523275 491576 615340
0111110100110001000010000: 581357 546346 523275 543593 645670
0111010101110001000001000: 581357 546346 523275 543593 642127
0111010101110001000001000: 581357 546346 523275 543593 546198
0111010101110001000001000: 581357 546346 523275 543593 615340
0111010100110001000100010: 581357 546346 523275 543593 528343
0111010100110001000100010: 581357 546346 523275 543593 507954
0111110100110001000110010: 581357 546346 523275 543593 491576
0111110100110001000010000: 581357 546346 523275 558301 645670
0111110100110001000010000: 581357 546346 523275 558301 491576
0111010101110001000001000: 581357 546346 523275 558301 642127
0111010101110001000001000: 581357 546346 523275 558301 615340
0111010100110001000100010: 581357 546346 523275 558301 525977
0111110100110001000110010: 581357 546346 523275 558301 543593
0111010101110001000101010: 581357 546346 523275 558301 546198
0111110100110001000010000: 581357 546346 523275 489207 645670
0111110100110001000010000: 581357 546346 523275 489207 491576
0111110100110001000010000: 581357 546346 523275 489207 543593
0111110100110001000010000: 581357 546346 523275 489207 558301
0111010101110001000001000: 581357 546346 523275 489207 642127
0111010101110001000001000: 581357 546346 523275 489207 546198
0111010101110001000001000: 581357 546346 523275 489207 615340
0111010100110001000100010: 581357 546346 523275 489207 620235
0110010010100010100000100: 581357 489207 645670 620235 642127
0111110000100001000010000: 581357 489207 491576 645670 523275
0111110000100001000010000: 581357 489207 543593 645670 523275
0110010010100010100000100: 581357 489207 543593 620235 528343
0110010010100010100000100: 581357 489207 543593 620235 507954
0111110000100001000010000: 581357 489207 558301 645670 523275
0111110000100001000010000: 581357 489207 558301 491576 523275
0111110000100001000010000: 581357 489207 558301 491576 645670
0110010010100010100000100: 581357 489207 558301 620235 546198
0110010010100010100000100: 581357 489207 558301 620235 525977
0111110000100001000010000: 581357 489207 546346 491576 645670
0111110000100001000010000: 581357 489207 546346 543593 645670
0111110000100001000010000: 581357 489207 546346 558301 645670
0111110000100001000010000: 581357 489207 546346 558301 491576
0110010010100010100000100: 581357 489207 546346 620235 642127
0110010010100010100000100: 581357 489207 546346 620235 546198
0110010010100010100000100: 581357 489207 546346 620235 615340
0110010010100010100000100: 581357 544608 645670 525977 642127
0110010010100010100000100: 581357 544608 645670 525977 620535
0110010010100010100000100: 581357 544608 543593 525977 507954
0111110000100001000010000: 581357 544608 558301 491576 645670
0111110000100001000010000: 581357 544608 546346 491576 645670
0111110000100001000010000: 581357 544608 546346 543593 645670
0111110000100001000010000: 581357 544608 546346 558301 645670
0111110000100001000010000: 581357 544608 546346 558301 491576
0110010010100010100000100: 581357 544608 546346 525977 642127
0110010010100010100000100: 581357 544608 546346 525977 546198
0110010010100010100000100: 581357 544608 546346 525977 615340
0111110000100001000010000: 581357 544608 489207 491576 645670
0111110000100001000010000: 581357 544608 489207 543593 645670
0111110000100001000010000: 581357 544608 489207 558301 645670
0111110000100001000010000: 581357 544608 489207 558301 491576
0111110000100001000010000: 581357 544608 489207 546346 645670
0111110000100001000010000: 581357 544608 489207 546346 491576
0111110000100001000010000: 581357 544608 489207 546346 543593
0111110000100001000010000: 581357 544608 489207 546346 558301
0110010010100010100000100: 581357 544608 489207 525977 620235
0111010100110001000100010: 581357 544608 523275 645670 642127
0111010100110001000100010: 581357 544608 523275 645670 620535
0111110100110001000010000: 581357 544608 523275 491576 645670
0111110100110001000010000: 581357 544608 523275 543593 645670
0111010100110001000100010: 581357 544608 523275 543593 528343
0111010100110001000100010: 581357 544608 523275 543593 507954
0111110100110001000110010: 581357 544608 523275 543593 491576
0111110100110001000010000: 581357 544608 523275 558301 645670
0111110100110001000010000: 581357 544608 523275 558301 491576
0111010100110001000100010: 581357 544608 523275 558301 546198
0111110100110001000110010: 581357 544608 523275 558301 543593
0111110100110001000010000: 581357 544608 523275 489207 645670
0111110100110001000010000: 581357 544608 523275 489207 491576
0111110100110001000010000: 581357 544608 523275 489207 543593
0111110100110001000010000: 581357 544608 523275 489207 558301
0111010100110001000100010: 581357 544608 523275 489207 620235
0110010010100010100000100: 546346 523275 642127 544608 645670
0110010010100010100000100: 546346 546198 642127 558301 645670
0110010011100000100001000: 546346 546198 642127 533975 558301
0110010010100010100000100: 546346 546198 642127 533975 645670
0110010010100010100000100: 546346 546198 523275 558301 544608
0110010011100000100001000: 546346 546198 523275 533975 558301
0110010010100010100000100: 546346 546198 523275 533975 544608
0110010011100100110001000: 546346 546198 615340 533975 558301
0110010011100100110001000: 546346 546198 581357 558301 533975
0110010010100010100000100: 546346 615340 642127 528343 645670
0110010011100000100001000: 546346 615340 642127 461938 528343
0110010010100010100000100: 546346 615340 642127 461938 645670
0110010011100000100001000: 546346 615340 642127 533975 528343
0110010011100000100001000: 546346 615340 642127 533975 461938
0110010010100010100000100: 546346 615340 642127 533975 645670
0110010010100010100000100: 546346 615340 523275 528343 544608
0110010011100000100001000: 546346 615340 523275 461938 528343
0110010010100010100000100: 546346 615340 523275 461938 544608
0110010011100000100001000: 546346 615340 523275 533975 528343
0110010011100000100001000: 546346 615340 523275 533975 461938
0110010010100010100000100: 546346 615340 523275 533975 544608
0111110000100001000010000: 546346 615340 546198 523275 642127
0110010010100010100000100: 546346 615340 546198 528343 558301
0110010011100000100001000: 546346 615340 546198 461938 528343
0110010010100010100000100: 546346 615340 546198 461938 558301
0110010011100100110001000: 546346 615340 546198 533975 528343
0110010011100100110001000: 546346 615340 546198 533975 461938
0110010011100000100001000: 546346 615340 581357 461938 528343
0110010011100000100001000: 546346 615340 581357 533975 528343
0110010011100000100001000: 546346 615340 581357 533975 461938
0110010011100000100001000: 546346 581357 642127 558301 491576
0110010011100000100001000: 546346 581357 642127 489207 491576
0110010011100000100001000: 546346 581357 642127 489207 543593
0110010011100000100001000: 546346 581357 642127 489207 558301
0110010011100000100001000: 546346 581357 642127 544608 491576
0110010011100000100001000: 546346 581357 642127 544608 543593
0110010011100000100001000: 546346 581357 642127 544608 558301
0110010011100000100001000: 546346 581357 642127 544608 489207
0110010011100100110001000: 546346 581357 642127 645670 491576
0110010011100100110001000: 546346 581357 642127 645670 543593
0110010011100100110001000: 546346 581357 642127 645670 558301
0110010011100100110001000: 546346 581357 642127 645670 489207
0110010011100100110001000: 546346 581357 642127 645670 544608
0110010010100010100000100: 546346 581357 546198 645670 533975
0110010011100000100001000: 546346 581357 546198 491576 645670
0110010010100010100000100: 546346 581357 546198 491576 533975
0110010011100000100001000: 546346 581357 546198 543593 645670
0110010010100010100000100: 546346 581357 546198 543593 533975
0110010011100000100001000: 546346 581357 546198 489207 645670
0110010011100000100001000: 546346 581357 546198 489207 491576
0110010011100000100001000: 546346 581357 546198 489207 543593
0110010010100010100000100: 546346 581357 546198 489207 533975
0110010011100000100001000: 546346 581357 546198 544608 645670
0110010011100000100001000: 546346 581357 546198 544608 491576
0110010011100000100001000: 546346 581357 546198 544608 543593
0110010011100000100001000: 546346 581357 546198 544608 489207
0110010010100010100000100: 546346 581357 546198 544608 533975
0110010011100100110001000: 546346 581357 546198 558301 645670
0110010011100100110001000: 546346 581357 546198 558301 491576
0110010011100100110001000: 546346 581357 546198 558301 489207
0110010011100100110001000: 546346 581357 546198 558301 544608
0111110000100001000010000: 546346 581357 615340 546198 642127
0110010010100010100000100: 546346 581357 615340 645670 528343
0110010010100010100000100: 546346 581357 615340 645670 461938
0110010010100010100000100: 546346 581357 615340 645670 533975
0110010011100000100001000: 546346 581357 615340 491576 645670
0110010010100010100000100: 546346 581357 615340 491576 528343
0110010010100010100000100: 546346 581357 615340 491576 461938
0110010010100010100000100: 546346 581357 615340 491576 533975
0110010011100000100001000: 546346 581357 615340 543593 645670
0110010010100010100000100: 546346 581357 615340 543593 461938
0110010010100010100000100: 546346 581357 615340 543593 533975
0110010011100000100001000: 546346 581357 615340 558301 645670
0110010011100000100001000: 546346 581357 615340 558301 491576
0110010010100010100000100: 546346 581357 615340 558301 528343
0110010010100010100000100: 546346 581357 615340 558301 461938
0110010010100010100000100: 546346 581357 615340 558301 533975
0110010011100000100001000: 546346 581357 615340 489207 645670
0110010011100000100001000: 546346 581357 615340 489207 491576
0110010011100000100001000: 546346 581357 615340 489207 543593
0110010011100000100001000: 546346 581357 615340 489207 558301
0110010010100010100000100: 546346 581357 615340 489207 528343
0110010010100010100000100: 546346 581357 615340 489207 461938
0110010010100010100000100: 546346 581357 615340 489207 533975
0110010011100000100001000: 546346 581357 615340 544608 645670
0110010011100000100001000: 546346 581357 615340 544608 491576
0110010011100000100001000: 546346 581357 615340 544608 543593
0110010011100000100001000: 546346 581357 615340 544608 558301
0110010011100000100001000: 546346 581357 615340 544608 489207
0110010010100010100000100: 546346 581357 615340 544608 528343
0110010010100010100000100: 546346 581357 615340 544608 461938
0110010010100010100000100: 546346 581357 615340 544608 533975
0111110100110001000010000: 546346 581357 523275 546198 642127
0111010100110001000100010: 546346 581357 523275 546198 533975
0111110100110001000010000: 546346 581357 523275 615340 642127
0111110100110001000010000: 546346 581357 523275 615340 546198
0111010100110001000100010: 546346 581357 523275 615340 528343
0111010100110001000100010: 546346 581357 523275 615340 461938
0111010100110001000100010: 546346 581357 523275 615340 533975
0110010011100000100001000: 533975 546198 553058 546346 558301
0110010011100000100001000: 533975 546198 507954 546346 558301
0110010011100000100001000: 533975 615340 553058 461938 528343
0110010011100000100001000: 533975 615340 553058 546346 528343
0110010011100000100001000: 533975 615340 553058 546346 461938
0110010010100010100000100: 533975 615340 546198 528343 558301
0110010011100000100001000: 533975 615340 546198 461938 528343
0110010010100010100000100: 533975 615340 546198 461938 558301
0110010011100000100001000: 533975 615340 507954 461938 528343
0110010011100000100001000: 533975 615340 507954 546346 528343
0110010011100000100001000: 533975 615340 507954 546346 461938
0110010010100010100000100: 533975 507954 546198 543593 546346
0110010010100010100100110: 533975 507954 546198 543593 558301
0110010010100010100000100: 533975 507954 615340 543593 461938
0110010010100010100000100: 533975 507954 615340 543593 546346
0110010010100010100100110: 533975 507954 615340 543593 528343
0111010101110001000001000: 533975 507954 553058 546198 543593
0111010100110001000100010: 533975 507954 553058 546198 558301
0111010100110001000100010: 533975 507954 553058 546198 546346
0111110100110001000010000: 533975 507954 553058 615340 546198
0111010101110001000001000: 533975 507954 553058 615340 543593
0111010100110001000100010: 533975 507954 553058 615340 528343
0111010100110001000100010: 533975 507954 553058 615340 461938
0111010100110001000100010: 533975 507954 553058 615340 546346
0110010011100000100001000: 507954 543593 553058 528343 491576
0110010011100000100001000: 507954 543593 553058 558301 491576
0110010011100000100001000: 507954 543593 553058 558301 528343
0110010011100000100001000: 507954 543593 553058 581357 528343
0110010011100000100001000: 507954 543593 533975 528343 491576
0110010011100000100001000: 507954 543593 533975 558301 491576
0110010011100000100001000: 507954 543593 533975 558301 528343
0110010011100000100001000: 507954 543593 533975 581357 528343
0110010010100010100000100: 507954 533975 543593 546198 491576
0110010010100010100000100: 507954 533975 543593 546198 528343
0110010010100010100000100: 507954 533975 543593 546198 581357
0110010011100000100001000: 507954 533975 543593 615340 546198
0110010010100010100000100: 507954 533975 543593 615340 491576
0110010010100010100000100: 507954 533975 543593 615340 558301
0110010010100010100000100: 507954 533975 543593 615340 581357
0111010100110001000100010: 507954 533975 553058 543593 491576
0111010100110001000100010: 507954 533975 553058 543593 528343
0111010100110001000100010: 507954 533975 553058 543593 558301
0111010100110001000100010: 507954 533975 553058 543593 581357
0110010011100000100001000: 558301 546198 543593 546346 533975
0110010011100000100001000: 558301 546198 525977 546346 533975
0110010010100010100000100: 558301 543593 546198 491576 533975
0110010010100010100000100: 558301 543593 546198 491576 546346
0110010011100000100001000: 558301 543593 546198 528343 491576
0110010010100010100000100: 558301 543593 546198 528343 533975
0110010010100010100000100: 558301 543593 546198 528343 546346
0110010011100000100001000: 558301 543593 546198 507954 491576
0110010011100000100001000: 558301 543593 546198 507954 528343
0110010010100010100000100: 558301 543593 546198 507954 546346
0110010011100000100001000: 558301 543593 525977 507954 491576
0110010011100100110001000: 558301 543593 525977 528343 491576
0110010011100100110001000: 558301 543593 525977 528343 507954
0111010101110001000001000: 558301 543593 581357 546198 528343
0111010101110001000001000: 558301 543593 581357 546198 507954
0111010101110001000001000: 558301 543593 581357 525977 507954
0111010101110001000101010: 558301 543593 581357 525977 528343
0110010010100010100000100: 558301 581357 546198 523275 533975
0110010011100000100001000: 558301 581357 546198 645670 523275
0110010010100010100000100: 558301 581357 546198 645670 533975
0110010011100000100001000: 558301 581357 546198 491576 523275
0110010011100000100001000: 558301 581357 546198 491576 645670
0110010010100010100000100: 558301 581357 546198 491576 533975
0110010011100000100001000: 558301 581357 546198 489207 523275
0110010011100000100001000: 558301 581357 546198 489207 645670
0110010011100000100001000: 558301 581357 546198 489207 491576
0110010010100010100000100: 558301 581357 546198 489207 533975
0110010011100000100001000: 558301 581357 546198 544608 645670
0110010011100000100001000: 558301 581357 546198 544608 491576
0110010011100000100001000: 558301 581357 546198 544608 489207
0110010010100010100000100: 558301 581357 546198 544608 533975
0110010011100000100001000: 558301 581357 525977 645670 523275
0110010011100000100001000: 558301 581357 525977 491576 523275
0110010011100000100001000: 558301 581357 525977 491576 645670
0110010011100000100001000: 558301 581357 525977 546346 645670
0110010011100000100001000: 558301 581357 525977 546346 491576
0110010011100000100001000: 558301 581357 525977 489207 523275
0110010011100000100001000: 558301 581357 525977 489207 645670
0110010011100000100001000: 558301 581357 525977 489207 491576
0110010011100000100001000: 558301 581357 525977 489207 546346
0111010100110001000100010: 558301 581357 543593 546198 533975
0111110100110001000010000: 558301 581357 543593 525977 546198
0110010010100010100000100: 558301 525977 546198 528343 533975
0110010010100010100000100: 558301 525977 546198 528343 546346
0110010011100000100001000: 558301 525977 546198 544608 528343
0110010010100010100000100: 558301 525977 546198 544608 533975
0110010010100010100000100: 558301 525977 546198 544608 546346
0110010010100010100000100: 558301 525977 543593 544608 491576
0110010010100010100000100: 558301 525977 543593 544608 507954
0110010011100100110001000: 558301 525977 543593 528343 544608
0110010010100010100000100: 558301 525977 581357 528343 523275
0110010010100010100000100: 558301 525977 581357 528343 645670
0110010010100010100000100: 558301 525977 581357 528343 491576
0110010010100010100000100: 558301 525977 581357 528343 546346
0110010010100010100000100: 558301 525977 581357 528343 489207
0111010101110001000001000: 621391 620535 620235 528343 645670
0111010101110001000001000: 621391 620535 620235 461938 645670
0111010101110001000001000: 621391 620235 620535 528343 489207
0111010100110001000100010: 621391 620235 620535 528343 615340
0111010100110001000100010: 621391 620235 620535 528343 543593
0111010100110001000100010: 621391 620235 620535 528343 525977
0111110100110001000010000: 621391 620235 620535 461938 528343
0111010101110001000001000: 621391 620235 620535 461938 489207
0111010100110001000100010: 621391 620235 620535 461938 615340
0110010010100010100000100: 621391 528343 620535 615340 645670
0110010011100000100001000: 621391 528343 620535 543593 615340
0110010010100010100000100: 621391 528343 620535 543593 645670
0110010011100000100001000: 621391 528343 620535 525977 615340
0110010011100000100001000: 621391 528343 620535 525977 543593
0110010010100010100000100: 621391 528343 620535 525977 645670
0110010010100010100000100: 621391 528343 620235 615340 489207
0110010011100000100001000: 621391 528343 620235 543593 615340
0110010010100010100000100: 621391 528343 620235 543593 489207
0110010011100000100001000: 621391 528343 620235 525977 615340
0110010011100000100001000: 621391 528343 620235 525977 543593
0110010010100010100000100: 621391 528343 620235 525977 489207
0110010011100000100001000: 621391 528343 461938 525977 543593
0110010011100100110001000: 621391 528343 461938 615340 543593
0110010011100100110001000: 621391 528343 461938 615340 525977
0110010010100010100000100: 621391 461938 620535 615340 645670
0110010010100010100000100: 621391 461938 620235 615340 489207
0110010011100000100001000: 461938 615340 621391 546346 533975
0110010011100100110001000: 461938 615340 621391 528343 533975
0110010011100100110001000: 461938 615340 621391 528343 546346
0110010010100010100000100: 461938 621391 615340 620535 533975
0110010010100010100000100: 461938 621391 615340 620535 546346
0110010010100010100000100: 461938 621391 615340 620235 533975
0110010010100010100000100: 461938 621391 615340 620235 546346
0110010011100100110001000: 461938 621391 615340 528343 620535
0110010011100100110001000: 461938 621391 615340 528343 620235
0110010011100000100001000: 543593 528343 491576 621391 615340
0110010011100000100001000: 543593 528343 491576 525977 615340
0110010011100000100001000: 543593 528343 491576 525977 621391
0110010011100000100001000: 543593 528343 558301 621391 615340
0110010011100000100001000: 543593 528343 507954 621391 615340
0110010011100000100001000: 543593 528343 507954 525977 615340
0110010011100000100001000: 543593 528343 507954 525977 621391
0110010011100000100001000: 543593 528343 581357 621391 615340
0110010011100000100001000: 543593 528343 581357 525977 615340
0110010011100000100001000: 543593 528343 581357 525977 621391
0110010011100000100001000: 543593 558301 491576 525977 546198
0110010010100010100000100: 543593 558301 528343 546198 615340
0110010010100010100000100: 543593 558301 528343 546198 621391
0110010011100000100001000: 543593 558301 507954 525977 546198
0110010010100010100000100: 543593 507954 528343 553058 615340
0110010010100010100000100: 543593 507954 528343 553058 621391
0110010010100010100000100: 543593 507954 528343 553058 525977
0110010010100010100000100: 543593 507954 528343 533975 621391
0110010010100010100000100: 543593 507954 528343 533975 525977
0111110000100001000010000: 543593 507954 558301 528343 491576
0110010010100010100000100: 543593 507954 558301 553058 546198
0110010010100010100000100: 543593 507954 558301 553058 525977
0110010010100010100000100: 543593 507954 558301 533975 525977
0110010010100010100000100: 543593 581357 528343 523275 615340
0110010010100010100000100: 543593 581357 528343 523275 621391
0110010010100010100000100: 543593 581357 528343 523275 525977
0110010011100000100001000: 543593 581357 528343 645670 523275
0110010010100010100000100: 543593 581357 528343 645670 615340
0110010010100010100000100: 543593 581357 528343 645670 621391
0110010010100010100000100: 543593 581357 528343 645670 525977
0110010011100000100001000: 543593 581357 528343 546346 645670
0110010010100010100000100: 543593 581357 528343 546346 621391
0110010010100010100000100: 543593 581357 528343 546346 525977
0110010011100000100001000: 543593 581357 528343 489207 523275
0110010011100000100001000: 543593 581357 528343 489207 645670
0110010011100000100001000: 543593 581357 528343 489207 546346
0110010010100010100000100: 543593 581357 528343 489207 615340
0110010010100010100000100: 543593 581357 528343 489207 621391
0110010010100010100000100: 543593 581357 528343 489207 525977
0110010011100000100001000: 543593 581357 528343 544608 645670
0110010011100000100001000: 543593 581357 528343 544608 546346
0110010011100000100001000: 543593 581357 528343 544608 489207
0110010010100010100000100: 543593 581357 528343 544608 615340
0110010010100010100000100: 543593 581357 528343 544608 621391
0110010010100010100000100: 543593 581357 507954 523275 553058
0110010010100010100000100: 543593 581357 507954 523275 533975
0110010011100000100001000: 543593 581357 507954 645670 523275
0110010010100010100000100: 543593 581357 507954 645670 553058
0110010010100010100000100: 543593 581357 507954 645670 533975
0110010011100000100001000: 543593 581357 507954 546346 645670
0110010010100010100000100: 543593 581357 507954 546346 553058
0110010010100010100000100: 543593 581357 507954 546346 533975
0110010011100000100001000: 543593 581357 507954 489207 523275
0110010011100000100001000: 543593 581357 507954 489207 645670
0110010011100000100001000: 543593 581357 507954 489207 546346
0110010010100010100000100: 543593 581357 507954 489207 553058
0110010010100010100000100: 543593 581357 507954 489207 533975
0110010011100000100001000: 543593 581357 507954 544608 645670
0110010011100000100001000: 543593 581357 507954 544608 546346
0110010011100000100001000: 543593 581357 507954 544608 489207
0110010010100010100000100: 543593 581357 507954 544608 553058
0110010010100010100000100: 543593 581357 507954 544608 533975
0111010100110001000100010: 543593 581357 491576 528343 615340
0111010100110001000100010: 543593 581357 491576 528343 621391
0111010100110001000100010: 543593 581357 491576 528343 525977
0111110100110001000010000: 543593 581357 491576 507954 528343
0111010100110001000100010: 543593 581357 491576 507954 553058
0111010100110001000100010: 543593 581357 491576 507954 533975
0111010100110001000100010: 543593 581357 558301 528343 615340
0111010100110001000100010: 543593 581357 558301 528343 621391
0111110100110001000010000: 543593 581357 558301 507954 528343
0111010100110001000100010: 543593 581357 558301 507954 553058
0111010100110001000100010: 543593 581357 558301 507954 533975
0111110110110001100010000: 543593 581357 558301 491576 528343
0111110110110001100010000: 543593 581357 558301 491576 507954
0110010011100000100001000: 615340 528343 461938 525977 543593
0110010011100000100001000: 615340 528343 533975 621391 543593
0110010011100000100001000: 615340 528343 533975 525977 543593
0110010011100000100001000: 615340 528343 533975 525977 621391
0110010011100000100001000: 615340 528343 546346 621391 543593
0110010011100000100001000: 615340 528343 546346 525977 543593
0110010011100000100001000: 615340 528343 546346 525977 621391
0110010010100010100000100: 615340 533975 528343 553058 543593
0110010010100010100000100: 615340 533975 528343 553058 621391
0110010010100010100000100: 615340 533975 528343 553058 525977
0110010011100000100001000: 615340 533975 528343 546198 553058
0110010010100010100000100: 615340 533975 528343 546198 543593
0110010010100010100000100: 615340 533975 528343 546198 621391
0110010010100010100000100: 615340 533975 528343 546198 525977
0110010011100000100001000: 615340 533975 528343 507954 546198
0110010010100010100000100: 615340 533975 528343 507954 621391
0110010010100010100000100: 615340 533975 528343 507954 525977
0110010010100010100000100: 615340 533975 461938 553058 621391
0110010011100000100001000: 615340 533975 461938 546198 553058
0110010010100010100000100: 615340 533975 461938 546198 621391
0110010011100000100001000: 615340 533975 461938 507954 546198
0110010010100010100000100: 615340 533975 461938 507954 621391
0110010011100100110001000: 615340 533975 546346 546198 553058
0110010011100100110001000: 615340 533975 546346 546198 507954
0110010010100010100000100: 615340 546346 528343 642127 543593
0110010010100010100000100: 615340 546346 528343 642127 621391
0110010010100010100000100: 615340 546346 528343 642127 525977
0110010011100000100001000: 615340 546346 528343 523275 642127
0110010010100010100000100: 615340 546346 528343 523275 543593
0110010010100010100000100: 615340 546346 528343 523275 621391
0110010010100010100000100: 615340 546346 528343 523275 525977
0110010011100000100001000: 615340 546346 528343 546198 642127
0110010011100000100001000: 615340 546346 528343 546198 523275
0110010010100010100000100: 615340 546346 528343 546198 543593
0110010010100010100000100: 615340 546346 528343 546198 621391
0110010010100010100000100: 615340 546346 528343 546198 525977
0110010011100000100001000: 615340 546346 528343 581357 642127
0110010011100000100001000: 615340 546346 528343 581357 546198
0110010010100010100000100: 615340 546346 528343 581357 621391
0110010010100010100000100: 615340 546346 528343 581357 525977
0110010010100010100000100: 615340 546346 461938 642127 621391
0110010011100000100001000: 615340 546346 461938 523275 642127
0110010010100010100000100: 615340 546346 461938 523275 621391
0110010011100000100001000: 615340 546346 461938 546198 642127
0110010011100000100001000: 615340 546346 461938 546198 523275
0110010010100010100000100: 615340 546346 461938 546198 621391
0110010011100000100001000: 615340 546346 461938 581357 642127
0110010011100000100001000: 615340 546346 461938 581357 546198
0110010010100010100000100: 615340 546346 461938 581357 621391
0111110000100001000010000: 615340 546346 533975 461938 528343
0110010010100010100000100: 615340 546346 533975 642127 553058
0110010010100010100000100: 615340 546346 533975 642127 507954
0110010011100000100001000: 615340 546346 533975 523275 642127
0110010010100010100000100: 615340 546346 533975 523275 553058
0110010010100010100000100: 615340 546346 533975 523275 507954
0110010011100000100001000: 615340 546346 533975 581357 642127
0110010010100010100000100: 615340 546346 533975 581357 553058
0110010010100010100000100: 615340 546346 533975 581357 507954
0110010011100100110001000: 615340 546346 533975 546198 642127
0110010011100100110001000: 615340 546346 533975 546198 523275
0110010011100100110001000: 615340 546346 533975 546198 581357
0110010011100000100001000: 528343 615340 543593 533975 461938
0110010011100000100001000: 528343 615340 543593 546346 461938
0110010011100000100001000: 528343 615340 543593 546346 533975
0110010011100000100001000: 528343 615340 621391 546346 533975
0110010011100000100001000: 528343 615340 525977 533975 461938
0110010011100000100001000: 528343 615340 525977 546346 461938
0110010011100000100001000: 528343 615340 525977 546346 533975
0110010010100010100000100: 528343 543593 615340 491576 461938
0110010010100010100000100: 528343 543593 615340 491576 533975
0110010010100010100000100: 528343 543593 615340 491576 546346
0110010011100000100001000: 528343 543593 615340 558301 491576
0110010010100010100000100: 528343 543593 615340 558301 461938
0110010010100010100000100: 528343 543593 615340 558301 533975
0110010010100010100000100: 528343 543593 615340 558301 546346
0110010011100000100001000: 528343 543593 615340 507954 491576
0110010011100000100001000: 528343 543593 615340 507954 558301
0110010010100010100000100: 528343 543593 615340 507954 461938
0110010010100010100000100: 528343 543593 615340 507954 546346
0110010011100000100001000: 528343 543593 615340 581357 507954
0110010010100010100000100: 528343 543593 615340 581357 461938
0110010010100010100000100: 528343 543593 615340 581357 533975
0110010011100000100001000: 528343 543593 621391 558301 491576
0110010011100000100001000: 528343 543593 621391 507954 491576
0110010011100000100001000: 528343 543593 621391 507954 558301
0110010011100000100001000: 528343 543593 621391 581357 507954
0110010011100000100001000: 528343 543593 525977 507954 491576
0110010011100000100001000: 528343 543593 525977 581357 507954
0110010010100010100000100: 528343 621391 615340 620535 533975
0110010010100010100000100: 528343 621391 615340 620535 546346
0110010010100010100000100: 528343 621391 615340 620235 533975
0110010010100010100000100: 528343 621391 615340 620235 546346
0110010010100010100000100: 528343 621391 543593 620535 491576
0110010010100010100000100: 528343 621391 543593 620535 558301
0110010010100010100000100: 528343 621391 543593 620535 507954
0110010010100010100000100: 528343 621391 543593 620535 581357
0110010010100010100000100: 528343 621391 543593 620235 491576
0110010010100010100000100: 528343 621391 543593 620235 558301
0110010010100010100000100: 528343 621391 543593 620235 507954
0110010010100010100000100: 528343 621391 543593 620235 581357
0110010011100000100001000: 528343 621391 543593 461938 620535
0110010011100000100001000: 528343 621391 543593 461938 620235
0110010010100010100000100: 528343 621391 543593 461938 491576
0110010010100010100000100: 528343 621391 543593 461938 558301
0110010010100010100000100: 528343 621391 543593 461938 507954
0110010010100010100000100: 528343 621391 543593 461938 581357
0110010011100000100001000: 528343 621391 525977 461938 620535
0110010011100000100001000: 528343 621391 525977 461938 620235
0110010010100010100000100: 528343 525977 615340 558301 461938
0110010010100010100000100: 528343 525977 615340 558301 533975
0110010010100010100000100: 528343 525977 615340 558301 546346
0110010011100000100001000: 528343 525977 615340 544608 558301
0110010010100010100000100: 528343 525977 615340 544608 461938
0110010010100010100000100: 528343 525977 615340 544608 533975
0110010010100010100000100: 528343 525977 615340 544608 546346
0110010010100010100000100: 528343 525977 543593 544608 491576
0110010010100010100000100: 528343 525977 543593 544608 507954
0111110000100001000010000: 528343 525977 621391 543593 615340
0110010010100010100000100: 528343 525977 621391 558301 620535
0110010010100010100000100: 528343 525977 621391 558301 620235
0110010010100010100000100: 528343 525977 621391 558301 461938
0110010011100000100001000: 528343 525977 621391 544608 558301
0110010010100010100000100: 528343 525977 621391 544608 620535
0110010010100010100000100: 528343 525977 621391 544608 620235
0110010010100010100000100: 528343 525977 621391 544608 461938
0111010101110001000001000: 620235 620535 621391 489207 645670
0110010011100000100001000: 620235 621391 489207 461938 528343
0111010100110001000100010: 620235 621391 620535 489207 581357
0110010010100010100000100: 620235 489207 621391 581357 528343
0110010010100010100000100: 620235 489207 621391 581357 461938
0110010011100000100001000: 620535 645670 620235 581357 642127
0110010011100000100001000: 620535 645670 621391 581357 642127
0110010010100010100000100: 620535 620235 645670 489207 642127
0110010010100010100000100: 620535 621391 645670 528343 642127
0110010010100010100000100: 620535 621391 645670 528343 581357
0110010011100000100001000: 620535 621391 645670 461938 528343
0110010010100010100000100: 620535 621391 645670 461938 642127
0110010010100010100000100: 620535 621391 645670 461938 581357
0111010100110001000100010: 620535 621391 620235 645670 642127
0111010100110001000100010: 620535 621391 620235 645670 581357
0110010010100010100000100: 645670 620535 642127 620235 546346
0110010010100010100000100: 645670 620535 642127 621391 546346
0110010011100000100001000: 645670 581357 642127 491576 523275
0110010011100000100001000: 645670 581357 642127 543593 523275
0110010011100000100001000: 645670 581357 642127 558301 523275
0110010011100000100001000: 645670 581357 642127 558301 491576
0110010011100000100001000: 645670 581357 642127 489207 523275
0110010011100000100001000: 645670 581357 642127 489207 491576
0110010011100000100001000: 645670 581357 642127 489207 543593
0110010011100000100001000: 645670 581357 642127 489207 558301
0110010011100000100001000: 645670 581357 642127 544608 491576
0110010011100000100001000: 645670 581357 642127 544608 543593
0110010011100000100001000: 645670 581357 642127 544608 558301
0110010011100000100001000: 645670 581357 642127 544608 489207
0110010010100010100000100: 645670 581357 620535 523275 620235
0110010010100010100000100: 645670 581357 620535 523275 621391
0110010011100000100001000: 645670 581357 620535 491576 523275
0110010010100010100000100: 645670 581357 620535 491576 620235
0110010010100010100000100: 645670 581357 620535 491576 621391
0110010011100000100001000: 645670 581357 620535 543593 523275
0110010010100010100000100: 645670 581357 620535 543593 620235
0110010010100010100000100: 645670 581357 620535 543593 621391
0110010011100000100001000: 645670 581357 620535 558301 523275
0110010011100000100001000: 645670 581357 620535 558301 491576
0110010010100010100000100: 645670 581357 620535 558301 620235
0110010010100010100000100: 645670 581357 620535 558301 621391
0110010011100000100001000: 645670 581357 620535 546346 491576
0110010011100000100001000: 645670 581357 620535 546346 543593
0110010011100000100001000: 645670 581357 620535 546346 558301
0110010010100010100000100: 645670 581357 620535 546346 620235
0110010010100010100000100: 645670 581357 620535 546346 621391
0110010011100000100001000: 645670 581357 620535 489207 523275
0110010011100000100001000: 645670 581357 620535 489207 491576
0110010011100000100001000: 645670 581357 620535 489207 543593
0110010011100000100001000: 645670 581357 620535 489207 558301
0110010011100000100001000: 645670 581357 620535 489207 546346
0110010010100010100000100: 645670 581357 620535 489207 621391
0110010011100000100001000: 645670 581357 620535 544608 491576
0110010011100000100001000: 645670 581357 620535 544608 543593
0110010011100000100001000: 645670 581357 620535 544608 558301
0110010011100000100001000: 645670 581357 620535 544608 546346
0110010011100000100001000: 645670 581357 620535 544608 489207
0110010010100010100000100: 645670 581357 620535 544608 620235
0110010010100010100000100: 645670 581357 620535 544608 621391
0110010011100000100001000: 546198 558301 533975 525977 543593
0110010011100000100001000: 546198 558301 533975 525977 581357
0110010011100000100001000: 546198 558301 546346 525977 543593
0110010010100010100000100: 546198 533975 558301 553058 543593
0110010010100010100000100: 546198 533975 558301 553058 581357
0110010010100010100000100: 546198 533975 558301 553058 525977
0110010011100000100001000: 546198 533975 558301 615340 553058
0110010010100010100000100: 546198 533975 558301 615340 543593
0110010010100010100000100: 546198 533975 558301 615340 581357
0110010010100010100000100: 546198 533975 558301 615340 525977
0110010011100000100001000: 546198 533975 558301 507954 615340
0110010010100010100000100: 546198 533975 558301 507954 581357
0110010010100010100000100: 546198 533975 558301 507954 525977
0110010010100010100000100: 546198 546346 558301 642127 543593
0110010010100010100000100: 546198 546346 558301 642127 525977
0110010011100000100001000: 546198 546346 558301 523275 642127
0110010010100010100000100: 546198 546346 558301 523275 543593
0110010010100010100000100: 546198 546346 558301 523275 525977
0110010011100000100001000: 546198 546346 558301 615340 642127
0110010011100000100001000: 546198 546346 558301 615340 523275
0110010010100010100000100: 546198 546346 558301 615340 543593
0110010010100010100000100: 546198 546346 558301 615340 525977
0110010010100010100000100: 546198 546346 533975 642127 553058
0110010010100010100000100: 546198 546346 533975 642127 507954
0110010011100000100001000: 546198 546346 533975 523275 642127
0110010010100010100000100: 546198 546346 533975 523275 553058
0110010010100010100000100: 546198 546346 533975 523275 507954
0110010011100000100001000: 546198 546346 533975 581357 642127
0110010010100010100000100: 546198 546346 533975 581357 553058
0110010010100010100000100: 546198 546346 533975 581357 507954
0110010011100000100001000: 523275 546346 544608 546198 642127
0110010011100000100001000: 523275 546346 544608 615340 642127
0110010011100000100001000: 523275 546346 544608 615340 546198
0110010010100010100000100: 523275 544608 546346 525977 642127
0110010010100010100000100: 523275 544608 546346 525977 546198
0110010010100010100000100: 523275 544608 546346 525977 615340
0110010010100010100000100: 642127 546346 645670 523275 620535
0110010011100000100001000: 642127 546346 645670 546198 523275
0110010010100010100000100: 642127 546346 645670 546198 620535
0110010011100000100001000: 642127 546346 645670 615340 523275
0110010011100000100001000: 642127 546346 645670 615340 546198
0110010010100010100000100: 642127 546346 645670 615340 620535
