Vertex,0111101011001000,0101101001011010,0111100010001000,0110100010010010,0110101011010010,0110100110000100,0101101101011110,0100101101000100,0111101111011110,0100101101010110,0101101001001000,0110101111010110,0111100010011010,0101101101001100,0100101001010010,0111101011011010,0111100110011110,0111100110001100,0110101111000100,0110100110010110,0111101111001100
584270,342.0,10.0,269.0,256.0,97.0,487.0,3.0,16.0,0.0,4.0,124.0,44.0,72.0,26.0,61.0,46.0,4.0,106.0,155.0,35.0,54.0
545555,42.0,0.0,39.0,111.0,17.0,174.0,0.0,4.0,0.0,0.0,46.0,0.0,4.0,6.0,39.0,0.0,0.0,16.0,21.0,0.0,0.0
496263,23.0,0.0,100.0,133.0,7.0,195.0,0.0,8.0,0.0,0.0,60.0,0.0,4.0,2.0,52.0,0.0,0.0,7.0,11.0,0.0,0.0
517399,301.0,79.0,423.0,308.0,99.0,614.0,1.0,28.0,0.0,4.0,147.0,17.0,75.0,30.0,78.0,18.0,2.0,107.0,143.0,245.0,18.0
494226,955.0,82.0,599.0,556.0,350.0,973.0,31.0,42.0,155.0,2.0,268.0,268.0,158.0,100.0,149.0,277.0,23.0,295.0,466.0,210.0,306.0
606424,1149.0,150.0,764.0,606.0,400.0,1125.0,23.0,52.0,155.0,12.0,307.0,200.0,244.0,112.0,173.0,211.0,17.0,364.0,554.0,420.0,234.0
494254,623.0,114.0,785.0,615.0,203.0,1100.0,16.0,50.0,0.0,8.0,280.0,173.0,139.0,62.0,185.0,190.0,14.0,211.0,297.0,354.0,198.0
596191,270.0,57.0,342.0,272.0,78.0,522.0,8.0,16.0,0.0,4.0,129.0,51.0,82.0,16.0,64.0,52.0,5.0,80.0,122.0,173.0,54.0
577152,128.0,31.0,194.0,145.0,50.0,286.0,0.0,16.0,0.0,0.0,76.0,0.0,18.0,16.0,31.0,0.0,0.0,42.0,64.0,70.0,0.0
462278,1350.0,168.0,922.0,738.0,474.0,1374.0,32.0,62.0,155.0,10.0,392.0,305.0,259.0,132.0,167.0,326.0,27.0,429.0,654.0,486.0,360.0
472720,822.0,54.0,439.0,438.0,293.0,814.0,22.0,28.0,155.0,4.0,242.0,183.0,148.0,78.0,109.0,187.0,15.0,247.0,397.0,140.0,216.0
514537,230.0,0.0,198.0,247.0,89.0,442.0,10.0,20.0,0.0,4.0,134.0,61.0,48.0,26.0,67.0,64.0,6.0,73.0,115.0,0.0,72.0
504129,357.0,54.0,452.0,463.0,148.0,786.0,10.0,46.0,0.0,4.0,226.0,85.0,69.0,48.0,181.0,82.0,8.0,126.0,184.0,142.0,90.0
613450,329.0,60.0,426.0,360.0,122.0,652.0,2.0,34.0,0.0,2.0,163.0,17.0,74.0,36.0,129.0,16.0,2.0,112.0,162.0,177.0,18.0
566975,269.0,62.0,328.0,268.0,101.0,519.0,4.0,24.0,0.0,0.0,137.0,34.0,52.0,30.0,58.0,33.0,3.0,89.0,133.0,175.0,36.0
647424,788.0,103.0,703.0,540.0,248.0,981.0,8.0,36.0,0.0,8.0,224.0,108.0,184.0,68.0,125.0,128.0,9.0,250.0,370.0,319.0,144.0
479585,90.0,14.0,212.0,159.0,25.0,309.0,0.0,12.0,0.0,0.0,89.0,0.0,16.0,6.0,29.0,0.0,0.0,25.0,41.0,35.0,0.0
619840,0.0,0.0,15.0,26.0,0.0,43.0,0.0,2.0,0.0,0.0,13.0,0.0,0.0,0.0,7.0,0.0,0.0,0.0,0.0,0.0,0.0
534482,287.0,76.0,321.0,400.0,104.0,669.0,6.0,30.0,0.0,12.0,183.0,24.0,104.0,32.0,153.0,22.0,4.0,101.0,144.0,208.0,18.0
639091,220.0,20.0,325.0,333.0,72.0,584.0,2.0,18.0,0.0,2.0,153.0,27.0,56.0,16.0,101.0,30.0,1.0,65.0,102.0,70.0,36.0
494239,256.0,31.0,379.0,320.0,84.0,603.0,2.0,14.0,0.0,0.0,149.0,27.0,54.0,20.0,77.0,33.0,2.0,76.0,120.0,105.0,36.0
582704,181.0,0.0,132.0,97.0,59.0,220.0,0.0,6.0,0.0,4.0,56.0,0.0,50.0,18.0,17.0,0.0,0.0,58.0,87.0,0.0,0.0
471474,163.0,0.0,83.0,182.0,71.0,298.0,4.0,10.0,0.0,4.0,89.0,17.0,36.0,22.0,62.0,18.0,2.0,55.0,85.0,0.0,18.0
489472,123.0,52.0,317.0,227.0,27.0,424.0,0.0,10.0,0.0,0.0,125.0,0.0,24.0,2.0,50.0,0.0,0.0,27.0,51.0,136.0,0.0
615656,457.0,47.0,320.0,321.0,150.0,574.0,12.0,18.0,0.0,8.0,148.0,95.0,128.0,36.0,114.0,103.0,8.0,140.0,216.0,140.0,108.0
547441,56.0,0.0,63.0,149.0,29.0,229.0,0.0,6.0,0.0,0.0,63.0,0.0,6.0,10.0,61.0,0.0,0.0,21.0,31.0,0.0,0.0
592353,63.0,0.0,117.0,197.0,36.0,297.0,0.0,14.0,0.0,0.0,81.0,0.0,6.0,12.0,73.0,0.0,0.0,24.0,36.0,0.0,0.0
466635,90.0,0.0,153.0,169.0,39.0,290.0,0.0,10.0,0.0,0.0,76.0,0.0,10.0,14.0,64.0,0.0,0.0,34.0,47.0,0.0,0.0
graph,2491.0,316.0,2355.0,2159.0,868.0,3896.0,49.0,158.0,155.0,24.0,1045.0,434.0,530.0,244.0,619.0,459.0,38.0,795.0,1202.0,910.0,504.0
