Vertex,0110101111000100,0100101101010110,0110100010010010,0110100110000100,0111100110001100,0111100010001000,0101101101001100,0101101101011110,0110100110010110,0110101011010010,0101101001011010,0111101011001000,0100101101000100,0111100010011010,0100101001010010,0110101111010110,0111101111011110,0111101111001100,0111100110011110,0111101011011010,0101101001001000
492904,481.0,30.0,322.0,608.0,356.0,228.0,104.0,37.0,373.0,344.0,145.0,995.0,18.0,254.0,139.0,302.0,155.0,342.0,34.0,321.0,207.0
529791,295.0,16.0,275.0,495.0,201.0,205.0,50.0,29.0,235.0,207.0,85.0,621.0,10.0,168.0,99.0,231.0,155.0,252.0,23.0,233.0,149.0
568145,249.0,14.0,213.0,441.0,169.0,258.0,42.0,18.0,301.0,173.0,102.0,530.0,2.0,145.0,73.0,146.0,155.0,162.0,14.0,148.0,141.0
616432,76.0,0.0,140.0,298.0,44.0,163.0,8.0,5.0,37.0,44.0,10.0,173.0,2.0,32.0,56.0,61.0,0.0,72.0,4.0,64.0,93.0
477242,92.0,2.0,192.0,378.0,59.0,212.0,14.0,5.0,109.0,59.0,36.0,201.0,10.0,41.0,52.0,71.0,0.0,90.0,5.0,78.0,100.0
575443,325.0,10.0,319.0,678.0,255.0,521.0,54.0,16.0,389.0,201.0,102.0,730.0,12.0,187.0,66.0,220.0,155.0,270.0,24.0,243.0,135.0
536988,320.0,12.0,290.0,536.0,228.0,293.0,58.0,23.0,237.0,229.0,86.0,686.0,18.0,159.0,120.0,258.0,155.0,288.0,25.0,259.0,175.0
581357,428.0,40.0,378.0,725.0,314.0,353.0,94.0,28.0,439.0,321.0,138.0,858.0,24.0,304.0,165.0,235.0,155.0,234.0,25.0,227.0,235.0
594989,297.0,20.0,411.0,747.0,237.0,285.0,58.0,32.0,169.0,215.0,51.0,620.0,20.0,188.0,160.0,269.0,155.0,270.0,30.0,261.0,234.0
575223,342.0,18.0,346.0,681.0,283.0,364.0,60.0,26.0,282.0,226.0,84.0,754.0,16.0,208.0,106.0,248.0,155.0,270.0,31.0,253.0,156.0
622130,238.0,18.0,501.0,933.0,188.0,618.0,58.0,5.0,486.0,181.0,161.0,477.0,36.0,145.0,212.0,108.0,0.0,144.0,10.0,125.0,262.0
498701,135.0,6.0,288.0,501.0,92.0,305.0,30.0,2.0,169.0,101.0,61.0,273.0,18.0,64.0,103.0,27.0,0.0,36.0,1.0,30.0,150.0
623312,62.0,0.0,161.0,280.0,51.0,156.0,12.0,0.0,72.0,40.0,26.0,134.0,10.0,18.0,44.0,0.0,0.0,0.0,0.0,0.0,71.0
588644,109.0,2.0,81.0,224.0,76.0,149.0,16.0,0.0,0.0,64.0,0.0,246.0,0.0,64.0,18.0,10.0,0.0,18.0,0.0,12.0,50.0
523068,157.0,6.0,359.0,619.0,106.0,407.0,38.0,2.0,173.0,127.0,59.0,310.0,34.0,65.0,131.0,34.0,0.0,36.0,2.0,34.0,185.0
534781,118.0,6.0,208.0,440.0,101.0,262.0,22.0,0.0,105.0,73.0,34.0,260.0,8.0,62.0,82.0,20.0,0.0,36.0,0.0,24.0,142.0
477326,12.0,0.0,145.0,199.0,8.0,63.0,4.0,0.0,0.0,12.0,0.0,19.0,10.0,2.0,51.0,0.0,0.0,0.0,0.0,0.0,60.0
479937,40.0,0.0,181.0,281.0,32.0,109.0,6.0,0.0,0.0,23.0,0.0,91.0,6.0,14.0,84.0,0.0,0.0,0.0,0.0,0.0,85.0
612228,0.0,0.0,49.0,63.0,0.0,24.0,0.0,0.0,0.0,0.0,0.0,0.0,4.0,0.0,12.0,0.0,0.0,0.0,0.0,0.0,18.0
461952,12.0,0.0,78.0,119.0,8.0,93.0,4.0,0.0,0.0,12.0,0.0,21.0,14.0,2.0,22.0,0.0,0.0,0.0,0.0,0.0,34.0
553631,12.0,0.0,147.0,206.0,8.0,108.0,4.0,0.0,0.0,12.0,0.0,21.0,16.0,2.0,57.0,0.0,0.0,0.0,0.0,0.0,62.0
graph,950.0,50.0,1271.0,2363.0,704.0,1294.0,184.0,57.0,894.0,666.0,295.0,2005.0,72.0,531.0,463.0,560.0,310.0,630.0,57.0,578.0,686.0
