Vertex,0110101111000100,0111101011001000,0101101001001000,0110100110010110,0111101111001100,0110100110000100,0101101101011110,0110101011010010,0111100110011110,0100101101000100,0101101001011010,0110101111010110,0111101011011010,0100101001010010,0111100010011010,0111100110001100,0101101101001100,0110100010010010,0111100010001000
648339,157.0,363.0,126.0,35.0,72.0,433.0,2.0,91.0,6.0,2.0,6.0,47.0,63.0,84.0,79.0,94.0,14.0,240.0,439.0
632690,62.0,137.0,44.0,35.0,18.0,188.0,0.0,40.0,0.0,2.0,6.0,10.0,12.0,21.0,30.0,38.0,8.0,84.0,203.0
531818,92.0,203.0,96.0,35.0,36.0,344.0,2.0,58.0,2.0,8.0,6.0,27.0,31.0,60.0,42.0,56.0,12.0,169.0,210.0
520669,61.0,150.0,12.0,0.0,36.0,92.0,0.0,31.0,4.0,0.0,0.0,20.0,32.0,10.0,35.0,36.0,2.0,35.0,104.0
618594,44.0,110.0,20.0,0.0,54.0,100.0,2.0,22.0,6.0,0.0,0.0,37.0,51.0,7.0,22.0,22.0,0.0,41.0,112.0
471764,45.0,110.0,30.0,35.0,18.0,165.0,0.0,23.0,2.0,2.0,6.0,10.0,16.0,16.0,27.0,28.0,2.0,69.0,179.0
580734,20.0,50.0,46.0,0.0,0.0,150.0,0.0,10.0,0.0,2.0,0.0,0.0,0.0,30.0,10.0,10.0,0.0,77.0,199.0
608476,20.0,50.0,28.0,0.0,0.0,98.0,0.0,10.0,0.0,0.0,0.0,0.0,0.0,4.0,10.0,10.0,0.0,48.0,184.0
572180,20.0,50.0,58.0,0.0,0.0,180.0,0.0,10.0,0.0,0.0,0.0,0.0,0.0,34.0,10.0,10.0,0.0,92.0,232.0
627909,21.0,41.0,62.0,35.0,0.0,275.0,0.0,17.0,0.0,2.0,6.0,0.0,0.0,31.0,17.0,20.0,6.0,122.0,83.0
655221,58.0,136.0,28.0,0.0,54.0,112.0,2.0,32.0,4.0,0.0,0.0,37.0,47.0,9.0,26.0,32.0,4.0,48.0,136.0
563226,0.0,0.0,67.0,0.0,0.0,204.0,0.0,0.0,0.0,2.0,0.0,0.0,0.0,49.0,0.0,0.0,0.0,114.0,63.0
624141,0.0,0.0,16.0,0.0,0.0,56.0,0.0,0.0,0.0,0.0,0.0,0.0,0.0,0.0,0.0,0.0,0.0,30.0,0.0
580704,0.0,0.0,115.0,35.0,0.0,380.0,0.0,0.0,0.0,8.0,9.0,0.0,0.0,94.0,0.0,0.0,0.0,200.0,165.0
570822,14.0,26.0,53.0,35.0,0.0,189.0,0.0,10.0,0.0,4.0,6.0,0.0,0.0,35.0,4.0,10.0,4.0,101.0,87.0
644799,14.0,26.0,71.0,70.0,0.0,233.0,0.0,10.0,0.0,6.0,15.0,0.0,0.0,33.0,4.0,10.0,4.0,105.0,146.0
607308,0.0,0.0,34.0,0.0,0.0,113.0,0.0,0.0,0.0,4.0,0.0,0.0,0.0,23.0,0.0,0.0,0.0,61.0,39.0
580265,0.0,0.0,26.0,35.0,0.0,99.0,0.0,0.0,0.0,0.0,9.0,0.0,0.0,20.0,0.0,0.0,0.0,50.0,72.0
478510,0.0,0.0,32.0,70.0,0.0,145.0,0.0,0.0,0.0,6.0,15.0,0.0,0.0,28.0,0.0,0.0,0.0,78.0,83.0
graph,157.0,363.0,241.0,105.0,72.0,889.0,2.0,91.0,6.0,12.0,21.0,47.0,63.0,147.0,79.0,94.0,14.0,441.0,684.0
