0110010010100010100000100: 536309 617757 584030 570357 649039
0110010011100000100001000: 536309 617757 584030 523068 570357
0110010010100010100100110: 536309 617757 584030 523068 649039
0110010011100000100001000: 536309 617757 584030 632735 570357
0110010011100000100001000: 536309 617757 584030 632735 523068
0110010010100010100100110: 536309 617757 584030 632735 649039
0110010011100100110001000: 536309 617757 584030 561428 570357
0110010011100100110001000: 536309 617757 584030 561428 632735
0110010011100000100001000: 617757 561428 570357 653548 484691
0110010011100000100001000: 617757 561428 570357 587362 484691
0110010011100000100001000: 617757 561428 570357 587362 653548
0110010011100000100001000: 617757 561428 570357 532356 484691
0110010011100000100001000: 617757 561428 570357 532356 653548
0110010011100000100001000: 617757 561428 570357 532356 587362
0110010011100000100001000: 617757 561428 570357 649039 653548
0110010011100000100001000: 617757 561428 570357 649039 587362
0110010011100000100001000: 617757 561428 570357 584030 484691
0110010011100000100001000: 617757 561428 570357 584030 653548
0110010011100000100001000: 617757 561428 570357 584030 587362
0110010011100000100001000: 617757 561428 570357 584030 532356
0110010011100000100001000: 617757 561428 570357 637115 484691
0110010011100000100001000: 617757 561428 570357 637115 653548
0110010011100000100001000: 617757 561428 570357 637115 587362
0110010011100000100001000: 617757 561428 570357 637115 649039
0110010011100000100001000: 617757 561428 570357 637115 584030
0110010011100000100001000: 617757 561428 570357 627846 484691
0110010011100000100001000: 617757 561428 570357 627846 653548
0110010011100000100001000: 617757 561428 570357 627846 587362
0110010011100000100001000: 617757 561428 570357 627846 532356
0110010011100000100001000: 617757 561428 570357 627846 649039
0110010011100000100001000: 617757 561428 570357 627846 584030
0110010011100000100001000: 617757 561428 570357 627846 637115
0110010011100100110001000: 617757 561428 570357 547681 484691
0110010011100100110001000: 617757 561428 570357 547681 653548
0110010011100100110001000: 617757 561428 570357 547681 587362
0110010011100100110001000: 617757 561428 570357 547681 532356
0110010011100100110001000: 617757 561428 570357 547681 649039
0110010011100100110001000: 617757 561428 570357 547681 584030
0110010011100100110001000: 617757 561428 570357 547681 637115
0110010011100000100001000: 617757 561428 632735 653548 484691
0110010011100000100001000: 617757 561428 632735 587362 484691
0110010011100000100001000: 617757 561428 632735 587362 653548
0110010011100000100001000: 617757 561428 632735 532356 484691
0110010011100000100001000: 617757 561428 632735 532356 653548
0110010011100000100001000: 617757 561428 632735 532356 587362
0110010011100000100001000: 617757 561428 632735 584030 484691
0110010011100000100001000: 617757 561428 632735 584030 653548
0110010011100000100001000: 617757 561428 632735 584030 587362
0110010011100000100001000: 617757 561428 632735 584030 532356
0110010011100000100001000: 617757 561428 632735 637115 484691
0110010011100000100001000: 617757 561428 632735 637115 653548
0110010011100000100001000: 617757 561428 632735 637115 587362
0110010011100000100001000: 617757 561428 632735 637115 584030
0110010011100000100001000: 617757 561428 632735 627846 484691
0110010011100000100001000: 617757 561428 632735 627846 653548
0110010011100000100001000: 617757 561428 632735 627846 587362
0110010011100000100001000: 617757 561428 632735 627846 532356
0110010011100000100001000: 617757 561428 632735 627846 584030
0110010011100000100001000: 617757 561428 632735 627846 637115
0110010011100000100001000: 617757 561428 632735 547681 484691
0110010011100000100001000: 617757 561428 632735 547681 653548
0110010011100000100001000: 617757 561428 632735 547681 587362
0110010011100000100001000: 617757 561428 632735 547681 532356
0110010011100000100001000: 617757 561428 632735 547681 584030
0110010011100000100001000: 617757 561428 632735 547681 637115
0110010011100100110001000: 617757 561428 632735 649039 653548
0110010011100100110001000: 617757 561428 632735 649039 587362
0110010011100100110001000: 617757 561428 632735 649039 637115
0110010011100100110001000: 617757 561428 632735 649039 627846
0110010011100100110001000: 617757 561428 632735 649039 547681
0110010011100000100001000: 617757 561428 536309 653548 484691
0110010011100000100001000: 617757 561428 536309 587362 484691
0110010011100000100001000: 617757 561428 536309 587362 653548
0110010011100000100001000: 617757 561428 536309 532356 484691
0110010011100000100001000: 617757 561428 536309 532356 653548
0110010011100000100001000: 617757 561428 536309 532356 587362
0110010011100000100001000: 617757 561428 536309 649039 653548
0110010011100000100001000: 617757 561428 536309 649039 587362
0110010011100000100001000: 617757 561428 536309 637115 484691
0110010011100000100001000: 617757 561428 536309 637115 653548
0110010011100000100001000: 617757 561428 536309 637115 587362
0110010011100000100001000: 617757 561428 536309 637115 649039
0110010011100000100001000: 617757 561428 536309 627846 484691
0110010011100000100001000: 617757 561428 536309 627846 653548
0110010011100000100001000: 617757 561428 536309 627846 587362
0110010011100000100001000: 617757 561428 536309 627846 532356
0110010011100000100001000: 617757 561428 536309 627846 649039
0110010011100000100001000: 617757 561428 536309 627846 637115
0110010011100000100001000: 617757 561428 536309 547681 484691
0110010011100000100001000: 617757 561428 536309 547681 653548
0110010011100000100001000: 617757 561428 536309 547681 587362
0110010011100000100001000: 617757 561428 536309 547681 532356
0110010011100000100001000: 617757 561428 536309 547681 649039
0110010011100000100001000: 617757 561428 536309 547681 637115
0110010011100100110001000: 617757 561428 536309 584030 484691
0110010011100100110001000: 617757 561428 536309 584030 653548
0110010011100100110001000: 617757 561428 536309 584030 587362
0110010011100100110001000: 617757 561428 536309 584030 532356
0110010011100100110001000: 617757 561428 536309 584030 637115
0110010011100100110001000: 617757 561428 536309 584030 627846
0110010011100100110001000: 617757 561428 536309 584030 547681
0111010101110001000001000: 617757 561428 523068 570357 484691
0111010101110001000001000: 617757 561428 523068 570357 587362
0111010101110001000001000: 617757 561428 523068 570357 532356
0111010101110001000001000: 617757 561428 523068 570357 584030
0111010101110001000001000: 617757 561428 523068 570357 637115
0111010101110001000001000: 617757 561428 523068 570357 627846
0111010101110001000101010: 617757 561428 523068 570357 547681
0111010101110001000001000: 617757 561428 523068 632735 484691
0111010101110001000001000: 617757 561428 523068 632735 587362
0111010101110001000001000: 617757 561428 523068 632735 532356
0111010101110001000001000: 617757 561428 523068 632735 584030
0111010101110001000001000: 617757 561428 523068 632735 637115
0111010101110001000001000: 617757 561428 523068 632735 627846
0111010101110001000001000: 617757 561428 523068 632735 547681
0111010101110001000001000: 617757 561428 523068 536309 484691
0111010101110001000001000: 617757 561428 523068 536309 587362
0111010101110001000001000: 617757 561428 523068 536309 532356
0111010101110001000001000: 617757 561428 523068 536309 637115
0111010101110001000001000: 617757 561428 523068 536309 627846
0111010101110001000001000: 617757 561428 523068 536309 547681
0111010101110001000101010: 617757 561428 523068 536309 584030
0110010010100010100000100: 617757 523068 570357 599113 547681
0110010011100000100001000: 617757 523068 570357 653548 599113
0110010010100010100000100: 617757 523068 570357 653548 547681
0110010011100000100001000: 617757 523068 570357 649039 599113
0110010011100000100001000: 617757 523068 570357 649039 653548
0110010010100010100000100: 617757 523068 570357 649039 547681
0110010011100000100001000: 617757 523068 632735 653548 599113
0110010011100100110001000: 617757 523068 632735 649039 599113
0110010011100100110001000: 617757 523068 632735 649039 653548
0110010011100000100001000: 617757 523068 536309 653548 599113
0110010011100000100001000: 617757 523068 536309 649039 599113
0110010011100000100001000: 617757 523068 536309 649039 653548
0111010101110001000001000: 617757 523068 561428 570357 599113
0111110100110001000010000: 617757 523068 561428 632735 570357
0111010101110001000001000: 617757 523068 561428 632735 599113
0111010100110001000100010: 617757 523068 561428 632735 496191
0111010100110001000100010: 617757 523068 561428 632735 636062
0111010100110001000100010: 617757 523068 561428 632735 474245
0111110100110001000010000: 617757 523068 561428 536309 570357
0111110100110001000010000: 617757 523068 561428 536309 632735
0111010101110001000001000: 617757 523068 561428 536309 599113
0110010010100010100000100: 617757 632735 570357 649039 547681
0110010011100000100001000: 617757 632735 570357 496191 649039
0110010010100010100000100: 617757 632735 570357 496191 547681
0110010011100000100001000: 617757 632735 570357 636062 649039
0110010011100000100001000: 617757 632735 570357 636062 496191
0110010010100010100000100: 617757 632735 570357 636062 547681
0110010011100000100001000: 617757 632735 570357 474245 649039
0110010011100000100001000: 617757 632735 570357 474245 496191
0110010011100000100001000: 617757 632735 570357 474245 636062
0110010010100010100000100: 617757 632735 570357 474245 547681
0110010010100010100000100: 617757 632735 561428 496191 484691
0110010010100010100000100: 617757 632735 561428 496191 653548
0110010010100010100000100: 617757 632735 561428 496191 587362
0110010010100010100000100: 617757 632735 561428 496191 532356
0110010010100010100000100: 617757 632735 561428 496191 584030
0110010010100010100000100: 617757 632735 561428 496191 637115
0110010010100010100000100: 617757 632735 561428 496191 627846
0110010010100010100000100: 617757 632735 561428 496191 547681
0110010011100000100001000: 617757 632735 561428 636062 496191
0110010010100010100000100: 617757 632735 561428 636062 484691
0110010010100010100000100: 617757 632735 561428 636062 653548
0110010010100010100000100: 617757 632735 561428 636062 587362
0110010010100010100000100: 617757 632735 561428 636062 532356
0110010010100010100000100: 617757 632735 561428 636062 584030
0110010010100010100000100: 617757 632735 561428 636062 637115
0110010010100010100000100: 617757 632735 561428 636062 547681
0110010010100010100100110: 617757 632735 561428 636062 627846
0110010011100000100001000: 617757 632735 561428 474245 496191
0110010011100000100001000: 617757 632735 561428 474245 636062
0110010010100010100000100: 617757 632735 561428 474245 484691
0110010010100010100000100: 617757 632735 561428 474245 653548
0110010010100010100000100: 617757 632735 561428 474245 587362
0110010010100010100000100: 617757 632735 561428 474245 532356
0110010010100010100000100: 617757 632735 561428 474245 584030
0110010010100010100000100: 617757 632735 561428 474245 627846
0110010010100010100000100: 617757 632735 561428 474245 547681
0110010010100010100100110: 617757 632735 561428 474245 637115
0110010011100100110001000: 617757 632735 561428 649039 496191
0110010011100100110001000: 617757 632735 561428 649039 636062
0110010011100100110001000: 617757 632735 561428 649039 474245
0110010010100010100000100: 617757 632735 523068 496191 653548
0110010010100010100100110: 617757 632735 523068 496191 599113
0110010011100000100001000: 617757 632735 523068 636062 496191
0110010010100010100000100: 617757 632735 523068 636062 599113
0110010010100010100000100: 617757 632735 523068 636062 653548
0110010011100000100001000: 617757 632735 523068 474245 496191
0110010011100000100001000: 617757 632735 523068 474245 636062
0110010010100010100000100: 617757 632735 523068 474245 599113
0110010010100010100000100: 617757 632735 523068 474245 653548
0110010011100100110001000: 617757 632735 523068 649039 496191
0110010011100100110001000: 617757 632735 523068 649039 636062
0110010011100100110001000: 617757 632735 523068 649039 474245
0110010011100000100001000: 617757 632735 536309 496191 649039
0110010011100000100001000: 617757 632735 536309 636062 649039
0110010011100000100001000: 617757 632735 536309 636062 496191
0110010011100000100001000: 617757 632735 536309 474245 649039
0110010011100000100001000: 617757 632735 536309 474245 496191
0110010011100000100001000: 617757 632735 536309 474245 636062
0110010010100010100000100: 617757 536309 570357 584030 547681
0110010010100010100000100: 617757 536309 523068 584030 599113
0110010010100010100000100: 617757 536309 523068 584030 653548
0111110000100001000010000: 617757 536309 632735 561428 570357
0111110000100001000010000: 617757 536309 632735 523068 570357
0110010010100010100000100: 617757 536309 632735 584030 496191
0110010010100010100000100: 617757 536309 632735 584030 636062
0110010010100010100000100: 617757 536309 632735 584030 474245
0110010011100000100001000: 547681 561428 570357 653548 484691
0110010011100000100001000: 547681 561428 570357 587362 484691
0110010011100000100001000: 547681 561428 570357 587362 653548
0110010011100000100001000: 547681 561428 570357 532356 484691
0110010011100000100001000: 547681 561428 570357 532356 653548
0110010011100000100001000: 547681 561428 570357 532356 587362
0110010011100000100001000: 547681 561428 570357 523068 484691
0110010011100000100001000: 547681 561428 570357 523068 587362
0110010011100000100001000: 547681 561428 570357 523068 532356
0110010011100000100001000: 547681 561428 570357 649039 653548
0110010011100000100001000: 547681 561428 570357 649039 587362
0110010011100000100001000: 547681 561428 570357 584030 484691
0110010011100000100001000: 547681 561428 570357 584030 653548
0110010011100000100001000: 547681 561428 570357 584030 587362
0110010011100000100001000: 547681 561428 570357 584030 532356
0110010011100000100001000: 547681 561428 570357 584030 523068
0110010011100000100001000: 547681 561428 570357 637115 484691
0110010011100000100001000: 547681 561428 570357 637115 653548
0110010011100000100001000: 547681 561428 570357 637115 587362
0110010011100000100001000: 547681 561428 570357 637115 523068
0110010011100000100001000: 547681 561428 570357 637115 649039
0110010011100000100001000: 547681 561428 570357 637115 584030
0111010101110001000001000: 547681 561428 627846 570357 484691
0111010101110001000001000: 547681 561428 627846 570357 653548
0111010101110001000001000: 547681 561428 627846 570357 587362
0111010101110001000001000: 547681 561428 627846 570357 532356
0111010101110001000001000: 547681 561428 627846 570357 523068
0111010101110001000001000: 547681 561428 627846 570357 649039
0111010101110001000001000: 547681 561428 627846 570357 584030
0111010101110001000001000: 547681 561428 627846 570357 637115
0111010101110001000101010: 547681 561428 627846 570357 617757
0110010010100010100000100: 547681 627846 570357 599113 617757
0110010011100000100001000: 547681 627846 570357 636062 599113
0110010010100010100000100: 547681 627846 570357 636062 617757
0111010101110001000001000: 547681 627846 561428 570357 599113
0111010101110001000001000: 547681 627846 561428 570357 636062
0110010011100100110001000: 627846 599113 561428 523068 496191
0110010011100000100001000: 627846 599113 636062 496191 523068
0110010011100000100001000: 627846 599113 547681 496191 523068
0110010010100010100000100: 627846 561428 599113 484691 496191
0110010011100000100001000: 627846 561428 599113 653548 484691
0110010010100010100000100: 627846 561428 599113 653548 496191
0110010011100000100001000: 627846 561428 599113 587362 484691
0110010011100000100001000: 627846 561428 599113 587362 653548
0110010010100010100000100: 627846 561428 599113 587362 496191
0110010011100000100001000: 627846 561428 599113 532356 484691
0110010011100000100001000: 627846 561428 599113 532356 653548
0110010011100000100001000: 627846 561428 599113 532356 587362
0110010010100010100000100: 627846 561428 599113 532356 496191
0110010011100000100001000: 627846 561428 599113 649039 653548
0110010011100000100001000: 627846 561428 599113 649039 587362
0110010010100010100000100: 627846 561428 599113 649039 496191
0110010011100000100001000: 627846 561428 599113 584030 484691
0110010011100000100001000: 627846 561428 599113 584030 653548
0110010011100000100001000: 627846 561428 599113 584030 587362
0110010011100000100001000: 627846 561428 599113 584030 532356
0110010010100010100000100: 627846 561428 599113 584030 496191
0110010011100000100001000: 627846 561428 599113 637115 484691
0110010011100000100001000: 627846 561428 599113 637115 653548
0110010011100000100001000: 627846 561428 599113 637115 587362
0110010011100000100001000: 627846 561428 599113 637115 649039
0110010011100000100001000: 627846 561428 599113 637115 584030
0110010010100010100000100: 627846 561428 599113 637115 496191
0110010011100000100001000: 627846 561428 599113 617757 484691
0110010011100000100001000: 627846 561428 599113 617757 653548
0110010011100000100001000: 627846 561428 599113 617757 587362
0110010011100000100001000: 627846 561428 599113 617757 532356
0110010011100000100001000: 627846 561428 599113 617757 649039
0110010011100000100001000: 627846 561428 599113 617757 584030
0110010011100000100001000: 627846 561428 599113 617757 637115
0110010010100010100000100: 627846 561428 599113 617757 496191
0110010011100100110001000: 627846 561428 599113 523068 484691
0110010011100100110001000: 627846 561428 599113 523068 587362
0110010011100100110001000: 627846 561428 599113 523068 532356
0110010011100100110001000: 627846 561428 599113 523068 584030
0110010011100100110001000: 627846 561428 599113 523068 637115
0110010011100000100001000: 627846 561428 636062 653548 484691
0110010011100000100001000: 627846 561428 636062 587362 484691
0110010011100000100001000: 627846 561428 636062 587362 653548
0110010011100000100001000: 627846 561428 636062 532356 484691
0110010011100000100001000: 627846 561428 636062 532356 653548
0110010011100000100001000: 627846 561428 636062 532356 587362
0110010011100000100001000: 627846 561428 636062 523068 484691
0110010011100000100001000: 627846 561428 636062 523068 587362
0110010011100000100001000: 627846 561428 636062 523068 532356
0110010011100000100001000: 627846 561428 636062 649039 653548
0110010011100000100001000: 627846 561428 636062 649039 587362
0110010011100000100001000: 627846 561428 636062 584030 484691
0110010011100000100001000: 627846 561428 636062 584030 653548
0110010011100000100001000: 627846 561428 636062 584030 587362
0110010011100000100001000: 627846 561428 636062 584030 532356
0110010011100000100001000: 627846 561428 636062 584030 523068
0110010011100000100001000: 627846 561428 636062 637115 484691
0110010011100000100001000: 627846 561428 636062 637115 653548
0110010011100000100001000: 627846 561428 636062 637115 587362
0110010011100000100001000: 627846 561428 636062 637115 523068
0110010011100000100001000: 627846 561428 636062 637115 649039
0110010011100000100001000: 627846 561428 636062 637115 584030
0110010011100000100001000: 627846 561428 636062 617757 484691
0110010011100000100001000: 627846 561428 636062 617757 653548
0110010011100000100001000: 627846 561428 636062 617757 587362
0110010011100000100001000: 627846 561428 636062 617757 532356
0110010011100000100001000: 627846 561428 636062 617757 649039
0110010011100000100001000: 627846 561428 636062 617757 584030
0110010011100000100001000: 627846 561428 636062 617757 637115
0111010101110001000001000: 627846 561428 547681 599113 484691
0111010101110001000001000: 627846 561428 547681 599113 653548
0111010101110001000001000: 627846 561428 547681 599113 587362
0111010101110001000001000: 627846 561428 547681 599113 532356
0111010101110001000001000: 627846 561428 547681 599113 649039
0111010101110001000001000: 627846 561428 547681 599113 584030
0111010101110001000001000: 627846 561428 547681 599113 637115
0111010101110001000001000: 627846 561428 547681 599113 617757
0111010101110001000101010: 627846 561428 547681 599113 523068
0111010101110001000001000: 627846 561428 547681 636062 484691
0111010101110001000001000: 627846 561428 547681 636062 653548
0111010101110001000001000: 627846 561428 547681 636062 587362
0111010101110001000001000: 627846 561428 547681 636062 532356
0111010101110001000001000: 627846 561428 547681 636062 523068
0111010101110001000001000: 627846 561428 547681 636062 649039
0111010101110001000001000: 627846 561428 547681 636062 584030
0111010101110001000001000: 627846 561428 547681 636062 637115
0111010101110001000001000: 627846 561428 547681 636062 617757
0110010010100010100000100: 627846 636062 599113 632735 523068
0110010010100010100100110: 627846 636062 599113 632735 496191
0110010010100010100000100: 627846 636062 561428 632735 484691
0110010010100010100000100: 627846 636062 561428 632735 653548
0110010010100010100000100: 627846 636062 561428 632735 587362
0110010010100010100000100: 627846 636062 561428 632735 532356
0110010010100010100000100: 627846 636062 561428 632735 523068
0110010010100010100000100: 627846 636062 561428 632735 584030
0110010010100010100000100: 627846 636062 561428 632735 637115
0110010010100010100100110: 627846 636062 561428 632735 649039
0110010010100010100000100: 627846 547681 599113 570357 523068
0110010010100010100000100: 627846 547681 599113 570357 496191
0110010010100010100000100: 627846 547681 636062 570357 632735
0111010100110001000100010: 627846 547681 561428 599113 496191
0111110100110001000010000: 627846 547681 561428 636062 599113
0111010100110001000100010: 627846 547681 561428 636062 632735
0110010011100000100001000: 474245 632735 637115 496191 649039
0110010011100000100001000: 474245 632735 637115 636062 649039
0110010011100000100001000: 474245 632735 637115 636062 496191
0110010011100000100001000: 474245 632735 637115 617757 649039
0110010011100000100001000: 474245 632735 637115 617757 496191
0110010011100000100001000: 474245 632735 637115 617757 636062
0110010010100010100000100: 474245 637115 632735 561428 496191
0110010010100010100000100: 474245 637115 632735 561428 636062
0110010010100010100100110: 474245 637115 632735 561428 649039
0110010010100010100000100: 474245 637115 632735 532356 496191
0110010010100010100000100: 474245 637115 632735 532356 636062
0110010010100010100000100: 474245 637115 632735 532356 617757
0110010010100010100100110: 474245 637115 632735 532356 649039
0110010011100000100001000: 637115 561428 474245 653548 484691
0110010011100000100001000: 637115 561428 474245 587362 484691
0110010011100000100001000: 637115 561428 474245 587362 653548
0110010011100000100001000: 637115 561428 474245 523068 484691
0110010011100000100001000: 637115 561428 474245 523068 587362
0110010011100000100001000: 637115 561428 474245 649039 653548
0110010011100000100001000: 637115 561428 474245 649039 587362
0110010011100000100001000: 637115 561428 474245 584030 484691
0110010011100000100001000: 637115 561428 474245 584030 653548
0110010011100000100001000: 637115 561428 474245 584030 587362
0110010011100000100001000: 637115 561428 474245 584030 523068
0110010011100000100001000: 637115 561428 474245 627846 484691
0110010011100000100001000: 637115 561428 474245 627846 653548
0110010011100000100001000: 637115 561428 474245 627846 587362
0110010011100000100001000: 637115 561428 474245 627846 523068
0110010011100000100001000: 637115 561428 474245 627846 649039
0110010011100000100001000: 637115 561428 474245 627846 584030
0110010011100000100001000: 637115 561428 474245 547681 484691
0110010011100000100001000: 637115 561428 474245 547681 653548
0110010011100000100001000: 637115 561428 474245 547681 587362
0110010011100000100001000: 637115 561428 474245 547681 523068
0110010011100000100001000: 637115 561428 474245 547681 649039
0110010011100000100001000: 637115 561428 474245 547681 584030
0110010011100000100001000: 637115 561428 474245 617757 484691
0110010011100000100001000: 637115 561428 474245 617757 653548
0110010011100000100001000: 637115 561428 474245 617757 587362
0110010011100000100001000: 637115 561428 474245 617757 649039
0110010011100000100001000: 637115 561428 474245 617757 584030
0110010011100000100001000: 637115 561428 474245 617757 627846
0110010011100000100001000: 637115 561428 474245 617757 547681
0111010101110001000001000: 637115 561428 532356 474245 484691
0111010101110001000001000: 637115 561428 532356 474245 653548
0111010101110001000001000: 637115 561428 532356 474245 587362
0111010101110001000001000: 637115 561428 532356 474245 523068
0111010101110001000001000: 637115 561428 532356 474245 584030
0111010101110001000001000: 637115 561428 532356 474245 627846
0111010101110001000001000: 637115 561428 532356 474245 547681
0111010101110001000001000: 637115 561428 532356 474245 617757
0111010100110001000100010: 637115 532356 561428 474245 632735
0110010010100010100000100: 637115 474245 561428 632735 484691
0110010010100010100000100: 637115 474245 561428 632735 653548
0110010010100010100000100: 637115 474245 561428 632735 587362
0110010010100010100000100: 637115 474245 561428 632735 523068
0110010010100010100000100: 637115 474245 561428 632735 584030
0110010010100010100000100: 637115 474245 561428 632735 627846
0110010010100010100000100: 637115 474245 561428 632735 547681
0110010011100000100001000: 636062 632735 627846 496191 649039
0110010011100000100001000: 636062 632735 627846 474245 649039
0110010011100000100001000: 636062 632735 627846 474245 496191
0110010011100000100001000: 636062 632735 627846 617757 649039
0110010011100000100001000: 636062 632735 627846 617757 496191
0110010011100000100001000: 636062 632735 627846 617757 474245
0110010010100010100000100: 636062 627846 632735 599113 649039
0110010010100010100000100: 636062 627846 632735 599113 474245
0110010010100010100000100: 636062 627846 632735 599113 617757
0110010011100000100001000: 636062 627846 632735 561428 599113
0110010010100010100000100: 636062 627846 632735 561428 496191
0110010010100010100000100: 636062 627846 632735 561428 474245
0110010011100000100001000: 636062 627846 632735 547681 599113
0110010010100010100000100: 636062 627846 632735 547681 649039
0110010010100010100000100: 636062 627846 632735 547681 496191
0110010010100010100000100: 636062 627846 632735 547681 474245
0110010010100010100000100: 636062 627846 632735 547681 617757
0110010011100000100001000: 510003 587362 496191 561428 474344
0110010010100010100000100: 510003 496191 587362 599113 474344
0110010010100010100000100: 510003 496191 587362 599113 561428
0110010011100000100001000: 510003 496191 587362 632735 599113
0110010010100010100000100: 510003 496191 587362 632735 474344
0110010010100010100000100: 510003 496191 587362 632735 561428
0110010011100000100001000: 496191 599113 632735 627846 523068
0110010011100000100001000: 496191 599113 510003 627846 523068
0110010010100010100000100: 496191 632735 599113 649039 627846
0110010010100010100100110: 496191 632735 599113 649039 523068
0110010011100000100001000: 496191 632735 599113 636062 649039
0110010010100010100000100: 496191 632735 599113 636062 523068
0110010011100000100001000: 496191 632735 599113 474245 649039
0110010011100000100001000: 496191 632735 599113 474245 636062
0110010010100010100000100: 496191 632735 599113 474245 523068
0110010010100010100000100: 496191 632735 599113 474245 627846
0110010011100000100001000: 496191 632735 599113 617757 649039
0110010011100000100001000: 496191 632735 599113 617757 636062
0110010011100000100001000: 496191 632735 599113 617757 474245
0110010010100010100000100: 496191 632735 599113 617757 627846
0110010011100000100001000: 496191 632735 510003 636062 649039
0110010011100000100001000: 496191 632735 510003 474245 649039
0110010011100000100001000: 496191 632735 510003 474245 636062
0110010011100000100001000: 496191 632735 510003 617757 649039
0110010011100000100001000: 496191 632735 510003 617757 636062
0110010011100000100001000: 496191 632735 510003 617757 474245
0110010010100010100000100: 496191 510003 599113 587362 523068
0110010010100010100000100: 496191 510003 599113 587362 627846
0110010010100010100000100: 496191 510003 632735 587362 649039
0110010010100010100000100: 496191 510003 632735 587362 636062
0110010010100010100000100: 496191 510003 632735 587362 474245
0110010010100010100000100: 496191 510003 632735 587362 617757
0110010011100000100001000: 632735 649039 496191 532356 484691
0110010011100000100001000: 632735 649039 496191 523068 484691
0110010011100000100001000: 632735 649039 496191 523068 532356
0110010011100000100001000: 632735 649039 496191 584030 484691
0110010011100000100001000: 632735 649039 496191 584030 532356
0110010011100000100001000: 632735 649039 496191 584030 523068
0110010011100000100001000: 632735 649039 636062 532356 484691
0110010011100000100001000: 632735 649039 636062 523068 484691
0110010011100000100001000: 632735 649039 636062 523068 532356
0110010011100000100001000: 632735 649039 636062 584030 484691
0110010011100000100001000: 632735 649039 636062 584030 532356
0110010011100000100001000: 632735 649039 636062 584030 523068
0110010011100000100001000: 632735 649039 474245 532356 484691
0110010011100000100001000: 632735 649039 474245 523068 484691
0110010011100000100001000: 632735 649039 474245 523068 532356
0110010011100000100001000: 632735 649039 474245 584030 484691
0110010011100000100001000: 632735 649039 474245 584030 532356
0110010011100000100001000: 632735 649039 474245 584030 523068
0110010011100000100001000: 632735 649039 617757 532356 484691
0110010011100000100001000: 632735 649039 617757 584030 484691
0110010011100000100001000: 632735 649039 617757 584030 532356
0110010011100100110001000: 632735 649039 617757 523068 484691
0110010011100100110001000: 632735 649039 617757 523068 532356
0110010011100100110001000: 632735 649039 617757 523068 584030
0110010010100010100000100: 632735 496191 649039 599113 484691
0110010010100010100000100: 632735 496191 649039 599113 561428
0110010010100010100000100: 632735 496191 649039 599113 532356
0110010010100010100000100: 632735 496191 649039 599113 584030
0110010011100000100001000: 632735 496191 649039 510003 599113
0110010010100010100000100: 632735 496191 649039 510003 484691
0110010010100010100000100: 632735 496191 649039 510003 561428
0110010010100010100000100: 632735 496191 649039 510003 532356
0110010010100010100000100: 632735 496191 649039 510003 523068
0110010010100010100000100: 632735 496191 649039 510003 584030
0110010011100000100001000: 632735 496191 636062 510003 599113
0110010011100000100001000: 632735 496191 474245 510003 599113
0110010011100000100001000: 632735 496191 617757 510003 599113
0110010010100010100000100: 632735 636062 649039 627846 484691
0110010010100010100000100: 632735 636062 649039 627846 532356
0110010010100010100000100: 632735 636062 649039 627846 523068
0110010010100010100000100: 632735 636062 649039 627846 584030
0110010010100010100000100: 632735 636062 496191 627846 510003
0110010010100010100000100: 632735 474245 649039 637115 484691
0110010010100010100000100: 632735 474245 649039 637115 523068
0110010010100010100000100: 632735 474245 649039 637115 584030
0110010010100010100000100: 632735 474245 496191 637115 599113
0110010010100010100000100: 632735 474245 496191 637115 510003
0111110000100001000010000: 632735 474245 636062 496191 649039
0110010010100010100000100: 632735 474245 636062 637115 627846
0110010010100010100000100: 632735 617757 649039 570357 484691
0110010010100010100000100: 632735 617757 649039 570357 532356
0110010010100010100000100: 632735 617757 649039 570357 584030
0110010011100000100001000: 632735 617757 649039 536309 570357
0110010010100010100000100: 632735 617757 649039 536309 484691
0110010010100010100000100: 632735 617757 649039 536309 532356
0110010011100100110001000: 632735 617757 649039 561428 570357
0110010011100100110001000: 632735 617757 649039 561428 536309
0110010011100100110001000: 632735 617757 649039 523068 570357
0110010011100100110001000: 632735 617757 649039 523068 536309
0110010010100010100000100: 632735 617757 496191 570357 599113
0110010010100010100000100: 632735 617757 496191 570357 510003
0110010011100000100001000: 632735 617757 496191 561428 570357
0110010010100010100000100: 632735 617757 496191 561428 599113
0110010010100010100000100: 632735 617757 496191 561428 510003
0110010011100000100001000: 632735 617757 496191 523068 570357
0110010010100010100000100: 632735 617757 496191 523068 510003
0110010011100000100001000: 632735 617757 496191 536309 570357
0110010011100000100001000: 632735 617757 496191 536309 561428
0110010011100000100001000: 632735 617757 496191 536309 523068
0110010010100010100000100: 632735 617757 496191 536309 599113
0110010010100010100000100: 632735 617757 496191 536309 510003
0111110000100001000010000: 632735 617757 636062 496191 649039
0110010010100010100000100: 632735 617757 636062 570357 627846
0110010011100000100001000: 632735 617757 636062 561428 570357
0110010011100000100001000: 632735 617757 636062 523068 570357
0110010010100010100000100: 632735 617757 636062 523068 627846
0110010011100000100001000: 632735 617757 636062 536309 570357
0110010011100000100001000: 632735 617757 636062 536309 561428
0110010011100000100001000: 632735 617757 636062 536309 523068
0110010010100010100000100: 632735 617757 636062 536309 627846
0111110000100001000010000: 632735 617757 474245 496191 649039
0111110000100001000010000: 632735 617757 474245 636062 649039
0111110000100001000010000: 632735 617757 474245 636062 496191
0110010010100010100000100: 632735 617757 474245 570357 637115
0110010011100000100001000: 632735 617757 474245 561428 570357
0110010011100000100001000: 632735 617757 474245 523068 570357
0110010010100010100000100: 632735 617757 474245 523068 637115
0110010011100000100001000: 632735 617757 474245 536309 570357
0110010011100000100001000: 632735 617757 474245 536309 561428
0110010011100000100001000: 632735 617757 474245 536309 523068
0110010010100010100000100: 632735 617757 474245 536309 637115
0110010011100000100001000: 584030 561428 536309 653548 484691
0110010011100000100001000: 584030 561428 536309 587362 484691
0110010011100000100001000: 584030 561428 536309 587362 653548
0110010011100000100001000: 584030 561428 536309 532356 484691
0110010011100000100001000: 584030 561428 536309 532356 653548
0110010011100000100001000: 584030 561428 536309 532356 587362
0110010011100000100001000: 584030 561428 536309 523068 484691
0110010011100000100001000: 584030 561428 536309 523068 587362
0110010011100000100001000: 584030 561428 536309 523068 532356
0110010011100000100001000: 584030 561428 536309 637115 484691
0110010011100000100001000: 584030 561428 536309 637115 653548
0110010011100000100001000: 584030 561428 536309 637115 587362
0110010011100000100001000: 584030 561428 536309 637115 523068
0110010011100000100001000: 584030 561428 536309 627846 484691
0110010011100000100001000: 584030 561428 536309 627846 653548
0110010011100000100001000: 584030 561428 536309 627846 587362
0110010011100000100001000: 584030 561428 536309 627846 532356
0110010011100000100001000: 584030 561428 536309 627846 523068
0110010011100000100001000: 584030 561428 536309 627846 637115
0110010011100000100001000: 584030 561428 536309 547681 484691
0110010011100000100001000: 584030 561428 536309 547681 653548
0110010011100000100001000: 584030 561428 536309 547681 587362
0110010011100000100001000: 584030 561428 536309 547681 532356
0110010011100000100001000: 584030 561428 536309 547681 523068
0110010011100000100001000: 584030 561428 536309 547681 637115
0111010101110001000001000: 584030 561428 649039 536309 653548
0111010101110001000001000: 584030 561428 649039 536309 587362
0111010101110001000001000: 584030 561428 649039 536309 637115
0111010101110001000001000: 584030 561428 649039 536309 627846
0111010101110001000001000: 584030 561428 649039 536309 547681
0111010101110001000101010: 584030 561428 649039 536309 617757
0110010011100000100001000: 584030 649039 536309 532356 484691
0110010011100000100001000: 584030 649039 536309 523068 484691
0110010011100000100001000: 584030 649039 536309 523068 532356
0110010011100000100001000: 584030 649039 536309 632735 484691
0110010011100000100001000: 584030 649039 536309 632735 532356
0110010011100000100001000: 584030 649039 536309 632735 523068
0111010101110001000001000: 584030 649039 561428 536309 632735
0110010010100010100000100: 584030 536309 649039 617757 484691
0110010010100010100000100: 584030 536309 649039 617757 532356
0111010101110001000001000: 649039 484691 561428 632735 524250
0110010011100000100001000: 649039 561428 632735 587362 653548
0110010011100000100001000: 649039 561428 632735 637115 653548
0110010011100000100001000: 649039 561428 632735 637115 587362
0110010011100000100001000: 649039 561428 632735 627846 653548
0110010011100000100001000: 649039 561428 632735 627846 587362
0110010011100000100001000: 649039 561428 632735 627846 637115
0110010011100000100001000: 649039 561428 632735 547681 653548
0110010011100000100001000: 649039 561428 632735 547681 587362
0110010011100000100001000: 649039 561428 632735 547681 637115
0111010101110001000001000: 649039 561428 484691 632735 653548
0111010101110001000001000: 649039 561428 484691 632735 587362
0111010101110001000001000: 649039 561428 484691 632735 637115
0111010101110001000001000: 649039 561428 484691 632735 627846
0111010101110001000001000: 649039 561428 484691 632735 547681
0111010100110001000100010: 649039 561428 484691 632735 496191
0111010100110001000100010: 649039 561428 484691 632735 636062
0111010100110001000100010: 649039 561428 484691 632735 474245
0111010101110001000101010: 649039 561428 484691 632735 617757
0111010110110011100000100: 649039 561428 484691 532356 524250
0111010110110011100000100: 649039 561428 484691 523068 524250
0111010110110011100000100: 649039 561428 484691 584030 524250
0111010101110001000001000: 649039 561428 532356 632735 653548
0111010101110001000001000: 649039 561428 532356 632735 587362
0111010101110001000001000: 649039 561428 532356 632735 627846
0111010101110001000001000: 649039 561428 532356 632735 547681
0111010101110001000101010: 649039 561428 532356 632735 617757
0111110110110001100010000: 649039 561428 532356 484691 632735
0111010101110001000001000: 649039 561428 523068 632735 587362
0111010101110001000001000: 649039 561428 523068 632735 637115
0111010101110001000001000: 649039 561428 523068 632735 627846
0111010101110001000001000: 649039 561428 523068 632735 547681
0111110110110001100010000: 649039 561428 523068 484691 632735
0111010110110011100000100: 649039 561428 523068 484691 599113
0111110110110001100010000: 649039 561428 523068 532356 632735
0111110111110001100011000: 649039 561428 523068 532356 484691
0111010110110011100000100: 649039 561428 523068 532356 599113
0111010110110011100000100: 649039 561428 523068 584030 599113
0111010101110001000001000: 649039 561428 584030 632735 653548
0111010101110001000001000: 649039 561428 584030 632735 587362
0111010101110001000001000: 649039 561428 584030 632735 637115
0111010101110001000001000: 649039 561428 584030 632735 627846
0111010101110001000001000: 649039 561428 584030 632735 547681
0111010101110001000101010: 649039 561428 584030 632735 617757
0111110110110001100010000: 649039 561428 584030 484691 632735
0111010110110011100000100: 649039 561428 584030 484691 536309
0111110110110001100010000: 649039 561428 584030 532356 632735
0111110111110001100011000: 649039 561428 584030 532356 484691
0111010110110011100000100: 649039 561428 584030 532356 536309
0111110110110001100010000: 649039 561428 584030 523068 632735
0111110111110001100011000: 649039 561428 584030 523068 484691
0111110111110001100011000: 649039 561428 584030 523068 532356
0111010110110011100000100: 649039 561428 584030 523068 536309
0110010010100010100000100: 649039 532356 484691 637115 524250
0111010100110001000100010: 649039 532356 561428 632735 496191
0111010100110001000100010: 649039 532356 561428 632735 636062
0111010100110001000100010: 649039 532356 561428 632735 474245
0110010010100010100000100: 649039 523068 484691 599113 524250
0110010011100000100001000: 649039 523068 484691 653548 599113
0110010010100010100100110: 649039 523068 484691 653548 524250
0110010011100000100001000: 649039 523068 484691 617757 599113
0110010011100000100001000: 649039 523068 484691 617757 653548
0110010010100010100000100: 649039 523068 484691 617757 524250
0110010010100010100000100: 649039 523068 532356 599113 637115
0110010011100000100001000: 649039 523068 532356 653548 599113
0110010010100010100000100: 649039 523068 532356 653548 637115
0110010011100000100001000: 649039 523068 532356 617757 599113
0110010011100000100001000: 649039 523068 532356 617757 653548
0110010010100010100000100: 649039 523068 532356 617757 637115
0110010011100000100001000: 649039 523068 584030 653548 599113
0110010011100000100001000: 649039 523068 584030 617757 599113
0110010011100000100001000: 649039 523068 584030 617757 653548
0110010011100000100001000: 649039 523068 632735 653548 599113
0111010101110001000001000: 649039 523068 561428 632735 599113
0111010100110001000100010: 649039 523068 561428 632735 496191
0111010100110001000100010: 649039 523068 561428 632735 636062
0111010100110001000100010: 649039 523068 561428 632735 474245
0110010010100010100000100: 649039 584030 484691 536309 524250
0110010010100010100000100: 649039 584030 532356 536309 637115
0111110000100001000010000: 649039 584030 523068 532356 484691
0110010010100010100000100: 649039 584030 523068 536309 599113
0110010010100010100000100: 649039 584030 523068 536309 653548
0111010100110001000100010: 649039 584030 561428 632735 496191
0111010100110001000100010: 649039 584030 561428 632735 636062
0111010100110001000100010: 649039 584030 561428 632735 474245
0110010010100010100000100: 649039 632735 484691 496191 524250
0110010011100000100001000: 649039 632735 484691 636062 496191
0110010010100010100000100: 649039 632735 484691 636062 524250
0110010011100000100001000: 649039 632735 484691 474245 496191
0110010011100000100001000: 649039 632735 484691 474245 636062
0110010010100010100000100: 649039 632735 484691 474245 524250
0110010011100000100001000: 649039 632735 484691 617757 496191
0110010011100000100001000: 649039 632735 484691 617757 636062
0110010011100000100001000: 649039 632735 484691 617757 474245
0110010010100010100000100: 649039 632735 484691 617757 524250
0110010010100010100000100: 649039 632735 561428 496191 653548
0110010010100010100000100: 649039 632735 561428 496191 587362
0110010010100010100000100: 649039 632735 561428 496191 637115
0110010010100010100000100: 649039 632735 561428 496191 627846
0110010010100010100000100: 649039 632735 561428 496191 547681
0110010011100000100001000: 649039 632735 561428 636062 496191
0110010010100010100000100: 649039 632735 561428 636062 653548
0110010010100010100000100: 649039 632735 561428 636062 587362
0110010010100010100000100: 649039 632735 561428 636062 637115
0110010010100010100000100: 649039 632735 561428 636062 547681
0110010011100000100001000: 649039 632735 561428 474245 496191
0110010011100000100001000: 649039 632735 561428 474245 636062
0110010010100010100000100: 649039 632735 561428 474245 653548
0110010010100010100000100: 649039 632735 561428 474245 587362
0110010010100010100000100: 649039 632735 561428 474245 627846
0110010010100010100000100: 649039 632735 561428 474245 547681
0110010010100010100000100: 649039 632735 532356 496191 637115
0110010011100000100001000: 649039 632735 532356 636062 496191
0110010010100010100000100: 649039 632735 532356 636062 637115
0110010011100000100001000: 649039 632735 532356 474245 496191
0110010011100000100001000: 649039 632735 532356 474245 636062
0110010011100000100001000: 649039 632735 532356 617757 496191
0110010011100000100001000: 649039 632735 532356 617757 636062
0110010011100000100001000: 649039 632735 532356 617757 474245
0110010010100010100000100: 649039 632735 532356 617757 637115
0111110000100001000010000: 649039 632735 523068 532356 484691
0110010010100010100000100: 649039 632735 523068 496191 653548
0110010011100000100001000: 649039 632735 523068 636062 496191
0110010010100010100000100: 649039 632735 523068 636062 599113
0110010010100010100000100: 649039 632735 523068 636062 653548
0110010011100000100001000: 649039 632735 523068 474245 496191
0110010011100000100001000: 649039 632735 523068 474245 636062
0110010010100010100000100: 649039 632735 523068 474245 599113
0110010010100010100000100: 649039 632735 523068 474245 653548
0111110000100001000010000: 649039 632735 584030 532356 484691
0111110000100001000010000: 649039 632735 584030 523068 484691
0111110000100001000010000: 649039 632735 584030 523068 532356
0110010010100010100000100: 649039 632735 584030 496191 536309
0110010011100000100001000: 649039 632735 584030 636062 496191
0110010010100010100000100: 649039 632735 584030 636062 536309
0110010011100000100001000: 649039 632735 584030 474245 496191
0110010011100000100001000: 649039 632735 584030 474245 636062
0110010010100010100000100: 649039 632735 584030 474245 536309
0110010011100000100001000: 649039 632735 584030 617757 496191
0110010011100000100001000: 649039 632735 584030 617757 636062
0110010011100000100001000: 649039 632735 584030 617757 474245
0110010011100000100001000: 523068 599113 653548 627846 496191
0110010011100000100001000: 523068 599113 649039 627846 496191
0110010011100000100001000: 523068 599113 617757 627846 496191
0110010010100010100000100: 523068 561428 599113 484691 496191
0110010011100000100001000: 523068 561428 599113 587362 484691
0110010010100010100000100: 523068 561428 599113 587362 496191
0110010011100000100001000: 523068 561428 599113 532356 484691
0110010011100000100001000: 523068 561428 599113 532356 587362
0110010010100010100000100: 523068 561428 599113 532356 496191
0110010011100000100001000: 523068 561428 599113 584030 484691
0110010011100000100001000: 523068 561428 599113 584030 587362
0110010011100000100001000: 523068 561428 599113 584030 532356
0110010010100010100000100: 523068 561428 599113 584030 496191
0110010011100000100001000: 523068 561428 599113 637115 484691
0110010011100000100001000: 523068 561428 599113 637115 587362
0110010011100000100001000: 523068 561428 599113 637115 584030
0110010010100010100000100: 523068 561428 599113 637115 496191
0110010011100000100001000: 523068 561428 599113 547681 484691
0110010011100000100001000: 523068 561428 599113 547681 587362
0110010011100000100001000: 523068 561428 599113 547681 532356
0110010011100000100001000: 523068 561428 599113 547681 584030
0110010011100000100001000: 523068 561428 599113 547681 637115
0110010010100010100000100: 523068 561428 599113 547681 496191
0111010101110001000001000: 523068 561428 653548 599113 484691
0111010101110001000001000: 523068 561428 653548 599113 587362
0111010101110001000001000: 523068 561428 653548 599113 532356
0111010101110001000001000: 523068 561428 653548 599113 584030
0111010101110001000001000: 523068 561428 653548 599113 637115
0111010101110001000001000: 523068 561428 653548 599113 547681
0111010101110001000101010: 523068 561428 653548 599113 627846
0111010110110011100000100: 523068 561428 653548 649039 524250
0111010110110011100000100: 523068 561428 653548 617757 524250
0111010101110001000001000: 523068 561428 649039 599113 587362
0111010101110001000001000: 523068 561428 649039 599113 637115
0111010101110001000001000: 523068 561428 649039 599113 547681
0111010101110001000101010: 523068 561428 649039 599113 627846
0111110110110001100010000: 523068 561428 649039 653548 599113
0111010110110011100000100: 523068 561428 649039 653548 632735
0111010101110001000001000: 523068 561428 617757 599113 484691
0111010101110001000001000: 523068 561428 617757 599113 587362
0111010101110001000001000: 523068 561428 617757 599113 532356
0111010101110001000001000: 523068 561428 617757 599113 584030
0111010101110001000001000: 523068 561428 617757 599113 637115
0111010101110001000001000: 523068 561428 617757 599113 547681
0111010101110001000101010: 523068 561428 617757 599113 627846
0111110110110001100010000: 523068 561428 617757 653548 599113
0111010110110011100000100: 523068 561428 617757 653548 570357
0111010110110011100000100: 523068 561428 617757 653548 632735
0111010110110011100000100: 523068 561428 617757 653548 536309
0111110110110001100010000: 523068 561428 617757 649039 599113
0111110111110001100011000: 523068 561428 617757 649039 653548
0111010110110011100000100: 523068 561428 617757 649039 570357
0111010110110011100000100: 523068 561428 617757 649039 536309
0111010110110011100100110: 523068 561428 617757 649039 632735
0110010010100010100000100: 523068 653548 599113 524250 496191
0110010010100010100000100: 523068 653548 599113 524250 627846
0111010101110001000001000: 523068 653548 561428 599113 524250
0111010100110001000100010: 523068 653548 561428 599113 496191
0110010010100010100000100: 523068 649039 599113 484691 496191
0110010010100010100000100: 523068 649039 599113 484691 627846
0110010011100000100001000: 523068 649039 599113 532356 484691
0110010010100010100000100: 523068 649039 599113 532356 496191
0110010010100010100000100: 523068 649039 599113 532356 627846
0110010011100000100001000: 523068 649039 599113 584030 484691
0110010011100000100001000: 523068 649039 599113 584030 532356
0110010010100010100000100: 523068 649039 599113 584030 496191
0110010010100010100000100: 523068 649039 599113 584030 627846
0110010011100000100001000: 523068 649039 599113 632735 484691
0110010011100000100001000: 523068 649039 599113 632735 532356
0110010011100000100001000: 523068 649039 599113 632735 584030
0110010010100010100000100: 523068 649039 599113 632735 627846
0110010011100000100001000: 523068 649039 653548 532356 484691
0110010010100010100000100: 523068 649039 653548 532356 524250
0110010011100000100001000: 523068 649039 653548 584030 484691
0110010011100000100001000: 523068 649039 653548 584030 532356
0110010010100010100000100: 523068 649039 653548 584030 524250
0110010011100000100001000: 523068 649039 653548 632735 484691
0110010011100000100001000: 523068 649039 653548 632735 532356
0110010011100000100001000: 523068 649039 653548 632735 584030
0110010010100010100000100: 523068 649039 653548 632735 524250
0110010011100000100001000: 523068 649039 617757 532356 484691
0110010011100000100001000: 523068 649039 617757 584030 484691
0110010011100000100001000: 523068 649039 617757 584030 532356
0111010100110001000100010: 523068 649039 561428 599113 496191
0110010010100010100000100: 523068 617757 599113 570357 496191
0110010010100010100000100: 523068 617757 599113 570357 627846
0110010011100000100001000: 523068 617757 599113 632735 570357
0110010010100010100000100: 523068 617757 599113 632735 627846
0110010011100000100001000: 523068 617757 599113 536309 570357
0110010011100000100001000: 523068 617757 599113 536309 632735
0110010010100010100000100: 523068 617757 599113 536309 496191
0110010010100010100000100: 523068 617757 599113 536309 627846
0110010010100010100000100: 523068 617757 653548 570357 524250
0110010011100000100001000: 523068 617757 653548 632735 570357
0110010010100010100000100: 523068 617757 653548 632735 524250
0110010011100000100001000: 523068 617757 653548 536309 570357
0110010011100000100001000: 523068 617757 653548 536309 632735
0110010010100010100000100: 523068 617757 653548 536309 524250
0111110000100001000010000: 523068 617757 649039 653548 599113
0110010010100010100000100: 523068 617757 649039 570357 484691
0110010010100010100000100: 523068 617757 649039 570357 532356
0110010010100010100000100: 523068 617757 649039 570357 584030
0110010011100000100001000: 523068 617757 649039 536309 570357
0110010010100010100000100: 523068 617757 649039 536309 484691
0110010010100010100000100: 523068 617757 649039 536309 532356
0111010100110001000100010: 523068 617757 561428 599113 496191
0111010110110011100000100: 532356 561428 649039 637115 632735
0111010110110011100000100: 532356 561428 637115 649039 474245
0110010011100000100001000: 532356 649039 637115 523068 484691
0110010011100000100001000: 532356 649039 637115 584030 484691
0110010011100000100001000: 532356 649039 637115 584030 523068
0110010011100000100001000: 532356 649039 637115 632735 484691
0110010011100000100001000: 532356 649039 637115 632735 523068
0110010011100000100001000: 532356 649039 637115 632735 584030
0110010010100010100000100: 532356 637115 649039 474245 484691
0110010010100010100000100: 532356 637115 649039 474245 523068
0110010010100010100000100: 532356 637115 649039 474245 584030
0110010011100000100001000: 587362 561428 474344 653548 484691
0110010011100000100001000: 587362 561428 474344 532356 484691
0110010011100000100001000: 587362 561428 474344 532356 653548
0110010011100000100001000: 587362 561428 474344 523068 484691
0110010011100000100001000: 587362 561428 474344 523068 532356
0110010011100000100001000: 587362 561428 474344 649039 653548
0110010011100000100001000: 587362 561428 474344 584030 484691
0110010011100000100001000: 587362 561428 474344 584030 653548
0110010011100000100001000: 587362 561428 474344 584030 532356
0110010011100000100001000: 587362 561428 474344 584030 523068
0110010011100000100001000: 587362 561428 474344 637115 484691
0110010011100000100001000: 587362 561428 474344 637115 653548
0110010011100000100001000: 587362 561428 474344 637115 523068
0110010011100000100001000: 587362 561428 474344 637115 649039
0110010011100000100001000: 587362 561428 474344 637115 584030
0110010011100000100001000: 587362 561428 474344 627846 484691
0110010011100000100001000: 587362 561428 474344 627846 653548
0110010011100000100001000: 587362 561428 474344 627846 532356
0110010011100000100001000: 587362 561428 474344 627846 523068
0110010011100000100001000: 587362 561428 474344 627846 649039
0110010011100000100001000: 587362 561428 474344 627846 584030
0110010011100000100001000: 587362 561428 474344 627846 637115
0110010011100000100001000: 587362 561428 474344 547681 484691
0110010011100000100001000: 587362 561428 474344 547681 653548
0110010011100000100001000: 587362 561428 474344 547681 532356
0110010011100000100001000: 587362 561428 474344 547681 523068
0110010011100000100001000: 587362 561428 474344 547681 649039
0110010011100000100001000: 587362 561428 474344 547681 584030
0110010011100000100001000: 587362 561428 474344 547681 637115
0110010011100000100001000: 587362 561428 474344 617757 484691
0110010011100000100001000: 587362 561428 474344 617757 653548
0110010011100000100001000: 587362 561428 474344 617757 532356
0110010011100000100001000: 587362 561428 474344 617757 649039
0110010011100000100001000: 587362 561428 474344 617757 584030
0110010011100000100001000: 587362 561428 474344 617757 637115
0110010011100000100001000: 587362 561428 474344 617757 627846
0110010011100000100001000: 587362 561428 474344 617757 547681
0110010011100000100001000: 587362 561428 510003 653548 484691
0110010011100000100001000: 587362 561428 510003 532356 484691
0110010011100000100001000: 587362 561428 510003 532356 653548
0110010011100000100001000: 587362 561428 510003 523068 484691
0110010011100000100001000: 587362 561428 510003 523068 532356
0110010011100000100001000: 587362 561428 510003 649039 653548
0110010011100000100001000: 587362 561428 510003 584030 484691
0110010011100000100001000: 587362 561428 510003 584030 653548
0110010011100000100001000: 587362 561428 510003 584030 532356
0110010011100000100001000: 587362 561428 510003 584030 523068
0110010011100000100001000: 587362 561428 510003 637115 484691
0110010011100000100001000: 587362 561428 510003 637115 653548
0110010011100000100001000: 587362 561428 510003 637115 523068
0110010011100000100001000: 587362 561428 510003 637115 649039
0110010011100000100001000: 587362 561428 510003 637115 584030
0110010011100000100001000: 587362 561428 510003 627846 484691
0110010011100000100001000: 587362 561428 510003 627846 653548
0110010011100000100001000: 587362 561428 510003 627846 532356
0110010011100000100001000: 587362 561428 510003 627846 523068
0110010011100000100001000: 587362 561428 510003 627846 649039
0110010011100000100001000: 587362 561428 510003 627846 584030
0110010011100000100001000: 587362 561428 510003 627846 637115
0110010011100000100001000: 587362 561428 510003 547681 484691
0110010011100000100001000: 587362 561428 510003 547681 653548
0110010011100000100001000: 587362 561428 510003 547681 532356
0110010011100000100001000: 587362 561428 510003 547681 523068
0110010011100000100001000: 587362 561428 510003 547681 649039
0110010011100000100001000: 587362 561428 510003 547681 584030
0110010011100000100001000: 587362 561428 510003 547681 637115
0110010011100000100001000: 587362 561428 510003 617757 484691
0110010011100000100001000: 587362 561428 510003 617757 653548
0110010011100000100001000: 587362 561428 510003 617757 532356
0110010011100000100001000: 587362 561428 510003 617757 649039
0110010011100000100001000: 587362 561428 510003 617757 584030
0110010011100000100001000: 587362 561428 510003 617757 637115
0110010011100000100001000: 587362 561428 510003 617757 627846
0110010011100000100001000: 587362 561428 510003 617757 547681
0110010010100010100000100: 587362 510003 561428 496191 484691
0110010010100010100000100: 587362 510003 561428 496191 653548
0110010010100010100000100: 587362 510003 561428 496191 532356
0110010010100010100000100: 587362 510003 561428 496191 523068
0110010010100010100000100: 587362 510003 561428 496191 649039
0110010010100010100000100: 587362 510003 561428 496191 584030
0110010010100010100000100: 587362 510003 561428 496191 637115
0110010010100010100000100: 587362 510003 561428 496191 627846
0110010010100010100000100: 587362 510003 561428 496191 547681
0110010010100010100000100: 587362 510003 561428 496191 617757
0110010011100000100001000: 653548 561428 524250 532356 587362
0110010011100000100001000: 653548 561428 524250 649039 587362
0110010011100000100001000: 653548 561428 524250 584030 587362
0110010011100000100001000: 653548 561428 524250 584030 532356
0110010011100000100001000: 653548 561428 524250 637115 587362
0110010011100000100001000: 653548 561428 524250 637115 649039
0110010011100000100001000: 653548 561428 524250 637115 584030
0110010011100000100001000: 653548 561428 524250 627846 587362
0110010011100000100001000: 653548 561428 524250 627846 532356
0110010011100000100001000: 653548 561428 524250 627846 649039
0110010011100000100001000: 653548 561428 524250 627846 584030
0110010011100000100001000: 653548 561428 524250 627846 637115
0110010011100000100001000: 653548 561428 524250 547681 587362
0110010011100000100001000: 653548 561428 524250 547681 532356
0110010011100000100001000: 653548 561428 524250 547681 649039
0110010011100000100001000: 653548 561428 524250 547681 584030
0110010011100000100001000: 653548 561428 524250 547681 637115
0110010011100000100001000: 653548 561428 524250 617757 587362
0110010011100000100001000: 653548 561428 524250 617757 532356
0110010011100000100001000: 653548 561428 524250 617757 649039
0110010011100000100001000: 653548 561428 524250 617757 584030
0110010011100000100001000: 653548 561428 524250 617757 637115
0110010011100000100001000: 653548 561428 524250 617757 627846
0110010011100000100001000: 653548 561428 524250 617757 547681
0110010011100100110001000: 653548 561428 524250 484691 587362
0110010011100100110001000: 653548 561428 524250 484691 532356
0110010011100100110001000: 653548 561428 524250 484691 584030
0110010011100100110001000: 653548 561428 524250 484691 637115
0110010011100100110001000: 653548 561428 524250 484691 627846
0110010011100100110001000: 653548 561428 524250 484691 547681
0110010011100100110001000: 653548 561428 524250 484691 617757
0111010101110001000001000: 653548 561428 523068 524250 587362
0111010101110001000001000: 653548 561428 523068 524250 532356
0111010101110001000001000: 653548 561428 523068 524250 584030
0111010101110001000001000: 653548 561428 523068 524250 637115
0111010101110001000001000: 653548 561428 523068 524250 627846
0111010101110001000001000: 653548 561428 523068 524250 547681
0111010101110001000101010: 653548 561428 523068 524250 484691
0110010010100010100000100: 653548 523068 524250 599113 484691
0110010011100000100001000: 653548 523068 524250 649039 599113
0110010011100000100001000: 653548 523068 524250 617757 599113
0110010011100000100001000: 653548 523068 524250 617757 649039
0110010010100010100000100: 653548 523068 524250 617757 484691
0111010101110001000101010: 561428 484691 649039 653548 524250
0111010101110001000001000: 561428 484691 649039 587362 524250
0111010101110001000001000: 561428 484691 649039 637115 524250
0111010101110001000001000: 561428 484691 649039 627846 524250
0111010101110001000001000: 561428 484691 649039 547681 524250
0111010101110001000001000: 561428 484691 649039 617757 524250
0110010010100010100000100: 561428 587362 484691 474344 524250
0110010011100000100001000: 561428 587362 484691 510003 474344
0110010010100010100000100: 561428 587362 484691 510003 524250
0110010010100010100000100: 561428 587362 653548 474344 524250
0110010011100000100001000: 561428 587362 653548 510003 474344
0110010010100010100000100: 561428 587362 653548 510003 524250
0110010011100000100001000: 561428 587362 532356 510003 474344
0110010011100000100001000: 561428 587362 523068 510003 474344
0110010011100000100001000: 561428 587362 649039 510003 474344
0110010011100000100001000: 561428 587362 584030 510003 474344
0110010011100000100001000: 561428 587362 637115 510003 474344
0110010011100000100001000: 561428 587362 627846 510003 474344
0110010011100000100001000: 561428 587362 547681 510003 474344
0110010011100000100001000: 561428 587362 617757 510003 474344
0111110000100001000010000: 561428 532356 587362 653548 484691
0111110110110001100010000: 561428 532356 637115 649039 653548
0111110110110001100010000: 561428 532356 637115 649039 587362
0111110110110001100010000: 561428 532356 637115 649039 627846
0111110110110001100010000: 561428 532356 637115 649039 547681
0111110110110001100010000: 561428 532356 637115 649039 617757
0110010010100010100000100: 561428 523068 484691 599113 524250
0110010010100010100000100: 561428 523068 587362 599113 474344
0110010010100010100000100: 561428 523068 587362 599113 510003
0111110000100001000010000: 561428 523068 532356 587362 484691
0111110100110001000010000: 561428 523068 653548 587362 484691
0111010100110001000100010: 561428 523068 653548 587362 474344
0111010100110001000100010: 561428 523068 653548 587362 510003
0111110100110001000010000: 561428 523068 653548 532356 484691
0111110100110001000010000: 561428 523068 653548 532356 587362
0111110100110001000010000: 561428 523068 653548 584030 484691
0111110100110001000010000: 561428 523068 653548 584030 587362
0111110100110001000010000: 561428 523068 653548 584030 532356
0111010100110001000100010: 561428 523068 653548 584030 536309
0111110100110001000010000: 561428 523068 653548 637115 484691
0111110100110001000010000: 561428 523068 653548 637115 587362
0111110100110001000010000: 561428 523068 653548 637115 584030
0111010100110001000100010: 561428 523068 653548 637115 474245
0111110100110001000010000: 561428 523068 653548 627846 484691
0111110100110001000010000: 561428 523068 653548 627846 587362
0111110100110001000010000: 561428 523068 653548 627846 532356
0111110100110001000010000: 561428 523068 653548 627846 584030
0111110100110001000010000: 561428 523068 653548 627846 637115
0111010100110001000100010: 561428 523068 653548 627846 636062
0111110100110001000010000: 561428 523068 653548 547681 484691
0111110100110001000010000: 561428 523068 653548 547681 587362
0111110100110001000010000: 561428 523068 653548 547681 532356
0111110100110001000010000: 561428 523068 653548 547681 584030
0111110100110001000010000: 561428 523068 653548 547681 637115
0111010100110001000100010: 561428 523068 653548 547681 570357
0111110110110001100010000: 561428 523068 649039 653548 587362
0111110110110001100010000: 561428 523068 649039 653548 637115
0111110110110001100010000: 561428 523068 649039 653548 627846
0111110110110001100010000: 561428 523068 649039 653548 547681
0111110110110001100010000: 561428 523068 617757 653548 484691
0111110110110001100010000: 561428 523068 617757 653548 587362
0111110110110001100010000: 561428 523068 617757 653548 532356
0111110110110001100010000: 561428 523068 617757 653548 584030
0111110110110001100010000: 561428 523068 617757 653548 637115
0111110110110001100010000: 561428 523068 617757 653548 627846
0111110110110001100010000: 561428 523068 617757 653548 547681
0111110110110001100010000: 561428 523068 617757 649039 587362
0111110110110001100010000: 561428 523068 617757 649039 637115
0111110110110001100010000: 561428 523068 617757 649039 627846
0111110110110001100010000: 561428 523068 617757 649039 547681
0110010010100010100000100: 561428 649039 653548 632735 524250
0110010010100010100000100: 561428 649039 587362 632735 474344
0110010010100010100000100: 561428 649039 587362 632735 510003
0111110100110001000010000: 561428 649039 484691 587362 653548
0111010100110001000100010: 561428 649039 484691 587362 474344
0111010100110001000100010: 561428 649039 484691 587362 510003
0111110100110001000010000: 561428 649039 484691 637115 653548
0111110100110001000010000: 561428 649039 484691 637115 587362
0111010100110001000100010: 561428 649039 484691 637115 474245
0111110100110001000010000: 561428 649039 484691 627846 653548
0111110100110001000010000: 561428 649039 484691 627846 587362
0111110100110001000010000: 561428 649039 484691 627846 637115
0111010100110001000100010: 561428 649039 484691 627846 599113
0111010100110001000100010: 561428 649039 484691 627846 636062
0111110100110001000010000: 561428 649039 484691 547681 653548
0111110100110001000010000: 561428 649039 484691 547681 587362
0111110100110001000010000: 561428 649039 484691 547681 637115
0111010100110001000100010: 561428 649039 484691 547681 570357
0111110100110001000010000: 561428 649039 484691 617757 653548
0111110100110001000010000: 561428 649039 484691 617757 587362
0111110100110001000010000: 561428 649039 484691 617757 637115
0111110100110001000010000: 561428 649039 484691 617757 627846
0111110100110001000010000: 561428 649039 484691 617757 547681
0111010100110001000100010: 561428 649039 484691 617757 570357
0111010100110001000100010: 561428 649039 484691 617757 536309
0111010100110001000100010: 561428 649039 532356 653548 524250
0111110100110001000010000: 561428 649039 532356 587362 653548
0111010100110001000100010: 561428 649039 532356 587362 474344
0111010100110001000100010: 561428 649039 532356 587362 510003
0111110100110001000010000: 561428 649039 532356 627846 653548
0111110100110001000010000: 561428 649039 532356 627846 587362
0111010100110001000100010: 561428 649039 532356 627846 599113
0111010100110001000100010: 561428 649039 532356 627846 636062
0111110100110001000010000: 561428 649039 532356 547681 653548
0111110100110001000010000: 561428 649039 532356 547681 587362
0111010100110001000100010: 561428 649039 532356 547681 570357
0111110100110001000010000: 561428 649039 532356 617757 653548
0111110100110001000010000: 561428 649039 532356 617757 587362
0111110100110001000010000: 561428 649039 532356 617757 627846
0111110100110001000010000: 561428 649039 532356 617757 547681
0111010100110001000100010: 561428 649039 532356 617757 570357
0111010100110001000100010: 561428 649039 532356 617757 536309
0111110110110001100010000: 561428 649039 532356 484691 653548
0111110110110001100010000: 561428 649039 532356 484691 587362
0111110110110001100010000: 561428 649039 532356 484691 627846
0111110110110001100010000: 561428 649039 532356 484691 547681
0111110110110001100010000: 561428 649039 532356 484691 617757
0111110110110011100010100: 561428 649039 532356 484691 637115
0111110110110011100010100: 561428 649039 532356 523068 637115
0111110110110011100010100: 561428 649039 532356 584030 637115
0111010100110001000100010: 561428 649039 523068 587362 474344
0111010100110001000100010: 561428 649039 523068 587362 510003
0111110100110001000010000: 561428 649039 523068 637115 587362
0111010100110001000100010: 561428 649039 523068 637115 474245
0111110100110001000010000: 561428 649039 523068 627846 587362
0111110100110001000010000: 561428 649039 523068 627846 637115
0111010100110001000100010: 561428 649039 523068 627846 636062
0111110100110001000010000: 561428 649039 523068 547681 587362
0111110100110001000010000: 561428 649039 523068 547681 637115
0111010100110001000100010: 561428 649039 523068 547681 570357
0111110110110001100010000: 561428 649039 523068 484691 587362
0111110110110001100010000: 561428 649039 523068 484691 637115
0111110110110001100010000: 561428 649039 523068 484691 627846
0111110110110001100010000: 561428 649039 523068 484691 547681
0111110110110011100010100: 561428 649039 523068 484691 653548
0111110110110011100010100: 561428 649039 523068 484691 617757
0111110110110001100010000: 561428 649039 523068 532356 587362
0111110110110001100010000: 561428 649039 523068 532356 627846
0111110110110001100010000: 561428 649039 523068 532356 547681
0111110110110011100010100: 561428 649039 523068 532356 653548
0111110110110011100010100: 561428 649039 523068 532356 617757
0111110110110011100010100: 561428 649039 523068 584030 653548
0111110110110011100010100: 561428 649039 523068 584030 617757
0111110110110001100010000: 561428 649039 584030 484691 653548
0111110110110001100010000: 561428 649039 584030 484691 587362
0111110110110001100010000: 561428 649039 584030 484691 637115
0111110110110001100010000: 561428 649039 584030 484691 627846
0111110110110001100010000: 561428 649039 584030 484691 547681
0111110110110001100010000: 561428 649039 584030 484691 617757
0111110110110001100010000: 561428 649039 584030 532356 653548
0111110110110001100010000: 561428 649039 584030 532356 587362
0111110110110001100010000: 561428 649039 584030 532356 627846
0111110110110001100010000: 561428 649039 584030 532356 547681
0111110110110001100010000: 561428 649039 584030 532356 617757
0111110110110001100010000: 561428 649039 584030 523068 587362
0111110110110001100010000: 561428 649039 584030 523068 637115
0111110110110001100010000: 561428 649039 584030 523068 627846
0111110110110001100010000: 561428 649039 584030 523068 547681
0110010010100010100000100: 561428 584030 484691 536309 524250
0110010010100010100000100: 561428 584030 653548 536309 524250
0111110000100001000010000: 561428 584030 587362 653548 484691
0110010010100010100000100: 561428 584030 587362 536309 474344
0110010010100010100000100: 561428 584030 587362 536309 510003
0111110000100001000010000: 561428 584030 532356 653548 484691
0111110000100001000010000: 561428 584030 532356 587362 484691
0111110000100001000010000: 561428 584030 532356 587362 653548
0111110000100001000010000: 561428 584030 523068 587362 484691
0111110000100001000010000: 561428 584030 523068 532356 484691
0111110000100001000010000: 561428 584030 523068 532356 587362
0110010010100010100000100: 561428 584030 523068 536309 599113
0111010100110001000100010: 561428 584030 649039 653548 524250
0111110100110001000010000: 561428 584030 649039 587362 653548
0111010100110001000100010: 561428 584030 649039 587362 474344
0111010100110001000100010: 561428 584030 649039 587362 510003
0111110100110001000010000: 561428 584030 649039 637115 653548
0111110100110001000010000: 561428 584030 649039 637115 587362
0111010100110001000100010: 561428 584030 649039 637115 474245
0111110100110001000010000: 561428 584030 649039 627846 653548
0111110100110001000010000: 561428 584030 649039 627846 587362
0111110100110001000010000: 561428 584030 649039 627846 637115
0111010100110001000100010: 561428 584030 649039 627846 599113
0111010100110001000100010: 561428 584030 649039 627846 636062
0111110100110001000010000: 561428 584030 649039 547681 653548
0111110100110001000010000: 561428 584030 649039 547681 587362
0111110100110001000010000: 561428 584030 649039 547681 637115
0111010100110001000100010: 561428 584030 649039 547681 570357
0111110100110001000010000: 561428 584030 649039 617757 653548
0111110100110001000010000: 561428 584030 649039 617757 587362
0111110100110001000010000: 561428 584030 649039 617757 637115
0111110100110001000010000: 561428 584030 649039 617757 627846
0111110100110001000010000: 561428 584030 649039 617757 547681
0111010100110001000100010: 561428 584030 649039 617757 570357
0110010010100010100000100: 561428 637115 484691 474245 524250
0110010010100010100000100: 561428 637115 653548 474245 524250
0111110000100001000010000: 561428 637115 587362 653548 484691
0110010010100010100000100: 561428 637115 587362 474245 474344
0110010010100010100000100: 561428 637115 587362 474245 510003
0111110000100001000010000: 561428 637115 523068 587362 484691
0110010010100010100000100: 561428 637115 523068 474245 599113
0111110000100001000010000: 561428 637115 649039 587362 653548
0111110000100001000010000: 561428 637115 584030 653548 484691
0111110000100001000010000: 561428 637115 584030 587362 484691
0111110000100001000010000: 561428 637115 584030 587362 653548
0111110000100001000010000: 561428 637115 584030 523068 484691
0111110000100001000010000: 561428 637115 584030 523068 587362
0110010010100010100000100: 561428 637115 584030 474245 536309
0111010100110001000100010: 561428 637115 532356 484691 524250
0111110100110001000010000: 561428 637115 532356 653548 484691
0111010100110001000100010: 561428 637115 532356 653548 524250
0111110100110001000010000: 561428 637115 532356 587362 484691
0111110100110001000010000: 561428 637115 532356 587362 653548
0111010100110001000100010: 561428 637115 532356 587362 474344
0111010100110001000100010: 561428 637115 532356 587362 510003
0111110100110001000010000: 561428 637115 532356 523068 484691
0111110100110001000010000: 561428 637115 532356 523068 587362
0111010100110001000100010: 561428 637115 532356 523068 599113
0111110100110001000110010: 561428 637115 532356 523068 653548
0111110100110001000010000: 561428 637115 532356 584030 484691
0111110100110001000010000: 561428 637115 532356 584030 653548
0111110100110001000010000: 561428 637115 532356 584030 587362
0111110100110001000010000: 561428 637115 532356 584030 523068
0111010100110001000100010: 561428 637115 532356 584030 536309
0111110100110001000010000: 561428 637115 532356 627846 484691
0111110100110001000010000: 561428 637115 532356 627846 653548
0111110100110001000010000: 561428 637115 532356 627846 587362
0111110100110001000010000: 561428 637115 532356 627846 523068
0111110100110001000010000: 561428 637115 532356 627846 584030
0111010100110001000100010: 561428 637115 532356 627846 599113
0111010100110001000100010: 561428 637115 532356 627846 636062
0111110100110001000010000: 561428 637115 532356 547681 484691
0111110100110001000010000: 561428 637115 532356 547681 653548
0111110100110001000010000: 561428 637115 532356 547681 587362
0111110100110001000010000: 561428 637115 532356 547681 523068
0111110100110001000010000: 561428 637115 532356 547681 584030
0111010100110001000100010: 561428 637115 532356 547681 570357
0111110100110001000010000: 561428 637115 532356 617757 484691
0111110100110001000010000: 561428 637115 532356 617757 653548
0111110100110001000010000: 561428 637115 532356 617757 587362
0111110100110001000010000: 561428 637115 532356 617757 584030
0111110100110001000010000: 561428 637115 532356 617757 627846
0111110100110001000010000: 561428 637115 532356 617757 547681
0111010100110001000100010: 561428 637115 532356 617757 570357
0111010100110001000100010: 561428 637115 532356 617757 632735
0111010100110001000100010: 561428 637115 532356 617757 536309
0110010010100010100000100: 561428 627846 484691 599113 524250
0110010011100000100001000: 561428 627846 484691 636062 599113
0110010010100010100000100: 561428 627846 484691 636062 524250
0110010010100010100000100: 561428 627846 653548 599113 524250
0110010011100000100001000: 561428 627846 653548 636062 599113
0110010010100010100000100: 561428 627846 653548 636062 524250
0111110000100001000010000: 561428 627846 587362 653548 484691
0110010010100010100000100: 561428 627846 587362 599113 474344
0110010010100010100000100: 561428 627846 587362 599113 510003
0110010011100000100001000: 561428 627846 587362 636062 599113
0110010010100010100000100: 561428 627846 587362 636062 474344
0110010010100010100000100: 561428 627846 587362 636062 510003
0111110000100001000010000: 561428 627846 532356 653548 484691
0111110000100001000010000: 561428 627846 532356 587362 484691
0111110000100001000010000: 561428 627846 532356 587362 653548
0110010011100000100001000: 561428 627846 532356 636062 599113
0111110000100001000010000: 561428 627846 523068 587362 484691
0111110000100001000010000: 561428 627846 523068 532356 484691
0111110000100001000010000: 561428 627846 523068 532356 587362
0110010011100100110001000: 561428 627846 523068 599113 636062
0111110000100001000010000: 561428 627846 649039 587362 653548
0110010010100010100000100: 561428 627846 649039 599113 632735
0110010011100000100001000: 561428 627846 649039 636062 599113
0111110000100001000010000: 561428 627846 584030 653548 484691
0111110000100001000010000: 561428 627846 584030 587362 484691
0111110000100001000010000: 561428 627846 584030 587362 653548
0111110000100001000010000: 561428 627846 584030 532356 484691
0111110000100001000010000: 561428 627846 584030 532356 653548
0111110000100001000010000: 561428 627846 584030 532356 587362
0111110000100001000010000: 561428 627846 584030 523068 484691
0111110000100001000010000: 561428 627846 584030 523068 587362
0111110000100001000010000: 561428 627846 584030 523068 532356
0110010010100010100000100: 561428 627846 584030 599113 536309
0110010011100000100001000: 561428 627846 584030 636062 599113
0110010010100010100000100: 561428 627846 584030 636062 536309
0111110000100001000010000: 561428 627846 637115 653548 484691
0111110000100001000010000: 561428 627846 637115 587362 484691
0111110000100001000010000: 561428 627846 637115 587362 653548
0111110000100001000010000: 561428 627846 637115 523068 484691
0111110000100001000010000: 561428 627846 637115 523068 587362
0111110000100001000010000: 561428 627846 637115 649039 653548
0111110000100001000010000: 561428 627846 637115 649039 587362
0111110000100001000010000: 561428 627846 637115 584030 484691
0111110000100001000010000: 561428 627846 637115 584030 653548
0111110000100001000010000: 561428 627846 637115 584030 587362
0111110000100001000010000: 561428 627846 637115 584030 523068
0110010010100010100000100: 561428 627846 637115 599113 474245
0110010011100000100001000: 561428 627846 637115 636062 599113
0110010010100010100000100: 561428 627846 637115 636062 474245
0110010011100000100001000: 561428 627846 617757 636062 599113
0110010010100010100000100: 561428 547681 484691 570357 524250
0110010010100010100000100: 561428 547681 653548 570357 524250
0111110000100001000010000: 561428 547681 587362 653548 484691
0110010010100010100000100: 561428 547681 587362 570357 474344
0110010010100010100000100: 561428 547681 587362 570357 510003
0111110000100001000010000: 561428 547681 532356 653548 484691
0111110000100001000010000: 561428 547681 532356 587362 484691
0111110000100001000010000: 561428 547681 532356 587362 653548
0111110000100001000010000: 561428 547681 523068 587362 484691
0111110000100001000010000: 561428 547681 523068 532356 484691
0111110000100001000010000: 561428 547681 523068 532356 587362
0110010010100010100000100: 561428 547681 523068 570357 599113
0111110000100001000010000: 561428 547681 649039 587362 653548
0110010010100010100000100: 561428 547681 649039 570357 632735
0111110000100001000010000: 561428 547681 584030 653548 484691
0111110000100001000010000: 561428 547681 584030 587362 484691
0111110000100001000010000: 561428 547681 584030 587362 653548
0111110000100001000010000: 561428 547681 584030 532356 484691
0111110000100001000010000: 561428 547681 584030 532356 653548
0111110000100001000010000: 561428 547681 584030 532356 587362
0111110000100001000010000: 561428 547681 584030 523068 484691
0111110000100001000010000: 561428 547681 584030 523068 587362
0111110000100001000010000: 561428 547681 584030 523068 532356
0110010010100010100000100: 561428 547681 584030 570357 536309
0111110000100001000010000: 561428 547681 637115 653548 484691
0111110000100001000010000: 561428 547681 637115 587362 484691
0111110000100001000010000: 561428 547681 637115 587362 653548
0111110000100001000010000: 561428 547681 637115 523068 484691
0111110000100001000010000: 561428 547681 637115 523068 587362
0111110000100001000010000: 561428 547681 637115 649039 653548
0111110000100001000010000: 561428 547681 637115 649039 587362
0111110000100001000010000: 561428 547681 637115 584030 484691
0111110000100001000010000: 561428 547681 637115 584030 653548
0111110000100001000010000: 561428 547681 637115 584030 587362
0111110000100001000010000: 561428 547681 637115 584030 523068
0110010010100010100000100: 561428 547681 637115 570357 474245
0111010100110001000100010: 561428 547681 627846 484691 524250
0111110100110001000010000: 561428 547681 627846 653548 484691
0111010100110001000100010: 561428 547681 627846 653548 524250
0111110100110001000010000: 561428 547681 627846 587362 484691
0111110100110001000010000: 561428 547681 627846 587362 653548
0111010100110001000100010: 561428 547681 627846 587362 474344
0111010100110001000100010: 561428 547681 627846 587362 510003
0111110100110001000010000: 561428 547681 627846 532356 484691
0111110100110001000010000: 561428 547681 627846 532356 653548
0111110100110001000010000: 561428 547681 627846 532356 587362
0111110100110001000010000: 561428 547681 627846 523068 484691
0111110100110001000010000: 561428 547681 627846 523068 587362
0111110100110001000010000: 561428 547681 627846 523068 532356
0111110100110001000110010: 561428 547681 627846 523068 653548
0111110100110001000010000: 561428 547681 627846 649039 653548
0111110100110001000010000: 561428 547681 627846 649039 587362
0111010100110001000100010: 561428 547681 627846 649039 632735
0111110100110001000110010: 561428 547681 627846 649039 484691
0111110100110001000110010: 561428 547681 627846 649039 532356
0111110100110001000110010: 561428 547681 627846 649039 523068
0111110100110001000010000: 561428 547681 627846 584030 484691
0111110100110001000010000: 561428 547681 627846 584030 653548
0111110100110001000010000: 561428 547681 627846 584030 587362
0111110100110001000010000: 561428 547681 627846 584030 532356
0111110100110001000010000: 561428 547681 627846 584030 523068
0111010100110001000100010: 561428 547681 627846 584030 536309
0111110100110001000110010: 561428 547681 627846 584030 649039
0111110100110001000010000: 561428 547681 627846 637115 484691
0111110100110001000010000: 561428 547681 627846 637115 653548
0111110100110001000010000: 561428 547681 627846 637115 587362
0111110100110001000010000: 561428 547681 627846 637115 523068
0111110100110001000010000: 561428 547681 627846 637115 649039
0111110100110001000010000: 561428 547681 627846 637115 584030
0111010100110001000100010: 561428 547681 627846 637115 474245
0111110100110001000110010: 561428 547681 627846 637115 532356
0111110100110001000010000: 561428 547681 627846 617757 484691
0111110100110001000010000: 561428 547681 627846 617757 653548
0111110100110001000010000: 561428 547681 627846 617757 587362
0111110100110001000010000: 561428 547681 627846 617757 532356
0111110100110001000010000: 561428 547681 627846 617757 649039
0111110100110001000010000: 561428 547681 627846 617757 584030
0111110100110001000010000: 561428 547681 627846 617757 637115
0111010100110001000100010: 561428 547681 627846 617757 632735
0111010100110001000100010: 561428 547681 627846 617757 536309
0110010010100010100000100: 561428 617757 484691 570357 524250
0110010011100000100001000: 561428 617757 484691 632735 570357
0110010010100010100000100: 561428 617757 484691 632735 524250
0110010011100000100001000: 561428 617757 484691 536309 570357
0110010011100000100001000: 561428 617757 484691 536309 632735
0110010010100010100000100: 561428 617757 484691 536309 524250
0110010010100010100000100: 561428 617757 653548 570357 524250
0110010011100000100001000: 561428 617757 653548 632735 570357
0110010010100010100000100: 561428 617757 653548 632735 524250
0110010011100000100001000: 561428 617757 653548 536309 570357
0110010011100000100001000: 561428 617757 653548 536309 632735
0110010010100010100000100: 561428 617757 653548 536309 524250
0111110000100001000010000: 561428 617757 587362 653548 484691
0110010010100010100000100: 561428 617757 587362 570357 474344
0110010010100010100000100: 561428 617757 587362 570357 510003
0110010011100000100001000: 561428 617757 587362 632735 570357
0110010010100010100000100: 561428 617757 587362 632735 474344
0110010010100010100000100: 561428 617757 587362 632735 510003
0110010011100000100001000: 561428 617757 587362 536309 570357
0110010011100000100001000: 561428 617757 587362 536309 632735
0110010010100010100000100: 561428 617757 587362 536309 474344
0110010010100010100000100: 561428 617757 587362 536309 510003
0111110000100001000010000: 561428 617757 532356 653548 484691
0111110000100001000010000: 561428 617757 532356 587362 484691
0111110000100001000010000: 561428 617757 532356 587362 653548
0110010011100000100001000: 561428 617757 532356 632735 570357
0110010011100000100001000: 561428 617757 532356 536309 570357
0110010011100000100001000: 561428 617757 532356 536309 632735
0111110000100001000010000: 561428 617757 649039 587362 653548
0110010011100000100001000: 561428 617757 649039 536309 570357
0111110000100001000010000: 561428 617757 584030 653548 484691
0111110000100001000010000: 561428 617757 584030 587362 484691
0111110000100001000010000: 561428 617757 584030 587362 653548
0111110000100001000010000: 561428 617757 584030 532356 484691
0111110000100001000010000: 561428 617757 584030 532356 653548
0111110000100001000010000: 561428 617757 584030 532356 587362
0110010011100000100001000: 561428 617757 584030 632735 570357
0111110000100001000010000: 561428 617757 637115 653548 484691
0111110000100001000010000: 561428 617757 637115 587362 484691
0111110000100001000010000: 561428 617757 637115 587362 653548
0111110000100001000010000: 561428 617757 637115 649039 653548
0111110000100001000010000: 561428 617757 637115 649039 587362
0111110000100001000010000: 561428 617757 637115 584030 484691
0111110000100001000010000: 561428 617757 637115 584030 653548
0111110000100001000010000: 561428 617757 637115 584030 587362
0110010010100010100000100: 561428 617757 637115 570357 474245
0110010011100000100001000: 561428 617757 637115 632735 570357
0110010011100000100001000: 561428 617757 637115 536309 570357
0110010011100000100001000: 561428 617757 637115 536309 632735
0110010010100010100000100: 561428 617757 637115 536309 474245
0111110000100001000010000: 561428 617757 627846 653548 484691
0111110000100001000010000: 561428 617757 627846 587362 484691
0111110000100001000010000: 561428 617757 627846 587362 653548
0111110000100001000010000: 561428 617757 627846 532356 484691
0111110000100001000010000: 561428 617757 627846 532356 653548
0111110000100001000010000: 561428 617757 627846 532356 587362
0111110000100001000010000: 561428 617757 627846 649039 653548
0111110000100001000010000: 561428 617757 627846 649039 587362
0111110000100001000010000: 561428 617757 627846 584030 484691
0111110000100001000010000: 561428 617757 627846 584030 653548
0111110000100001000010000: 561428 617757 627846 584030 587362
0111110000100001000010000: 561428 617757 627846 584030 532356
0111110000100001000010000: 561428 617757 627846 637115 484691
0111110000100001000010000: 561428 617757 627846 637115 653548
0111110000100001000010000: 561428 617757 627846 637115 587362
0111110000100001000010000: 561428 617757 627846 637115 649039
0111110000100001000010000: 561428 617757 627846 637115 584030
0110010010100010100000100: 561428 617757 627846 570357 599113
0110010010100010100000100: 561428 617757 627846 570357 636062
0110010011100000100001000: 561428 617757 627846 632735 570357
0110010010100010100000100: 561428 617757 627846 632735 599113
0110010011100000100001000: 561428 617757 627846 536309 570357
0110010011100000100001000: 561428 617757 627846 536309 632735
0110010010100010100000100: 561428 617757 627846 536309 599113
0110010010100010100000100: 561428 617757 627846 536309 636062
0111110000100001000010000: 561428 617757 547681 653548 484691
0111110000100001000010000: 561428 617757 547681 587362 484691
0111110000100001000010000: 561428 617757 547681 587362 653548
0111110000100001000010000: 561428 617757 547681 532356 484691
0111110000100001000010000: 561428 617757 547681 532356 653548
0111110000100001000010000: 561428 617757 547681 532356 587362
0111110000100001000010000: 561428 617757 547681 649039 653548
0111110000100001000010000: 561428 617757 547681 649039 587362
0111110000100001000010000: 561428 617757 547681 584030 484691
0111110000100001000010000: 561428 617757 547681 584030 653548
0111110000100001000010000: 561428 617757 547681 584030 587362
0111110000100001000010000: 561428 617757 547681 584030 532356
0111110000100001000010000: 561428 617757 547681 637115 484691
0111110000100001000010000: 561428 617757 547681 637115 653548
0111110000100001000010000: 561428 617757 547681 637115 587362
0111110000100001000010000: 561428 617757 547681 637115 649039
0111110000100001000010000: 561428 617757 547681 637115 584030
0110010011100000100001000: 561428 617757 547681 536309 632735
0110010011100100110001000: 561428 617757 547681 570357 632735
0110010011100100110001000: 561428 617757 547681 570357 536309
0111010100110001000100010: 561428 617757 523068 484691 524250
0111110100110001000010000: 561428 617757 523068 587362 484691
0111010100110001000100010: 561428 617757 523068 587362 474344
0111010100110001000100010: 561428 617757 523068 587362 510003
0111110100110001000010000: 561428 617757 523068 532356 484691
0111110100110001000010000: 561428 617757 523068 532356 587362
0111110100110001000010000: 561428 617757 523068 584030 484691
0111110100110001000010000: 561428 617757 523068 584030 587362
0111110100110001000010000: 561428 617757 523068 584030 532356
0111110100110001000010000: 561428 617757 523068 637115 484691
0111110100110001000010000: 561428 617757 523068 637115 587362
0111110100110001000010000: 561428 617757 523068 637115 584030
0111010100110001000100010: 561428 617757 523068 637115 474245
0111110100110001000110010: 561428 617757 523068 637115 532356
0111110100110001000010000: 561428 617757 523068 627846 484691
0111110100110001000010000: 561428 617757 523068 627846 587362
0111110100110001000010000: 561428 617757 523068 627846 532356
0111110100110001000010000: 561428 617757 523068 627846 584030
0111110100110001000010000: 561428 617757 523068 627846 637115
0111010100110001000100010: 561428 617757 523068 627846 636062
0111110100110001000010000: 561428 617757 523068 547681 484691
0111110100110001000010000: 561428 617757 523068 547681 587362
0111110100110001000010000: 561428 617757 523068 547681 532356
0111110100110001000010000: 561428 617757 523068 547681 584030
0111110100110001000010000: 561428 617757 523068 547681 637115
0111110100110001000110010: 561428 617757 523068 547681 627846
0110010011100000100001000: 484691 561428 524250 532356 587362
0110010011100000100001000: 484691 561428 524250 523068 587362
0110010011100000100001000: 484691 561428 524250 523068 532356
0110010011100000100001000: 484691 561428 524250 584030 587362
0110010011100000100001000: 484691 561428 524250 584030 532356
0110010011100000100001000: 484691 561428 524250 584030 523068
0110010011100000100001000: 484691 561428 524250 637115 587362
0110010011100000100001000: 484691 561428 524250 637115 523068
0110010011100000100001000: 484691 561428 524250 637115 584030
0110010011100000100001000: 484691 561428 524250 627846 587362
0110010011100000100001000: 484691 561428 524250 627846 532356
0110010011100000100001000: 484691 561428 524250 627846 523068
0110010011100000100001000: 484691 561428 524250 627846 584030
0110010011100000100001000: 484691 561428 524250 627846 637115
0110010011100000100001000: 484691 561428 524250 547681 587362
0110010011100000100001000: 484691 561428 524250 547681 532356
0110010011100000100001000: 484691 561428 524250 547681 523068
0110010011100000100001000: 484691 561428 524250 547681 584030
0110010011100000100001000: 484691 561428 524250 547681 637115
0110010011100000100001000: 484691 561428 524250 617757 587362
0110010011100000100001000: 484691 561428 524250 617757 532356
0110010011100000100001000: 484691 561428 524250 617757 584030
0110010011100000100001000: 484691 561428 524250 617757 637115
0110010011100000100001000: 484691 561428 524250 617757 627846
0110010011100000100001000: 484691 561428 524250 617757 547681
0110010010100010100000100: 484691 649039 524250 532356 653548
0110010011100000100001000: 484691 649039 524250 523068 532356
0110010011100000100001000: 484691 649039 524250 584030 532356
0110010011100000100001000: 484691 649039 524250 584030 523068
0110010010100010100000100: 484691 649039 524250 584030 653548
0110010011100000100001000: 484691 649039 524250 632735 532356
0110010011100000100001000: 484691 649039 524250 632735 523068
0110010011100000100001000: 484691 649039 524250 632735 584030
0110010010100010100000100: 484691 649039 524250 632735 653548
0110010010100010100000100: 570357 617757 547681 523068 627846
0110010011100000100001000: 570357 617757 547681 632735 523068
0110010010100010100000100: 570357 617757 547681 632735 627846
0110010011100000100001000: 570357 617757 547681 536309 523068
0110010011100000100001000: 570357 617757 547681 536309 632735
0110010010100010100000100: 570357 617757 547681 536309 627846
0110010011100000100001000: 599113 523068 496191 649039 653548
0110010011100000100001000: 599113 523068 496191 617757 653548
0110010011100000100001000: 599113 523068 496191 617757 649039
0110010011100000100001000: 599113 523068 627846 649039 653548
0110010011100000100001000: 599113 523068 627846 617757 653548
0110010011100000100001000: 599113 523068 627846 617757 649039
0110010010100010100000100: 599113 496191 523068 632735 561428
0110010010100010100000100: 599113 496191 523068 632735 653548
0110010011100000100001000: 599113 496191 523068 510003 632735
0110010010100010100000100: 599113 496191 523068 510003 561428
0110010010100010100000100: 599113 496191 523068 510003 653548
0110010010100010100000100: 599113 496191 523068 510003 649039
0110010010100010100000100: 599113 496191 523068 510003 617757
0110010011100000100001000: 599113 496191 627846 510003 632735
0110010010100010100000100: 599113 627846 523068 636062 653548
0110010010100010100000100: 599113 627846 523068 636062 649039
0110010010100010100000100: 599113 627846 523068 636062 617757
0110010011100000100001000: 599113 627846 523068 547681 636062
0110010010100010100000100: 599113 627846 523068 547681 653548
0110010010100010100000100: 599113 627846 523068 547681 649039
0110010010100010100000100: 599113 627846 523068 547681 617757
0110010010100010100000100: 599113 627846 496191 561428 632735
0110010010100010100000100: 599113 627846 496191 561428 510003
0110010011100000100001000: 599113 627846 496191 636062 561428
0110010010100010100000100: 599113 627846 496191 636062 510003
0110010011100000100001000: 599113 627846 496191 547681 636062
0110010010100010100000100: 599113 627846 496191 547681 632735
0110010010100010100000100: 599113 627846 496191 547681 510003
