Vertex,0110010010100010100000100,0110010011100100110001000,0110010010100010100100110,0110010011100000100001000,0111110000100001000010000
474230,26.0,1.0,2.0,27.0,1.0
588454,22.0,1.0,2.0,23.0,1.0
655986,15.0,0.0,0.0,13.0,1.0
545211,16.0,3.0,2.0,14.0,0.0
531126,10.0,0.0,0.0,3.0,0.0
623594,15.0,0.0,0.0,10.0,0.0
504865,15.0,3.0,2.0,19.0,1.0
629106,7.0,0.0,0.0,12.0,1.0
501744,13.0,3.0,1.0,13.0,0.0
616172,8.0,3.0,1.0,11.0,0.0
566883,5.0,1.0,0.0,4.0,0.0
536518,10.0,0.0,0.0,1.0,0.0
626946,6.0,0.0,0.0,0.0,0.0
523723,7.0,0.0,0.0,0.0,0.0
graph,35.0,3.0,2.0,30.0,1.0
