0110010011100000100001000: 647424 655335 493865 513059 540736
0110010011100100110001000: 647424 655335 630513 540736 513059
0110010010100010100000100: 647424 493865 655335 585624 540736
0110010010100010100000100: 647424 493865 655335 585624 513059
0110010010100010100000100: 647424 630513 493865 540736 585624
0110010011100100110001000: 630513 647424 540736 655335 493865
0110010011100000100001000: 513059 655335 493548 647424 540736
0110010010100010100000100: 513059 493548 655335 494654 540736
0110010010100010100000100: 513059 493548 655335 494654 647424
0110010010100010100000100: 493548 513059 494654 655335 592593
0110010010100010100000100: 493865 647424 585624 655335 573391
0110010011100000100001000: 493865 647424 585624 630513 655335
0110010010100010100000100: 493865 647424 585624 630513 573391
0110010010100010100000100: 494654 493548 592593 513059 576007
0110010010100010100000100: 585624 493865 573391 647424 470232
0110010010100010100000100: 655335 513059 540736 493548 630513
0110010010100010100000100: 655335 647424 513059 493865 493548
0110010011100000100001000: 655335 647424 513059 630513 493865
0110010010100010100000100: 655335 647424 513059 630513 493548
0110010010100010100000100: 573391 585624 470232 493865 488302
