Vertex,0111010110110011100100110,0111110000100001000010000,0111010100110001000100010,0110010011100100110001000,0110010010100010100000100,0111010101110001000001000,0111110100110001000010000,0111110110110001100010000,0110010011100000100001000,0111010101110001000101010,0111010110110011100000100,0110010010100010100100110
516225,1.0,2.0,16.0,10.0,62.0,14.0,5.0,3.0,53.0,2.0,2.0,4.0
473027,0.0,1.0,4.0,8.0,47.0,5.0,2.0,1.0,41.0,1.0,0.0,4.0
512769,1.0,1.0,6.0,9.0,29.0,5.0,1.0,3.0,19.0,0.0,2.0,0.0
558125,0.0,0.0,5.0,1.0,51.0,1.0,1.0,0.0,39.0,0.0,1.0,4.0
537112,0.0,2.0,4.0,13.0,45.0,1.0,2.0,0.0,41.0,2.0,1.0,2.0
569986,1.0,1.0,15.0,8.0,40.0,14.0,5.0,3.0,26.0,2.0,2.0,1.0
511021,1.0,3.0,11.0,18.0,69.0,10.0,5.0,3.0,64.0,2.0,3.0,3.0
553209,0.0,1.0,8.0,2.0,50.0,9.0,2.0,2.0,38.0,0.0,0.0,3.0
595972,1.0,2.0,1.0,9.0,22.0,6.0,2.0,0.0,23.0,0.0,0.0,0.0
648023,0.0,0.0,5.0,7.0,52.0,8.0,0.0,1.0,18.0,1.0,1.0,1.0
560212,0.0,0.0,5.0,0.0,29.0,0.0,0.0,0.0,22.0,0.0,0.0,2.0
559407,0.0,0.0,15.0,0.0,54.0,3.0,1.0,1.0,32.0,0.0,3.0,2.0
646853,0.0,2.0,11.0,4.0,70.0,5.0,3.0,1.0,59.0,0.0,4.0,4.0
475754,0.0,0.0,6.0,1.0,49.0,1.0,0.0,1.0,15.0,0.0,3.0,0.0
458817,0.0,0.0,13.0,0.0,31.0,3.0,1.0,1.0,15.0,0.0,3.0,0.0
graph,1.0,3.0,25.0,18.0,140.0,17.0,6.0,4.0,101.0,2.0,5.0,6.0
