0101101001001000: 596204 506410 543838 471133
0101101001001000: 596204 506410 543838 492170
0101101001001000: 596204 506410 543838 643859
0101101001001000: 596204 471133 556479 506410
0101101001001000: 596204 471133 556479 643859
0111100010001000: 596204 492170 471133 506410
0110100110010110: 596204 492170 471133 556479
0101101001001000: 596204 492170 484634 506410
0101101001001000: 596204 492170 484634 471133
0101101001001000: 596204 492170 484634 643859
0101101001001000: 596204 492170 556479 506410
0101101001001000: 596204 492170 556479 643859
0100101101000100: 596204 492170 556479 484634
0111100010001000: 596204 643859 471133 506410
0111100010001000: 596204 643859 492170 506410
0111100010001000: 596204 643859 492170 471133
0101101001001000: 596204 643859 586527 506410
0101101001001000: 596204 643859 586527 471133
0101101001001000: 596204 643859 586527 492170
0110100110000100: 596204 506410 471133 543838
0110100010010010: 596204 506410 471133 556479
0110100010010010: 596204 506410 471133 556479
0111100010001000: 596204 506410 492170 471133
0110100110000100: 596204 506410 492170 543838
0110100010010010: 596204 506410 492170 484634
0110100010010010: 596204 506410 492170 556479
0110100010010010: 596204 506410 492170 484634
0110100010010010: 596204 506410 492170 556479
0111100010001000: 596204 506410 643859 471133
0111100010001000: 596204 506410 643859 492170
0110100110000100: 596204 506410 643859 543838
0110100010010010: 596204 506410 643859 586527
0110100010010010: 596204 506410 643859 586527
0110100110000100: 596204 506410 471133 543838
0110100110000100: 596204 506410 471133 543838
0110100110000100: 596204 506410 471133 543838
0110100110000100: 596204 506410 492170 543838
0110100110000100: 596204 506410 492170 543838
0110100110000100: 596204 506410 492170 543838
0110100110000100: 596204 506410 643859 543838
0110100110000100: 596204 506410 643859 543838
0110100110000100: 596204 506410 643859 543838
0101101001001000: 596204 506410 543838 471133
0101101001001000: 596204 506410 543838 492170
0101101001001000: 596204 506410 543838 643859
0100101001010010: 596204 506410 543838 586527
0100101001010010: 596204 506410 543838 464152
0100101001010010: 596204 506410 543838 586527
0100101001010010: 596204 506410 543838 464152
0100101001010010: 596204 506410 543838 586527
0100101001010010: 596204 506410 543838 464152
0110100110000100: 596204 471133 506410 556479
0110100010010010: 596204 471133 506410 543838
0110100010010010: 596204 471133 506410 543838
0111100010001000: 596204 471133 492170 506410
0110100010010010: 596204 471133 492170 484634
0110100010010010: 596204 471133 492170 484634
0110100110010110: 596204 471133 492170 556479
0110100110010110: 596204 471133 492170 556479
0111100010001000: 596204 471133 643859 506410
0111100010001000: 596204 471133 643859 492170
0110100110000100: 596204 471133 643859 556479
0110100010010010: 596204 471133 643859 586527
0110100010010010: 596204 471133 643859 586527
0111100010001000: 596204 471133 506410 492170
0111100010001000: 596204 471133 506410 643859
0110100110000100: 596204 471133 506410 556479
0110100110000100: 596204 471133 506410 556479
0110100110000100: 596204 471133 506410 556479
0110100110010110: 596204 471133 492170 556479
0110100110000100: 596204 471133 643859 556479
0110100110000100: 596204 471133 643859 556479
0110100110000100: 596204 471133 643859 556479
0101101001001000: 596204 471133 556479 506410
0101101001001000: 596204 471133 556479 643859
0100101001010010: 596204 471133 556479 471317
0100101001010010: 596204 471133 556479 471317
0101101001011010: 596204 471133 556479 492170
0101101001011010: 596204 471133 556479 492170
0101101001011010: 596204 471133 556479 492170
0100101001010010: 596204 471133 556479 471317
0110100110000100: 596204 492170 506410 484634
0110100110000100: 596204 492170 506410 556479
0110100010010010: 596204 492170 506410 543838
0110100010010010: 596204 492170 506410 543838
0111100010001000: 596204 492170 471133 506410
0110100110000100: 596204 492170 471133 484634
0110100110010110: 596204 492170 471133 556479
0110100110010110: 596204 492170 471133 556479
0111100010001000: 596204 492170 643859 506410
0111100010001000: 596204 492170 643859 471133
0110100110000100: 596204 492170 643859 484634
0110100110000100: 596204 492170 643859 556479
0110100010010010: 596204 492170 643859 586527
0110100010010010: 596204 492170 643859 586527
0111100010001000: 596204 492170 506410 471133
0111100010001000: 596204 492170 506410 643859
0110100110000100: 596204 492170 506410 484634
0110100110000100: 596204 492170 506410 556479
0110100110000100: 596204 492170 506410 484634
0110100110000100: 596204 492170 506410 556479
0110100110000100: 596204 492170 506410 484634
0110100110000100: 596204 492170 506410 556479
0110100010010010: 596204 492170 506410 543838
0111100010001000: 596204 492170 471133 506410
0111100010001000: 596204 492170 471133 643859
0111100010001000: 596204 492170 471133 506410
0110100110000100: 596204 492170 471133 484634
0110100110000100: 596204 492170 471133 484634
0110100110000100: 596204 492170 471133 484634
0110100110010110: 596204 492170 471133 556479
0110100110010110: 596204 492170 471133 556479
0110100110010110: 596204 492170 471133 556479
0110100110000100: 596204 492170 643859 484634
0110100110000100: 596204 492170 643859 556479
0110100110000100: 596204 492170 643859 484634
0110100110000100: 596204 492170 643859 556479
0110100110000100: 596204 492170 643859 484634
0110100110000100: 596204 492170 643859 556479
0110100010010010: 596204 492170 643859 586527
0101101001001000: 596204 492170 484634 506410
0101101001001000: 596204 492170 484634 471133
0101101001001000: 596204 492170 484634 643859
0100101001010010: 596204 492170 484634 515992
0100101001010010: 596204 492170 484634 515992
0100101001010010: 596204 492170 484634 515992
0100101001010010: 596204 492170 484634 515992
0101101001001000: 596204 492170 556479 506410
0101101001001000: 596204 492170 556479 643859
0100101001010010: 596204 492170 556479 471317
0100101001010010: 596204 492170 556479 471317
0100101101000100: 596204 492170 556479 484634
0101101001011010: 596204 492170 556479 471133
0101101001011010: 596204 492170 556479 471133
0101101001011010: 596204 492170 556479 471133
0100101001010010: 596204 492170 556479 471317
0110100110000100: 596204 643859 506410 586527
0110100010010010: 596204 643859 506410 543838
0110100010010010: 596204 643859 506410 543838
0111100010001000: 596204 643859 471133 506410
0110100110000100: 596204 643859 471133 586527
0110100010010010: 596204 643859 471133 556479
0110100010010010: 596204 643859 471133 556479
0111100010001000: 596204 643859 492170 506410
0111100010001000: 596204 643859 492170 471133
0110100110000100: 596204 643859 492170 586527
0110100010010010: 596204 643859 492170 484634
0110100010010010: 596204 643859 492170 556479
0110100010010010: 596204 643859 492170 484634
0110100010010010: 596204 643859 492170 556479
0111100010001000: 596204 643859 506410 471133
0111100010001000: 596204 643859 506410 492170
0110100110000100: 596204 643859 506410 586527
0110100110000100: 596204 643859 506410 586527
0110100110000100: 596204 643859 506410 586527
0111100010001000: 596204 643859 471133 506410
0111100010001000: 596204 643859 471133 492170
0111100010001000: 596204 643859 471133 506410
0110100110000100: 596204 643859 471133 586527
0110100110000100: 596204 643859 471133 586527
0110100110000100: 596204 643859 471133 586527
0111100010001000: 596204 643859 492170 506410
0111100010001000: 596204 643859 492170 471133
0111100010001000: 596204 643859 492170 506410
0111100010001000: 596204 643859 492170 471133
0110100110000100: 596204 643859 492170 586527
0110100110000100: 596204 643859 492170 586527
0110100110000100: 596204 643859 492170 586527
0101101001001000: 596204 643859 586527 506410
0101101001001000: 596204 643859 586527 471133
0101101001001000: 596204 643859 586527 492170
0100101001010010: 596204 643859 586527 543838
0100101001010010: 596204 643859 586527 543838
0100101001010010: 596204 643859 586527 543838
0110100110000100: 643859 586527 596204 543838
0110100010010010: 643859 586527 596204 506410
0110100010010010: 643859 586527 596204 471133
0110100010010010: 643859 586527 596204 492170
0110100110000100: 643859 586527 596204 543838
0110100110000100: 643859 586527 596204 543838
0110100110000100: 643859 586527 596204 543838
0110100110000100: 643859 586527 596204 543838
0110100110000100: 643859 586527 596204 543838
0110100010010010: 643859 596204 586527 543838
0110100110000100: 643859 596204 586527 506410
0110100110000100: 643859 596204 586527 471133
0110100110000100: 643859 596204 586527 492170
0110100010010010: 643859 596204 586527 543838
0110100110000100: 643859 596204 586527 506410
0110100110000100: 643859 596204 586527 471133
0110100110000100: 643859 596204 586527 492170
0110100110000100: 643859 596204 586527 506410
0110100110000100: 643859 596204 586527 471133
0110100110000100: 643859 596204 586527 492170
0110100010010010: 643859 596204 586527 543838
0101101001001000: 556479 471133 596204 471317
0110100110010110: 556479 492170 471133 596204
0111100010001000: 556479 471317 492170 471133
0110100010010010: 556479 471133 492170 484634
0110100110010110: 556479 471133 492170 596204
0110100110010110: 556479 471133 492170 596204
0111100010001000: 556479 471133 471317 492170
0110100110000100: 556479 471133 471317 596204
0110100010010010: 556479 471133 471317 622303
0110100010010010: 556479 471133 471317 464152
0110100110010110: 556479 471133 492170 596204
0110100110000100: 556479 471133 471317 596204
0110100110000100: 556479 471133 471317 596204
0110100110000100: 556479 471133 471317 596204
0101101001001000: 556479 471133 596204 471317
0100101001010010: 556479 471133 596204 506410
0100101001010010: 556479 471133 596204 643859
0100101001010010: 556479 471133 596204 506410
0100101001010010: 556479 471133 596204 643859
0101101001011010: 556479 471133 596204 492170
0101101001011010: 556479 471133 596204 492170
0101101001011010: 556479 471133 596204 492170
0101101001001000: 556479 471133 596204 471317
0110100110000100: 556479 492170 471133 484634
0110100110010110: 556479 492170 471133 596204
0110100110010110: 556479 492170 471133 596204
0111100010001000: 556479 492170 471317 471133
0110100110000100: 556479 492170 471317 484634
0110100110000100: 556479 492170 471317 596204
0110100010010010: 556479 492170 471317 622303
0110100010010010: 556479 492170 471317 464152
0111100010001000: 556479 492170 471133 471317
0110100110000100: 556479 492170 471133 484634
0110100110000100: 556479 492170 471133 484634
0110100110010110: 556479 492170 471133 596204
0110100110010110: 556479 492170 471133 596204
0110100110000100: 556479 492170 471317 484634
0110100110000100: 556479 492170 471317 596204
0110100110000100: 556479 492170 471317 484634
0110100110000100: 556479 492170 471317 596204
0111100010001000: 556479 492170 471133 471317
0111100010001000: 556479 492170 471133 471317
0111100010001000: 556479 492170 471317 471133
0111100010001000: 556479 492170 471317 471133
0111100010001000: 556479 492170 471317 471133
0110100110000100: 556479 492170 471133 484634
0110100110000100: 556479 492170 471133 484634
0111100010001000: 556479 492170 471133 471317
0110100110010110: 556479 492170 471133 596204
0110100110010110: 556479 492170 471133 596204
0110100110000100: 556479 492170 471317 484634
0110100110000100: 556479 492170 471317 596204
0110100110000100: 556479 492170 471317 484634
0110100110000100: 556479 492170 471317 596204
0111100010001000: 556479 492170 471317 471133
0111100010001000: 556479 492170 471317 471133
0110100110000100: 556479 492170 471317 484634
0110100110000100: 556479 492170 471317 596204
0110100110000100: 556479 471317 471133 622303
0110100110000100: 556479 471317 471133 464152
0110100010010010: 556479 471317 471133 596204
0110100010010010: 556479 471317 471133 596204
0111100010001000: 556479 471317 492170 471133
0110100110000100: 556479 471317 492170 622303
0110100110000100: 556479 471317 492170 464152
0110100010010010: 556479 471317 492170 484634
0110100010010010: 556479 471317 492170 596204
0111100010001000: 556479 471317 471133 492170
0110100110000100: 556479 471317 471133 622303
0110100110000100: 556479 471317 471133 464152
0110100110000100: 556479 471317 471133 622303
0110100110000100: 556479 471317 471133 464152
0110100010010010: 556479 471317 471133 596204
0111100010001000: 556479 471317 492170 471133
0111100010001000: 556479 471317 492170 471133
0110100110000100: 556479 471317 492170 622303
0110100110000100: 556479 471317 492170 464152
0110100110000100: 556479 471317 492170 622303
0110100110000100: 556479 471317 492170 464152
0111100010001000: 556479 471317 471133 492170
0111100010001000: 556479 471317 471133 492170
0110100010010010: 556479 471317 471133 596204
0111100010001000: 556479 471317 492170 471133
0111100010001000: 556479 471317 492170 471133
0111100010001000: 556479 471317 492170 471133
0110100110000100: 556479 471317 471133 622303
0110100110000100: 556479 471317 471133 464152
0110100110000100: 556479 471317 471133 622303
0110100110000100: 556479 471317 471133 464152
0111100010001000: 556479 471317 471133 492170
0110100010010010: 556479 471317 471133 596204
0110100010010010: 556479 471317 471133 596204
0110100110000100: 556479 471317 492170 622303
0110100110000100: 556479 471317 492170 464152
0110100110000100: 556479 471317 492170 622303
0110100110000100: 556479 471317 492170 464152
0111100010001000: 556479 471317 492170 471133
0111100010001000: 556479 471317 492170 471133
0110100110000100: 556479 471317 492170 622303
0110100110000100: 556479 471317 492170 464152
0101101001001000: 471317 622303 562388 464152
0101101001001000: 471317 622303 562388 556479
0111100010001000: 471317 556479 464152 622303
0110100110000100: 471317 622303 464152 562388
0110100010010010: 471317 622303 464152 515992
0110100010010010: 471317 622303 464152 543838
0111100010001000: 471317 622303 556479 464152
0110100110000100: 471317 622303 556479 562388
0110100010010010: 471317 622303 556479 471133
0110100010010010: 471317 622303 556479 492170
0110100110000100: 471317 622303 464152 562388
0110100110000100: 471317 622303 464152 562388
0110100110000100: 471317 622303 464152 562388
0110100110000100: 471317 622303 556479 562388
0110100110000100: 471317 622303 556479 562388
0110100110000100: 471317 622303 556479 562388
0101101001001000: 471317 622303 562388 464152
0101101001001000: 471317 622303 562388 556479
0100101001010010: 471317 622303 562388 503925
0100101001010010: 471317 622303 562388 503925
0100101001010010: 471317 622303 562388 503925
0110100110000100: 471317 464152 622303 515992
0110100110000100: 471317 464152 622303 543838
0110100010010010: 471317 464152 622303 562388
0110100010010010: 471317 464152 622303 562388
0111100010001000: 471317 464152 556479 622303
0110100110000100: 471317 464152 556479 515992
0110100110000100: 471317 464152 556479 543838
0110100010010010: 471317 464152 556479 471133
0110100010010010: 471317 464152 556479 492170
0111100010001000: 471317 464152 622303 556479
0110100110000100: 471317 464152 622303 515992
0110100110000100: 471317 464152 622303 543838
0110100110000100: 471317 464152 622303 515992
0110100110000100: 471317 464152 622303 543838
0110100010010010: 471317 464152 622303 562388
0110100110000100: 471317 464152 556479 515992
0110100110000100: 471317 464152 556479 543838
0110100110000100: 471317 464152 556479 515992
0110100110000100: 471317 464152 556479 543838
0111100010001000: 471317 464152 622303 556479
0111100010001000: 471317 464152 622303 556479
0110100010010010: 471317 464152 622303 562388
0111100010001000: 471317 464152 556479 622303
0111100010001000: 471317 464152 556479 622303
0111100010001000: 471317 464152 556479 622303
0110100110000100: 471317 464152 622303 515992
0110100110000100: 471317 464152 622303 543838
0110100110000100: 471317 464152 622303 515992
0110100110000100: 471317 464152 622303 543838
0111100010001000: 471317 464152 622303 556479
0110100010010010: 471317 464152 622303 562388
0110100010010010: 471317 464152 622303 562388
0110100110000100: 471317 464152 556479 515992
0110100110000100: 471317 464152 556479 543838
0110100110000100: 471317 464152 556479 515992
0110100110000100: 471317 464152 556479 543838
0111100010001000: 471317 464152 556479 622303
0111100010001000: 471317 464152 556479 622303
0110100110000100: 471317 464152 556479 515992
0110100110000100: 471317 464152 556479 543838
0110100010010010: 471317 556479 622303 562388
0110100010010010: 471317 556479 622303 562388
0111100010001000: 471317 556479 464152 622303
0110100010010010: 471317 556479 464152 515992
0110100010010010: 471317 556479 464152 543838
0111100010001000: 471317 556479 622303 464152
0110100110000100: 471317 556479 622303 471133
0110100110000100: 471317 556479 622303 492170
0110100010010010: 471317 556479 622303 562388
0111100010001000: 471317 556479 464152 622303
0111100010001000: 471317 556479 464152 622303
0110100110000100: 471317 556479 464152 471133
0110100110000100: 471317 556479 464152 492170
0111100010001000: 471317 556479 622303 464152
0111100010001000: 471317 556479 622303 464152
0110100010010010: 471317 556479 622303 562388
0111100010001000: 471317 556479 464152 622303
0111100010001000: 471317 556479 464152 622303
0111100010001000: 471317 556479 464152 622303
0110100110000100: 471317 556479 622303 471133
0110100110000100: 471317 556479 622303 492170
0110100110000100: 471317 556479 622303 471133
0110100110000100: 471317 556479 622303 492170
0111100010001000: 471317 556479 622303 464152
0110100010010010: 471317 556479 622303 562388
0110100010010010: 471317 556479 622303 562388
0110100110000100: 471317 556479 464152 471133
0110100110000100: 471317 556479 464152 492170
0110100110000100: 471317 556479 464152 471133
0110100110000100: 471317 556479 464152 492170
0111100010001000: 471317 556479 464152 622303
0111100010001000: 471317 556479 464152 622303
0110100110000100: 471317 556479 464152 471133
0110100110000100: 471317 556479 464152 492170
0101101001001000: 543838 506410 596204 586527
0101101001001000: 543838 506410 596204 464152
0101101001001000: 543838 586527 643859 506410
0101101001001000: 543838 586527 643859 464152
0111100010001000: 543838 464152 586527 506410
0110100110000100: 543838 506410 586527 596204
0110100010010010: 543838 506410 586527 643859
0110100010010010: 543838 506410 586527 643859
0111100010001000: 543838 506410 464152 586527
0110100110000100: 543838 506410 464152 596204
0110100010010010: 543838 506410 464152 515992
0110100010010010: 543838 506410 464152 471317
0110100110000100: 543838 506410 586527 596204
0110100110000100: 543838 506410 586527 596204
0110100110000100: 543838 506410 586527 596204
0110100110000100: 543838 506410 464152 596204
0110100110000100: 543838 506410 464152 596204
0110100110000100: 543838 506410 464152 596204
0101101001001000: 543838 506410 596204 586527
0101101001001000: 543838 506410 596204 464152
0100101001010010: 543838 506410 596204 471133
0100101001010010: 543838 506410 596204 492170
0100101001010010: 543838 506410 596204 643859
0100101001010010: 543838 506410 596204 471133
0100101001010010: 543838 506410 596204 492170
0100101001010010: 543838 506410 596204 643859
0101101001001000: 543838 506410 596204 586527
0101101001001000: 543838 506410 596204 464152
0110100110000100: 543838 586527 506410 643859
0110100010010010: 543838 586527 506410 596204
0110100010010010: 543838 586527 506410 596204
0111100010001000: 543838 586527 464152 506410
0110100110000100: 543838 586527 464152 643859
0110100010010010: 543838 586527 464152 515992
0110100010010010: 543838 586527 464152 471317
0111100010001000: 543838 586527 506410 464152
0110100110000100: 543838 586527 506410 643859
0110100110000100: 543838 586527 506410 643859
0110100110000100: 543838 586527 506410 643859
0110100110000100: 543838 586527 464152 643859
0110100110000100: 543838 586527 464152 643859
0110100110000100: 543838 586527 464152 643859
0101101001001000: 543838 586527 643859 506410
0101101001001000: 543838 586527 643859 464152
0100101001010010: 543838 586527 643859 596204
0100101001010010: 543838 586527 643859 596204
0100101001010010: 543838 586527 643859 596204
0110100110000100: 543838 464152 506410 515992
0110100110000100: 543838 464152 506410 471317
0110100010010010: 543838 464152 506410 596204
0110100010010010: 543838 464152 506410 596204
0111100010001000: 543838 464152 586527 506410
0110100110000100: 543838 464152 586527 515992
0110100110000100: 543838 464152 586527 471317
0110100010010010: 543838 464152 586527 643859
0110100010010010: 543838 464152 586527 643859
0111100010001000: 543838 464152 506410 586527
0110100110000100: 543838 464152 506410 515992
0110100110000100: 543838 464152 506410 471317
0110100110000100: 543838 464152 506410 515992
0110100110000100: 543838 464152 506410 471317
0110100010010010: 543838 464152 506410 596204
0111100010001000: 543838 464152 586527 506410
0111100010001000: 543838 464152 586527 506410
0110100110000100: 543838 464152 586527 515992
0110100110000100: 543838 464152 586527 471317
0110100110000100: 543838 464152 586527 515992
0110100110000100: 543838 464152 586527 471317
0110100010010010: 543838 464152 586527 643859
0111100010001000: 543838 464152 506410 586527
0111100010001000: 543838 464152 506410 586527
0110100010010010: 543838 464152 506410 596204
0111100010001000: 543838 464152 586527 506410
0111100010001000: 543838 464152 586527 506410
0110100010010010: 543838 464152 586527 643859
0110100110000100: 543838 464152 506410 515992
0110100110000100: 543838 464152 506410 471317
0110100110000100: 543838 464152 506410 515992
0110100110000100: 543838 464152 506410 471317
0111100010001000: 543838 464152 506410 586527
0110100010010010: 543838 464152 506410 596204
0110100010010010: 543838 464152 506410 596204
0110100110000100: 543838 464152 586527 515992
0110100110000100: 543838 464152 586527 471317
0110100110000100: 543838 464152 586527 515992
0110100110000100: 543838 464152 586527 471317
0111100010001000: 543838 464152 586527 506410
0111100010001000: 543838 464152 586527 506410
0110100010010010: 543838 464152 586527 643859
0110100010010010: 543838 464152 586527 643859
0101101001001000: 464152 515992 484634 543838
0101101001001000: 464152 515992 484634 471317
0111100010001000: 464152 471317 543838 515992
0110100110000100: 464152 515992 543838 484634
0110100010010010: 464152 515992 543838 506410
0110100010010010: 464152 515992 543838 586527
0111100010001000: 464152 515992 471317 543838
0110100110000100: 464152 515992 471317 484634
0110100010010010: 464152 515992 471317 622303
0110100010010010: 464152 515992 471317 556479
0110100110000100: 464152 515992 543838 484634
0110100110000100: 464152 515992 543838 484634
0110100110000100: 464152 515992 543838 484634
0110100110000100: 464152 515992 471317 484634
0110100110000100: 464152 515992 471317 484634
0110100110000100: 464152 515992 471317 484634
0101101001001000: 464152 515992 484634 543838
0101101001001000: 464152 515992 484634 471317
0100101001010010: 464152 515992 484634 492170
0100101001010010: 464152 515992 484634 492170
0100101001010010: 464152 515992 484634 492170
0110100010010010: 464152 543838 515992 484634
0110100010010010: 464152 543838 515992 484634
0111100010001000: 464152 543838 471317 515992
0110100010010010: 464152 543838 471317 622303
0110100010010010: 464152 543838 471317 556479
0111100010001000: 464152 543838 515992 471317
0110100110000100: 464152 543838 515992 506410
0110100110000100: 464152 543838 515992 586527
0110100010010010: 464152 543838 515992 484634
0110100110000100: 464152 543838 471317 506410
0110100110000100: 464152 543838 471317 586527
0111100010001000: 464152 543838 515992 471317
0111100010001000: 464152 543838 515992 471317
0110100010010010: 464152 543838 515992 484634
0111100010001000: 464152 543838 471317 515992
0111100010001000: 464152 543838 471317 515992
0111100010001000: 464152 543838 471317 515992
0110100110000100: 464152 543838 515992 506410
0110100110000100: 464152 543838 515992 586527
0110100110000100: 464152 543838 515992 506410
0110100110000100: 464152 543838 515992 586527
0111100010001000: 464152 543838 515992 471317
0110100010010010: 464152 543838 515992 484634
0110100010010010: 464152 543838 515992 484634
0110100110000100: 464152 543838 471317 506410
0110100110000100: 464152 543838 471317 586527
0110100110000100: 464152 543838 471317 506410
0110100110000100: 464152 543838 471317 586527
0111100010001000: 464152 543838 471317 515992
0111100010001000: 464152 543838 471317 515992
0110100110000100: 464152 543838 471317 506410
0110100110000100: 464152 543838 471317 586527
0110100010010010: 464152 471317 515992 484634
0110100010010010: 464152 471317 515992 484634
0111100010001000: 464152 471317 543838 515992
0110100010010010: 464152 471317 543838 506410
0110100010010010: 464152 471317 543838 586527
0111100010001000: 464152 471317 515992 543838
0110100110000100: 464152 471317 515992 622303
0110100110000100: 464152 471317 515992 556479
0110100010010010: 464152 471317 515992 484634
0111100010001000: 464152 471317 543838 515992
0111100010001000: 464152 471317 543838 515992
0110100110000100: 464152 471317 543838 622303
0110100110000100: 464152 471317 543838 556479
0111100010001000: 464152 471317 515992 543838
0111100010001000: 464152 471317 515992 543838
0110100010010010: 464152 471317 515992 484634
0111100010001000: 464152 471317 543838 515992
0111100010001000: 464152 471317 543838 515992
0111100010001000: 464152 471317 543838 515992
0110100110000100: 464152 471317 515992 622303
0110100110000100: 464152 471317 515992 556479
0110100110000100: 464152 471317 515992 622303
0110100110000100: 464152 471317 515992 556479
0111100010001000: 464152 471317 515992 543838
0110100010010010: 464152 471317 515992 484634
0110100010010010: 464152 471317 515992 484634
0110100110000100: 464152 471317 543838 622303
0110100110000100: 464152 471317 543838 556479
0110100110000100: 464152 471317 543838 622303
0110100110000100: 464152 471317 543838 556479
0111100010001000: 464152 471317 543838 515992
0111100010001000: 464152 471317 543838 515992
0110100110000100: 464152 471317 543838 622303
0110100110000100: 464152 471317 543838 556479
0101101001001000: 492170 484634 515992 556479
0101101001001000: 492170 484634 515992 596204
0111100010001000: 492170 596204 556479 484634
0110100110010110: 492170 596204 556479 471133
0110100110000100: 492170 484634 556479 515992
0110100010010010: 492170 484634 556479 471133
0110100010010010: 492170 484634 556479 471317
0111100010001000: 492170 484634 596204 556479
0110100110000100: 492170 484634 596204 515992
0110100010010010: 492170 484634 596204 506410
0110100010010010: 492170 484634 596204 471133
0110100010010010: 492170 484634 596204 643859
0110100110000100: 492170 484634 556479 515992
0110100110000100: 492170 484634 556479 515992
0110100110000100: 492170 484634 556479 515992
0110100110000100: 492170 484634 596204 515992
0110100110000100: 492170 484634 596204 515992
0110100110000100: 492170 484634 596204 515992
0101101001001000: 492170 484634 515992 556479
0101101001001000: 492170 484634 515992 596204
0100101001010010: 492170 484634 515992 464152
0100101001010010: 492170 484634 515992 464152
0100101001010010: 492170 484634 515992 464152
0110100010010010: 492170 556479 484634 515992
0110100010010010: 492170 556479 484634 515992
0111100010001000: 492170 556479 596204 484634
0110100010010010: 492170 556479 596204 506410
0110100010010010: 492170 556479 596204 643859
0110100110010110: 492170 556479 596204 471133
0111100010001000: 492170 556479 484634 596204
0110100110000100: 492170 556479 484634 471133
0110100110000100: 492170 556479 484634 471317
0110100010010010: 492170 556479 484634 515992
0110100110000100: 492170 556479 596204 471317
0110100110010110: 492170 556479 596204 471133
0111100010001000: 492170 556479 484634 596204
0111100010001000: 492170 556479 484634 596204
0110100010010010: 492170 556479 484634 515992
0111100010001000: 492170 556479 596204 484634
0111100010001000: 492170 556479 596204 484634
0111100010001000: 492170 556479 596204 484634
0110100110000100: 492170 556479 484634 471133
0110100110000100: 492170 556479 484634 471317
0110100110000100: 492170 556479 484634 471133
0110100110000100: 492170 556479 484634 471317
0111100010001000: 492170 556479 484634 596204
0110100010010010: 492170 556479 484634 515992
0110100010010010: 492170 556479 484634 515992
0110100110000100: 492170 556479 596204 471317
0110100110000100: 492170 556479 596204 471317
0111100010001000: 492170 556479 596204 484634
0111100010001000: 492170 556479 596204 484634
0110100110010110: 492170 556479 596204 471133
0110100110000100: 492170 556479 596204 471317
0110100010010010: 492170 596204 484634 515992
0110100010010010: 492170 596204 484634 515992
0111100010001000: 492170 596204 556479 484634
0110100010010010: 492170 596204 556479 471317
0110100110010110: 492170 596204 556479 471133
0111100010001000: 492170 596204 484634 556479
0110100110000100: 492170 596204 484634 506410
0110100110000100: 492170 596204 484634 471133
0110100110000100: 492170 596204 484634 643859
0110100010010010: 492170 596204 484634 515992
0111100010001000: 492170 596204 556479 484634
0111100010001000: 492170 596204 556479 484634
0110100110000100: 492170 596204 556479 506410
0110100110000100: 492170 596204 556479 643859
0110100110010110: 492170 596204 556479 471133
0110100010010010: 492170 596204 556479 471317
0110100110010110: 492170 596204 556479 471133
0111100010001000: 492170 596204 484634 556479
0111100010001000: 492170 596204 484634 556479
0110100010010010: 492170 596204 484634 515992
0111100010001000: 492170 596204 556479 484634
0111100010001000: 492170 596204 556479 484634
0111100010001000: 492170 596204 556479 484634
0110100110000100: 492170 596204 484634 506410
0110100110000100: 492170 596204 484634 471133
0110100110000100: 492170 596204 484634 643859
0110100110000100: 492170 596204 484634 506410
0110100110000100: 492170 596204 484634 471133
0110100110000100: 492170 596204 484634 643859
0111100010001000: 492170 596204 484634 556479
0110100010010010: 492170 596204 484634 515992
0110100010010010: 492170 596204 484634 515992
0110100110000100: 492170 596204 556479 506410
0110100110000100: 492170 596204 556479 643859
0110100110000100: 492170 596204 556479 506410
0110100110000100: 492170 596204 556479 643859
0111100010001000: 492170 596204 556479 484634
0111100010001000: 492170 596204 556479 484634
0110100010010010: 492170 596204 556479 471317
0110100110010110: 492170 596204 556479 471133
0110100110000100: 515992 484634 464152 492170
0110100010010010: 515992 484634 464152 543838
0110100010010010: 515992 484634 464152 471317
0110100110000100: 515992 484634 464152 492170
0110100110000100: 515992 484634 464152 492170
0110100110000100: 515992 484634 464152 492170
0110100110000100: 515992 484634 464152 492170
0110100110000100: 515992 484634 464152 492170
0110100010010010: 515992 464152 484634 492170
0110100110000100: 515992 464152 484634 543838
0110100110000100: 515992 464152 484634 471317
0110100010010010: 515992 464152 484634 492170
0110100110000100: 515992 464152 484634 543838
0110100110000100: 515992 464152 484634 471317
0110100110000100: 515992 464152 484634 543838
0110100110000100: 515992 464152 484634 471317
0110100010010010: 515992 464152 484634 492170
0110100010010010: 586527 543838 643859 596204
0110100110000100: 586527 543838 643859 506410
0110100110000100: 586527 543838 643859 464152
0110100010010010: 586527 543838 643859 596204
0110100110000100: 586527 543838 643859 506410
0110100110000100: 586527 543838 643859 464152
0110100110000100: 586527 543838 643859 506410
0110100110000100: 586527 543838 643859 464152
0110100010010010: 586527 543838 643859 596204
0110100010010010: 586527 643859 543838 506410
0110100010010010: 586527 643859 543838 464152
0110100110000100: 586527 643859 543838 596204
0110100110000100: 586527 643859 543838 596204
0110100110000100: 586527 643859 543838 596204
0110100110000100: 586527 643859 543838 596204
0110100110010110: 471133 596204 556479 492170
0110100010010010: 471133 556479 596204 506410
0110100010010010: 471133 556479 596204 643859
0110100110010110: 471133 556479 596204 492170
0110100110000100: 471133 556479 596204 471317
0110100110010110: 471133 556479 596204 492170
0110100110000100: 471133 556479 596204 471317
0110100110000100: 471133 556479 596204 471317
0110100110010110: 471133 556479 596204 492170
0110100110000100: 471133 556479 596204 471317
0110100010010010: 471133 596204 556479 471317
0110100110010110: 471133 596204 556479 492170
0110100110000100: 471133 596204 556479 506410
0110100110000100: 471133 596204 556479 643859
0110100110010110: 471133 596204 556479 492170
0110100010010010: 471133 596204 556479 471317
0110100110010110: 471133 596204 556479 492170
0110100110000100: 471133 596204 556479 506410
0110100110000100: 471133 596204 556479 643859
0110100110000100: 471133 596204 556479 506410
0110100110000100: 471133 596204 556479 643859
0110100010010010: 471133 596204 556479 471317
0110100110010110: 471133 596204 556479 492170
0110100110000100: 503925 562388 509594 622303
0110100110000100: 503925 562388 509594 622303
0110100110000100: 503925 562388 509594 622303
0110100110000100: 503925 562388 509594 622303
0110100110000100: 503925 562388 509594 622303
0110100010010010: 503925 509594 562388 622303
0110100010010010: 506410 543838 596204 471133
0110100010010010: 506410 543838 596204 492170
0110100010010010: 506410 543838 596204 643859
0110100110000100: 506410 543838 596204 586527
0110100110000100: 506410 543838 596204 464152
0110100110000100: 506410 543838 596204 586527
0110100110000100: 506410 543838 596204 464152
0110100110000100: 506410 543838 596204 586527
0110100110000100: 506410 543838 596204 464152
0110100110000100: 506410 543838 596204 586527
0110100110000100: 506410 543838 596204 464152
0110100010010010: 506410 596204 543838 586527
0110100010010010: 506410 596204 543838 464152
0110100110000100: 506410 596204 543838 471133
0110100110000100: 506410 596204 543838 492170
0110100110000100: 506410 596204 543838 643859
0110100010010010: 506410 596204 543838 586527
0110100010010010: 506410 596204 543838 464152
0110100110000100: 506410 596204 543838 471133
0110100110000100: 506410 596204 543838 492170
0110100110000100: 506410 596204 543838 643859
0110100110000100: 506410 596204 543838 471133
0110100110000100: 506410 596204 543838 492170
0110100110000100: 506410 596204 543838 643859
0110100010010010: 506410 596204 543838 586527
0110100010010010: 506410 596204 543838 464152
0110100110000100: 562388 622303 503925 471317
0110100010010010: 562388 622303 503925 509594
0110100110000100: 562388 622303 503925 471317
0110100110000100: 562388 622303 503925 471317
0110100110000100: 562388 622303 503925 471317
0110100110000100: 562388 622303 503925 471317
0110100110000100: 562388 622303 503925 471317
0110100010010010: 562388 503925 622303 471317
0110100110000100: 562388 503925 622303 509594
0110100110000100: 562388 503925 622303 509594
0110100110000100: 562388 503925 622303 509594
0110100110000100: 562388 503925 622303 509594
0110100010010010: 484634 515992 492170 556479
0110100010010010: 484634 515992 492170 596204
0110100110000100: 484634 515992 492170 464152
0110100110000100: 484634 515992 492170 464152
0110100110000100: 484634 515992 492170 464152
0110100110000100: 484634 515992 492170 464152
0110100010010010: 484634 492170 515992 464152
0110100110000100: 484634 492170 515992 556479
0110100110000100: 484634 492170 515992 596204
0110100010010010: 484634 492170 515992 464152
0110100110000100: 484634 492170 515992 556479
0110100110000100: 484634 492170 515992 596204
0110100110000100: 484634 492170 515992 556479
0110100110000100: 484634 492170 515992 596204
0110100010010010: 484634 492170 515992 464152
0110100010010010: 622303 562388 471317 464152
0110100010010010: 622303 562388 471317 556479
0110100110000100: 622303 562388 471317 503925
0110100110000100: 622303 562388 471317 503925
0110100110000100: 622303 562388 471317 503925
0110100110000100: 622303 562388 471317 503925
0110100010010010: 622303 471317 562388 503925
0110100110000100: 622303 471317 562388 464152
0110100110000100: 622303 471317 562388 556479
0110100010010010: 622303 471317 562388 503925
0110100110000100: 622303 471317 562388 464152
0110100110000100: 622303 471317 562388 556479
0110100110000100: 622303 471317 562388 464152
0110100110000100: 622303 471317 562388 556479
0110100010010010: 622303 471317 562388 503925
