Vertex,0110010011100100110001000,0110010010100010100000100,0111010101110001000101010,0111010100110001000100010,0110010011100000100001000,0111110100110001000110010,0110010010100010100100110,0111010101110001000001000,0111110000100001000010000,0111110100110001000010000
467288,10.0,113.0,1.0,19.0,86.0,0.0,5.0,19.0,3.0,7.0
616321,17.0,123.0,2.0,18.0,113.0,0.0,5.0,19.0,5.0,8.0
629119,2.0,54.0,0.0,2.0,56.0,0.0,1.0,4.0,3.0,2.0
511781,23.0,135.0,2.0,22.0,135.0,1.0,6.0,31.0,7.0,13.0
630404,7.0,100.0,0.0,4.0,78.0,0.0,4.0,0.0,3.0,0.0
586916,3.0,79.0,0.0,4.0,71.0,0.0,4.0,4.0,3.0,2.0
616376,9.0,50.0,1.0,2.0,63.0,0.0,1.0,11.0,6.0,8.0
546938,2.0,69.0,0.0,17.0,75.0,1.0,4.0,23.0,4.0,10.0
580322,15.0,70.0,1.0,5.0,74.0,0.0,1.0,9.0,4.0,4.0
635460,1.0,53.0,1.0,15.0,39.0,0.0,1.0,14.0,2.0,6.0
585073,1.0,45.0,0.0,15.0,33.0,1.0,1.0,19.0,2.0,8.0
587158,0.0,15.0,0.0,2.0,23.0,0.0,0.0,5.0,0.0,1.0
617676,10.0,131.0,1.0,31.0,104.0,1.0,3.0,39.0,5.0,15.0
584802,8.0,43.0,0.0,3.0,30.0,0.0,0.0,0.0,1.0,0.0
475720,0.0,35.0,0.0,3.0,12.0,0.0,1.0,12.0,0.0,0.0
458492,0.0,25.0,0.0,2.0,11.0,0.0,0.0,0.0,0.0,0.0
470231,1.0,38.0,0.0,2.0,39.0,0.0,0.0,8.0,4.0,6.0
603566,1.0,31.0,0.0,1.0,20.0,0.0,0.0,0.0,1.0,0.0
529612,6.0,84.0,0.0,4.0,63.0,0.0,3.0,7.0,2.0,1.0
557778,3.0,96.0,1.0,19.0,88.0,1.0,4.0,28.0,4.0,11.0
586222,0.0,48.0,0.0,3.0,42.0,0.0,2.0,7.0,0.0,1.0
599999,14.0,93.0,0.0,5.0,85.0,0.0,3.0,6.0,4.0,2.0
482689,7.0,35.0,0.0,2.0,35.0,0.0,1.0,0.0,2.0,0.0
graph,28.0,313.0,2.0,40.0,275.0,1.0,10.0,53.0,13.0,21.0
