Vertex,0111010101110001000101010,0110010011100100110001000,0111110000100001000010000,0111010110110011100100110,0110010010100010100000100,0111110100110001000010000,0111110100110001000110010,0111010110110011100000100,0110010011100000100001000,0111110110110001100010000,0110010010100010100100110,0111110110110011100010100,0111010101110001000001000,0111010100110001000100010
570191,7.0,20.0,6.0,1.0,11.0,21.0,3.0,5.0,46.0,8.0,2.0,3.0,22.0,21.0
633463,7.0,20.0,6.0,1.0,10.0,13.0,1.0,0.0,30.0,2.0,1.0,0.0,10.0,16.0
483282,2.0,6.0,2.0,1.0,9.0,10.0,3.0,5.0,12.0,8.0,1.0,3.0,17.0,13.0
600713,1.0,9.0,0.0,0.0,13.0,1.0,0.0,1.0,20.0,0.0,1.0,0.0,8.0,8.0
468011,4.0,6.0,0.0,0.0,18.0,1.0,1.0,1.0,16.0,0.0,2.0,0.0,12.0,18.0
545029,5.0,10.0,0.0,1.0,16.0,3.0,1.0,3.0,19.0,1.0,3.0,2.0,20.0,17.0
583173,2.0,8.0,4.0,0.0,12.0,13.0,1.0,1.0,19.0,4.0,1.0,2.0,17.0,9.0
541041,2.0,8.0,3.0,0.0,11.0,12.0,3.0,1.0,16.0,2.0,2.0,0.0,12.0,12.0
521470,1.0,3.0,4.0,0.0,5.0,11.0,1.0,1.0,22.0,3.0,0.0,2.0,11.0,7.0
457203,3.0,6.0,2.0,1.0,14.0,11.0,3.0,5.0,23.0,8.0,2.0,3.0,26.0,13.0
652427,1.0,3.0,3.0,0.0,5.0,12.0,3.0,1.0,18.0,2.0,0.0,0.0,9.0,9.0
476397,0.0,1.0,0.0,0.0,6.0,2.0,0.0,1.0,14.0,2.0,0.0,0.0,11.0,2.0
graph,7.0,20.0,6.0,1.0,26.0,22.0,4.0,5.0,51.0,8.0,3.0,3.0,35.0,29.0
