Vertex,0110101011010010,0111100010011010,0111101011011010,0111100110001100,0101101001001000,0110100110010110,0111101111001100,0100101101000100,0110101111000100,0110100010010010,0101101001011010,0101101101011110,0101101101001100,0111100110011110,0111101011001000,0100101101010110,0110101111010110,0110100110000100,0100101001010010,0111101111011110,0111100010001000
648339,668.0,338.0,900.0,587.0,334.0,350.0,1098.0,40.0,932.0,670.0,146.0,74.0,176.0,48.0,1968.0,4.0,827.0,1205.0,163.0,1550.0,866.0
490693,110.0,93.0,134.0,122.0,100.0,0.0,198.0,0.0,200.0,156.0,0.0,0.0,16.0,1.0,470.0,0.0,110.0,364.0,21.0,155.0,422.0
530437,457.0,244.0,559.0,398.0,320.0,418.0,630.0,52.0,625.0,633.0,172.0,62.0,126.0,41.0,1293.0,8.0,546.0,1059.0,239.0,620.0,643.0
649060,251.0,168.0,137.0,218.0,286.0,523.0,144.0,66.0,337.0,570.0,205.0,15.0,66.0,10.0,701.0,16.0,143.0,941.0,205.0,0.0,677.0
536525,133.0,115.0,113.0,135.0,136.0,105.0,144.0,12.0,212.0,301.0,32.0,5.0,22.0,5.0,485.0,2.0,101.0,568.0,76.0,155.0,427.0
505077,175.0,148.0,254.0,192.0,165.0,140.0,324.0,14.0,294.0,302.0,55.0,13.0,30.0,9.0,678.0,6.0,236.0,571.0,91.0,310.0,429.0
596318,100.0,70.0,74.0,102.0,221.0,177.0,108.0,24.0,162.0,503.0,60.0,0.0,16.0,1.0,374.0,0.0,60.0,898.0,123.0,0.0,714.0
550157,501.0,311.0,600.0,517.0,334.0,383.0,720.0,36.0,712.0,706.0,143.0,45.0,126.0,39.0,1534.0,16.0,554.0,1229.0,232.0,1085.0,712.0
628896,351.0,183.0,460.0,320.0,248.0,245.0,522.0,26.0,490.0,413.0,105.0,50.0,90.0,33.0,1043.0,6.0,451.0,794.0,114.0,775.0,513.0
563852,620.0,283.0,674.0,597.0,224.0,422.0,810.0,32.0,851.0,512.0,176.0,53.0,168.0,42.0,1794.0,4.0,618.0,892.0,112.0,1705.0,632.0
597674,103.0,76.0,148.0,115.0,119.0,103.0,198.0,4.0,183.0,189.0,35.0,5.0,18.0,4.0,425.0,0.0,131.0,420.0,36.0,0.0,515.0
483282,480.0,233.0,601.0,413.0,253.0,313.0,684.0,28.0,636.0,448.0,130.0,72.0,128.0,44.0,1315.0,10.0,576.0,789.0,144.0,1085.0,488.0
581357,405.0,235.0,454.0,356.0,349.0,315.0,504.0,54.0,546.0,673.0,124.0,49.0,110.0,34.0,1133.0,14.0,448.0,1161.0,230.0,310.0,715.0
621190,143.0,96.0,18.0,122.0,200.0,173.0,18.0,36.0,169.0,453.0,58.0,4.0,46.0,2.0,323.0,8.0,17.0,730.0,167.0,0.0,345.0
589057,359.0,148.0,229.0,320.0,349.0,628.0,270.0,82.0,464.0,719.0,258.0,29.0,110.0,17.0,930.0,6.0,213.0,1181.0,269.0,310.0,880.0
490488,22.0,6.0,0.0,18.0,116.0,103.0,0.0,28.0,26.0,295.0,37.0,0.0,8.0,0.0,49.0,0.0,0.0,433.0,117.0,0.0,267.0
620505,12.0,2.0,0.0,8.0,54.0,0.0,0.0,8.0,12.0,130.0,0.0,0.0,4.0,0.0,21.0,0.0,0.0,226.0,26.0,0.0,93.0
587996,96.0,35.0,0.0,70.0,243.0,280.0,0.0,60.0,96.0,622.0,99.0,0.0,32.0,0.0,167.0,4.0,0.0,936.0,279.0,0.0,586.0
518235,82.0,28.0,0.0,70.0,166.0,142.0,0.0,30.0,104.0,341.0,55.0,0.0,28.0,0.0,202.0,0.0,0.0,566.0,112.0,0.0,332.0
568589,143.0,68.0,60.0,138.0,192.0,212.0,72.0,30.0,192.0,387.0,77.0,6.0,46.0,4.0,387.0,4.0,54.0,664.0,152.0,0.0,423.0
607397,250.0,96.0,257.0,204.0,211.0,280.0,252.0,38.0,308.0,368.0,122.0,50.0,80.0,30.0,597.0,4.0,259.0,690.0,90.0,0.0,345.0
501433,166.0,30.0,0.0,114.0,130.0,105.0,0.0,34.0,170.0,226.0,44.0,0.0,56.0,0.0,301.0,0.0,0.0,422.0,57.0,0.0,245.0
504262,105.0,44.0,0.0,104.0,74.0,140.0,0.0,10.0,147.0,157.0,60.0,0.0,30.0,0.0,311.0,0.0,0.0,291.0,40.0,0.0,220.0
550318,60.0,18.0,0.0,48.0,106.0,35.0,0.0,22.0,72.0,236.0,11.0,0.0,20.0,0.0,139.0,0.0,0.0,391.0,69.0,0.0,211.0
635035,0.0,0.0,0.0,0.0,26.0,0.0,0.0,2.0,0.0,90.0,0.0,0.0,0.0,0.0,0.0,0.0,0.0,119.0,36.0,0.0,24.0
graph,1448.0,767.0,1418.0,1322.0,1239.0,1398.0,1674.0,192.0,1985.0,2525.0,551.0,133.0,388.0,91.0,4160.0,28.0,1336.0,4385.0,800.0,2015.0,2931.0
