Vertex,0110100010010010,0110101011010010,0101101101001100,0110100110000100,0101101001001000,0111100110001100,0111100110011110,0100101001010010,0111100010001000,0111101011001000,0100101101000100,0110101111010110,0101101101011110,0110100110010110,0110101111000100,0111101111001100,0111101111011110,0101101001011010,0111100010011010,0111101011011010
562799,134.0,77.0,10.0,277.0,68.0,87.0,6.0,17.0,447.0,349.0,0.0,101.0,5.0,0.0,145.0,144.0,0.0,0.0,69.0,114.0
554368,355.0,307.0,46.0,742.0,210.0,294.0,12.0,40.0,1445.0,1204.0,6.0,245.0,10.0,35.0,519.0,378.0,155.0,14.0,225.0,289.0
543175,69.0,62.0,4.0,154.0,34.0,66.0,5.0,7.0,296.0,293.0,0.0,44.0,3.0,0.0,120.0,54.0,0.0,0.0,63.0,53.0
464194,165.0,61.0,18.0,329.0,93.0,71.0,3.0,38.0,149.0,221.0,4.0,17.0,2.0,70.0,101.0,18.0,0.0,32.0,41.0,18.0
501829,254.0,250.0,52.0,512.0,147.0,245.0,7.0,32.0,445.0,904.0,6.0,208.0,8.0,70.0,402.0,324.0,155.0,32.0,152.0,237.0
600260,56.0,61.0,2.0,104.0,25.0,64.0,4.0,10.0,288.0,301.0,0.0,27.0,2.0,0.0,121.0,36.0,0.0,0.0,58.0,37.0
496279,164.0,64.0,12.0,361.0,109.0,56.0,0.0,12.0,566.0,217.0,4.0,50.0,0.0,35.0,98.0,90.0,0.0,16.0,38.0,60.0
488733,127.0,53.0,6.0,236.0,69.0,52.0,2.0,28.0,368.0,222.0,0.0,27.0,2.0,0.0,93.0,36.0,0.0,0.0,40.0,33.0
469085,30.0,44.0,0.0,70.0,20.0,44.0,0.0,0.0,352.0,220.0,0.0,0.0,0.0,0.0,88.0,0.0,0.0,0.0,44.0,0.0
582491,88.0,45.0,2.0,167.0,43.0,48.0,2.0,14.0,360.0,221.0,0.0,10.0,0.0,35.0,89.0,18.0,0.0,14.0,42.0,17.0
552439,157.0,74.0,12.0,327.0,98.0,66.0,2.0,22.0,511.0,268.0,2.0,67.0,3.0,35.0,118.0,108.0,0.0,16.0,48.0,77.0
472538,51.0,40.0,4.0,119.0,34.0,40.0,0.0,0.0,536.0,176.0,0.0,50.0,0.0,0.0,74.0,90.0,0.0,0.0,34.0,60.0
509910,89.0,107.0,14.0,170.0,47.0,112.0,2.0,12.0,360.0,461.0,0.0,67.0,2.0,0.0,193.0,108.0,155.0,0.0,82.0,81.0
651524,30.0,44.0,0.0,70.0,20.0,44.0,0.0,0.0,352.0,220.0,0.0,0.0,0.0,0.0,88.0,0.0,0.0,0.0,44.0,0.0
489155,118.0,91.0,14.0,233.0,65.0,96.0,1.0,11.0,432.0,382.0,0.0,50.0,0.0,35.0,161.0,90.0,155.0,14.0,66.0,63.0
613406,103.0,22.0,8.0,218.0,62.0,21.0,0.0,21.0,45.0,56.0,4.0,0.0,0.0,35.0,28.0,0.0,0.0,16.0,6.0,0.0
507218,102.0,17.0,6.0,218.0,64.0,16.0,0.0,21.0,60.0,41.0,6.0,0.0,0.0,35.0,21.0,0.0,0.0,16.0,4.0,0.0
536141,144.0,58.0,16.0,271.0,82.0,54.0,2.0,34.0,134.0,182.0,4.0,17.0,3.0,0.0,86.0,18.0,0.0,0.0,30.0,17.0
536350,107.0,27.0,10.0,214.0,57.0,32.0,0.0,11.0,0.0,84.0,0.0,0.0,0.0,35.0,39.0,0.0,0.0,14.0,8.0,0.0
481008,57.0,12.0,4.0,134.0,40.0,8.0,0.0,2.0,30.0,21.0,4.0,0.0,0.0,0.0,12.0,0.0,0.0,0.0,2.0,0.0
492211,120.0,24.0,8.0,186.0,57.0,16.0,0.0,36.0,0.0,41.0,0.0,0.0,0.0,0.0,24.0,0.0,0.0,0.0,4.0,0.0
graph,630.0,385.0,62.0,1278.0,361.0,383.0,12.0,92.0,1794.0,1521.0,10.0,245.0,10.0,105.0,655.0,378.0,155.0,46.0,275.0,289.0
