Vertex,0111010110110011100000100,0111010101110001000001000,0111110110110001100010000,0110010011100100110001000,0111110100110001000010000,0111010101110001000101010,0110010010100010100000100,0110010010100010100100110,0110010011100000100001000,0111010110110011100100110,0111010100110001000100010,0110010011100110110001100,0111110100110001000110010,0111110000100001000010000
521442,0.0,9.0,1.0,14.0,0.0,3.0,56.0,3.0,39.0,0.0,6.0,0.0,0.0,2.0
485932,1.0,4.0,0.0,7.0,3.0,5.0,34.0,2.0,28.0,0.0,7.0,0.0,1.0,1.0
495545,0.0,0.0,0.0,2.0,0.0,0.0,28.0,1.0,20.0,0.0,5.0,0.0,0.0,1.0
542204,0.0,7.0,0.0,8.0,5.0,4.0,21.0,2.0,27.0,1.0,6.0,2.0,1.0,2.0
506613,0.0,8.0,1.0,2.0,0.0,0.0,26.0,1.0,11.0,0.0,3.0,0.0,0.0,0.0
554798,2.0,9.0,2.0,20.0,4.0,5.0,44.0,0.0,15.0,2.0,9.0,2.0,1.0,0.0
631159,2.0,12.0,2.0,18.0,6.0,4.0,23.0,2.0,26.0,2.0,11.0,1.0,1.0,2.0
457538,2.0,13.0,2.0,7.0,6.0,3.0,33.0,1.0,25.0,2.0,12.0,1.0,1.0,1.0
475576,2.0,7.0,2.0,28.0,3.0,4.0,42.0,2.0,40.0,2.0,8.0,2.0,0.0,3.0
652376,1.0,1.0,0.0,19.0,2.0,1.0,51.0,1.0,47.0,0.0,5.0,0.0,0.0,4.0
557726,0.0,0.0,0.0,2.0,0.0,0.0,12.0,0.0,20.0,0.0,1.0,0.0,0.0,1.0
608757,0.0,0.0,0.0,10.0,0.0,0.0,25.0,0.0,23.0,0.0,4.0,0.0,0.0,1.0
556876,0.0,5.0,0.0,18.0,6.0,1.0,30.0,0.0,24.0,1.0,3.0,2.0,0.0,2.0
graph,2.0,15.0,2.0,31.0,7.0,6.0,85.0,3.0,69.0,2.0,16.0,2.0,1.0,4.0
