0111101111001100: 627586 626589 565187 611840
0110100110000100: 627586 611840 565187 536231
0110100010010010: 627586 611840 565187 609888
0110100110000100: 627586 611840 565187 536231
0110100110000100: 627586 611840 565187 536231
0110101011010010: 627586 611840 626589 531421
0110101011010010: 627586 611840 626589 531421
0111101011011010: 627586 611840 626589 565187
0111101011011010: 627586 611840 626589 565187
0111101011011010: 627586 611840 626589 565187
0110101111000100: 627586 611840 626589 536231
0110101111000100: 627586 611840 626589 536231
0110101111000100: 627586 611840 626589 536231
0111101011011010: 627586 611840 626589 565187
0110100110000100: 627586 611840 565187 536231
0110100110000100: 627586 611840 565187 536231
0110100110000100: 627586 611840 565187 536231
0111100110011110: 627586 611840 565187 626589
0111101011011010: 627586 611840 626589 565187
0110100110000100: 627586 565187 611840 609888
0110100010010010: 627586 565187 611840 536231
0110100110000100: 627586 565187 611840 609888
0110100110000100: 627586 565187 611840 609888
0110101011010010: 627586 565187 626589 531421
0110101011010010: 627586 565187 626589 531421
0111101011011010: 627586 565187 626589 611840
0111101011011010: 627586 565187 626589 611840
0111101011011010: 627586 565187 626589 611840
0110101111000100: 627586 565187 626589 609888
0110101111000100: 627586 565187 626589 609888
0110101111000100: 627586 565187 626589 609888
0111101011011010: 627586 565187 626589 611840
0110100110000100: 627586 565187 611840 609888
0110100110000100: 627586 565187 611840 609888
0110100110000100: 627586 565187 611840 609888
0111100110011110: 627586 565187 611840 626589
0111101011011010: 627586 565187 626589 611840
0110101011010010: 627586 626589 611840 536231
0110101011010010: 627586 626589 611840 536231
0110101011010010: 627586 626589 565187 609888
0110101011010010: 627586 626589 565187 609888
0111101111001100: 627586 626589 565187 611840
0110101111000100: 627586 626589 611840 531421
0110101111000100: 627586 626589 611840 531421
0111101111001100: 627586 626589 611840 565187
0111101111001100: 627586 626589 611840 565187
0110101011010010: 627586 626589 611840 536231
0110101111000100: 627586 626589 565187 531421
0110101111000100: 627586 626589 565187 531421
0111101111001100: 627586 626589 565187 611840
0111101111001100: 627586 626589 565187 611840
0111101111001100: 627586 626589 565187 611840
0110101011010010: 627586 626589 565187 609888
0111101111001100: 627586 626589 611840 565187
0111101111001100: 627586 626589 611840 565187
0111101111001100: 627586 626589 565187 611840
0111101111001100: 627586 626589 565187 611840
0111101111001100: 627586 626589 565187 611840
0111101011001000: 626589 611840 627586 531421
0101101001001000: 626589 611840 536231 531421
0101101001001000: 626589 611840 536231 565187
0101101101001100: 626589 611840 536231 627586
0110100110010110: 626589 565187 531421 609888
0111100010001000: 626589 565187 611840 531421
0111101011001000: 626589 565187 627586 531421
0101101001001000: 626589 565187 609888 611840
0101101101001100: 626589 565187 609888 627586
0111101011001000: 626589 627586 611840 531421
0111101011001000: 626589 627586 565187 531421
0111101111001100: 626589 627586 565187 611840
0110100110000100: 626589 531421 611840 604916
0110100110000100: 626589 531421 611840 507728
0110100110000100: 626589 531421 611840 473392
0110100110000100: 626589 531421 611840 609888
0110100010010010: 626589 531421 611840 536231
0111100010011010: 626589 531421 611840 627586
0110100010010010: 626589 531421 611840 536231
0111100010001000: 626589 531421 565187 611840
0110100110000100: 626589 531421 565187 604916
0110100110000100: 626589 531421 565187 507728
0110100110000100: 626589 531421 565187 473392
0111100010011010: 626589 531421 565187 627586
0110100110010110: 626589 531421 565187 609888
0110100110010110: 626589 531421 565187 609888
0110100110000100: 626589 531421 627586 604916
0110100110000100: 626589 531421 627586 507728
0110100110000100: 626589 531421 627586 473392
0110100110000100: 626589 531421 627586 609888
0111100010011010: 626589 531421 627586 611840
0111100010011010: 626589 531421 627586 565187
0110100110000100: 626589 531421 611840 604916
0110100110000100: 626589 531421 611840 507728
0110100110000100: 626589 531421 611840 473392
0110100110000100: 626589 531421 611840 609888
0110100110000100: 626589 531421 611840 604916
0110100110000100: 626589 531421 611840 507728
0110100110000100: 626589 531421 611840 473392
0110100110000100: 626589 531421 611840 609888
0110100010010010: 626589 531421 611840 536231
0110100110000100: 626589 531421 565187 604916
0110100110000100: 626589 531421 565187 507728
0110100110000100: 626589 531421 565187 473392
0110100110000100: 626589 531421 565187 604916
0110100110000100: 626589 531421 565187 507728
0110100110000100: 626589 531421 565187 473392
0110100110010110: 626589 531421 565187 609888
0110100110000100: 626589 531421 627586 604916
0110100110000100: 626589 531421 627586 507728
0110100110000100: 626589 531421 627586 473392
0110100110000100: 626589 531421 627586 609888
0110100110000100: 626589 531421 627586 604916
0110100110000100: 626589 531421 627586 507728
0110100110000100: 626589 531421 627586 473392
0110100110000100: 626589 531421 627586 609888
0111100010001000: 626589 531421 611840 565187
0111100010001000: 626589 531421 611840 565187
0111100010011010: 626589 531421 611840 627586
0111100010011010: 626589 531421 611840 627586
0110100010010010: 626589 531421 611840 536231
0111100010001000: 626589 531421 565187 611840
0111100010001000: 626589 531421 565187 611840
0111100010011010: 626589 531421 565187 627586
0111100010011010: 626589 531421 565187 627586
0111100010011010: 626589 531421 627586 611840
0111100010011010: 626589 531421 627586 565187
0111100010011010: 626589 531421 627586 611840
0111100010011010: 626589 531421 627586 565187
0110100110000100: 626589 531421 611840 604916
0110100110000100: 626589 531421 611840 507728
0110100110000100: 626589 531421 611840 473392
0110100110000100: 626589 531421 611840 609888
0110100110000100: 626589 531421 611840 604916
0110100110000100: 626589 531421 611840 507728
0110100110000100: 626589 531421 611840 473392
0110100110000100: 626589 531421 611840 609888
0111100010001000: 626589 531421 611840 565187
0110100010010010: 626589 531421 611840 536231
0110100010010010: 626589 531421 611840 536231
0111100010011010: 626589 531421 611840 627586
0110100110000100: 626589 531421 565187 604916
0110100110000100: 626589 531421 565187 507728
0110100110000100: 626589 531421 565187 473392
0110100110000100: 626589 531421 565187 604916
0110100110000100: 626589 531421 565187 507728
0110100110000100: 626589 531421 565187 473392
0111100010001000: 626589 531421 565187 611840
0111100010001000: 626589 531421 565187 611840
0110100110010110: 626589 531421 565187 609888
0110100110010110: 626589 531421 565187 609888
0111100010011010: 626589 531421 565187 627586
0110100110000100: 626589 531421 627586 604916
0110100110000100: 626589 531421 627586 507728
0110100110000100: 626589 531421 627586 473392
0110100110000100: 626589 531421 627586 609888
0110100110000100: 626589 531421 627586 604916
0110100110000100: 626589 531421 627586 507728
0110100110000100: 626589 531421 627586 473392
0110100110000100: 626589 531421 627586 609888
0111100010011010: 626589 531421 627586 611840
0111100010011010: 626589 531421 627586 565187
0110100110000100: 626589 611840 531421 536231
0110100010010010: 626589 611840 531421 604916
0110100010010010: 626589 611840 531421 507728
0110100010010010: 626589 611840 531421 473392
0110100010010010: 626589 611840 531421 609888
0111100010001000: 626589 611840 565187 531421
0110100110000100: 626589 611840 565187 536231
0110100010010010: 626589 611840 565187 609888
0110100010010010: 626589 611840 565187 609888
0111100010001000: 626589 611840 531421 565187
0110100110000100: 626589 611840 531421 536231
0110100110000100: 626589 611840 531421 536231
0111100110001100: 626589 611840 531421 627586
0110100110000100: 626589 611840 531421 536231
0110100110000100: 626589 611840 565187 536231
0110100110000100: 626589 611840 565187 536231
0110100110000100: 626589 611840 565187 536231
0111101011001000: 626589 611840 627586 531421
0111101011011010: 626589 611840 627586 565187
0111101011011010: 626589 611840 627586 565187
0111101011011010: 626589 611840 627586 565187
0110101111000100: 626589 611840 627586 536231
0101101001001000: 626589 611840 536231 531421
0101101001001000: 626589 611840 536231 565187
0100101001010010: 626589 611840 536231 518907
0100101001010010: 626589 611840 536231 518907
0101101101001100: 626589 611840 536231 627586
0100101001010010: 626589 611840 536231 518907
0100101001010010: 626589 611840 536231 518907
0111101011001000: 626589 611840 627586 531421
0111101011001000: 626589 611840 627586 531421
0110101111000100: 626589 611840 627586 536231
0110101111000100: 626589 611840 627586 536231
0110101111000100: 626589 611840 627586 536231
0110101111000100: 626589 611840 627586 536231
0110101111000100: 626589 611840 627586 536231
0110100010010010: 626589 565187 531421 604916
0110100010010010: 626589 565187 531421 507728
0110100010010010: 626589 565187 531421 473392
0110100110010110: 626589 565187 531421 609888
0110100110010110: 626589 565187 531421 609888
0111100010001000: 626589 565187 611840 531421
0110100110000100: 626589 565187 611840 609888
0110100010010010: 626589 565187 611840 536231
0110100010010010: 626589 565187 611840 536231
0111100010001000: 626589 565187 531421 611840
0111100110001100: 626589 565187 531421 627586
0110100110010110: 626589 565187 531421 609888
0110100110010110: 626589 565187 531421 609888
0110100110010110: 626589 565187 531421 609888
0111100010001000: 626589 565187 611840 531421
0111100010001000: 626589 565187 611840 531421
0110100110000100: 626589 565187 611840 609888
0110100110000100: 626589 565187 611840 609888
0110100110000100: 626589 565187 611840 609888
0111101011001000: 626589 565187 627586 531421
0111101011011010: 626589 565187 627586 611840
0111101011011010: 626589 565187 627586 611840
0111101011011010: 626589 565187 627586 611840
0110101111000100: 626589 565187 627586 609888
0101101001001000: 626589 565187 609888 611840
0101101101001100: 626589 565187 609888 627586
0101101001011010: 626589 565187 609888 531421
0101101001011010: 626589 565187 609888 531421
0101101001011010: 626589 565187 609888 531421
0101101001011010: 626589 565187 609888 531421
0101101001011010: 626589 565187 609888 531421
0111101011001000: 626589 565187 627586 531421
0111101011001000: 626589 565187 627586 531421
0110101111000100: 626589 565187 627586 609888
0110101111000100: 626589 565187 627586 609888
0110101111000100: 626589 565187 627586 609888
0110101111000100: 626589 565187 627586 609888
0110101111000100: 626589 565187 627586 609888
0110100010010010: 626589 627586 531421 604916
0110100010010010: 626589 627586 531421 507728
0110100010010010: 626589 627586 531421 473392
0110100010010010: 626589 627586 531421 609888
0111100110001100: 626589 627586 531421 611840
0111100110001100: 626589 627586 531421 565187
0111101011001000: 626589 627586 611840 531421
0110101011010010: 626589 627586 611840 536231
0110101011010010: 626589 627586 611840 536231
0111101011001000: 626589 627586 565187 531421
0110101011010010: 626589 627586 565187 609888
0110101011010010: 626589 627586 565187 609888
0111101011001000: 626589 627586 611840 531421
0111101011001000: 626589 627586 611840 531421
0111101111001100: 626589 627586 611840 565187
0111101011001000: 626589 627586 565187 531421
0111101011001000: 626589 627586 565187 531421
0111101111001100: 626589 627586 565187 611840
0111101111001100: 626589 627586 565187 611840
0111101011001000: 626589 627586 611840 531421
0111101011001000: 626589 627586 611840 531421
0111101111001100: 626589 627586 611840 565187
0111101011001000: 626589 627586 565187 531421
0111101011001000: 626589 627586 565187 531421
0111101111001100: 626589 627586 565187 611840
0101101001001000: 565187 609888 531421 627586
0110100110010110: 565187 626589 609888 531421
0111101011001000: 565187 626589 627586 609888
0111101011001000: 565187 627586 626589 609888
0110100010010010: 565187 609888 626589 611840
0111100010011010: 565187 609888 626589 627586
0110100110010110: 565187 609888 626589 531421
0110100110010110: 565187 609888 626589 531421
0110100110000100: 565187 609888 627586 531421
0110100010010010: 565187 609888 627586 611840
0111100010011010: 565187 609888 627586 626589
0110100110010110: 565187 609888 626589 531421
0110100110000100: 565187 609888 627586 531421
0110100110000100: 565187 609888 627586 531421
0110100110000100: 565187 609888 627586 531421
0101101001001000: 565187 609888 531421 627586
0100101001010010: 565187 609888 531421 604916
0100101001010010: 565187 609888 531421 507728
0100101001010010: 565187 609888 531421 473392
0100101001010010: 565187 609888 531421 604916
0100101001010010: 565187 609888 531421 507728
0100101001010010: 565187 609888 531421 473392
0101101001011010: 565187 609888 531421 626589
0101101001011010: 565187 609888 531421 626589
0101101001011010: 565187 609888 531421 626589
0101101001001000: 565187 609888 531421 627586
0110100110010110: 565187 626589 609888 531421
0110100110000100: 565187 626589 609888 611840
0111100110001100: 565187 626589 609888 627586
0110100110010110: 565187 626589 609888 531421
0110100110010110: 565187 626589 609888 531421
0111101011001000: 565187 626589 627586 609888
0111101011001000: 565187 626589 627586 609888
0111101011001000: 565187 626589 627586 609888
0111101011001000: 565187 626589 627586 609888
0111101011001000: 565187 626589 627586 609888
0110101111000100: 565187 626589 627586 531421
0110101111000100: 565187 626589 627586 531421
0111101011001000: 565187 626589 627586 609888
0110101111010110: 565187 626589 627586 611840
0110101111010110: 565187 626589 627586 611840
0110101111010110: 565187 626589 627586 611840
0111101011001000: 565187 626589 627586 609888
0110100110000100: 565187 626589 609888 611840
0110100110000100: 565187 626589 609888 611840
0111100110001100: 565187 626589 609888 627586
0111100110001100: 565187 626589 609888 627586
0111100110001100: 565187 626589 609888 627586
0110100110010110: 565187 626589 609888 531421
0110100110010110: 565187 626589 609888 531421
0111101011001000: 565187 626589 627586 609888
0110100010010010: 565187 627586 609888 531421
0110100010010010: 565187 627586 609888 531421
0110100110000100: 565187 627586 609888 611840
0111100110001100: 565187 627586 609888 626589
0110100010010010: 565187 627586 609888 531421
0111101011001000: 565187 627586 626589 609888
0111101011001000: 565187 627586 626589 609888
0111101011001000: 565187 627586 626589 609888
0110100010010010: 565187 627586 609888 531421
0111101011001000: 565187 627586 626589 609888
0111101011001000: 565187 627586 626589 609888
0111101011001000: 565187 627586 626589 609888
0110101111010110: 565187 627586 626589 611840
0110101111010110: 565187 627586 626589 611840
0110101111010110: 565187 627586 626589 611840
0111101011001000: 565187 627586 626589 609888
0110100110000100: 565187 627586 609888 611840
0110100110000100: 565187 627586 609888 611840
0111100110001100: 565187 627586 609888 626589
0111100110001100: 565187 627586 609888 626589
0111100110001100: 565187 627586 609888 626589
0110100010010010: 565187 627586 609888 531421
0110100010010010: 565187 627586 609888 531421
0111101011001000: 565187 627586 626589 609888
0111101011001000: 565187 627586 626589 609888
0111101011001000: 565187 627586 626589 609888
0111101011001000: 565187 627586 626589 609888
0101101001001000: 611840 536231 518907 626589
0101101001001000: 611840 536231 518907 627586
0111101011001000: 611840 626589 627586 536231
0111101011001000: 611840 627586 626589 536231
0110100110000100: 611840 536231 626589 518907
0110100010010010: 611840 536231 626589 531421
0110100010010010: 611840 536231 626589 565187
0111100010011010: 611840 536231 626589 627586
0110100110000100: 611840 536231 627586 518907
0110100010010010: 611840 536231 627586 565187
0111100010011010: 611840 536231 627586 626589
0110100110000100: 611840 536231 626589 518907
0110100110000100: 611840 536231 626589 518907
0110100110000100: 611840 536231 626589 518907
0110100110000100: 611840 536231 627586 518907
0110100110000100: 611840 536231 627586 518907
0110100110000100: 611840 536231 627586 518907
0101101001001000: 611840 536231 518907 626589
0101101001001000: 611840 536231 518907 627586
0110100010010010: 611840 626589 536231 518907
0110100010010010: 611840 626589 536231 518907
0110100110000100: 611840 626589 536231 531421
0110100110000100: 611840 626589 536231 565187
0111100110001100: 611840 626589 536231 627586
0110100010010010: 611840 626589 536231 518907
0111101011001000: 611840 626589 627586 536231
0111101011001000: 611840 626589 627586 536231
0111101011001000: 611840 626589 627586 536231
0110100010010010: 611840 626589 536231 518907
0111101011001000: 611840 626589 627586 536231
0111101011001000: 611840 626589 627586 536231
0110101111000100: 611840 626589 627586 531421
0110101111000100: 611840 626589 627586 531421
0111101011001000: 611840 626589 627586 536231
0110101111010110: 611840 626589 627586 565187
0110101111010110: 611840 626589 627586 565187
0111101011001000: 611840 626589 627586 536231
0110100110000100: 611840 626589 536231 531421
0110100110000100: 611840 626589 536231 565187
0110100110000100: 611840 626589 536231 531421
0110100110000100: 611840 626589 536231 565187
0111100110001100: 611840 626589 536231 627586
0111100110001100: 611840 626589 536231 627586
0111100110001100: 611840 626589 536231 627586
0110100010010010: 611840 626589 536231 518907
0110100010010010: 611840 626589 536231 518907
0111101011001000: 611840 626589 627586 536231
0110100010010010: 611840 627586 536231 518907
0110100010010010: 611840 627586 536231 518907
0110100110000100: 611840 627586 536231 565187
0111100110001100: 611840 627586 536231 626589
0110100010010010: 611840 627586 536231 518907
0111101011001000: 611840 627586 626589 536231
0111101011001000: 611840 627586 626589 536231
0111101011001000: 611840 627586 626589 536231
0110100010010010: 611840 627586 536231 518907
0111101011001000: 611840 627586 626589 536231
0111101011001000: 611840 627586 626589 536231
0111101011001000: 611840 627586 626589 536231
0110101111010110: 611840 627586 626589 565187
0110101111010110: 611840 627586 626589 565187
0111101011001000: 611840 627586 626589 536231
0110100110000100: 611840 627586 536231 565187
0110100110000100: 611840 627586 536231 565187
0111100110001100: 611840 627586 536231 626589
0111100110001100: 611840 627586 536231 626589
0111100110001100: 611840 627586 536231 626589
0110100010010010: 611840 627586 536231 518907
0110100010010010: 611840 627586 536231 518907
0111101011001000: 611840 627586 626589 536231
0111101011001000: 611840 627586 626589 536231
0111101011001000: 611840 627586 626589 536231
0111101011001000: 611840 627586 626589 536231
0110100110010110: 609888 565187 531421 626589
0110100110000100: 609888 531421 565187 604916
0110100110000100: 609888 531421 565187 507728
0110100110000100: 609888 531421 565187 473392
0110100010010010: 609888 531421 565187 627586
0110100110010110: 609888 531421 565187 626589
0110100110010110: 609888 531421 565187 626589
0110100110000100: 609888 531421 565187 604916
0110100110000100: 609888 531421 565187 507728
0110100110000100: 609888 531421 565187 473392
0110100110000100: 609888 531421 565187 604916
0110100110000100: 609888 531421 565187 507728
0110100110000100: 609888 531421 565187 473392
0110100010010010: 609888 531421 565187 627586
0110100110010110: 609888 531421 565187 626589
0110100110000100: 609888 531421 565187 604916
0110100110000100: 609888 531421 565187 507728
0110100110000100: 609888 531421 565187 473392
0110100110000100: 609888 531421 565187 604916
0110100110000100: 609888 531421 565187 507728
0110100110000100: 609888 531421 565187 473392
0110100010010010: 609888 531421 565187 627586
0110100110010110: 609888 531421 565187 626589
0110100010010010: 609888 565187 531421 604916
0110100010010010: 609888 565187 531421 507728
0110100010010010: 609888 565187 531421 473392
0110100110010110: 609888 565187 531421 626589
0110100110000100: 609888 565187 531421 627586
0110100110010110: 609888 565187 531421 626589
0110100110010110: 609888 565187 531421 626589
0110100110000100: 609888 565187 531421 627586
0110100110000100: 609888 565187 531421 627586
0110100110010110: 609888 565187 531421 626589
0110100110000100: 609888 565187 531421 627586
0111101011001000: 531421 604916 507728 609888
0111101011001000: 531421 604916 507728 626589
0111101011001000: 531421 604916 473392 609888
0111101011001000: 531421 604916 473392 626589
0111101111001100: 531421 604916 473392 507728
0111101011001000: 531421 507728 604916 609888
0111101011001000: 531421 507728 604916 626589
0101101001001000: 531421 507728 621621 473392
0101101001001000: 531421 507728 621621 609888
0101101001001000: 531421 507728 621621 626589
0101101101001100: 531421 507728 621621 604916
0111101011001000: 531421 473392 604916 609888
0111101011001000: 531421 473392 604916 626589
0101101001001000: 531421 473392 521280 507728
0101101001001000: 531421 473392 521280 609888
0101101001001000: 531421 473392 521280 626589
0101101101001100: 531421 473392 521280 604916
0111100010001000: 531421 609888 473392 507728
0101101001001000: 531421 609888 565187 604916
0101101001001000: 531421 609888 565187 507728
0101101001001000: 531421 609888 565187 473392
0111100010001000: 531421 626589 473392 507728
0111100010001000: 531421 626589 609888 604916
0111100010001000: 531421 626589 609888 507728
0111100010001000: 531421 626589 609888 473392
0110100110010110: 531421 626589 609888 565187
0101101001001000: 531421 626589 611840 604916
0101101001001000: 531421 626589 611840 507728
0101101001001000: 531421 626589 611840 473392
0101101001001000: 531421 626589 611840 609888
0101101001001000: 531421 626589 565187 604916
0101101001001000: 531421 626589 565187 507728
0101101001001000: 531421 626589 565187 473392
0100101101000100: 531421 626589 565187 611840
0101101001001000: 531421 626589 627586 604916
0101101001001000: 531421 626589 627586 507728
0101101001001000: 531421 626589 627586 473392
0101101001001000: 531421 626589 627586 609888
0110100010010010: 531421 604916 609888 565187
0110100010010010: 531421 604916 609888 565187
0111100010001000: 531421 604916 626589 609888
0110100010010010: 531421 604916 626589 611840
0110100010010010: 531421 604916 626589 565187
0110100010010010: 531421 604916 626589 627586
0110100010010010: 531421 604916 626589 611840
0110100010010010: 531421 604916 626589 565187
0110100010010010: 531421 604916 626589 627586
0111100110001100: 531421 604916 609888 507728
0111100110001100: 531421 604916 609888 473392
0110100010010010: 531421 604916 609888 565187
0111100110001100: 531421 604916 626589 507728
0111100110001100: 531421 604916 626589 473392
0111101011001000: 531421 604916 507728 609888
0111101011001000: 531421 604916 507728 626589
0110101011010010: 531421 604916 507728 621621
0110101011010010: 531421 604916 507728 621621
0110101011010010: 531421 604916 507728 621621
0110101011010010: 531421 604916 507728 621621
0111101011001000: 531421 604916 473392 609888
0111101011001000: 531421 604916 473392 626589
0110101011010010: 531421 604916 473392 521280
0110101011010010: 531421 604916 473392 521280
0111101111001100: 531421 604916 473392 507728
0110101011010010: 531421 604916 473392 521280
0110101011010010: 531421 604916 473392 521280
0111101011001000: 531421 604916 507728 609888
0111101011001000: 531421 604916 507728 626589
0111101011001000: 531421 604916 507728 609888
0111101011001000: 531421 604916 507728 626589
0111101111001100: 531421 604916 507728 473392
0111101111001100: 531421 604916 507728 473392
0111101011001000: 531421 604916 473392 609888
0111101011001000: 531421 604916 473392 626589
0111101011001000: 531421 604916 473392 609888
0111101011001000: 531421 604916 473392 626589
0111101111001100: 531421 604916 473392 507728
0111101111001100: 531421 604916 473392 507728
0111101111001100: 531421 604916 473392 507728
0111101111001100: 531421 604916 507728 473392
0111101111001100: 531421 604916 507728 473392
0111101111001100: 531421 604916 473392 507728
0111101111001100: 531421 604916 473392 507728
0111101111001100: 531421 604916 473392 507728
0110100110000100: 531421 507728 473392 621621
0110100010010010: 531421 507728 473392 521280
0110100010010010: 531421 507728 473392 521280
0111100010001000: 531421 507728 609888 473392
0110100110000100: 531421 507728 609888 621621
0110100010010010: 531421 507728 609888 565187
0110100010010010: 531421 507728 609888 565187
0111100010001000: 531421 507728 626589 473392
0111100010001000: 531421 507728 626589 609888
0110100110000100: 531421 507728 626589 621621
0110100010010010: 531421 507728 626589 611840
0110100010010010: 531421 507728 626589 565187
0110100010010010: 531421 507728 626589 627586
0110100010010010: 531421 507728 626589 611840
0110100010010010: 531421 507728 626589 565187
0110100010010010: 531421 507728 626589 627586
0110100110000100: 531421 507728 473392 621621
0110100110000100: 531421 507728 473392 621621
0110100110000100: 531421 507728 473392 621621
0110100110000100: 531421 507728 609888 621621
0110100110000100: 531421 507728 609888 621621
0111100110001100: 531421 507728 609888 604916
0110100110000100: 531421 507728 609888 621621
0110100010010010: 531421 507728 609888 565187
0110100110000100: 531421 507728 626589 621621
0110100110000100: 531421 507728 626589 621621
0111100110001100: 531421 507728 626589 604916
0110100110000100: 531421 507728 626589 621621
0111101011001000: 531421 507728 604916 609888
0111101011001000: 531421 507728 604916 626589
0111101011011010: 531421 507728 604916 473392
0111101011011010: 531421 507728 604916 473392
0111101011011010: 531421 507728 604916 473392
0110101111000100: 531421 507728 604916 621621
0101101001001000: 531421 507728 621621 473392
0101101001001000: 531421 507728 621621 609888
0101101001001000: 531421 507728 621621 626589
0100101001010010: 531421 507728 621621 521280
0100101001010010: 531421 507728 621621 521280
0101101101001100: 531421 507728 621621 604916
0100101001010010: 531421 507728 621621 521280
0100101001010010: 531421 507728 621621 521280
0111101011001000: 531421 507728 604916 609888
0111101011001000: 531421 507728 604916 626589
0111101011001000: 531421 507728 604916 609888
0111101011001000: 531421 507728 604916 626589
0110101111000100: 531421 507728 604916 621621
0110101111000100: 531421 507728 604916 621621
0110101111000100: 531421 507728 604916 621621
0110101111000100: 531421 507728 604916 621621
0111101011001000: 531421 507728 604916 609888
0111101011001000: 531421 507728 604916 626589
0111101011001000: 531421 507728 604916 609888
0111101011001000: 531421 507728 604916 626589
0110101111000100: 531421 507728 604916 621621
0110100110000100: 531421 473392 507728 521280
0110100010010010: 531421 473392 507728 621621
0110100010010010: 531421 473392 507728 621621
0111100010001000: 531421 473392 609888 507728
0110100110000100: 531421 473392 609888 521280
0110100010010010: 531421 473392 609888 565187
0110100010010010: 531421 473392 609888 565187
0111100010001000: 531421 473392 626589 507728
0111100010001000: 531421 473392 626589 609888
0110100110000100: 531421 473392 626589 521280
0110100010010010: 531421 473392 626589 611840
0110100010010010: 531421 473392 626589 565187
0110100010010010: 531421 473392 626589 627586
0110100010010010: 531421 473392 626589 611840
0110100010010010: 531421 473392 626589 565187
0110100010010010: 531421 473392 626589 627586
0111100010001000: 531421 473392 507728 609888
0111100010001000: 531421 473392 507728 626589
0110100110000100: 531421 473392 507728 521280
0110100110000100: 531421 473392 507728 521280
0110100110000100: 531421 473392 507728 521280
0110100110000100: 531421 473392 609888 521280
0110100110000100: 531421 473392 609888 521280
0111100110001100: 531421 473392 609888 604916
0110100110000100: 531421 473392 609888 521280
0110100010010010: 531421 473392 609888 565187
0110100110000100: 531421 473392 626589 521280
0110100110000100: 531421 473392 626589 521280
0111100110001100: 531421 473392 626589 604916
0110100110000100: 531421 473392 626589 521280
0111101011001000: 531421 473392 604916 609888
0111101011001000: 531421 473392 604916 626589
0111101011011010: 531421 473392 604916 507728
0111101011011010: 531421 473392 604916 507728
0111101011011010: 531421 473392 604916 507728
0110101111000100: 531421 473392 604916 521280
0101101001001000: 531421 473392 521280 507728
0101101001001000: 531421 473392 521280 609888
0101101001001000: 531421 473392 521280 626589
0100101001010010: 531421 473392 521280 474904
0100101001010010: 531421 473392 521280 621621
0100101001010010: 531421 473392 521280 474904
0100101001010010: 531421 473392 521280 621621
0101101101001100: 531421 473392 521280 604916
0100101001010010: 531421 473392 521280 474904
0100101001010010: 531421 473392 521280 621621
0111101011001000: 531421 473392 604916 609888
0111101011001000: 531421 473392 604916 626589
0111101011001000: 531421 473392 604916 609888
0111101011001000: 531421 473392 604916 626589
0110101111000100: 531421 473392 604916 521280
0110101111000100: 531421 473392 604916 521280
0110101111000100: 531421 473392 604916 521280
0110101111000100: 531421 473392 604916 521280
0111101011001000: 531421 473392 604916 609888
0111101011001000: 531421 473392 604916 626589
0111101011001000: 531421 473392 604916 609888
0111101011001000: 531421 473392 604916 626589
0110101111000100: 531421 473392 604916 521280
0111100010011010: 531421 609888 604916 507728
0111100010011010: 531421 609888 604916 473392
0110100010010010: 531421 609888 507728 621621
0111100010011010: 531421 609888 507728 604916
0110100010010010: 531421 609888 507728 621621
0111100010001000: 531421 609888 473392 507728
0110100010010010: 531421 609888 473392 521280
0111100010011010: 531421 609888 473392 604916
0110100010010010: 531421 609888 473392 521280
0111100010001000: 531421 609888 626589 604916
0111100010001000: 531421 609888 626589 507728
0111100010001000: 531421 609888 626589 473392
0110100010010010: 531421 609888 626589 611840
0110100010010010: 531421 609888 626589 627586
0110100010010010: 531421 609888 626589 611840
0110100010010010: 531421 609888 626589 627586
0110100110010110: 531421 609888 626589 565187
0111100010001000: 531421 609888 604916 626589
0110100110000100: 531421 609888 604916 565187
0110100110000100: 531421 609888 604916 565187
0111100010001000: 531421 609888 507728 473392
0111100010001000: 531421 609888 507728 626589
0110100110000100: 531421 609888 507728 565187
0110100110000100: 531421 609888 507728 565187
0111100010001000: 531421 609888 473392 507728
0111100010001000: 531421 609888 473392 626589
0111100010001000: 531421 609888 473392 507728
0110100110000100: 531421 609888 473392 565187
0110100110000100: 531421 609888 473392 565187
0110100110010110: 531421 609888 626589 565187
0101101001001000: 531421 609888 565187 604916
0101101001001000: 531421 609888 565187 507728
0101101001001000: 531421 609888 565187 473392
0100101001010010: 531421 609888 565187 627586
0100101001010010: 531421 609888 565187 627586
0101101001011010: 531421 609888 565187 626589
0101101001011010: 531421 609888 565187 626589
0101101001011010: 531421 609888 565187 626589
0100101001010010: 531421 609888 565187 627586
0111100010011010: 531421 626589 604916 507728
0111100010011010: 531421 626589 604916 473392
0110100010010010: 531421 626589 507728 621621
0111100010011010: 531421 626589 507728 604916
0110100010010010: 531421 626589 507728 621621
0111100010001000: 531421 626589 473392 507728
0110100010010010: 531421 626589 473392 521280
0111100010011010: 531421 626589 473392 604916
0110100010010010: 531421 626589 473392 521280
0111100010001000: 531421 626589 609888 604916
0111100010001000: 531421 626589 609888 507728
0111100010001000: 531421 626589 609888 473392
0110100110010110: 531421 626589 609888 565187
0111100010001000: 531421 626589 604916 609888
0110100110000100: 531421 626589 604916 611840
0110100110000100: 531421 626589 604916 565187
0110100110000100: 531421 626589 604916 627586
0110100110000100: 531421 626589 604916 611840
0110100110000100: 531421 626589 604916 565187
0110100110000100: 531421 626589 604916 627586
0111100010001000: 531421 626589 507728 473392
0111100010001000: 531421 626589 507728 609888
0110100110000100: 531421 626589 507728 611840
0110100110000100: 531421 626589 507728 565187
0110100110000100: 531421 626589 507728 627586
0110100110000100: 531421 626589 507728 611840
0110100110000100: 531421 626589 507728 565187
0110100110000100: 531421 626589 507728 627586
0110100010010010: 531421 626589 507728 621621
0111100010001000: 531421 626589 473392 507728
0111100010001000: 531421 626589 473392 609888
0111100010001000: 531421 626589 473392 507728
0110100110000100: 531421 626589 473392 611840
0110100110000100: 531421 626589 473392 565187
0110100110000100: 531421 626589 473392 627586
0110100110000100: 531421 626589 473392 611840
0110100110000100: 531421 626589 473392 565187
0110100110000100: 531421 626589 473392 627586
0110100010010010: 531421 626589 473392 521280
0111100010001000: 531421 626589 609888 604916
0111100010001000: 531421 626589 609888 507728
0111100010001000: 531421 626589 609888 473392
0111100010001000: 531421 626589 609888 604916
0111100010001000: 531421 626589 609888 507728
0111100010001000: 531421 626589 609888 473392
0110100110000100: 531421 626589 609888 611840
0110100110000100: 531421 626589 609888 627586
0110100110000100: 531421 626589 609888 611840
0110100110000100: 531421 626589 609888 627586
0110100110010110: 531421 626589 609888 565187
0110100110010110: 531421 626589 609888 565187
0101101001001000: 531421 626589 611840 604916
0101101001001000: 531421 626589 611840 507728
0101101001001000: 531421 626589 611840 473392
0101101001001000: 531421 626589 611840 609888
0100101001010010: 531421 626589 611840 536231
0100101001010010: 531421 626589 611840 536231
0100101001010010: 531421 626589 611840 536231
0100101001010010: 531421 626589 611840 536231
0100101101010110: 531421 626589 611840 627586
0101101001001000: 531421 626589 565187 604916
0101101001001000: 531421 626589 565187 507728
0101101001001000: 531421 626589 565187 473392
0100101101000100: 531421 626589 565187 611840
0101101001011010: 531421 626589 565187 609888
0101101001011010: 531421 626589 565187 609888
0101101001011010: 531421 626589 565187 609888
0100101101010110: 531421 626589 565187 627586
0101101001011010: 531421 626589 565187 609888
0101101001001000: 531421 626589 627586 604916
0101101001001000: 531421 626589 627586 507728
0101101001001000: 531421 626589 627586 473392
0101101001001000: 531421 626589 627586 609888
0100101101010110: 531421 626589 627586 611840
0100101101010110: 531421 626589 627586 565187
0111101011001000: 473392 604916 531421 521280
0111101011001000: 473392 531421 604916 521280
0110100110000100: 473392 604916 521280 507728
0110100010010010: 473392 604916 521280 474904
0110100010010010: 473392 604916 521280 621621
0110100110000100: 473392 604916 521280 507728
0110100110000100: 473392 604916 521280 507728
0111100110001100: 473392 604916 521280 531421
0111101011001000: 473392 604916 531421 521280
0110101011010010: 473392 604916 531421 609888
0110101011010010: 473392 604916 531421 626589
0110101011010010: 473392 604916 531421 609888
0110101011010010: 473392 604916 531421 626589
0111101011001000: 473392 604916 531421 521280
0111101011001000: 473392 604916 531421 521280
0111101011001000: 473392 604916 531421 521280
0111101011001000: 473392 604916 531421 521280
0110101111010110: 473392 604916 531421 507728
0110101111010110: 473392 604916 531421 507728
0110101111010110: 473392 604916 531421 507728
0111101011001000: 473392 604916 531421 521280
0110100110000100: 473392 604916 521280 507728
0110100110000100: 473392 604916 521280 507728
0111100110001100: 473392 604916 521280 531421
0111100110001100: 473392 604916 521280 531421
0111100110001100: 473392 604916 521280 531421
0110100110000100: 473392 604916 521280 507728
0111100110001100: 473392 604916 521280 531421
0111101011001000: 473392 604916 531421 521280
0110100110000100: 473392 521280 604916 474904
0110100110000100: 473392 521280 604916 621621
0110100010010010: 473392 521280 604916 507728
0111100010011010: 473392 521280 604916 531421
0110100110000100: 473392 521280 531421 474904
0110100110000100: 473392 521280 531421 621621
0110100010010010: 473392 521280 531421 507728
0110100010010010: 473392 521280 531421 609888
0110100010010010: 473392 521280 531421 626589
0111100010011010: 473392 521280 531421 604916
0110100110000100: 473392 521280 604916 474904
0110100110000100: 473392 521280 604916 621621
0110100110000100: 473392 521280 604916 474904
0110100110000100: 473392 521280 604916 621621
0110100110000100: 473392 521280 531421 474904
0110100110000100: 473392 521280 531421 621621
0110100110000100: 473392 521280 531421 474904
0110100110000100: 473392 521280 531421 621621
0111100010011010: 473392 521280 604916 531421
0111100010011010: 473392 521280 604916 531421
0111100010011010: 473392 521280 531421 604916
0111100010011010: 473392 521280 531421 604916
0111100010011010: 473392 521280 531421 604916
0110100110000100: 473392 521280 604916 474904
0110100110000100: 473392 521280 604916 621621
0110100110000100: 473392 521280 604916 474904
0110100110000100: 473392 521280 604916 621621
0110100110000100: 473392 521280 604916 474904
0110100110000100: 473392 521280 604916 621621
0111100010011010: 473392 521280 604916 531421
0110100110000100: 473392 521280 531421 474904
0110100110000100: 473392 521280 531421 621621
0110100110000100: 473392 521280 531421 474904
0110100110000100: 473392 521280 531421 621621
0110100110000100: 473392 521280 531421 474904
0110100110000100: 473392 521280 531421 621621
0111100010011010: 473392 521280 531421 604916
0110100010010010: 473392 531421 521280 474904
0110100010010010: 473392 531421 521280 621621
0110100110000100: 473392 531421 521280 507728
0110100110000100: 473392 531421 521280 609888
0110100110000100: 473392 531421 521280 626589
0111100110001100: 473392 531421 521280 604916
0110100010010010: 473392 531421 521280 474904
0110100010010010: 473392 531421 521280 621621
0111101011001000: 473392 531421 604916 521280
0111101011001000: 473392 531421 604916 521280
0111101011001000: 473392 531421 604916 521280
0111101011001000: 473392 531421 604916 521280
0111101011001000: 473392 531421 604916 521280
0110101111000100: 473392 531421 604916 609888
0110101111000100: 473392 531421 604916 626589
0110101111000100: 473392 531421 604916 609888
0110101111000100: 473392 531421 604916 626589
0111101011001000: 473392 531421 604916 521280
0110101111010110: 473392 531421 604916 507728
0110101111010110: 473392 531421 604916 507728
0110101111010110: 473392 531421 604916 507728
0111101011001000: 473392 531421 604916 521280
0110100110000100: 473392 531421 521280 507728
0110100110000100: 473392 531421 521280 609888
0110100110000100: 473392 531421 521280 626589
0110100110000100: 473392 531421 521280 507728
0110100110000100: 473392 531421 521280 609888
0110100110000100: 473392 531421 521280 626589
0111100110001100: 473392 531421 521280 604916
0111100110001100: 473392 531421 521280 604916
0111100110001100: 473392 531421 521280 604916
0110100010010010: 473392 531421 521280 474904
0110100010010010: 473392 531421 521280 621621
0111100110001100: 473392 531421 521280 604916
0111101011001000: 473392 531421 604916 521280
0111101011001000: 473392 531421 604916 521280
0111101011001000: 473392 531421 604916 521280
0111101011001000: 473392 531421 604916 521280
0110100010010010: 536231 518907 611840 626589
0110100010010010: 536231 518907 611840 627586
0110100110000100: 536231 611840 518907 626589
0110100110000100: 536231 611840 518907 627586
0110100110000100: 536231 611840 518907 626589
0110100110000100: 536231 611840 518907 627586
0110100110000100: 536231 611840 518907 626589
0110100110000100: 536231 611840 518907 627586
0110100110000100: 621621 507728 521280 604916
0110100110000100: 621621 507728 521280 531421
0110100010010010: 621621 507728 521280 474904
0110100010010010: 621621 507728 521280 473392
0110100110000100: 621621 507728 521280 604916
0110100110000100: 621621 507728 521280 531421
0110100110000100: 621621 507728 521280 604916
0110100110000100: 621621 507728 521280 531421
0110100110000100: 621621 507728 521280 604916
0110100110000100: 621621 507728 521280 531421
0110100110000100: 621621 507728 521280 604916
0110100110000100: 621621 507728 521280 531421
0110100110000100: 621621 507728 521280 604916
0110100110000100: 621621 507728 521280 531421
0110100110000100: 621621 521280 507728 474904
0110100110000100: 621621 521280 507728 473392
0110100010010010: 621621 521280 507728 604916
0110100010010010: 621621 521280 507728 531421
0110100110000100: 621621 521280 507728 474904
0110100110000100: 621621 521280 507728 473392
0110100110000100: 621621 521280 507728 474904
0110100110000100: 621621 521280 507728 473392
0110100110000100: 621621 521280 507728 474904
0110100110000100: 621621 521280 507728 473392
0110100110000100: 621621 521280 507728 474904
0110100110000100: 621621 521280 507728 473392
0110100110000100: 621621 521280 507728 474904
0110100110000100: 621621 521280 507728 473392
0101101001001000: 521280 621621 507728 474904
0101101001001000: 521280 621621 507728 473392
0111100010001000: 521280 473392 621621 474904
0110100010010010: 521280 474904 621621 507728
0110100010010010: 521280 474904 621621 507728
0111100010001000: 521280 474904 473392 621621
0110100010010010: 521280 474904 473392 604916
0110100010010010: 521280 474904 473392 531421
0111100010001000: 521280 621621 473392 474904
0110100010010010: 521280 621621 473392 604916
0110100010010010: 521280 621621 473392 531421
0111100010001000: 521280 621621 474904 473392
0110100110000100: 521280 621621 474904 507728
0110100110000100: 521280 621621 474904 507728
0110100110000100: 521280 621621 473392 507728
0110100110000100: 521280 621621 473392 507728
0101101001001000: 521280 621621 507728 474904
0101101001001000: 521280 621621 507728 473392
0100101001010010: 521280 621621 507728 604916
0100101001010010: 521280 621621 507728 531421
0100101001010010: 521280 621621 507728 604916
0100101001010010: 521280 621621 507728 531421
0101101001001000: 521280 621621 507728 474904
0101101001001000: 521280 621621 507728 473392
0101101001001000: 521280 621621 507728 474904
0111100010001000: 521280 473392 621621 474904
0110100010010010: 521280 473392 621621 507728
0110100010010010: 521280 473392 621621 507728
0111100010001000: 521280 473392 474904 621621
0110100110000100: 521280 473392 474904 604916
0110100110000100: 521280 473392 474904 531421
0111100010001000: 521280 473392 621621 474904
0111100010001000: 521280 473392 621621 474904
0110100110000100: 521280 473392 621621 604916
0110100110000100: 521280 473392 621621 531421
0110100010010010: 521280 473392 621621 507728
0111100010001000: 521280 473392 474904 621621
0111100010001000: 521280 473392 474904 621621
0111100010001000: 521280 473392 621621 474904
0111100010001000: 521280 473392 621621 474904
0110100010010010: 521280 473392 621621 507728
0110100110000100: 521280 473392 474904 604916
0110100110000100: 521280 473392 474904 531421
0110100110000100: 521280 473392 474904 604916
0110100110000100: 521280 473392 474904 531421
0111100010001000: 521280 473392 474904 621621
0110100110000100: 521280 473392 621621 604916
0110100110000100: 521280 473392 621621 531421
0110100110000100: 521280 473392 621621 604916
0110100110000100: 521280 473392 621621 531421
0111100010001000: 521280 473392 621621 474904
0111100010001000: 521280 473392 621621 474904
0110100010010010: 521280 473392 621621 507728
0110100010010010: 521280 473392 621621 507728
0111101011001000: 507728 604916 531421 621621
0101101001001000: 507728 621621 521280 604916
0101101001001000: 507728 621621 521280 531421
0111101011001000: 507728 531421 604916 621621
0110100110000100: 507728 604916 621621 473392
0110100010010010: 507728 604916 621621 521280
0110100010010010: 507728 604916 621621 521280
0110100110000100: 507728 604916 621621 473392
0110100110000100: 507728 604916 621621 473392
0111100110001100: 507728 604916 621621 531421
0110100010010010: 507728 604916 621621 521280
0111101011001000: 507728 604916 531421 621621
0110101011010010: 507728 604916 531421 609888
0110101011010010: 507728 604916 531421 626589
0110101011010010: 507728 604916 531421 609888
0110101011010010: 507728 604916 531421 626589
0111101011001000: 507728 604916 531421 621621
0110100010010010: 507728 604916 621621 521280
0111101011001000: 507728 604916 531421 621621
0111101011001000: 507728 604916 531421 621621
0111101011001000: 507728 604916 531421 621621
0110101111010110: 507728 604916 531421 473392
0110101111010110: 507728 604916 531421 473392
0111101011001000: 507728 604916 531421 621621
0110100110000100: 507728 604916 621621 473392
0110100110000100: 507728 604916 621621 473392
0111100110001100: 507728 604916 621621 531421
0111100110001100: 507728 604916 621621 531421
0111100110001100: 507728 604916 621621 531421
0110100010010010: 507728 604916 621621 521280
0110100010010010: 507728 604916 621621 521280
0111101011001000: 507728 604916 531421 621621
0110100010010010: 507728 621621 604916 473392
0111100010011010: 507728 621621 604916 531421
0110100010010010: 507728 621621 531421 473392
0110100010010010: 507728 621621 531421 609888
0110100010010010: 507728 621621 531421 626589
0111100010011010: 507728 621621 531421 604916
0110100110000100: 507728 621621 604916 521280
0110100110000100: 507728 621621 604916 521280
0110100110000100: 507728 621621 531421 521280
0110100110000100: 507728 621621 531421 521280
0101101001001000: 507728 621621 521280 604916
0101101001001000: 507728 621621 521280 531421
0100101001010010: 507728 621621 521280 474904
0100101001010010: 507728 621621 521280 473392
0100101001010010: 507728 621621 521280 474904
0100101001010010: 507728 621621 521280 473392
0101101001001000: 507728 621621 521280 604916
0101101001001000: 507728 621621 521280 531421
0101101001001000: 507728 621621 521280 604916
0110100010010010: 507728 531421 621621 521280
0110100010010010: 507728 531421 621621 521280
0110100110000100: 507728 531421 621621 473392
0110100110000100: 507728 531421 621621 609888
0110100110000100: 507728 531421 621621 626589
0111100110001100: 507728 531421 621621 604916
0110100010010010: 507728 531421 621621 521280
0111101011001000: 507728 531421 604916 621621
0111101011001000: 507728 531421 604916 621621
0111101011001000: 507728 531421 604916 621621
0110100010010010: 507728 531421 621621 521280
0111101011001000: 507728 531421 604916 621621
0111101011001000: 507728 531421 604916 621621
0110101111000100: 507728 531421 604916 609888
0110101111000100: 507728 531421 604916 626589
0110101111000100: 507728 531421 604916 609888
0110101111000100: 507728 531421 604916 626589
0111101011001000: 507728 531421 604916 621621
0110101111010110: 507728 531421 604916 473392
0110101111010110: 507728 531421 604916 473392
0111101011001000: 507728 531421 604916 621621
0110100110000100: 507728 531421 621621 473392
0110100110000100: 507728 531421 621621 609888
0110100110000100: 507728 531421 621621 626589
0110100110000100: 507728 531421 621621 473392
0110100110000100: 507728 531421 621621 609888
0110100110000100: 507728 531421 621621 626589
0111100110001100: 507728 531421 621621 604916
0111100110001100: 507728 531421 621621 604916
0111100110001100: 507728 531421 621621 604916
0110100010010010: 507728 531421 621621 521280
0110100010010010: 507728 531421 621621 521280
0111101011001000: 507728 531421 604916 621621
0111101011001000: 507728 531421 604916 621621
0111101011001000: 507728 531421 604916 621621
0111101011001000: 507728 531421 604916 621621
0111101111001100: 604916 531421 473392 507728
0110100010010010: 604916 507728 473392 521280
0110100110000100: 604916 507728 473392 621621
0111101011011010: 604916 507728 531421 473392
0111101011011010: 604916 507728 531421 473392
0111101011011010: 604916 507728 531421 473392
0110101111000100: 604916 507728 531421 621621
0110101111000100: 604916 507728 531421 621621
0110101111000100: 604916 507728 531421 621621
0111101011011010: 604916 507728 531421 473392
0110100110000100: 604916 507728 473392 621621
0110100110000100: 604916 507728 473392 621621
0110100110000100: 604916 507728 473392 621621
0111100110011110: 604916 507728 473392 531421
0111101011011010: 604916 507728 531421 473392
0110100010010010: 604916 473392 507728 621621
0110100110000100: 604916 473392 507728 521280
0111101011011010: 604916 473392 531421 507728
0111101011011010: 604916 473392 531421 507728
0111101011011010: 604916 473392 531421 507728
0110101111000100: 604916 473392 531421 521280
0110101111000100: 604916 473392 531421 521280
0110101111000100: 604916 473392 531421 521280
0111101011011010: 604916 473392 531421 507728
0110100110000100: 604916 473392 507728 521280
0110100110000100: 604916 473392 507728 521280
0110100110000100: 604916 473392 507728 521280
0111100110011110: 604916 473392 507728 531421
0111101011011010: 604916 473392 531421 507728
0110101111000100: 604916 531421 507728 609888
0110101111000100: 604916 531421 507728 626589
0110101111000100: 604916 531421 507728 609888
0110101111000100: 604916 531421 507728 626589
0111101111001100: 604916 531421 507728 473392
0110101011010010: 604916 531421 507728 621621
0110101111000100: 604916 531421 473392 609888
0110101111000100: 604916 531421 473392 626589
0110101111000100: 604916 531421 473392 609888
0110101111000100: 604916 531421 473392 626589
0111101111001100: 604916 531421 473392 507728
0111101111001100: 604916 531421 473392 507728
0110101011010010: 604916 531421 473392 521280
0111101111001100: 604916 531421 507728 473392
0111101111001100: 604916 531421 473392 507728
