Vertex,0111110110110001100010000,0111010110110011100100110,0110010011100110110001100,0111010100110001000100010,0111010101110001000101010,0111010110110011100000100,0110010010100010100000100,0111110000100001000010000,0111110110110101110010000,0111110111110101110011000,0111110110110011100110110,0110010011100100110001000,0111110111110001100011000,0111110110110011100010100,0111110100110001000010000,0110010010100010100100110,0111010101110001000001000,0110010011100000100001000,0111110100110001000110010
511282,39.0,2.0,0.0,85.0,13.0,44.0,193.0,19.0,12.0,10.0,1.0,23.0,5.0,15.0,45.0,8.0,90.0,232.0,2.0
595528,8.0,0.0,0.0,18.0,0.0,5.0,92.0,4.0,2.0,0.0,0.0,3.0,0.0,0.0,6.0,2.0,31.0,84.0,0.0
643474,23.0,0.0,0.0,42.0,5.0,26.0,104.0,12.0,0.0,2.0,1.0,12.0,4.0,8.0,28.0,5.0,43.0,149.0,3.0
652616,0.0,0.0,0.0,19.0,0.0,3.0,67.0,0.0,0.0,0.0,0.0,0.0,0.0,0.0,1.0,2.0,8.0,65.0,0.0
571242,0.0,0.0,0.0,7.0,0.0,0.0,32.0,0.0,0.0,0.0,0.0,0.0,0.0,0.0,0.0,0.0,0.0,16.0,0.0
569986,40.0,1.0,1.0,57.0,14.0,31.0,182.0,21.0,7.0,7.0,1.0,34.0,3.0,6.0,48.0,5.0,92.0,216.0,5.0
462691,74.0,4.0,1.0,108.0,21.0,72.0,194.0,21.0,12.0,10.0,2.0,55.0,7.0,20.0,61.0,3.0,125.0,239.0,9.0
465394,16.0,4.0,1.0,45.0,16.0,18.0,148.0,9.0,5.0,5.0,0.0,51.0,2.0,4.0,31.0,2.0,48.0,147.0,4.0
654398,22.0,1.0,0.0,50.0,10.0,19.0,87.0,8.0,5.0,5.0,1.0,11.0,2.0,6.0,28.0,2.0,51.0,117.0,7.0
573171,59.0,3.0,1.0,104.0,22.0,52.0,256.0,33.0,7.0,7.0,1.0,52.0,5.0,16.0,69.0,13.0,147.0,354.0,11.0
617196,2.0,0.0,0.0,35.0,1.0,12.0,116.0,2.0,0.0,0.0,0.0,5.0,0.0,2.0,5.0,4.0,13.0,89.0,0.0
492551,23.0,1.0,1.0,59.0,15.0,19.0,220.0,9.0,1.0,1.0,1.0,36.0,0.0,8.0,24.0,8.0,46.0,180.0,6.0
507458,2.0,0.0,0.0,9.0,0.0,6.0,80.0,2.0,1.0,0.0,0.0,4.0,0.0,0.0,5.0,1.0,25.0,73.0,0.0
484579,4.0,2.0,1.0,12.0,11.0,9.0,126.0,5.0,2.0,0.0,0.0,35.0,0.0,0.0,13.0,5.0,39.0,117.0,0.0
648310,24.0,1.0,1.0,38.0,5.0,25.0,137.0,17.0,0.0,1.0,1.0,36.0,1.0,5.0,21.0,1.0,30.0,156.0,0.0
618202,39.0,2.0,0.0,51.0,10.0,22.0,135.0,19.0,1.0,1.0,1.0,32.0,3.0,10.0,37.0,0.0,53.0,176.0,4.0
512874,30.0,0.0,0.0,35.0,2.0,11.0,125.0,29.0,1.0,1.0,0.0,10.0,2.0,6.0,38.0,5.0,61.0,220.0,3.0
521072,12.0,3.0,1.0,30.0,11.0,10.0,153.0,18.0,2.0,0.0,0.0,50.0,1.0,4.0,27.0,2.0,43.0,154.0,1.0
511410,13.0,0.0,1.0,29.0,9.0,6.0,200.0,26.0,1.0,0.0,0.0,32.0,0.0,0.0,28.0,6.0,35.0,236.0,0.0
646548,11.0,0.0,0.0,21.0,3.0,4.0,110.0,21.0,1.0,0.0,0.0,11.0,0.0,0.0,23.0,4.0,34.0,145.0,0.0
515215,0.0,0.0,0.0,15.0,0.0,0.0,97.0,1.0,0.0,0.0,0.0,3.0,0.0,0.0,0.0,1.0,0.0,73.0,0.0
528762,1.0,1.0,1.0,22.0,4.0,4.0,182.0,2.0,0.0,0.0,0.0,33.0,0.0,0.0,1.0,3.0,13.0,104.0,0.0
600416,3.0,0.0,0.0,14.0,3.0,4.0,71.0,1.0,0.0,0.0,0.0,8.0,0.0,0.0,0.0,0.0,15.0,65.0,0.0
631951,0.0,0.0,0.0,15.0,0.0,3.0,82.0,1.0,0.0,0.0,0.0,4.0,0.0,0.0,1.0,3.0,8.0,68.0,0.0
550721,0.0,0.0,0.0,0.0,0.0,0.0,16.0,0.0,0.0,0.0,0.0,0.0,0.0,0.0,0.0,0.0,0.0,2.0,0.0
463154,0.0,0.0,0.0,0.0,0.0,0.0,30.0,0.0,0.0,0.0,0.0,0.0,0.0,0.0,0.0,0.0,0.0,8.0,0.0
graph,89.0,5.0,2.0,184.0,35.0,81.0,647.0,56.0,12.0,10.0,2.0,108.0,7.0,22.0,108.0,17.0,210.0,697.0,11.0
