0101101001001000: 646853 615281 541289 632774
0111101011001000: 646853 632774 561428 615281
0110100110010110: 646853 561428 615281 541289
0111101011001000: 646853 561428 632774 615281
0110100110000100: 646853 615281 632774 541289
0110100010010010: 646853 615281 632774 583650
0111100010011010: 646853 615281 632774 561428
0110100010010010: 646853 615281 561428 656336
0110100010010010: 646853 615281 561428 561180
0110100010010010: 646853 615281 561428 467864
0110100010010010: 646853 615281 561428 463572
0110100010010010: 646853 615281 561428 484634
0111100010011010: 646853 615281 561428 632774
0110100110010110: 646853 615281 561428 541289
0110100110010110: 646853 615281 561428 541289
0110100110000100: 646853 615281 632774 541289
0110100110000100: 646853 615281 632774 541289
0110100110000100: 646853 615281 632774 541289
0110100110010110: 646853 615281 561428 541289
0101101001001000: 646853 615281 541289 632774
0100101001010010: 646853 615281 541289 630278
0100101001010010: 646853 615281 541289 506673
0100101001010010: 646853 615281 541289 463572
0100101001010010: 646853 615281 541289 630278
0100101001010010: 646853 615281 541289 506673
0100101001010010: 646853 615281 541289 463572
0101101001011010: 646853 615281 541289 561428
0101101001011010: 646853 615281 541289 561428
0101101001011010: 646853 615281 541289 561428
0101101001001000: 646853 615281 541289 632774
0110100110000100: 646853 632774 615281 583650
0110100010010010: 646853 632774 615281 541289
0110100010010010: 646853 632774 615281 541289
0110100110000100: 646853 632774 615281 583650
0110100110000100: 646853 632774 615281 583650
0111100110001100: 646853 632774 615281 561428
0110100010010010: 646853 632774 615281 541289
0111101011001000: 646853 632774 561428 615281
0110101011010010: 646853 632774 561428 656336
0110101011010010: 646853 632774 561428 561180
0110101011010010: 646853 632774 561428 467864
0110101011010010: 646853 632774 561428 463572
0110101011010010: 646853 632774 561428 541289
0110101011010010: 646853 632774 561428 484634
0110101011010010: 646853 632774 561428 656336
0110101011010010: 646853 632774 561428 561180
0110101011010010: 646853 632774 561428 467864
0110101011010010: 646853 632774 561428 463572
0110101011010010: 646853 632774 561428 541289
0110101011010010: 646853 632774 561428 484634
0111101011001000: 646853 632774 561428 615281
0111101011001000: 646853 632774 561428 615281
0110100010010010: 646853 632774 615281 541289
0111101011001000: 646853 632774 561428 615281
0111101011001000: 646853 632774 561428 615281
0110101111000100: 646853 632774 561428 583650
0110101111000100: 646853 632774 561428 583650
0111101011001000: 646853 632774 561428 615281
0110101111000100: 646853 632774 561428 583650
0111101011001000: 646853 632774 561428 615281
0110100110000100: 646853 632774 615281 583650
0110100110000100: 646853 632774 615281 583650
0111100110001100: 646853 632774 615281 561428
0111100110001100: 646853 632774 615281 561428
0111100110001100: 646853 632774 615281 561428
0110100010010010: 646853 632774 615281 541289
0110100010010010: 646853 632774 615281 541289
0111101011001000: 646853 632774 561428 615281
0110100110000100: 646853 561428 615281 656336
0110100110000100: 646853 561428 615281 561180
0110100110000100: 646853 561428 615281 467864
0110100110000100: 646853 561428 615281 463572
0110100110000100: 646853 561428 615281 484634
0110100110010110: 646853 561428 615281 541289
0110100110010110: 646853 561428 615281 541289
0110100110000100: 646853 561428 615281 656336
0110100110000100: 646853 561428 615281 561180
0110100110000100: 646853 561428 615281 467864
0110100110000100: 646853 561428 615281 463572
0110100110000100: 646853 561428 615281 484634
0110100110000100: 646853 561428 615281 656336
0110100110000100: 646853 561428 615281 561180
0110100110000100: 646853 561428 615281 467864
0110100110000100: 646853 561428 615281 463572
0110100110000100: 646853 561428 615281 484634
0111100110001100: 646853 561428 615281 632774
0110100110010110: 646853 561428 615281 541289
0110100110010110: 646853 561428 615281 541289
0110100110010110: 646853 561428 615281 541289
0111101011001000: 646853 561428 632774 615281
0110101011010010: 646853 561428 632774 583650
0110101011010010: 646853 561428 632774 583650
0111101011001000: 646853 561428 632774 615281
0111101011001000: 646853 561428 632774 615281
0111101011001000: 646853 561428 632774 615281
0111101011001000: 646853 561428 632774 615281
0110101111000100: 646853 561428 632774 656336
0110101111000100: 646853 561428 632774 561180
0110101111000100: 646853 561428 632774 467864
0110101111000100: 646853 561428 632774 463572
0110101111000100: 646853 561428 632774 541289
0110101111000100: 646853 561428 632774 484634
0110101111000100: 646853 561428 632774 656336
0110101111000100: 646853 561428 632774 561180
0110101111000100: 646853 561428 632774 467864
0110101111000100: 646853 561428 632774 463572
0110101111000100: 646853 561428 632774 541289
0110101111000100: 646853 561428 632774 484634
0111101011001000: 646853 561428 632774 615281
0110101011010010: 646853 561428 632774 583650
0111101011001000: 646853 561428 632774 615281
0110100110000100: 646853 561428 615281 656336
0110100110000100: 646853 561428 615281 561180
0110100110000100: 646853 561428 615281 467864
0110100110000100: 646853 561428 615281 463572
0110100110000100: 646853 561428 615281 484634
0110100110000100: 646853 561428 615281 656336
0110100110000100: 646853 561428 615281 561180
0110100110000100: 646853 561428 615281 467864
0110100110000100: 646853 561428 615281 463572
0110100110000100: 646853 561428 615281 484634
0111100110001100: 646853 561428 615281 632774
0111100110001100: 646853 561428 615281 632774
0111100110001100: 646853 561428 615281 632774
0110100110010110: 646853 561428 615281 541289
0110100110010110: 646853 561428 615281 541289
0111101011001000: 646853 561428 632774 615281
0111101011001000: 646853 561428 632774 615281
0111101011001000: 646853 561428 632774 615281
0111101011001000: 646853 561428 632774 615281
0101101001001000: 561428 656336 468551 467864
0101101001001000: 561428 656336 468551 463572
0101101001001000: 561428 656336 468551 541289
0101101001001000: 561428 656336 468551 632774
0101101001001000: 561428 656336 468551 484634
0101101001001000: 561428 656336 468551 646853
0110100110010110: 561428 561180 656336 468551
0111101011001000: 561428 561180 484634 656336
0111101011001000: 561428 561180 484634 467864
0111101011001000: 561428 561180 484634 463572
0111101011001000: 561428 561180 484634 541289
0111101011001000: 561428 561180 484634 632774
0111101011001000: 561428 561180 484634 646853
0101101001001000: 561428 561180 468551 467864
0101101001001000: 561428 561180 468551 463572
0101101001001000: 561428 561180 468551 541289
0101101001001000: 561428 561180 468551 632774
0101101001001000: 561428 561180 468551 646853
0101101101001100: 561428 561180 468551 484634
0111100010001000: 561428 467864 561180 656336
0111100010001000: 561428 463572 561180 656336
0111100010001000: 561428 463572 467864 656336
0111100010001000: 561428 463572 467864 561180
0111101011001000: 561428 463572 541289 656336
0111101011001000: 561428 463572 541289 561180
0111101011001000: 561428 463572 541289 467864
0111101011001000: 561428 463572 541289 632774
0111101011001000: 561428 463572 541289 484634
0111101011001000: 561428 463572 541289 646853
0110101111010110: 561428 463572 541289 630278
0101101001001000: 561428 463572 630278 656336
0101101001001000: 561428 463572 630278 561180
0101101001001000: 561428 463572 630278 467864
0101101001001000: 561428 463572 630278 632774
0101101001001000: 561428 463572 630278 484634
0101101001001000: 561428 463572 630278 646853
0101101101011110: 561428 463572 630278 541289
0111100010001000: 561428 541289 561180 656336
0111100010001000: 561428 541289 467864 656336
0111100010001000: 561428 541289 467864 561180
0111101011001000: 561428 541289 463572 656336
0111101011001000: 561428 541289 463572 561180
0111101011001000: 561428 541289 463572 467864
0111101011001000: 561428 541289 463572 632774
0111101011001000: 561428 541289 463572 484634
0111101011001000: 561428 541289 463572 646853
0110101111010110: 561428 541289 463572 630278
0101101001001000: 561428 541289 630278 656336
0101101001001000: 561428 541289 630278 561180
0101101001001000: 561428 541289 630278 467864
0101101001001000: 561428 541289 630278 632774
0101101001001000: 561428 541289 630278 484634
0101101001001000: 561428 541289 630278 646853
0101101101011110: 561428 541289 630278 463572
0101101001001000: 561428 541289 506673 656336
0101101001001000: 561428 541289 506673 561180
0101101001001000: 561428 541289 506673 467864
0101101001001000: 561428 541289 506673 632774
0101101001001000: 561428 541289 506673 484634
0101101001001000: 561428 541289 506673 646853
0101101101001100: 561428 541289 506673 463572
0101101001001000: 561428 541289 615281 656336
0101101001001000: 561428 541289 615281 561180
0101101001001000: 561428 541289 615281 467864
0101101001001000: 561428 541289 615281 632774
0101101001001000: 561428 541289 615281 484634
0101101101001100: 561428 541289 615281 463572
0100101101000100: 561428 541289 615281 630278
0100101101000100: 561428 541289 615281 506673
0111100010001000: 561428 632774 561180 656336
0111100010001000: 561428 632774 467864 656336
0111100010001000: 561428 632774 467864 561180
0111100010001000: 561428 632774 463572 656336
0111100010001000: 561428 632774 463572 561180
0111100010001000: 561428 632774 463572 467864
0111100010001000: 561428 632774 541289 656336
0111100010001000: 561428 632774 541289 561180
0111100010001000: 561428 632774 541289 467864
0111101011001000: 561428 632774 646853 656336
0111101011001000: 561428 632774 646853 561180
0111101011001000: 561428 632774 646853 467864
0111101011001000: 561428 632774 646853 463572
0111101011001000: 561428 632774 646853 541289
0111101011001000: 561428 632774 646853 484634
0101101001001000: 561428 632774 583650 656336
0101101001001000: 561428 632774 583650 561180
0101101001001000: 561428 632774 583650 467864
0101101001001000: 561428 632774 583650 463572
0101101001001000: 561428 632774 583650 541289
0101101101001100: 561428 632774 583650 646853
0111100010001000: 561428 484634 467864 656336
0111100010001000: 561428 484634 463572 656336
0111100010001000: 561428 484634 463572 467864
0111100010001000: 561428 484634 541289 656336
0111100010001000: 561428 484634 541289 467864
0111100010001000: 561428 484634 632774 656336
0111100010001000: 561428 484634 632774 467864
0111100010001000: 561428 484634 632774 463572
0111100010001000: 561428 484634 632774 541289
0110100110010110: 561428 484634 632774 583650
0111101011001000: 561428 484634 561180 656336
0111101011001000: 561428 484634 561180 467864
0111101011001000: 561428 484634 561180 463572
0111101011001000: 561428 484634 561180 541289
0111101011001000: 561428 484634 561180 632774
0111101011001000: 561428 484634 561180 646853
0101101001001000: 561428 484634 583650 656336
0101101001001000: 561428 484634 583650 467864
0101101001001000: 561428 484634 583650 463572
0101101001001000: 561428 484634 583650 541289
0101101001001000: 561428 484634 583650 646853
0101101101001100: 561428 484634 583650 561180
0111100010001000: 561428 646853 561180 656336
0111100010001000: 561428 646853 467864 656336
0111100010001000: 561428 646853 467864 561180
0111100010001000: 561428 646853 463572 656336
0111100010001000: 561428 646853 463572 561180
0111100010001000: 561428 646853 463572 467864
0111100010001000: 561428 646853 541289 656336
0111100010001000: 561428 646853 541289 561180
0111100010001000: 561428 646853 541289 467864
0110100110010110: 561428 646853 541289 615281
0111100010001000: 561428 646853 484634 656336
0111100010001000: 561428 646853 484634 467864
0111100010001000: 561428 646853 484634 463572
0111100010001000: 561428 646853 484634 541289
0111101011001000: 561428 646853 632774 656336
0111101011001000: 561428 646853 632774 561180
0111101011001000: 561428 646853 632774 467864
0111101011001000: 561428 646853 632774 463572
0111101011001000: 561428 646853 632774 541289
0111101011001000: 561428 646853 632774 484634
0101101001001000: 561428 646853 615281 656336
0101101001001000: 561428 646853 615281 561180
0101101001001000: 561428 646853 615281 467864
0101101001001000: 561428 646853 615281 463572
0101101001001000: 561428 646853 615281 484634
0101101101001100: 561428 646853 615281 632774
0111100010011010: 561428 656336 561180 484634
0110100110010110: 561428 656336 561180 468551
0110100110010110: 561428 656336 561180 468551
0111100010001000: 561428 656336 467864 561180
0110100110000100: 561428 656336 467864 468551
0111100010001000: 561428 656336 463572 561180
0111100010001000: 561428 656336 463572 467864
0110100110000100: 561428 656336 463572 468551
0110100010010010: 561428 656336 463572 630278
0111100010011010: 561428 656336 463572 541289
0110100010010010: 561428 656336 463572 630278
0111100010001000: 561428 656336 541289 561180
0111100010001000: 561428 656336 541289 467864
0110100110000100: 561428 656336 541289 468551
0110100010010010: 561428 656336 541289 630278
0110100010010010: 561428 656336 541289 506673
0110100010010010: 561428 656336 541289 615281
0111100010011010: 561428 656336 541289 463572
0110100010010010: 561428 656336 541289 630278
0110100010010010: 561428 656336 541289 506673
0110100010010010: 561428 656336 541289 615281
0111100010001000: 561428 656336 632774 561180
0111100010001000: 561428 656336 632774 467864
0111100010001000: 561428 656336 632774 463572
0111100010001000: 561428 656336 632774 541289
0110100110000100: 561428 656336 632774 468551
0110100010010010: 561428 656336 632774 583650
0111100010011010: 561428 656336 632774 646853
0110100010010010: 561428 656336 632774 583650
0111100010001000: 561428 656336 484634 467864
0111100010001000: 561428 656336 484634 463572
0111100010001000: 561428 656336 484634 541289
0111100010001000: 561428 656336 484634 632774
0110100110000100: 561428 656336 484634 468551
0110100010010010: 561428 656336 484634 583650
0111100010011010: 561428 656336 484634 561180
0110100010010010: 561428 656336 484634 583650
0111100010001000: 561428 656336 646853 561180
0111100010001000: 561428 656336 646853 467864
0111100010001000: 561428 656336 646853 463572
0111100010001000: 561428 656336 646853 541289
0111100010001000: 561428 656336 646853 484634
0110100110000100: 561428 656336 646853 468551
0110100010010010: 561428 656336 646853 615281
0111100010011010: 561428 656336 646853 632774
0110100010010010: 561428 656336 646853 615281
0110100110010110: 561428 656336 561180 468551
0110100110000100: 561428 656336 467864 468551
0110100110000100: 561428 656336 467864 468551
0110100110000100: 561428 656336 467864 468551
0110100110000100: 561428 656336 463572 468551
0110100110000100: 561428 656336 463572 468551
0110100110000100: 561428 656336 463572 468551
0110100110000100: 561428 656336 541289 468551
0110100110000100: 561428 656336 541289 468551
0110100110000100: 561428 656336 541289 468551
0110100110000100: 561428 656336 632774 468551
0110100110000100: 561428 656336 632774 468551
0110100110000100: 561428 656336 632774 468551
0110100110000100: 561428 656336 484634 468551
0110100110000100: 561428 656336 484634 468551
0110100110000100: 561428 656336 484634 468551
0110100110000100: 561428 656336 646853 468551
0110100110000100: 561428 656336 646853 468551
0110100110000100: 561428 656336 646853 468551
0101101001001000: 561428 656336 468551 467864
0101101001001000: 561428 656336 468551 463572
0101101001001000: 561428 656336 468551 541289
0101101001001000: 561428 656336 468551 632774
0101101001001000: 561428 656336 468551 484634
0101101001001000: 561428 656336 468551 646853
0101101001011010: 561428 656336 468551 561180
0101101001011010: 561428 656336 468551 561180
0101101001011010: 561428 656336 468551 561180
0110100110010110: 561428 561180 656336 468551
0110100110010110: 561428 561180 656336 468551
0111100010001000: 561428 561180 467864 656336
0110100110000100: 561428 561180 467864 468551
0111100010001000: 561428 561180 463572 656336
0111100010001000: 561428 561180 463572 467864
0110100110000100: 561428 561180 463572 468551
0110100010010010: 561428 561180 463572 630278
0111100010011010: 561428 561180 463572 541289
0110100010010010: 561428 561180 463572 630278
0111100010001000: 561428 561180 541289 656336
0111100010001000: 561428 561180 541289 467864
0110100110000100: 561428 561180 541289 468551
0110100010010010: 561428 561180 541289 630278
0110100010010010: 561428 561180 541289 506673
0110100010010010: 561428 561180 541289 615281
0111100010011010: 561428 561180 541289 463572
0110100010010010: 561428 561180 541289 630278
0110100010010010: 561428 561180 541289 506673
0110100010010010: 561428 561180 541289 615281
0111100010001000: 561428 561180 632774 656336
0111100010001000: 561428 561180 632774 467864
0111100010001000: 561428 561180 632774 463572
0111100010001000: 561428 561180 632774 541289
0110100110000100: 561428 561180 632774 468551
0110100010010010: 561428 561180 632774 583650
0111100010011010: 561428 561180 632774 646853
0110100010010010: 561428 561180 632774 583650
0111100010001000: 561428 561180 646853 656336
0111100010001000: 561428 561180 646853 467864
0111100010001000: 561428 561180 646853 463572
0111100010001000: 561428 561180 646853 541289
0110100110000100: 561428 561180 646853 468551
0110100010010010: 561428 561180 646853 615281
0111100010011010: 561428 561180 646853 632774
0110100010010010: 561428 561180 646853 615281
0111100010001000: 561428 561180 656336 467864
0111100010001000: 561428 561180 656336 463572
0111100010001000: 561428 561180 656336 541289
0111100010001000: 561428 561180 656336 632774
0111100010001000: 561428 561180 656336 646853
0111100110001100: 561428 561180 656336 484634
0110100110010110: 561428 561180 656336 468551
0110100110010110: 561428 561180 656336 468551
0110100110010110: 561428 561180 656336 468551
0110100110000100: 561428 561180 467864 468551
0110100110000100: 561428 561180 467864 468551
0111100110001100: 561428 561180 467864 484634
0110100110000100: 561428 561180 467864 468551
0110100110000100: 561428 561180 463572 468551
0110100110000100: 561428 561180 463572 468551
0111100110001100: 561428 561180 463572 484634
0110100110000100: 561428 561180 463572 468551
0110100110000100: 561428 561180 541289 468551
0110100110000100: 561428 561180 541289 468551
0111100110001100: 561428 561180 541289 484634
0110100110000100: 561428 561180 541289 468551
0110100110000100: 561428 561180 632774 468551
0110100110000100: 561428 561180 632774 468551
0111100110001100: 561428 561180 632774 484634
0110100110000100: 561428 561180 632774 468551
0110100110000100: 561428 561180 646853 468551
0110100110000100: 561428 561180 646853 468551
0111100110001100: 561428 561180 646853 484634
0110100110000100: 561428 561180 646853 468551
0111101011001000: 561428 561180 484634 656336
0111101011001000: 561428 561180 484634 467864
0111101011001000: 561428 561180 484634 463572
0111101011001000: 561428 561180 484634 541289
0111101011001000: 561428 561180 484634 632774
0111101011001000: 561428 561180 484634 646853
0110101011010010: 561428 561180 484634 583650
0110101011010010: 561428 561180 484634 583650
0110101011010010: 561428 561180 484634 583650
0110101011010010: 561428 561180 484634 583650
0110101111000100: 561428 561180 484634 468551
0101101001001000: 561428 561180 468551 467864
0101101001001000: 561428 561180 468551 463572
0101101001001000: 561428 561180 468551 541289
0101101001001000: 561428 561180 468551 632774
0101101001001000: 561428 561180 468551 646853
0101101101001100: 561428 561180 468551 484634
0101101001011010: 561428 561180 468551 656336
0101101001011010: 561428 561180 468551 656336
0101101001011010: 561428 561180 468551 656336
0101101001011010: 561428 561180 468551 656336
0101101001011010: 561428 561180 468551 656336
0111101011001000: 561428 561180 484634 656336
0111101011001000: 561428 561180 484634 467864
0111101011001000: 561428 561180 484634 463572
0111101011001000: 561428 561180 484634 541289
0111101011001000: 561428 561180 484634 632774
0111101011001000: 561428 561180 484634 646853
0111101011001000: 561428 561180 484634 656336
0111101011001000: 561428 561180 484634 467864
0111101011001000: 561428 561180 484634 463572
0111101011001000: 561428 561180 484634 541289
0111101011001000: 561428 561180 484634 632774
0111101011001000: 561428 561180 484634 646853
0110101111000100: 561428 561180 484634 468551
0110101111000100: 561428 561180 484634 468551
0110101111000100: 561428 561180 484634 468551
0110101111000100: 561428 561180 484634 468551
0110101111000100: 561428 561180 484634 468551
0110100010010010: 561428 467864 656336 468551
0110100010010010: 561428 467864 656336 468551
0111100010001000: 561428 467864 561180 656336
0110100010010010: 561428 467864 561180 468551
0111100010011010: 561428 467864 561180 484634
0110100010010010: 561428 467864 561180 468551
0111100010001000: 561428 467864 463572 656336
0111100010001000: 561428 467864 463572 561180
0110100010010010: 561428 467864 463572 630278
0111100010011010: 561428 467864 463572 541289
0110100010010010: 561428 467864 463572 630278
0111100010001000: 561428 467864 541289 656336
0111100010001000: 561428 467864 541289 561180
0110100010010010: 561428 467864 541289 630278
0110100010010010: 561428 467864 541289 506673
0110100010010010: 561428 467864 541289 615281
0111100010011010: 561428 467864 541289 463572
0110100010010010: 561428 467864 541289 630278
0110100010010010: 561428 467864 541289 506673
0110100010010010: 561428 467864 541289 615281
0111100010001000: 561428 467864 632774 656336
0111100010001000: 561428 467864 632774 561180
0111100010001000: 561428 467864 632774 463572
0111100010001000: 561428 467864 632774 541289
0110100010010010: 561428 467864 632774 583650
0111100010011010: 561428 467864 632774 646853
0110100010010010: 561428 467864 632774 583650
0111100010001000: 561428 467864 484634 656336
0111100010001000: 561428 467864 484634 463572
0111100010001000: 561428 467864 484634 541289
0111100010001000: 561428 467864 484634 632774
0110100010010010: 561428 467864 484634 583650
0111100010011010: 561428 467864 484634 561180
0110100010010010: 561428 467864 484634 583650
0111100010001000: 561428 467864 646853 656336
0111100010001000: 561428 467864 646853 561180
0111100010001000: 561428 467864 646853 463572
0111100010001000: 561428 467864 646853 541289
0111100010001000: 561428 467864 646853 484634
0110100010010010: 561428 467864 646853 615281
0111100010011010: 561428 467864 646853 632774
0110100010010010: 561428 467864 646853 615281
0111100010001000: 561428 467864 656336 561180
0111100010001000: 561428 467864 656336 463572
0111100010001000: 561428 467864 656336 541289
0111100010001000: 561428 467864 656336 632774
0111100010001000: 561428 467864 656336 484634
0111100010001000: 561428 467864 656336 646853
0111100010001000: 561428 467864 561180 656336
0111100010001000: 561428 467864 561180 463572
0111100010001000: 561428 467864 561180 541289
0111100010001000: 561428 467864 561180 632774
0111100010001000: 561428 467864 561180 646853
0111100010001000: 561428 467864 561180 656336
0110100110000100: 561428 463572 656336 630278
0110100010010010: 561428 463572 656336 468551
0110100010010010: 561428 463572 656336 468551
0111100010001000: 561428 463572 561180 656336
0110100110000100: 561428 463572 561180 630278
0110100010010010: 561428 463572 561180 468551
0111100010011010: 561428 463572 561180 484634
0110100010010010: 561428 463572 561180 468551
0111100010001000: 561428 463572 467864 656336
0111100010001000: 561428 463572 467864 561180
0110100110000100: 561428 463572 467864 630278
0111100010001000: 561428 463572 632774 656336
0111100010001000: 561428 463572 632774 561180
0111100010001000: 561428 463572 632774 467864
0110100110000100: 561428 463572 632774 630278
0110100010010010: 561428 463572 632774 583650
0111100010011010: 561428 463572 632774 646853
0110100010010010: 561428 463572 632774 583650
0111100010001000: 561428 463572 484634 656336
0111100010001000: 561428 463572 484634 467864
0111100010001000: 561428 463572 484634 632774
0110100110000100: 561428 463572 484634 630278
0110100010010010: 561428 463572 484634 583650
0111100010011010: 561428 463572 484634 561180
0110100010010010: 561428 463572 484634 583650
0111100010001000: 561428 463572 646853 656336
0111100010001000: 561428 463572 646853 561180
0111100010001000: 561428 463572 646853 467864
0111100010001000: 561428 463572 646853 484634
0110100110000100: 561428 463572 646853 630278
0110100010010010: 561428 463572 646853 615281
0111100010011010: 561428 463572 646853 632774
0110100010010010: 561428 463572 646853 615281
0111100010001000: 561428 463572 656336 561180
0111100010001000: 561428 463572 656336 467864
0111100010001000: 561428 463572 656336 632774
0111100010001000: 561428 463572 656336 484634
0111100010001000: 561428 463572 656336 646853
0110100110000100: 561428 463572 656336 630278
0110100110000100: 561428 463572 656336 630278
0111100110001100: 561428 463572 656336 541289
0110100110000100: 561428 463572 656336 630278
0110100010010010: 561428 463572 656336 468551
0111100010001000: 561428 463572 561180 656336
0111100010001000: 561428 463572 561180 467864
0111100010001000: 561428 463572 561180 632774
0111100010001000: 561428 463572 561180 646853
0111100010001000: 561428 463572 561180 656336
0110100110000100: 561428 463572 561180 630278
0110100110000100: 561428 463572 561180 630278
0111100110001100: 561428 463572 561180 541289
0110100110000100: 561428 463572 561180 630278
0111100010001000: 561428 463572 467864 656336
0111100010001000: 561428 463572 467864 561180
0111100010001000: 561428 463572 467864 632774
0111100010001000: 561428 463572 467864 484634
0111100010001000: 561428 463572 467864 646853
0111100010001000: 561428 463572 467864 656336
0111100010001000: 561428 463572 467864 561180
0110100110000100: 561428 463572 467864 630278
0110100110000100: 561428 463572 467864 630278
0111100110001100: 561428 463572 467864 541289
0110100110000100: 561428 463572 467864 630278
0110100110000100: 561428 463572 632774 630278
0110100110000100: 561428 463572 632774 630278
0111100110001100: 561428 463572 632774 541289
0110100110000100: 561428 463572 632774 630278
0110100110000100: 561428 463572 484634 630278
0110100110000100: 561428 463572 484634 630278
0111100110001100: 561428 463572 484634 541289
0110100110000100: 561428 463572 484634 630278
0110100110000100: 561428 463572 646853 630278
0110100110000100: 561428 463572 646853 630278
0111100110001100: 561428 463572 646853 541289
0110100110000100: 561428 463572 646853 630278
0111101011001000: 561428 463572 541289 656336
0111101011001000: 561428 463572 541289 561180
0111101011001000: 561428 463572 541289 467864
0111101011001000: 561428 463572 541289 632774
0111101011001000: 561428 463572 541289 484634
0111101011001000: 561428 463572 541289 646853
0110101011010010: 561428 463572 541289 506673
0110101011010010: 561428 463572 541289 615281
0110101011010010: 561428 463572 541289 506673
0110101011010010: 561428 463572 541289 615281
0110101011010010: 561428 463572 541289 506673
0110101011010010: 561428 463572 541289 615281
0110101011010010: 561428 463572 541289 506673
0110101011010010: 561428 463572 541289 615281
0110101111010110: 561428 463572 541289 630278
0101101001001000: 561428 463572 630278 656336
0101101001001000: 561428 463572 630278 561180
0101101001001000: 561428 463572 630278 467864
0101101001001000: 561428 463572 630278 632774
0101101001001000: 561428 463572 630278 484634
0101101001001000: 561428 463572 630278 646853
0100101001010010: 561428 463572 630278 506673
0100101001010010: 561428 463572 630278 506673
0100101001010010: 561428 463572 630278 506673
0101101101011110: 561428 463572 630278 541289
0111101011001000: 561428 463572 541289 656336
0111101011001000: 561428 463572 541289 561180
0111101011001000: 561428 463572 541289 467864
0111101011001000: 561428 463572 541289 632774
0111101011001000: 561428 463572 541289 484634
0111101011001000: 561428 463572 541289 646853
0111101011001000: 561428 463572 541289 656336
0111101011001000: 561428 463572 541289 561180
0111101011001000: 561428 463572 541289 467864
0111101011001000: 561428 463572 541289 632774
0111101011001000: 561428 463572 541289 484634
0111101011001000: 561428 463572 541289 646853
0110101111010110: 561428 463572 541289 630278
0110101111010110: 561428 463572 541289 630278
0110101111010110: 561428 463572 541289 630278
0110101111010110: 561428 463572 541289 630278
0110100110000100: 561428 541289 656336 630278
0110100110000100: 561428 541289 656336 506673
0110100110000100: 561428 541289 656336 615281
0110100010010010: 561428 541289 656336 468551
0110100010010010: 561428 541289 656336 468551
0111100010001000: 561428 541289 561180 656336
0110100110000100: 561428 541289 561180 630278
0110100110000100: 561428 541289 561180 506673
0110100110000100: 561428 541289 561180 615281
0110100010010010: 561428 541289 561180 468551
0111100010011010: 561428 541289 561180 484634
0110100010010010: 561428 541289 561180 468551
0111100010001000: 561428 541289 467864 656336
0111100010001000: 561428 541289 467864 561180
0110100110000100: 561428 541289 467864 630278
0110100110000100: 561428 541289 467864 506673
0110100110000100: 561428 541289 467864 615281
0111100010001000: 561428 541289 632774 656336
0111100010001000: 561428 541289 632774 561180
0111100010001000: 561428 541289 632774 467864
0110100110000100: 561428 541289 632774 630278
0110100110000100: 561428 541289 632774 506673
0110100110000100: 561428 541289 632774 615281
0110100010010010: 561428 541289 632774 583650
0111100010011010: 561428 541289 632774 646853
0110100010010010: 561428 541289 632774 583650
0111100010001000: 561428 541289 484634 656336
0111100010001000: 561428 541289 484634 467864
0111100010001000: 561428 541289 484634 632774
0110100110000100: 561428 541289 484634 630278
0110100110000100: 561428 541289 484634 506673
0110100110000100: 561428 541289 484634 615281
0110100010010010: 561428 541289 484634 583650
0111100010011010: 561428 541289 484634 561180
0110100010010010: 561428 541289 484634 583650
0111100010001000: 561428 541289 646853 656336
0111100010001000: 561428 541289 646853 561180
0111100010001000: 561428 541289 646853 467864
0111100010001000: 561428 541289 646853 484634
0110100110000100: 561428 541289 646853 630278
0110100110000100: 561428 541289 646853 506673
0111100010011010: 561428 541289 646853 632774
0110100110010110: 561428 541289 646853 615281
0110100110010110: 561428 541289 646853 615281
0111100010001000: 561428 541289 656336 561180
0111100010001000: 561428 541289 656336 467864
0111100010001000: 561428 541289 656336 632774
0111100010001000: 561428 541289 656336 484634
0111100010001000: 561428 541289 656336 646853
0110100110000100: 561428 541289 656336 630278
0110100110000100: 561428 541289 656336 506673
0110100110000100: 561428 541289 656336 615281
0110100110000100: 561428 541289 656336 630278
0110100110000100: 561428 541289 656336 506673
0110100110000100: 561428 541289 656336 615281
0111100110001100: 561428 541289 656336 463572
0110100110000100: 561428 541289 656336 630278
0110100110000100: 561428 541289 656336 506673
0110100110000100: 561428 541289 656336 615281
0110100010010010: 561428 541289 656336 468551
0111100010001000: 561428 541289 561180 656336
0111100010001000: 561428 541289 561180 467864
0111100010001000: 561428 541289 561180 632774
0111100010001000: 561428 541289 561180 646853
0111100010001000: 561428 541289 561180 656336
0110100110000100: 561428 541289 561180 630278
0110100110000100: 561428 541289 561180 506673
0110100110000100: 561428 541289 561180 615281
0110100110000100: 561428 541289 561180 630278
0110100110000100: 561428 541289 561180 506673
0110100110000100: 561428 541289 561180 615281
0111100110001100: 561428 541289 561180 463572
0110100110000100: 561428 541289 561180 630278
0110100110000100: 561428 541289 561180 506673
0110100110000100: 561428 541289 561180 615281
0110100010010010: 561428 541289 561180 468551
0111100010001000: 561428 541289 467864 656336
0111100010001000: 561428 541289 467864 561180
0111100010001000: 561428 541289 467864 632774
0111100010001000: 561428 541289 467864 484634
0111100010001000: 561428 541289 467864 646853
0111100010001000: 561428 541289 467864 656336
0111100010001000: 561428 541289 467864 561180
0110100110000100: 561428 541289 467864 630278
0110100110000100: 561428 541289 467864 506673
0110100110000100: 561428 541289 467864 615281
0110100110000100: 561428 541289 467864 630278
0110100110000100: 561428 541289 467864 506673
0110100110000100: 561428 541289 467864 615281
0111100110001100: 561428 541289 467864 463572
0110100110000100: 561428 541289 467864 630278
0110100110000100: 561428 541289 467864 506673
0110100110000100: 561428 541289 467864 615281
0110100110000100: 561428 541289 632774 630278
0110100110000100: 561428 541289 632774 506673
0110100110000100: 561428 541289 632774 615281
0110100110000100: 561428 541289 632774 630278
0110100110000100: 561428 541289 632774 506673
0110100110000100: 561428 541289 632774 615281
0111100110001100: 561428 541289 632774 463572
0110100110000100: 561428 541289 632774 630278
0110100110000100: 561428 541289 632774 506673
0110100110000100: 561428 541289 632774 615281
0110100010010010: 561428 541289 632774 583650
0110100110000100: 561428 541289 484634 630278
0110100110000100: 561428 541289 484634 506673
0110100110000100: 561428 541289 484634 615281
0110100110000100: 561428 541289 484634 630278
0110100110000100: 561428 541289 484634 506673
0110100110000100: 561428 541289 484634 615281
0111100110001100: 561428 541289 484634 463572
0110100110000100: 561428 541289 484634 630278
0110100110000100: 561428 541289 484634 506673
0110100110000100: 561428 541289 484634 615281
0110100010010010: 561428 541289 484634 583650
0110100110000100: 561428 541289 646853 630278
0110100110000100: 561428 541289 646853 506673
0110100110000100: 561428 541289 646853 630278
0110100110000100: 561428 541289 646853 506673
0111100110001100: 561428 541289 646853 463572
0110100110000100: 561428 541289 646853 630278
0110100110000100: 561428 541289 646853 506673
0110100110010110: 561428 541289 646853 615281
0111101011001000: 561428 541289 463572 656336
0111101011001000: 561428 541289 463572 561180
0111101011001000: 561428 541289 463572 467864
0111101011001000: 561428 541289 463572 632774
0111101011001000: 561428 541289 463572 484634
0111101011001000: 561428 541289 463572 646853
0110101111010110: 561428 541289 463572 630278
0101101001001000: 561428 541289 630278 656336
0101101001001000: 561428 541289 630278 561180
0101101001001000: 561428 541289 630278 467864
0101101001001000: 561428 541289 630278 632774
0101101001001000: 561428 541289 630278 484634
0101101001001000: 561428 541289 630278 646853
0101101101011110: 561428 541289 630278 463572
0100101101010110: 561428 541289 630278 506673
0101101001001000: 561428 541289 506673 656336
0101101001001000: 561428 541289 506673 561180
0101101001001000: 561428 541289 506673 467864
0101101001001000: 561428 541289 506673 632774
0101101001001000: 561428 541289 506673 484634
0101101001001000: 561428 541289 506673 646853
0101101101001100: 561428 541289 506673 463572
0100101101010110: 561428 541289 506673 630278
0101101001001000: 561428 541289 615281 656336
0101101001001000: 561428 541289 615281 561180
0101101001001000: 561428 541289 615281 467864
0101101001001000: 561428 541289 615281 632774
0101101001001000: 561428 541289 615281 484634
0101101101001100: 561428 541289 615281 463572
0100101101000100: 561428 541289 615281 630278
0100101101000100: 561428 541289 615281 506673
0101101001011010: 561428 541289 615281 646853
0101101001011010: 561428 541289 615281 646853
0101101001011010: 561428 541289 615281 646853
0101101001011010: 561428 541289 615281 646853
0111101011001000: 561428 541289 463572 656336
0111101011001000: 561428 541289 463572 561180
0111101011001000: 561428 541289 463572 467864
0111101011001000: 561428 541289 463572 632774
0111101011001000: 561428 541289 463572 484634
0111101011001000: 561428 541289 463572 646853
0111101011001000: 561428 541289 463572 656336
0111101011001000: 561428 541289 463572 561180
0111101011001000: 561428 541289 463572 467864
0111101011001000: 561428 541289 463572 632774
0111101011001000: 561428 541289 463572 484634
0111101011001000: 561428 541289 463572 646853
0110101111000100: 561428 541289 463572 506673
0110101111000100: 561428 541289 463572 615281
0110101111000100: 561428 541289 463572 506673
0110101111000100: 561428 541289 463572 615281
0110101111000100: 561428 541289 463572 506673
0110101111000100: 561428 541289 463572 615281
0110101111010110: 561428 541289 463572 630278
0110101111010110: 561428 541289 463572 630278
0110101111010110: 561428 541289 463572 630278
0110101111010110: 561428 541289 463572 630278
0111101011001000: 561428 541289 463572 656336
0111101011001000: 561428 541289 463572 561180
0111101011001000: 561428 541289 463572 467864
0111101011001000: 561428 541289 463572 632774
0111101011001000: 561428 541289 463572 484634
0111101011001000: 561428 541289 463572 646853
0111101011001000: 561428 541289 463572 656336
0111101011001000: 561428 541289 463572 561180
0111101011001000: 561428 541289 463572 467864
0111101011001000: 561428 541289 463572 632774
0111101011001000: 561428 541289 463572 484634
0111101011001000: 561428 541289 463572 646853
0110101111000100: 561428 541289 463572 506673
0110101111000100: 561428 541289 463572 615281
0110101111010110: 561428 541289 463572 630278
0110100110000100: 561428 632774 656336 583650
0110100010010010: 561428 632774 656336 468551
0110100010010010: 561428 632774 656336 468551
0111100010001000: 561428 632774 561180 656336
0110100110000100: 561428 632774 561180 583650
0110100010010010: 561428 632774 561180 468551
0111100010011010: 561428 632774 561180 484634
0110100010010010: 561428 632774 561180 468551
0111100010001000: 561428 632774 467864 656336
0111100010001000: 561428 632774 467864 561180
0110100110000100: 561428 632774 467864 583650
0111100010001000: 561428 632774 463572 656336
0111100010001000: 561428 632774 463572 561180
0111100010001000: 561428 632774 463572 467864
0110100110000100: 561428 632774 463572 583650
0110100010010010: 561428 632774 463572 630278
0111100010011010: 561428 632774 463572 541289
0110100010010010: 561428 632774 463572 630278
0111100010001000: 561428 632774 541289 656336
0111100010001000: 561428 632774 541289 561180
0111100010001000: 561428 632774 541289 467864
0110100110000100: 561428 632774 541289 583650
0110100010010010: 561428 632774 541289 630278
0110100010010010: 561428 632774 541289 506673
0110100010010010: 561428 632774 541289 615281
0111100010011010: 561428 632774 541289 463572
0110100010010010: 561428 632774 541289 630278
0110100010010010: 561428 632774 541289 506673
0110100010010010: 561428 632774 541289 615281
0111100010001000: 561428 632774 484634 656336
0111100010001000: 561428 632774 484634 467864
0111100010001000: 561428 632774 484634 463572
0111100010001000: 561428 632774 484634 541289
0111100010011010: 561428 632774 484634 561180
0110100110010110: 561428 632774 484634 583650
0110100110010110: 561428 632774 484634 583650
0111100010001000: 561428 632774 656336 561180
0111100010001000: 561428 632774 656336 467864
0111100010001000: 561428 632774 656336 463572
0111100010001000: 561428 632774 656336 541289
0111100010001000: 561428 632774 656336 484634
0110100110000100: 561428 632774 656336 583650
0110100110000100: 561428 632774 656336 583650
0111100110001100: 561428 632774 656336 646853
0110100110000100: 561428 632774 656336 583650
0110100010010010: 561428 632774 656336 468551
0111100010001000: 561428 632774 561180 656336
0111100010001000: 561428 632774 561180 467864
0111100010001000: 561428 632774 561180 463572
0111100010001000: 561428 632774 561180 541289
0111100010001000: 561428 632774 561180 656336
0110100110000100: 561428 632774 561180 583650
0110100110000100: 561428 632774 561180 583650
0111100110001100: 561428 632774 561180 646853
0110100110000100: 561428 632774 561180 583650
0111100010001000: 561428 632774 467864 656336
0111100010001000: 561428 632774 467864 561180
0111100010001000: 561428 632774 467864 463572
0111100010001000: 561428 632774 467864 541289
0111100010001000: 561428 632774 467864 484634
0111100010001000: 561428 632774 467864 656336
0111100010001000: 561428 632774 467864 561180
0110100110000100: 561428 632774 467864 583650
0110100110000100: 561428 632774 467864 583650
0111100110001100: 561428 632774 467864 646853
0110100110000100: 561428 632774 467864 583650
0111100010001000: 561428 632774 463572 656336
0111100010001000: 561428 632774 463572 561180
0111100010001000: 561428 632774 463572 467864
0111100010001000: 561428 632774 463572 484634
0111100010001000: 561428 632774 463572 656336
0111100010001000: 561428 632774 463572 561180
0111100010001000: 561428 632774 463572 467864
0110100110000100: 561428 632774 463572 583650
0110100110000100: 561428 632774 463572 583650
0111100110001100: 561428 632774 463572 646853
0110100110000100: 561428 632774 463572 583650
0111100010001000: 561428 632774 541289 656336
0111100010001000: 561428 632774 541289 561180
0111100010001000: 561428 632774 541289 467864
0111100010001000: 561428 632774 541289 484634
0111100010001000: 561428 632774 541289 656336
0111100010001000: 561428 632774 541289 561180
0111100010001000: 561428 632774 541289 467864
0110100110000100: 561428 632774 541289 583650
0110100110000100: 561428 632774 541289 583650
0111100110001100: 561428 632774 541289 646853
0110100110000100: 561428 632774 541289 583650
0111100110001100: 561428 632774 484634 646853
0110100110010110: 561428 632774 484634 583650
0111101011001000: 561428 632774 646853 656336
0111101011001000: 561428 632774 646853 561180
0111101011001000: 561428 632774 646853 467864
0111101011001000: 561428 632774 646853 463572
0111101011001000: 561428 632774 646853 541289
0111101011001000: 561428 632774 646853 484634
0110101011010010: 561428 632774 646853 615281
0110101011010010: 561428 632774 646853 615281
0110101011010010: 561428 632774 646853 615281
0110101011010010: 561428 632774 646853 615281
0110101111000100: 561428 632774 646853 583650
0101101001001000: 561428 632774 583650 656336
0101101001001000: 561428 632774 583650 561180
0101101001001000: 561428 632774 583650 467864
0101101001001000: 561428 632774 583650 463572
0101101001001000: 561428 632774 583650 541289
0101101101001100: 561428 632774 583650 646853
0101101001011010: 561428 632774 583650 484634
0101101001011010: 561428 632774 583650 484634
0101101001011010: 561428 632774 583650 484634
0101101001011010: 561428 632774 583650 484634
0101101001011010: 561428 632774 583650 484634
0111101011001000: 561428 632774 646853 656336
0111101011001000: 561428 632774 646853 561180
0111101011001000: 561428 632774 646853 467864
0111101011001000: 561428 632774 646853 463572
0111101011001000: 561428 632774 646853 541289
0111101011001000: 561428 632774 646853 484634
0111101011001000: 561428 632774 646853 656336
0111101011001000: 561428 632774 646853 561180
0111101011001000: 561428 632774 646853 467864
0111101011001000: 561428 632774 646853 463572
0111101011001000: 561428 632774 646853 541289
0111101011001000: 561428 632774 646853 484634
0110101111000100: 561428 632774 646853 583650
0110101111000100: 561428 632774 646853 583650
0110101111000100: 561428 632774 646853 583650
0110101111000100: 561428 632774 646853 583650
0110101111000100: 561428 632774 646853 583650
0110100110000100: 561428 484634 656336 583650
0110100010010010: 561428 484634 656336 468551
0110100010010010: 561428 484634 656336 468551
0111100010001000: 561428 484634 467864 656336
0110100110000100: 561428 484634 467864 583650
0111100010001000: 561428 484634 463572 656336
0111100010001000: 561428 484634 463572 467864
0110100110000100: 561428 484634 463572 583650
0110100010010010: 561428 484634 463572 630278
0111100010011010: 561428 484634 463572 541289
0110100010010010: 561428 484634 463572 630278
0111100010001000: 561428 484634 541289 656336
0111100010001000: 561428 484634 541289 467864
0110100110000100: 561428 484634 541289 583650
0110100010010010: 561428 484634 541289 630278
0110100010010010: 561428 484634 541289 506673
0110100010010010: 561428 484634 541289 615281
0111100010011010: 561428 484634 541289 463572
0110100010010010: 561428 484634 541289 630278
0110100010010010: 561428 484634 541289 506673
0110100010010010: 561428 484634 541289 615281
0111100010001000: 561428 484634 632774 656336
0111100010001000: 561428 484634 632774 467864
0111100010001000: 561428 484634 632774 463572
0111100010001000: 561428 484634 632774 541289
0111100010011010: 561428 484634 632774 646853
0110100110010110: 561428 484634 632774 583650
0110100110010110: 561428 484634 632774 583650
0111100010001000: 561428 484634 646853 656336
0111100010001000: 561428 484634 646853 467864
0111100010001000: 561428 484634 646853 463572
0111100010001000: 561428 484634 646853 541289
0110100110000100: 561428 484634 646853 583650
0110100010010010: 561428 484634 646853 615281
0111100010011010: 561428 484634 646853 632774
0110100010010010: 561428 484634 646853 615281
0111100010001000: 561428 484634 656336 467864
0111100010001000: 561428 484634 656336 463572
0111100010001000: 561428 484634 656336 541289
0111100010001000: 561428 484634 656336 632774
0111100010001000: 561428 484634 656336 646853
0110100110000100: 561428 484634 656336 583650
0110100110000100: 561428 484634 656336 583650
0111100110001100: 561428 484634 656336 561180
0110100110000100: 561428 484634 656336 583650
0110100010010010: 561428 484634 656336 468551
0111100010001000: 561428 484634 467864 656336
0111100010001000: 561428 484634 467864 463572
0111100010001000: 561428 484634 467864 541289
0111100010001000: 561428 484634 467864 632774
0111100010001000: 561428 484634 467864 646853
0111100010001000: 561428 484634 467864 656336
0110100110000100: 561428 484634 467864 583650
0110100110000100: 561428 484634 467864 583650
0111100110001100: 561428 484634 467864 561180
0110100110000100: 561428 484634 467864 583650
0111100010001000: 561428 484634 463572 656336
0111100010001000: 561428 484634 463572 467864
0111100010001000: 561428 484634 463572 632774
0111100010001000: 561428 484634 463572 646853
0111100010001000: 561428 484634 463572 656336
0111100010001000: 561428 484634 463572 467864
0110100110000100: 561428 484634 463572 583650
0110100110000100: 561428 484634 463572 583650
0111100110001100: 561428 484634 463572 561180
0110100110000100: 561428 484634 463572 583650
0111100010001000: 561428 484634 541289 656336
0111100010001000: 561428 484634 541289 467864
0111100010001000: 561428 484634 541289 632774
0111100010001000: 561428 484634 541289 646853
0111100010001000: 561428 484634 541289 656336
0111100010001000: 561428 484634 541289 467864
0110100110000100: 561428 484634 541289 583650
0110100110000100: 561428 484634 541289 583650
0111100110001100: 561428 484634 541289 561180
0110100110000100: 561428 484634 541289 583650
0111100010001000: 561428 484634 632774 656336
0111100010001000: 561428 484634 632774 467864
0111100010001000: 561428 484634 632774 463572
0111100010001000: 561428 484634 632774 541289
0111100010001000: 561428 484634 632774 656336
0111100010001000: 561428 484634 632774 467864
0111100010001000: 561428 484634 632774 463572
0111100010001000: 561428 484634 632774 541289
0111100110001100: 561428 484634 632774 561180
0110100110010110: 561428 484634 632774 583650
0110100110010110: 561428 484634 632774 583650
0110100110010110: 561428 484634 632774 583650
0110100110000100: 561428 484634 646853 583650
0110100110000100: 561428 484634 646853 583650
0111100110001100: 561428 484634 646853 561180
0110100110000100: 561428 484634 646853 583650
0111101011001000: 561428 484634 561180 656336
0111101011001000: 561428 484634 561180 467864
0111101011001000: 561428 484634 561180 463572
0111101011001000: 561428 484634 561180 541289
0111101011001000: 561428 484634 561180 632774
0111101011001000: 561428 484634 561180 646853
0110101011010010: 561428 484634 561180 468551
0110101011010010: 561428 484634 561180 468551
0110101011010010: 561428 484634 561180 468551
0110101011010010: 561428 484634 561180 468551
0110101111000100: 561428 484634 561180 583650
0101101001001000: 561428 484634 583650 656336
0101101001001000: 561428 484634 583650 467864
0101101001001000: 561428 484634 583650 463572
0101101001001000: 561428 484634 583650 541289
0101101001001000: 561428 484634 583650 646853
0101101101001100: 561428 484634 583650 561180
0101101001011010: 561428 484634 583650 632774
0101101001011010: 561428 484634 583650 632774
0101101001011010: 561428 484634 583650 632774
0101101001011010: 561428 484634 583650 632774
0101101001011010: 561428 484634 583650 632774
0111101011001000: 561428 484634 561180 656336
0111101011001000: 561428 484634 561180 467864
0111101011001000: 561428 484634 561180 463572
0111101011001000: 561428 484634 561180 541289
0111101011001000: 561428 484634 561180 632774
0111101011001000: 561428 484634 561180 646853
0111101011001000: 561428 484634 561180 656336
0111101011001000: 561428 484634 561180 467864
0111101011001000: 561428 484634 561180 463572
0111101011001000: 561428 484634 561180 541289
0111101011001000: 561428 484634 561180 632774
0111101011001000: 561428 484634 561180 646853
0110101111000100: 561428 484634 561180 583650
0110101111000100: 561428 484634 561180 583650
0110101111000100: 561428 484634 561180 583650
0110101111000100: 561428 484634 561180 583650
0111101011001000: 561428 484634 561180 656336
0111101011001000: 561428 484634 561180 467864
0111101011001000: 561428 484634 561180 463572
0111101011001000: 561428 484634 561180 541289
0111101011001000: 561428 484634 561180 632774
0111101011001000: 561428 484634 561180 646853
0111101011001000: 561428 484634 561180 656336
0111101011001000: 561428 484634 561180 467864
0111101011001000: 561428 484634 561180 463572
0111101011001000: 561428 484634 561180 541289
0111101011001000: 561428 484634 561180 632774
0111101011001000: 561428 484634 561180 646853
0110101111000100: 561428 484634 561180 583650
0110100010010010: 561428 646853 656336 468551
0110100010010010: 561428 646853 656336 468551
0111100010001000: 561428 646853 561180 656336
0110100010010010: 561428 646853 561180 468551
0111100010011010: 561428 646853 561180 484634
0110100010010010: 561428 646853 561180 468551
0111100010001000: 561428 646853 467864 656336
0111100010001000: 561428 646853 467864 561180
0111100010001000: 561428 646853 463572 656336
0111100010001000: 561428 646853 463572 561180
0111100010001000: 561428 646853 463572 467864
0110100010010010: 561428 646853 463572 630278
0111100010011010: 561428 646853 463572 541289
0110100010010010: 561428 646853 463572 630278
0111100010001000: 561428 646853 541289 656336
0111100010001000: 561428 646853 541289 561180
0111100010001000: 561428 646853 541289 467864
0110100010010010: 561428 646853 541289 630278
0110100010010010: 561428 646853 541289 506673
0111100010011010: 561428 646853 541289 463572
0110100010010010: 561428 646853 541289 630278
0110100010010010: 561428 646853 541289 506673
0110100110010110: 561428 646853 541289 615281
0111100010001000: 561428 646853 484634 656336
0111100010001000: 561428 646853 484634 467864
0111100010001000: 561428 646853 484634 463572
0111100010001000: 561428 646853 484634 541289
0110100010010010: 561428 646853 484634 583650
0111100010011010: 561428 646853 484634 561180
0110100010010010: 561428 646853 484634 583650
0111100010001000: 561428 646853 656336 561180
0111100010001000: 561428 646853 656336 467864
0111100010001000: 561428 646853 656336 463572
0111100010001000: 561428 646853 656336 541289
0111100010001000: 561428 646853 656336 484634
0110100110000100: 561428 646853 656336 615281
0111100110001100: 561428 646853 656336 632774
0110100110000100: 561428 646853 656336 615281
0110100010010010: 561428 646853 656336 468551
0111100010001000: 561428 646853 561180 656336
0111100010001000: 561428 646853 561180 467864
0111100010001000: 561428 646853 561180 463572
0111100010001000: 561428 646853 561180 541289
0111100010001000: 561428 646853 561180 656336
0110100110000100: 561428 646853 561180 615281
0111100110001100: 561428 646853 561180 632774
0110100110000100: 561428 646853 561180 615281
0111100010001000: 561428 646853 467864 656336
0111100010001000: 561428 646853 467864 561180
0111100010001000: 561428 646853 467864 463572
0111100010001000: 561428 646853 467864 541289
0111100010001000: 561428 646853 467864 484634
0111100010001000: 561428 646853 467864 656336
0111100010001000: 561428 646853 467864 561180
0110100110000100: 561428 646853 467864 615281
0111100110001100: 561428 646853 467864 632774
0110100110000100: 561428 646853 467864 615281
0111100010001000: 561428 646853 463572 656336
0111100010001000: 561428 646853 463572 561180
0111100010001000: 561428 646853 463572 467864
0111100010001000: 561428 646853 463572 484634
0111100010001000: 561428 646853 463572 656336
0111100010001000: 561428 646853 463572 561180
0111100010001000: 561428 646853 463572 467864
0110100110000100: 561428 646853 463572 615281
0111100110001100: 561428 646853 463572 632774
0110100110000100: 561428 646853 463572 615281
0111100010001000: 561428 646853 541289 656336
0111100010001000: 561428 646853 541289 561180
0111100010001000: 561428 646853 541289 467864
0111100010001000: 561428 646853 541289 484634
0111100010001000: 561428 646853 541289 656336
0111100010001000: 561428 646853 541289 561180
0111100010001000: 561428 646853 541289 467864
0111100110001100: 561428 646853 541289 632774
0110100110010110: 561428 646853 541289 615281
0110100110010110: 561428 646853 541289 615281
0111100010001000: 561428 646853 484634 656336
0111100010001000: 561428 646853 484634 467864
0111100010001000: 561428 646853 484634 463572
0111100010001000: 561428 646853 484634 541289
0111100010001000: 561428 646853 484634 656336
0111100010001000: 561428 646853 484634 467864
0111100010001000: 561428 646853 484634 463572
0111100010001000: 561428 646853 484634 541289
0110100110000100: 561428 646853 484634 615281
0111100110001100: 561428 646853 484634 632774
0110100110000100: 561428 646853 484634 615281
0111101011001000: 561428 646853 632774 656336
0111101011001000: 561428 646853 632774 561180
0111101011001000: 561428 646853 632774 467864
0111101011001000: 561428 646853 632774 463572
0111101011001000: 561428 646853 632774 541289
0111101011001000: 561428 646853 632774 484634
0110101011010010: 561428 646853 632774 583650
0110101011010010: 561428 646853 632774 583650
0110101111000100: 561428 646853 632774 615281
0101101001001000: 561428 646853 615281 656336
0101101001001000: 561428 646853 615281 561180
0101101001001000: 561428 646853 615281 467864
0101101001001000: 561428 646853 615281 463572
0101101001001000: 561428 646853 615281 484634
0101101101001100: 561428 646853 615281 632774
0101101001011010: 561428 646853 615281 541289
0101101001011010: 561428 646853 615281 541289
0101101001011010: 561428 646853 615281 541289
0101101001011010: 561428 646853 615281 541289
0111101011001000: 561428 646853 632774 656336
0111101011001000: 561428 646853 632774 561180
0111101011001000: 561428 646853 632774 467864
0111101011001000: 561428 646853 632774 463572
0111101011001000: 561428 646853 632774 541289
0111101011001000: 561428 646853 632774 484634
0111101011001000: 561428 646853 632774 656336
0111101011001000: 561428 646853 632774 561180
0111101011001000: 561428 646853 632774 467864
0111101011001000: 561428 646853 632774 463572
0111101011001000: 561428 646853 632774 541289
0111101011001000: 561428 646853 632774 484634
0110101111000100: 561428 646853 632774 615281
0110101111000100: 561428 646853 632774 615281
0110101111000100: 561428 646853 632774 615281
0110101111000100: 561428 646853 632774 615281
0111101011001000: 561428 646853 632774 656336
0111101011001000: 561428 646853 632774 561180
0111101011001000: 561428 646853 632774 467864
0111101011001000: 561428 646853 632774 463572
0111101011001000: 561428 646853 632774 541289
0111101011001000: 561428 646853 632774 484634
0111101011001000: 561428 646853 632774 656336
0111101011001000: 561428 646853 632774 561180
0111101011001000: 561428 646853 632774 467864
0111101011001000: 561428 646853 632774 463572
0111101011001000: 561428 646853 632774 541289
0111101011001000: 561428 646853 632774 484634
0110101111000100: 561428 646853 632774 615281
0111101011001000: 484634 561180 561428 583650
0101101001001000: 484634 583650 632774 561180
0110100110010110: 484634 561428 583650 632774
0111101011001000: 484634 561428 561180 583650
0110100110000100: 484634 561180 583650 468551
0110100010010010: 484634 561180 583650 632774
0110100010010010: 484634 561180 583650 632774
0110100110000100: 484634 561180 583650 468551
0110100110000100: 484634 561180 583650 468551
0111100110001100: 484634 561180 583650 561428
0110100010010010: 484634 561180 583650 632774
0111101011001000: 484634 561180 561428 583650
0110101011010010: 484634 561180 561428 656336
0110101011010010: 484634 561180 561428 467864
0110101011010010: 484634 561180 561428 463572
0110101011010010: 484634 561180 561428 541289
0110101011010010: 484634 561180 561428 632774
0110101011010010: 484634 561180 561428 646853
0110101011010010: 484634 561180 561428 656336
0110101011010010: 484634 561180 561428 467864
0110101011010010: 484634 561180 561428 463572
0110101011010010: 484634 561180 561428 541289
0110101011010010: 484634 561180 561428 632774
0110101011010010: 484634 561180 561428 646853
0111101011001000: 484634 561180 561428 583650
0110100010010010: 484634 561180 583650 632774
0111101011001000: 484634 561180 561428 583650
0111101011001000: 484634 561180 561428 583650
0110101111000100: 484634 561180 561428 468551
0110101111000100: 484634 561180 561428 468551
0111101011001000: 484634 561180 561428 583650
0110101111000100: 484634 561180 561428 468551
0111101011001000: 484634 561180 561428 583650
0110100110000100: 484634 561180 583650 468551
0110100110000100: 484634 561180 583650 468551
0111100110001100: 484634 561180 583650 561428
0111100110001100: 484634 561180 583650 561428
0111100110001100: 484634 561180 583650 561428
0110100010010010: 484634 561180 583650 632774
0110100010010010: 484634 561180 583650 632774
0111101011001000: 484634 561180 561428 583650
0110100110000100: 484634 583650 561180 632774
0110100010010010: 484634 583650 561180 468551
0111100010011010: 484634 583650 561180 561428
0110100010010010: 484634 583650 561428 656336
0110100010010010: 484634 583650 561428 467864
0110100010010010: 484634 583650 561428 463572
0110100010010010: 484634 583650 561428 541289
0110100010010010: 484634 583650 561428 646853
0111100010011010: 484634 583650 561428 561180
0110100110010110: 484634 583650 561428 632774
0110100110010110: 484634 583650 561428 632774
0110100110000100: 484634 583650 561180 632774
0110100110000100: 484634 583650 561180 632774
0110100110000100: 484634 583650 561180 632774
0110100110010110: 484634 583650 561428 632774
0101101001001000: 484634 583650 632774 561180
0100101001010010: 484634 583650 632774 646853
0100101001010010: 484634 583650 632774 646853
0101101001011010: 484634 583650 632774 561428
0101101001011010: 484634 583650 632774 561428
0101101001011010: 484634 583650 632774 561428
0101101001001000: 484634 583650 632774 561180
0101101001001000: 484634 583650 632774 561180
0110100110010110: 484634 561428 583650 632774
0110100110000100: 484634 561428 583650 656336
0110100110000100: 484634 561428 583650 467864
0110100110000100: 484634 561428 583650 463572
0110100110000100: 484634 561428 583650 541289
0110100110000100: 484634 561428 583650 646853
0111100110001100: 484634 561428 583650 561180
0110100110010110: 484634 561428 583650 632774
0110100110010110: 484634 561428 583650 632774
0111101011001000: 484634 561428 561180 583650
0111101011001000: 484634 561428 561180 583650
0111101011001000: 484634 561428 561180 583650
0111101011001000: 484634 561428 561180 583650
0111101011001000: 484634 561428 561180 583650
0110101111000100: 484634 561428 561180 656336
0110101111000100: 484634 561428 561180 467864
0110101111000100: 484634 561428 561180 463572
0110101111000100: 484634 561428 561180 541289
0110101111000100: 484634 561428 561180 632774
0110101111000100: 484634 561428 561180 646853
0110101111000100: 484634 561428 561180 656336
0110101111000100: 484634 561428 561180 467864
0110101111000100: 484634 561428 561180 463572
0110101111000100: 484634 561428 561180 541289
0110101111000100: 484634 561428 561180 632774
0110101111000100: 484634 561428 561180 646853
0111101011001000: 484634 561428 561180 583650
0110101011010010: 484634 561428 561180 468551
0111101011001000: 484634 561428 561180 583650
0110100110000100: 484634 561428 583650 656336
0110100110000100: 484634 561428 583650 467864
0110100110000100: 484634 561428 583650 463572
0110100110000100: 484634 561428 583650 541289
0110100110000100: 484634 561428 583650 646853
0110100110000100: 484634 561428 583650 656336
0110100110000100: 484634 561428 583650 467864
0110100110000100: 484634 561428 583650 463572
0110100110000100: 484634 561428 583650 541289
0110100110000100: 484634 561428 583650 646853
0111100110001100: 484634 561428 583650 561180
0111100110001100: 484634 561428 583650 561180
0111100110001100: 484634 561428 583650 561180
0110100110010110: 484634 561428 583650 632774
0110100110010110: 484634 561428 583650 632774
0111101011001000: 484634 561428 561180 583650
0111101011001000: 484634 561428 561180 583650
0111101011001000: 484634 561428 561180 583650
0111101011001000: 484634 561428 561180 583650
0110100110010110: 583650 484634 632774 561428
0110100110000100: 583650 632774 484634 646853
0110100010010010: 583650 632774 484634 561180
0110100110010110: 583650 632774 484634 561428
0110100110010110: 583650 632774 484634 561428
0110100110000100: 583650 632774 484634 646853
0110100110000100: 583650 632774 484634 646853
0110100110010110: 583650 632774 484634 561428
0110100110000100: 583650 632774 484634 646853
0110100110000100: 583650 632774 484634 646853
0110100110010110: 583650 632774 484634 561428
0110100110000100: 583650 632774 484634 646853
0110100010010010: 583650 484634 632774 646853
0110100110010110: 583650 484634 632774 561428
0110100110000100: 583650 484634 632774 561180
0110100110010110: 583650 484634 632774 561428
0110100110010110: 583650 484634 632774 561428
0110100110000100: 583650 484634 632774 561180
0110100110000100: 583650 484634 632774 561180
0110100110010110: 583650 484634 632774 561428
0110100110000100: 583650 484634 632774 561180
0101101001001000: 632774 583650 484634 646853
0110100110010110: 632774 561428 583650 484634
0111101011001000: 632774 561428 646853 583650
0111101011001000: 632774 646853 561428 583650
0110100010010010: 632774 583650 561428 656336
0110100010010010: 632774 583650 561428 561180
0110100010010010: 632774 583650 561428 467864
0110100010010010: 632774 583650 561428 463572
0110100010010010: 632774 583650 561428 541289
0111100010011010: 632774 583650 561428 646853
0110100110010110: 632774 583650 561428 484634
0110100010010010: 632774 583650 646853 615281
0111100010011010: 632774 583650 646853 561428
0110100110010110: 632774 583650 561428 484634
0110100110000100: 632774 583650 646853 484634
0110100110000100: 632774 583650 646853 484634
0101101001001000: 632774 583650 484634 646853
0100101001010010: 632774 583650 484634 561180
0100101001010010: 632774 583650 484634 561180
0101101001011010: 632774 583650 484634 561428
0101101001011010: 632774 583650 484634 561428
0101101001011010: 632774 583650 484634 561428
0101101001001000: 632774 583650 484634 646853
0110100110010110: 632774 561428 583650 484634
0110100110000100: 632774 561428 583650 656336
0110100110000100: 632774 561428 583650 561180
0110100110000100: 632774 561428 583650 467864
0110100110000100: 632774 561428 583650 463572
0110100110000100: 632774 561428 583650 541289
0111100110001100: 632774 561428 583650 646853
0110100110010110: 632774 561428 583650 484634
0110100110010110: 632774 561428 583650 484634
0111101011001000: 632774 561428 646853 583650
0111101011001000: 632774 561428 646853 583650
0111101011001000: 632774 561428 646853 583650
0111101011001000: 632774 561428 646853 583650
0111101011001000: 632774 561428 646853 583650
0110101111000100: 632774 561428 646853 656336
0110101111000100: 632774 561428 646853 561180
0110101111000100: 632774 561428 646853 467864
0110101111000100: 632774 561428 646853 463572
0110101111000100: 632774 561428 646853 541289
0110101111000100: 632774 561428 646853 484634
0110101111000100: 632774 561428 646853 656336
0110101111000100: 632774 561428 646853 561180
0110101111000100: 632774 561428 646853 467864
0110101111000100: 632774 561428 646853 463572
0110101111000100: 632774 561428 646853 541289
0110101111000100: 632774 561428 646853 484634
0111101011001000: 632774 561428 646853 583650
0110101011010010: 632774 561428 646853 615281
0111101011001000: 632774 561428 646853 583650
0110100110000100: 632774 561428 583650 656336
0110100110000100: 632774 561428 583650 561180
0110100110000100: 632774 561428 583650 467864
0110100110000100: 632774 561428 583650 463572
0110100110000100: 632774 561428 583650 541289
0110100110000100: 632774 561428 583650 656336
0110100110000100: 632774 561428 583650 561180
0110100110000100: 632774 561428 583650 467864
0110100110000100: 632774 561428 583650 463572
0110100110000100: 632774 561428 583650 541289
0111100110001100: 632774 561428 583650 646853
0111100110001100: 632774 561428 583650 646853
0111100110001100: 632774 561428 583650 646853
0110100110010110: 632774 561428 583650 484634
0110100110010110: 632774 561428 583650 484634
0111101011001000: 632774 561428 646853 583650
0110100010010010: 632774 646853 583650 484634
0110100010010010: 632774 646853 583650 484634
0110100110000100: 632774 646853 583650 615281
0111100110001100: 632774 646853 583650 561428
0110100010010010: 632774 646853 583650 484634
0111101011001000: 632774 646853 561428 583650
0111101011001000: 632774 646853 561428 583650
0111101011001000: 632774 646853 561428 583650
0110100010010010: 632774 646853 583650 484634
0111101011001000: 632774 646853 561428 583650
0111101011001000: 632774 646853 561428 583650
0110101111000100: 632774 646853 561428 615281
0110101111000100: 632774 646853 561428 615281
0111101011001000: 632774 646853 561428 583650
0110101111000100: 632774 646853 561428 615281
0111101011001000: 632774 646853 561428 583650
0110100110000100: 632774 646853 583650 615281
0110100110000100: 632774 646853 583650 615281
0111100110001100: 632774 646853 583650 561428
0111100110001100: 632774 646853 583650 561428
0111100110001100: 632774 646853 583650 561428
0110100010010010: 632774 646853 583650 484634
0110100010010010: 632774 646853 583650 484634
0111101011001000: 632774 646853 561428 583650
0111101011001000: 632774 646853 561428 583650
0111101011001000: 632774 646853 561428 583650
0111101011001000: 632774 646853 561428 583650
0110100110010110: 615281 646853 541289 561428
0110100110000100: 615281 541289 646853 630278
0110100110000100: 615281 541289 646853 506673
0110100110000100: 615281 541289 646853 463572
0110100010010010: 615281 541289 646853 632774
0110100110010110: 615281 541289 646853 561428
0110100110010110: 615281 541289 646853 561428
0110100110000100: 615281 541289 646853 630278
0110100110000100: 615281 541289 646853 506673
0110100110000100: 615281 541289 646853 463572
0110100110000100: 615281 541289 646853 630278
0110100110000100: 615281 541289 646853 506673
0110100110000100: 615281 541289 646853 463572
0110100010010010: 615281 541289 646853 632774
0110100110010110: 615281 541289 646853 561428
0110100110000100: 615281 541289 646853 630278
0110100110000100: 615281 541289 646853 506673
0110100110000100: 615281 541289 646853 463572
0110100110000100: 615281 541289 646853 630278
0110100110000100: 615281 541289 646853 506673
0110100110000100: 615281 541289 646853 463572
0110100010010010: 615281 541289 646853 632774
0110100110010110: 615281 541289 646853 561428
0110100010010010: 615281 646853 541289 630278
0110100010010010: 615281 646853 541289 506673
0110100010010010: 615281 646853 541289 463572
0110100110010110: 615281 646853 541289 561428
0110100110000100: 615281 646853 541289 632774
0110100110010110: 615281 646853 541289 561428
0110100110010110: 615281 646853 541289 561428
0110100110000100: 615281 646853 541289 632774
0110100110000100: 615281 646853 541289 632774
0110100110010110: 615281 646853 541289 561428
0110100110000100: 615281 646853 541289 632774
0111101011001000: 541289 630278 506673 615281
0111101011001000: 541289 630278 506673 561428
0111101011001000: 541289 630278 463572 615281
0111101111001100: 541289 630278 463572 506673
0111101011001000: 541289 506673 630278 615281
0111101011001000: 541289 506673 630278 561428
0111101011001000: 541289 463572 630278 615281
0111101011001000: 541289 463572 561428 506673
0111101011001000: 541289 463572 561428 615281
0111101111001100: 541289 463572 561428 630278
0111100010001000: 541289 615281 463572 506673
0101101001001000: 541289 615281 646853 630278
0101101001001000: 541289 615281 646853 506673
0101101001001000: 541289 615281 646853 463572
0111100010001000: 541289 561428 615281 630278
0111100010001000: 541289 561428 615281 506673
0110100110010110: 541289 561428 615281 646853
0111101011001000: 541289 561428 463572 506673
0111101011001000: 541289 561428 463572 615281
0110100010010010: 541289 630278 615281 646853
0110100010010010: 541289 630278 615281 646853
0111100010001000: 541289 630278 561428 615281
0110100010010010: 541289 630278 561428 656336
0110100010010010: 541289 630278 561428 561180
0110100010010010: 541289 630278 561428 467864
0110100010010010: 541289 630278 561428 632774
0110100010010010: 541289 630278 561428 484634
0110100010010010: 541289 630278 561428 646853
0111100110001100: 541289 630278 615281 506673
0111100110001100: 541289 630278 615281 463572
0110100010010010: 541289 630278 615281 646853
0111100110001100: 541289 630278 561428 506673
0111101011001000: 541289 630278 506673 615281
0111101011001000: 541289 630278 506673 561428
0111101011001000: 541289 630278 463572 615281
0111101111001100: 541289 630278 463572 506673
0111101011011010: 541289 630278 463572 561428
0111101011011010: 541289 630278 463572 561428
0111101011011010: 541289 630278 463572 561428
0111101011001000: 541289 630278 506673 615281
0111101011001000: 541289 630278 506673 561428
0111101011001000: 541289 630278 506673 615281
0111101011001000: 541289 630278 506673 561428
0111101111001100: 541289 630278 506673 463572
0111101111001100: 541289 630278 506673 463572
0111101011001000: 541289 630278 463572 615281
0111101011001000: 541289 630278 463572 615281
0111101111001100: 541289 630278 463572 506673
0111101111001100: 541289 630278 463572 506673
0111101111001100: 541289 630278 463572 506673
0111101111001100: 541289 630278 506673 463572
0111101111001100: 541289 630278 506673 463572
0111101111001100: 541289 630278 463572 506673
0111101111001100: 541289 630278 463572 506673
0111101111001100: 541289 630278 463572 506673
0111100010011010: 541289 506673 463572 561428
0111100010001000: 541289 506673 615281 463572
0110100010010010: 541289 506673 615281 646853
0110100010010010: 541289 506673 615281 646853
0111100010001000: 541289 506673 561428 615281
0110100010010010: 541289 506673 561428 656336
0110100010010010: 541289 506673 561428 561180
0110100010010010: 541289 506673 561428 467864
0110100010010010: 541289 506673 561428 632774
0110100010010010: 541289 506673 561428 484634
0110100010010010: 541289 506673 561428 646853
0111100010011010: 541289 506673 561428 463572
0111100110001100: 541289 506673 615281 630278
0111100110001100: 541289 506673 561428 630278
0111101011001000: 541289 506673 630278 615281
0111101011001000: 541289 506673 630278 561428
0111101011011010: 541289 506673 630278 463572
0111101011011010: 541289 506673 630278 463572
0111101011011010: 541289 506673 630278 463572
0111101011001000: 541289 506673 630278 615281
0111101011001000: 541289 506673 630278 561428
0111101011001000: 541289 506673 630278 615281
0111101011001000: 541289 506673 630278 561428
0111101011001000: 541289 506673 630278 615281
0111101011001000: 541289 506673 630278 561428
0111101011001000: 541289 506673 630278 615281
0111101011001000: 541289 506673 630278 561428
0111100010001000: 541289 463572 615281 506673
0110100010010010: 541289 463572 615281 646853
0110100010010010: 541289 463572 615281 646853
0111100010001000: 541289 463572 506673 615281
0111100110001100: 541289 463572 506673 561428
0111100110001100: 541289 463572 615281 630278
0111100110001100: 541289 463572 615281 561428
0110100010010010: 541289 463572 615281 646853
0111101011001000: 541289 463572 630278 615281
0111101011011010: 541289 463572 630278 506673
0111101011011010: 541289 463572 630278 506673
0111101011011010: 541289 463572 630278 506673
0111101011001000: 541289 463572 561428 506673
0111101011001000: 541289 463572 561428 615281
0110101011010010: 541289 463572 561428 656336
0110101011010010: 541289 463572 561428 561180
0110101011010010: 541289 463572 561428 467864
0110101011010010: 541289 463572 561428 632774
0110101011010010: 541289 463572 561428 484634
0110101011010010: 541289 463572 561428 646853
0110101011010010: 541289 463572 561428 656336
0110101011010010: 541289 463572 561428 561180
0110101011010010: 541289 463572 561428 467864
0110101011010010: 541289 463572 561428 632774
0110101011010010: 541289 463572 561428 484634
0110101011010010: 541289 463572 561428 646853
0111101111001100: 541289 463572 561428 630278
0111101011001000: 541289 463572 561428 506673
0111101011001000: 541289 463572 561428 615281
0111101011001000: 541289 463572 561428 506673
0111101011001000: 541289 463572 630278 615281
0111101011001000: 541289 463572 630278 615281
0111101111001100: 541289 463572 630278 561428
0111101111001100: 541289 463572 630278 561428
0111101011001000: 541289 463572 561428 506673
0111101011001000: 541289 463572 561428 615281
0111101011001000: 541289 463572 561428 506673
0111101011001000: 541289 463572 561428 615281
0111101111001100: 541289 463572 561428 630278
0111101111001100: 541289 463572 561428 630278
0111101111001100: 541289 463572 561428 630278
0111101011001000: 541289 463572 630278 615281
0111101011001000: 541289 463572 630278 615281
0111101111001100: 541289 463572 630278 561428
0111101111001100: 541289 463572 630278 561428
0111101111001100: 541289 463572 561428 630278
0111101111001100: 541289 463572 561428 630278
0111101111001100: 541289 463572 561428 630278
0111100010011010: 541289 615281 630278 506673
0111100010011010: 541289 615281 630278 463572
0111100010011010: 541289 615281 506673 630278
0111100010001000: 541289 615281 463572 506673
0111100010011010: 541289 615281 463572 630278
0111100010011010: 541289 615281 463572 561428
0111100010001000: 541289 615281 561428 630278
0111100010001000: 541289 615281 561428 506673
0110100010010010: 541289 615281 561428 656336
0110100010010010: 541289 615281 561428 561180
0110100010010010: 541289 615281 561428 467864
0110100010010010: 541289 615281 561428 632774
0110100010010010: 541289 615281 561428 484634
0111100010011010: 541289 615281 561428 463572
0110100110010110: 541289 615281 561428 646853
0111100010001000: 541289 615281 630278 561428
0110100110000100: 541289 615281 630278 646853
0110100110000100: 541289 615281 630278 646853
0111100010001000: 541289 615281 506673 463572
0111100010001000: 541289 615281 506673 561428
0110100110000100: 541289 615281 506673 646853
0110100110000100: 541289 615281 506673 646853
0111100010001000: 541289 615281 463572 506673
0111100010001000: 541289 615281 463572 506673
0110100110000100: 541289 615281 463572 646853
0110100110000100: 541289 615281 463572 646853
0110100110010110: 541289 615281 561428 646853
0101101001001000: 541289 615281 646853 630278
0101101001001000: 541289 615281 646853 506673
0101101001001000: 541289 615281 646853 463572
0100101001010010: 541289 615281 646853 632774
0100101001010010: 541289 615281 646853 632774
0101101001011010: 541289 615281 646853 561428
0101101001011010: 541289 615281 646853 561428
0101101001011010: 541289 615281 646853 561428
0100101001010010: 541289 615281 646853 632774
0111100010011010: 541289 561428 630278 506673
0111100010011010: 541289 561428 506673 630278
0111100010001000: 541289 561428 615281 630278
0111100010001000: 541289 561428 615281 506673
0110100110010110: 541289 561428 615281 646853
0111100010001000: 541289 561428 630278 615281
0110100110000100: 541289 561428 630278 656336
0110100110000100: 541289 561428 630278 561180
0110100110000100: 541289 561428 630278 467864
0110100110000100: 541289 561428 630278 632774
0110100110000100: 541289 561428 630278 484634
0110100110000100: 541289 561428 630278 646853
0111100010001000: 541289 561428 506673 615281
0110100110000100: 541289 561428 506673 656336
0110100110000100: 541289 561428 506673 561180
0110100110000100: 541289 561428 506673 467864
0110100110000100: 541289 561428 506673 632774
0110100110000100: 541289 561428 506673 484634
0110100110000100: 541289 561428 506673 646853
0111100110001100: 541289 561428 506673 463572
0111100010001000: 541289 561428 615281 630278
0111100010001000: 541289 561428 615281 506673
0111100010001000: 541289 561428 615281 630278
0111100010001000: 541289 561428 615281 506673
0110100110000100: 541289 561428 615281 656336
0110100110000100: 541289 561428 615281 561180
0110100110000100: 541289 561428 615281 467864
0110100110000100: 541289 561428 615281 632774
0110100110000100: 541289 561428 615281 484634
0111100110001100: 541289 561428 615281 463572
0110100110010110: 541289 561428 615281 646853
0110100110010110: 541289 561428 615281 646853
0111101011001000: 541289 561428 463572 506673
0111101011001000: 541289 561428 463572 615281
0111101011011010: 541289 561428 463572 630278
0111101011011010: 541289 561428 463572 630278
0111101011011010: 541289 561428 463572 630278
0111100010001000: 541289 561428 630278 615281
0111100010001000: 541289 561428 630278 615281
0111100010011010: 541289 561428 630278 506673
0111100010011010: 541289 561428 630278 506673
0111100010011010: 541289 561428 630278 506673
0111100010001000: 541289 561428 506673 615281
0111100010001000: 541289 561428 506673 615281
0111100010011010: 541289 561428 506673 630278
0111100010011010: 541289 561428 506673 630278
0111100010011010: 541289 561428 506673 630278
0111100010001000: 541289 561428 615281 630278
0111100010001000: 541289 561428 615281 506673
0111100010001000: 541289 561428 615281 630278
0111100010001000: 541289 561428 615281 506673
0111101011001000: 541289 561428 463572 506673
0111101011001000: 541289 561428 463572 615281
0111101011001000: 541289 561428 463572 506673
0111101011001000: 541289 561428 463572 615281
0110101111000100: 541289 561428 463572 656336
0110101111000100: 541289 561428 463572 561180
0110101111000100: 541289 561428 463572 467864
0110101111000100: 541289 561428 463572 632774
0110101111000100: 541289 561428 463572 484634
0110101111000100: 541289 561428 463572 646853
0110101111000100: 541289 561428 463572 656336
0110101111000100: 541289 561428 463572 561180
0110101111000100: 541289 561428 463572 467864
0110101111000100: 541289 561428 463572 632774
0110101111000100: 541289 561428 463572 484634
0110101111000100: 541289 561428 463572 646853
0111101011001000: 541289 561428 463572 506673
0111101011001000: 541289 561428 463572 615281
0111101011011010: 541289 561428 463572 630278
0111101011011010: 541289 561428 463572 630278
0110100110000100: 541289 561428 630278 656336
0110100110000100: 541289 561428 630278 561180
0110100110000100: 541289 561428 630278 467864
0110100110000100: 541289 561428 630278 632774
0110100110000100: 541289 561428 630278 484634
0110100110000100: 541289 561428 630278 646853
0110100110000100: 541289 561428 630278 656336
0110100110000100: 541289 561428 630278 561180
0110100110000100: 541289 561428 630278 467864
0110100110000100: 541289 561428 630278 632774
0110100110000100: 541289 561428 630278 484634
0110100110000100: 541289 561428 630278 646853
0111100010001000: 541289 561428 630278 615281
0111100110011110: 541289 561428 630278 463572
0111100010011010: 541289 561428 630278 506673
0110100110000100: 541289 561428 506673 656336
0110100110000100: 541289 561428 506673 561180
0110100110000100: 541289 561428 506673 467864
0110100110000100: 541289 561428 506673 632774
0110100110000100: 541289 561428 506673 484634
0110100110000100: 541289 561428 506673 646853
0110100110000100: 541289 561428 506673 656336
0110100110000100: 541289 561428 506673 561180
0110100110000100: 541289 561428 506673 467864
0110100110000100: 541289 561428 506673 632774
0110100110000100: 541289 561428 506673 484634
0110100110000100: 541289 561428 506673 646853
0111100110001100: 541289 561428 506673 463572
0111100110001100: 541289 561428 506673 463572
0111100110001100: 541289 561428 506673 463572
0111100010001000: 541289 561428 506673 615281
0111100010011010: 541289 561428 506673 630278
0110100110000100: 541289 561428 615281 656336
0110100110000100: 541289 561428 615281 561180
0110100110000100: 541289 561428 615281 467864
0110100110000100: 541289 561428 615281 632774
0110100110000100: 541289 561428 615281 484634
0110100110000100: 541289 561428 615281 656336
0110100110000100: 541289 561428 615281 561180
0110100110000100: 541289 561428 615281 467864
0110100110000100: 541289 561428 615281 632774
0110100110000100: 541289 561428 615281 484634
0111100110001100: 541289 561428 615281 463572
0111100110001100: 541289 561428 615281 463572
0111100110001100: 541289 561428 615281 463572
0111100010001000: 541289 561428 615281 630278
0111100010001000: 541289 561428 615281 506673
0111100010001000: 541289 561428 615281 630278
0111100010001000: 541289 561428 615281 506673
0110100110010110: 541289 561428 615281 646853
0110100110010110: 541289 561428 615281 646853
0111101011001000: 541289 561428 463572 506673
0111101011001000: 541289 561428 463572 615281
0111101011001000: 541289 561428 463572 506673
0111101011001000: 541289 561428 463572 615281
0111101011001000: 541289 561428 463572 506673
0111101011001000: 541289 561428 463572 615281
0111101011011010: 541289 561428 463572 630278
0111101111001100: 463572 541289 561428 630278
0110100110000100: 463572 630278 561428 506673
0110100010010010: 463572 630278 561428 656336
0110100010010010: 463572 630278 561428 561180
0110100010010010: 463572 630278 561428 467864
0110100010010010: 463572 630278 561428 632774
0110100010010010: 463572 630278 561428 484634
0110100010010010: 463572 630278 561428 646853
0110100110000100: 463572 630278 561428 506673
0110100110000100: 463572 630278 561428 506673
0110101011010010: 463572 630278 541289 615281
0110101011010010: 463572 630278 541289 615281
0111101011011010: 463572 630278 541289 561428
0111101011011010: 463572 630278 541289 561428
0111101011011010: 463572 630278 541289 561428
0110101111010110: 463572 630278 541289 506673
0110101111010110: 463572 630278 541289 506673
0110101111010110: 463572 630278 541289 506673
0111101011011010: 463572 630278 541289 561428
0110100110000100: 463572 630278 561428 506673
0110100110000100: 463572 630278 561428 506673
0110100110000100: 463572 630278 561428 506673
0111100110011110: 463572 630278 561428 541289
0111101011011010: 463572 630278 541289 561428
0110101111000100: 463572 541289 630278 615281
0110101111000100: 463572 541289 630278 615281
0111101111001100: 463572 541289 630278 561428
0110101111010110: 463572 541289 630278 506673
0110101111010110: 463572 541289 630278 506673
0110101111010110: 463572 541289 630278 506673
0110101111000100: 463572 541289 561428 506673
0110101111000100: 463572 541289 561428 615281
0110101111000100: 463572 541289 561428 506673
0110101111000100: 463572 541289 561428 615281
0111101111001100: 463572 541289 561428 630278
0111101111001100: 463572 541289 561428 630278
0110101111000100: 463572 541289 561428 506673
0110101111000100: 463572 541289 561428 615281
0111101111001100: 463572 541289 630278 561428
0111101111001100: 463572 541289 561428 630278
0110100010010010: 463572 561428 630278 506673
0110100110000100: 463572 561428 630278 656336
0110100110000100: 463572 561428 630278 561180
0110100110000100: 463572 561428 630278 467864
0110100110000100: 463572 561428 630278 632774
0110100110000100: 463572 561428 630278 484634
0110100110000100: 463572 561428 630278 646853
0110100010010010: 463572 561428 630278 506673
0111101011011010: 463572 561428 541289 630278
0111101011011010: 463572 561428 541289 630278
0111101011011010: 463572 561428 541289 630278
0110101111000100: 463572 561428 541289 656336
0110101111000100: 463572 561428 541289 561180
0110101111000100: 463572 561428 541289 467864
0110101111000100: 463572 561428 541289 632774
0110101111000100: 463572 561428 541289 484634
0110101111000100: 463572 561428 541289 646853
0110101111000100: 463572 561428 541289 656336
0110101111000100: 463572 561428 541289 561180
0110101111000100: 463572 561428 541289 467864
0110101111000100: 463572 561428 541289 632774
0110101111000100: 463572 561428 541289 484634
0110101111000100: 463572 561428 541289 646853
0110101011010010: 463572 561428 541289 506673
0110101011010010: 463572 561428 541289 615281
0111101011011010: 463572 561428 541289 630278
0111101011011010: 463572 561428 541289 630278
0110100110000100: 463572 561428 630278 656336
0110100110000100: 463572 561428 630278 561180
0110100110000100: 463572 561428 630278 467864
0110100110000100: 463572 561428 630278 632774
0110100110000100: 463572 561428 630278 484634
0110100110000100: 463572 561428 630278 646853
0110100110000100: 463572 561428 630278 656336
0110100110000100: 463572 561428 630278 561180
0110100110000100: 463572 561428 630278 467864
0110100110000100: 463572 561428 630278 632774
0110100110000100: 463572 561428 630278 484634
0110100110000100: 463572 561428 630278 646853
0110100010010010: 463572 561428 630278 506673
0111100110011110: 463572 561428 630278 541289
0111101011011010: 463572 561428 541289 630278
0101101001001000: 561180 468551 656336 484634
0111101011001000: 561180 484634 561428 468551
0110100110010110: 561180 561428 468551 656336
0111101011001000: 561180 561428 484634 468551
0110100110000100: 561180 468551 484634 656336
0110100010010010: 561180 468551 484634 583650
0111100010011010: 561180 468551 484634 561428
0110100010010010: 561180 468551 561428 467864
0110100010010010: 561180 468551 561428 463572
0110100010010010: 561180 468551 561428 541289
0110100010010010: 561180 468551 561428 632774
0110100010010010: 561180 468551 561428 646853
0111100010011010: 561180 468551 561428 484634
0110100110010110: 561180 468551 561428 656336
0110100110010110: 561180 468551 561428 656336
0110100110000100: 561180 468551 484634 656336
0110100110000100: 561180 468551 484634 656336
0110100110000100: 561180 468551 484634 656336
0110100110010110: 561180 468551 561428 656336
0101101001001000: 561180 468551 656336 484634
0101101001011010: 561180 468551 656336 561428
0101101001011010: 561180 468551 656336 561428
0101101001011010: 561180 468551 656336 561428
0110100010010010: 561180 484634 468551 656336
0110100010010010: 561180 484634 468551 656336
0110100110000100: 561180 484634 468551 583650
0111100110001100: 561180 484634 468551 561428
0110100010010010: 561180 484634 468551 656336
0111101011001000: 561180 484634 561428 468551
0111101011001000: 561180 484634 561428 468551
0111101011001000: 561180 484634 561428 468551
0110100010010010: 561180 484634 468551 656336
0111101011001000: 561180 484634 561428 468551
0111101011001000: 561180 484634 561428 468551
0110101111000100: 561180 484634 561428 583650
0110101111000100: 561180 484634 561428 583650
0111101011001000: 561180 484634 561428 468551
0110101111000100: 561180 484634 561428 583650
0111101011001000: 561180 484634 561428 468551
0110100110000100: 561180 484634 468551 583650
0110100110000100: 561180 484634 468551 583650
0111100110001100: 561180 484634 468551 561428
0111100110001100: 561180 484634 468551 561428
0111100110001100: 561180 484634 468551 561428
0110100010010010: 561180 484634 468551 656336
0110100010010010: 561180 484634 468551 656336
0111101011001000: 561180 484634 561428 468551
0110100110010110: 561180 561428 468551 656336
0110100110000100: 561180 561428 468551 467864
0110100110000100: 561180 561428 468551 463572
0110100110000100: 561180 561428 468551 541289
0110100110000100: 561180 561428 468551 632774
0110100110000100: 561180 561428 468551 646853
0111100110001100: 561180 561428 468551 484634
0110100110010110: 561180 561428 468551 656336
0110100110010110: 561180 561428 468551 656336
0111101011001000: 561180 561428 484634 468551
0111101011001000: 561180 561428 484634 468551
0111101011001000: 561180 561428 484634 468551
0111101011001000: 561180 561428 484634 468551
0111101011001000: 561180 561428 484634 468551
0110101111000100: 561180 561428 484634 656336
0110101111000100: 561180 561428 484634 467864
0110101111000100: 561180 561428 484634 463572
0110101111000100: 561180 561428 484634 541289
0110101111000100: 561180 561428 484634 632774
0110101111000100: 561180 561428 484634 646853
0110101111000100: 561180 561428 484634 656336
0110101111000100: 561180 561428 484634 467864
0110101111000100: 561180 561428 484634 463572
0110101111000100: 561180 561428 484634 541289
0110101111000100: 561180 561428 484634 632774
0110101111000100: 561180 561428 484634 646853
0111101011001000: 561180 561428 484634 468551
0110101011010010: 561180 561428 484634 583650
0111101011001000: 561180 561428 484634 468551
0110100110000100: 561180 561428 468551 467864
0110100110000100: 561180 561428 468551 463572
0110100110000100: 561180 561428 468551 541289
0110100110000100: 561180 561428 468551 632774
0110100110000100: 561180 561428 468551 646853
0110100110000100: 561180 561428 468551 467864
0110100110000100: 561180 561428 468551 463572
0110100110000100: 561180 561428 468551 541289
0110100110000100: 561180 561428 468551 632774
0110100110000100: 561180 561428 468551 646853
0111100110001100: 561180 561428 468551 484634
0111100110001100: 561180 561428 468551 484634
0111100110001100: 561180 561428 468551 484634
0110100110010110: 561180 561428 468551 656336
0110100110010110: 561180 561428 468551 656336
0111101011001000: 561180 561428 484634 468551
0111101011001000: 561180 561428 484634 468551
0111101011001000: 561180 561428 484634 468551
0111101011001000: 561180 561428 484634 468551
0110100110010110: 656336 561428 468551 561180
0110100010010010: 656336 468551 561428 467864
0110100010010010: 656336 468551 561428 463572
0110100010010010: 656336 468551 561428 541289
0110100010010010: 656336 468551 561428 632774
0110100010010010: 656336 468551 561428 484634
0110100010010010: 656336 468551 561428 646853
0110100110010110: 656336 468551 561428 561180
0110100110010110: 656336 468551 561428 561180
0110100110010110: 656336 468551 561428 561180
0110100110010110: 656336 468551 561428 561180
0110100110010110: 656336 561428 468551 561180
0110100110000100: 656336 561428 468551 467864
0110100110000100: 656336 561428 468551 463572
0110100110000100: 656336 561428 468551 541289
0110100110000100: 656336 561428 468551 632774
0110100110000100: 656336 561428 468551 484634
0110100110000100: 656336 561428 468551 646853
0110100110010110: 656336 561428 468551 561180
0110100110010110: 656336 561428 468551 561180
0110100110000100: 656336 561428 468551 467864
0110100110000100: 656336 561428 468551 463572
0110100110000100: 656336 561428 468551 541289
0110100110000100: 656336 561428 468551 632774
0110100110000100: 656336 561428 468551 484634
0110100110000100: 656336 561428 468551 646853
0110100110000100: 656336 561428 468551 467864
0110100110000100: 656336 561428 468551 463572
0110100110000100: 656336 561428 468551 541289
0110100110000100: 656336 561428 468551 632774
0110100110000100: 656336 561428 468551 484634
0110100110000100: 656336 561428 468551 646853
0110100110010110: 656336 561428 468551 561180
0110100110010110: 468551 561180 656336 561428
0110100010010010: 468551 656336 561180 484634
0110100110010110: 468551 656336 561180 561428
0110100110010110: 468551 656336 561180 561428
0110100110010110: 468551 656336 561180 561428
0110100110010110: 468551 561180 656336 561428
0110100110000100: 468551 561180 656336 484634
0110100110010110: 468551 561180 656336 561428
0110100110010110: 468551 561180 656336 561428
0110100110000100: 468551 561180 656336 484634
0110100110000100: 468551 561180 656336 484634
0110100110010110: 468551 561180 656336 561428
0110101011010010: 506673 630278 541289 615281
0110101011010010: 506673 630278 541289 561428
0110101011010010: 506673 630278 541289 615281
0110101011010010: 506673 630278 541289 561428
0110101111010110: 506673 630278 541289 463572
0110101111010110: 506673 630278 541289 463572
0110101111000100: 506673 541289 630278 615281
0110101111000100: 506673 541289 630278 561428
0110101111000100: 506673 541289 630278 615281
0110101111000100: 506673 541289 630278 561428
0110101111010110: 506673 541289 630278 463572
0110101111010110: 506673 541289 630278 463572
0111101111001100: 630278 541289 463572 506673
0110100010010010: 630278 506673 463572 561428
0111101011011010: 630278 506673 541289 463572
0111101011011010: 630278 506673 541289 463572
0111101011011010: 630278 506673 541289 463572
0110100110000100: 630278 463572 506673 561428
0111101011011010: 630278 463572 541289 506673
0111101011011010: 630278 463572 541289 506673
0111101011011010: 630278 463572 541289 506673
0110101111010110: 630278 463572 541289 561428
0110101111010110: 630278 463572 541289 561428
0111101011011010: 630278 463572 541289 506673
0110100110000100: 630278 463572 506673 561428
0110100110000100: 630278 463572 506673 561428
0111100110011110: 630278 463572 506673 541289
0111101011011010: 630278 463572 541289 506673
0110101111000100: 630278 541289 506673 615281
0110101111000100: 630278 541289 506673 561428
0110101111000100: 630278 541289 506673 615281
0110101111000100: 630278 541289 506673 561428
0111101111001100: 630278 541289 506673 463572
0110101111000100: 630278 541289 463572 615281
0110101111000100: 630278 541289 463572 615281
0111101111001100: 630278 541289 463572 506673
0111101111001100: 630278 541289 463572 506673
0110101111010110: 630278 541289 463572 561428
0110101111010110: 630278 541289 463572 561428
0111101111001100: 630278 541289 506673 463572
0111101111001100: 630278 541289 463572 506673
