Vertex,0111010110110011100000100,0111110100110001000010000,0110010010100010100000100,0110010011100000100001000,0111010100110001000100010,0111010101110001000001000,0110010011100100110001000,0111110110110001100010000,0111110000100001000010000,0111010101110001000101010
519603,1.0,6.0,11.0,15.0,12.0,2.0,1.0,3.0,1.0,1.0
462278,1.0,6.0,45.0,65.0,12.0,2.0,12.0,3.0,7.0,1.0
495327,1.0,3.0,22.0,23.0,6.0,2.0,8.0,3.0,4.0,1.0
513778,1.0,3.0,8.0,21.0,6.0,0.0,2.0,3.0,4.0,0.0
512563,1.0,0.0,31.0,28.0,2.0,2.0,11.0,0.0,1.0,1.0
567636,0.0,4.0,47.0,60.0,5.0,0.0,12.0,1.0,6.0,1.0
650990,0.0,4.0,22.0,33.0,4.0,1.0,6.0,1.0,5.0,0.0
544467,0.0,0.0,19.0,27.0,2.0,0.0,2.0,0.0,1.0,0.0
528716,0.0,0.0,26.0,30.0,2.0,0.0,6.0,0.0,1.0,0.0
551568,0.0,4.0,11.0,24.0,2.0,1.0,6.0,1.0,5.0,0.0
527233,0.0,0.0,10.0,13.0,4.0,0.0,5.0,0.0,0.0,0.0
657443,0.0,0.0,14.0,13.0,2.0,0.0,1.0,0.0,0.0,0.0
464240,0.0,0.0,31.0,11.0,1.0,0.0,6.0,0.0,0.0,0.0
505786,0.0,0.0,14.0,5.0,0.0,0.0,1.0,0.0,0.0,0.0
570632,0.0,0.0,9.0,7.0,0.0,0.0,1.0,0.0,0.0,0.0
637581,0.0,0.0,9.0,1.0,0.0,0.0,0.0,0.0,0.0,0.0
521586,0.0,0.0,11.0,1.0,0.0,0.0,0.0,0.0,0.0,0.0
651506,0.0,0.0,7.0,0.0,0.0,0.0,0.0,0.0,0.0,0.0
466379,0.0,0.0,13.0,3.0,0.0,0.0,0.0,0.0,0.0,0.0
648703,0.0,0.0,4.0,0.0,0.0,0.0,0.0,0.0,0.0,0.0
479899,0.0,0.0,1.0,0.0,0.0,0.0,0.0,0.0,0.0,0.0
graph,1.0,6.0,73.0,76.0,12.0,2.0,16.0,3.0,7.0,1.0
