0110010011100000100001000: 493005 494228 568093 607700 457712
0110010011100100110001000: 493005 494228 568093 609562 457712
0110010011100100110001000: 493005 494228 568093 609562 607700
0110010011100100110001000: 493005 494228 568093 579305 457712
0110010011100100110001000: 493005 494228 568093 579305 607700
0110010011100000100001000: 493005 494228 601323 607700 457712
0110010011100000100001000: 493005 494228 601323 609562 457712
0110010011100000100001000: 493005 494228 601323 609562 607700
0110010011100000100001000: 493005 494228 601323 579305 457712
0110010011100000100001000: 493005 494228 601323 579305 607700
0110010010100010100000100: 493005 568093 494228 563520 457712
0110010010100010100000100: 493005 568093 494228 563520 607700
0110010011100100110001000: 493005 568093 494228 579305 563520
0110010011100000100001000: 493005 568093 601323 579305 563520
0110010010100010100000100: 493005 601323 494228 617011 457712
0110010010100010100000100: 493005 601323 494228 617011 607700
0110010010100010100000100: 493005 601323 494228 617011 609562
0110010010100010100000100: 493005 601323 494228 617011 579305
0110010010100010100000100: 493005 601323 568093 617011 563520
0110010010100010100000100: 493005 601323 568093 617011 609562
0110010010100010100000100: 493005 601323 568093 617011 579305
0110010010100010100000100: 601323 493005 617011 494228 483793
0110010011100000100001000: 601323 493005 617011 568093 494228
0110010010100010100000100: 601323 493005 617011 568093 483793
0110010011100000100001000: 617011 483793 601323 556484 541425
0110010010100010100000100: 617011 601323 483793 493005 541425
0110010010100010100000100: 617011 601323 483793 493005 556484
0110010011100000100001000: 541165 532913 491227 494369 610247
0110010011100100110001000: 541165 532913 579305 610247 494369
0110010010100010100000100: 541165 491227 532913 636559 494369
0110010010100010100100110: 541165 491227 532913 636559 610247
0110010011100000100001000: 541165 491227 532913 607700 636559
0110010010100010100000100: 541165 491227 532913 607700 610247
0110010010100010100000100: 541165 491227 532913 607700 494369
0110010011100000100001000: 541165 491227 532913 579862 636559
0110010011100000100001000: 541165 491227 532913 579862 607700
0110010010100010100000100: 541165 491227 532913 579862 610247
0110010010100010100000100: 541165 491227 532913 579862 494369
0110010011100000100001000: 541165 491227 579305 607700 636559
0110010011100100110001000: 541165 491227 579305 579862 636559
0110010011100100110001000: 541165 491227 579305 579862 607700
0110010010100010100000100: 541165 579305 532913 494228 494369
0110010011100000100001000: 541165 579305 532913 568206 494228
0110010010100010100000100: 541165 579305 532913 568206 494369
0110010011100000100001000: 541165 579305 532913 568093 494228
0110010011100000100001000: 541165 579305 532913 568093 568206
0110010010100010100000100: 541165 579305 532913 568093 494369
0110010011100000100001000: 541165 579305 532913 556484 494228
0110010011100000100001000: 541165 579305 532913 556484 568206
0110010011100000100001000: 541165 579305 532913 556484 568093
0110010010100010100000100: 541165 579305 532913 556484 494369
0110010011100000100001000: 541165 579305 532913 609562 568206
0110010011100000100001000: 541165 579305 532913 609562 556484
0110010010100010100000100: 541165 579305 532913 609562 494369
0110010011100000100001000: 541165 579305 532913 579862 494228
0110010011100000100001000: 541165 579305 532913 579862 568206
0110010011100000100001000: 541165 579305 532913 579862 568093
0110010011100000100001000: 541165 579305 532913 579862 556484
0110010011100000100001000: 541165 579305 532913 579862 609562
0110010010100010100000100: 541165 579305 532913 579862 494369
0110010011100100110001000: 541165 579305 532913 610247 494228
0110010011100100110001000: 541165 579305 532913 610247 568093
0110010011100100110001000: 541165 579305 532913 610247 556484
0110010011100100110001000: 541165 579305 532913 610247 609562
0110010011100100110001000: 541165 579305 532913 610247 579862
0110010010100010100000100: 541165 579305 491227 494228 636559
0110010010100010100100110: 541165 579305 491227 494228 607700
0110010011100000100001000: 541165 579305 491227 568206 494228
0110010010100010100000100: 541165 579305 491227 568206 636559
0110010010100010100000100: 541165 579305 491227 568206 607700
0110010011100000100001000: 541165 579305 491227 568093 494228
0110010011100000100001000: 541165 579305 491227 568093 568206
0110010010100010100000100: 541165 579305 491227 568093 636559
0110010010100010100000100: 541165 579305 491227 568093 607700
0110010011100000100001000: 541165 579305 491227 610247 494228
0110010011100000100001000: 541165 579305 491227 610247 568093
0110010010100010100000100: 541165 579305 491227 610247 607700
0110010010100010100100110: 541165 579305 491227 610247 636559
0110010011100000100001000: 541165 579305 491227 556484 494228
0110010011100000100001000: 541165 579305 491227 556484 568206
0110010011100000100001000: 541165 579305 491227 556484 568093
0110010011100000100001000: 541165 579305 491227 556484 610247
0110010010100010100000100: 541165 579305 491227 556484 636559
0110010010100010100000100: 541165 579305 491227 556484 607700
0110010011100000100001000: 541165 579305 491227 609562 568206
0110010011100000100001000: 541165 579305 491227 609562 610247
0110010011100000100001000: 541165 579305 491227 609562 556484
0110010010100010100000100: 541165 579305 491227 609562 636559
0110010010100010100000100: 541165 579305 491227 609562 607700
0110010011100100110001000: 541165 579305 491227 579862 494228
0110010011100100110001000: 541165 579305 491227 579862 568206
0110010011100100110001000: 541165 579305 491227 579862 568093
0110010011100100110001000: 541165 579305 491227 579862 610247
0110010011100100110001000: 541165 579305 491227 579862 556484
0110010011100100110001000: 541165 579305 491227 579862 609562
0110010011100000100001000: 579305 494228 568206 607700 457712
0110010011100000100001000: 579305 494228 568206 493005 457712
0110010011100000100001000: 579305 494228 568206 493005 607700
0110010011100000100001000: 579305 494228 568093 607700 457712
0110010011100000100001000: 579305 494228 610247 607700 457712
0110010011100000100001000: 579305 494228 610247 493005 457712
0110010011100000100001000: 579305 494228 610247 493005 607700
0110010011100000100001000: 579305 494228 556484 607700 457712
0110010011100000100001000: 579305 494228 556484 493005 457712
0110010011100000100001000: 579305 494228 556484 493005 607700
0110010011100000100001000: 579305 494228 579862 607700 457712
0110010011100000100001000: 579305 494228 579862 493005 457712
0110010011100000100001000: 579305 494228 579862 493005 607700
0110010011100000100001000: 579305 494228 541165 607700 457712
0110010011100000100001000: 579305 494228 541165 493005 457712
0110010011100000100001000: 579305 494228 541165 493005 607700
0111010101110001000001000: 579305 494228 609562 568206 457712
0111010101110001000001000: 579305 494228 609562 568206 607700
0111010101110001000001000: 579305 494228 609562 568206 493005
0111010101110001000001000: 579305 494228 609562 610247 457712
0111010101110001000001000: 579305 494228 609562 610247 607700
0111010101110001000001000: 579305 494228 609562 610247 493005
0111010101110001000001000: 579305 494228 609562 556484 457712
0111010101110001000001000: 579305 494228 609562 556484 607700
0111010101110001000001000: 579305 494228 609562 556484 493005
0111010101110001000001000: 579305 494228 609562 579862 457712
0111010101110001000001000: 579305 494228 609562 579862 607700
0111010101110001000001000: 579305 494228 609562 579862 493005
0111010101110001000001000: 579305 494228 609562 541165 457712
0111010101110001000001000: 579305 494228 609562 541165 607700
0111010101110001000001000: 579305 494228 609562 541165 493005
0110010010100010100000100: 579305 568206 494228 607304 457712
0110010010100010100000100: 579305 568206 494228 607304 607700
0110010010100010100000100: 579305 568206 494228 607304 493005
0111010101110001000001000: 579305 568206 610247 494228 607304
0111010101110001000001000: 579305 568206 610247 568093 607304
0111010101110001000101010: 579305 568206 610247 556484 607304
0111010101110001000001000: 579305 568206 610247 609562 607304
0111010101110001000101010: 579305 568206 610247 579862 607304
0111010101110001000001000: 579305 568206 610247 541165 607304
0110010010100010100000100: 579305 568093 494228 563520 457712
0110010010100010100000100: 579305 568093 494228 563520 607700
0110010010100010100000100: 579305 568093 568206 563520 607304
0110010011100000100001000: 579305 568093 568206 493005 563520
0110010010100010100000100: 579305 568093 568206 493005 607304
0110010011100000100001000: 579305 568093 610247 493005 563520
0110010011100100110001000: 579305 568093 556484 563520 493005
0110010011100000100001000: 579305 568093 579862 493005 563520
0110010011100000100001000: 579305 568093 541165 493005 563520
0111010101110001000001000: 579305 568093 609562 568206 493005
0111010101110001000001000: 579305 568093 609562 610247 493005
0111010101110001000001000: 579305 568093 609562 556484 493005
0111010101110001000001000: 579305 568093 609562 579862 493005
0111010101110001000001000: 579305 568093 609562 541165 493005
0110010010100010100000100: 579305 610247 494228 636559 457712
0110010010100010100000100: 579305 610247 494228 636559 607700
0110010010100010100000100: 579305 610247 494228 636559 493005
0110010011100000100001000: 579305 610247 494228 532913 636559
0110010010100010100000100: 579305 610247 494228 532913 457712
0110010010100010100000100: 579305 610247 494228 532913 607700
0110010010100010100000100: 579305 610247 494228 532913 493005
0110010010100010100000100: 579305 610247 568093 636559 563520
0110010010100010100000100: 579305 610247 568093 636559 493005
0110010011100000100001000: 579305 610247 568093 532913 636559
0110010010100010100000100: 579305 610247 568093 532913 563520
0110010010100010100000100: 579305 610247 568093 532913 493005
0110010011100000100001000: 579305 610247 556484 532913 636559
0110010011100000100001000: 579305 610247 609562 532913 636559
0110010011100000100001000: 579305 610247 579862 532913 636559
0110010011100100110001000: 579305 610247 541165 532913 636559
0111010101110001000001000: 579305 610247 568206 494228 636559
0111010101110001000001000: 579305 610247 568206 494228 532913
0111010100110001000100010: 579305 610247 568206 494228 457712
0111010100110001000100010: 579305 610247 568206 494228 607700
0111010100110001000100010: 579305 610247 568206 494228 493005
0111110100110001000010000: 579305 610247 568206 568093 494228
0111010101110001000001000: 579305 610247 568206 568093 636559
0111010101110001000001000: 579305 610247 568206 568093 532913
0111010100110001000100010: 579305 610247 568206 568093 563520
0111010100110001000100010: 579305 610247 568206 568093 493005
0111110100110001000010000: 579305 610247 568206 556484 494228
0111110100110001000010000: 579305 610247 568206 556484 568093
0111010101110001000001000: 579305 610247 568206 556484 636559
0111010101110001000001000: 579305 610247 568206 556484 532913
0111010100110001000100010: 579305 610247 568206 556484 483793
0111010100110001000100010: 579305 610247 568206 556484 563520
0111110100110001000010000: 579305 610247 568206 609562 556484
0111010101110001000001000: 579305 610247 568206 609562 636559
0111010101110001000001000: 579305 610247 568206 609562 532913
0111010100110001000100010: 579305 610247 568206 609562 563520
0111110100110001000010000: 579305 610247 568206 579862 494228
0111110100110001000010000: 579305 610247 568206 579862 568093
0111110100110001000010000: 579305 610247 568206 579862 556484
0111110100110001000010000: 579305 610247 568206 579862 609562
0111010101110001000001000: 579305 610247 568206 579862 636559
0111010101110001000001000: 579305 610247 568206 579862 532913
0111010100110001000100010: 579305 610247 568206 579862 529294
0111010100110001000100010: 579305 610247 568206 579862 491227
0111110100110001000010000: 579305 610247 568206 541165 494228
0111110100110001000010000: 579305 610247 568206 541165 568093
0111110100110001000010000: 579305 610247 568206 541165 556484
0111110100110001000010000: 579305 610247 568206 541165 609562
0111110100110001000010000: 579305 610247 568206 541165 579862
0111010101110001000001000: 579305 610247 568206 541165 636559
0111010100110001000100010: 579305 610247 568206 541165 491227
0111010101110001000101010: 579305 610247 568206 541165 532913
0110010010100010100000100: 579305 556484 494228 483793 457712
0110010010100010100000100: 579305 556484 494228 483793 607700
0110010010100010100000100: 579305 556484 494228 483793 493005
0110010011100000100001000: 579305 556484 494228 563520 483793
0110010010100010100000100: 579305 556484 494228 563520 457712
0110010010100010100000100: 579305 556484 494228 563520 607700
0110010010100010100000100: 579305 556484 494228 563520 493005
0110010011100000100001000: 579305 556484 494228 607304 483793
0110010011100000100001000: 579305 556484 494228 607304 563520
0110010010100010100000100: 579305 556484 494228 607304 457712
0110010010100010100000100: 579305 556484 494228 607304 607700
0110010010100010100000100: 579305 556484 494228 607304 493005
0110010011100000100001000: 579305 556484 568206 563520 483793
0110010011100100110001000: 579305 556484 568206 607304 483793
0110010011100100110001000: 579305 556484 568206 607304 563520
0111110000100001000010000: 579305 556484 568093 568206 494228
0110010010100010100000100: 579305 556484 568093 483793 493005
0110010011100000100001000: 579305 556484 568093 607304 483793
0110010010100010100000100: 579305 556484 568093 607304 493005
0110010011100100110001000: 579305 556484 568093 563520 483793
0110010011100100110001000: 579305 556484 568093 563520 607304
0111110000100001000010000: 579305 556484 610247 568093 494228
0110010010100010100000100: 579305 556484 610247 483793 636559
0110010010100010100000100: 579305 556484 610247 483793 532913
0110010011100000100001000: 579305 556484 610247 563520 483793
0110010010100010100000100: 579305 556484 610247 563520 636559
0110010010100010100000100: 579305 556484 610247 563520 532913
0110010011100000100001000: 579305 556484 610247 607304 483793
0110010011100000100001000: 579305 556484 610247 607304 563520
0110010010100010100000100: 579305 556484 610247 607304 636559
0110010010100010100000100: 579305 556484 610247 607304 532913
0110010011100000100001000: 579305 556484 609562 607304 483793
0110010011100100110001000: 579305 556484 609562 563520 483793
0110010011100100110001000: 579305 556484 609562 563520 607304
0110010011100000100001000: 579305 556484 579862 563520 483793
0110010011100100110001000: 579305 556484 579862 607304 483793
0110010011100100110001000: 579305 556484 579862 607304 563520
0110010011100000100001000: 579305 556484 541165 563520 483793
0110010011100000100001000: 579305 556484 541165 607304 483793
0110010011100000100001000: 579305 556484 541165 607304 563520
0110010010100010100000100: 579305 609562 568206 563520 607304
0110010010100010100000100: 579305 609562 610247 563520 636559
0110010010100010100000100: 579305 609562 610247 563520 532913
0111010101110001000001000: 579305 609562 494228 568206 563520
0111010100110001000100010: 579305 609562 494228 568206 607304
0111010101110001000001000: 579305 609562 494228 610247 563520
0111010100110001000100010: 579305 609562 494228 610247 636559
0111010100110001000100010: 579305 609562 494228 610247 532913
0111110100110001000110010: 579305 609562 494228 610247 568206
0111110100110001000010000: 579305 609562 494228 556484 568206
0111110100110001000010000: 579305 609562 494228 556484 610247
0111010100110001000100010: 579305 609562 494228 556484 483793
0111010100110001000100010: 579305 609562 494228 556484 607304
0111010101110001000101010: 579305 609562 494228 556484 563520
0111110100110001000010000: 579305 609562 494228 579862 568206
0111110100110001000010000: 579305 609562 494228 579862 610247
0111110100110001000010000: 579305 609562 494228 579862 556484
0111010101110001000001000: 579305 609562 494228 579862 563520
0111010100110001000100010: 579305 609562 494228 579862 607304
0111010100110001000100010: 579305 609562 494228 579862 529294
0111010100110001000100010: 579305 609562 494228 579862 491227
0111110100110001000010000: 579305 609562 494228 541165 568206
0111110100110001000010000: 579305 609562 494228 541165 610247
0111110100110001000010000: 579305 609562 494228 541165 556484
0111110100110001000010000: 579305 609562 494228 541165 579862
0111010101110001000001000: 579305 609562 494228 541165 563520
0111010100110001000100010: 579305 609562 494228 541165 532913
0111010100110001000100010: 579305 609562 494228 541165 491227
0111010110110011100000100: 579305 609562 494228 568093 457712
0111010110110011100000100: 579305 609562 494228 568093 607700
0111010100110001000100010: 579305 609562 568093 568206 607304
0111010100110001000100010: 579305 609562 568093 610247 636559
0111010100110001000100010: 579305 609562 568093 610247 532913
0111110100110001000110010: 579305 609562 568093 610247 568206
0111110100110001000010000: 579305 609562 568093 556484 568206
0111110100110001000010000: 579305 609562 568093 556484 610247
0111010100110001000100010: 579305 609562 568093 556484 483793
0111010100110001000100010: 579305 609562 568093 556484 607304
0111110100110001000010000: 579305 609562 568093 579862 568206
0111110100110001000010000: 579305 609562 568093 579862 610247
0111110100110001000010000: 579305 609562 568093 579862 556484
0111010100110001000100010: 579305 609562 568093 579862 607304
0111010100110001000100010: 579305 609562 568093 579862 529294
0111010100110001000100010: 579305 609562 568093 579862 491227
0111110100110001000010000: 579305 609562 568093 541165 568206
0111110100110001000010000: 579305 609562 568093 541165 610247
0111110100110001000010000: 579305 609562 568093 541165 556484
0111110100110001000010000: 579305 609562 568093 541165 579862
0111010100110001000100010: 579305 609562 568093 541165 532913
0111010100110001000100010: 579305 609562 568093 541165 491227
0111110110110001100010000: 579305 609562 568093 494228 568206
0111110110110001100010000: 579305 609562 568093 494228 610247
0111110110110001100010000: 579305 609562 568093 494228 556484
0111110110110001100010000: 579305 609562 568093 494228 579862
0111110110110001100010000: 579305 609562 568093 494228 541165
0111010110110011100100110: 579305 609562 568093 494228 493005
0110010010100010100000100: 579305 579862 494228 607304 457712
0110010010100010100000100: 579305 579862 494228 607304 607700
0110010010100010100000100: 579305 579862 494228 607304 493005
0110010011100000100001000: 579305 579862 494228 529294 607304
0110010010100010100000100: 579305 579862 494228 529294 457712
0110010010100010100000100: 579305 579862 494228 529294 493005
0110010010100010100100110: 579305 579862 494228 529294 607700
0110010011100000100001000: 579305 579862 494228 491227 607304
0110010011100000100001000: 579305 579862 494228 491227 529294
0110010010100010100000100: 579305 579862 494228 491227 457712
0110010010100010100000100: 579305 579862 494228 491227 493005
0110010010100010100100110: 579305 579862 494228 491227 607700
0110010011100000100001000: 579305 579862 568206 491227 529294
0110010011100100110001000: 579305 579862 568206 607304 529294
0110010011100100110001000: 579305 579862 568206 607304 491227
0111110000100001000010000: 579305 579862 568093 568206 494228
0110010010100010100000100: 579305 579862 568093 607304 563520
0110010010100010100000100: 579305 579862 568093 607304 493005
0110010011100000100001000: 579305 579862 568093 529294 607304
0110010010100010100000100: 579305 579862 568093 529294 563520
0110010010100010100000100: 579305 579862 568093 529294 493005
0110010011100000100001000: 579305 579862 568093 491227 607304
0110010011100000100001000: 579305 579862 568093 491227 529294
0110010010100010100000100: 579305 579862 568093 491227 563520
0110010010100010100000100: 579305 579862 568093 491227 493005
0111110000100001000010000: 579305 579862 610247 568093 494228
0110010010100010100000100: 579305 579862 610247 607304 636559
0110010010100010100000100: 579305 579862 610247 607304 532913
0110010011100000100001000: 579305 579862 610247 529294 607304
0110010010100010100000100: 579305 579862 610247 529294 636559
0110010010100010100000100: 579305 579862 610247 529294 532913
0110010011100000100001000: 579305 579862 610247 491227 607304
0110010011100000100001000: 579305 579862 610247 491227 529294
0110010010100010100000100: 579305 579862 610247 491227 532913
0110010010100010100100110: 579305 579862 610247 491227 636559
0111110000100001000010000: 579305 579862 556484 568206 494228
0111110000100001000010000: 579305 579862 556484 568093 494228
0111110000100001000010000: 579305 579862 556484 568093 568206
0111110000100001000010000: 579305 579862 556484 610247 494228
0111110000100001000010000: 579305 579862 556484 610247 568093
0110010010100010100000100: 579305 579862 556484 529294 483793
0110010010100010100000100: 579305 579862 556484 529294 563520
0110010011100000100001000: 579305 579862 556484 491227 529294
0110010010100010100000100: 579305 579862 556484 491227 483793
0110010010100010100000100: 579305 579862 556484 491227 563520
0110010011100100110001000: 579305 579862 556484 607304 529294
0110010011100100110001000: 579305 579862 556484 607304 491227
0111110000100001000010000: 579305 579862 609562 556484 568206
0111110000100001000010000: 579305 579862 609562 556484 610247
0110010010100010100000100: 579305 579862 609562 607304 563520
0110010011100000100001000: 579305 579862 609562 529294 607304
0110010010100010100000100: 579305 579862 609562 529294 563520
0110010011100000100001000: 579305 579862 609562 491227 607304
0110010011100000100001000: 579305 579862 609562 491227 529294
0110010010100010100000100: 579305 579862 609562 491227 563520
0110010011100000100001000: 579305 579862 541165 529294 607304
0110010011100100110001000: 579305 579862 541165 491227 607304
0110010011100100110001000: 579305 579862 541165 491227 529294
0110010010100010100000100: 579305 541165 494228 532913 457712
0110010010100010100000100: 579305 541165 494228 532913 607700
0110010010100010100000100: 579305 541165 494228 532913 493005
0110010011100000100001000: 579305 541165 494228 491227 532913
0110010010100010100000100: 579305 541165 494228 491227 457712
0110010010100010100000100: 579305 541165 494228 491227 493005
0110010010100010100000100: 579305 541165 568206 532913 607304
0110010011100000100001000: 579305 541165 568206 491227 532913
0110010010100010100000100: 579305 541165 568206 491227 607304
0111110000100001000010000: 579305 541165 568093 568206 494228
0110010010100010100000100: 579305 541165 568093 532913 563520
0110010010100010100000100: 579305 541165 568093 532913 493005
0110010011100000100001000: 579305 541165 568093 491227 532913
0110010010100010100000100: 579305 541165 568093 491227 563520
0110010010100010100000100: 579305 541165 568093 491227 493005
0111110000100001000010000: 579305 541165 610247 568093 494228
0110010011100100110001000: 579305 541165 610247 532913 491227
0111110000100001000010000: 579305 541165 556484 568206 494228
0111110000100001000010000: 579305 541165 556484 568093 494228
0111110000100001000010000: 579305 541165 556484 568093 568206
0111110000100001000010000: 579305 541165 556484 610247 494228
0111110000100001000010000: 579305 541165 556484 610247 568093
0110010010100010100000100: 579305 541165 556484 532913 483793
0110010010100010100000100: 579305 541165 556484 532913 563520
0110010010100010100000100: 579305 541165 556484 532913 607304
0110010011100000100001000: 579305 541165 556484 491227 532913
0110010010100010100000100: 579305 541165 556484 491227 483793
0110010010100010100000100: 579305 541165 556484 491227 563520
0110010010100010100000100: 579305 541165 556484 491227 607304
0111110000100001000010000: 579305 541165 609562 556484 568206
0111110000100001000010000: 579305 541165 609562 556484 610247
0110010010100010100000100: 579305 541165 609562 532913 563520
0110010011100000100001000: 579305 541165 609562 491227 532913
0110010010100010100000100: 579305 541165 609562 491227 563520
0111110000100001000010000: 579305 541165 579862 568206 494228
0111110000100001000010000: 579305 541165 579862 568093 494228
0111110000100001000010000: 579305 541165 579862 568093 568206
0111110000100001000010000: 579305 541165 579862 610247 494228
0111110000100001000010000: 579305 541165 579862 610247 568093
0111110000100001000010000: 579305 541165 579862 556484 494228
0111110000100001000010000: 579305 541165 579862 556484 568206
0111110000100001000010000: 579305 541165 579862 556484 568093
0111110000100001000010000: 579305 541165 579862 556484 610247
0111110000100001000010000: 579305 541165 579862 609562 568206
0111110000100001000010000: 579305 541165 579862 609562 610247
0111110000100001000010000: 579305 541165 579862 609562 556484
0110010010100010100000100: 579305 541165 579862 532913 607304
0110010010100010100000100: 579305 541165 579862 532913 529294
0110010011100100110001000: 579305 541165 579862 491227 532913
0110010011100000100001000: 579862 607304 529294 556484 568206
0110010011100000100001000: 579862 607304 491227 556484 568206
0110010010100010100000100: 579862 529294 607304 607700 568206
0110010010100010100000100: 579862 529294 607304 607700 556484
0110010011100000100001000: 579862 529294 607304 528653 607700
0110010010100010100000100: 579862 529294 607304 528653 568206
0110010010100010100000100: 579862 529294 607304 528653 556484
0110010011100100110001000: 579862 529294 491227 607700 528653
0110010011100000100001000: 579862 529294 579305 528653 607700
0110010010100010100000100: 579862 491227 607304 636559 568206
0110010010100010100000100: 579862 491227 607304 636559 556484
0110010011100000100001000: 579862 491227 607304 607700 636559
0110010010100010100000100: 579862 491227 607304 607700 568206
0110010010100010100000100: 579862 491227 607304 607700 556484
0110010011100000100001000: 579862 491227 607304 541165 636559
0110010011100000100001000: 579862 491227 607304 541165 607700
0110010010100010100000100: 579862 491227 607304 541165 568206
0110010010100010100000100: 579862 491227 607304 541165 556484
0110010010100010100100110: 579862 491227 529294 636559 528653
0110010011100000100001000: 579862 491227 529294 541165 636559
0110010010100010100000100: 579862 491227 529294 541165 528653
0110010011100100110001000: 579862 491227 529294 607700 636559
0110010011100100110001000: 579862 491227 529294 607700 541165
0110010011100000100001000: 579862 491227 579305 607700 636559
0110010011100000100001000: 579862 579305 607304 568093 494228
0110010011100000100001000: 579862 579305 607304 610247 494228
0110010011100000100001000: 579862 579305 607304 610247 568093
0110010011100000100001000: 579862 579305 607304 609562 610247
0110010011100000100001000: 579862 579305 607304 541165 494228
0110010011100000100001000: 579862 579305 607304 541165 568093
0110010011100000100001000: 579862 579305 607304 541165 610247
0110010011100000100001000: 579862 579305 607304 541165 609562
0110010011100100110001000: 579862 579305 607304 568206 494228
0110010011100100110001000: 579862 579305 607304 568206 568093
0110010011100100110001000: 579862 579305 607304 568206 609562
0110010011100100110001000: 579862 579305 607304 568206 541165
0110010011100100110001000: 579862 579305 607304 556484 494228
0110010011100100110001000: 579862 579305 607304 556484 568093
0110010011100100110001000: 579862 579305 607304 556484 610247
0110010011100100110001000: 579862 579305 607304 556484 609562
0110010011100100110001000: 579862 579305 607304 556484 541165
0110010011100110110001100: 579862 579305 607304 556484 568206
0110010010100010100000100: 579862 579305 529294 494228 528653
0110010011100000100001000: 579862 579305 529294 568206 494228
0110010010100010100000100: 579862 579305 529294 568206 607700
0110010010100010100000100: 579862 579305 529294 568206 528653
0110010011100000100001000: 579862 579305 529294 568093 494228
0110010011100000100001000: 579862 579305 529294 568093 568206
0110010010100010100000100: 579862 579305 529294 568093 607700
0110010010100010100000100: 579862 579305 529294 568093 528653
0110010011100000100001000: 579862 579305 529294 610247 494228
0110010011100000100001000: 579862 579305 529294 610247 568093
0110010010100010100000100: 579862 579305 529294 610247 607700
0110010010100010100000100: 579862 579305 529294 610247 528653
0110010011100000100001000: 579862 579305 529294 556484 494228
0110010011100000100001000: 579862 579305 529294 556484 568206
0110010011100000100001000: 579862 579305 529294 556484 568093
0110010011100000100001000: 579862 579305 529294 556484 610247
0110010010100010100000100: 579862 579305 529294 556484 607700
0110010010100010100000100: 579862 579305 529294 556484 528653
0110010011100000100001000: 579862 579305 529294 609562 568206
0110010011100000100001000: 579862 579305 529294 609562 610247
0110010011100000100001000: 579862 579305 529294 609562 556484
0110010010100010100000100: 579862 579305 529294 609562 607700
0110010010100010100000100: 579862 579305 529294 609562 528653
0110010011100000100001000: 579862 579305 529294 541165 494228
0110010011100000100001000: 579862 579305 529294 541165 568206
0110010011100000100001000: 579862 579305 529294 541165 568093
0110010011100000100001000: 579862 579305 529294 541165 610247
0110010011100000100001000: 579862 579305 529294 541165 556484
0110010011100000100001000: 579862 579305 529294 541165 609562
0110010010100010100000100: 579862 579305 529294 541165 607700
0110010010100010100000100: 579862 579305 529294 541165 528653
0111110000100001000010000: 579862 579305 491227 529294 607304
0110010010100010100000100: 579862 579305 491227 494228 636559
0110010011100000100001000: 579862 579305 491227 568206 494228
0110010010100010100000100: 579862 579305 491227 568206 636559
0110010010100010100000100: 579862 579305 491227 568206 607700
0110010011100000100001000: 579862 579305 491227 568093 494228
0110010011100000100001000: 579862 579305 491227 568093 568206
0110010010100010100000100: 579862 579305 491227 568093 636559
0110010010100010100000100: 579862 579305 491227 568093 607700
0110010011100000100001000: 579862 579305 491227 610247 494228
0110010011100000100001000: 579862 579305 491227 610247 568093
0110010010100010100000100: 579862 579305 491227 610247 607700
0110010011100000100001000: 579862 579305 491227 556484 494228
0110010011100000100001000: 579862 579305 491227 556484 568206
0110010011100000100001000: 579862 579305 491227 556484 568093
0110010011100000100001000: 579862 579305 491227 556484 610247
0110010010100010100000100: 579862 579305 491227 556484 636559
0110010010100010100000100: 579862 579305 491227 556484 607700
0110010011100000100001000: 579862 579305 491227 609562 568206
0110010011100000100001000: 579862 579305 491227 609562 610247
0110010011100000100001000: 579862 579305 491227 609562 556484
0110010010100010100000100: 579862 579305 491227 609562 636559
0110010010100010100000100: 579862 579305 491227 609562 607700
0110010011100000100001000: 491227 636559 607700 528653 610247
0110010011100000100001000: 491227 636559 579862 528653 610247
0110010011100000100001000: 491227 636559 541165 528653 610247
0110010010100010100000100: 491227 607700 636559 494228 610247
0110010010100010100000100: 491227 607700 636559 494228 528653
0110010011100000100001000: 491227 607700 636559 529294 494228
0110010010100010100000100: 491227 607700 636559 529294 610247
0110010010100010100100110: 491227 607700 636559 529294 528653
0110010011100100110001000: 491227 607700 579862 529294 494228
0110010011100000100001000: 491227 607700 541165 529294 494228
0110010010100010100000100: 491227 579862 636559 607304 610247
0110010010100010100000100: 491227 579862 636559 607304 528653
0110010011100000100001000: 491227 579862 636559 529294 607304
0110010010100010100000100: 491227 579862 636559 529294 610247
0110010011100000100001000: 491227 579862 636559 579305 607304
0110010011100000100001000: 491227 579862 636559 579305 529294
0110010010100010100000100: 491227 579862 636559 579305 528653
0110010010100010100000100: 491227 579862 607700 607304 494228
0110010011100000100001000: 491227 579862 607700 579305 607304
0110010011100100110001000: 491227 579862 607700 529294 607304
0110010011100100110001000: 491227 579862 607700 529294 579305
0110010011100000100001000: 491227 579862 541165 529294 607304
0110010010100010100000100: 491227 541165 636559 532913 528653
0110010011100000100001000: 491227 541165 636559 579305 532913
0110010010100010100000100: 491227 541165 636559 579305 528653
0110010010100010100000100: 491227 541165 607700 532913 494228
0110010010100010100000100: 491227 541165 607700 532913 529294
0110010011100000100001000: 491227 541165 607700 579305 532913
0110010010100010100000100: 491227 541165 607700 579305 529294
0111110000100001000010000: 491227 541165 579862 607700 636559
0110010010100010100000100: 491227 541165 579862 532913 607304
0110010010100010100000100: 491227 541165 579862 532913 529294
0110010011100000100001000: 609562 494228 568093 607700 457712
0110010011100000100001000: 609562 494228 563520 607700 457712
0110010011100000100001000: 609562 494228 563520 493005 457712
0110010011100000100001000: 609562 494228 563520 493005 607700
0111010101110001000001000: 609562 494228 579305 563520 457712
0111010101110001000001000: 609562 494228 579305 563520 607700
0111010101110001000001000: 609562 494228 579305 563520 493005
0111010101110001000101010: 609562 568093 563520 494228 493005
0111010110110011100000100: 609562 568093 579305 563520 568206
0111010110110011100000100: 609562 568093 579305 563520 610247
0111010110110011100000100: 609562 568093 579305 563520 579862
0111010110110011100000100: 609562 568093 579305 563520 541165
0111010110110011100100110: 609562 568093 579305 563520 556484
0110010010100010100000100: 609562 563520 494228 556484 457712
0110010010100010100000100: 609562 563520 494228 556484 607700
0110010010100010100000100: 609562 563520 494228 556484 493005
0111010101110001000001000: 609562 563520 568093 494228 556484
0111010100110001000100010: 609562 563520 568093 494228 457712
0111010100110001000100010: 609562 563520 568093 494228 607700
0110010011100000100001000: 609562 579305 563520 579862 568206
0110010011100000100001000: 609562 579305 563520 579862 610247
0110010011100000100001000: 609562 579305 563520 541165 568206
0110010011100000100001000: 609562 579305 563520 541165 610247
0110010011100000100001000: 609562 579305 563520 541165 579862
0110010011100100110001000: 609562 579305 563520 556484 568206
0110010011100100110001000: 609562 579305 563520 556484 610247
0110010011100100110001000: 609562 579305 563520 556484 579862
0110010011100100110001000: 609562 579305 563520 556484 541165
0111110110110011100010100: 609562 579305 568093 494228 563520
0110010011100000100001000: 528653 636559 529294 491227 610247
0110010010100010100000100: 528653 529294 636559 607700 610247
0110010011100000100001000: 528653 529294 636559 579862 607700
0110010010100010100000100: 528653 529294 636559 579862 610247
0110010011100000100001000: 529294 607700 528653 491227 494228
0110010010100010100000100: 529294 528653 607700 636559 494228
0110010010100010100000100: 529294 579862 607700 607304 494228
0110010011100000100001000: 529294 579862 607700 579305 607304
0110010010100010100000100: 529294 579862 528653 607304 636559
0110010011100000100001000: 529294 579862 528653 491227 607304
0110010011100000100001000: 529294 579862 528653 579305 607304
0110010011100000100001000: 529294 579862 528653 579305 491227
0110010010100010100000100: 529294 579862 528653 579305 636559
0110010011100000100001000: 532913 610247 494369 568206 636559
0110010011100000100001000: 532913 610247 494369 579305 636559
0110010011100000100001000: 532913 610247 541165 568206 636559
0110010010100010100000100: 532913 494369 610247 457712 636559
0110010010100010100000100: 532913 494369 610247 457712 568206
0110010010100010100000100: 532913 494369 610247 457712 579305
0110010010100010100000100: 532913 541165 610247 491227 568206
0110010010100010100000100: 532913 541165 494369 491227 457712
0110010011100000100001000: 532913 541165 494369 579305 491227
0110010010100010100000100: 532913 541165 494369 579305 457712
0110010010100010100000100: 494369 532913 457712 610247 494228
0110010011100000100001000: 494369 532913 457712 541165 610247
0110010010100010100000100: 494369 532913 457712 541165 494228
0110010011100000100001000: 607700 494228 529294 609562 457712
0110010011100000100001000: 607700 494228 529294 579305 457712
0110010011100000100001000: 607700 494228 529294 493005 457712
0110010011100000100001000: 607700 494228 529294 493005 609562
0110010011100000100001000: 607700 494228 529294 493005 579305
0110010011100000100001000: 607700 494228 491227 609562 457712
0110010011100000100001000: 607700 494228 491227 579305 457712
0110010011100000100001000: 607700 494228 491227 493005 457712
0110010011100000100001000: 607700 494228 491227 493005 609562
0110010011100000100001000: 607700 494228 491227 493005 579305
0110010010100010100000100: 607700 529294 494228 528653 457712
0110010010100010100000100: 607700 529294 494228 528653 609562
0110010010100010100000100: 607700 529294 494228 528653 579305
0110010010100010100000100: 607700 529294 494228 528653 493005
0110010011100000100001000: 607700 529294 494228 579862 528653
0110010010100010100000100: 607700 529294 494228 579862 457712
0110010010100010100000100: 607700 529294 494228 579862 609562
0110010010100010100000100: 607700 529294 494228 579862 493005
0110010010100010100000100: 607700 491227 494228 636559 457712
0110010010100010100000100: 607700 491227 494228 636559 609562
0110010010100010100000100: 607700 491227 494228 636559 579305
0110010010100010100000100: 607700 491227 494228 636559 493005
0110010011100000100001000: 607700 491227 494228 579862 636559
0110010010100010100000100: 607700 491227 494228 579862 457712
0110010010100010100000100: 607700 491227 494228 579862 609562
0110010010100010100000100: 607700 491227 494228 579862 493005
0110010011100000100001000: 607700 491227 494228 541165 636559
0110010011100000100001000: 607700 491227 494228 541165 579862
0110010010100010100000100: 607700 491227 494228 541165 457712
0110010010100010100000100: 607700 491227 494228 541165 609562
0110010010100010100000100: 607700 491227 494228 541165 493005
0110010011100000100001000: 607700 491227 529294 541165 636559
0110010010100010100000100: 607700 491227 529294 541165 528653
0110010011100000100001000: 556484 483793 563520 617011 541425
0110010011100000100001000: 556484 483793 607304 617011 541425
0110010011100000100001000: 556484 483793 579305 617011 541425
0110010010100010100000100: 556484 563520 483793 568093 541425
0110010010100010100000100: 556484 563520 483793 568093 617011
0110010010100010100000100: 556484 563520 483793 609562 541425
0110010010100010100000100: 556484 563520 483793 609562 617011
0110010010100010100000100: 556484 607304 483793 568206 541425
0110010010100010100000100: 556484 607304 483793 568206 617011
0110010011100000100001000: 556484 607304 483793 579862 568206
0110010010100010100000100: 556484 607304 483793 579862 541425
0110010010100010100000100: 556484 607304 483793 579862 617011
0110010010100010100000100: 556484 607304 563520 568206 568093
0110010010100010100000100: 556484 607304 563520 568206 609562
0110010011100000100001000: 556484 607304 563520 579862 568206
0110010010100010100000100: 556484 607304 563520 579862 568093
0110010010100010100000100: 556484 607304 563520 579862 609562
0110010010100010100000100: 556484 579305 483793 494228 541425
0110010010100010100000100: 556484 579305 483793 494228 617011
0110010011100000100001000: 556484 579305 483793 568206 494228
0110010010100010100000100: 556484 579305 483793 568206 541425
0110010010100010100000100: 556484 579305 483793 568206 617011
0110010011100000100001000: 556484 579305 483793 568093 494228
0110010011100000100001000: 556484 579305 483793 568093 568206
0110010010100010100000100: 556484 579305 483793 568093 541425
0110010010100010100000100: 556484 579305 483793 568093 617011
0110010011100000100001000: 556484 579305 483793 610247 494228
0110010011100000100001000: 556484 579305 483793 610247 568093
0110010010100010100000100: 556484 579305 483793 610247 541425
0110010010100010100000100: 556484 579305 483793 610247 617011
0110010011100000100001000: 556484 579305 483793 609562 568206
0110010011100000100001000: 556484 579305 483793 609562 610247
0110010010100010100000100: 556484 579305 483793 609562 541425
0110010010100010100000100: 556484 579305 483793 609562 617011
0110010011100000100001000: 556484 579305 483793 579862 494228
0110010011100000100001000: 556484 579305 483793 579862 568206
0110010011100000100001000: 556484 579305 483793 579862 568093
0110010011100000100001000: 556484 579305 483793 579862 610247
0110010011100000100001000: 556484 579305 483793 579862 609562
0110010010100010100000100: 556484 579305 483793 579862 541425
0110010010100010100000100: 556484 579305 483793 579862 617011
0110010011100000100001000: 556484 579305 483793 541165 494228
0110010011100000100001000: 556484 579305 483793 541165 568206
0110010011100000100001000: 556484 579305 483793 541165 568093
0110010011100000100001000: 556484 579305 483793 541165 610247
0110010011100000100001000: 556484 579305 483793 541165 609562
0110010011100000100001000: 556484 579305 483793 541165 579862
0110010010100010100000100: 556484 579305 483793 541165 541425
0110010010100010100000100: 556484 579305 483793 541165 617011
0110010011100000100001000: 556484 579305 563520 568206 494228
0110010011100000100001000: 556484 579305 563520 610247 494228
0110010011100000100001000: 556484 579305 563520 579862 494228
0110010011100000100001000: 556484 579305 563520 579862 568206
0110010011100000100001000: 556484 579305 563520 579862 610247
0110010011100000100001000: 556484 579305 563520 541165 494228
0110010011100000100001000: 556484 579305 563520 541165 568206
0110010011100000100001000: 556484 579305 563520 541165 610247
0110010011100000100001000: 556484 579305 563520 541165 579862
0110010011100100110001000: 556484 579305 563520 568093 494228
0110010011100100110001000: 556484 579305 563520 568093 568206
0110010011100100110001000: 556484 579305 563520 568093 610247
0110010011100100110001000: 556484 579305 563520 568093 579862
0110010011100100110001000: 556484 579305 563520 568093 541165
0111110000100001000010000: 556484 579305 607304 563520 483793
0110010011100000100001000: 556484 579305 607304 568093 494228
0110010011100000100001000: 556484 579305 607304 610247 494228
0110010011100000100001000: 556484 579305 607304 610247 568093
0110010011100000100001000: 556484 579305 607304 609562 610247
0110010011100000100001000: 556484 579305 607304 541165 494228
0110010011100000100001000: 556484 579305 607304 541165 568093
0110010011100000100001000: 556484 579305 607304 541165 610247
0110010011100000100001000: 556484 579305 607304 541165 609562
0110010011100100110001000: 556484 579305 607304 568206 494228
0110010011100100110001000: 556484 579305 607304 568206 568093
0110010011100100110001000: 556484 579305 607304 568206 609562
0110010011100100110001000: 556484 579305 607304 568206 541165
0110010010100010100000100: 607304 556484 568206 483793 610247
0110010011100000100001000: 607304 556484 568206 563520 483793
0110010010100010100000100: 607304 556484 568206 563520 610247
0110010011100000100001000: 607304 556484 579862 563520 483793
0110010010100010100000100: 607304 579862 568206 529294 610247
0110010011100000100001000: 607304 579862 568206 491227 529294
0110010010100010100000100: 607304 579862 568206 491227 610247
0110010010100010100000100: 607304 579862 556484 529294 483793
0110010010100010100000100: 607304 579862 556484 529294 563520
0110010011100000100001000: 607304 579862 556484 491227 529294
0110010010100010100000100: 607304 579862 556484 491227 483793
0110010010100010100000100: 607304 579862 556484 491227 563520
0110010011100000100001000: 610247 636559 568206 491227 528653
0110010011100000100001000: 610247 636559 532913 491227 528653
0110010011100000100001000: 610247 636559 579305 491227 528653
0110010010100010100000100: 610247 568206 636559 607304 528653
0110010010100010100000100: 610247 568206 636559 607304 491227
0111010101110001000001000: 610247 568206 579305 636559 607304
0111010101110001000001000: 610247 568206 579305 532913 607304
0110010010100010100000100: 610247 532913 636559 494369 528653
0110010010100010100000100: 610247 532913 636559 494369 491227
0110010011100000100001000: 610247 532913 636559 541165 494369
0110010010100010100000100: 610247 532913 636559 541165 528653
0110010010100010100000100: 610247 532913 568206 494369 607304
0110010011100000100001000: 610247 532913 568206 541165 494369
0110010010100010100000100: 610247 532913 568206 541165 607304
0110010010100010100000100: 610247 579305 636559 494228 528653
0110010010100010100000100: 610247 579305 636559 494228 491227
0110010011100000100001000: 610247 579305 636559 568093 494228
0110010010100010100000100: 610247 579305 636559 568093 528653
0110010010100010100000100: 610247 579305 636559 568093 491227
0110010011100000100001000: 610247 579305 636559 556484 494228
0110010011100000100001000: 610247 579305 636559 556484 568093
0110010010100010100000100: 610247 579305 636559 556484 528653
0110010010100010100000100: 610247 579305 636559 556484 491227
0110010011100000100001000: 610247 579305 636559 609562 556484
0110010010100010100000100: 610247 579305 636559 609562 528653
0110010010100010100000100: 610247 579305 636559 609562 491227
0110010011100000100001000: 610247 579305 636559 579862 494228
0110010011100000100001000: 610247 579305 636559 579862 568093
0110010011100000100001000: 610247 579305 636559 579862 556484
0110010011100000100001000: 610247 579305 636559 579862 609562
0110010010100010100000100: 610247 579305 636559 579862 528653
0110010011100000100001000: 610247 579305 636559 541165 494228
0110010011100000100001000: 610247 579305 636559 541165 568093
0110010011100000100001000: 610247 579305 636559 541165 556484
0110010011100000100001000: 610247 579305 636559 541165 609562
0110010011100000100001000: 610247 579305 636559 541165 579862
0110010010100010100000100: 610247 579305 636559 541165 528653
0110010010100010100000100: 610247 579305 532913 494228 494369
0110010011100000100001000: 610247 579305 532913 568093 494228
0110010010100010100000100: 610247 579305 532913 568093 494369
0110010011100000100001000: 610247 579305 532913 556484 494228
0110010011100000100001000: 610247 579305 532913 556484 568093
0110010010100010100000100: 610247 579305 532913 556484 494369
0110010011100000100001000: 610247 579305 532913 609562 556484
0110010010100010100000100: 610247 579305 532913 609562 494369
0110010011100000100001000: 610247 579305 532913 579862 494228
0110010011100000100001000: 610247 579305 532913 579862 568093
0110010011100000100001000: 610247 579305 532913 579862 556484
0110010011100000100001000: 610247 579305 532913 579862 609562
0110010010100010100000100: 610247 579305 532913 579862 494369
0111010100110001000100010: 610247 579305 568206 636559 528653
0111010100110001000100010: 610247 579305 568206 636559 491227
0111110100110001000010000: 610247 579305 568206 532913 636559
0111010100110001000100010: 610247 579305 568206 532913 494369
0111010101110001000001000: 563520 568093 609562 556484 493005
0110010010100010100000100: 563520 556484 568093 483793 493005
0110010011100000100001000: 563520 556484 568093 607304 483793
0110010010100010100000100: 563520 556484 568093 607304 493005
0110010011100000100001000: 563520 556484 609562 607304 483793
0110010010100010100000100: 563520 609562 556484 494228 483793
0110010010100010100000100: 563520 609562 556484 494228 607304
0111010100110001000100010: 563520 609562 568093 556484 483793
0111010100110001000100010: 563520 609562 568093 556484 607304
0111010100110001000100010: 568093 609562 563520 493005 601323
0111110110110001100010000: 568093 609562 579305 563520 493005
0110010011100000100001000: 568093 579305 563520 568206 494228
0110010011100000100001000: 568093 579305 563520 610247 494228
0110010011100000100001000: 568093 579305 563520 579862 494228
0110010011100000100001000: 568093 579305 563520 579862 568206
0110010011100000100001000: 568093 579305 563520 579862 610247
0110010011100000100001000: 568093 579305 563520 541165 494228
0110010011100000100001000: 568093 579305 563520 541165 568206
0110010011100000100001000: 568093 579305 563520 541165 610247
0110010011100000100001000: 568093 579305 563520 541165 579862
0110010011100000100001000: 568093 579305 493005 556484 568206
0110010011100000100001000: 568093 579305 493005 556484 610247
0110010011100000100001000: 568093 579305 493005 579862 568206
0110010011100000100001000: 568093 579305 493005 579862 610247
0110010011100000100001000: 568093 579305 493005 579862 556484
0110010011100000100001000: 568093 579305 493005 541165 568206
0110010011100000100001000: 568093 579305 493005 541165 610247
0110010011100000100001000: 568093 579305 493005 541165 556484
0110010011100000100001000: 568093 579305 493005 541165 579862
0110010011100100110001000: 568093 579305 493005 494228 568206
0110010011100100110001000: 568093 579305 493005 494228 610247
0110010011100100110001000: 568093 579305 493005 494228 556484
0110010011100100110001000: 568093 579305 493005 494228 579862
0110010011100100110001000: 568093 579305 493005 494228 541165
0111010100110001000100010: 568093 579305 609562 493005 601323
0110010010100010100000100: 568093 493005 563520 494228 556484
0110010011100000100001000: 568093 493005 563520 601323 494228
0110010010100010100000100: 568093 493005 563520 601323 556484
0110010011100100110001000: 568093 493005 609562 494228 601323
0110010010100010100000100: 568093 493005 579305 601323 568206
0110010010100010100000100: 568093 493005 579305 601323 610247
0110010010100010100000100: 568093 493005 579305 601323 556484
0110010010100010100000100: 568093 493005 579305 601323 579862
0110010010100010100000100: 568093 493005 579305 601323 541165
0110010011100100110001000: 568093 493005 579305 494228 601323
0110010010100010100000100: 483793 556484 541425 563520 499460
0110010011100000100001000: 483793 556484 541425 607304 563520
0110010010100010100000100: 483793 556484 541425 607304 499460
0110010011100000100001000: 483793 556484 541425 579305 563520
0110010011100000100001000: 483793 556484 541425 579305 607304
0110010010100010100000100: 483793 556484 541425 579305 499460
0110010011100000100001000: 483793 556484 617011 607304 563520
0110010011100000100001000: 483793 556484 617011 579305 563520
0110010011100000100001000: 483793 556484 617011 579305 607304
0110010010100010100000100: 483793 617011 541425 601323 499460
0110010010100010100000100: 483793 617011 556484 601323 563520
0110010010100010100000100: 483793 617011 556484 601323 607304
0110010010100010100000100: 483793 617011 556484 601323 579305
0110010011100000100001000: 541425 483793 499460 617011 556484
0110010011100000100001000: 568206 610247 607304 532913 636559
0110010010100010100000100: 568206 607304 610247 556484 636559
0110010010100010100000100: 568206 607304 610247 556484 532913
0110010011100000100001000: 568206 607304 610247 579862 556484
0110010010100010100000100: 568206 607304 610247 579862 636559
0110010010100010100000100: 568206 607304 610247 579862 532913
0110010011100000100001000: 568206 579305 607304 568093 494228
0110010011100000100001000: 568206 579305 607304 541165 494228
0110010011100000100001000: 568206 579305 607304 541165 568093
0110010011100000100001000: 568206 579305 607304 541165 609562
0110010010100010100000100: 494228 607700 457712 529294 494369
0110010011100000100001000: 494228 607700 457712 491227 529294
0110010010100010100000100: 494228 607700 457712 491227 494369
0110010011100000100001000: 494228 607700 609562 491227 529294
0110010011100000100001000: 494228 607700 579305 491227 529294
0110010011100000100001000: 494228 607700 493005 491227 529294
0110010010100010100000100: 494228 609562 457712 568093 494369
0110010010100010100000100: 494228 609562 457712 563520 494369
0110010010100010100000100: 494228 609562 607700 568093 529294
0110010010100010100000100: 494228 609562 607700 568093 491227
0110010010100010100000100: 494228 609562 607700 563520 529294
0110010010100010100000100: 494228 609562 607700 563520 491227
0110010010100010100000100: 494228 579305 457712 568206 494369
0110010011100000100001000: 494228 579305 457712 568093 568206
0110010010100010100000100: 494228 579305 457712 568093 494369
0110010011100000100001000: 494228 579305 457712 610247 568093
0110010010100010100000100: 494228 579305 457712 610247 494369
0110010011100000100001000: 494228 579305 457712 556484 568206
0110010011100000100001000: 494228 579305 457712 556484 568093
0110010011100000100001000: 494228 579305 457712 556484 610247
0110010010100010100000100: 494228 579305 457712 556484 494369
0110010011100000100001000: 494228 579305 457712 579862 568206
0110010011100000100001000: 494228 579305 457712 579862 568093
0110010011100000100001000: 494228 579305 457712 579862 610247
0110010011100000100001000: 494228 579305 457712 579862 556484
0110010010100010100000100: 494228 579305 457712 579862 494369
0110010011100000100001000: 494228 579305 457712 541165 568206
0110010011100000100001000: 494228 579305 457712 541165 568093
0110010011100000100001000: 494228 579305 457712 541165 610247
0110010011100000100001000: 494228 579305 457712 541165 556484
0110010011100000100001000: 494228 579305 457712 541165 579862
0110010010100010100000100: 494228 579305 457712 541165 494369
0110010010100010100000100: 494228 579305 607700 568206 529294
0110010010100010100000100: 494228 579305 607700 568206 491227
0110010011100000100001000: 494228 579305 607700 568093 568206
0110010010100010100000100: 494228 579305 607700 568093 529294
0110010010100010100000100: 494228 579305 607700 568093 491227
0110010011100000100001000: 494228 579305 607700 610247 568093
0110010010100010100000100: 494228 579305 607700 610247 529294
0110010010100010100000100: 494228 579305 607700 610247 491227
0110010011100000100001000: 494228 579305 607700 556484 568206
0110010011100000100001000: 494228 579305 607700 556484 568093
0110010011100000100001000: 494228 579305 607700 556484 610247
0110010010100010100000100: 494228 579305 607700 556484 529294
0110010010100010100000100: 494228 579305 607700 556484 491227
0110010011100000100001000: 494228 579305 607700 579862 568206
0110010011100000100001000: 494228 579305 607700 579862 568093
0110010011100000100001000: 494228 579305 607700 579862 610247
0110010011100000100001000: 494228 579305 607700 579862 556484
0110010011100000100001000: 494228 579305 607700 541165 568206
0110010011100000100001000: 494228 579305 607700 541165 568093
0110010011100000100001000: 494228 579305 607700 541165 610247
0110010011100000100001000: 494228 579305 607700 541165 556484
0110010011100000100001000: 494228 579305 607700 541165 579862
0110010010100010100000100: 494228 579305 607700 541165 529294
0110010011100000100001000: 494228 579305 493005 556484 568206
0110010011100000100001000: 494228 579305 493005 556484 610247
0110010011100000100001000: 494228 579305 493005 579862 568206
0110010011100000100001000: 494228 579305 493005 579862 610247
0110010011100000100001000: 494228 579305 493005 579862 556484
0110010011100000100001000: 494228 579305 493005 541165 568206
0110010011100000100001000: 494228 579305 493005 541165 610247
0110010011100000100001000: 494228 579305 493005 541165 556484
0110010011100000100001000: 494228 579305 493005 541165 579862
0111010100110001000100010: 494228 579305 609562 457712 494369
0111110100110001000010000: 494228 579305 609562 607700 457712
0111010100110001000100010: 494228 579305 609562 607700 529294
0111010100110001000100010: 494228 579305 609562 607700 491227
0111110100110001000010000: 494228 579305 609562 493005 457712
0111110100110001000010000: 494228 579305 609562 493005 607700
0111010100110001000100010: 494228 579305 609562 493005 601323
0110010010100010100000100: 494228 493005 457712 568093 494369
0110010011100000100001000: 494228 493005 457712 601323 568093
0110010010100010100000100: 494228 493005 457712 601323 494369
0110010010100010100000100: 494228 493005 607700 568093 529294
0110010010100010100000100: 494228 493005 607700 568093 491227
0110010011100000100001000: 494228 493005 607700 601323 568093
0110010010100010100000100: 494228 493005 607700 601323 529294
0110010010100010100000100: 494228 493005 607700 601323 491227
0111110000100001000010000: 494228 493005 609562 607700 457712
0110010010100010100000100: 494228 493005 609562 601323 563520
0111110000100001000010000: 494228 493005 579305 607700 457712
0110010010100010100000100: 494228 493005 579305 601323 568206
0110010010100010100000100: 494228 493005 579305 601323 610247
0110010010100010100000100: 494228 493005 579305 601323 556484
0110010010100010100000100: 494228 493005 579305 601323 579862
0110010010100010100000100: 494228 493005 579305 601323 541165
0110010011100000100001000: 636559 610247 528653 532913 568206
0110010011100000100001000: 636559 610247 528653 579305 532913
0110010011100000100001000: 636559 610247 491227 532913 568206
0110010011100000100001000: 636559 610247 491227 579305 532913
0110010010100010100000100: 636559 528653 610247 529294 568206
0110010010100010100000100: 636559 528653 610247 529294 532913
0110010010100010100000100: 636559 528653 610247 529294 579305
0110010010100010100000100: 636559 491227 610247 607700 568206
0110010010100010100000100: 636559 491227 610247 607700 532913
0110010010100010100000100: 636559 491227 610247 607700 579305
0110010011100000100001000: 636559 491227 610247 579862 607700
0110010010100010100000100: 636559 491227 610247 579862 568206
0110010010100010100000100: 636559 491227 610247 579862 532913
0110010011100000100001000: 636559 491227 610247 541165 607700
0110010011100000100001000: 636559 491227 610247 541165 579862
0110010010100010100000100: 636559 491227 610247 541165 568206
0110010011100000100001000: 636559 491227 528653 579862 607700
0110010011100000100001000: 636559 491227 528653 541165 607700
0110010011100000100001000: 636559 491227 528653 541165 579862
0110010010100010100000100: 636559 491227 528653 541165 529294
0110010011100000100001000: 457712 494228 494369 609562 607700
0110010011100000100001000: 457712 494228 494369 579305 607700
0110010011100000100001000: 457712 494228 494369 493005 607700
0110010011100000100001000: 457712 494228 494369 493005 609562
0110010011100000100001000: 457712 494228 494369 493005 579305
0110010010100010100000100: 457712 494369 494228 532913 607700
0110010010100010100000100: 457712 494369 494228 532913 609562
0110010010100010100000100: 457712 494369 494228 532913 579305
0110010010100010100000100: 457712 494369 494228 532913 493005
