Vertex,0111110110110101110010000,0111010110110011100100110,0111110111110111110011100,0111110111110101110011000,0111110100110001000110010,0111010101110001000001000,0111110100110001000010000,0110010011100100110001000,0111110000100001000010000,0110010010100010100000100,0110010011100110110001100,0111110110110011100010100,0111110110110011100110110,0111110110110001100010000,0111010110110011100000100,0111010101110001000101010,0111010100110001000100010,0111110111110001100011000,0110010011100000100001000,0110010010100010100100110
476010,4.0,4.0,0.0,0.0,9.0,69.0,68.0,36.0,31.0,58.0,3.0,2.0,0.0,26.0,9.0,16.0,20.0,0.0,138.0,2.0
551023,14.0,15.0,2.0,14.0,32.0,244.0,180.0,68.0,58.0,104.0,4.0,43.0,1.0,131.0,61.0,39.0,92.0,9.0,297.0,5.0
620787,17.0,12.0,2.0,8.0,7.0,151.0,74.0,70.0,19.0,125.0,4.0,20.0,0.0,47.0,31.0,45.0,57.0,3.0,204.0,5.0
512506,8.0,9.0,1.0,8.0,8.0,118.0,80.0,60.0,61.0,72.0,3.0,10.0,0.0,63.0,17.0,18.0,24.0,8.0,200.0,2.0
499154,2.0,1.0,0.0,2.0,13.0,89.0,70.0,14.0,26.0,45.0,0.0,11.0,0.0,48.0,10.0,5.0,26.0,1.0,104.0,0.0
472435,3.0,2.0,0.0,0.0,8.0,60.0,61.0,25.0,26.0,70.0,0.0,3.0,0.0,20.0,13.0,11.0,30.0,0.0,117.0,3.0
495328,2.0,1.0,0.0,2.0,9.0,77.0,66.0,22.0,53.0,89.0,1.0,9.0,1.0,54.0,19.0,8.0,40.0,4.0,205.0,1.0
493539,2.0,1.0,0.0,2.0,9.0,61.0,66.0,21.0,53.0,43.0,1.0,9.0,1.0,53.0,16.0,8.0,25.0,4.0,169.0,0.0
538901,31.0,12.0,3.0,20.0,14.0,204.0,106.0,37.0,20.0,76.0,2.0,38.0,1.0,112.0,71.0,22.0,79.0,10.0,169.0,1.0
457461,4.0,5.0,0.0,0.0,12.0,72.0,70.0,47.0,19.0,77.0,4.0,6.0,1.0,30.0,13.0,20.0,40.0,0.0,142.0,2.0
575753,31.0,13.0,3.0,20.0,11.0,220.0,108.0,64.0,57.0,145.0,3.0,35.0,2.0,130.0,75.0,26.0,69.0,12.0,334.0,4.0
564950,14.0,13.0,3.0,11.0,7.0,159.0,90.0,68.0,55.0,106.0,4.0,32.0,1.0,105.0,60.0,22.0,46.0,8.0,276.0,2.0
567823,2.0,1.0,0.0,1.0,13.0,78.0,74.0,14.0,21.0,50.0,0.0,10.0,0.0,33.0,17.0,9.0,25.0,0.0,129.0,0.0
596651,3.0,6.0,0.0,1.0,1.0,78.0,26.0,41.0,9.0,62.0,3.0,5.0,0.0,13.0,20.0,11.0,24.0,0.0,161.0,2.0
545788,9.0,2.0,1.0,5.0,6.0,103.0,49.0,26.0,28.0,72.0,0.0,10.0,0.0,38.0,22.0,19.0,39.0,4.0,178.0,3.0
559851,0.0,0.0,0.0,4.0,3.0,66.0,40.0,25.0,33.0,45.0,0.0,9.0,1.0,35.0,27.0,2.0,31.0,6.0,176.0,1.0
490544,2.0,0.0,0.0,2.0,3.0,77.0,33.0,22.0,9.0,104.0,0.0,13.0,1.0,25.0,28.0,4.0,41.0,1.0,170.0,3.0
617589,3.0,3.0,0.0,0.0,0.0,63.0,19.0,27.0,8.0,41.0,3.0,0.0,0.0,9.0,15.0,5.0,10.0,0.0,143.0,0.0
512162,4.0,0.0,0.0,0.0,0.0,54.0,30.0,10.0,29.0,73.0,0.0,0.0,0.0,21.0,7.0,0.0,28.0,0.0,160.0,4.0
654151,0.0,0.0,0.0,0.0,0.0,11.0,0.0,1.0,0.0,77.0,0.0,0.0,0.0,1.0,4.0,0.0,25.0,0.0,60.0,3.0
489113,0.0,0.0,0.0,0.0,0.0,16.0,0.0,2.0,0.0,59.0,0.0,0.0,0.0,1.0,5.0,0.0,15.0,0.0,52.0,1.0
632805,0.0,0.0,0.0,0.0,0.0,0.0,0.0,0.0,0.0,52.0,0.0,0.0,0.0,0.0,0.0,0.0,14.0,0.0,36.0,1.0
graph,31.0,20.0,3.0,20.0,33.0,414.0,262.0,140.0,123.0,329.0,7.0,53.0,2.0,199.0,108.0,58.0,160.0,14.0,724.0,9.0
