Vertex,0111100010001000,0101101001011010,0111100110011110,0101101101011110,0110101111000100,0111100110001100,0110100010010010,0100101001010010,0111101011001000,0110101011010010,0110100110000100,0100101101000100,0111101011011010,0101101001001000,0110100110010110,0111101111001100,0101101101001100,0110101111010110,0111101111011110,0111100010011010
554368,709.0,43.0,8.0,3.0,483.0,297.0,348.0,38.0,1070.0,317.0,670.0,8.0,285.0,186.0,105.0,396.0,74.0,234.0,775.0,174.0
563259,413.0,0.0,5.0,0.0,167.0,108.0,212.0,22.0,384.0,101.0,443.0,4.0,106.0,106.0,0.0,144.0,22.0,80.0,155.0,60.0
564617,262.0,0.0,9.0,2.0,222.0,142.0,117.0,0.0,534.0,118.0,236.0,0.0,153.0,48.0,0.0,198.0,20.0,117.0,310.0,88.0
548828,304.0,27.0,0.0,0.0,52.0,26.0,145.0,23.0,130.0,26.0,258.0,4.0,0.0,67.0,70.0,0.0,0.0,0.0,0.0,26.0
537713,382.0,48.0,0.0,0.0,198.0,116.0,192.0,32.0,438.0,132.0,366.0,8.0,60.0,106.0,105.0,90.0,28.0,50.0,155.0,74.0
567500,360.0,32.0,4.0,2.0,136.0,80.0,149.0,18.0,321.0,78.0,269.0,4.0,96.0,75.0,70.0,126.0,12.0,84.0,155.0,56.0
543618,256.0,0.0,0.0,0.0,52.0,26.0,80.0,6.0,130.0,26.0,167.0,0.0,0.0,42.0,0.0,0.0,0.0,0.0,0.0,26.0
630736,328.0,11.0,0.0,0.0,186.0,108.0,123.0,12.0,417.0,120.0,238.0,0.0,60.0,68.0,35.0,90.0,24.0,50.0,155.0,72.0
550435,263.0,0.0,6.0,2.0,174.0,100.0,95.0,6.0,418.0,94.0,181.0,0.0,112.0,45.0,0.0,144.0,12.0,94.0,310.0,76.0
561428,485.0,27.0,6.0,3.0,465.0,295.0,314.0,41.0,1020.0,309.0,598.0,6.0,257.0,168.0,70.0,360.0,78.0,214.0,775.0,160.0
465161,240.0,0.0,3.0,2.0,78.0,46.0,62.0,0.0,190.0,40.0,158.0,0.0,45.0,36.0,0.0,54.0,4.0,37.0,0.0,34.0
531256,45.0,0.0,0.0,0.0,30.0,24.0,84.0,14.0,63.0,22.0,177.0,4.0,0.0,40.0,0.0,0.0,8.0,0.0,0.0,6.0
493564,335.0,11.0,11.0,2.0,171.0,104.0,165.0,18.0,399.0,99.0,329.0,2.0,158.0,74.0,35.0,198.0,18.0,124.0,310.0,68.0
572528,45.0,0.0,0.0,0.0,30.0,24.0,84.0,14.0,63.0,22.0,177.0,4.0,0.0,40.0,0.0,0.0,8.0,0.0,0.0,6.0
576666,62.0,16.0,0.0,0.0,26.0,18.0,115.0,18.0,49.0,22.0,228.0,6.0,0.0,61.0,35.0,0.0,8.0,0.0,0.0,6.0
595269,63.0,11.0,0.0,0.0,44.0,34.0,139.0,21.0,91.0,32.0,254.0,4.0,0.0,61.0,35.0,0.0,12.0,0.0,0.0,10.0
650294,62.0,32.0,0.0,0.0,56.0,42.0,153.0,28.0,112.0,44.0,276.0,8.0,0.0,77.0,70.0,0.0,16.0,0.0,0.0,12.0
474225,0.0,0.0,0.0,0.0,0.0,0.0,71.0,14.0,0.0,0.0,118.0,0.0,0.0,28.0,0.0,0.0,0.0,0.0,0.0,0.0
531130,0.0,11.0,0.0,0.0,36.0,24.0,102.0,12.0,63.0,36.0,182.0,0.0,0.0,52.0,35.0,0.0,12.0,0.0,0.0,6.0
511520,199.0,11.0,0.0,0.0,69.0,45.0,81.0,12.0,148.0,45.0,147.0,2.0,0.0,42.0,35.0,0.0,14.0,0.0,0.0,24.0
513887,199.0,0.0,0.0,0.0,69.0,45.0,82.0,10.0,148.0,45.0,167.0,2.0,0.0,42.0,0.0,0.0,14.0,0.0,0.0,24.0
550028,0.0,0.0,0.0,0.0,0.0,0.0,70.0,18.0,0.0,0.0,111.0,0.0,0.0,26.0,0.0,0.0,0.0,0.0,0.0,0.0
638684,24.0,0.0,0.0,0.0,0.0,0.0,31.0,11.0,0.0,0.0,45.0,2.0,0.0,8.0,0.0,0.0,0.0,0.0,0.0,0.0
500420,24.0,0.0,0.0,0.0,0.0,0.0,42.0,16.0,0.0,0.0,49.0,4.0,0.0,14.0,0.0,0.0,0.0,0.0,0.0,0.0
graph,1265.0,70.0,13.0,4.0,686.0,426.0,764.0,101.0,1547.0,432.0,1461.0,18.0,333.0,378.0,175.0,450.0,96.0,271.0,775.0,252.0
