Vertex,0110010010100010100000100,0111010100110001000100010,0110010010100010100100110,0110010011100000100001000,0111110100110001000010000,0111010101110001000001000,0111110000100001000010000
461379,29.0,2.0,1.0,18.0,1.0,3.0,0.0
587620,43.0,4.0,1.0,26.0,1.0,5.0,0.0
499898,53.0,9.0,2.0,32.0,2.0,8.0,0.0
649401,60.0,11.0,0.0,44.0,7.0,14.0,4.0
602048,24.0,2.0,1.0,15.0,1.0,3.0,0.0
573951,39.0,9.0,1.0,15.0,2.0,14.0,0.0
532363,42.0,8.0,1.0,14.0,2.0,8.0,0.0
598745,50.0,4.0,2.0,59.0,4.0,6.0,7.0
505320,38.0,12.0,1.0,29.0,7.0,18.0,4.0
612207,24.0,2.0,0.0,10.0,1.0,3.0,0.0
648339,84.0,12.0,2.0,82.0,7.0,14.0,9.0
580935,21.0,2.0,1.0,20.0,0.0,0.0,0.0
607735,15.0,1.0,0.0,9.0,0.0,0.0,0.0
466253,13.0,0.0,0.0,0.0,0.0,0.0,0.0
472522,25.0,1.0,0.0,36.0,3.0,3.0,7.0
541814,15.0,1.0,0.0,9.0,0.0,0.0,0.0
498228,25.0,1.0,0.0,36.0,3.0,3.0,7.0
615433,21.0,1.0,1.0,36.0,3.0,3.0,7.0
504405,18.0,1.0,1.0,10.0,0.0,0.0,0.0
491131,26.0,2.0,0.0,20.0,1.0,5.0,0.0
graph,133.0,17.0,3.0,104.0,9.0,22.0,9.0
