Vertex,0110100110000100,0110100010010010
545761,19.0,4.0
643091,29.0,6.0
514732,9.0,2.0
485204,39.0,8.0
535709,29.0,6.0
602394,19.0,4.0
594489,39.0,8.0
627818,9.0,2.0
530397,40.0,8.0
595690,40.0,8.0
570746,40.0,8.0
graph,78.0,16.0
