Vertex,0110100110000100,0100101101000100,0110100010010010,0100101001010010,0101101001001000,0111100010001000
481386,60.0,0.0,34.0,9.0,15.0,8.0
613959,84.0,0.0,46.0,21.0,20.0,8.0
477966,90.0,0.0,41.0,6.0,16.0,38.0
631284,96.0,0.0,45.0,12.0,22.0,46.0
509798,38.0,0.0,18.0,6.0,9.0,8.0
528343,218.0,2.0,124.0,19.0,36.0,113.0
567404,86.0,0.0,35.0,3.0,12.0,38.0
598764,128.0,2.0,70.0,17.0,24.0,53.0
466989,224.0,2.0,130.0,26.0,42.0,113.0
610216,128.0,2.0,68.0,16.0,24.0,53.0
514981,62.0,2.0,32.0,7.0,12.0,15.0
545328,44.0,0.0,20.0,10.0,4.0,0.0
612244,62.0,2.0,34.0,10.0,12.0,15.0
627525,48.0,0.0,28.0,14.0,8.0,0.0
493926,90.0,0.0,45.0,12.0,16.0,38.0
487157,51.0,0.0,24.0,6.0,6.0,0.0
464447,62.0,2.0,34.0,10.0,12.0,15.0
594823,23.0,0.0,10.0,3.0,4.0,0.0
477628,9.0,0.0,4.0,3.0,0.0,0.0
649985,73.0,2.0,46.0,10.0,18.0,15.0
graph,419.0,4.0,222.0,55.0,78.0,144.0
