Vertex,0110010010100010100100110,0111010101110001000101010,0111010110110011100100110,0111110100110001000110010,0111010110110011100000100,0111110100110001000010000,0110010011100000100001000,0111010100110001000100010,0111110110110001100010000,0111110111110001100011000,0110010011100100110001000,0110010010100010100000100,0111110110110011100010100,0110010011100110110001100,0111110000100001000010000,0111010101110001000001000
517222,8.0,23.0,5.0,9.0,27.0,52.0,301.0,88.0,39.0,2.0,75.0,235.0,13.0,2.0,28.0,100.0
466502,9.0,19.0,3.0,4.0,3.0,41.0,252.0,48.0,8.0,0.0,66.0,188.0,0.0,2.0,24.0,68.0
548814,0.0,1.0,0.0,1.0,8.0,17.0,110.0,33.0,6.0,0.0,10.0,81.0,2.0,0.0,10.0,24.0
547363,4.0,3.0,0.0,0.0,1.0,12.0,127.0,17.0,3.0,0.0,18.0,84.0,0.0,0.0,9.0,28.0
533233,7.0,10.0,1.0,4.0,3.0,27.0,171.0,44.0,4.0,0.0,22.0,151.0,0.0,0.0,9.0,61.0
526848,8.0,25.0,4.0,11.0,32.0,72.0,354.0,87.0,40.0,1.0,71.0,229.0,13.0,2.0,28.0,151.0
627197,2.0,9.0,2.0,3.0,10.0,36.0,216.0,28.0,15.0,1.0,41.0,140.0,5.0,2.0,14.0,66.0
526867,5.0,8.0,1.0,2.0,7.0,30.0,166.0,27.0,16.0,1.0,26.0,109.0,4.0,0.0,20.0,56.0
624783,0.0,4.0,1.0,7.0,9.0,33.0,115.0,41.0,14.0,0.0,13.0,55.0,5.0,0.0,11.0,58.0
601617,5.0,23.0,6.0,13.0,40.0,70.0,245.0,98.0,55.0,2.0,58.0,201.0,19.0,1.0,17.0,161.0
466120,4.0,12.0,2.0,3.0,10.0,39.0,185.0,47.0,21.0,1.0,36.0,128.0,5.0,0.0,21.0,66.0
550157,7.0,22.0,8.0,13.0,44.0,74.0,307.0,94.0,61.0,2.0,80.0,189.0,20.0,1.0,28.0,169.0
622061,4.0,6.0,1.0,0.0,3.0,15.0,121.0,19.0,6.0,0.0,26.0,117.0,0.0,0.0,15.0,35.0
553855,0.0,0.0,0.0,0.0,1.0,0.0,13.0,3.0,0.0,0.0,0.0,29.0,0.0,0.0,0.0,6.0
509719,8.0,12.0,2.0,5.0,13.0,29.0,174.0,50.0,16.0,0.0,39.0,179.0,3.0,0.0,8.0,79.0
494959,2.0,1.0,1.0,4.0,9.0,16.0,111.0,34.0,9.0,0.0,24.0,71.0,1.0,0.0,5.0,34.0
467131,5.0,8.0,0.0,8.0,13.0,32.0,150.0,42.0,16.0,0.0,15.0,119.0,4.0,0.0,11.0,69.0
630562,2.0,1.0,0.0,4.0,9.0,14.0,98.0,27.0,11.0,0.0,6.0,95.0,1.0,0.0,6.0,38.0
562338,8.0,19.0,3.0,10.0,21.0,53.0,225.0,81.0,27.0,0.0,46.0,213.0,7.0,0.0,13.0,126.0
630591,0.0,0.0,0.0,0.0,2.0,1.0,41.0,11.0,0.0,0.0,4.0,69.0,0.0,0.0,0.0,8.0
523454,0.0,0.0,0.0,0.0,1.0,0.0,13.0,4.0,0.0,0.0,0.0,54.0,0.0,0.0,0.0,6.0
549709,0.0,0.0,0.0,0.0,4.0,19.0,117.0,10.0,3.0,0.0,8.0,52.0,0.0,0.0,13.0,27.0
549973,0.0,3.0,0.0,3.0,7.0,27.0,121.0,24.0,9.0,0.0,7.0,54.0,2.0,0.0,14.0,43.0
464388,0.0,1.0,0.0,1.0,7.0,10.0,87.0,30.0,6.0,0.0,7.0,102.0,1.0,0.0,6.0,26.0
631424,2.0,0.0,0.0,0.0,1.0,1.0,44.0,13.0,0.0,0.0,2.0,80.0,0.0,0.0,0.0,15.0
460384,0.0,0.0,0.0,0.0,0.0,0.0,16.0,5.0,0.0,0.0,0.0,21.0,0.0,0.0,0.0,0.0
graph,18.0,42.0,8.0,21.0,57.0,144.0,776.0,201.0,77.0,2.0,140.0,609.0,21.0,2.0,62.0,304.0
