0110010010100010100000100: 501231 656171 596035 545406 504865
0110010011100000100001000: 656171 545406 501231 486383 636062
0110010010100010100000100: 656171 501231 545406 596035 636062
0110010010100010100000100: 656171 501231 545406 596035 486383
0110010011100000100001000: 640183 560661 573771 534341 504865
0110010011100000100001000: 560661 504865 534341 486383 596035
0110010011100000100001000: 560661 504865 640183 486383 596035
0110010010100010100000100: 560661 534341 504865 556055 596035
0110010010100010100100110: 560661 534341 504865 556055 486383
0110010010100010100000100: 560661 640183 504865 573771 596035
0110010010100010100000100: 560661 640183 504865 573771 486383
0110010010100010100000100: 560661 640183 534341 573771 556055
0110010011100000100001000: 534341 560661 556055 640183 504865
0110010010100010100000100: 534341 560661 556055 640183 486383
0110010011100000100001000: 556055 486383 534341 545406 504865
0110010010100010100000100: 556055 534341 486383 560661 545406
0110010010100010100000100: 545406 486383 636062 504865 601553
0110010011100000100001000: 545406 486383 636062 556055 504865
0110010010100010100000100: 545406 486383 636062 556055 601553
0110010011100000100001000: 545406 486383 656171 556055 504865
0110010010100010100000100: 545406 656171 636062 501231 601553
0110010010100010100000100: 545406 656171 486383 501231 504865
0110010010100010100000100: 545406 656171 486383 501231 556055
0110010011100000100001000: 486383 504865 545406 560661 596035
0110010011100000100001000: 486383 504865 556055 560661 596035
0110010010100010100000100: 486383 545406 504865 636062 596035
0110010010100010100000100: 486383 545406 504865 636062 560661
0110010011100000100001000: 486383 545406 504865 656171 636062
0110010010100010100000100: 486383 545406 504865 656171 596035
0110010010100010100000100: 486383 545406 504865 656171 560661
0110010011100000100001000: 486383 545406 556055 656171 636062
0110010010100010100000100: 486383 556055 504865 534341 596035
0110010010100010100000100: 486383 556055 545406 534341 636062
0110010010100010100000100: 486383 556055 545406 534341 656171
0110010011100000100001000: 636062 545406 601553 656171 486383
0110010010100010100000100: 504865 486383 596035 545406 501231
0110010011100000100001000: 504865 486383 596035 556055 545406
0110010010100010100000100: 504865 486383 596035 556055 501231
0110010011100000100001000: 504865 486383 560661 556055 545406
0110010010100010100000100: 504865 560661 596035 534341 501231
0110010011100000100001000: 504865 560661 596035 640183 534341
0110010010100010100000100: 504865 560661 596035 640183 501231
0110010010100010100000100: 504865 560661 486383 534341 545406
0110010011100000100001000: 504865 560661 486383 640183 534341
0110010010100010100000100: 504865 560661 486383 640183 545406
0110010010100010100000100: 504865 560661 486383 640183 556055
0110010011100000100001000: 596035 504865 501231 560661 486383
0110010010100010100000100: 596035 501231 504865 656171 486383
0110010010100010100000100: 596035 501231 504865 656171 560661
