Vertex,0111010101110001000001000,0110010010100010100000100,0111110100110001000110010,0111110000100001000010000,0111110100110001000010000,0110010011100000100001000,0111010100110001000100010,0111010101110001000101010,0110010011100100110001000
465665,17.0,43.0,2.0,2.0,12.0,55.0,21.0,3.0,5.0
548526,7.0,21.0,1.0,0.0,3.0,17.0,11.0,0.0,1.0
591159,7.0,8.0,1.0,0.0,3.0,15.0,10.0,0.0,1.0
591530,15.0,7.0,2.0,2.0,10.0,25.0,10.0,1.0,0.0
513696,3.0,20.0,0.0,0.0,0.0,3.0,2.0,0.0,0.0
460145,26.0,58.0,3.0,4.0,13.0,69.0,21.0,3.0,5.0
624608,6.0,34.0,0.0,4.0,6.0,45.0,6.0,0.0,1.0
611661,18.0,18.0,2.0,2.0,7.0,24.0,9.0,1.0,0.0
515496,6.0,21.0,0.0,4.0,6.0,35.0,4.0,0.0,1.0
532550,18.0,24.0,2.0,2.0,8.0,29.0,17.0,3.0,5.0
606962,11.0,35.0,1.0,0.0,5.0,34.0,14.0,3.0,5.0
539167,8.0,10.0,1.0,0.0,1.0,14.0,11.0,1.0,0.0
555293,2.0,19.0,0.0,0.0,1.0,14.0,4.0,0.0,1.0
545722,0.0,16.0,0.0,0.0,0.0,2.0,1.0,0.0,0.0
652827,6.0,8.0,0.0,0.0,0.0,5.0,2.0,0.0,0.0
581327,0.0,18.0,0.0,0.0,0.0,8.0,2.0,0.0,0.0
657552,0.0,14.0,0.0,0.0,0.0,15.0,2.0,0.0,0.0
608571,0.0,20.0,0.0,0.0,0.0,15.0,3.0,0.0,0.0
542818,0.0,6.0,0.0,0.0,0.0,1.0,0.0,0.0,0.0
graph,30.0,80.0,3.0,4.0,15.0,85.0,30.0,3.0,5.0
