0110010011100000100001000: 644881 482597 484223 498506 654646
0110010011100000100001000: 644881 482597 578038 498506 654646
0110010011100000100001000: 644881 482597 577278 498506 654646
0110010011100000100001000: 644881 482597 655963 498506 654646
0110010010100010100000100: 644881 484223 482597 579077 654646
0110010010100010100000100: 644881 484223 482597 579077 498506
0110010010100010100000100: 644881 484223 482597 579077 592583
0110010010100010100000100: 644881 578038 482597 579077 654646
0110010010100010100000100: 644881 578038 482597 579077 498506
0110010011100000100001000: 644881 578038 482597 529514 579077
0110010010100010100000100: 644881 578038 482597 529514 654646
0110010010100010100100110: 644881 578038 482597 529514 498506
0110010011100100110001000: 644881 578038 482597 592583 579077
0110010011100100110001000: 644881 578038 482597 592583 529514
0110010011100000100001000: 644881 578038 484223 592583 529514
0110010011100100110001000: 644881 578038 484223 579077 529514
0110010011100100110001000: 644881 578038 484223 579077 592583
0110010011100000100001000: 644881 578038 577278 529514 579077
0110010011100000100001000: 644881 578038 577278 592583 579077
0110010011100000100001000: 644881 578038 577278 592583 529514
0110010011100000100001000: 644881 578038 655963 529514 579077
0110010011100000100001000: 644881 578038 655963 592583 579077
0110010011100000100001000: 644881 578038 655963 592583 529514
0110010010100010100000100: 644881 577278 482597 524547 654646
0110010010100010100000100: 644881 577278 482597 524547 498506
0110010010100010100000100: 644881 577278 482597 524547 592583
0110010010100010100000100: 644881 577278 482597 556832 654646
0110010010100010100000100: 644881 577278 482597 556832 498506
0110010010100010100000100: 644881 577278 482597 556832 592583
0110010010100010100000100: 644881 577278 484223 524547 579077
0110010010100010100000100: 644881 577278 484223 556832 579077
0111110000100001000010000: 644881 577278 578038 484223 482597
0110010010100010100000100: 644881 577278 578038 524547 579077
0110010010100010100000100: 644881 577278 578038 524547 529514
0110010010100010100000100: 644881 577278 578038 524547 592583
0110010010100010100000100: 644881 577278 578038 556832 579077
0110010010100010100000100: 644881 577278 578038 556832 529514
0110010010100010100000100: 644881 577278 578038 556832 592583
0110010010100010100000100: 644881 655963 482597 542601 654646
0110010010100010100000100: 644881 655963 482597 542601 498506
0110010010100010100000100: 644881 655963 482597 542601 592583
0110010010100010100000100: 644881 655963 484223 542601 579077
0111110000100001000010000: 644881 655963 578038 484223 482597
0110010010100010100000100: 644881 655963 578038 542601 579077
0110010010100010100000100: 644881 655963 578038 542601 529514
0110010010100010100000100: 644881 655963 578038 542601 592583
0111110000100001000010000: 644881 655963 577278 484223 482597
0111110000100001000010000: 644881 655963 577278 578038 482597
0111110000100001000010000: 644881 655963 577278 578038 484223
0110010010100010100000100: 644881 655963 577278 542601 524547
0110010010100010100000100: 644881 655963 577278 542601 556832
0111010100110001000100010: 592583 482597 654646 578038 579077
0111010100110001000100010: 592583 482597 654646 578038 529514
0111010101110001000101010: 592583 482597 654646 578038 644881
0111110100110001000010000: 592583 482597 654646 636345 578038
0111010101110001000001000: 592583 482597 654646 636345 644881
0111010100110001000100010: 592583 482597 654646 636345 471095
0111010100110001000100010: 592583 482597 654646 636345 588254
0111110100110001000010000: 592583 482597 654646 525223 578038
0111110100110001000010000: 592583 482597 654646 525223 636345
0111010101110001000001000: 592583 482597 654646 525223 644881
0111010100110001000100010: 592583 482597 654646 525223 651262
0111010101110001000101010: 592583 482597 498506 578038 644881
0111010101110001000001000: 592583 482597 498506 636345 644881
0111010101110001000001000: 592583 482597 498506 525223 644881
0111110110110001100010000: 592583 482597 498506 654646 578038
0111110110110001100010000: 592583 482597 498506 654646 636345
0111110110110001100010000: 592583 482597 498506 654646 525223
0111010110110011100000100: 592583 482597 498506 654646 529514
0111010100110001000100010: 592583 498506 482597 578038 579077
0111010101110001000101010: 592583 498506 482597 578038 529514
0111110100110001000010000: 592583 498506 482597 636345 578038
0111010101110001000001000: 592583 498506 482597 636345 529514
0111010100110001000100010: 592583 498506 482597 636345 471095
0111010100110001000100010: 592583 498506 482597 636345 588254
0111110100110001000010000: 592583 498506 482597 525223 578038
0111110100110001000010000: 592583 498506 482597 525223 636345
0111010101110001000001000: 592583 498506 482597 525223 529514
0111010100110001000100010: 592583 498506 482597 525223 651262
0110010011100000100001000: 592583 578038 654646 529514 579077
0110010011100000100001000: 592583 578038 654646 644881 579077
0110010011100000100001000: 592583 578038 654646 644881 529514
0110010011100000100001000: 592583 578038 482597 529514 579077
0110010011100000100001000: 592583 578038 498506 644881 579077
0110010011100100110001000: 592583 578038 498506 529514 579077
0110010011100100110001000: 592583 578038 498506 529514 644881
0110010011100000100001000: 592583 578038 636345 529514 579077
0110010011100000100001000: 592583 578038 636345 644881 579077
0110010011100000100001000: 592583 578038 636345 644881 529514
0110010011100000100001000: 592583 578038 525223 529514 579077
0110010011100000100001000: 592583 578038 525223 644881 579077
0110010011100000100001000: 592583 578038 525223 644881 529514
0110010011100000100001000: 592583 636345 654646 588254 471095
0110010010100010100000100: 592583 636345 482597 471095 644881
0110010011100000100001000: 592583 636345 482597 588254 471095
0110010010100010100000100: 592583 636345 482597 588254 644881
0110010010100010100000100: 592583 636345 498506 471095 529514
0110010011100000100001000: 592583 636345 498506 588254 471095
0110010010100010100000100: 592583 636345 498506 588254 529514
0111110000100001000010000: 592583 636345 578038 498506 654646
0110010010100010100000100: 592583 636345 578038 471095 579077
0110010010100010100000100: 592583 636345 578038 471095 529514
0110010010100010100000100: 592583 636345 578038 471095 644881
0110010011100000100001000: 592583 636345 578038 588254 471095
0110010010100010100000100: 592583 636345 578038 588254 579077
0110010010100010100000100: 592583 636345 578038 588254 529514
0110010010100010100000100: 592583 636345 578038 588254 644881
0110010011100000100001000: 592583 636345 525223 588254 471095
0110010010100010100000100: 592583 525223 482597 651262 644881
0110010010100010100000100: 592583 525223 498506 651262 529514
0111110000100001000010000: 592583 525223 578038 498506 654646
0110010010100010100000100: 592583 525223 578038 651262 579077
0110010010100010100000100: 592583 525223 578038 651262 529514
0110010010100010100000100: 592583 525223 578038 651262 644881
0111110000100001000010000: 592583 525223 636345 498506 654646
0111110000100001000010000: 592583 525223 636345 578038 654646
0111110000100001000010000: 592583 525223 636345 578038 482597
0111110000100001000010000: 592583 525223 636345 578038 498506
0110010010100010100000100: 592583 525223 636345 651262 471095
0110010010100010100000100: 592583 525223 636345 651262 588254
0110010010100010100000100: 525223 592583 651262 654646 542601
0110010010100010100000100: 525223 592583 651262 482597 542601
0110010011100000100001000: 525223 592583 651262 498506 654646
0110010010100010100000100: 525223 592583 651262 498506 542601
0110010011100000100001000: 525223 592583 651262 578038 654646
0110010011100000100001000: 525223 592583 651262 578038 482597
0110010011100000100001000: 525223 592583 651262 578038 498506
0110010010100010100000100: 525223 592583 651262 578038 542601
0110010011100000100001000: 525223 592583 651262 636345 654646
0110010011100000100001000: 525223 592583 651262 636345 482597
0110010011100000100001000: 525223 592583 651262 636345 498506
0110010011100000100001000: 525223 592583 651262 636345 578038
0110010010100010100000100: 525223 592583 651262 636345 542601
0110010010100010100000100: 542601 655963 651262 644881 525223
0110010010100010100000100: 655963 644881 542601 482597 651262
0110010011100000100001000: 655963 644881 542601 484223 482597
0110010010100010100000100: 655963 644881 542601 484223 651262
0110010011100000100001000: 655963 644881 542601 578038 482597
0110010011100000100001000: 655963 644881 542601 578038 484223
0110010010100010100000100: 655963 644881 542601 578038 651262
0110010011100000100001000: 655963 644881 542601 577278 482597
0110010011100000100001000: 655963 644881 542601 577278 484223
0110010011100000100001000: 655963 644881 542601 577278 578038
0110010010100010100000100: 655963 644881 542601 577278 651262
0110010011100000100001000: 588254 636345 556832 592583 471095
0110010010100010100000100: 588254 556832 636345 577278 471095
0110010010100010100000100: 588254 556832 636345 577278 592583
0110010010100010100000100: 588254 556832 636345 524547 471095
0110010010100010100000100: 588254 556832 636345 524547 592583
0111010101110001000001000: 556832 577278 524547 588254 644881
0111010100110001000100010: 556832 524547 577278 588254 636345
0110010010100010100000100: 556832 588254 577278 636345 644881
0111010100110001000100010: 577278 556832 524547 644881 482597
0111010100110001000100010: 577278 556832 524547 644881 484223
0111010100110001000100010: 577278 556832 524547 644881 578038
0111010100110001000100010: 577278 556832 524547 644881 655963
0110010011100000100001000: 577278 644881 524547 484223 482597
0110010011100000100001000: 577278 644881 524547 578038 482597
0110010011100000100001000: 577278 644881 524547 578038 484223
0110010011100000100001000: 577278 644881 524547 655963 482597
0110010011100000100001000: 577278 644881 524547 655963 484223
0110010011100000100001000: 577278 644881 524547 655963 578038
0110010010100010100000100: 577278 644881 556832 482597 588254
0110010011100000100001000: 577278 644881 556832 484223 482597
0110010010100010100000100: 577278 644881 556832 484223 588254
0110010011100000100001000: 577278 644881 556832 578038 482597
0110010011100000100001000: 577278 644881 556832 578038 484223
0110010010100010100000100: 577278 644881 556832 578038 588254
0110010011100000100001000: 577278 644881 556832 655963 482597
0110010011100000100001000: 577278 644881 556832 655963 484223
0110010011100000100001000: 577278 644881 556832 655963 578038
0110010010100010100000100: 577278 644881 556832 655963 588254
0110010010100010100000100: 636345 588254 471095 556832 496004
0110010010100010100000100: 636345 592583 471095 654646 496004
0110010010100010100000100: 636345 592583 471095 482597 496004
0110010011100000100001000: 636345 592583 471095 498506 654646
0110010010100010100000100: 636345 592583 471095 498506 496004
0110010011100000100001000: 636345 592583 471095 578038 654646
0110010011100000100001000: 636345 592583 471095 578038 482597
0110010011100000100001000: 636345 592583 471095 578038 498506
0110010010100010100000100: 636345 592583 471095 578038 496004
0110010011100000100001000: 636345 592583 471095 525223 654646
0110010011100000100001000: 636345 592583 471095 525223 482597
0110010011100000100001000: 636345 592583 471095 525223 498506
0110010011100000100001000: 636345 592583 471095 525223 578038
0110010010100010100000100: 636345 592583 471095 525223 496004
0110010010100010100000100: 636345 592583 588254 654646 556832
0110010010100010100000100: 636345 592583 588254 482597 556832
0110010011100000100001000: 636345 592583 588254 498506 654646
0110010010100010100000100: 636345 592583 588254 498506 556832
0110010011100000100001000: 636345 592583 588254 578038 654646
0110010011100000100001000: 636345 592583 588254 578038 482597
0110010011100000100001000: 636345 592583 588254 578038 498506
0110010010100010100000100: 636345 592583 588254 578038 556832
0110010011100000100001000: 636345 592583 588254 525223 654646
0110010011100000100001000: 636345 592583 588254 525223 482597
0110010011100000100001000: 636345 592583 588254 525223 498506
0110010011100000100001000: 636345 592583 588254 525223 578038
0110010010100010100000100: 636345 592583 588254 525223 556832
0110010010100010100000100: 578038 529514 579077 498506 484223
0110010010100010100000100: 578038 592583 579077 654646 484223
0110010010100010100000100: 578038 592583 579077 482597 484223
0110010011100000100001000: 578038 592583 579077 498506 654646
0110010010100010100000100: 578038 592583 579077 498506 484223
0110010011100000100001000: 578038 592583 579077 636345 654646
0110010011100000100001000: 578038 592583 579077 636345 482597
0110010011100000100001000: 578038 592583 579077 636345 498506
0110010010100010100000100: 578038 592583 579077 636345 484223
0110010011100000100001000: 578038 592583 579077 525223 654646
0110010011100000100001000: 578038 592583 579077 525223 482597
0110010011100000100001000: 578038 592583 579077 525223 498506
0110010011100000100001000: 578038 592583 579077 525223 636345
0110010010100010100000100: 578038 592583 579077 525223 484223
0110010011100000100001000: 578038 592583 529514 636345 654646
0110010011100000100001000: 578038 592583 529514 636345 482597
0110010011100000100001000: 578038 592583 529514 525223 654646
0110010011100000100001000: 578038 592583 529514 525223 482597
0110010011100000100001000: 578038 592583 529514 525223 636345
0110010011100100110001000: 578038 592583 529514 498506 654646
0110010011100100110001000: 578038 592583 529514 498506 636345
0110010011100100110001000: 578038 592583 529514 498506 525223
0110010011100000100001000: 578038 592583 644881 498506 654646
0110010011100000100001000: 578038 592583 644881 636345 654646
0110010011100000100001000: 578038 592583 644881 636345 498506
0110010011100000100001000: 578038 592583 644881 525223 654646
0110010011100000100001000: 578038 592583 644881 525223 498506
0110010011100000100001000: 578038 592583 644881 525223 636345
0110010011100100110001000: 578038 592583 644881 482597 636345
0110010011100100110001000: 578038 592583 644881 482597 525223
0110010011100000100001000: 578038 644881 579077 577278 482597
0110010011100000100001000: 578038 644881 579077 655963 482597
0110010011100000100001000: 578038 644881 579077 655963 577278
0110010011100100110001000: 578038 644881 579077 484223 482597
0110010011100100110001000: 578038 644881 579077 484223 577278
0110010011100100110001000: 578038 644881 579077 484223 655963
0110010011100000100001000: 578038 644881 529514 484223 482597
0110010010100010100000100: 578038 644881 529514 484223 498506
0110010011100000100001000: 578038 644881 529514 577278 482597
0110010011100000100001000: 578038 644881 529514 577278 484223
0110010010100010100000100: 578038 644881 529514 577278 498506
0110010011100000100001000: 578038 644881 529514 655963 482597
0110010011100000100001000: 578038 644881 529514 655963 484223
0110010011100000100001000: 578038 644881 529514 655963 577278
0110010010100010100000100: 578038 644881 529514 655963 498506
0111110000100001000010000: 578038 644881 592583 529514 579077
0110010010100010100000100: 578038 644881 592583 484223 654646
0110010010100010100000100: 578038 644881 592583 484223 498506
0110010010100010100000100: 578038 644881 592583 484223 636345
0110010010100010100000100: 578038 644881 592583 484223 525223
0110010011100000100001000: 578038 644881 592583 577278 484223
0110010010100010100000100: 578038 644881 592583 577278 654646
0110010010100010100000100: 578038 644881 592583 577278 498506
0110010010100010100000100: 578038 644881 592583 577278 636345
0110010010100010100000100: 578038 644881 592583 577278 525223
0110010011100000100001000: 578038 644881 592583 655963 484223
0110010011100000100001000: 578038 644881 592583 655963 577278
0110010010100010100000100: 578038 644881 592583 655963 654646
0110010010100010100000100: 578038 644881 592583 655963 498506
0110010010100010100000100: 578038 644881 592583 655963 636345
0110010010100010100000100: 578038 644881 592583 655963 525223
0110010011100100110001000: 578038 644881 592583 482597 484223
0110010011100100110001000: 578038 644881 592583 482597 577278
0110010011100100110001000: 578038 644881 592583 482597 655963
0110010010100010100000100: 498506 482597 529514 654646 578038
0110010011100000100001000: 498506 482597 529514 644881 654646
0111010101110001000001000: 498506 482597 592583 529514 644881
0110010011100000100001000: 498506 592583 529514 636345 654646
0110010011100000100001000: 498506 592583 529514 525223 654646
0110010011100000100001000: 498506 592583 529514 525223 636345
0110010011100000100001000: 484223 644881 579077 577278 482597
0110010011100000100001000: 484223 644881 579077 655963 482597
0110010011100000100001000: 484223 644881 579077 655963 577278
0110010011100000100001000: 482597 592583 644881 525223 636345
0111010100110001000100010: 482597 592583 654646 644881 484223
0111010100110001000100010: 482597 592583 654646 644881 577278
0111010100110001000100010: 482597 592583 654646 644881 655963
0111010100110001000100010: 482597 592583 498506 644881 484223
0111010100110001000100010: 482597 592583 498506 644881 577278
0111010100110001000100010: 482597 592583 498506 644881 655963
0111110110110001100010000: 482597 592583 498506 654646 644881
0110010011100000100001000: 482597 644881 654646 578038 484223
0110010011100000100001000: 482597 644881 654646 577278 484223
0110010011100000100001000: 482597 644881 654646 577278 578038
0110010011100000100001000: 482597 644881 654646 655963 484223
0110010011100000100001000: 482597 644881 654646 655963 578038
0110010011100000100001000: 482597 644881 654646 655963 577278
0110010010100010100000100: 482597 644881 498506 484223 529514
0110010011100000100001000: 482597 644881 498506 578038 484223
0110010011100000100001000: 482597 644881 498506 577278 484223
0110010011100000100001000: 482597 644881 498506 577278 578038
0110010010100010100000100: 482597 644881 498506 577278 529514
0110010011100000100001000: 482597 644881 498506 655963 484223
0110010011100000100001000: 482597 644881 498506 655963 578038
0110010011100000100001000: 482597 644881 498506 655963 577278
0110010010100010100000100: 482597 644881 498506 655963 529514
0110010010100010100000100: 482597 644881 592583 484223 636345
0110010010100010100000100: 482597 644881 592583 484223 525223
0110010011100000100001000: 482597 644881 592583 577278 484223
0110010010100010100000100: 482597 644881 592583 577278 636345
0110010010100010100000100: 482597 644881 592583 577278 525223
0110010011100000100001000: 482597 644881 592583 655963 484223
0110010011100000100001000: 482597 644881 592583 655963 577278
0110010010100010100000100: 482597 644881 592583 655963 636345
0110010010100010100000100: 482597 644881 592583 655963 525223
0110010011100000100001000: 471095 636345 496004 592583 588254
0110010010100010100000100: 529514 578038 498506 579077 482597
0110010011100000100001000: 529514 578038 498506 644881 579077
0110010011100000100001000: 579077 578038 484223 592583 529514
0110010010100010100000100: 651262 525223 542601 592583 655963
