Vertex,0110100110010110,0111101011011010,0111100010001000,0111101011001000,0110101111010110,0111100110011110,0111101111001100,0110100110000100,0101101101001100,0101101001001000,0111101111011110,0110100010010010,0100101101010110,0110101011010010,0111100010011010,0101101001011010,0100101101000100,0110101111000100,0111100110001100,0100101001010010,0101101101011110
569543,70.0,0.0,219.0,74.0,0.0,0.0,0.0,350.0,12.0,96.0,0.0,221.0,0.0,36.0,10.0,28.0,26.0,42.0,28.0,83.0,0.0
562349,243.0,16.0,482.0,278.0,17.0,2.0,18.0,685.0,28.0,204.0,0.0,393.0,8.0,96.0,76.0,96.0,54.0,138.0,89.0,130.0,2.0
634099,245.0,121.0,376.0,402.0,119.0,11.0,126.0,559.0,38.0,155.0,0.0,292.0,4.0,137.0,79.0,96.0,24.0,195.0,129.0,80.0,16.0
564617,278.0,216.0,531.0,771.0,214.0,18.0,234.0,811.0,68.0,238.0,155.0,441.0,12.0,252.0,172.0,109.0,42.0,368.0,253.0,111.0,24.0
528343,313.0,157.0,552.0,676.0,149.0,11.0,180.0,819.0,60.0,243.0,0.0,467.0,12.0,228.0,153.0,129.0,48.0,323.0,213.0,125.0,15.0
484469,0.0,0.0,50.0,0.0,0.0,0.0,0.0,168.0,0.0,43.0,0.0,119.0,0.0,0.0,0.0,0.0,4.0,0.0,0.0,68.0,0.0
614640,142.0,106.0,224.0,320.0,109.0,11.0,108.0,362.0,22.0,99.0,0.0,175.0,4.0,95.0,69.0,55.0,10.0,147.0,95.0,34.0,15.0
593966,284.0,314.0,594.0,1007.0,302.0,29.0,342.0,916.0,76.0,237.0,155.0,520.0,8.0,308.0,179.0,109.0,24.0,464.0,345.0,136.0,33.0
627160,0.0,0.0,45.0,21.0,0.0,0.0,0.0,154.0,4.0,42.0,0.0,96.0,0.0,12.0,2.0,0.0,4.0,12.0,8.0,34.0,0.0
567059,0.0,0.0,39.0,0.0,0.0,0.0,0.0,149.0,0.0,42.0,0.0,93.0,0.0,0.0,0.0,0.0,4.0,0.0,0.0,33.0,0.0
532502,0.0,16.0,138.0,213.0,17.0,2.0,18.0,225.0,18.0,66.0,0.0,118.0,8.0,67.0,66.0,0.0,12.0,101.0,64.0,25.0,2.0
647748,0.0,16.0,92.0,30.0,17.0,2.0,18.0,155.0,0.0,46.0,0.0,95.0,2.0,6.0,14.0,0.0,12.0,12.0,6.0,29.0,2.0
572941,70.0,0.0,312.0,125.0,0.0,0.0,0.0,389.0,2.0,110.0,0.0,209.0,0.0,25.0,22.0,28.0,18.0,51.0,37.0,57.0,0.0
516536,284.0,336.0,639.0,894.0,326.0,31.0,360.0,884.0,58.0,221.0,155.0,487.0,6.0,257.0,165.0,104.0,30.0,403.0,300.0,98.0,37.0
604778,35.0,202.0,238.0,582.0,190.0,19.0,216.0,440.0,38.0,121.0,155.0,229.0,6.0,159.0,122.0,15.0,2.0,263.0,187.0,63.0,22.0
496090,35.0,0.0,154.0,95.0,0.0,0.0,0.0,224.0,12.0,64.0,0.0,115.0,0.0,36.0,14.0,10.0,12.0,48.0,32.0,10.0,0.0
618251,0.0,18.0,122.0,162.0,17.0,2.0,18.0,236.0,16.0,76.0,0.0,116.0,2.0,54.0,34.0,0.0,12.0,78.0,50.0,15.0,4.0
556459,0.0,30.0,256.0,225.0,27.0,2.0,36.0,479.0,16.0,133.0,0.0,266.0,0.0,68.0,36.0,0.0,10.0,103.0,69.0,66.0,2.0
546831,107.0,150.0,240.0,526.0,150.0,18.0,144.0,614.0,48.0,179.0,0.0,346.0,14.0,174.0,133.0,41.0,14.0,252.0,171.0,109.0,24.0
555084,70.0,73.0,224.0,256.0,71.0,4.0,90.0,280.0,6.0,80.0,0.0,132.0,2.0,57.0,51.0,30.0,0.0,106.0,75.0,22.0,4.0
507419,35.0,0.0,173.0,102.0,0.0,0.0,0.0,221.0,0.0,54.0,0.0,108.0,0.0,18.0,18.0,10.0,0.0,40.0,30.0,8.0,0.0
510315,70.0,14.0,113.0,161.0,10.0,1.0,18.0,338.0,22.0,95.0,0.0,229.0,6.0,67.0,43.0,29.0,12.0,85.0,59.0,79.0,0.0
631549,142.0,95.0,225.0,373.0,85.0,13.0,90.0,482.0,30.0,124.0,0.0,261.0,10.0,115.0,96.0,55.0,10.0,172.0,125.0,60.0,14.0
504000,35.0,0.0,203.0,125.0,0.0,0.0,0.0,258.0,4.0,66.0,0.0,136.0,0.0,30.0,20.0,14.0,4.0,52.0,38.0,38.0,0.0
591881,35.0,0.0,45.0,19.0,0.0,0.0,0.0,151.0,4.0,47.0,0.0,125.0,0.0,12.0,2.0,15.0,6.0,12.0,8.0,68.0,0.0
503010,35.0,0.0,69.0,54.0,0.0,0.0,0.0,146.0,6.0,39.0,0.0,96.0,0.0,15.0,6.0,15.0,8.0,25.0,21.0,38.0,0.0
487938,0.0,0.0,45.0,21.0,0.0,0.0,0.0,157.0,4.0,48.0,0.0,107.0,0.0,12.0,2.0,0.0,6.0,12.0,8.0,41.0,0.0
graph,632.0,470.0,1600.0,1878.0,455.0,44.0,504.0,2663.0,148.0,742.0,155.0,1498.0,26.0,584.0,396.0,247.0,102.0,876.0,610.0,415.0,54.0
