0110010011100000100001000: 528787 548652 478363 500883 477964
0110010011100100110001000: 528787 548652 478363 516354 477964
0111010101110001000001000: 528787 548652 554368 478363 477964
0110010011100000100001000: 528787 554368 478363 506855 557807
0110010011100000100001000: 528787 554368 478363 532795 557807
0110010011100000100001000: 528787 554368 478363 532795 506855
0110010011100000100001000: 528787 554368 478363 500883 557807
0110010011100000100001000: 528787 554368 478363 567586 557807
0110010011100000100001000: 528787 554368 478363 567586 532795
0110010011100000100001000: 528787 554368 478363 567586 500883
0110010011100000100001000: 528787 554368 478363 534878 557807
0110010011100000100001000: 528787 554368 478363 534878 506855
0110010011100000100001000: 528787 554368 478363 534878 500883
0110010011100000100001000: 528787 554368 478363 534878 567586
0110010011100000100001000: 528787 554368 478363 642676 506855
0110010011100000100001000: 528787 554368 478363 642676 532795
0110010011100000100001000: 528787 554368 478363 642676 500883
0110010011100000100001000: 528787 554368 478363 642676 567586
0110010011100000100001000: 528787 554368 478363 642676 534878
0110010011100000100001000: 528787 554368 478363 474401 557807
0110010011100000100001000: 528787 554368 478363 474401 506855
0110010011100000100001000: 528787 554368 478363 474401 532795
0110010011100000100001000: 528787 554368 478363 474401 500883
0110010011100000100001000: 528787 554368 478363 474401 567586
0110010011100000100001000: 528787 554368 478363 474401 534878
0110010011100100110001000: 528787 554368 478363 516354 557807
0110010011100100110001000: 528787 554368 478363 516354 506855
0110010011100100110001000: 528787 554368 478363 516354 532795
0110010011100100110001000: 528787 554368 478363 516354 567586
0110010011100100110001000: 528787 554368 478363 516354 534878
0110010011100100110001000: 528787 554368 478363 516354 642676
0111010101110001000001000: 528787 554368 548652 478363 557807
0111010101110001000001000: 528787 554368 548652 478363 506855
0111010101110001000001000: 528787 554368 548652 478363 532795
0111010101110001000001000: 528787 554368 548652 478363 567586
0111010101110001000001000: 528787 554368 548652 478363 534878
0111010101110001000001000: 528787 554368 548652 478363 642676
0111010101110001000001000: 528787 554368 548652 478363 474401
0111010101110001000001000: 554368 557807 642676 506855 477964
0111010101110001000001000: 554368 557807 642676 532795 477964
0111010101110001000001000: 554368 557807 642676 500883 477964
0111010101110001000001000: 554368 557807 642676 567586 477964
0111010101110001000001000: 554368 557807 642676 516354 477964
0111010101110001000001000: 554368 557807 642676 534878 477964
0111010101110001000101010: 554368 557807 642676 548652 477964
0111010101110001000001000: 554368 557807 642676 528787 477964
0111110110110001100010000: 554368 506855 567586 500883 557807
0111110110110001100010000: 554368 506855 567586 500883 534878
0111110110110001100010000: 554368 506855 567586 500883 642676
0111110110110001100010000: 554368 506855 567586 500883 474401
0111110110110001100010000: 554368 506855 567586 500883 528787
0111010110110011100000100: 554368 506855 567586 500883 610799
0111110110110001100010000: 554368 532795 534878 500883 557807
0111110110110001100010000: 554368 532795 534878 500883 567586
0111110110110001100010000: 554368 532795 534878 500883 642676
0111110110110001100010000: 554368 532795 534878 500883 474401
0111110110110001100010000: 554368 532795 534878 500883 528787
0111010110110011100000100: 554368 532795 534878 500883 575730
0111010100110001000100010: 554368 500883 506855 557807 477964
0111110100110001000010000: 554368 500883 506855 534878 557807
0111010100110001000100010: 554368 500883 506855 534878 575730
0111110100110001000010000: 554368 500883 506855 642676 534878
0111110100110001000010000: 554368 500883 506855 474401 557807
0111110100110001000010000: 554368 500883 506855 474401 534878
0111010100110001000100010: 554368 500883 506855 474401 609211
0111110100110001000010000: 554368 500883 506855 528787 557807
0111110100110001000010000: 554368 500883 506855 528787 534878
0111110100110001000010000: 554368 500883 506855 528787 642676
0111110100110001000010000: 554368 500883 506855 528787 474401
0111010100110001000100010: 554368 500883 506855 528787 478363
0111110110110011100010100: 554368 500883 506855 532795 567586
0111110110110011100010100: 554368 500883 506855 516354 567586
0111110110110011100010100: 554368 500883 506855 548652 567586
0111010100110001000100010: 554368 500883 532795 557807 477964
0111110100110001000010000: 554368 500883 532795 567586 557807
0111010100110001000100010: 554368 500883 532795 567586 610799
0111110100110001000010000: 554368 500883 532795 642676 567586
0111110100110001000010000: 554368 500883 532795 474401 557807
0111110100110001000010000: 554368 500883 532795 474401 567586
0111010100110001000100010: 554368 500883 532795 474401 609211
0111110100110001000010000: 554368 500883 532795 528787 557807
0111110100110001000010000: 554368 500883 532795 528787 567586
0111110100110001000010000: 554368 500883 532795 528787 642676
0111110100110001000010000: 554368 500883 532795 528787 474401
0111010100110001000100010: 554368 500883 532795 528787 478363
0111110110110001100010000: 554368 500883 532795 506855 557807
0111110110110001100010000: 554368 500883 532795 506855 642676
0111110110110001100010000: 554368 500883 532795 506855 474401
0111110110110001100010000: 554368 500883 532795 506855 528787
0111110110110011100010100: 554368 500883 532795 506855 534878
0111110110110011100010100: 554368 500883 532795 516354 534878
0111110110110011100010100: 554368 500883 532795 548652 534878
0111110110110001100010000: 554368 500883 516354 506855 557807
0111110110110001100010000: 554368 500883 516354 506855 534878
0111110110110001100010000: 554368 500883 516354 506855 642676
0111110110110001100010000: 554368 500883 516354 506855 528787
0111010110110011100000100: 554368 500883 516354 506855 478363
0111110110110001100010000: 554368 500883 516354 532795 557807
0111110110110001100010000: 554368 500883 516354 532795 567586
0111110110110001100010000: 554368 500883 516354 532795 642676
0111110110110001100010000: 554368 500883 516354 532795 528787
0111110111110001100011000: 554368 500883 516354 532795 506855
0111010110110011100000100: 554368 500883 516354 532795 478363
0111110110110001100010000: 554368 500883 548652 506855 557807
0111110110110001100010000: 554368 500883 548652 506855 534878
0111110110110001100010000: 554368 500883 548652 506855 642676
0111110110110001100010000: 554368 500883 548652 506855 474401
0111010110110011100000100: 554368 500883 548652 506855 477964
0111110110110001100010000: 554368 500883 548652 532795 557807
0111110110110001100010000: 554368 500883 548652 532795 567586
0111110110110001100010000: 554368 500883 548652 532795 642676
0111110110110001100010000: 554368 500883 548652 532795 474401
0111110111110001100011000: 554368 500883 548652 532795 506855
0111010110110011100000100: 554368 500883 548652 532795 477964
0111110111110101110011000: 554368 500883 548652 516354 506855
0111110111110101110011000: 554368 500883 548652 516354 532795
0110010010100010100000100: 554368 567586 557807 610799 477964
0111010101110001000001000: 554368 567586 506855 557807 610799
0111010100110001000100010: 554368 567586 506855 557807 477964
0111110100110001000010000: 554368 567586 506855 532795 557807
0111010101110001000001000: 554368 567586 506855 532795 610799
0111110100110001000010000: 554368 567586 506855 516354 557807
0111110100110001000010000: 554368 567586 506855 516354 532795
0111010101110001000001000: 554368 567586 506855 516354 610799
0111010100110001000100010: 554368 567586 506855 516354 478363
0111110100110001000010000: 554368 567586 506855 534878 557807
0111110100110001000010000: 554368 567586 506855 534878 516354
0111010101110001000001000: 554368 567586 506855 534878 610799
0111010100110001000100010: 554368 567586 506855 534878 575730
0111110100110001000010000: 554368 567586 506855 642676 532795
0111110100110001000010000: 554368 567586 506855 642676 516354
0111110100110001000010000: 554368 567586 506855 642676 534878
0111010101110001000001000: 554368 567586 506855 642676 610799
0111110100110001000010000: 554368 567586 506855 474401 557807
0111110100110001000010000: 554368 567586 506855 474401 532795
0111110100110001000010000: 554368 567586 506855 474401 534878
0111010101110001000001000: 554368 567586 506855 474401 610799
0111010100110001000100010: 554368 567586 506855 474401 609211
0111110100110001000010000: 554368 567586 506855 548652 557807
0111110100110001000010000: 554368 567586 506855 548652 532795
0111110100110001000010000: 554368 567586 506855 548652 534878
0111110100110001000010000: 554368 567586 506855 548652 642676
0111110100110001000010000: 554368 567586 506855 548652 474401
0111010101110001000001000: 554368 567586 506855 548652 610799
0111010100110001000100010: 554368 567586 506855 548652 477964
0111110100110001000010000: 554368 567586 506855 528787 557807
0111110100110001000010000: 554368 567586 506855 528787 532795
0111110100110001000010000: 554368 567586 506855 528787 516354
0111110100110001000010000: 554368 567586 506855 528787 534878
0111110100110001000010000: 554368 567586 506855 528787 642676
0111110100110001000010000: 554368 567586 506855 528787 474401
0111010101110001000001000: 554368 567586 506855 528787 610799
0111010100110001000100010: 554368 567586 506855 528787 478363
0110010010100010100000100: 554368 516354 557807 478363 477964
0111110000100001000010000: 554368 516354 532795 506855 557807
0111110000100001000010000: 554368 516354 567586 532795 557807
0110010010100010100000100: 554368 516354 567586 478363 610799
0111010101110001000001000: 554368 516354 500883 557807 478363
0111010100110001000100010: 554368 516354 500883 557807 477964
0111110100110001000010000: 554368 516354 500883 567586 557807
0111010101110001000001000: 554368 516354 500883 567586 478363
0111010100110001000100010: 554368 516354 500883 567586 610799
0111110100110001000010000: 554368 516354 500883 534878 557807
0111110100110001000010000: 554368 516354 500883 534878 567586
0111010101110001000001000: 554368 516354 500883 534878 478363
0111010100110001000100010: 554368 516354 500883 534878 575730
0111110100110001000010000: 554368 516354 500883 642676 567586
0111110100110001000010000: 554368 516354 500883 642676 534878
0111010101110001000001000: 554368 516354 500883 642676 478363
0111110100110001000010000: 554368 516354 500883 528787 557807
0111110100110001000010000: 554368 516354 500883 528787 567586
0111110100110001000010000: 554368 516354 500883 528787 534878
0111110100110001000010000: 554368 516354 500883 528787 642676
0111010101110001000101010: 554368 516354 500883 528787 478363
0111110110110011100010100: 554368 516354 500883 474401 506855
0111110110110011100010100: 554368 516354 500883 474401 532795
0111010101110001000001000: 554368 516354 474401 557807 478363
0111010101110001000001000: 554368 516354 474401 506855 478363
0111010101110001000001000: 554368 516354 474401 532795 478363
0111010101110001000001000: 554368 516354 474401 567586 478363
0111010101110001000001000: 554368 516354 474401 534878 478363
0111010101110001000101010: 554368 516354 474401 528787 478363
0111110110110001100010000: 554368 516354 474401 500883 557807
0111110110110001100010000: 554368 516354 474401 500883 567586
0111110110110001100010000: 554368 516354 474401 500883 534878
0111110110110001100010000: 554368 516354 474401 500883 528787
0111010110110011100000100: 554368 516354 474401 500883 609211
0111010110110011100000100: 554368 516354 474401 548652 609211
0111010101110001000001000: 554368 516354 548652 557807 478363
0111010101110001000001000: 554368 516354 548652 506855 478363
0111010101110001000001000: 554368 516354 548652 532795 478363
0111010101110001000001000: 554368 516354 548652 567586 478363
0111010101110001000001000: 554368 516354 548652 534878 478363
0111010101110001000001000: 554368 516354 548652 642676 478363
0111110110110001100010000: 554368 516354 548652 474401 557807
0111110110110001100010000: 554368 516354 548652 474401 506855
0111110110110001100010000: 554368 516354 548652 474401 532795
0111110110110001100010000: 554368 516354 548652 474401 567586
0111110110110001100010000: 554368 516354 548652 474401 534878
0111010110110011100000100: 554368 516354 548652 474401 477964
0111110111110101110011000: 554368 516354 548652 500883 474401
0110010010100010100000100: 554368 534878 557807 575730 477964
0111110000100001000010000: 554368 534878 567586 500883 557807
0110010010100010100000100: 554368 534878 567586 575730 610799
0111110000100001000010000: 554368 534878 516354 506855 557807
0111110000100001000010000: 554368 534878 516354 567586 557807
0110010010100010100000100: 554368 534878 516354 575730 478363
0111010101110001000001000: 554368 534878 532795 557807 575730
0111010100110001000100010: 554368 534878 532795 557807 477964
0111110100110001000010000: 554368 534878 532795 506855 557807
0111010101110001000001000: 554368 534878 532795 506855 575730
0111110100110001000010000: 554368 534878 532795 567586 557807
0111010101110001000001000: 554368 534878 532795 567586 575730
0111010100110001000100010: 554368 534878 532795 567586 610799
0111110100110001000110010: 554368 534878 532795 567586 506855
0111110100110001000010000: 554368 534878 532795 516354 557807
0111110100110001000010000: 554368 534878 532795 516354 506855
0111110100110001000010000: 554368 534878 532795 516354 567586
0111010101110001000001000: 554368 534878 532795 516354 575730
0111010100110001000100010: 554368 534878 532795 516354 478363
0111110100110001000010000: 554368 534878 532795 642676 506855
0111110100110001000010000: 554368 534878 532795 642676 567586
0111110100110001000010000: 554368 534878 532795 642676 516354
0111010101110001000001000: 554368 534878 532795 642676 575730
0111110100110001000010000: 554368 534878 532795 474401 557807
0111110100110001000010000: 554368 534878 532795 474401 506855
0111110100110001000010000: 554368 534878 532795 474401 567586
0111010101110001000001000: 554368 534878 532795 474401 575730
0111010100110001000100010: 554368 534878 532795 474401 609211
0111110100110001000010000: 554368 534878 532795 548652 557807
0111110100110001000010000: 554368 534878 532795 548652 506855
0111110100110001000010000: 554368 534878 532795 548652 567586
0111110100110001000010000: 554368 534878 532795 548652 642676
0111110100110001000010000: 554368 534878 532795 548652 474401
0111010101110001000001000: 554368 534878 532795 548652 575730
0111010100110001000100010: 554368 534878 532795 548652 477964
0111110100110001000010000: 554368 534878 532795 528787 557807
0111110100110001000010000: 554368 534878 532795 528787 506855
0111110100110001000010000: 554368 534878 532795 528787 567586
0111110100110001000010000: 554368 534878 532795 528787 516354
0111110100110001000010000: 554368 534878 532795 528787 642676
0111110100110001000010000: 554368 534878 532795 528787 474401
0111010101110001000001000: 554368 534878 532795 528787 575730
0111010100110001000100010: 554368 534878 532795 528787 478363
0111110000100001000010000: 554368 642676 516354 532795 506855
0111110000100001000010000: 554368 642676 516354 567586 532795
0111110000100001000010000: 554368 642676 534878 567586 500883
0111110000100001000010000: 554368 642676 534878 516354 506855
0111110000100001000010000: 554368 642676 534878 516354 567586
0111110100110001000010000: 554368 642676 557807 532795 506855
0111110100110001000110010: 554368 642676 557807 500883 506855
0111110100110001000110010: 554368 642676 557807 500883 532795
0111110100110001000010000: 554368 642676 557807 567586 532795
0111110100110001000010000: 554368 642676 557807 567586 500883
0111010100110001000100010: 554368 642676 557807 567586 610799
0111110100110001000110010: 554368 642676 557807 567586 506855
0111110100110001000010000: 554368 642676 557807 516354 506855
0111110100110001000010000: 554368 642676 557807 516354 532795
0111110100110001000010000: 554368 642676 557807 516354 567586
0111010100110001000100010: 554368 642676 557807 516354 478363
0111110100110001000110010: 554368 642676 557807 516354 500883
0111110100110001000010000: 554368 642676 557807 534878 506855
0111110100110001000010000: 554368 642676 557807 534878 500883
0111110100110001000010000: 554368 642676 557807 534878 567586
0111110100110001000010000: 554368 642676 557807 534878 516354
0111010100110001000100010: 554368 642676 557807 534878 575730
0111110100110001000110010: 554368 642676 557807 534878 532795
0111110100110001000010000: 554368 642676 557807 548652 506855
0111110100110001000010000: 554368 642676 557807 548652 532795
0111110100110001000010000: 554368 642676 557807 548652 567586
0111110100110001000010000: 554368 642676 557807 548652 534878
0111110100110001000010000: 554368 642676 557807 528787 506855
0111110100110001000010000: 554368 642676 557807 528787 532795
0111110100110001000010000: 554368 642676 557807 528787 500883
0111110100110001000010000: 554368 642676 557807 528787 567586
0111110100110001000010000: 554368 642676 557807 528787 516354
0111110100110001000010000: 554368 642676 557807 528787 534878
0111010100110001000100010: 554368 642676 557807 528787 478363
0111010110110011100000100: 554368 642676 557807 474401 477964
0111110110110001100010000: 554368 642676 474401 557807 506855
0111110110110001100010000: 554368 642676 474401 557807 532795
0111110110110001100010000: 554368 642676 474401 557807 500883
0111110110110001100010000: 554368 642676 474401 557807 567586
0111110110110001100010000: 554368 642676 474401 557807 534878
0111110110110001100010000: 554368 642676 474401 557807 548652
0111110110110001100010000: 554368 642676 474401 557807 528787
0111010110110011100000100: 554368 642676 474401 557807 609211
0110010010100010100000100: 554368 474401 557807 609211 477964
0111110000100001000010000: 554368 474401 532795 506855 557807
0111110000100001000010000: 554368 474401 567586 532795 557807
0111110000100001000010000: 554368 474401 567586 500883 557807
0110010010100010100100110: 554368 474401 567586 609211 610799
0111110000100001000010000: 554368 474401 534878 506855 557807
0111110000100001000010000: 554368 474401 534878 500883 557807
0111110000100001000010000: 554368 474401 534878 567586 557807
0111110000100001000010000: 554368 474401 534878 567586 500883
0110010010100010100000100: 554368 474401 534878 609211 575730
0111010101110001000001000: 554368 474401 516354 557807 609211
0111010100110001000100010: 554368 474401 516354 557807 477964
0111110100110001000010000: 554368 474401 516354 506855 557807
0111010101110001000001000: 554368 474401 516354 506855 609211
0111110100110001000010000: 554368 474401 516354 532795 557807
0111110100110001000010000: 554368 474401 516354 532795 506855
0111010101110001000001000: 554368 474401 516354 532795 609211
0111110100110001000010000: 554368 474401 516354 567586 557807
0111110100110001000010000: 554368 474401 516354 567586 532795
0111010101110001000001000: 554368 474401 516354 567586 609211
0111010100110001000100010: 554368 474401 516354 567586 610799
0111110100110001000110010: 554368 474401 516354 567586 506855
0111110100110001000010000: 554368 474401 516354 534878 557807
0111110100110001000010000: 554368 474401 516354 534878 506855
0111110100110001000010000: 554368 474401 516354 534878 567586
0111010101110001000001000: 554368 474401 516354 534878 609211
0111010100110001000100010: 554368 474401 516354 534878 575730
0111110100110001000110010: 554368 474401 516354 534878 532795
0111110100110001000010000: 554368 474401 516354 528787 557807
0111110100110001000010000: 554368 474401 516354 528787 506855
0111110100110001000010000: 554368 474401 516354 528787 532795
0111110100110001000010000: 554368 474401 516354 528787 567586
0111110100110001000010000: 554368 474401 516354 528787 534878
0111010101110001000001000: 554368 474401 516354 528787 609211
0111110110110011100010100: 554368 474401 516354 642676 500883
0111110110110011100010100: 554368 474401 516354 642676 548652
0111010110110011100000100: 554368 474401 516354 642676 478363
0111010101110001000001000: 554368 474401 642676 506855 609211
0111110100110001000010000: 554368 474401 642676 532795 506855
0111010101110001000001000: 554368 474401 642676 532795 609211
0111010101110001000001000: 554368 474401 642676 500883 609211
0111110100110001000110010: 554368 474401 642676 500883 506855
0111110100110001000110010: 554368 474401 642676 500883 532795
0111110100110001000010000: 554368 474401 642676 567586 532795
0111110100110001000010000: 554368 474401 642676 567586 500883
0111010101110001000001000: 554368 474401 642676 567586 609211
0111010100110001000100010: 554368 474401 642676 567586 610799
0111110100110001000110010: 554368 474401 642676 567586 506855
0111110100110001000010000: 554368 474401 642676 534878 506855
0111110100110001000010000: 554368 474401 642676 534878 500883
0111110100110001000010000: 554368 474401 642676 534878 567586
0111010101110001000001000: 554368 474401 642676 534878 609211
0111010100110001000100010: 554368 474401 642676 534878 575730
0111110100110001000110010: 554368 474401 642676 534878 532795
0111110100110001000010000: 554368 474401 642676 548652 506855
0111110100110001000010000: 554368 474401 642676 548652 532795
0111110100110001000010000: 554368 474401 642676 548652 567586
0111110100110001000010000: 554368 474401 642676 548652 534878
0111010101110001000001000: 554368 474401 642676 548652 609211
0111010100110001000100010: 554368 474401 642676 548652 477964
0111110100110001000010000: 554368 474401 642676 528787 506855
0111110100110001000010000: 554368 474401 642676 528787 532795
0111110100110001000010000: 554368 474401 642676 528787 500883
0111110100110001000010000: 554368 474401 642676 528787 567586
0111110100110001000010000: 554368 474401 642676 528787 534878
0111010101110001000001000: 554368 474401 642676 528787 609211
0111010100110001000100010: 554368 474401 642676 528787 478363
0111110110110001100010000: 554368 474401 642676 516354 506855
0111110110110001100010000: 554368 474401 642676 516354 532795
0111110110110001100010000: 554368 474401 642676 516354 567586
0111110110110001100010000: 554368 474401 642676 516354 534878
0111110110110001100010000: 554368 474401 642676 516354 528787
0111110110110011100010100: 554368 474401 642676 516354 557807
0111110000100001000010000: 554368 548652 532795 506855 557807
0111110000100001000010000: 554368 548652 567586 532795 557807
0110010010100010100000100: 554368 548652 567586 477964 610799
0111110000100001000010000: 554368 548652 534878 506855 557807
0111110000100001000010000: 554368 548652 534878 567586 557807
0110010010100010100000100: 554368 548652 534878 477964 575730
0111110000100001000010000: 554368 548652 642676 532795 506855
0111110000100001000010000: 554368 548652 642676 567586 532795
0111110000100001000010000: 554368 548652 642676 534878 506855
0111110000100001000010000: 554368 548652 642676 534878 567586
0111110000100001000010000: 554368 548652 474401 506855 557807
0111110000100001000010000: 554368 548652 474401 532795 557807
0111110000100001000010000: 554368 548652 474401 532795 506855
0111110000100001000010000: 554368 548652 474401 567586 557807
0111110000100001000010000: 554368 548652 474401 567586 532795
0111110000100001000010000: 554368 548652 474401 534878 557807
0111110000100001000010000: 554368 548652 474401 534878 506855
0111110000100001000010000: 554368 548652 474401 534878 567586
0110010010100010100000100: 554368 548652 474401 477964 609211
0111010101110001000101010: 554368 548652 500883 557807 477964
0111110100110001000010000: 554368 548652 500883 567586 557807
0111010101110001000001000: 554368 548652 500883 567586 477964
0111010100110001000100010: 554368 548652 500883 567586 610799
0111110100110001000010000: 554368 548652 500883 534878 557807
0111110100110001000010000: 554368 548652 500883 534878 567586
0111010101110001000001000: 554368 548652 500883 534878 477964
0111010100110001000100010: 554368 548652 500883 534878 575730
0111110100110001000010000: 554368 548652 500883 642676 567586
0111110100110001000010000: 554368 548652 500883 642676 534878
0111010101110001000001000: 554368 548652 500883 642676 477964
0111110100110001000110010: 554368 548652 500883 642676 557807
0111110100110001000010000: 554368 548652 500883 474401 557807
0111110100110001000010000: 554368 548652 500883 474401 567586
0111110100110001000010000: 554368 548652 500883 474401 534878
0111010101110001000001000: 554368 548652 500883 474401 477964
0111010100110001000100010: 554368 548652 500883 474401 609211
0111110100110001000110010: 554368 548652 500883 474401 642676
0111110110110011100010100: 554368 548652 500883 528787 506855
0111110110110011100010100: 554368 548652 500883 528787 532795
0111010101110001000101010: 554368 548652 516354 557807 477964
0111110100110001000010000: 554368 548652 516354 506855 557807
0111010101110001000001000: 554368 548652 516354 506855 477964
0111110100110001000010000: 554368 548652 516354 532795 557807
0111110100110001000010000: 554368 548652 516354 532795 506855
0111010101110001000001000: 554368 548652 516354 532795 477964
0111110100110001000010000: 554368 548652 516354 567586 557807
0111110100110001000010000: 554368 548652 516354 567586 532795
0111010101110001000001000: 554368 548652 516354 567586 477964
0111010100110001000100010: 554368 548652 516354 567586 610799
0111110100110001000110010: 554368 548652 516354 567586 506855
0111110100110001000010000: 554368 548652 516354 534878 557807
0111110100110001000010000: 554368 548652 516354 534878 506855
0111110100110001000010000: 554368 548652 516354 534878 567586
0111010101110001000001000: 554368 548652 516354 534878 477964
0111010100110001000100010: 554368 548652 516354 534878 575730
0111110100110001000110010: 554368 548652 516354 534878 532795
0111110100110001000010000: 554368 548652 516354 642676 506855
0111110100110001000010000: 554368 548652 516354 642676 532795
0111110100110001000010000: 554368 548652 516354 642676 567586
0111110100110001000010000: 554368 548652 516354 642676 534878
0111010101110001000001000: 554368 548652 516354 642676 477964
0111110100110001000110010: 554368 548652 516354 642676 557807
0111110110110011100010100: 554368 548652 516354 528787 474401
0111110110110101110010000: 554368 548652 516354 500883 557807
0111110110110101110010000: 554368 548652 516354 500883 567586
0111110110110101110010000: 554368 548652 516354 500883 534878
0111110110110101110010000: 554368 548652 516354 500883 642676
0111110111110101110011000: 554368 548652 516354 500883 528787
0111010101110001000101010: 554368 548652 528787 557807 477964
0111010101110001000001000: 554368 548652 528787 506855 477964
0111010101110001000001000: 554368 548652 528787 532795 477964
0111010101110001000001000: 554368 548652 528787 567586 477964
0111010101110001000001000: 554368 548652 528787 534878 477964
0111010101110001000001000: 554368 548652 528787 642676 477964
0111010101110001000001000: 554368 548652 528787 474401 477964
0111110110110001100010000: 554368 548652 528787 500883 557807
0111110110110001100010000: 554368 548652 528787 500883 567586
0111110110110001100010000: 554368 548652 528787 500883 534878
0111110110110001100010000: 554368 548652 528787 500883 642676
0111110110110001100010000: 554368 548652 528787 500883 474401
0111010110110011100000100: 554368 548652 528787 500883 478363
0111110110110001100010000: 554368 548652 528787 516354 557807
0111110110110001100010000: 554368 548652 528787 516354 506855
0111110110110001100010000: 554368 548652 528787 516354 532795
0111110110110001100010000: 554368 548652 528787 516354 567586
0111110110110001100010000: 554368 548652 528787 516354 534878
0111110110110001100010000: 554368 548652 528787 516354 642676
0111010110110011100100110: 554368 548652 528787 516354 478363
0110010010100010100000100: 554368 528787 557807 478363 477964
0111110000100001000010000: 554368 528787 532795 506855 557807
0111110000100001000010000: 554368 528787 567586 532795 557807
0111110000100001000010000: 554368 528787 567586 500883 557807
0110010010100010100000100: 554368 528787 567586 478363 610799
0111110000100001000010000: 554368 528787 516354 506855 557807
0111110000100001000010000: 554368 528787 516354 532795 557807
0111110000100001000010000: 554368 528787 516354 532795 506855
0111110000100001000010000: 554368 528787 516354 567586 557807
0111110000100001000010000: 554368 528787 516354 567586 532795
0111110000100001000010000: 554368 528787 534878 506855 557807
0111110000100001000010000: 554368 528787 534878 500883 557807
0111110000100001000010000: 554368 528787 534878 567586 557807
0111110000100001000010000: 554368 528787 534878 567586 500883
0111110000100001000010000: 554368 528787 534878 516354 557807
0111110000100001000010000: 554368 528787 534878 516354 506855
0111110000100001000010000: 554368 528787 534878 516354 567586
0110010010100010100000100: 554368 528787 534878 478363 575730
0111110000100001000010000: 554368 528787 642676 532795 506855
0111110000100001000010000: 554368 528787 642676 567586 532795
0111110000100001000010000: 554368 528787 642676 567586 500883
0111110000100001000010000: 554368 528787 642676 516354 506855
0111110000100001000010000: 554368 528787 642676 516354 532795
0111110000100001000010000: 554368 528787 642676 516354 567586
0111110000100001000010000: 554368 528787 642676 534878 506855
0111110000100001000010000: 554368 528787 642676 534878 500883
0111110000100001000010000: 554368 528787 642676 534878 567586
0111110000100001000010000: 554368 528787 642676 534878 516354
0111110000100001000010000: 554368 528787 474401 506855 557807
0111110000100001000010000: 554368 528787 474401 532795 557807
0111110000100001000010000: 554368 528787 474401 532795 506855
0111110000100001000010000: 554368 528787 474401 500883 557807
0111110000100001000010000: 554368 528787 474401 567586 557807
0111110000100001000010000: 554368 528787 474401 567586 532795
0111110000100001000010000: 554368 528787 474401 567586 500883
0111110000100001000010000: 554368 528787 474401 534878 557807
0111110000100001000010000: 554368 528787 474401 534878 506855
0111110000100001000010000: 554368 528787 474401 534878 500883
0111110000100001000010000: 554368 528787 474401 534878 567586
0110010010100010100000100: 554368 528787 474401 478363 609211
0111110100110001000010000: 554368 528787 548652 506855 557807
0111110100110001000010000: 554368 528787 548652 532795 557807
0111110100110001000010000: 554368 528787 548652 532795 506855
0111110100110001000010000: 554368 528787 548652 567586 557807
0111110100110001000010000: 554368 528787 548652 567586 532795
0111010100110001000100010: 554368 528787 548652 567586 610799
0111110100110001000110010: 554368 528787 548652 567586 506855
0111110100110001000010000: 554368 528787 548652 534878 557807
0111110100110001000010000: 554368 528787 548652 534878 506855
0111110100110001000010000: 554368 528787 548652 534878 567586
0111010100110001000100010: 554368 528787 548652 534878 575730
0111110100110001000110010: 554368 528787 548652 534878 532795
0111110100110001000010000: 554368 528787 548652 642676 506855
0111110100110001000010000: 554368 528787 548652 642676 532795
0111110100110001000010000: 554368 528787 548652 642676 567586
0111110100110001000010000: 554368 528787 548652 642676 534878
0111110100110001000110010: 554368 528787 548652 642676 557807
0111110100110001000010000: 554368 528787 548652 474401 557807
0111110100110001000010000: 554368 528787 548652 474401 506855
0111110100110001000010000: 554368 528787 548652 474401 532795
0111110100110001000010000: 554368 528787 548652 474401 567586
0111110100110001000010000: 554368 528787 548652 474401 534878
0111010100110001000100010: 554368 528787 548652 474401 609211
0111110100110001000110010: 554368 528787 548652 474401 642676
0110010010100010100000100: 548652 500883 477964 506855 557807
0110010011100000100001000: 548652 500883 477964 532795 506855
0110010010100010100000100: 548652 500883 477964 532795 557807
0110010011100000100001000: 548652 500883 528787 532795 506855
0111010101110001000001000: 548652 500883 516354 477964 506855
0111010101110001000001000: 548652 500883 516354 477964 532795
0111010101110001000001000: 548652 500883 516354 528787 506855
0111010101110001000001000: 548652 500883 516354 528787 532795
0110010010100010100000100: 548652 516354 477964 478363 557807
0110010011100000100001000: 548652 516354 477964 474401 478363
0110010010100010100000100: 548652 516354 477964 474401 557807
0110010011100100110001000: 548652 516354 528787 478363 474401
0111010101110001000001000: 548652 516354 500883 477964 478363
0111010101110001000001000: 548652 516354 500883 477964 474401
0111010100110001000100010: 548652 516354 500883 477964 557807
0111110100110001000010000: 548652 516354 500883 528787 477964
0111010101110001000001000: 548652 516354 500883 528787 474401
0111010101110001000101010: 548652 516354 500883 528787 478363
0111010101110001000001000: 548652 516354 554368 477964 478363
0110010011100000100001000: 548652 554368 477964 532795 506855
0110010011100000100001000: 548652 554368 477964 567586 532795
0110010011100000100001000: 548652 554368 477964 534878 506855
0110010011100000100001000: 548652 554368 477964 534878 567586
0110010011100000100001000: 548652 554368 477964 642676 506855
0110010011100000100001000: 548652 554368 477964 642676 532795
0110010011100000100001000: 548652 554368 477964 642676 567586
0110010011100000100001000: 548652 554368 477964 642676 534878
0110010011100000100001000: 548652 554368 477964 474401 506855
0110010011100000100001000: 548652 554368 477964 474401 532795
0110010011100000100001000: 548652 554368 477964 474401 567586
0110010011100000100001000: 548652 554368 477964 474401 534878
0110010011100100110001000: 548652 554368 477964 557807 506855
0110010011100100110001000: 548652 554368 477964 557807 532795
0110010011100100110001000: 548652 554368 477964 557807 567586
0110010011100100110001000: 548652 554368 477964 557807 534878
0110010011100100110001000: 548652 554368 477964 557807 474401
0111110110110101110010000: 548652 554368 516354 500883 477964
0111110110110001100010000: 548652 554368 528787 500883 477964
0111110110110001100010000: 548652 554368 528787 516354 477964
0110010010100010100000100: 548652 528787 477964 478363 557807
0110010010100010100000100: 548652 528787 500883 478363 506855
0110010010100010100000100: 548652 528787 500883 478363 532795
0110010011100000100001000: 474401 516354 609211 478363 500883
0110010011100000100001000: 474401 516354 609211 548652 478363
0110010011100000100001000: 474401 516354 642676 478363 500883
0110010011100000100001000: 474401 516354 642676 548652 478363
0111010101110001000001000: 474401 516354 554368 609211 478363
0110010010100010100000100: 474401 609211 516354 610799 500883
0110010010100010100000100: 474401 609211 516354 610799 478363
0110010010100010100000100: 474401 609211 516354 610799 548652
0110010010100010100000100: 474401 642676 516354 557807 500883
0110010010100010100000100: 474401 642676 516354 557807 478363
0110010010100010100000100: 474401 642676 516354 557807 548652
0110010010100010100000100: 474401 642676 609211 557807 610799
0110010010100010100000100: 474401 554368 609211 557807 610799
0110010011100000100001000: 474401 554368 609211 506855 557807
0110010010100010100000100: 474401 554368 609211 506855 610799
0110010011100000100001000: 474401 554368 609211 532795 557807
0110010011100000100001000: 474401 554368 609211 532795 506855
0110010010100010100000100: 474401 554368 609211 532795 610799
0110010011100000100001000: 474401 554368 609211 500883 557807
0110010010100010100000100: 474401 554368 609211 500883 610799
0110010011100000100001000: 474401 554368 609211 567586 557807
0110010011100000100001000: 474401 554368 609211 567586 532795
0110010011100000100001000: 474401 554368 609211 567586 500883
0110010011100000100001000: 474401 554368 609211 534878 557807
0110010011100000100001000: 474401 554368 609211 534878 506855
0110010011100000100001000: 474401 554368 609211 534878 500883
0110010011100000100001000: 474401 554368 609211 534878 567586
0110010010100010100000100: 474401 554368 609211 534878 610799
0110010011100000100001000: 474401 554368 609211 548652 557807
0110010011100000100001000: 474401 554368 609211 548652 506855
0110010011100000100001000: 474401 554368 609211 548652 532795
0110010011100000100001000: 474401 554368 609211 548652 567586
0110010011100000100001000: 474401 554368 609211 548652 534878
0110010010100010100000100: 474401 554368 609211 548652 610799
0110010011100000100001000: 474401 554368 609211 528787 557807
0110010011100000100001000: 474401 554368 609211 528787 506855
0110010011100000100001000: 474401 554368 609211 528787 532795
0110010011100000100001000: 474401 554368 609211 528787 500883
0110010011100000100001000: 474401 554368 609211 528787 567586
0110010011100000100001000: 474401 554368 609211 528787 534878
0110010010100010100000100: 474401 554368 609211 528787 610799
0111010100110001000100010: 474401 554368 516354 609211 610799
0111010100110001000100010: 474401 554368 642676 609211 610799
0111110110110001100010000: 474401 554368 642676 516354 609211
0110010010100010100000100: 642676 474401 557807 516354 477964
0110010011100000100001000: 642676 474401 557807 609211 516354
0110010010100010100000100: 642676 474401 557807 609211 477964
0110010010100010100000100: 609211 474401 610799 516354 567586
0110010011100000100001000: 609211 474401 610799 642676 516354
0110010010100010100000100: 609211 474401 610799 642676 567586
0110010011100000100001000: 534878 554368 575730 506855 557807
0110010011100000100001000: 534878 554368 575730 500883 557807
0110010011100000100001000: 534878 554368 575730 567586 557807
0110010011100000100001000: 534878 554368 575730 567586 500883
0110010011100000100001000: 534878 554368 575730 516354 557807
0110010011100000100001000: 534878 554368 575730 516354 506855
0110010011100000100001000: 534878 554368 575730 516354 567586
0110010011100000100001000: 534878 554368 575730 642676 506855
0110010011100000100001000: 534878 554368 575730 642676 500883
0110010011100000100001000: 534878 554368 575730 642676 567586
0110010011100000100001000: 534878 554368 575730 642676 516354
0110010011100000100001000: 534878 554368 575730 474401 557807
0110010011100000100001000: 534878 554368 575730 474401 506855
0110010011100000100001000: 534878 554368 575730 474401 500883
0110010011100000100001000: 534878 554368 575730 474401 567586
0110010011100000100001000: 534878 554368 575730 548652 557807
0110010011100000100001000: 534878 554368 575730 548652 506855
0110010011100000100001000: 534878 554368 575730 548652 567586
0110010011100000100001000: 534878 554368 575730 548652 642676
0110010011100000100001000: 534878 554368 575730 548652 474401
0110010011100000100001000: 534878 554368 575730 528787 557807
0110010011100000100001000: 534878 554368 575730 528787 506855
0110010011100000100001000: 534878 554368 575730 528787 500883
0110010011100000100001000: 534878 554368 575730 528787 567586
0110010011100000100001000: 534878 554368 575730 528787 516354
0110010011100000100001000: 534878 554368 575730 528787 642676
0110010011100000100001000: 534878 554368 575730 528787 474401
0110010011100000100001000: 478363 516354 528787 474401 500883
0110010011100000100001000: 516354 500883 478363 532795 506855
0110010011100000100001000: 516354 500883 474401 532795 506855
0111010101110001000001000: 516354 500883 548652 478363 506855
0111010101110001000001000: 516354 500883 548652 478363 532795
0111010101110001000001000: 516354 500883 548652 474401 506855
0111010101110001000001000: 516354 500883 548652 474401 532795
0110010010100010100000100: 516354 478363 500883 528787 506855
0110010010100010100000100: 516354 478363 500883 528787 532795
0110010010100010100000100: 516354 474401 500883 609211 506855
0110010010100010100000100: 516354 474401 500883 609211 532795
0110010011100000100001000: 516354 474401 500883 642676 609211
0110010010100010100000100: 516354 474401 500883 642676 506855
0110010010100010100000100: 516354 474401 500883 642676 532795
0110010010100010100000100: 516354 474401 478363 609211 528787
0110010011100000100001000: 516354 474401 478363 642676 609211
0110010010100010100000100: 516354 474401 478363 642676 528787
0110010011100000100001000: 516354 474401 548652 642676 609211
0110010010100010100000100: 516354 548652 474401 477964 609211
0110010010100010100000100: 516354 548652 474401 477964 642676
0110010011100000100001000: 516354 548652 474401 528787 477964
0110010010100010100000100: 516354 548652 474401 528787 609211
0110010010100010100000100: 516354 548652 474401 528787 642676
0111110100110001000010000: 516354 548652 500883 474401 478363
0111010100110001000100010: 516354 548652 500883 474401 609211
0111010100110001000100010: 516354 548652 500883 474401 642676
0110010011100000100001000: 516354 554368 478363 506855 557807
0110010011100000100001000: 516354 554368 478363 532795 557807
0110010011100000100001000: 516354 554368 478363 532795 506855
0110010011100000100001000: 516354 554368 478363 567586 557807
0110010011100000100001000: 516354 554368 478363 567586 532795
0110010011100000100001000: 516354 554368 478363 534878 557807
0110010011100000100001000: 516354 554368 478363 534878 506855
0110010011100000100001000: 516354 554368 478363 534878 567586
0110010011100000100001000: 516354 554368 478363 642676 506855
0110010011100000100001000: 516354 554368 478363 642676 532795
0110010011100000100001000: 516354 554368 478363 642676 567586
0110010011100000100001000: 516354 554368 478363 642676 534878
0111110110110001100010000: 516354 554368 474401 500883 478363
0111110110110001100010000: 516354 554368 548652 474401 478363
0111110110110101110010000: 516354 554368 548652 500883 478363
0110010010100010100000100: 567586 610799 506855 609211 500883
0110010010100010100000100: 567586 554368 610799 557807 609211
0110010011100000100001000: 567586 554368 610799 532795 557807
0110010010100010100000100: 567586 554368 610799 532795 609211
0110010011100000100001000: 567586 554368 610799 500883 557807
0110010010100010100000100: 567586 554368 610799 500883 609211
0110010011100000100001000: 567586 554368 610799 516354 557807
0110010011100000100001000: 567586 554368 610799 516354 532795
0110010010100010100000100: 567586 554368 610799 516354 609211
0110010011100000100001000: 567586 554368 610799 534878 557807
0110010011100000100001000: 567586 554368 610799 534878 500883
0110010011100000100001000: 567586 554368 610799 534878 516354
0110010010100010100000100: 567586 554368 610799 534878 609211
0110010011100000100001000: 567586 554368 610799 642676 532795
0110010011100000100001000: 567586 554368 610799 642676 500883
0110010011100000100001000: 567586 554368 610799 642676 516354
0110010011100000100001000: 567586 554368 610799 642676 534878
0110010010100010100000100: 567586 554368 610799 642676 609211
0110010011100000100001000: 567586 554368 610799 474401 557807
0110010011100000100001000: 567586 554368 610799 474401 532795
0110010011100000100001000: 567586 554368 610799 474401 500883
0110010011100000100001000: 567586 554368 610799 474401 534878
0110010011100000100001000: 567586 554368 610799 548652 557807
0110010011100000100001000: 567586 554368 610799 548652 532795
0110010011100000100001000: 567586 554368 610799 548652 534878
0110010011100000100001000: 567586 554368 610799 548652 642676
0110010011100000100001000: 567586 554368 610799 548652 474401
0110010010100010100000100: 567586 554368 610799 548652 609211
0110010011100000100001000: 567586 554368 610799 528787 557807
0110010011100000100001000: 567586 554368 610799 528787 532795
0110010011100000100001000: 567586 554368 610799 528787 500883
0110010011100000100001000: 567586 554368 610799 528787 516354
0110010011100000100001000: 567586 554368 610799 528787 534878
0110010011100000100001000: 567586 554368 610799 528787 642676
0110010011100000100001000: 567586 554368 610799 528787 474401
0110010010100010100000100: 567586 554368 610799 528787 609211
0111010100110001000100010: 567586 554368 506855 610799 609211
0110010010100010100000100: 610799 609211 567586 474401 506855
0110010010100010100000100: 500883 532795 506855 534878 567586
0110010010100010100000100: 500883 516354 506855 478363 567586
0110010011100000100001000: 500883 516354 506855 474401 478363
0110010010100010100000100: 500883 516354 506855 474401 567586
0110010010100010100000100: 500883 516354 532795 478363 534878
0110010011100000100001000: 500883 516354 532795 474401 478363
0110010010100010100000100: 500883 516354 532795 474401 534878
0110010010100010100000100: 500883 548652 506855 477964 567586
0110010011100000100001000: 500883 548652 506855 528787 477964
0110010010100010100000100: 500883 548652 506855 528787 567586
0110010010100010100000100: 500883 548652 532795 477964 534878
0110010011100000100001000: 500883 548652 532795 528787 477964
0110010010100010100000100: 500883 548652 532795 528787 534878
0111010100110001000100010: 500883 548652 516354 506855 567586
0111110100110001000010000: 500883 548652 516354 532795 506855
0111010100110001000100010: 500883 548652 516354 532795 534878
0110010011100000100001000: 532795 500883 534878 516354 506855
0110010011100000100001000: 532795 500883 534878 548652 506855
0110010010100010100000100: 532795 534878 500883 575730 506855
0110010010100010100000100: 532795 534878 500883 575730 516354
0110010010100010100000100: 532795 534878 500883 575730 548652
0110010011100000100001000: 506855 500883 567586 516354 532795
0110010011100000100001000: 506855 500883 567586 548652 532795
0110010010100010100000100: 506855 567586 500883 610799 532795
0110010010100010100000100: 506855 567586 500883 610799 516354
0110010010100010100000100: 506855 567586 500883 610799 548652
0110010010100010100000100: 557807 642676 477964 474401 548652
0110010011100000100001000: 557807 554368 477964 532795 506855
0110010011100000100001000: 557807 554368 477964 567586 532795
0110010011100000100001000: 557807 554368 477964 567586 500883
0110010011100000100001000: 557807 554368 477964 516354 506855
0110010011100000100001000: 557807 554368 477964 516354 532795
0110010011100000100001000: 557807 554368 477964 516354 567586
0110010011100000100001000: 557807 554368 477964 534878 506855
0110010011100000100001000: 557807 554368 477964 534878 500883
0110010011100000100001000: 557807 554368 477964 534878 567586
0110010011100000100001000: 557807 554368 477964 534878 516354
0110010011100000100001000: 557807 554368 477964 474401 506855
0110010011100000100001000: 557807 554368 477964 474401 532795
0110010011100000100001000: 557807 554368 477964 474401 500883
0110010011100000100001000: 557807 554368 477964 474401 567586
0110010011100000100001000: 557807 554368 477964 474401 534878
0110010011100000100001000: 557807 554368 477964 528787 506855
0110010011100000100001000: 557807 554368 477964 528787 532795
0110010011100000100001000: 557807 554368 477964 528787 500883
0110010011100000100001000: 557807 554368 477964 528787 567586
0110010011100000100001000: 557807 554368 477964 528787 516354
0110010011100000100001000: 557807 554368 477964 528787 534878
0110010011100000100001000: 557807 554368 477964 528787 474401
0110010010100010100000100: 477964 548652 557807 500883 642676
0110010010100010100000100: 477964 548652 557807 516354 642676
0110010011100000100001000: 477964 548652 557807 528787 500883
0110010011100000100001000: 477964 548652 557807 528787 516354
0110010010100010100000100: 477964 548652 557807 528787 642676
