0110010010100010100000100: 554492 459311 497799 534073 632227
0110010011100000100001000: 554492 459311 497799 576021 534073
0110010010100010100000100: 554492 459311 497799 576021 632227
0110010011100000100001000: 554492 459311 546821 576021 534073
0110010011100000100001000: 554492 459311 525852 576021 534073
0111010101110001000001000: 554492 459311 550157 497799 534073
0111010101110001000001000: 554492 459311 550157 546821 534073
0111010101110001000001000: 554492 459311 550157 525852 534073
0110010010100010100000100: 554492 550157 497799 547166 632227
0110010011100000100001000: 554492 550157 497799 576021 547166
0110010010100010100000100: 554492 550157 497799 576021 632227
0110010011100000100001000: 554492 550157 497799 611337 547166
0110010011100000100001000: 554492 550157 497799 611337 576021
0110010010100010100000100: 554492 550157 497799 611337 632227
0110010011100000100001000: 554492 550157 546821 576021 547166
0110010011100000100001000: 554492 550157 546821 611337 547166
0110010011100000100001000: 554492 550157 546821 611337 576021
0110010011100100110001000: 554492 550157 525852 547166 576021
0110010011100100110001000: 554492 550157 525852 611337 576021
0111010101110001000001000: 554492 550157 459311 497799 547166
0111010101110001000001000: 554492 550157 459311 497799 611337
0111010100110001000100010: 554492 550157 459311 497799 632227
0111010101110001000001000: 554492 550157 459311 546821 547166
0111010101110001000001000: 554492 550157 459311 546821 611337
0111010100110001000100010: 554492 550157 459311 546821 632227
0111010100110001000100010: 554492 550157 459311 546821 531501
0111110100110001000010000: 554492 550157 459311 525852 497799
0111010100110001000100010: 554492 550157 459311 525852 467743
0111010100110001000100010: 554492 550157 459311 525852 632227
0111010101110001000101010: 554492 550157 459311 525852 547166
0111010101110001000101010: 554492 550157 459311 525852 611337
0110010010100010100000100: 554492 546821 459311 632227 534073
0110010010100010100000100: 554492 546821 459311 632227 576021
0110010011100000100001000: 554492 546821 459311 531501 632227
0110010010100010100000100: 554492 546821 459311 531501 534073
0110010010100010100000100: 554492 546821 459311 531501 576021
0110010010100010100000100: 554492 546821 550157 632227 547166
0110010010100010100000100: 554492 546821 550157 632227 576021
0110010010100010100000100: 554492 546821 550157 632227 611337
0110010011100000100001000: 554492 546821 550157 531501 632227
0110010010100010100000100: 554492 546821 550157 531501 547166
0110010010100010100000100: 554492 546821 550157 531501 576021
0110010010100010100000100: 554492 546821 550157 531501 611337
0111010101110001000001000: 554492 546821 497799 459311 531501
0111010100110001000100010: 554492 546821 497799 459311 534073
0111010100110001000100010: 554492 546821 497799 459311 576021
0111010101110001000001000: 554492 546821 497799 550157 531501
0111010100110001000100010: 554492 546821 497799 550157 547166
0111010100110001000100010: 554492 546821 497799 550157 576021
0111010100110001000100010: 554492 546821 497799 550157 611337
0111110100110001000110010: 554492 546821 497799 550157 459311
0111010101110001000001000: 554492 546821 525852 459311 531501
0111010101110001000001000: 554492 546821 525852 550157 531501
0111110110110001100010000: 554492 546821 525852 497799 459311
0111110110110001100010000: 554492 546821 525852 497799 550157
0111010110110011100000100: 554492 546821 525852 497799 467743
0111010110110011100000100: 554492 546821 525852 497799 547166
0111010110110011100000100: 554492 546821 525852 497799 611337
0111010110110011100000100: 554492 554368 550157 497799 611337
0111010110110011100000100: 554492 554368 550157 546821 611337
0111110111110101110011000: 554492 554368 550157 459311 497799
0111110111110101110011000: 554492 554368 550157 459311 546821
0111110111110101110011000: 554492 554368 550157 459311 525852
0111110111110101110011000: 554492 554368 546821 497799 459311
0111110111110101110011000: 554492 554368 546821 497799 550157
0111110111110111110011100: 554492 554368 546821 525852 497799
0111010110110011100000100: 554492 554368 525852 497799 467743
0111010110110011100000100: 554492 554368 525852 497799 611337
0111110111110001100011000: 554492 554368 525852 459311 497799
0111010110110011100000100: 554492 554368 525852 459311 467743
0111010110110011100000100: 554492 554368 525852 459311 611337
0111110111110001100011000: 554492 554368 525852 550157 497799
0111010110110011100000100: 554492 554368 525852 550157 467743
0111010110110011100100110: 554492 554368 525852 550157 611337
0111110111110101110011000: 554492 554368 525852 546821 459311
0111110111110101110011000: 554492 554368 525852 546821 550157
0110010011100000100001000: 554492 525852 497799 611337 467743
0110010011100000100001000: 554492 525852 497799 611337 547166
0110010011100100110001000: 554492 525852 497799 632227 467743
0110010011100100110001000: 554492 525852 497799 632227 547166
0110010011100100110001000: 554492 525852 497799 632227 611337
0110010010100010100000100: 554492 525852 459311 467743 534073
0110010010100010100000100: 554492 525852 459311 467743 576021
0110010011100000100001000: 554492 525852 459311 632227 467743
0110010010100010100000100: 554492 525852 459311 632227 534073
0110010010100010100000100: 554492 525852 459311 632227 576021
0110010011100000100001000: 554492 525852 459311 547166 632227
0110010010100010100000100: 554492 525852 459311 547166 534073
0110010010100010100000100: 554492 525852 459311 547166 576021
0110010011100000100001000: 554492 525852 459311 611337 467743
0110010011100000100001000: 554492 525852 459311 611337 632227
0110010011100000100001000: 554492 525852 459311 611337 547166
0110010010100010100000100: 554492 525852 459311 611337 534073
0110010010100010100000100: 554492 525852 459311 611337 576021
0110010010100010100000100: 554492 525852 550157 467743 576021
0110010011100000100001000: 554492 525852 550157 632227 467743
0110010010100010100000100: 554492 525852 550157 632227 576021
0110010011100100110001000: 554492 525852 550157 547166 632227
0110010011100100110001000: 554492 525852 550157 611337 467743
0110010011100100110001000: 554492 525852 550157 611337 632227
0110010011100110110001100: 554492 525852 550157 611337 547166
0111010101110001000001000: 554492 525852 546821 459311 467743
0111010101110001000001000: 554492 525852 546821 459311 547166
0111010101110001000001000: 554492 525852 546821 459311 611337
0111010100110001000100010: 554492 525852 546821 459311 534073
0111010100110001000100010: 554492 525852 546821 459311 576021
0111010101110001000001000: 554492 525852 546821 550157 467743
0111010100110001000100010: 554492 525852 546821 550157 576021
0111110100110001000110010: 554492 525852 546821 550157 459311
0111010101110001000101010: 554492 525852 546821 550157 547166
0111010101110001000101010: 554492 525852 546821 550157 611337
0111010101110001000001000: 525852 467743 547166 632227 510194
0111010101110001000001000: 525852 467743 547166 546821 510194
0111010101110001000001000: 525852 467743 547166 611337 510194
0111010101110001000001000: 525852 467743 547166 554492 510194
0110010010100010100000100: 525852 632227 467743 497799 510194
0110010010100010100000100: 525852 547166 632227 550157 497799
0111010101110001000001000: 525852 547166 467743 632227 550157
0111010100110001000100010: 525852 547166 467743 632227 497799
0111010101110001000001000: 525852 547166 467743 546821 550157
0111010100110001000100010: 525852 547166 467743 546821 497799
0111010100110001000100010: 525852 547166 467743 546821 531501
0111110100110001000010000: 525852 547166 467743 611337 632227
0111110100110001000010000: 525852 547166 467743 611337 546821
0111010100110001000100010: 525852 547166 467743 611337 639773
0111010100110001000100010: 525852 547166 467743 611337 514054
0111010100110001000100010: 525852 547166 467743 611337 556601
0111010101110001000101010: 525852 547166 467743 611337 550157
0111110100110001000010000: 525852 547166 467743 554492 632227
0111110100110001000010000: 525852 547166 467743 554492 611337
0111010100110001000100010: 525852 547166 467743 554492 497799
0111010100110001000100010: 525852 547166 467743 554492 459311
0111010101110001000101010: 525852 547166 467743 554492 550157
0111010110110011100000100: 525852 547166 467743 554368 510194
0111110110110001100010000: 525852 547166 554368 467743 611337
0111010110110011100000100: 525852 547166 554368 467743 514054
0111010110110011100000100: 525852 547166 554368 467743 497799
0111010110110011100000100: 525852 547166 554368 467743 531501
0111010110110011100000100: 525852 547166 554368 467743 459311
0111010110110011100000100: 525852 547166 554368 467743 534073
0111010110110011100000100: 525852 547166 554368 467743 576021
0110010010100010100000100: 525852 546821 467743 497799 510194
0110010011100000100001000: 525852 546821 467743 531501 497799
0110010010100010100000100: 525852 546821 467743 531501 510194
0110010010100010100000100: 525852 546821 547166 497799 550157
0110010011100000100001000: 525852 546821 547166 531501 497799
0110010010100010100000100: 525852 546821 547166 531501 550157
0110010011100000100001000: 525852 546821 611337 531501 497799
0111010101110001000001000: 525852 546821 632227 467743 531501
0111010100110001000100010: 525852 546821 632227 467743 510194
0111010101110001000001000: 525852 546821 632227 547166 531501
0111010100110001000100010: 525852 546821 632227 547166 550157
0111110100110001000110010: 525852 546821 632227 547166 467743
0111110100110001000010000: 525852 546821 632227 611337 467743
0111110100110001000010000: 525852 546821 632227 611337 547166
0111010101110001000001000: 525852 546821 632227 611337 531501
0111010100110001000100010: 525852 546821 632227 611337 639773
0111010100110001000100010: 525852 546821 632227 611337 514054
0111010100110001000100010: 525852 546821 632227 611337 550157
0111010100110001000100010: 525852 546821 632227 611337 556601
0111010101110001000001000: 525852 546821 554492 467743 531501
0111010101110001000001000: 525852 546821 554492 547166 531501
0111010101110001000001000: 525852 546821 554492 611337 531501
0111110110110001100010000: 525852 546821 554492 632227 467743
0111110110110001100010000: 525852 546821 554492 632227 547166
0111110110110001100010000: 525852 546821 554492 632227 611337
0111010110110011100000100: 525852 546821 554492 632227 459311
0111010110110011100000100: 525852 546821 554492 632227 550157
0110010010100010100000100: 525852 554368 467743 514054 510194
0110010011100000100001000: 525852 554368 467743 497799 514054
0110010010100010100000100: 525852 554368 467743 497799 510194
0110010011100000100001000: 525852 554368 467743 531501 497799
0110010010100010100000100: 525852 554368 467743 531501 510194
0110010011100000100001000: 525852 554368 467743 459311 514054
0110010011100000100001000: 525852 554368 467743 459311 497799
0110010011100000100001000: 525852 554368 467743 459311 531501
0110010010100010100000100: 525852 554368 467743 459311 510194
0110010011100000100001000: 525852 554368 467743 534073 514054
0110010011100000100001000: 525852 554368 467743 534073 497799
0110010011100000100001000: 525852 554368 467743 534073 531501
0110010010100010100000100: 525852 554368 467743 534073 510194
0110010011100000100001000: 525852 554368 467743 550157 514054
0110010011100000100001000: 525852 554368 467743 550157 497799
0110010011100000100001000: 525852 554368 467743 550157 531501
0110010011100000100001000: 525852 554368 467743 550157 534073
0110010010100010100000100: 525852 554368 467743 550157 510194
0110010011100000100001000: 525852 554368 467743 576021 514054
0110010011100000100001000: 525852 554368 467743 576021 497799
0110010011100000100001000: 525852 554368 467743 576021 531501
0110010011100000100001000: 525852 554368 467743 576021 534073
0110010010100010100000100: 525852 554368 467743 576021 510194
0110010011100000100001000: 525852 554368 611337 531501 497799
0110010011100000100001000: 525852 554368 611337 459311 497799
0110010011100000100001000: 525852 554368 611337 459311 531501
0110010011100000100001000: 525852 554368 611337 534073 497799
0110010011100000100001000: 525852 554368 611337 534073 531501
0110010011100000100001000: 525852 554368 611337 576021 497799
0110010011100000100001000: 525852 554368 611337 576021 531501
0110010011100000100001000: 525852 554368 611337 576021 534073
0110010011100100110001000: 525852 554368 611337 514054 497799
0110010011100100110001000: 525852 554368 611337 514054 459311
0110010011100100110001000: 525852 554368 611337 514054 534073
0110010011100100110001000: 525852 554368 611337 514054 576021
0110010011100100110001000: 525852 554368 611337 550157 497799
0110010011100100110001000: 525852 554368 611337 550157 531501
0110010011100100110001000: 525852 554368 611337 550157 534073
0111010101110001000001000: 525852 554368 632227 467743 514054
0111010101110001000001000: 525852 554368 632227 467743 531501
0111010101110001000001000: 525852 554368 632227 467743 459311
0111010101110001000001000: 525852 554368 632227 467743 534073
0111010101110001000001000: 525852 554368 632227 467743 550157
0111010101110001000001000: 525852 554368 632227 467743 576021
0111010100110001000100010: 525852 554368 632227 467743 510194
0111110100110001000010000: 525852 554368 632227 611337 467743
0111010101110001000001000: 525852 554368 632227 611337 531501
0111010101110001000001000: 525852 554368 632227 611337 459311
0111010101110001000001000: 525852 554368 632227 611337 534073
0111010101110001000001000: 525852 554368 632227 611337 576021
0111010100110001000100010: 525852 554368 632227 611337 639773
0111010100110001000100010: 525852 554368 632227 611337 556601
0111010101110001000101010: 525852 554368 632227 611337 514054
0111010101110001000101010: 525852 554368 632227 611337 550157
0111010101110001000001000: 525852 554368 547166 611337 497799
0111010101110001000001000: 525852 554368 547166 611337 531501
0111010101110001000001000: 525852 554368 547166 611337 459311
0111010101110001000001000: 525852 554368 547166 611337 534073
0111010101110001000001000: 525852 554368 547166 611337 576021
0111010100110001000100010: 525852 554368 547166 611337 639773
0111010100110001000100010: 525852 554368 547166 611337 556601
0111010101110001000101010: 525852 554368 547166 611337 514054
0111110110110001100010000: 525852 554368 547166 632227 611337
0111110110110011100010100: 525852 554368 547166 632227 467743
0111110110110011100010100: 525852 554368 547166 546821 467743
0111110110110011100010100: 525852 554368 547166 554492 467743
0111010101110001000001000: 525852 554368 546821 467743 514054
0111010101110001000001000: 525852 554368 546821 467743 459311
0111010101110001000001000: 525852 554368 546821 467743 534073
0111010101110001000001000: 525852 554368 546821 467743 550157
0111010101110001000001000: 525852 554368 546821 467743 576021
0111010100110001000100010: 525852 554368 546821 467743 510194
0111110100110001000010000: 525852 554368 546821 611337 467743
0111010101110001000001000: 525852 554368 546821 611337 459311
0111010101110001000001000: 525852 554368 546821 611337 534073
0111010101110001000001000: 525852 554368 546821 611337 576021
0111010100110001000100010: 525852 554368 546821 611337 639773
0111010100110001000100010: 525852 554368 546821 611337 556601
0111010101110001000101010: 525852 554368 546821 611337 514054
0111010101110001000101010: 525852 554368 546821 611337 550157
0111110110110001100010000: 525852 554368 546821 547166 611337
0111110110110101110010000: 525852 554368 546821 632227 467743
0111110110110101110010000: 525852 554368 546821 632227 611337
0111110111110101110011000: 525852 554368 546821 632227 547166
0111110111110111110011100: 525852 554368 546821 554492 632227
0111010101110001000001000: 525852 554368 554492 467743 514054
0111010101110001000001000: 525852 554368 554492 467743 531501
0111010101110001000001000: 525852 554368 554492 467743 534073
0111010101110001000001000: 525852 554368 554492 467743 576021
0111010101110001000001000: 525852 554368 554492 611337 531501
0111010101110001000001000: 525852 554368 554492 611337 534073
0111010101110001000001000: 525852 554368 554492 611337 576021
0111010101110001000101010: 525852 554368 554492 611337 514054
0111110110110001100010000: 525852 554368 554492 632227 467743
0111110110110001100010000: 525852 554368 554492 632227 611337
0111110110110001100010000: 525852 554368 554492 547166 611337
0111110111110001100011000: 525852 554368 554492 547166 632227
0111110111110101110011000: 525852 554368 554492 546821 547166
0110010010100010100000100: 525852 611337 467743 639773 510194
0110010011100000100001000: 525852 611337 467743 514054 639773
0110010010100010100000100: 525852 611337 467743 514054 510194
0110010011100000100001000: 525852 611337 467743 550157 639773
0110010011100000100001000: 525852 611337 467743 550157 514054
0110010010100010100000100: 525852 611337 467743 550157 510194
0110010011100000100001000: 525852 611337 467743 556601 639773
0110010011100000100001000: 525852 611337 467743 556601 550157
0110010010100010100000100: 525852 611337 467743 556601 510194
0110010010100010100000100: 525852 611337 632227 639773 497799
0110010011100000100001000: 525852 611337 632227 514054 639773
0110010010100010100000100: 525852 611337 632227 514054 497799
0110010011100000100001000: 525852 611337 632227 550157 639773
0110010011100000100001000: 525852 611337 632227 550157 514054
0110010010100010100000100: 525852 611337 632227 550157 497799
0110010011100000100001000: 525852 611337 632227 556601 639773
0110010011100000100001000: 525852 611337 632227 556601 550157
0110010010100010100000100: 525852 611337 632227 556601 497799
0110010011100000100001000: 525852 611337 547166 514054 639773
0110010011100000100001000: 525852 611337 547166 556601 639773
0110010011100100110001000: 525852 611337 547166 550157 639773
0110010011100100110001000: 525852 611337 547166 550157 514054
0110010011100100110001000: 525852 611337 547166 550157 556601
0110010010100010100000100: 525852 611337 546821 639773 497799
0110010010100010100000100: 525852 611337 546821 639773 531501
0110010011100000100001000: 525852 611337 546821 514054 639773
0110010010100010100000100: 525852 611337 546821 514054 497799
0110010010100010100100110: 525852 611337 546821 514054 531501
0110010011100000100001000: 525852 611337 546821 550157 639773
0110010011100000100001000: 525852 611337 546821 550157 514054
0110010010100010100000100: 525852 611337 546821 550157 497799
0110010010100010100000100: 525852 611337 546821 550157 531501
0110010011100000100001000: 525852 611337 546821 556601 639773
0110010011100000100001000: 525852 611337 546821 556601 550157
0110010010100010100000100: 525852 611337 546821 556601 497799
0110010010100010100000100: 525852 611337 546821 556601 531501
0110010010100010100000100: 525852 611337 554368 639773 497799
0110010010100010100000100: 525852 611337 554368 639773 531501
0110010010100010100000100: 525852 611337 554368 639773 459311
0110010010100010100000100: 525852 611337 554368 639773 534073
0110010010100010100000100: 525852 611337 554368 639773 576021
0110010011100000100001000: 525852 611337 554368 556601 639773
0110010010100010100000100: 525852 611337 554368 556601 497799
0110010010100010100000100: 525852 611337 554368 556601 531501
0110010010100010100000100: 525852 611337 554368 556601 459311
0110010010100010100000100: 525852 611337 554368 556601 534073
0110010010100010100000100: 525852 611337 554368 556601 576021
0110010011100100110001000: 525852 611337 554368 514054 639773
0110010011100100110001000: 525852 611337 554368 550157 639773
0110010011100100110001000: 525852 611337 554368 550157 556601
0110010011100110110001100: 525852 611337 554368 550157 514054
0110010011100000100001000: 525852 611337 554492 514054 639773
0110010011100000100001000: 525852 611337 554492 556601 639773
0110010011100100110001000: 525852 611337 554492 550157 639773
0110010011100100110001000: 525852 611337 554492 550157 514054
0110010011100100110001000: 525852 611337 554492 550157 556601
0110010010100010100000100: 525852 554492 467743 497799 510194
0110010011100000100001000: 525852 554492 467743 459311 497799
0110010010100010100000100: 525852 554492 467743 459311 510194
0110010011100000100001000: 525852 554492 467743 550157 497799
0110010010100010100000100: 525852 554492 467743 550157 510194
0110010011100100110001000: 525852 554492 632227 497799 459311
0110010011100100110001000: 525852 554492 632227 497799 550157
0110010011100000100001000: 525852 554492 547166 459311 497799
0110010011100100110001000: 525852 554492 547166 550157 497799
0111110000100001000010000: 525852 554492 611337 632227 467743
0111110000100001000010000: 525852 554492 611337 547166 632227
0110010010100010100000100: 525852 554492 611337 497799 639773
0110010010100010100000100: 525852 554492 611337 497799 514054
0110010010100010100000100: 525852 554492 611337 497799 556601
0110010011100000100001000: 525852 554492 611337 459311 497799
0110010010100010100000100: 525852 554492 611337 459311 639773
0110010010100010100000100: 525852 554492 611337 459311 514054
0110010010100010100000100: 525852 554492 611337 459311 556601
0110010011100100110001000: 525852 554492 611337 550157 497799
0111010100110001000100010: 525852 554492 546821 467743 510194
0111110100110001000110010: 525852 554492 546821 547166 467743
0111110100110001000010000: 525852 554492 546821 611337 467743
0111110100110001000010000: 525852 554492 546821 611337 547166
0111010100110001000100010: 525852 554492 546821 611337 639773
0111010100110001000100010: 525852 554492 546821 611337 514054
0111010100110001000100010: 525852 554492 546821 611337 556601
0111010100110001000100010: 525852 554492 554368 467743 510194
0111110100110001000010000: 525852 554492 554368 611337 467743
0111010100110001000100010: 525852 554492 554368 611337 639773
0111010100110001000100010: 525852 554492 554368 611337 556601
0111110110110101110010000: 525852 554492 554368 546821 467743
0111110110110101110010000: 525852 554492 554368 546821 611337
0111010101110001000001000: 556601 514054 611337 547642 531501
0111010101110001000001000: 556601 514054 611337 547642 554368
0110010010100010100000100: 556601 547642 514054 568861 531501
0110010010100010100000100: 556601 547642 514054 568861 554368
0110010010100010100000100: 556601 611337 547642 639773 568861
0110010011100000100001000: 556601 611337 547642 550157 639773
0110010010100010100000100: 556601 611337 547642 550157 568861
0110010011100000100001000: 556601 611337 547642 525852 639773
0110010011100000100001000: 556601 611337 547642 525852 550157
0110010010100010100000100: 556601 611337 547642 525852 568861
0111010101110001000001000: 556601 611337 514054 547642 639773
0111010101110001000001000: 556601 611337 514054 547642 550157
0111010101110001000001000: 556601 611337 514054 547642 525852
0111010100110001000100010: 556601 611337 514054 547642 568861
0111010101110001000001000: 611337 514054 556601 639773 531501
0111010101110001000001000: 611337 514054 556601 639773 554368
0111010101110001000001000: 611337 514054 556601 550157 531501
0111010101110001000101010: 611337 514054 556601 550157 554368
0111010101110001000001000: 611337 514054 556601 525852 531501
0111010101110001000101010: 611337 514054 556601 525852 554368
0110010011100000100001000: 611337 550157 639773 459311 547166
0110010011100000100001000: 611337 550157 639773 576021 547166
0110010011100000100001000: 611337 550157 639773 554492 547166
0110010011100000100001000: 611337 550157 639773 554492 576021
0110010010100010100000100: 611337 550157 514054 547166 531501
0110010011100000100001000: 611337 550157 514054 459311 547166
0110010010100010100000100: 611337 550157 514054 459311 531501
0110010011100000100001000: 611337 550157 514054 576021 547166
0110010010100010100000100: 611337 550157 514054 576021 531501
0110010011100000100001000: 611337 550157 514054 554492 547166
0110010011100000100001000: 611337 550157 514054 554492 576021
0110010010100010100000100: 611337 550157 514054 554492 531501
0110010011100000100001000: 611337 550157 556601 459311 547166
0110010011100000100001000: 611337 550157 556601 576021 547166
0110010011100000100001000: 611337 550157 556601 554492 547166
0110010011100000100001000: 611337 550157 556601 554492 576021
0110010011100100110001000: 611337 550157 525852 547166 459311
0110010011100100110001000: 611337 550157 525852 547166 576021
0110010010100010100000100: 611337 556601 550157 547642 547166
0110010010100010100000100: 611337 556601 550157 547642 459311
0110010010100010100000100: 611337 556601 550157 547642 554368
0110010010100010100000100: 611337 556601 550157 547642 576021
0110010010100010100000100: 611337 556601 550157 547642 554492
0111110100110001000010000: 611337 556601 514054 550157 639773
0111010100110001000100010: 611337 556601 514054 550157 547166
0111010100110001000100010: 611337 556601 514054 550157 459311
0111010100110001000100010: 611337 556601 514054 550157 576021
0111010100110001000100010: 611337 556601 514054 550157 554492
0111110100110001000010000: 611337 556601 514054 525852 639773
0111110100110001000010000: 611337 556601 514054 525852 550157
0111010100110001000100010: 611337 556601 514054 525852 467743
0111010100110001000100010: 611337 556601 514054 525852 632227
0111010100110001000100010: 611337 556601 514054 525852 547166
0111010100110001000100010: 611337 556601 514054 525852 546821
0111010100110001000100010: 611337 556601 514054 525852 554492
0110010011100000100001000: 611337 525852 639773 632227 467743
0110010011100000100001000: 611337 525852 639773 547166 632227
0110010011100000100001000: 611337 525852 639773 546821 467743
0110010011100000100001000: 611337 525852 639773 546821 547166
0110010011100000100001000: 611337 525852 639773 554368 467743
0110010011100000100001000: 611337 525852 639773 554492 467743
0110010011100000100001000: 611337 525852 639773 554492 632227
0110010011100000100001000: 611337 525852 639773 554492 547166
0110010010100010100000100: 611337 525852 514054 467743 531501
0110010011100000100001000: 611337 525852 514054 632227 467743
0110010010100010100000100: 611337 525852 514054 632227 531501
0110010011100000100001000: 611337 525852 514054 547166 632227
0110010010100010100000100: 611337 525852 514054 547166 531501
0110010011100000100001000: 611337 525852 514054 546821 467743
0110010011100000100001000: 611337 525852 514054 546821 547166
0110010011100000100001000: 611337 525852 514054 554492 467743
0110010011100000100001000: 611337 525852 514054 554492 632227
0110010011100000100001000: 611337 525852 514054 554492 547166
0110010010100010100000100: 611337 525852 514054 554492 531501
0110010011100100110001000: 611337 525852 514054 554368 467743
0111110000100001000010000: 611337 525852 550157 514054 639773
0110010010100010100000100: 611337 525852 550157 467743 459311
0110010010100010100000100: 611337 525852 550157 467743 576021
0110010011100000100001000: 611337 525852 550157 632227 467743
0110010010100010100000100: 611337 525852 550157 632227 459311
0110010010100010100000100: 611337 525852 550157 632227 576021
0110010011100000100001000: 611337 525852 550157 546821 467743
0110010010100010100000100: 611337 525852 550157 546821 459311
0110010010100010100000100: 611337 525852 550157 546821 576021
0110010011100100110001000: 611337 525852 550157 547166 632227
0110010011100100110001000: 611337 525852 550157 547166 546821
0110010011100100110001000: 611337 525852 550157 554368 467743
0111110000100001000010000: 611337 525852 556601 550157 639773
0110010010100010100000100: 611337 525852 556601 467743 547642
0110010011100000100001000: 611337 525852 556601 632227 467743
0110010010100010100000100: 611337 525852 556601 632227 547642
0110010011100000100001000: 611337 525852 556601 547166 632227
0110010010100010100000100: 611337 525852 556601 547166 547642
0110010011100000100001000: 611337 525852 556601 546821 467743
0110010011100000100001000: 611337 525852 556601 546821 547166
0110010010100010100000100: 611337 525852 556601 546821 547642
0110010011100000100001000: 611337 525852 556601 554368 467743
0110010010100010100000100: 611337 525852 556601 554368 547642
0110010011100000100001000: 611337 525852 556601 554492 467743
0110010011100000100001000: 611337 525852 556601 554492 632227
0110010011100000100001000: 611337 525852 556601 554492 547166
0110010010100010100000100: 611337 525852 556601 554492 547642
0111010101110001000001000: 554368 514054 531501 497799 611337
0111010101110001000001000: 554368 514054 531501 497799 556601
0111010101110001000001000: 554368 514054 531501 632227 611337
0111010101110001000001000: 554368 514054 531501 632227 556601
0111010101110001000001000: 554368 514054 531501 547166 611337
0111010101110001000001000: 554368 514054 531501 547166 556601
0111010101110001000001000: 554368 514054 531501 459311 611337
0111010101110001000001000: 554368 514054 531501 459311 556601
0111010101110001000001000: 554368 514054 531501 534073 611337
0111010101110001000001000: 554368 514054 531501 534073 556601
0111010101110001000001000: 554368 514054 531501 550157 556601
0111010101110001000101010: 554368 514054 531501 550157 611337
0111010101110001000001000: 554368 514054 531501 576021 611337
0111010101110001000001000: 554368 514054 531501 576021 556601
0111010101110001000001000: 554368 514054 531501 525852 556601
0111010101110001000101010: 554368 514054 531501 525852 611337
0111010101110001000001000: 554368 514054 531501 554492 611337
0111010101110001000001000: 554368 514054 531501 554492 556601
0111110110110001100010000: 554368 497799 554492 632227 514054
0111110110110001100010000: 554368 497799 554492 632227 547166
0111110110110001100010000: 554368 497799 554492 632227 531501
0111110110110001100010000: 554368 497799 554492 632227 534073
0111110110110001100010000: 554368 497799 554492 632227 576021
0111010100110001000100010: 554368 632227 497799 514054 611337
0111010100110001000100010: 554368 632227 497799 514054 556601
0111110100110001000010000: 554368 632227 497799 547166 514054
0111010100110001000100010: 554368 632227 497799 547166 467743
0111110100110001000010000: 554368 632227 497799 531501 547166
0111110100110001000010000: 554368 632227 497799 459311 514054
0111110100110001000010000: 554368 632227 497799 459311 547166
0111110100110001000010000: 554368 632227 497799 459311 531501
0111110100110001000010000: 554368 632227 497799 534073 514054
0111110100110001000010000: 554368 632227 497799 534073 547166
0111110100110001000010000: 554368 632227 497799 534073 531501
0111110100110001000010000: 554368 632227 497799 550157 514054
0111110100110001000010000: 554368 632227 497799 550157 531501
0111110100110001000010000: 554368 632227 497799 550157 534073
0111010100110001000100010: 554368 632227 497799 550157 611337
0111110100110001000010000: 554368 632227 497799 576021 514054
0111110100110001000010000: 554368 632227 497799 576021 547166
0111110100110001000010000: 554368 632227 497799 576021 531501
0111110100110001000010000: 554368 632227 497799 576021 534073
0111110110110001100010000: 554368 632227 525852 497799 514054
0111110110110001100010000: 554368 632227 525852 497799 531501
0111110110110001100010000: 554368 632227 525852 497799 459311
0111110110110001100010000: 554368 632227 525852 497799 534073
0111110110110001100010000: 554368 632227 525852 497799 550157
0111110110110001100010000: 554368 632227 525852 497799 576021
0111010110110011100000100: 554368 632227 525852 497799 467743
0111010110110011100000100: 554368 632227 525852 497799 611337
0110010010100010100000100: 554368 547166 514054 467743 611337
0110010010100010100000100: 554368 547166 514054 467743 556601
0111010101110001000001000: 554368 547166 550157 514054 467743
0111010101110001000001000: 554368 547166 550157 497799 467743
0111010101110001000001000: 554368 547166 550157 632227 467743
0111010101110001000001000: 554368 547166 550157 531501 467743
0111010101110001000001000: 554368 547166 550157 534073 467743
0111010101110001000001000: 554368 547166 550157 546821 467743
0111110110110001100010000: 554368 547166 525852 550157 514054
0111110110110001100010000: 554368 547166 525852 550157 497799
0111110110110001100010000: 554368 547166 525852 550157 531501
0111110110110001100010000: 554368 547166 525852 550157 534073
0111010110110011100100110: 554368 547166 525852 550157 611337
0111110100110001000110010: 554368 531501 514054 632227 497799
0111110100110001000010000: 554368 531501 514054 547166 497799
0111110100110001000010000: 554368 531501 514054 547166 632227
0111010100110001000100010: 554368 531501 514054 547166 467743
0111110100110001000010000: 554368 531501 514054 459311 497799
0111110100110001000010000: 554368 531501 514054 459311 632227
0111110100110001000010000: 554368 531501 514054 459311 547166
0111110100110001000010000: 554368 531501 514054 534073 497799
0111110100110001000010000: 554368 531501 514054 534073 632227
0111110100110001000010000: 554368 531501 514054 534073 547166
0111110100110001000010000: 554368 531501 514054 550157 497799
0111110100110001000010000: 554368 531501 514054 550157 632227
0111110100110001000010000: 554368 531501 514054 550157 534073
0111110100110001000010000: 554368 531501 514054 576021 497799
0111110100110001000010000: 554368 531501 514054 576021 632227
0111110100110001000010000: 554368 531501 514054 576021 547166
0111110100110001000010000: 554368 531501 514054 576021 534073
0111110100110001000010000: 554368 531501 514054 525852 497799
0111110100110001000010000: 554368 531501 514054 525852 459311
0111110100110001000010000: 554368 531501 514054 525852 534073
0111110100110001000010000: 554368 531501 514054 525852 550157
0111110100110001000010000: 554368 531501 514054 525852 576021
0111010100110001000100010: 554368 531501 514054 525852 467743
0111110100110001000010000: 554368 531501 514054 554492 632227
0111110100110001000010000: 554368 531501 514054 554492 547166
0111110100110001000010000: 554368 531501 514054 554492 534073
0111110100110001000010000: 554368 531501 514054 554492 576021
0111010110110011100000100: 554368 531501 514054 546821 611337
0111010110110011100000100: 554368 531501 514054 546821 556601
0111110110110001100010000: 554368 531501 546821 514054 547166
0111110110110001100010000: 554368 531501 546821 514054 459311
0111110110110001100010000: 554368 531501 546821 514054 534073
0111110110110001100010000: 554368 531501 546821 514054 550157
0111110110110001100010000: 554368 531501 546821 514054 576021
0111110000100001000010000: 554368 459311 547166 497799 514054
0111110000100001000010000: 554368 459311 547166 632227 514054
0111110000100001000010000: 554368 459311 531501 547166 497799
0111110000100001000010000: 554368 459311 531501 547166 632227
0111110110110001100010000: 554368 459311 550157 534073 514054
0111110110110001100010000: 554368 459311 550157 534073 497799
0111110110110001100010000: 554368 459311 550157 534073 632227
0111110110110001100010000: 554368 459311 550157 534073 531501
0111110110110001100010000: 554368 459311 550157 534073 546821
0111110110110001100010000: 554368 459311 550157 534073 525852
0111010110110011100000100: 554368 459311 550157 534073 611337
0111110110110001100010000: 554368 459311 576021 534073 514054
0111110110110001100010000: 554368 459311 576021 534073 497799
0111110110110001100010000: 554368 459311 576021 534073 632227
0111110110110001100010000: 554368 459311 576021 534073 547166
0111110110110001100010000: 554368 459311 576021 534073 531501
0111110110110001100010000: 554368 459311 576021 534073 546821
0111110110110001100010000: 554368 459311 576021 534073 525852
0111110111110101110011000: 554368 459311 576021 550157 534073
0111110110110001100010000: 554368 459311 554492 534073 514054
0111110110110001100010000: 554368 459311 554492 534073 632227
0111110110110001100010000: 554368 459311 554492 534073 547166
0111110110110001100010000: 554368 459311 554492 534073 531501
0111110110110001100010000: 554368 459311 554492 576021 514054
0111110110110001100010000: 554368 459311 554492 576021 632227
0111110110110001100010000: 554368 459311 554492 576021 547166
0111110110110001100010000: 554368 459311 554492 576021 531501
0111110111110001100011000: 554368 459311 554492 576021 534073
0111110111110101110011000: 554368 459311 554492 550157 534073
0111110000100001000010000: 554368 534073 547166 497799 514054
0111110000100001000010000: 554368 534073 547166 632227 514054
0111110000100001000010000: 554368 534073 531501 547166 497799
0111110000100001000010000: 554368 534073 531501 547166 632227
0111010100110001000100010: 554368 534073 459311 514054 611337
0111010100110001000100010: 554368 534073 459311 514054 556601
0111110100110001000010000: 554368 534073 459311 497799 514054
0111110100110001000010000: 554368 534073 459311 632227 514054
0111110100110001000110010: 554368 534073 459311 632227 497799
0111110100110001000010000: 554368 534073 459311 547166 514054
0111110100110001000010000: 554368 534073 459311 547166 497799
0111110100110001000010000: 554368 534073 459311 547166 632227
0111010100110001000100010: 554368 534073 459311 547166 467743
0111110100110001000010000: 554368 534073 459311 531501 497799
0111110100110001000010000: 554368 534073 459311 531501 632227
0111110100110001000010000: 554368 534073 459311 531501 547166
0111110100110001000110010: 554368 534073 459311 531501 514054
0111110100110001000010000: 554368 534073 459311 546821 514054
0111110100110001000010000: 554368 534073 459311 546821 547166
0111110100110001000010000: 554368 534073 459311 525852 514054
0111110100110001000010000: 554368 534073 459311 525852 497799
0111110100110001000010000: 554368 534073 459311 525852 531501
0111010100110001000100010: 554368 534073 459311 525852 467743
0111010100110001000100010: 554368 534073 459311 525852 611337
0111110000100001000010000: 554368 550157 534073 497799 514054
0111110000100001000010000: 554368 550157 534073 632227 514054
0111110000100001000010000: 554368 550157 534073 531501 497799
0111110000100001000010000: 554368 550157 534073 531501 632227
0111010100110001000100010: 554368 550157 547166 514054 556601
0111010101110001000101010: 554368 550157 547166 514054 611337
0111110100110001000010000: 554368 550157 547166 497799 514054
0111010101110001000001000: 554368 550157 547166 497799 611337
0111110100110001000010000: 554368 550157 547166 632227 514054
0111010101110001000001000: 554368 550157 547166 632227 611337
0111110100110001000110010: 554368 550157 547166 632227 497799
0111110100110001000010000: 554368 550157 547166 531501 497799
0111110100110001000010000: 554368 550157 547166 531501 632227
0111010101110001000001000: 554368 550157 547166 531501 611337
0111110100110001000110010: 554368 550157 547166 531501 514054
0111110100110001000010000: 554368 550157 547166 534073 514054
0111110100110001000010000: 554368 550157 547166 534073 497799
0111110100110001000010000: 554368 550157 547166 534073 632227
0111110100110001000010000: 554368 550157 547166 534073 531501
0111010101110001000001000: 554368 550157 547166 534073 611337
0111110100110001000010000: 554368 550157 547166 546821 514054
0111110100110001000010000: 554368 550157 547166 546821 534073
0111010101110001000001000: 554368 550157 547166 546821 611337
0111110110110011100010100: 554368 550157 547166 459311 525852
0111010110110011100000100: 554368 550157 547166 459311 467743
0111110110110011100010100: 554368 550157 547166 576021 525852
0111010110110011100000100: 554368 550157 547166 576021 467743
0111010110110011100000100: 554368 550157 547166 554492 467743
0111010100110001000100010: 554368 550157 459311 514054 556601
0111010101110001000101010: 554368 550157 459311 514054 611337
0111110100110001000010000: 554368 550157 459311 497799 514054
0111010101110001000001000: 554368 550157 459311 497799 611337
0111110100110001000010000: 554368 550157 459311 632227 514054
0111010101110001000001000: 554368 550157 459311 632227 611337
0111110100110001000110010: 554368 550157 459311 632227 497799
0111110100110001000010000: 554368 550157 459311 531501 497799
0111110100110001000010000: 554368 550157 459311 531501 632227
0111010101110001000001000: 554368 550157 459311 531501 611337
0111110100110001000110010: 554368 550157 459311 531501 514054
0111110100110001000010000: 554368 550157 459311 546821 514054
0111010101110001000001000: 554368 550157 459311 546821 611337
0111110100110001000010000: 554368 550157 459311 525852 514054
0111110100110001000010000: 554368 550157 459311 525852 497799
0111110100110001000010000: 554368 550157 459311 525852 531501
0111010100110001000100010: 554368 550157 459311 525852 467743
0111010101110001000101010: 554368 550157 459311 525852 611337
0111110110110001100010000: 554368 550157 459311 547166 514054
0111110110110001100010000: 554368 550157 459311 547166 497799
0111110110110001100010000: 554368 550157 459311 547166 632227
0111110110110001100010000: 554368 550157 459311 547166 531501
0111110110110001100010000: 554368 550157 459311 547166 546821
0111110110110011100010100: 554368 550157 459311 547166 534073
0111110111110111110011100: 554368 550157 459311 554492 576021
0111010101110001000101010: 554368 550157 576021 514054 611337
0111010101110001000001000: 554368 550157 576021 497799 611337
0111010101110001000001000: 554368 550157 576021 632227 611337
0111010101110001000001000: 554368 550157 576021 531501 611337
0111010101110001000001000: 554368 550157 576021 534073 611337
0111010101110001000001000: 554368 550157 576021 546821 611337
0111010101110001000101010: 554368 550157 576021 525852 611337
0111110110110001100010000: 554368 550157 576021 547166 514054
0111110110110001100010000: 554368 550157 576021 547166 497799
0111110110110001100010000: 554368 550157 576021 547166 632227
0111110110110001100010000: 554368 550157 576021 547166 531501
0111110110110001100010000: 554368 550157 576021 547166 534073
0111110110110001100010000: 554368 550157 576021 547166 546821
0111110111110101110011000: 554368 550157 576021 459311 547166
0111010101110001000101010: 554368 550157 554492 514054 611337
0111010101110001000001000: 554368 550157 554492 632227 611337
0111010101110001000001000: 554368 550157 554492 531501 611337
0111010101110001000001000: 554368 550157 554492 534073 611337
0111110110110001100010000: 554368 550157 554492 547166 514054
0111110110110001100010000: 554368 550157 554492 547166 632227
0111110110110001100010000: 554368 550157 554492 547166 531501
0111110110110001100010000: 554368 550157 554492 547166 534073
0111110110110001100010000: 554368 550157 554492 576021 514054
0111110110110001100010000: 554368 550157 554492 576021 632227
0111110110110001100010000: 554368 550157 554492 576021 531501
0111110110110001100010000: 554368 550157 554492 576021 534073
0111110111110001100011000: 554368 550157 554492 576021 547166
0111110111110101110011000: 554368 550157 554492 459311 547166
0111110000100001000010000: 554368 546821 459311 547166 514054
0111110000100001000010000: 554368 546821 534073 547166 514054
0111110000100001000010000: 554368 546821 550157 534073 514054
0111010100110001000100010: 554368 546821 497799 514054 611337
0111010100110001000100010: 554368 546821 497799 514054 556601
0111110100110001000010000: 554368 546821 497799 547166 514054
0111010100110001000100010: 554368 546821 497799 547166 467743
0111110100110001000010000: 554368 546821 497799 459311 514054
0111110100110001000010000: 554368 546821 497799 459311 547166
0111110100110001000010000: 554368 546821 497799 534073 514054
0111110100110001000010000: 554368 546821 497799 534073 547166
0111110100110001000110010: 554368 546821 497799 534073 459311
0111110100110001000010000: 554368 546821 497799 550157 514054
0111110100110001000010000: 554368 546821 497799 550157 534073
0111010100110001000100010: 554368 546821 497799 550157 611337
0111110100110001000110010: 554368 546821 497799 550157 547166
0111110100110001000110010: 554368 546821 497799 550157 459311
0111110100110001000010000: 554368 546821 497799 576021 514054
0111110100110001000010000: 554368 546821 497799 576021 547166
0111110100110001000010000: 554368 546821 497799 576021 534073
0111110111110111110011100: 554368 546821 497799 554492 632227
0111010100110001000100010: 554368 546821 632227 514054 611337
0111010100110001000100010: 554368 546821 632227 514054 556601
0111110100110001000010000: 554368 546821 632227 547166 514054
0111010100110001000100010: 554368 546821 632227 547166 467743
0111110100110001000010000: 554368 546821 632227 459311 514054
0111110100110001000010000: 554368 546821 632227 459311 547166
0111110100110001000010000: 554368 546821 632227 534073 514054
0111110100110001000010000: 554368 546821 632227 534073 547166
0111110100110001000110010: 554368 546821 632227 534073 459311
0111110100110001000010000: 554368 546821 632227 550157 514054
0111110100110001000010000: 554368 546821 632227 550157 534073
0111010100110001000100010: 554368 546821 632227 550157 611337
0111110100110001000110010: 554368 546821 632227 550157 547166
0111110100110001000110010: 554368 546821 632227 550157 459311
0111110100110001000010000: 554368 546821 632227 576021 514054
0111110100110001000010000: 554368 546821 632227 576021 547166
0111110100110001000010000: 554368 546821 632227 576021 534073
0111110110110101110010000: 554368 546821 632227 497799 514054
0111110110110101110010000: 554368 546821 632227 497799 547166
0111110110110101110010000: 554368 546821 632227 497799 459311
0111110110110101110010000: 554368 546821 632227 497799 534073
0111110110110101110010000: 554368 546821 632227 497799 550157
0111110110110101110010000: 554368 546821 632227 497799 576021
0111110111110101110011000: 554368 546821 632227 497799 531501
0111110111110111110011100: 554368 546821 632227 525852 497799
0111010100110001000100010: 554368 546821 531501 547166 467743
0111110100110001000010000: 554368 546821 531501 459311 547166
0111110100110001000010000: 554368 546821 531501 534073 547166
0111110100110001000110010: 554368 546821 531501 534073 459311
0111110100110001000010000: 554368 546821 531501 550157 534073
0111010100110001000100010: 554368 546821 531501 550157 611337
0111110100110001000110010: 554368 546821 531501 550157 547166
0111110100110001000110010: 554368 546821 531501 550157 459311
0111110100110001000010000: 554368 546821 531501 576021 547166
0111110100110001000010000: 554368 546821 531501 576021 534073
0111110110110001100010000: 554368 546821 531501 497799 547166
0111110110110001100010000: 554368 546821 531501 497799 459311
0111110110110001100010000: 554368 546821 531501 497799 534073
0111110110110001100010000: 554368 546821 531501 497799 550157
0111110110110001100010000: 554368 546821 531501 497799 576021
0111110110110011100010100: 554368 546821 531501 497799 514054
0111110110110001100010000: 554368 546821 531501 632227 547166
0111110110110001100010000: 554368 546821 531501 632227 459311
0111110110110001100010000: 554368 546821 531501 632227 534073
0111110110110001100010000: 554368 546821 531501 632227 550157
0111110110110001100010000: 554368 546821 531501 632227 576021
0111110110110011100010100: 554368 546821 531501 632227 514054
0111110110110011100010100: 554368 546821 531501 525852 514054
0111110110110011100010100: 554368 546821 531501 554492 514054
0111110110110001100010000: 554368 546821 525852 497799 514054
0111110110110001100010000: 554368 546821 525852 497799 459311
0111110110110001100010000: 554368 546821 525852 497799 534073
0111110110110001100010000: 554368 546821 525852 497799 550157
0111110110110001100010000: 554368 546821 525852 497799 576021
0111010110110011100000100: 554368 546821 525852 497799 467743
0111010110110011100000100: 554368 546821 525852 497799 611337
0111110110110001100010000: 554368 546821 525852 531501 459311
0111110110110001100010000: 554368 546821 525852 531501 534073
0111110110110001100010000: 554368 546821 525852 531501 550157
0111110110110001100010000: 554368 546821 525852 531501 576021
0111110111110001100011000: 554368 546821 525852 531501 497799
0111010110110011100000100: 554368 546821 525852 531501 467743
0111010110110011100000100: 554368 546821 525852 531501 611337
0111110111110101110011000: 554368 546821 525852 632227 531501
0111110110110001100010000: 554368 546821 554492 632227 514054
0111110110110001100010000: 554368 546821 554492 632227 547166
0111110110110001100010000: 554368 546821 554492 632227 534073
0111110110110001100010000: 554368 546821 554492 632227 576021
0111110110110001100010000: 554368 546821 554492 531501 547166
0111110110110001100010000: 554368 546821 554492 531501 534073
0111110110110001100010000: 554368 546821 554492 531501 576021
0111110111110001100011000: 554368 546821 554492 531501 632227
0111110111110101110011000: 554368 546821 554492 497799 531501
0111110111110101110011000: 554368 546821 554492 525852 531501
0111110000100001000010000: 554368 576021 547166 497799 514054
0111110000100001000010000: 554368 576021 547166 632227 514054
0111110000100001000010000: 554368 576021 531501 547166 497799
0111110000100001000010000: 554368 576021 531501 547166 632227
0111110000100001000010000: 554368 576021 534073 497799 514054
0111110000100001000010000: 554368 576021 534073 632227 514054
0111110000100001000010000: 554368 576021 534073 547166 514054
0111110000100001000010000: 554368 576021 534073 547166 497799
0111110000100001000010000: 554368 576021 534073 547166 632227
0111110000100001000010000: 554368 576021 534073 531501 497799
0111110000100001000010000: 554368 576021 534073 531501 632227
0111110000100001000010000: 554368 576021 534073 531501 547166
0111110000100001000010000: 554368 576021 546821 547166 514054
0111110000100001000010000: 554368 576021 546821 534073 514054
0111110000100001000010000: 554368 576021 546821 534073 547166
0111010100110001000100010: 554368 576021 459311 514054 611337
0111010100110001000100010: 554368 576021 459311 514054 556601
0111110100110001000010000: 554368 576021 459311 497799 514054
0111110100110001000010000: 554368 576021 459311 632227 514054
0111110100110001000110010: 554368 576021 459311 632227 497799
0111110100110001000010000: 554368 576021 459311 547166 514054
0111110100110001000010000: 554368 576021 459311 547166 497799
0111110100110001000010000: 554368 576021 459311 547166 632227
0111010100110001000100010: 554368 576021 459311 547166 467743
0111110100110001000010000: 554368 576021 459311 531501 497799
0111110100110001000010000: 554368 576021 459311 531501 632227
0111110100110001000010000: 554368 576021 459311 531501 547166
0111110100110001000110010: 554368 576021 459311 531501 514054
0111110100110001000010000: 554368 576021 459311 546821 514054
0111110100110001000010000: 554368 576021 459311 546821 547166
0111110100110001000110010: 554368 576021 459311 546821 497799
0111110100110001000110010: 554368 576021 459311 546821 632227
0111110100110001000110010: 554368 576021 459311 546821 531501
0111110100110001000010000: 554368 576021 459311 525852 514054
0111110100110001000010000: 554368 576021 459311 525852 497799
0111110100110001000010000: 554368 576021 459311 525852 531501
0111010100110001000100010: 554368 576021 459311 525852 467743
0111010100110001000100010: 554368 576021 459311 525852 611337
0111010100110001000100010: 554368 576021 550157 514054 556601
0111110100110001000010000: 554368 576021 550157 497799 514054
0111110100110001000010000: 554368 576021 550157 632227 514054
0111110100110001000110010: 554368 576021 550157 632227 497799
0111110100110001000010000: 554368 576021 550157 531501 497799
0111110100110001000010000: 554368 576021 550157 531501 632227
0111110100110001000110010: 554368 576021 550157 531501 514054
0111110100110001000010000: 554368 576021 550157 534073 514054
0111110100110001000010000: 554368 576021 550157 534073 497799
0111110100110001000010000: 554368 576021 550157 534073 632227
0111110100110001000010000: 554368 576021 550157 534073 531501
0111110100110001000010000: 554368 576021 550157 546821 514054
0111110100110001000010000: 554368 576021 550157 546821 534073
0111110100110001000110010: 554368 576021 550157 546821 497799
0111110100110001000110010: 554368 576021 550157 546821 632227
0111110100110001000110010: 554368 576021 550157 546821 531501
0111110100110001000010000: 554368 576021 550157 525852 514054
0111110100110001000010000: 554368 576021 550157 525852 497799
0111110100110001000010000: 554368 576021 550157 525852 531501
0111110100110001000010000: 554368 576021 550157 525852 534073
0111010100110001000100010: 554368 576021 550157 525852 467743
0111110110110101110010000: 554368 576021 550157 459311 514054
0111110110110101110010000: 554368 576021 550157 459311 497799
0111110110110101110010000: 554368 576021 550157 459311 632227
0111110110110101110010000: 554368 576021 550157 459311 531501
0111110110110101110010000: 554368 576021 550157 459311 546821
0111110110110101110010000: 554368 576021 550157 459311 525852
0110010010100010100000100: 554368 525852 514054 467743 556601
0110010011100000100001000: 554368 525852 497799 611337 467743
0110010011100000100001000: 554368 525852 531501 611337 467743
0111110000100001000010000: 554368 525852 459311 497799 514054
0111110000100001000010000: 554368 525852 459311 531501 497799
0110010011100000100001000: 554368 525852 459311 611337 467743
0111110000100001000010000: 554368 525852 534073 497799 514054
0111110000100001000010000: 554368 525852 534073 531501 497799
0110010011100000100001000: 554368 525852 534073 611337 467743
0111110000100001000010000: 554368 525852 550157 497799 514054
0111110000100001000010000: 554368 525852 550157 531501 497799
0111110000100001000010000: 554368 525852 550157 534073 514054
0111110000100001000010000: 554368 525852 550157 534073 497799
0111110000100001000010000: 554368 525852 550157 534073 531501
0111110000100001000010000: 554368 525852 576021 497799 514054
0111110000100001000010000: 554368 525852 576021 531501 497799
0111110000100001000010000: 554368 525852 576021 534073 514054
0111110000100001000010000: 554368 525852 576021 534073 497799
0111110000100001000010000: 554368 525852 576021 534073 531501
0110010011100000100001000: 554368 525852 576021 611337 467743
0111010100110001000100010: 554368 525852 632227 514054 556601
0111110100110001000110010: 554368 525852 632227 531501 514054
0111110100110001000010000: 554368 525852 632227 459311 514054
0111110100110001000010000: 554368 525852 632227 459311 531501
0111110100110001000010000: 554368 525852 632227 534073 514054
0111110100110001000010000: 554368 525852 632227 534073 531501
0111110100110001000110010: 554368 525852 632227 534073 459311
0111110100110001000010000: 554368 525852 632227 550157 514054
0111110100110001000010000: 554368 525852 632227 550157 531501
0111110100110001000010000: 554368 525852 632227 550157 534073
0111110100110001000110010: 554368 525852 632227 550157 459311
0111110100110001000010000: 554368 525852 632227 576021 514054
0111110100110001000010000: 554368 525852 632227 576021 531501
0111110100110001000010000: 554368 525852 632227 576021 534073
0111110100110001000110010: 554368 525852 632227 576021 459311
0111110100110001000110010: 554368 525852 632227 576021 550157
0111110110110011100010100: 554368 525852 632227 547166 497799
0111010100110001000100010: 554368 525852 547166 514054 556601
0111110100110001000010000: 554368 525852 547166 497799 514054
0111110100110001000010000: 554368 525852 547166 531501 497799
0111110100110001000110010: 554368 525852 547166 531501 514054
0111110100110001000010000: 554368 525852 547166 459311 514054
0111110100110001000010000: 554368 525852 547166 459311 497799
0111110100110001000010000: 554368 525852 547166 459311 531501
0111110100110001000010000: 554368 525852 547166 534073 514054
0111110100110001000010000: 554368 525852 547166 534073 497799
0111110100110001000010000: 554368 525852 547166 534073 531501
0111110100110001000110010: 554368 525852 547166 534073 459311
0111110100110001000010000: 554368 525852 547166 576021 514054
0111110100110001000010000: 554368 525852 547166 576021 497799
0111110100110001000010000: 554368 525852 547166 576021 531501
0111110100110001000010000: 554368 525852 547166 576021 534073
0111110100110001000110010: 554368 525852 547166 576021 459311
0111110110110001100010000: 554368 525852 547166 632227 514054
0111110110110001100010000: 554368 525852 547166 632227 531501
0111110110110001100010000: 554368 525852 547166 632227 459311
0111110110110001100010000: 554368 525852 547166 632227 534073
0111110110110001100010000: 554368 525852 547166 632227 576021
0111110110110011100010100: 554368 525852 547166 632227 550157
0111110110110011100010100: 554368 525852 547166 546821 550157
0111010100110001000100010: 554368 525852 546821 514054 556601
0111110100110001000010000: 554368 525852 546821 459311 514054
0111110100110001000010000: 554368 525852 546821 534073 514054
0111110100110001000110010: 554368 525852 546821 534073 459311
0111110100110001000010000: 554368 525852 546821 550157 514054
0111110100110001000010000: 554368 525852 546821 550157 534073
0111110100110001000110010: 554368 525852 546821 550157 459311
0111110100110001000010000: 554368 525852 546821 576021 514054
0111110100110001000010000: 554368 525852 546821 576021 534073
0111110100110001000110010: 554368 525852 546821 576021 459311
0111110100110001000110010: 554368 525852 546821 576021 550157
0111110110110001100010000: 554368 525852 546821 547166 514054
0111110110110001100010000: 554368 525852 546821 547166 459311
0111110110110001100010000: 554368 525852 546821 547166 534073
0111110110110001100010000: 554368 525852 546821 547166 576021
0111110110110011100010100: 554368 525852 546821 547166 497799
0111110110110011100010100: 554368 525852 546821 547166 531501
0111110110110101110010000: 554368 525852 546821 632227 514054
0111110110110101110010000: 554368 525852 546821 632227 459311
0111110110110101110010000: 554368 525852 546821 632227 534073
0111110110110101110010000: 554368 525852 546821 632227 550157
0111110110110101110010000: 554368 525852 546821 632227 576021
0111110110110001100010000: 554368 525852 554492 632227 514054
0111110110110001100010000: 554368 525852 554492 632227 531501
0111110110110001100010000: 554368 525852 554492 632227 534073
0111110110110001100010000: 554368 525852 554492 632227 576021
0111110110110001100010000: 554368 525852 554492 547166 514054
0111110110110001100010000: 554368 525852 554492 547166 531501
0111110110110001100010000: 554368 525852 554492 547166 534073
0111110110110001100010000: 554368 525852 554492 547166 576021
0111110000100001000010000: 554368 554492 547166 632227 514054
0111110000100001000010000: 554368 554492 531501 547166 632227
0111110000100001000010000: 554368 554492 534073 632227 514054
0111110000100001000010000: 554368 554492 534073 547166 514054
0111110000100001000010000: 554368 554492 534073 547166 632227
0111110000100001000010000: 554368 554492 534073 531501 632227
0111110000100001000010000: 554368 554492 534073 531501 547166
0111110000100001000010000: 554368 554492 576021 632227 514054
0111110000100001000010000: 554368 554492 576021 547166 514054
0111110000100001000010000: 554368 554492 576021 547166 632227
0111110000100001000010000: 554368 554492 576021 531501 632227
0111110000100001000010000: 554368 554492 576021 531501 547166
0111110000100001000010000: 554368 554492 576021 534073 514054
0111110000100001000010000: 554368 554492 576021 534073 632227
0111110000100001000010000: 554368 554492 576021 534073 547166
0111110000100001000010000: 554368 554492 576021 534073 531501
0111010100110001000100010: 554368 554492 497799 514054 611337
0111010100110001000100010: 554368 554492 497799 514054 556601
0111110100110001000010000: 554368 554492 497799 547166 514054
0111010100110001000100010: 554368 554492 497799 547166 467743
0111110100110001000010000: 554368 554492 497799 531501 547166
0111110100110001000110010: 554368 554492 497799 531501 514054
0111110100110001000010000: 554368 554492 497799 534073 514054
0111110100110001000010000: 554368 554492 497799 534073 547166
0111110100110001000010000: 554368 554492 497799 534073 531501
0111110100110001000010000: 554368 554492 497799 576021 514054
0111110100110001000010000: 554368 554492 497799 576021 547166
0111110100110001000010000: 554368 554492 497799 576021 531501
0111110100110001000010000: 554368 554492 497799 576021 534073
0111110110110011100010100: 554368 554492 497799 459311 632227
0111110110110011100010100: 554368 554492 497799 550157 632227
0111010100110001000100010: 554368 554492 459311 514054 611337
0111010100110001000100010: 554368 554492 459311 514054 556601
0111110100110001000010000: 554368 554492 459311 632227 514054
0111110100110001000010000: 554368 554492 459311 547166 514054
0111110100110001000010000: 554368 554492 459311 547166 632227
0111010100110001000100010: 554368 554492 459311 547166 467743
0111110100110001000010000: 554368 554492 459311 531501 632227
0111110100110001000010000: 554368 554492 459311 531501 547166
0111110100110001000110010: 554368 554492 459311 531501 514054
0111110110110001100010000: 554368 554492 459311 497799 514054
0111110110110001100010000: 554368 554492 459311 497799 547166
0111110110110001100010000: 554368 554492 459311 497799 531501
0111110110110011100010100: 554368 554492 459311 497799 534073
0111110110110011100010100: 554368 554492 459311 497799 576021
0111110110110011100010100: 554368 554492 459311 546821 534073
0111110110110011100010100: 554368 554492 459311 546821 576021
0111110110110011100010100: 554368 554492 459311 525852 534073
0111110110110011100010100: 554368 554492 459311 525852 576021
0111010100110001000100010: 554368 554492 550157 514054 556601
0111110100110001000010000: 554368 554492 550157 632227 514054
0111110100110001000010000: 554368 554492 550157 531501 632227
0111110100110001000110010: 554368 554492 550157 531501 514054
0111110100110001000010000: 554368 554492 550157 534073 514054
0111110100110001000010000: 554368 554492 550157 534073 632227
0111110100110001000010000: 554368 554492 550157 534073 531501
0111110110110001100010000: 554368 554492 550157 497799 514054
0111110110110001100010000: 554368 554492 550157 497799 531501
0111110110110001100010000: 554368 554492 550157 497799 534073
0111110110110011100010100: 554368 554492 550157 497799 547166
0111110110110011100010100: 554368 554492 550157 497799 576021
0111110110110011100010100: 554368 554492 550157 546821 547166
0111110110110011100010100: 554368 554492 550157 546821 576021
0111110110110011100010100: 554368 554492 550157 525852 576021
0111110110110101110010000: 554368 554492 550157 459311 514054
0111110110110101110010000: 554368 554492 550157 459311 632227
0111110110110101110010000: 554368 554492 550157 459311 531501
0111010100110001000100010: 554368 554492 546821 514054 611337
0111010100110001000100010: 554368 554492 546821 514054 556601
0111110100110001000010000: 554368 554492 546821 547166 514054
0111010100110001000100010: 554368 554492 546821 547166 467743
0111110100110001000010000: 554368 554492 546821 534073 514054
0111110100110001000010000: 554368 554492 546821 534073 547166
0111110100110001000010000: 554368 554492 546821 576021 514054
0111110100110001000010000: 554368 554492 546821 576021 547166
0111110100110001000010000: 554368 554492 546821 576021 534073
0111110110110001100010000: 554368 554492 546821 459311 514054
0111110110110001100010000: 554368 554492 546821 459311 547166
0111110110110011100010100: 554368 554492 546821 459311 632227
0111110110110011100010100: 554368 554492 546821 459311 531501
0111110110110001100010000: 554368 554492 546821 550157 514054
0111110110110001100010000: 554368 554492 546821 550157 534073
0111110110110011100010100: 554368 554492 546821 550157 632227
0111110110110011100010100: 554368 554492 546821 550157 531501
0111110110110101110010000: 554368 554492 546821 497799 514054
0111110110110101110010000: 554368 554492 546821 497799 547166
0111110110110101110010000: 554368 554492 546821 497799 534073
0111110110110101110010000: 554368 554492 546821 497799 576021
0111010100110001000100010: 554368 554492 525852 514054 556601
0111110100110001000110010: 554368 554492 525852 531501 514054
0111110100110001000010000: 554368 554492 525852 534073 514054
0111110100110001000010000: 554368 554492 525852 534073 531501
0111110100110001000010000: 554368 554492 525852 576021 514054
0111110100110001000010000: 554368 554492 525852 576021 531501
0111110100110001000010000: 554368 554492 525852 576021 534073
0111110110110001100010000: 554368 554492 525852 497799 514054
0111110110110001100010000: 554368 554492 525852 497799 531501
0111110110110001100010000: 554368 554492 525852 497799 534073
0111110110110001100010000: 554368 554492 525852 497799 576021
0111110110110011100010100: 554368 554492 525852 497799 547166
0111110110110011100110110: 554368 554492 525852 497799 632227
0111110110110001100010000: 554368 554492 525852 459311 514054
0111110110110001100010000: 554368 554492 525852 459311 531501
0111110110110011100010100: 554368 554492 525852 459311 632227
0111110110110011100010100: 554368 554492 525852 459311 547166
0111110110110001100010000: 554368 554492 525852 550157 514054
0111110110110001100010000: 554368 554492 525852 550157 531501
0111110110110001100010000: 554368 554492 525852 550157 534073
0111110110110011100010100: 554368 554492 525852 550157 632227
0111110110110011100110110: 554368 554492 525852 550157 547166
0111110110110101110010000: 554368 554492 525852 546821 514054
0111110110110101110010000: 554368 554492 525852 546821 534073
0111110110110101110010000: 554368 554492 525852 546821 576021
0111110110110001100010000: 546821 497799 554492 632227 531501
0111010110110011100000100: 546821 497799 554492 632227 459311
0111010110110011100000100: 546821 497799 554492 632227 550157
0111010100110001000100010: 546821 632227 497799 531501 514054
0111110110110001100010000: 546821 632227 525852 497799 531501
0111010110110011100000100: 546821 632227 525852 497799 467743
0111010110110011100000100: 546821 632227 525852 497799 547166
0111010110110011100000100: 546821 632227 525852 497799 611337
0110010011100000100001000: 546821 525852 497799 611337 467743
0110010011100000100001000: 546821 525852 497799 611337 547166
0110010010100010100000100: 546821 525852 531501 467743 514054
0110010010100010100000100: 546821 525852 531501 547166 514054
0110010011100000100001000: 546821 525852 531501 611337 467743
0110010011100000100001000: 546821 525852 531501 611337 547166
0111010100110001000100010: 546821 525852 632227 531501 514054
0111110110110001100010000: 546821 525852 554492 632227 531501
0110010010100010100000100: 546821 554492 531501 459311 514054
0110010010100010100000100: 546821 554492 531501 550157 514054
0111010100110001000100010: 546821 554492 497799 531501 514054
0111010100110001000100010: 546821 554492 525852 531501 514054
0111110110110001100010000: 546821 554492 525852 497799 531501
0111110110110011100110110: 546821 554492 525852 497799 632227
0111010101110001000001000: 550157 547166 554368 611337 467743
0110010010100010100000100: 550157 459311 547166 534073 467743
0110010010100010100000100: 550157 459311 547166 534073 525852
0111010101110001000001000: 550157 459311 576021 547166 534073
0111010101110001000001000: 550157 459311 576021 611337 534073
0111010101110001000001000: 550157 459311 554492 547166 534073
0111010101110001000001000: 550157 459311 554492 611337 534073
0111110110110001100010000: 550157 459311 554492 576021 547166
0111110110110001100010000: 550157 459311 554492 576021 611337
0111010110110011100000100: 550157 459311 554492 576021 497799
0111010110110011100000100: 550157 459311 554492 576021 546821
0111010110110011100000100: 550157 459311 554492 576021 525852
0110010011100000100001000: 550157 554368 611337 531501 497799
0110010011100000100001000: 550157 554368 611337 531501 632227
0110010011100000100001000: 550157 554368 611337 534073 497799
0110010011100000100001000: 550157 554368 611337 534073 632227
0110010011100000100001000: 550157 554368 611337 534073 531501
0110010011100000100001000: 550157 554368 611337 546821 534073
0110010011100100110001000: 550157 554368 611337 514054 497799
0110010011100100110001000: 550157 554368 611337 514054 632227
0110010011100100110001000: 550157 554368 611337 514054 534073
0110010011100100110001000: 550157 554368 611337 514054 546821
0111010100110001000100010: 550157 554368 547166 611337 639773
0111010100110001000100010: 550157 554368 547166 611337 556601
0111010100110001000100010: 550157 554368 459311 611337 639773
0111010100110001000100010: 550157 554368 459311 611337 556601
0111110110110001100010000: 550157 554368 459311 547166 611337
0111110110110001100010000: 550157 554368 576021 547166 611337
0111110110110001100010000: 550157 554368 554492 547166 611337
0111110110110001100010000: 550157 554368 554492 576021 611337
0111010100110001000100010: 550157 576021 459311 547166 467743
0111010100110001000100010: 550157 576021 459311 547166 525852
0111110100110001000010000: 550157 576021 459311 611337 547166
0111010100110001000100010: 550157 576021 459311 611337 639773
0111010100110001000100010: 550157 576021 459311 611337 514054
0111010100110001000100010: 550157 576021 459311 611337 556601
0111010100110001000100010: 550157 576021 459311 611337 525852
0111010100110001000100010: 550157 576021 554368 611337 639773
0111010100110001000100010: 550157 576021 554368 611337 556601
0111110110110101110010000: 550157 576021 554368 459311 611337
0110010010100010100000100: 550157 611337 547166 639773 467743
0110010011100000100001000: 550157 611337 547166 514054 639773
0110010010100010100000100: 550157 611337 547166 514054 467743
0110010011100000100001000: 550157 611337 547166 556601 639773
0110010010100010100000100: 550157 611337 547166 556601 467743
0110010010100010100000100: 550157 611337 459311 639773 534073
0110010011100000100001000: 550157 611337 459311 514054 639773
0110010010100010100000100: 550157 611337 459311 514054 534073
0110010011100000100001000: 550157 611337 459311 556601 639773
0110010010100010100000100: 550157 611337 459311 556601 534073
0110010011100000100001000: 550157 611337 459311 525852 639773
0110010011100000100001000: 550157 611337 459311 525852 514054
0110010011100000100001000: 550157 611337 459311 525852 556601
0110010010100010100000100: 550157 611337 459311 525852 534073
0110010010100010100000100: 550157 611337 554368 639773 497799
0110010010100010100000100: 550157 611337 554368 639773 632227
0110010010100010100000100: 550157 611337 554368 639773 531501
0110010010100010100000100: 550157 611337 554368 639773 534073
0110010010100010100000100: 550157 611337 554368 639773 546821
0110010011100000100001000: 550157 611337 554368 556601 639773
0110010010100010100000100: 550157 611337 554368 556601 497799
0110010010100010100000100: 550157 611337 554368 556601 632227
0110010010100010100000100: 550157 611337 554368 556601 531501
0110010010100010100000100: 550157 611337 554368 556601 534073
0110010010100010100000100: 550157 611337 554368 556601 546821
0110010011100100110001000: 550157 611337 554368 514054 639773
0110010011100000100001000: 550157 611337 576021 514054 639773
0110010011100000100001000: 550157 611337 576021 556601 639773
0110010011100000100001000: 550157 611337 576021 525852 639773
0110010011100000100001000: 550157 611337 576021 525852 514054
0110010011100000100001000: 550157 611337 576021 525852 556601
0110010011100000100001000: 550157 611337 554492 514054 639773
0110010011100000100001000: 550157 611337 554492 556601 639773
0110010010100010100000100: 550157 554492 547166 497799 467743
0110010010100010100000100: 550157 554492 547166 546821 467743
0110010011100000100001000: 550157 554492 576021 525852 497799
0111110000100001000010000: 550157 554492 611337 576021 547166
0110010010100010100000100: 550157 554492 611337 497799 639773
0110010010100010100000100: 550157 554492 611337 497799 514054
0110010010100010100000100: 550157 554492 611337 497799 556601
0110010010100010100000100: 550157 554492 611337 546821 639773
0110010010100010100000100: 550157 554492 611337 546821 514054
0110010010100010100000100: 550157 554492 611337 546821 556601
0111010100110001000100010: 550157 554492 459311 547166 467743
0111110100110001000010000: 550157 554492 459311 611337 547166
0111010100110001000100010: 550157 554492 459311 611337 639773
0111010100110001000100010: 550157 554492 459311 611337 514054
0111010100110001000100010: 550157 554492 459311 611337 556601
0111010100110001000100010: 550157 554492 554368 611337 639773
0111010100110001000100010: 550157 554492 554368 611337 556601
0111110110110101110010000: 550157 554492 554368 459311 611337
0110010011100000100001000: 459311 550157 534073 611337 547166
0111110110110001100010000: 459311 550157 554492 576021 534073
0110010011100000100001000: 459311 554492 534073 525852 497799
0110010011100000100001000: 459311 554492 576021 525852 497799
0110010010100010100000100: 531501 546821 514054 497799 611337
0110010010100010100000100: 531501 546821 514054 497799 556601
0110010010100010100000100: 531501 546821 514054 632227 611337
0110010010100010100000100: 531501 546821 514054 632227 556601
0110010011100000100001000: 531501 546821 514054 525852 497799
0110010010100010100000100: 531501 546821 514054 525852 556601
0110010011100000100001000: 531501 546821 514054 554492 632227
0110010010100010100000100: 531501 546821 514054 554492 611337
0110010010100010100000100: 531501 546821 514054 554492 556601
0111010101110001000001000: 547166 467743 525852 550157 510194
0110010010100010100000100: 547166 550157 467743 459311 510194
0110010010100010100000100: 547166 550157 467743 576021 510194
0110010011100000100001000: 547166 550157 467743 611337 459311
0110010011100000100001000: 547166 550157 467743 611337 576021
0110010010100010100000100: 547166 550157 467743 611337 510194
0110010011100000100001000: 547166 550157 467743 554492 576021
0110010011100000100001000: 547166 550157 467743 554492 611337
0110010010100010100000100: 547166 550157 467743 554492 510194
0110010010100010100000100: 547166 554368 467743 514054 510194
0110010011100000100001000: 547166 554368 467743 497799 514054
0110010010100010100000100: 547166 554368 467743 497799 510194
0110010011100000100001000: 547166 554368 467743 632227 514054
0110010010100010100000100: 547166 554368 467743 632227 510194
0110010011100000100001000: 547166 554368 467743 531501 497799
0110010011100000100001000: 547166 554368 467743 531501 632227
0110010010100010100000100: 547166 554368 467743 531501 510194
0110010011100000100001000: 547166 554368 467743 459311 514054
0110010011100000100001000: 547166 554368 467743 459311 497799
0110010011100000100001000: 547166 554368 467743 459311 632227
0110010011100000100001000: 547166 554368 467743 459311 531501
0110010010100010100000100: 547166 554368 467743 459311 510194
0110010011100000100001000: 547166 554368 467743 534073 514054
0110010011100000100001000: 547166 554368 467743 534073 497799
0110010011100000100001000: 547166 554368 467743 534073 632227
0110010011100000100001000: 547166 554368 467743 534073 531501
0110010010100010100000100: 547166 554368 467743 534073 510194
0110010011100000100001000: 547166 554368 467743 546821 514054
0110010011100000100001000: 547166 554368 467743 546821 459311
0110010011100000100001000: 547166 554368 467743 546821 534073
0110010010100010100000100: 547166 554368 467743 546821 510194
0110010011100000100001000: 547166 554368 467743 576021 514054
0110010011100000100001000: 547166 554368 467743 576021 497799
0110010011100000100001000: 547166 554368 467743 576021 632227
0110010011100000100001000: 547166 554368 467743 576021 531501
0110010011100000100001000: 547166 554368 467743 576021 534073
0110010011100000100001000: 547166 554368 467743 576021 546821
0110010010100010100000100: 547166 554368 467743 576021 510194
0110010011100000100001000: 547166 554368 467743 554492 514054
0110010011100000100001000: 547166 554368 467743 554492 632227
0110010011100000100001000: 547166 554368 467743 554492 531501
0110010011100000100001000: 547166 554368 467743 554492 534073
0110010011100000100001000: 547166 554368 467743 554492 576021
0110010010100010100000100: 547166 554368 467743 554492 510194
0111010100110001000100010: 547166 554368 550157 467743 510194
0110010010100010100000100: 547166 525852 550157 632227 459311
0110010010100010100000100: 547166 525852 550157 632227 576021
0110010010100010100000100: 547166 525852 550157 546821 459311
0110010010100010100000100: 547166 525852 550157 546821 576021
0111010100110001000100010: 547166 525852 467743 550157 459311
0111010100110001000100010: 547166 525852 467743 550157 576021
0111110110110011100010100: 547166 525852 554368 467743 550157
0110010011100000100001000: 632227 525852 497799 611337 467743
0110010011100000100001000: 632227 525852 497799 611337 547166
0110010010100010100000100: 568861 567003 547642 510194 556601
0110010010100010100000100: 567003 568861 510194 547642 467743
0110010010100010100000100: 510194 567003 467743 568861 547166
0110010010100010100000100: 510194 567003 467743 568861 525852
0110010010100010100000100: 467743 547166 510194 550157 567003
0110010010100010100000100: 467743 547166 510194 554368 567003
0110010010100010100000100: 467743 525852 510194 632227 567003
0110010010100010100000100: 467743 525852 510194 546821 567003
0110010010100010100000100: 467743 525852 510194 554368 567003
0110010011100000100001000: 467743 525852 510194 611337 632227
0110010011100000100001000: 467743 525852 510194 611337 546821
0110010011100000100001000: 467743 525852 510194 611337 554368
0110010010100010100000100: 467743 525852 510194 611337 567003
0110010011100000100001000: 467743 525852 510194 554492 632227
0110010011100000100001000: 467743 525852 510194 554492 611337
0110010010100010100000100: 467743 525852 510194 554492 567003
0111010100110001000100010: 467743 525852 547166 510194 567003
0110010010100010100000100: 547642 556601 568861 514054 567003
0110010010100010100000100: 547642 556601 568861 611337 567003
0110010011100000100001000: 514054 554368 611337 547166 497799
0110010011100000100001000: 514054 554368 611337 547166 632227
0110010011100000100001000: 514054 554368 611337 459311 497799
0110010011100000100001000: 514054 554368 611337 459311 632227
0110010011100000100001000: 514054 554368 611337 459311 547166
0110010011100000100001000: 514054 554368 611337 534073 497799
0110010011100000100001000: 514054 554368 611337 534073 632227
0110010011100000100001000: 514054 554368 611337 534073 547166
0110010011100000100001000: 514054 554368 611337 546821 547166
0110010011100000100001000: 514054 554368 611337 546821 459311
0110010011100000100001000: 514054 554368 611337 546821 534073
0110010011100000100001000: 514054 554368 611337 576021 497799
0110010011100000100001000: 514054 554368 611337 576021 632227
0110010011100000100001000: 514054 554368 611337 576021 547166
0110010011100000100001000: 514054 554368 611337 576021 534073
0110010011100000100001000: 514054 554368 611337 576021 546821
0110010011100000100001000: 514054 554368 611337 554492 632227
0110010011100000100001000: 514054 554368 611337 554492 547166
0110010011100000100001000: 514054 554368 611337 554492 534073
0110010011100000100001000: 514054 554368 611337 554492 576021
0110010011100000100001000: 514054 554368 556601 547166 497799
0110010011100000100001000: 514054 554368 556601 547166 632227
0110010011100000100001000: 514054 554368 556601 459311 497799
0110010011100000100001000: 514054 554368 556601 459311 632227
0110010011100000100001000: 514054 554368 556601 459311 547166
0110010011100000100001000: 514054 554368 556601 534073 497799
0110010011100000100001000: 514054 554368 556601 534073 632227
0110010011100000100001000: 514054 554368 556601 534073 547166
0110010011100000100001000: 514054 554368 556601 550157 497799
0110010011100000100001000: 514054 554368 556601 550157 632227
0110010011100000100001000: 514054 554368 556601 550157 534073
0110010011100000100001000: 514054 554368 556601 546821 547166
0110010011100000100001000: 514054 554368 556601 546821 459311
0110010011100000100001000: 514054 554368 556601 546821 534073
0110010011100000100001000: 514054 554368 556601 546821 550157
0110010011100000100001000: 514054 554368 556601 576021 497799
0110010011100000100001000: 514054 554368 556601 576021 632227
0110010011100000100001000: 514054 554368 556601 576021 547166
0110010011100000100001000: 514054 554368 556601 576021 534073
0110010011100000100001000: 514054 554368 556601 576021 546821
0110010011100000100001000: 514054 554368 556601 525852 497799
0110010011100000100001000: 514054 554368 556601 525852 459311
0110010011100000100001000: 514054 554368 556601 525852 534073
0110010011100000100001000: 514054 554368 556601 525852 550157
0110010011100000100001000: 514054 554368 556601 525852 576021
0110010011100000100001000: 514054 554368 556601 554492 632227
0110010011100000100001000: 514054 554368 556601 554492 547166
0110010011100000100001000: 514054 554368 556601 554492 534073
0110010011100000100001000: 514054 554368 556601 554492 576021
0111010100110001000100010: 514054 554368 531501 611337 639773
0111010100110001000100010: 514054 554368 531501 556601 547642
0110010010100010100000100: 514054 611337 531501 639773 546821
0110010011100000100001000: 514054 611337 531501 550157 639773
0110010010100010100000100: 514054 611337 531501 550157 546821
0110010011100000100001000: 514054 611337 531501 525852 639773
0110010011100000100001000: 514054 611337 531501 525852 550157
0110010010100010100000100: 514054 611337 554368 639773 497799
0110010010100010100000100: 514054 611337 554368 639773 632227
0110010010100010100000100: 514054 611337 554368 639773 547166
0110010010100010100000100: 514054 611337 554368 639773 459311
0110010010100010100000100: 514054 611337 554368 639773 534073
0110010010100010100000100: 514054 611337 554368 639773 546821
0110010010100010100000100: 514054 611337 554368 639773 576021
0110010010100010100000100: 514054 611337 554368 639773 554492
0110010010100010100000100: 514054 556601 531501 547642 546821
0110010010100010100000100: 514054 556601 554368 547642 497799
0110010010100010100000100: 514054 556601 554368 547642 632227
0110010010100010100000100: 514054 556601 554368 547642 547166
0110010010100010100000100: 514054 556601 554368 547642 459311
0110010010100010100000100: 514054 556601 554368 547642 534073
0110010010100010100000100: 514054 556601 554368 547642 550157
0110010010100010100000100: 514054 556601 554368 547642 546821
0110010010100010100000100: 514054 556601 554368 547642 576021
0110010010100010100000100: 514054 556601 554368 547642 525852
0110010010100010100000100: 514054 556601 554368 547642 554492
0111010100110001000100010: 514054 556601 611337 531501 546821
0111010100110001000100010: 514054 556601 611337 554368 497799
0111010100110001000100010: 514054 556601 611337 554368 632227
0111010100110001000100010: 514054 556601 611337 554368 547166
0111010100110001000100010: 514054 556601 611337 554368 459311
0111010100110001000100010: 514054 556601 611337 554368 534073
0111010100110001000100010: 514054 556601 611337 554368 546821
0111010100110001000100010: 514054 556601 611337 554368 576021
0111010100110001000100010: 514054 556601 611337 554368 554492
0111110100110001000110010: 514054 556601 611337 554368 531501
