Vertex,0111100110001100,0110100110000100,0100101101000100,0101101001011010,0111100110011110,0111101011011010,0101101001001000,0100101101010110,0101101101001100,0110101111010110,0110100010010010,0111101011001000,0110101111000100,0111100010011010,0101101101011110,0111100010001000,0110101011010010,0111101111001100,0110100110010110,0100101001010010
561758,0.0,129.0,0.0,0.0,0.0,0.0,24.0,0.0,0.0,0.0,69.0,0.0,0.0,0.0,0.0,24.0,0.0,0.0,0.0,12.0
526174,2.0,220.0,0.0,0.0,0.0,0.0,60.0,0.0,0.0,0.0,111.0,10.0,4.0,2.0,0.0,352.0,2.0,0.0,0.0,18.0
655713,0.0,216.0,4.0,0.0,0.0,0.0,32.0,0.0,0.0,0.0,109.0,0.0,0.0,0.0,0.0,83.0,0.0,0.0,0.0,32.0
561428,44.0,1298.0,34.0,150.0,0.0,0.0,362.0,6.0,8.0,0.0,640.0,157.0,70.0,64.0,0.0,1489.0,44.0,0.0,435.0,159.0
577028,2.0,346.0,2.0,0.0,0.0,0.0,80.0,0.0,0.0,0.0,165.0,10.0,4.0,2.0,0.0,400.0,2.0,0.0,0.0,31.0
640768,10.0,305.0,10.0,11.0,0.0,0.0,63.0,0.0,4.0,0.0,152.0,20.0,12.0,9.0,0.0,113.0,12.0,0.0,35.0,39.0
462081,0.0,125.0,2.0,0.0,0.0,0.0,28.0,0.0,0.0,0.0,71.0,0.0,0.0,0.0,0.0,24.0,0.0,0.0,0.0,18.0
640099,40.0,297.0,4.0,11.0,0.0,0.0,64.0,2.0,8.0,0.0,136.0,137.0,62.0,44.0,0.0,347.0,40.0,0.0,35.0,30.0
483979,2.0,461.0,14.0,73.0,0.0,0.0,128.0,0.0,0.0,0.0,232.0,10.0,4.0,2.0,0.0,545.0,2.0,0.0,202.0,61.0
595771,2.0,295.0,4.0,58.0,0.0,0.0,86.0,0.0,0.0,0.0,141.0,10.0,4.0,2.0,0.0,456.0,2.0,0.0,167.0,25.0
465676,0.0,168.0,4.0,10.0,0.0,0.0,48.0,0.0,0.0,0.0,88.0,0.0,0.0,0.0,0.0,24.0,0.0,0.0,35.0,4.0
568553,2.0,189.0,0.0,10.0,0.0,0.0,54.0,0.0,0.0,0.0,91.0,10.0,4.0,2.0,0.0,352.0,2.0,0.0,35.0,16.0
528343,12.0,623.0,32.0,143.0,0.0,0.0,182.0,4.0,4.0,0.0,322.0,27.0,14.0,18.0,0.0,380.0,10.0,0.0,400.0,136.0
608376,2.0,344.0,6.0,66.0,0.0,0.0,103.0,0.0,0.0,0.0,165.0,10.0,4.0,2.0,0.0,505.0,2.0,0.0,202.0,61.0
657071,2.0,211.0,0.0,48.0,0.0,0.0,61.0,0.0,0.0,0.0,96.0,10.0,4.0,2.0,0.0,432.0,2.0,0.0,132.0,21.0
574932,40.0,405.0,6.0,66.0,0.0,0.0,96.0,2.0,8.0,0.0,208.0,137.0,62.0,44.0,0.0,472.0,40.0,0.0,202.0,46.0
494425,15.0,365.0,10.0,14.0,2.0,19.0,113.0,4.0,4.0,17.0,199.0,48.0,22.0,23.0,1.0,157.0,14.0,18.0,35.0,74.0
486722,2.0,133.0,0.0,0.0,0.0,0.0,38.0,0.0,0.0,0.0,57.0,10.0,4.0,2.0,0.0,352.0,2.0,0.0,0.0,12.0
482001,31.0,575.0,16.0,12.0,2.0,19.0,175.0,8.0,6.0,17.0,311.0,99.0,43.0,45.0,1.0,468.0,25.0,18.0,33.0,83.0
608659,16.0,400.0,16.0,30.0,0.0,0.0,103.0,2.0,4.0,0.0,221.0,35.0,16.0,16.0,0.0,171.0,10.0,0.0,103.0,90.0
553112,4.0,244.0,10.0,12.0,0.0,0.0,65.0,0.0,0.0,0.0,139.0,20.0,8.0,4.0,0.0,115.0,4.0,0.0,33.0,49.0
487406,29.0,172.0,4.0,0.0,2.0,19.0,47.0,8.0,6.0,17.0,84.0,89.0,39.0,43.0,1.0,30.0,23.0,18.0,0.0,14.0
500965,14.0,216.0,4.0,12.0,2.0,19.0,57.0,4.0,2.0,17.0,118.0,41.0,17.0,20.0,1.0,76.0,9.0,18.0,33.0,39.0
507843,5.0,200.0,14.0,14.0,0.0,0.0,61.0,0.0,2.0,0.0,99.0,14.0,7.0,2.0,0.0,93.0,5.0,0.0,35.0,20.0
491937,0.0,87.0,4.0,0.0,0.0,0.0,22.0,0.0,0.0,0.0,64.0,0.0,0.0,0.0,0.0,24.0,0.0,0.0,0.0,22.0
graph,69.0,2006.0,50.0,185.0,2.0,19.0,538.0,10.0,14.0,17.0,1022.0,226.0,101.0,87.0,1.0,1871.0,63.0,18.0,538.0,278.0
