Vertex,0111010101110001000101010,0110010011100000100001000,0111010101110001000001000,0111110110110011100010100,0111010100110001000100010,0111110110110001100010000,0111010110110011100000100,0111010110110011100100110,0111110111110111110011100,0111110100110001000010000,0110010011100100110001000,0110010010100010100000100,0111110110110101110010000,0111110111110101110011000,0111110111110001100011000
483619,3.0,12.0,9.0,4.0,11.0,4.0,10.0,1.0,1.0,7.0,5.0,17.0,5.0,3.0,1.0
567917,1.0,6.0,7.0,6.0,11.0,5.0,7.0,0.0,1.0,3.0,1.0,15.0,3.0,1.0,0.0
457377,0.0,9.0,8.0,2.0,10.0,2.0,7.0,0.0,0.0,4.0,2.0,25.0,1.0,1.0,0.0
551023,2.0,7.0,8.0,3.0,8.0,2.0,6.0,0.0,1.0,5.0,0.0,9.0,5.0,3.0,1.0
509877,0.0,3.0,2.0,0.0,6.0,0.0,2.0,0.0,0.0,0.0,0.0,26.0,0.0,0.0,0.0
575753,2.0,9.0,8.0,5.0,10.0,3.0,12.0,1.0,1.0,5.0,2.0,17.0,5.0,3.0,2.0
481878,3.0,10.0,5.0,0.0,3.0,4.0,3.0,1.0,0.0,4.0,5.0,8.0,2.0,0.0,0.0
602405,0.0,16.0,7.0,2.0,7.0,1.0,8.0,0.0,0.0,4.0,2.0,24.0,1.0,1.0,2.0
467818,3.0,14.0,4.0,2.0,5.0,1.0,6.0,1.0,0.0,4.0,5.0,11.0,1.0,1.0,2.0
528343,1.0,9.0,6.0,6.0,8.0,3.0,11.0,1.0,1.0,4.0,3.0,17.0,2.0,2.0,2.0
545029,0.0,5.0,1.0,0.0,6.0,0.0,3.0,0.0,0.0,0.0,0.0,26.0,0.0,0.0,0.0
graph,3.0,20.0,13.0,6.0,17.0,5.0,15.0,1.0,1.0,8.0,5.0,39.0,5.0,3.0,2.0
