Vertex,0111100110001100,0101101001011010,0101101101001100,0111101011001000,0100101101010110,0110101111000100,0111100010001000,0110101011010010,0100101101000100,0110100010010010,0110100110010110,0100101001010010,0111101011011010,0111100110011110,0111100010011010,0111101111001100,0101101101011110,0110100110000100,0111101111011110,0101101001001000,0110101111010110
507390,96.0,34.0,28.0,237.0,0.0,120.0,202.0,84.0,16.0,305.0,107.0,87.0,0.0,0.0,30.0,0.0,0.0,495.0,0.0,124.0,0.0
473535,476.0,95.0,114.0,1335.0,14.0,619.0,425.0,415.0,22.0,465.0,315.0,129.0,364.0,40.0,263.0,396.0,26.0,815.0,1550.0,189.0,339.0
471712,85.0,46.0,30.0,225.0,0.0,113.0,255.0,85.0,26.0,284.0,140.0,84.0,0.0,0.0,28.0,0.0,0.0,479.0,0.0,129.0,0.0
644881,417.0,146.0,96.0,1273.0,2.0,582.0,632.0,384.0,42.0,500.0,414.0,156.0,407.0,39.0,207.0,432.0,38.0,884.0,1395.0,244.0,394.0
491655,122.0,88.0,10.0,458.0,0.0,188.0,531.0,103.0,8.0,296.0,235.0,65.0,141.0,3.0,80.0,198.0,2.0,555.0,0.0,158.0,124.0
501829,615.0,124.0,142.0,1866.0,0.0,855.0,635.0,579.0,14.0,514.0,356.0,82.0,735.0,51.0,318.0,864.0,43.0,944.0,2015.0,220.0,683.0
604199,469.0,212.0,154.0,1375.0,20.0,683.0,439.0,517.0,38.0,493.0,573.0,174.0,486.0,38.0,274.0,558.0,41.0,855.0,1550.0,249.0,464.0
494226,131.0,91.0,24.0,445.0,6.0,199.0,447.0,130.0,26.0,436.0,243.0,137.0,89.0,2.0,100.0,126.0,3.0,750.0,0.0,225.0,77.0
457529,376.0,98.0,80.0,1157.0,8.0,521.0,537.0,336.0,26.0,458.0,307.0,110.0,471.0,41.0,229.0,522.0,37.0,853.0,775.0,228.0,437.0
484421,339.0,108.0,80.0,1077.0,6.0,495.0,403.0,330.0,14.0,330.0,272.0,114.0,495.0,41.0,192.0,540.0,48.0,584.0,1395.0,169.0,489.0
477687,325.0,154.0,82.0,1019.0,6.0,474.0,535.0,331.0,26.0,417.0,410.0,132.0,432.0,29.0,192.0,504.0,29.0,720.0,775.0,194.0,406.0
648005,155.0,39.0,46.0,380.0,2.0,193.0,273.0,143.0,24.0,342.0,140.0,103.0,44.0,4.0,77.0,54.0,4.0,559.0,0.0,146.0,44.0
476152,523.0,232.0,90.0,1570.0,28.0,688.0,998.0,425.0,40.0,683.0,680.0,205.0,707.0,76.0,384.0,720.0,73.0,1305.0,465.0,334.0,708.0
505077,171.0,93.0,36.0,567.0,8.0,255.0,353.0,164.0,4.0,272.0,272.0,91.0,31.0,3.0,130.0,36.0,3.0,532.0,0.0,152.0,27.0
601865,115.0,26.0,20.0,366.0,6.0,161.0,400.0,100.0,24.0,406.0,68.0,172.0,67.0,6.0,96.0,72.0,4.0,666.0,0.0,179.0,54.0
545533,231.0,60.0,80.0,685.0,8.0,343.0,323.0,276.0,22.0,390.0,140.0,135.0,210.0,17.0,140.0,216.0,18.0,636.0,0.0,156.0,197.0
477507,137.0,51.0,30.0,423.0,4.0,189.0,360.0,121.0,10.0,221.0,142.0,69.0,30.0,2.0,86.0,36.0,2.0,441.0,0.0,108.0,27.0
554431,55.0,0.0,4.0,197.0,0.0,81.0,301.0,44.0,8.0,240.0,0.0,92.0,48.0,3.0,42.0,54.0,3.0,395.0,0.0,98.0,44.0
553276,105.0,0.0,16.0,364.0,0.0,154.0,320.0,88.0,12.0,216.0,0.0,44.0,62.0,4.0,60.0,72.0,4.0,418.0,0.0,104.0,54.0
527136,134.0,81.0,36.0,419.0,2.0,198.0,377.0,148.0,22.0,345.0,247.0,91.0,69.0,5.0,82.0,72.0,6.0,598.0,0.0,151.0,68.0
588506,16.0,0.0,8.0,38.0,0.0,24.0,48.0,24.0,4.0,171.0,0.0,62.0,0.0,0.0,4.0,0.0,0.0,231.0,0.0,62.0,0.0
537492,98.0,66.0,34.0,244.0,0.0,129.0,345.0,95.0,38.0,394.0,171.0,138.0,0.0,0.0,32.0,0.0,0.0,633.0,0.0,187.0,0.0
551568,8.0,0.0,4.0,21.0,0.0,12.0,72.0,12.0,12.0,189.0,0.0,64.0,0.0,0.0,2.0,0.0,0.0,247.0,0.0,72.0,0.0
463088,13.0,0.0,4.0,35.0,0.0,16.0,53.0,10.0,2.0,61.0,0.0,16.0,0.0,0.0,4.0,0.0,0.0,121.0,0.0,34.0,0.0
graph,1303.0,461.0,312.0,3944.0,30.0,1823.0,2316.0,1236.0,120.0,2107.0,1308.0,638.0,1222.0,101.0,763.0,1368.0,96.0,3679.0,2480.0,978.0,1159.0
