0110010010100010100000100: 598076 494361 605758 480446 510968
0110010010100010100000100: 598076 554368 605758 526359 510968
0110010011100000100001000: 598076 554368 605758 572455 526359
0110010010100010100100110: 598076 554368 605758 572455 510968
0110010011100000100001000: 598076 554368 605758 500175 526359
0110010011100000100001000: 598076 554368 605758 500175 572455
0110010010100010100000100: 598076 554368 605758 500175 510968
0110010011100000100001000: 598076 554368 605758 480446 526359
0110010011100000100001000: 598076 554368 605758 480446 572455
0110010011100000100001000: 598076 554368 605758 480446 500175
0110010010100010100000100: 598076 554368 605758 480446 510968
0110010011100000100001000: 598076 554368 605758 480258 526359
0110010011100000100001000: 598076 554368 605758 480258 572455
0110010011100000100001000: 598076 554368 605758 480258 500175
0110010010100010100000100: 598076 554368 605758 480258 510968
0110010011100000100001000: 598076 554368 605758 646118 526359
0110010011100000100001000: 598076 554368 605758 646118 572455
0110010011100000100001000: 598076 554368 605758 646118 500175
0110010011100000100001000: 598076 554368 605758 646118 480446
0110010011100000100001000: 598076 554368 605758 646118 480258
0110010010100010100000100: 598076 554368 605758 646118 510968
0110010011100000100001000: 598076 554368 494361 572455 526359
0110010011100000100001000: 598076 554368 494361 500175 526359
0110010011100000100001000: 598076 554368 494361 500175 572455
0110010011100000100001000: 598076 554368 494361 480258 526359
0110010011100000100001000: 598076 554368 494361 480258 572455
0110010011100000100001000: 598076 554368 494361 480258 500175
0110010011100000100001000: 598076 554368 494361 646118 526359
0110010011100000100001000: 598076 554368 494361 646118 572455
0110010011100000100001000: 598076 554368 494361 646118 500175
0110010011100000100001000: 598076 554368 494361 646118 480258
0110010011100100110001000: 598076 554368 494361 480446 526359
0110010011100100110001000: 598076 554368 494361 480446 572455
0110010011100100110001000: 598076 554368 494361 480446 500175
0110010011100100110001000: 598076 554368 494361 480446 646118
0110010010100010100000100: 554368 572455 526359 482369 516415
0110010011100000100001000: 554368 572455 526359 510968 482369
0110010010100010100000100: 554368 572455 526359 510968 516415
0110010011100000100001000: 554368 572455 500175 510968 482369
0110010011100000100001000: 554368 572455 480446 510968 482369
0110010011100000100001000: 554368 572455 480258 510968 482369
0110010011100100110001000: 554368 572455 646118 482369 510968
0110010011100000100001000: 554368 572455 598076 510968 482369
0110010010100010100000100: 554368 500175 526359 589760 516415
0110010010100010100000100: 554368 500175 572455 589760 482369
0110010010100010100000100: 554368 500175 572455 589760 510968
0110010010100010100000100: 554368 480446 526359 494361 516415
0110010010100010100000100: 554368 480446 572455 494361 482369
0110010010100010100000100: 554368 480446 572455 494361 510968
0111110000100001000010000: 554368 480446 500175 572455 526359
0110010010100010100000100: 554368 480446 500175 494361 589760
0111010101110001000001000: 554368 480446 480258 526359 494361
0111010101110001000001000: 554368 480446 480258 572455 494361
0111010101110001000001000: 554368 480446 480258 500175 494361
0111010101110001000001000: 554368 480446 480258 646118 494361
0111010101110001000101010: 554368 480446 480258 598076 494361
0110010010100010100000100: 554368 480258 526359 609597 516415
0110010011100000100001000: 554368 480258 526359 499755 609597
0110010010100010100000100: 554368 480258 526359 499755 516415
0110010010100010100000100: 554368 480258 572455 609597 482369
0110010010100010100000100: 554368 480258 572455 609597 510968
0110010011100000100001000: 554368 480258 572455 499755 609597
0110010010100010100000100: 554368 480258 572455 499755 482369
0110010010100010100000100: 554368 480258 572455 499755 510968
0111110000100001000010000: 554368 480258 500175 572455 526359
0110010010100010100000100: 554368 480258 500175 609597 589760
0110010011100000100001000: 554368 480258 500175 499755 609597
0110010010100010100000100: 554368 480258 500175 499755 589760
0110010011100100110001000: 554368 480258 646118 499755 609597
0110010011100000100001000: 554368 480258 598076 499755 609597
0111010101110001000001000: 554368 480258 480446 526359 609597
0111010101110001000001000: 554368 480258 480446 526359 499755
0111010100110001000100010: 554368 480258 480446 526359 516415
0111110100110001000010000: 554368 480258 480446 572455 526359
0111010101110001000001000: 554368 480258 480446 572455 609597
0111010101110001000001000: 554368 480258 480446 572455 499755
0111010100110001000100010: 554368 480258 480446 572455 482369
0111010100110001000100010: 554368 480258 480446 572455 510968
0111110100110001000010000: 554368 480258 480446 500175 526359
0111110100110001000010000: 554368 480258 480446 500175 572455
0111010101110001000001000: 554368 480258 480446 500175 609597
0111010101110001000001000: 554368 480258 480446 500175 499755
0111010100110001000100010: 554368 480258 480446 500175 589760
0111110100110001000010000: 554368 480258 480446 646118 526359
0111110100110001000010000: 554368 480258 480446 646118 572455
0111110100110001000010000: 554368 480258 480446 646118 500175
0111010101110001000001000: 554368 480258 480446 646118 609597
0111010100110001000100010: 554368 480258 480446 646118 482369
0111010101110001000101010: 554368 480258 480446 646118 499755
0111110100110001000010000: 554368 480258 480446 598076 526359
0111110100110001000010000: 554368 480258 480446 598076 572455
0111110100110001000010000: 554368 480258 480446 598076 500175
0111110100110001000010000: 554368 480258 480446 598076 646118
0111010101110001000001000: 554368 480258 480446 598076 609597
0111010101110001000001000: 554368 480258 480446 598076 499755
0111010100110001000100010: 554368 480258 480446 598076 605758
0110010010100010100000100: 554368 646118 526359 482369 516415
0110010011100000100001000: 554368 646118 526359 499755 482369
0110010010100010100000100: 554368 646118 526359 499755 516415
0110010010100010100000100: 554368 646118 572455 499755 510968
0110010011100100110001000: 554368 646118 572455 482369 499755
0111110000100001000010000: 554368 646118 500175 572455 526359
0110010010100010100000100: 554368 646118 500175 482369 589760
0110010011100000100001000: 554368 646118 500175 499755 482369
0110010010100010100000100: 554368 646118 500175 499755 589760
0111110000100001000010000: 554368 646118 480446 572455 526359
0111110000100001000010000: 554368 646118 480446 500175 526359
0111110000100001000010000: 554368 646118 480446 500175 572455
0110010010100010100000100: 554368 646118 480446 482369 494361
0110010011100000100001000: 554368 646118 480446 499755 482369
0110010010100010100000100: 554368 646118 480446 499755 494361
0111110000100001000010000: 554368 646118 480258 572455 526359
0111110000100001000010000: 554368 646118 480258 500175 526359
0111110000100001000010000: 554368 646118 480258 500175 572455
0110010010100010100000100: 554368 646118 480258 482369 609597
0110010011100100110001000: 554368 646118 480258 499755 482369
0110010011100000100001000: 554368 646118 598076 499755 482369
0110010010100010100000100: 554368 598076 526359 605758 516415
0110010011100000100001000: 554368 598076 526359 494361 605758
0110010010100010100000100: 554368 598076 526359 494361 516415
0110010010100010100000100: 554368 598076 572455 605758 482369
0110010011100000100001000: 554368 598076 572455 494361 605758
0110010010100010100000100: 554368 598076 572455 494361 482369
0110010010100010100000100: 554368 598076 572455 494361 510968
0111110000100001000010000: 554368 598076 500175 572455 526359
0110010010100010100000100: 554368 598076 500175 605758 589760
0110010011100000100001000: 554368 598076 500175 494361 605758
0110010010100010100000100: 554368 598076 500175 494361 589760
0111110000100001000010000: 554368 598076 480446 572455 526359
0111110000100001000010000: 554368 598076 480446 500175 526359
0111110000100001000010000: 554368 598076 480446 500175 572455
0110010011100100110001000: 554368 598076 480446 494361 605758
0111110000100001000010000: 554368 598076 480258 572455 526359
0111110000100001000010000: 554368 598076 480258 500175 526359
0111110000100001000010000: 554368 598076 480258 500175 572455
0110010010100010100000100: 554368 598076 480258 605758 609597
0110010010100010100000100: 554368 598076 480258 605758 499755
0110010011100000100001000: 554368 598076 480258 494361 605758
0110010010100010100000100: 554368 598076 480258 494361 609597
0110010010100010100000100: 554368 598076 480258 494361 499755
0111110000100001000010000: 554368 598076 646118 572455 526359
0111110000100001000010000: 554368 598076 646118 500175 526359
0111110000100001000010000: 554368 598076 646118 500175 572455
0111110000100001000010000: 554368 598076 646118 480446 526359
0111110000100001000010000: 554368 598076 646118 480446 572455
0111110000100001000010000: 554368 598076 646118 480446 500175
0111110000100001000010000: 554368 598076 646118 480258 526359
0111110000100001000010000: 554368 598076 646118 480258 572455
0111110000100001000010000: 554368 598076 646118 480258 500175
0110010010100010100000100: 554368 598076 646118 605758 482369
0110010010100010100000100: 554368 598076 646118 605758 499755
0110010011100000100001000: 554368 598076 646118 494361 605758
0110010010100010100000100: 554368 598076 646118 494361 482369
0110010010100010100000100: 554368 598076 646118 494361 499755
0110010011100000100001000: 499755 480258 646118 480446 609597
0110010010100010100000100: 499755 646118 480258 482369 609597
0110010010100010100000100: 499755 646118 480258 482369 480446
0110010010100010100000100: 646118 499755 482369 480258 572455
0110010011100000100001000: 646118 554368 482369 500175 526359
0110010011100000100001000: 646118 554368 482369 480446 526359
0110010011100000100001000: 646118 554368 482369 480446 500175
0110010011100000100001000: 646118 554368 482369 480258 526359
0110010011100000100001000: 646118 554368 482369 480258 500175
0110010011100000100001000: 646118 554368 482369 598076 526359
0110010011100000100001000: 646118 554368 482369 598076 500175
0110010011100000100001000: 646118 554368 482369 598076 480446
0110010011100000100001000: 646118 554368 482369 598076 480258
0110010011100100110001000: 646118 554368 482369 572455 526359
0110010011100100110001000: 646118 554368 482369 572455 500175
0110010011100100110001000: 646118 554368 482369 572455 480446
0110010011100100110001000: 646118 554368 482369 572455 480258
0110010011100100110001000: 646118 554368 482369 572455 598076
0110010011100000100001000: 646118 554368 499755 572455 526359
0110010011100000100001000: 646118 554368 499755 500175 526359
0110010011100000100001000: 646118 554368 499755 500175 572455
0110010011100000100001000: 646118 554368 499755 480446 526359
0110010011100000100001000: 646118 554368 499755 480446 572455
0110010011100000100001000: 646118 554368 499755 480446 500175
0110010011100000100001000: 646118 554368 499755 598076 526359
0110010011100000100001000: 646118 554368 499755 598076 572455
0110010011100000100001000: 646118 554368 499755 598076 500175
0110010011100000100001000: 646118 554368 499755 598076 480446
0110010011100100110001000: 646118 554368 499755 480258 526359
0110010011100100110001000: 646118 554368 499755 480258 572455
0110010011100100110001000: 646118 554368 499755 480258 500175
0110010011100100110001000: 646118 554368 499755 480258 598076
0110010010100010100000100: 480258 480446 609597 494361 486360
0111010101110001000001000: 480258 480446 554368 609597 494361
0111010101110001000001000: 480258 480446 554368 499755 494361
0110010010100010100000100: 480258 499755 609597 646118 486360
0110010010100010100000100: 480258 499755 480446 646118 494361
0110010010100010100000100: 480258 554368 609597 526359 486360
0110010011100000100001000: 480258 554368 609597 572455 526359
0110010010100010100000100: 480258 554368 609597 572455 486360
0110010011100000100001000: 480258 554368 609597 500175 526359
0110010011100000100001000: 480258 554368 609597 500175 572455
0110010010100010100000100: 480258 554368 609597 500175 486360
0110010011100000100001000: 480258 554368 609597 646118 526359
0110010011100000100001000: 480258 554368 609597 646118 572455
0110010011100000100001000: 480258 554368 609597 646118 500175
0110010010100010100000100: 480258 554368 609597 646118 486360
0110010011100000100001000: 480258 554368 609597 598076 526359
0110010011100000100001000: 480258 554368 609597 598076 572455
0110010011100000100001000: 480258 554368 609597 598076 500175
0110010011100000100001000: 480258 554368 609597 598076 646118
0110010010100010100000100: 480258 554368 609597 598076 486360
0110010011100000100001000: 480258 554368 499755 572455 526359
0110010011100000100001000: 480258 554368 499755 500175 526359
0110010011100000100001000: 480258 554368 499755 500175 572455
0110010011100000100001000: 480258 554368 499755 598076 526359
0110010011100000100001000: 480258 554368 499755 598076 572455
0110010011100000100001000: 480258 554368 499755 598076 500175
0111010100110001000100010: 480258 554368 480446 609597 486360
0111110100110001000010000: 480258 554368 480446 499755 609597
0110010010100010100000100: 480446 480258 494361 609597 598076
0110010011100000100001000: 480446 480258 494361 499755 609597
0110010010100010100000100: 480446 480258 494361 499755 598076
0110010011100000100001000: 480446 554368 494361 572455 526359
0110010011100000100001000: 480446 554368 494361 500175 526359
0110010011100000100001000: 480446 554368 494361 500175 572455
0110010011100000100001000: 480446 554368 494361 646118 526359
0110010011100000100001000: 480446 554368 494361 646118 572455
0110010011100000100001000: 480446 554368 494361 646118 500175
0110010010100010100000100: 486360 609597 480518 480258 516415
0110010010100010100000100: 609597 480258 486360 480446 480518
0110010011100000100001000: 609597 480258 486360 499755 480446
0110010010100010100000100: 609597 480258 486360 499755 480518
0110010011100000100001000: 609597 480258 486360 554368 499755
0110010010100010100000100: 609597 480258 486360 554368 480518
0110010010100010100000100: 500175 554368 589760 526359 500942
0110010011100000100001000: 500175 554368 589760 572455 526359
0110010010100010100000100: 500175 554368 589760 572455 500942
0110010011100000100001000: 500175 554368 589760 480446 526359
0110010011100000100001000: 500175 554368 589760 480446 572455
0110010010100010100000100: 500175 554368 589760 480446 500942
0110010011100000100001000: 500175 554368 589760 480258 526359
0110010011100000100001000: 500175 554368 589760 480258 572455
0110010010100010100000100: 500175 554368 589760 480258 500942
0110010011100000100001000: 500175 554368 589760 646118 526359
0110010011100000100001000: 500175 554368 589760 646118 572455
0110010011100000100001000: 500175 554368 589760 646118 480446
0110010011100000100001000: 500175 554368 589760 646118 480258
0110010010100010100000100: 500175 554368 589760 646118 500942
0110010011100000100001000: 500175 554368 589760 598076 526359
0110010011100000100001000: 500175 554368 589760 598076 572455
0110010011100000100001000: 500175 554368 589760 598076 480446
0110010011100000100001000: 500175 554368 589760 598076 480258
0110010011100000100001000: 500175 554368 589760 598076 646118
0110010010100010100000100: 500175 554368 589760 598076 500942
0110010010100010100000100: 572455 510968 482369 605758 646118
0110010011100000100001000: 572455 554368 482369 500175 526359
0110010011100000100001000: 572455 554368 482369 480446 526359
0110010011100000100001000: 572455 554368 482369 480446 500175
0110010011100000100001000: 572455 554368 482369 480258 526359
0110010011100000100001000: 572455 554368 482369 480258 500175
0110010011100000100001000: 572455 554368 482369 598076 526359
0110010011100000100001000: 572455 554368 482369 598076 500175
0110010011100000100001000: 572455 554368 482369 598076 480446
0110010011100000100001000: 572455 554368 482369 598076 480258
0110010010100010100000100: 572455 554368 510968 526359 605758
0110010011100000100001000: 572455 554368 510968 500175 526359
0110010010100010100000100: 572455 554368 510968 500175 605758
0110010011100000100001000: 572455 554368 510968 480446 526359
0110010011100000100001000: 572455 554368 510968 480446 500175
0110010010100010100000100: 572455 554368 510968 480446 605758
0110010011100000100001000: 572455 554368 510968 480258 526359
0110010011100000100001000: 572455 554368 510968 480258 500175
0110010010100010100000100: 572455 554368 510968 480258 605758
0110010011100000100001000: 572455 554368 510968 646118 526359
0110010011100000100001000: 572455 554368 510968 646118 500175
0110010011100000100001000: 572455 554368 510968 646118 480446
0110010011100000100001000: 572455 554368 510968 646118 480258
0110010010100010100000100: 572455 554368 510968 646118 605758
0110010011100000100001000: 572455 554368 510968 598076 526359
0110010011100000100001000: 572455 554368 510968 598076 500175
0110010011100000100001000: 572455 554368 510968 598076 480446
0110010011100000100001000: 572455 554368 510968 598076 480258
0110010011100000100001000: 572455 554368 510968 598076 646118
0110010010100010100000100: 510968 572455 605758 482369 598076
0110010011100000100001000: 510968 572455 605758 554368 482369
0110010010100010100000100: 494361 598076 480446 605758 480258
0110010010100010100000100: 526359 554368 516415 572455 480518
0110010011100000100001000: 526359 554368 516415 500175 572455
0110010010100010100000100: 526359 554368 516415 500175 480518
0110010011100000100001000: 526359 554368 516415 480446 572455
0110010011100000100001000: 526359 554368 516415 480446 500175
0110010010100010100000100: 526359 554368 516415 480446 480518
0110010011100000100001000: 526359 554368 516415 480258 572455
0110010011100000100001000: 526359 554368 516415 480258 500175
0110010010100010100000100: 526359 554368 516415 480258 480518
0110010011100000100001000: 526359 554368 516415 646118 572455
0110010011100000100001000: 526359 554368 516415 646118 500175
0110010011100000100001000: 526359 554368 516415 646118 480446
0110010011100000100001000: 526359 554368 516415 646118 480258
0110010010100010100000100: 526359 554368 516415 646118 480518
0110010011100000100001000: 526359 554368 516415 598076 572455
0110010011100000100001000: 526359 554368 516415 598076 500175
0110010011100000100001000: 526359 554368 516415 598076 480446
0110010011100000100001000: 526359 554368 516415 598076 480258
0110010011100000100001000: 526359 554368 516415 598076 646118
0110010010100010100000100: 526359 554368 516415 598076 480518
0110010010100010100000100: 516415 526359 480518 554368 486360
0110010010100010100000100: 480518 486360 516415 609597 526359
0110010010100010100000100: 482369 646118 572455 499755 510968
0110010010100010100000100: 605758 598076 510968 494361 572455
0110010011100000100001000: 605758 598076 510968 554368 494361
