Vertex,0101101001011010,0110101111000100,0100101001010010,0111101011001000,0111100110001100,0110101011010010,0111100010001000,0110100110000100,0111100010011010,0101101001001000,0110100110010110,0110100010010010
657294,0.0,0.0,0.0,0.0,0.0,0.0,15.0,38.0,0.0,6.0,0.0,17.0
561428,0.0,0.0,5.0,0.0,0.0,0.0,39.0,100.0,0.0,11.0,0.0,43.0
463372,0.0,0.0,0.0,0.0,0.0,0.0,0.0,14.0,0.0,4.0,0.0,10.0
548140,6.0,6.0,4.0,19.0,10.0,2.0,39.0,102.0,10.0,11.0,37.0,44.0
615663,0.0,0.0,3.0,0.0,0.0,0.0,15.0,58.0,0.0,6.0,0.0,23.0
626893,0.0,0.0,6.0,0.0,0.0,0.0,0.0,44.0,0.0,4.0,0.0,20.0
565004,6.0,18.0,0.0,58.0,26.0,6.0,24.0,63.0,14.0,2.0,37.0,19.0
626898,6.0,6.0,4.0,19.0,8.0,2.0,24.0,49.0,2.0,7.0,37.0,22.0
528342,0.0,0.0,6.0,0.0,0.0,0.0,0.0,44.0,0.0,4.0,0.0,24.0
573112,6.0,18.0,4.0,58.0,26.0,6.0,0.0,41.0,14.0,9.0,37.0,25.0
611853,0.0,18.0,5.0,58.0,26.0,6.0,0.0,68.0,14.0,8.0,0.0,33.0
543694,0.0,6.0,3.0,20.0,8.0,2.0,0.0,51.0,2.0,4.0,0.0,24.0
graph,6.0,18.0,10.0,58.0,26.0,6.0,39.0,168.0,14.0,19.0,37.0,76.0
