Vertex,0111100010011010,0110101011010010,0100101101000100,0111101011001000,0111101111001100,0110101111010110,0101101101001100,0111101011011010,0101101101011110,0111101111011110,0110100010010010,0101101001001000,0100101101010110,0100101001010010,0111100010001000,0111100110001100,0110101111000100,0110100110010110,0111100110011110,0101101001011010,0110100110000100
586765,16.0,16.0,2.0,80.0,0.0,0.0,0.0,0.0,0.0,0.0,94.0,58.0,0.0,6.0,311.0,16.0,32.0,103.0,0.0,40.0,203.0
584816,0.0,0.0,6.0,0.0,0.0,0.0,0.0,0.0,0.0,0.0,65.0,40.0,0.0,2.0,53.0,0.0,0.0,68.0,0.0,26.0,140.0
520585,0.0,0.0,6.0,0.0,0.0,0.0,0.0,0.0,0.0,0.0,65.0,40.0,0.0,2.0,53.0,0.0,0.0,68.0,0.0,26.0,140.0
585852,16.0,16.0,6.0,80.0,0.0,0.0,0.0,0.0,0.0,0.0,142.0,82.0,0.0,16.0,349.0,16.0,32.0,103.0,0.0,40.0,297.0
561428,152.0,213.0,12.0,807.0,126.0,98.0,38.0,104.0,6.0,155.0,383.0,224.0,2.0,37.0,906.0,204.0,353.0,140.0,5.0,59.0,778.0
500622,60.0,105.0,8.0,348.0,108.0,81.0,22.0,86.0,5.0,0.0,174.0,88.0,0.0,32.0,284.0,93.0,159.0,35.0,3.0,15.0,318.0
538700,38.0,54.0,6.0,208.0,72.0,61.0,8.0,63.0,4.0,0.0,131.0,71.0,0.0,24.0,253.0,50.0,90.0,70.0,4.0,31.0,255.0
532937,54.0,63.0,0.0,282.0,18.0,10.0,6.0,12.0,0.0,155.0,50.0,32.0,0.0,4.0,232.0,63.0,117.0,0.0,0.0,0.0,112.0
520084,54.0,63.0,0.0,282.0,18.0,10.0,6.0,12.0,0.0,155.0,50.0,32.0,0.0,4.0,232.0,63.0,117.0,0.0,0.0,0.0,112.0
590050,18.0,21.0,0.0,100.0,0.0,0.0,2.0,0.0,0.0,0.0,93.0,52.0,0.0,21.0,296.0,24.0,41.0,35.0,0.0,15.0,184.0
622940,30.0,33.0,0.0,161.0,18.0,17.0,2.0,18.0,1.0,0.0,82.0,46.0,0.0,9.0,240.0,36.0,65.0,0.0,2.0,0.0,170.0
507532,44.0,50.0,2.0,235.0,36.0,34.0,4.0,34.0,2.0,0.0,67.0,35.0,0.0,16.0,199.0,53.0,96.0,0.0,3.0,0.0,129.0
463962,28.0,41.0,4.0,154.0,36.0,27.0,6.0,29.0,2.0,0.0,123.0,66.0,0.0,20.0,286.0,37.0,67.0,0.0,1.0,0.0,241.0
564950,92.0,127.0,10.0,485.0,72.0,54.0,26.0,58.0,4.0,155.0,210.0,117.0,2.0,31.0,323.0,129.0,213.0,105.0,2.0,46.0,407.0
558479,0.0,0.0,4.0,0.0,0.0,0.0,0.0,0.0,0.0,0.0,79.0,38.0,0.0,22.0,38.0,0.0,0.0,0.0,0.0,0.0,143.0
545536,6.0,22.0,4.0,49.0,0.0,0.0,8.0,0.0,0.0,0.0,86.0,44.0,0.0,18.0,38.0,18.0,26.0,0.0,0.0,0.0,164.0
497141,14.0,36.0,6.0,95.0,0.0,0.0,12.0,0.0,0.0,0.0,82.0,51.0,0.0,11.0,109.0,32.0,48.0,70.0,0.0,31.0,176.0
579597,30.0,37.0,2.0,142.0,0.0,0.0,10.0,0.0,0.0,0.0,98.0,52.0,2.0,23.0,55.0,43.0,63.0,35.0,0.0,15.0,184.0
606689,2.0,5.0,0.0,21.0,0.0,0.0,2.0,0.0,0.0,0.0,35.0,18.0,0.0,3.0,0.0,8.0,9.0,0.0,0.0,0.0,72.0
488472,2.0,12.0,0.0,20.0,0.0,0.0,4.0,0.0,0.0,0.0,78.0,32.0,0.0,22.0,0.0,8.0,12.0,0.0,0.0,0.0,122.0
584375,30.0,37.0,2.0,142.0,0.0,0.0,10.0,0.0,0.0,0.0,85.0,40.0,2.0,19.0,55.0,43.0,63.0,0.0,0.0,0.0,152.0
478446,2.0,5.0,0.0,21.0,0.0,0.0,2.0,0.0,0.0,0.0,56.0,18.0,0.0,22.0,0.0,8.0,9.0,0.0,0.0,0.0,81.0
graph,172.0,239.0,20.0,928.0,126.0,98.0,42.0,104.0,6.0,155.0,582.0,319.0,2.0,91.0,1078.0,236.0,403.0,208.0,5.0,86.0,1145.0
