Vertex,0110101111010110,0101101101001100,0101101001001000,0110101111000100,0110100110000100,0110100010010010,0101101101011110,0110100110010110,0101101001011010,0111100010001000,0110101011010010,0100101001010010,0111100010011010,0100101101000100,0100101101010110,0111100110001100,0111101011011010,0111100110011110,0111101011001000,0111101111001100
623017,88.0,16.0,119.0,154.0,471.0,248.0,9.0,72.0,20.0,360.0,86.0,44.0,78.0,6.0,2.0,112.0,100.0,9.0,365.0,108.0
652017,68.0,14.0,81.0,124.0,291.0,143.0,8.0,37.0,10.0,277.0,75.0,20.0,63.0,4.0,2.0,75.0,70.0,6.0,281.0,72.0
463546,17.0,8.0,42.0,45.0,171.0,74.0,3.0,0.0,0.0,53.0,30.0,6.0,27.0,4.0,2.0,33.0,17.0,2.0,97.0,18.0
538376,0.0,4.0,52.0,25.0,220.0,119.0,0.0,0.0,0.0,130.0,14.0,40.0,8.0,8.0,0.0,20.0,0.0,0.0,58.0,0.0
641869,74.0,30.0,108.0,213.0,446.0,241.0,5.0,107.0,37.0,335.0,135.0,44.0,88.0,8.0,0.0,148.0,90.0,6.0,479.0,108.0
496804,17.0,10.0,68.0,67.0,278.0,121.0,3.0,70.0,21.0,120.0,41.0,12.0,29.0,8.0,0.0,57.0,17.0,2.0,152.0,18.0
570191,115.0,38.0,372.0,263.0,1375.0,680.0,11.0,245.0,84.0,1255.0,169.0,77.0,96.0,24.0,0.0,162.0,129.0,10.0,579.0,144.0
542210,61.0,22.0,141.0,128.0,507.0,291.0,5.0,107.0,37.0,409.0,89.0,72.0,50.0,14.0,2.0,81.0,66.0,4.0,273.0,72.0
632094,0.0,6.0,107.0,19.0,469.0,276.0,0.0,35.0,11.0,229.0,17.0,84.0,4.0,18.0,0.0,13.0,0.0,0.0,34.0,0.0
562471,0.0,4.0,82.0,32.0,386.0,164.0,0.0,70.0,21.0,390.0,22.0,17.0,19.0,2.0,0.0,20.0,0.0,0.0,70.0,0.0
570405,20.0,8.0,76.0,67.0,300.0,145.0,0.0,0.0,0.0,326.0,42.0,18.0,26.0,0.0,0.0,41.0,27.0,1.0,150.0,36.0
645686,0.0,6.0,55.0,28.0,208.0,97.0,0.0,35.0,16.0,84.0,17.0,13.0,8.0,4.0,0.0,23.0,0.0,0.0,61.0,0.0
614279,0.0,0.0,84.0,20.0,336.0,162.0,0.0,70.0,27.0,379.0,10.0,21.0,10.0,4.0,0.0,10.0,0.0,0.0,50.0,0.0
516768,0.0,0.0,59.0,20.0,230.0,108.0,0.0,35.0,9.0,344.0,10.0,21.0,10.0,0.0,0.0,10.0,0.0,0.0,50.0,0.0
493756,0.0,0.0,98.0,20.0,327.0,169.0,0.0,35.0,16.0,335.0,10.0,25.0,10.0,2.0,0.0,10.0,0.0,0.0,50.0,0.0
571085,0.0,0.0,117.0,20.0,514.0,272.0,0.0,70.0,22.0,496.0,10.0,44.0,10.0,12.0,0.0,10.0,0.0,0.0,50.0,0.0
518134,0.0,0.0,74.0,20.0,387.0,157.0,0.0,35.0,9.0,414.0,10.0,15.0,10.0,2.0,0.0,10.0,0.0,0.0,50.0,0.0
543981,0.0,6.0,62.0,19.0,223.0,116.0,0.0,35.0,16.0,77.0,17.0,19.0,4.0,8.0,0.0,13.0,0.0,0.0,35.0,0.0
553958,0.0,0.0,23.0,0.0,262.0,114.0,0.0,0.0,0.0,159.0,0.0,43.0,0.0,6.0,0.0,0.0,0.0,0.0,0.0,0.0
619895,0.0,0.0,29.0,0.0,276.0,107.0,0.0,0.0,0.0,129.0,0.0,24.0,0.0,4.0,0.0,0.0,0.0,0.0,0.0,0.0
557772,0.0,0.0,52.0,0.0,309.0,143.0,0.0,35.0,11.0,148.0,0.0,28.0,0.0,8.0,0.0,0.0,0.0,0.0,0.0,0.0
584502,0.0,0.0,42.0,0.0,247.0,108.0,0.0,35.0,9.0,83.0,0.0,26.0,0.0,2.0,0.0,0.0,0.0,0.0,0.0,0.0
618870,0.0,0.0,36.0,0.0,145.0,72.0,0.0,0.0,0.0,39.0,0.0,15.0,0.0,2.0,0.0,0.0,0.0,0.0,0.0,0.0
483851,0.0,0.0,34.0,0.0,154.0,85.0,0.0,0.0,0.0,54.0,0.0,21.0,0.0,4.0,0.0,0.0,0.0,0.0,0.0,0.0
540783,0.0,4.0,36.0,12.0,136.0,86.0,0.0,0.0,0.0,0.0,12.0,18.0,2.0,0.0,0.0,8.0,0.0,0.0,20.0,0.0
530450,0.0,0.0,32.0,0.0,290.0,119.0,0.0,0.0,0.0,140.0,0.0,29.0,0.0,6.0,0.0,0.0,0.0,0.0,0.0,0.0
584639,0.0,0.0,15.0,0.0,174.0,67.0,0.0,0.0,0.0,83.0,0.0,24.0,0.0,0.0,0.0,0.0,0.0,0.0,0.0,0.0
graph,115.0,44.0,524.0,324.0,2283.0,1121.0,11.0,282.0,94.0,1712.0,204.0,205.0,138.0,40.0,2.0,214.0,129.0,10.0,726.0,144.0
