Vertex,0111010101110001000101010,0110010011100000100001000,0111110110110011100010100,0111110000100001000010000,0111110111110101110011000,0111110110110001100010000,0111010100110001000100010,0110010011100110110001100,0111110100110001000110010,0110010010100010100100110,0111110111110001100011000,0111110110110011100110110,0110010011100100110001000,0111010110110011100100110,0111010110110011100000100,0111110110110101110010000,0111010101110001000001000,0111110100110001000010000,0110010010100010100000100
554368,19.0,705.0,24.0,420.0,5.0,153.0,107.0,2.0,24.0,6.0,17.0,1.0,98.0,3.0,51.0,9.0,145.0,368.0,102.0
567121,3.0,196.0,9.0,108.0,0.0,43.0,32.0,0.0,8.0,0.0,1.0,1.0,15.0,0.0,7.0,1.0,46.0,125.0,53.0
457395,13.0,255.0,11.0,103.0,1.0,62.0,32.0,0.0,10.0,6.0,10.0,1.0,47.0,2.0,20.0,0.0,69.0,113.0,110.0
528834,3.0,268.0,4.0,162.0,1.0,36.0,21.0,0.0,2.0,1.0,9.0,0.0,35.0,0.0,17.0,0.0,26.0,83.0,77.0
537989,0.0,56.0,0.0,0.0,0.0,1.0,8.0,0.0,0.0,0.0,0.0,0.0,1.0,0.0,3.0,0.0,21.0,0.0,25.0
631740,0.0,133.0,1.0,133.0,0.0,31.0,15.0,0.0,10.0,0.0,0.0,0.0,9.0,0.0,2.0,1.0,18.0,110.0,8.0
497796,3.0,210.0,4.0,163.0,1.0,36.0,14.0,1.0,2.0,3.0,9.0,0.0,39.0,1.0,11.0,0.0,19.0,82.0,48.0
537099,1.0,112.0,4.0,96.0,0.0,37.0,28.0,0.0,18.0,0.0,0.0,0.0,8.0,0.0,1.0,1.0,30.0,131.0,18.0
562192,5.0,153.0,10.0,108.0,1.0,47.0,37.0,0.0,12.0,0.0,0.0,0.0,15.0,1.0,11.0,0.0,30.0,112.0,49.0
640464,9.0,157.0,13.0,94.0,5.0,45.0,45.0,0.0,9.0,0.0,6.0,0.0,20.0,2.0,17.0,9.0,61.0,124.0,63.0
547643,8.0,212.0,5.0,128.0,5.0,37.0,36.0,2.0,7.0,3.0,6.0,0.0,49.0,1.0,13.0,9.0,68.0,108.0,80.0
472078,6.0,279.0,0.0,170.0,0.0,23.0,35.0,2.0,0.0,2.0,0.0,0.0,59.0,0.0,1.0,1.0,13.0,94.0,73.0
477202,3.0,199.0,0.0,168.0,0.0,23.0,10.0,0.0,0.0,3.0,0.0,0.0,19.0,0.0,1.0,1.0,16.0,94.0,34.0
550435,0.0,167.0,7.0,130.0,1.0,47.0,20.0,0.0,6.0,0.0,9.0,1.0,19.0,0.0,12.0,0.0,21.0,96.0,33.0
463113,9.0,155.0,3.0,4.0,0.0,3.0,17.0,0.0,1.0,0.0,0.0,0.0,24.0,2.0,17.0,1.0,56.0,3.0,69.0
518527,3.0,171.0,0.0,5.0,0.0,3.0,23.0,0.0,0.0,8.0,0.0,0.0,20.0,0.0,6.0,0.0,23.0,3.0,106.0
609828,5.0,196.0,6.0,140.0,0.0,32.0,19.0,0.0,4.0,1.0,1.0,0.0,18.0,0.0,4.0,1.0,38.0,111.0,43.0
560403,10.0,173.0,19.0,39.0,5.0,106.0,47.0,0.0,12.0,3.0,17.0,1.0,21.0,2.0,36.0,9.0,64.0,110.0,105.0
616766,2.0,127.0,0.0,0.0,0.0,0.0,16.0,0.0,0.0,1.0,0.0,0.0,12.0,0.0,7.0,0.0,17.0,1.0,51.0
654771,1.0,156.0,0.0,1.0,0.0,0.0,20.0,0.0,0.0,0.0,0.0,0.0,19.0,0.0,5.0,0.0,6.0,1.0,48.0
651234,5.0,198.0,0.0,2.0,0.0,0.0,30.0,2.0,0.0,8.0,0.0,0.0,48.0,1.0,8.0,1.0,26.0,3.0,129.0
655256,2.0,147.0,0.0,1.0,0.0,0.0,18.0,1.0,0.0,0.0,0.0,0.0,20.0,0.0,5.0,1.0,22.0,3.0,41.0
graph,22.0,885.0,24.0,435.0,5.0,153.0,126.0,2.0,25.0,9.0,17.0,1.0,123.0,3.0,51.0,9.0,167.0,375.0,273.0
