0111100010001000: 578911 489233 531093 642089
0101101001001000: 578911 489233 556584 642089
0101101001001000: 578911 489233 556584 531093
0110100010010010: 578911 642089 531093 637727
0110100010010010: 578911 642089 531093 522808
0111100010001000: 578911 642089 489233 531093
0110100010010010: 578911 642089 489233 556584
0110100010010010: 578911 642089 489233 556584
0110100110000100: 578911 531093 642089 637727
0110100110000100: 578911 531093 642089 522808
0111100010001000: 578911 531093 489233 642089
0110100110000100: 578911 531093 489233 637727
0110100110000100: 578911 531093 489233 522808
0110100010010010: 578911 531093 489233 556584
0110100010010010: 578911 531093 489233 556584
0111100010001000: 578911 531093 642089 489233
0110100110000100: 578911 531093 642089 637727
0110100110000100: 578911 531093 642089 522808
0110100110000100: 578911 531093 642089 637727
0110100110000100: 578911 531093 642089 522808
0110100110000100: 578911 531093 489233 637727
0110100110000100: 578911 531093 489233 522808
0110100110000100: 578911 531093 489233 637727
0110100110000100: 578911 531093 489233 522808
0110100010010010: 578911 531093 489233 556584
0111100010001000: 578911 531093 642089 489233
0111100010001000: 578911 531093 642089 489233
0111100010001000: 578911 531093 489233 642089
0111100010001000: 578911 531093 489233 642089
0110100010010010: 578911 531093 489233 556584
0110100110000100: 578911 531093 642089 637727
0110100110000100: 578911 531093 642089 522808
0110100110000100: 578911 531093 642089 637727
0110100110000100: 578911 531093 642089 522808
0111100010001000: 578911 531093 642089 489233
0110100110000100: 578911 531093 489233 637727
0110100110000100: 578911 531093 489233 522808
0110100110000100: 578911 531093 489233 637727
0110100110000100: 578911 531093 489233 522808
0111100010001000: 578911 531093 489233 642089
0111100010001000: 578911 531093 489233 642089
0110100010010010: 578911 531093 489233 556584
0110100010010010: 578911 531093 489233 556584
0110100110000100: 578911 489233 642089 556584
0111100010001000: 578911 489233 531093 642089
0110100110000100: 578911 489233 531093 556584
0110100010010010: 578911 489233 531093 637727
0110100010010010: 578911 489233 531093 522808
0111100010001000: 578911 489233 642089 531093
0110100110000100: 578911 489233 642089 556584
0110100110000100: 578911 489233 642089 556584
0110100110000100: 578911 489233 642089 556584
0111100010001000: 578911 489233 531093 642089
0111100010001000: 578911 489233 531093 642089
0110100110000100: 578911 489233 531093 556584
0110100110000100: 578911 489233 531093 556584
0110100110000100: 578911 489233 531093 556584
0101101001001000: 578911 489233 556584 642089
0101101001001000: 578911 489233 556584 531093
0100101001010010: 578911 489233 556584 522808
0100101001010010: 578911 489233 556584 522808
0100101001010010: 578911 489233 556584 522808
0110100110000100: 489233 556584 578911 522808
0110100010010010: 489233 556584 578911 642089
0110100010010010: 489233 556584 578911 531093
0110100110000100: 489233 556584 578911 522808
0110100110000100: 489233 556584 578911 522808
0110100110000100: 489233 556584 578911 522808
0110100110000100: 489233 556584 578911 522808
0110100110000100: 489233 556584 578911 522808
0110100010010010: 489233 578911 556584 522808
0110100110000100: 489233 578911 556584 642089
0110100110000100: 489233 578911 556584 531093
0110100010010010: 489233 578911 556584 522808
0110100110000100: 489233 578911 556584 642089
0110100110000100: 489233 578911 556584 531093
0110100110000100: 489233 578911 556584 642089
0110100110000100: 489233 578911 556584 531093
0110100010010010: 489233 578911 556584 522808
0110100110000100: 556584 522808 489233 637727
0110100110000100: 556584 522808 489233 531093
0110100010010010: 556584 522808 489233 578911
0110100110000100: 556584 522808 489233 637727
0110100110000100: 556584 522808 489233 531093
0110100110000100: 556584 522808 489233 637727
0110100110000100: 556584 522808 489233 531093
0110100010010010: 556584 522808 489233 578911
0110100110000100: 556584 522808 489233 637727
0110100110000100: 556584 522808 489233 531093
0110100110000100: 556584 522808 489233 637727
0110100110000100: 556584 522808 489233 531093
0110100010010010: 556584 522808 489233 578911
0110100010010010: 556584 489233 522808 637727
0110100010010010: 556584 489233 522808 531093
0110100110000100: 556584 489233 522808 578911
0110100110000100: 556584 489233 522808 578911
0110100110000100: 556584 489233 522808 578911
0110100110000100: 556584 489233 522808 578911
0111101011001000: 531093 637727 522808 578911
0111101011001000: 531093 522808 637727 578911
0110100110000100: 531093 637727 578911 459923
0110100010010010: 531093 637727 578911 642089
0110100010010010: 531093 637727 578911 489233
0110100110000100: 531093 637727 578911 459923
0110100110000100: 531093 637727 578911 459923
0111100110001100: 531093 637727 578911 522808
0111101011001000: 531093 637727 522808 578911
0110101011010010: 531093 637727 522808 556584
0110101011010010: 531093 637727 522808 556584
0111101011001000: 531093 637727 522808 578911
0111101011001000: 531093 637727 522808 578911
0111101011001000: 531093 637727 522808 578911
0110101111000100: 531093 637727 522808 459923
0110101111000100: 531093 637727 522808 459923
0111101011001000: 531093 637727 522808 578911
0110101111000100: 531093 637727 522808 459923
0111101011001000: 531093 637727 522808 578911
0110100110000100: 531093 637727 578911 459923
0110100110000100: 531093 637727 578911 459923
0111100110001100: 531093 637727 578911 522808
0111100110001100: 531093 637727 578911 522808
0111100110001100: 531093 637727 578911 522808
0110100110000100: 531093 637727 578911 459923
0111100110001100: 531093 637727 578911 522808
0111101011001000: 531093 637727 522808 578911
0110100110000100: 531093 522808 578911 556584
0110100010010010: 531093 522808 578911 642089
0110100010010010: 531093 522808 578911 489233
0110100110000100: 531093 522808 578911 556584
0110100110000100: 531093 522808 578911 556584
0111100110001100: 531093 522808 578911 637727
0111101011001000: 531093 522808 637727 578911
0110101011010010: 531093 522808 637727 459923
0110101011010010: 531093 522808 637727 459923
0111101011001000: 531093 522808 637727 578911
0111101011001000: 531093 522808 637727 578911
0111101011001000: 531093 522808 637727 578911
0110101111000100: 531093 522808 637727 556584
0110101111000100: 531093 522808 637727 556584
0111101011001000: 531093 522808 637727 578911
0110101111000100: 531093 522808 637727 556584
0111101011001000: 531093 522808 637727 578911
0110100110000100: 531093 522808 578911 556584
0110100110000100: 531093 522808 578911 556584
0111100110001100: 531093 522808 578911 637727
0111100110001100: 531093 522808 578911 637727
0111100110001100: 531093 522808 578911 637727
0110100110000100: 531093 522808 578911 556584
0111100110001100: 531093 522808 578911 637727
0111101011001000: 531093 522808 637727 578911
0111101011001000: 531093 522808 637727 578911
0111101011001000: 531093 522808 637727 578911
0111101011001000: 531093 522808 637727 578911
0110100010010010: 531093 578911 637727 459923
0111100010011010: 531093 578911 637727 522808
0110100010010010: 531093 578911 522808 556584
0111100010011010: 531093 578911 522808 637727
0110100110000100: 531093 578911 637727 642089
0110100110000100: 531093 578911 637727 489233
0110100110000100: 531093 578911 522808 642089
0110100110000100: 531093 578911 522808 489233
0111100010011010: 531093 578911 637727 522808
0111100010011010: 531093 578911 637727 522808
0111100010011010: 531093 578911 637727 522808
0111100010011010: 531093 578911 522808 637727
0111100010011010: 531093 578911 522808 637727
0111100010011010: 531093 578911 522808 637727
0110100110000100: 531093 578911 637727 642089
0110100110000100: 531093 578911 637727 489233
0110100110000100: 531093 578911 637727 642089
0110100110000100: 531093 578911 637727 489233
0110100110000100: 531093 578911 637727 642089
0110100110000100: 531093 578911 637727 489233
0111100010011010: 531093 578911 637727 522808
0110100110000100: 531093 578911 522808 642089
0110100110000100: 531093 578911 522808 489233
0110100110000100: 531093 578911 522808 642089
0110100110000100: 531093 578911 522808 489233
0110100110000100: 531093 578911 522808 642089
0110100110000100: 531093 578911 522808 489233
0111100010011010: 531093 578911 522808 637727
0111101011001000: 522808 637727 531093 556584
0111101011001000: 522808 531093 637727 556584
0101101001001000: 522808 556584 489233 637727
0101101001001000: 522808 556584 489233 531093
0110100110000100: 522808 637727 556584 459923
0110100010010010: 522808 637727 556584 489233
0110100010010010: 522808 637727 556584 489233
0110100110000100: 522808 637727 556584 459923
0110100110000100: 522808 637727 556584 459923
0111100110001100: 522808 637727 556584 531093
0110100010010010: 522808 637727 556584 489233
0111101011001000: 522808 637727 531093 556584
0110101011010010: 522808 637727 531093 578911
0110101011010010: 522808 637727 531093 578911
0111101011001000: 522808 637727 531093 556584
0110100010010010: 522808 637727 556584 489233
0111101011001000: 522808 637727 531093 556584
0111101011001000: 522808 637727 531093 556584
0110101111000100: 522808 637727 531093 459923
0110101111000100: 522808 637727 531093 459923
0111101011001000: 522808 637727 531093 556584
0110101111000100: 522808 637727 531093 459923
0111101011001000: 522808 637727 531093 556584
0110100110000100: 522808 637727 556584 459923
0110100110000100: 522808 637727 556584 459923
0111100110001100: 522808 637727 556584 531093
0111100110001100: 522808 637727 556584 531093
0111100110001100: 522808 637727 556584 531093
0110100010010010: 522808 637727 556584 489233
0110100010010010: 522808 637727 556584 489233
0111101011001000: 522808 637727 531093 556584
0110100010010010: 522808 531093 556584 489233
0110100010010010: 522808 531093 556584 489233
0110100110000100: 522808 531093 556584 578911
0111100110001100: 522808 531093 556584 637727
0110100010010010: 522808 531093 556584 489233
0111101011001000: 522808 531093 637727 556584
0111101011001000: 522808 531093 637727 556584
0110100010010010: 522808 531093 556584 489233
0111101011001000: 522808 531093 637727 556584
0111101011001000: 522808 531093 637727 556584
0110101111000100: 522808 531093 637727 578911
0110101111000100: 522808 531093 637727 578911
0111101011001000: 522808 531093 637727 556584
0110101111000100: 522808 531093 637727 578911
0111101011001000: 522808 531093 637727 556584
0110100110000100: 522808 531093 556584 578911
0110100110000100: 522808 531093 556584 578911
0111100110001100: 522808 531093 556584 637727
0111100110001100: 522808 531093 556584 637727
0111100110001100: 522808 531093 556584 637727
0110100010010010: 522808 531093 556584 489233
0110100010010010: 522808 531093 556584 489233
0111101011001000: 522808 531093 637727 556584
0111101011001000: 522808 531093 637727 556584
0111101011001000: 522808 531093 637727 556584
0111101011001000: 522808 531093 637727 556584
0110100010010010: 522808 556584 637727 459923
0111100010011010: 522808 556584 637727 531093
0110100010010010: 522808 556584 531093 578911
0111100010011010: 522808 556584 531093 637727
0110100110000100: 522808 556584 637727 489233
0110100110000100: 522808 556584 637727 489233
0110100110000100: 522808 556584 531093 489233
0110100110000100: 522808 556584 531093 489233
0101101001001000: 522808 556584 489233 637727
0101101001001000: 522808 556584 489233 531093
0100101001010010: 522808 556584 489233 578911
0100101001010010: 522808 556584 489233 578911
0100101001010010: 522808 556584 489233 578911
0101101001001000: 637727 459923 520790 522808
0101101001001000: 637727 459923 520790 531093
0111101011001000: 637727 522808 531093 459923
0111101011001000: 637727 531093 522808 459923
0110100110000100: 637727 459923 522808 520790
0110100010010010: 637727 459923 522808 556584
0111100010011010: 637727 459923 522808 531093
0110100110000100: 637727 459923 531093 520790
0110100010010010: 637727 459923 531093 578911
0111100010011010: 637727 459923 531093 522808
0110100110000100: 637727 459923 522808 520790
0110100110000100: 637727 459923 522808 520790
0110100110000100: 637727 459923 522808 520790
0110100110000100: 637727 459923 531093 520790
0110100110000100: 637727 459923 531093 520790
0110100110000100: 637727 459923 531093 520790
0101101001001000: 637727 459923 520790 522808
0101101001001000: 637727 459923 520790 531093
0100101001010010: 637727 459923 520790 633993
0100101001010010: 637727 459923 520790 633993
0100101001010010: 637727 459923 520790 633993
0110100010010010: 637727 522808 459923 520790
0110100010010010: 637727 522808 459923 520790
0110100110000100: 637727 522808 459923 556584
0111100110001100: 637727 522808 459923 531093
0110100010010010: 637727 522808 459923 520790
0111101011001000: 637727 522808 531093 459923
0111101011001000: 637727 522808 531093 459923
0111101011001000: 637727 522808 531093 459923
0110100010010010: 637727 522808 459923 520790
0111101011001000: 637727 522808 531093 459923
0111101011001000: 637727 522808 531093 459923
0110101111000100: 637727 522808 531093 556584
0110101111000100: 637727 522808 531093 556584
0111101011001000: 637727 522808 531093 459923
0110101111000100: 637727 522808 531093 556584
0111101011001000: 637727 522808 531093 459923
0110100110000100: 637727 522808 459923 556584
0110100110000100: 637727 522808 459923 556584
0111100110001100: 637727 522808 459923 531093
0111100110001100: 637727 522808 459923 531093
0111100110001100: 637727 522808 459923 531093
0110100010010010: 637727 522808 459923 520790
0110100010010010: 637727 522808 459923 520790
0111101011001000: 637727 522808 531093 459923
0110100010010010: 637727 531093 459923 520790
0110100010010010: 637727 531093 459923 520790
0110100110000100: 637727 531093 459923 578911
0111100110001100: 637727 531093 459923 522808
0110100010010010: 637727 531093 459923 520790
0111101011001000: 637727 531093 522808 459923
0111101011001000: 637727 531093 522808 459923
0111101011001000: 637727 531093 522808 459923
0110100010010010: 637727 531093 459923 520790
0111101011001000: 637727 531093 522808 459923
0111101011001000: 637727 531093 522808 459923
0110101111000100: 637727 531093 522808 578911
0110101111000100: 637727 531093 522808 578911
0111101011001000: 637727 531093 522808 459923
0110101111000100: 637727 531093 522808 578911
0111101011001000: 637727 531093 522808 459923
0110100110000100: 637727 531093 459923 578911
0110100110000100: 637727 531093 459923 578911
0111100110001100: 637727 531093 459923 522808
0111100110001100: 637727 531093 459923 522808
0111100110001100: 637727 531093 459923 522808
0110100010010010: 637727 531093 459923 520790
0110100010010010: 637727 531093 459923 520790
0111101011001000: 637727 531093 522808 459923
0111101011001000: 637727 531093 522808 459923
0111101011001000: 637727 531093 522808 459923
0111101011001000: 637727 531093 522808 459923
0110100110000100: 562201 633993 544102 520790
0110100110000100: 562201 633993 544102 520790
0110100110000100: 562201 633993 544102 520790
0110100110000100: 562201 633993 544102 520790
0110100110000100: 562201 633993 544102 520790
0110100010010010: 562201 544102 633993 520790
0110100110000100: 633993 520790 562201 459923
0110100010010010: 633993 520790 562201 544102
0110100110000100: 633993 520790 562201 459923
0110100110000100: 633993 520790 562201 459923
0110100110000100: 633993 520790 562201 459923
0110100110000100: 633993 520790 562201 459923
0110100110000100: 633993 520790 562201 459923
0110100010010010: 633993 562201 520790 459923
0110100110000100: 633993 562201 520790 544102
0110100110000100: 633993 562201 520790 544102
0110100110000100: 633993 562201 520790 544102
0110100110000100: 633993 562201 520790 544102
0110100110000100: 459923 520790 637727 633993
0110100010010010: 459923 520790 637727 522808
0110100010010010: 459923 520790 637727 531093
0110100110000100: 459923 520790 637727 633993
0110100110000100: 459923 520790 637727 633993
0110100110000100: 459923 520790 637727 633993
0110100110000100: 459923 520790 637727 633993
0110100110000100: 459923 520790 637727 633993
0110100010010010: 459923 637727 520790 633993
0110100110000100: 459923 637727 520790 522808
0110100110000100: 459923 637727 520790 531093
0110100010010010: 459923 637727 520790 633993
0110100110000100: 459923 637727 520790 522808
0110100110000100: 459923 637727 520790 531093
0110100110000100: 459923 637727 520790 522808
0110100110000100: 459923 637727 520790 531093
0110100010010010: 459923 637727 520790 633993
0110100010010010: 520790 459923 633993 562201
0110100110000100: 520790 459923 633993 637727
0110100110000100: 520790 459923 633993 637727
0110100110000100: 520790 459923 633993 637727
0110100110000100: 520790 459923 633993 637727
0110100010010010: 520790 633993 459923 637727
0110100110000100: 520790 633993 459923 562201
0110100110000100: 520790 633993 459923 562201
0110100110000100: 520790 633993 459923 562201
0110100110000100: 520790 633993 459923 562201
