Vertex,0110010010100010100100110,0111010100110001000100010,0111110100110001000010000,0110010010100010100000100,0111010110110011100000100,0111110000100001000010000,0110010011100100110001000,0111010101110001000101010,0111010101110001000001000,0110010011100000100001000,0111110110110001100010000
621391,0.0,0.0,0.0,31.0,0.0,0.0,3.0,2.0,7.0,17.0,1.0
516225,1.0,4.0,4.0,58.0,0.0,5.0,5.0,2.0,3.0,64.0,1.0
496553,0.0,20.0,7.0,51.0,3.0,1.0,4.0,3.0,15.0,34.0,4.0
491227,6.0,23.0,9.0,128.0,3.0,9.0,24.0,4.0,19.0,154.0,4.0
613436,1.0,3.0,1.0,44.0,0.0,0.0,2.0,0.0,6.0,30.0,0.0
656720,3.0,12.0,4.0,76.0,3.0,4.0,2.0,1.0,10.0,67.0,4.0
583536,0.0,11.0,3.0,56.0,3.0,5.0,11.0,2.0,5.0,55.0,4.0
528926,1.0,2.0,1.0,45.0,1.0,0.0,1.0,0.0,4.0,27.0,0.0
551426,2.0,2.0,3.0,50.0,1.0,2.0,3.0,0.0,9.0,45.0,0.0
516354,0.0,5.0,2.0,79.0,1.0,3.0,21.0,2.0,7.0,54.0,0.0
595152,5.0,19.0,11.0,103.0,0.0,9.0,31.0,4.0,22.0,126.0,1.0
629685,5.0,7.0,6.0,93.0,0.0,8.0,19.0,2.0,8.0,109.0,1.0
493005,2.0,4.0,2.0,53.0,0.0,2.0,9.0,0.0,5.0,53.0,0.0
512656,3.0,17.0,7.0,94.0,0.0,4.0,24.0,3.0,18.0,82.0,0.0
624886,0.0,3.0,0.0,35.0,0.0,1.0,8.0,0.0,0.0,17.0,0.0
548035,2.0,4.0,0.0,43.0,0.0,1.0,3.0,0.0,0.0,44.0,0.0
593973,2.0,14.0,7.0,79.0,0.0,2.0,8.0,3.0,18.0,64.0,0.0
633986,0.0,1.0,2.0,45.0,0.0,3.0,10.0,1.0,4.0,36.0,0.0
632984,2.0,4.0,1.0,67.0,0.0,1.0,7.0,1.0,5.0,52.0,0.0
graph,7.0,31.0,14.0,246.0,3.0,12.0,39.0,6.0,33.0,226.0,4.0
