0110010010100010100100110: 550721 542999 621373 531895 477687
0110010010100010100100110: 550721 542999 621373 531895 570191
0110010011100000100001000: 550721 542999 621373 615764 531895
0110010010100010100000100: 550721 542999 621373 615764 477687
0110010010100010100000100: 550721 542999 621373 615764 570191
0110010011100000100001000: 542999 531895 615764 477687 568804
0110010011100000100001000: 542999 531895 550721 477687 568804
0110010010100010100000100: 542999 615764 531895 636205 568804
0110010010100010100000100: 542999 615764 531895 636205 477687
0110010010100010100100110: 542999 615764 531895 636205 570191
0110010010100010100000100: 542999 550721 531895 621373 568804
0110010010100010100000100: 542999 550721 615764 621373 636205
0110010010100010100000100: 615764 542999 636205 531895 649637
0110010011100000100001000: 615764 542999 636205 550721 531895
0110010010100010100000100: 615764 542999 636205 550721 649637
0110010010100010100000100: 615764 542999 636205 550721 570191
0111010101110001000001000: 570191 621373 477687 550575 550721
0111010101110001000001000: 570191 621373 477687 568804 550721
0111010101110001000001000: 570191 621373 477687 649637 550721
0111010101110001000001000: 570191 621373 477687 636205 550721
0111110110110001100010000: 570191 550575 507623 649637 621373
0111110110110001100010000: 570191 550575 507623 649637 568804
0111110110110001100010000: 570191 550575 507623 649637 531895
0111110100110001000010000: 570191 477687 621373 568804 550575
0111110100110001000010000: 570191 477687 621373 649637 568804
0111110100110001000010000: 570191 477687 621373 636205 550575
0111110100110001000010000: 570191 477687 621373 636205 568804
0111010100110001000100010: 570191 477687 621373 636205 615764
0111010110110011100000100: 570191 477687 621373 573107 550721
0111010110110011100000100: 570191 477687 621373 507623 550721
0111010110110011100000100: 570191 477687 621373 531895 550721
0111010110110011100000100: 570191 477687 621373 487123 550721
0111110110110001100010000: 570191 477687 573107 621373 550575
0111110110110001100010000: 570191 477687 573107 621373 568804
0111110110110001100010000: 570191 477687 573107 621373 636205
0111110110110001100010000: 570191 477687 507623 621373 568804
0111110110110001100010000: 570191 477687 507623 621373 649637
0111110110110001100010000: 570191 477687 507623 621373 636205
0111110110110001100010000: 570191 477687 507623 573107 568804
0111110110110001100010000: 570191 477687 507623 573107 636205
0111110111110001100011000: 570191 477687 507623 573107 621373
0111110110110001100010000: 570191 477687 531895 621373 550575
0111110110110001100010000: 570191 477687 531895 621373 649637
0111110110110001100010000: 570191 477687 531895 621373 636205
0111010110110011100000100: 570191 477687 531895 621373 542999
0111110110110001100010000: 570191 477687 531895 573107 550575
0111110110110001100010000: 570191 477687 531895 573107 636205
0111110111110001100011000: 570191 477687 531895 573107 621373
0111010110110011100000100: 570191 477687 531895 573107 542999
0111110110110001100010000: 570191 477687 531895 507623 649637
0111110110110001100010000: 570191 477687 531895 507623 636205
0111110111110001100011000: 570191 477687 531895 507623 621373
0111110111110001100011000: 570191 477687 531895 507623 573107
0111010110110011100000100: 570191 477687 531895 507623 542999
0111010110110011100000100: 570191 477687 531895 487123 542999
0111110110110001100010000: 570191 477687 487123 621373 550575
0111110110110001100010000: 570191 477687 487123 621373 568804
0111110110110001100010000: 570191 477687 487123 621373 649637
0111110110110001100010000: 570191 477687 487123 621373 636205
0111110110110001100010000: 570191 477687 487123 573107 550575
0111110110110001100010000: 570191 477687 487123 573107 568804
0111110110110001100010000: 570191 477687 487123 573107 636205
0111110111110001100011000: 570191 477687 487123 573107 621373
0111110110110001100010000: 570191 477687 487123 531895 550575
0111110110110001100010000: 570191 477687 487123 531895 649637
0111110110110001100010000: 570191 477687 487123 531895 636205
0111110111110001100011000: 570191 477687 487123 531895 621373
0111110111110001100011000: 570191 477687 487123 531895 573107
0111110111110101110011000: 570191 477687 487123 507623 621373
0111110111110101110011000: 570191 477687 487123 507623 573107
0111110111110101110011000: 570191 477687 487123 507623 531895
0111110000100001000010000: 570191 573107 568804 550575 621373
0111110100110001000010000: 570191 573107 477687 568804 550575
0111110100110001000010000: 570191 573107 477687 636205 550575
0111110100110001000010000: 570191 573107 477687 636205 568804
0111010100110001000100010: 570191 573107 477687 636205 615764
0111110110110011100010100: 570191 573107 477687 649637 621373
0111110110110011100010100: 570191 573107 477687 649637 507623
0111110110110011100010100: 570191 573107 477687 649637 531895
0111110110110011100010100: 570191 573107 477687 649637 487123
0111110110110001100010000: 570191 573107 649637 477687 568804
0111010100110001000100010: 570191 649637 550575 621373 550721
0111110100110001000010000: 570191 649637 550575 568804 621373
0111110100110001000010000: 570191 649637 550575 477687 568804
0111110100110001000110010: 570191 649637 550575 477687 621373
0111110100110001000010000: 570191 649637 550575 531895 621373
0111010100110001000100010: 570191 649637 550575 531895 542999
0111110100110001000010000: 570191 649637 550575 487123 621373
0111110100110001000010000: 570191 649637 550575 487123 568804
0111110100110001000010000: 570191 649637 550575 487123 531895
0111110110110011100010100: 570191 649637 550575 573107 507623
0111110110110011100010100: 570191 649637 550575 636205 507623
0111010100110001000100010: 570191 649637 573107 621373 550721
0111110100110001000010000: 570191 649637 573107 568804 621373
0111110100110001000010000: 570191 649637 573107 507623 621373
0111110100110001000010000: 570191 649637 573107 507623 568804
0111110100110001000010000: 570191 649637 573107 531895 621373
0111110100110001000010000: 570191 649637 573107 531895 507623
0111010100110001000100010: 570191 649637 573107 531895 542999
0111110100110001000010000: 570191 649637 573107 487123 621373
0111110100110001000010000: 570191 649637 573107 487123 568804
0111110100110001000010000: 570191 649637 573107 487123 531895
0111110110110001100010000: 570191 649637 573107 550575 621373
0111110110110001100010000: 570191 649637 573107 550575 568804
0111110110110001100010000: 570191 649637 573107 550575 531895
0111110110110001100010000: 570191 649637 573107 550575 487123
0111110110110011100010100: 570191 649637 573107 550575 477687
0111110110110011100010100: 570191 649637 573107 636205 477687
0111110110110001100010000: 570191 649637 636205 550575 621373
0111110110110001100010000: 570191 649637 636205 550575 568804
0111110110110001100010000: 570191 649637 636205 550575 477687
0111110110110001100010000: 570191 649637 636205 550575 531895
0111110110110001100010000: 570191 649637 636205 550575 487123
0111010110110011100000100: 570191 649637 636205 550575 615764
0111110110110001100010000: 570191 649637 636205 573107 621373
0111110110110001100010000: 570191 649637 636205 573107 568804
0111110110110001100010000: 570191 649637 636205 573107 507623
0111110110110001100010000: 570191 649637 636205 573107 531895
0111110110110001100010000: 570191 649637 636205 573107 487123
0111110111110001100011000: 570191 649637 636205 573107 550575
0111010110110011100000100: 570191 649637 636205 573107 615764
0110010010100010100000100: 570191 636205 621373 615764 550721
0111110000100001000010000: 570191 636205 568804 550575 621373
0111110000100001000010000: 570191 636205 477687 568804 550575
0111110000100001000010000: 570191 636205 573107 550575 621373
0111110000100001000010000: 570191 636205 573107 568804 621373
0111110000100001000010000: 570191 636205 573107 568804 550575
0111010101110001000001000: 570191 636205 649637 621373 615764
0111010100110001000100010: 570191 636205 649637 621373 550721
0111110100110001000010000: 570191 636205 649637 568804 621373
0111010101110001000001000: 570191 636205 649637 568804 615764
0111110100110001000010000: 570191 636205 649637 477687 568804
0111010101110001000001000: 570191 636205 649637 477687 615764
0111110100110001000110010: 570191 636205 649637 477687 621373
0111110100110001000010000: 570191 636205 649637 507623 621373
0111110100110001000010000: 570191 636205 649637 507623 568804
0111010101110001000001000: 570191 636205 649637 507623 615764
0111110100110001000010000: 570191 636205 649637 531895 621373
0111110100110001000010000: 570191 636205 649637 531895 507623
0111010101110001000001000: 570191 636205 649637 531895 615764
0111010100110001000100010: 570191 636205 649637 531895 542999
0111110100110001000010000: 570191 636205 649637 487123 621373
0111110100110001000010000: 570191 636205 649637 487123 568804
0111110100110001000010000: 570191 636205 649637 487123 531895
0111010101110001000001000: 570191 636205 649637 487123 615764
0111110000100001000010000: 570191 507623 573107 568804 621373
0111110000100001000010000: 570191 507623 649637 568804 621373
0111110000100001000010000: 570191 507623 636205 568804 621373
0111110000100001000010000: 570191 507623 636205 573107 621373
0111110000100001000010000: 570191 507623 636205 573107 568804
0111010100110001000100010: 570191 507623 550575 621373 550721
0111110100110001000010000: 570191 507623 550575 568804 621373
0111110100110001000010000: 570191 507623 550575 573107 621373
0111110100110001000010000: 570191 507623 550575 573107 568804
0111110100110001000010000: 570191 507623 550575 636205 621373
0111110100110001000010000: 570191 507623 550575 636205 568804
0111110100110001000010000: 570191 507623 550575 636205 573107
0111010100110001000100010: 570191 507623 550575 636205 615764
0111110100110001000010000: 570191 507623 550575 531895 621373
0111110100110001000010000: 570191 507623 550575 531895 573107
0111110100110001000010000: 570191 507623 550575 531895 636205
0111010100110001000100010: 570191 507623 550575 531895 542999
0111110110110011100010100: 570191 507623 550575 477687 649637
0111110110110011100010100: 570191 507623 550575 487123 649637
0111110100110001000010000: 570191 507623 477687 649637 568804
0111110100110001000010000: 570191 507623 477687 636205 568804
0111010100110001000100010: 570191 507623 477687 636205 615764
0111110100110001000110010: 570191 507623 477687 636205 649637
0111110110110001100010000: 570191 507623 477687 550575 568804
0111110110110001100010000: 570191 507623 477687 550575 636205
0111110110110011100010100: 570191 507623 477687 550575 621373
0111110110110011100010100: 570191 507623 477687 550575 573107
0111110110110011100010100: 570191 507623 477687 550575 531895
0111110110110001100010000: 570191 507623 487123 550575 621373
0111110110110001100010000: 570191 507623 487123 550575 568804
0111110110110001100010000: 570191 507623 487123 550575 573107
0111110110110001100010000: 570191 507623 487123 550575 636205
0111110110110001100010000: 570191 507623 487123 550575 531895
0111110111110101110011000: 570191 507623 487123 477687 550575
0111110000100001000010000: 570191 531895 573107 550575 621373
0111110000100001000010000: 570191 531895 636205 550575 621373
0111110000100001000010000: 570191 531895 636205 573107 621373
0111110000100001000010000: 570191 531895 636205 573107 550575
0111110000100001000010000: 570191 531895 507623 573107 621373
0111110000100001000010000: 570191 531895 507623 649637 621373
0111110000100001000010000: 570191 531895 507623 636205 621373
0111110000100001000010000: 570191 531895 507623 636205 573107
0111010101110001000001000: 570191 531895 568804 621373 542999
0111010100110001000100010: 570191 531895 568804 621373 550721
0111110100110001000010000: 570191 531895 568804 550575 621373
0111010101110001000001000: 570191 531895 568804 550575 542999
0111110100110001000010000: 570191 531895 568804 573107 621373
0111110100110001000010000: 570191 531895 568804 573107 550575
0111010101110001000001000: 570191 531895 568804 573107 542999
0111110100110001000010000: 570191 531895 568804 649637 621373
0111010101110001000001000: 570191 531895 568804 649637 542999
0111110100110001000110010: 570191 531895 568804 649637 550575
0111110100110001000110010: 570191 531895 568804 649637 573107
0111110100110001000010000: 570191 531895 568804 636205 621373
0111110100110001000010000: 570191 531895 568804 636205 550575
0111110100110001000010000: 570191 531895 568804 636205 573107
0111010101110001000001000: 570191 531895 568804 636205 542999
0111010100110001000100010: 570191 531895 568804 636205 615764
0111110100110001000110010: 570191 531895 568804 636205 649637
0111110100110001000010000: 570191 531895 568804 507623 621373
0111110100110001000010000: 570191 531895 568804 507623 573107
0111110100110001000010000: 570191 531895 568804 507623 649637
0111110100110001000010000: 570191 531895 568804 507623 636205
0111010101110001000001000: 570191 531895 568804 507623 542999
0111110100110001000110010: 570191 531895 568804 507623 550575
0111110100110001000010000: 570191 531895 568804 487123 621373
0111110100110001000010000: 570191 531895 568804 487123 550575
0111110100110001000010000: 570191 531895 568804 487123 573107
0111110100110001000010000: 570191 531895 568804 487123 649637
0111110100110001000010000: 570191 531895 568804 487123 636205
0111010101110001000001000: 570191 531895 568804 487123 542999
0111010101110001000001000: 570191 531895 477687 550575 542999
0111010101110001000001000: 570191 531895 477687 649637 542999
0111110100110001000110010: 570191 531895 477687 649637 550575
0111110100110001000010000: 570191 531895 477687 636205 550575
0111010101110001000001000: 570191 531895 477687 636205 542999
0111010100110001000100010: 570191 531895 477687 636205 615764
0111110100110001000110010: 570191 531895 477687 636205 649637
0111110110110001100010000: 570191 531895 477687 568804 550575
0111110110110001100010000: 570191 531895 477687 568804 649637
0111110110110001100010000: 570191 531895 477687 568804 636205
0111110110110011100010100: 570191 531895 477687 568804 621373
0111110110110011100010100: 570191 531895 477687 568804 573107
0111110110110011100010100: 570191 531895 477687 568804 507623
0111110110110011100010100: 570191 531895 477687 568804 487123
0111110000100001000010000: 570191 487123 568804 550575 621373
0111110000100001000010000: 570191 487123 573107 550575 621373
0111110000100001000010000: 570191 487123 573107 568804 621373
0111110000100001000010000: 570191 487123 573107 568804 550575
0111110000100001000010000: 570191 487123 649637 568804 621373
0111110000100001000010000: 570191 487123 636205 550575 621373
0111110000100001000010000: 570191 487123 636205 568804 621373
0111110000100001000010000: 570191 487123 636205 568804 550575
0111110000100001000010000: 570191 487123 636205 573107 621373
0111110000100001000010000: 570191 487123 636205 573107 550575
0111110000100001000010000: 570191 487123 636205 573107 568804
0111110000100001000010000: 570191 487123 531895 550575 621373
0111110000100001000010000: 570191 487123 531895 573107 621373
0111110000100001000010000: 570191 487123 531895 573107 550575
0111110000100001000010000: 570191 487123 531895 649637 621373
0111110000100001000010000: 570191 487123 531895 636205 621373
0111110000100001000010000: 570191 487123 531895 636205 550575
0111110000100001000010000: 570191 487123 531895 636205 573107
0111110100110001000010000: 570191 487123 477687 568804 550575
0111110100110001000010000: 570191 487123 477687 649637 568804
0111110100110001000110010: 570191 487123 477687 649637 550575
0111110100110001000010000: 570191 487123 477687 636205 550575
0111110100110001000010000: 570191 487123 477687 636205 568804
0111010100110001000100010: 570191 487123 477687 636205 615764
0111110100110001000110010: 570191 487123 477687 636205 649637
0111010100110001000100010: 570191 487123 507623 621373 550721
0111110100110001000010000: 570191 487123 507623 568804 621373
0111110100110001000010000: 570191 487123 507623 573107 621373
0111110100110001000010000: 570191 487123 507623 573107 568804
0111110100110001000010000: 570191 487123 507623 649637 621373
0111110100110001000010000: 570191 487123 507623 649637 568804
0111110100110001000110010: 570191 487123 507623 649637 573107
0111110100110001000010000: 570191 487123 507623 636205 621373
0111110100110001000010000: 570191 487123 507623 636205 568804
0111110100110001000010000: 570191 487123 507623 636205 573107
0111010100110001000100010: 570191 487123 507623 636205 615764
0111110100110001000110010: 570191 487123 507623 636205 649637
0111110100110001000010000: 570191 487123 507623 531895 621373
0111110100110001000010000: 570191 487123 507623 531895 573107
0111110100110001000010000: 570191 487123 507623 531895 649637
0111110100110001000010000: 570191 487123 507623 531895 636205
0111010100110001000100010: 570191 487123 507623 531895 542999
0111110100110001000110010: 570191 487123 507623 531895 568804
0111110110110101110010000: 570191 487123 507623 477687 568804
0111110110110101110010000: 570191 487123 507623 477687 649637
0111110110110101110010000: 570191 487123 507623 477687 636205
0110010011100000100001000: 531895 477687 568804 573107 621373
0110010011100000100001000: 531895 477687 568804 507623 621373
0110010011100000100001000: 531895 477687 568804 507623 573107
0110010011100000100001000: 531895 477687 568804 487123 621373
0110010011100000100001000: 531895 477687 568804 487123 573107
0110010011100000100001000: 531895 477687 542999 573107 621373
0110010011100000100001000: 531895 477687 542999 507623 621373
0110010011100000100001000: 531895 477687 542999 507623 573107
0110010011100000100001000: 531895 477687 542999 487123 621373
0110010011100000100001000: 531895 477687 542999 487123 573107
0110010011100000100001000: 531895 570191 542999 550575 621373
0110010011100000100001000: 531895 570191 542999 573107 621373
0110010011100000100001000: 531895 570191 542999 573107 550575
0110010011100000100001000: 531895 570191 542999 649637 621373
0110010011100000100001000: 531895 570191 542999 636205 621373
0110010011100000100001000: 531895 570191 542999 636205 550575
0110010011100000100001000: 531895 570191 542999 636205 573107
0110010011100000100001000: 531895 570191 542999 507623 621373
0110010011100000100001000: 531895 570191 542999 507623 573107
0110010011100000100001000: 531895 570191 542999 507623 649637
0110010011100000100001000: 531895 570191 542999 507623 636205
0110010011100000100001000: 531895 570191 542999 487123 621373
0110010011100000100001000: 531895 570191 542999 487123 550575
0110010011100000100001000: 531895 570191 542999 487123 573107
0110010011100000100001000: 531895 570191 542999 487123 649637
0110010011100000100001000: 531895 570191 542999 487123 636205
0111010100110001000100010: 531895 570191 568804 542999 615764
0111010100110001000100010: 531895 570191 568804 542999 550721
0111010100110001000100010: 531895 570191 477687 542999 615764
0111010100110001000100010: 531895 570191 477687 542999 550721
0111110110110001100010000: 531895 570191 477687 568804 542999
0110010011100000100001000: 531895 542999 568804 550721 615764
0110010010100010100000100: 531895 542999 477687 615764 621373
0110010010100010100000100: 531895 542999 477687 615764 573107
0110010010100010100000100: 531895 542999 477687 615764 507623
0110010010100010100000100: 531895 542999 477687 615764 487123
0110010011100000100001000: 531895 542999 477687 550721 615764
0110010010100010100000100: 531895 542999 477687 550721 573107
0110010010100010100000100: 531895 542999 477687 550721 507623
0110010010100010100000100: 531895 542999 477687 550721 487123
0110010010100010100000100: 531895 542999 570191 615764 621373
0110010010100010100000100: 531895 542999 570191 615764 550575
0110010010100010100000100: 531895 542999 570191 615764 573107
0110010010100010100000100: 531895 542999 570191 615764 649637
0110010010100010100000100: 531895 542999 570191 615764 507623
0110010010100010100000100: 531895 542999 570191 615764 487123
0110010011100000100001000: 531895 542999 570191 550721 615764
0110010010100010100000100: 531895 542999 570191 550721 550575
0110010010100010100000100: 531895 542999 570191 550721 573107
0110010010100010100000100: 531895 542999 570191 550721 649637
0110010010100010100000100: 531895 542999 570191 550721 636205
0110010010100010100000100: 531895 542999 570191 550721 507623
0110010010100010100000100: 531895 542999 570191 550721 487123
0110010010100010100000100: 507623 477687 550575 621373 649637
0110010011100000100001000: 507623 477687 550575 573107 621373
0110010010100010100100110: 507623 477687 550575 573107 649637
0110010011100000100001000: 507623 477687 550575 531895 621373
0110010011100000100001000: 507623 477687 550575 531895 573107
0110010010100010100000100: 507623 477687 550575 531895 649637
0111010101110001000001000: 507623 477687 487123 550575 621373
0111010101110001000001000: 507623 477687 487123 550575 573107
0111010101110001000001000: 507623 477687 487123 550575 531895
0111010100110001000100010: 507623 487123 477687 550575 649637
0110010011100000100001000: 636205 649637 615764 573107 550575
0110010011100000100001000: 636205 570191 615764 550575 621373
0110010011100000100001000: 636205 570191 615764 568804 621373
0110010011100000100001000: 636205 570191 615764 568804 550575
0110010011100000100001000: 636205 570191 615764 477687 550575
0110010011100000100001000: 636205 570191 615764 477687 568804
0110010011100000100001000: 636205 570191 615764 573107 621373
0110010011100000100001000: 636205 570191 615764 573107 550575
0110010011100000100001000: 636205 570191 615764 573107 568804
0110010011100000100001000: 636205 570191 615764 507623 621373
0110010011100000100001000: 636205 570191 615764 507623 568804
0110010011100000100001000: 636205 570191 615764 507623 573107
0110010011100000100001000: 636205 570191 615764 531895 621373
0110010011100000100001000: 636205 570191 615764 531895 550575
0110010011100000100001000: 636205 570191 615764 531895 573107
0110010011100000100001000: 636205 570191 615764 531895 507623
0110010011100000100001000: 636205 570191 615764 487123 621373
0110010011100000100001000: 636205 570191 615764 487123 550575
0110010011100000100001000: 636205 570191 615764 487123 568804
0110010011100000100001000: 636205 570191 615764 487123 573107
0110010011100000100001000: 636205 570191 615764 487123 531895
0111010100110001000100010: 636205 570191 649637 615764 542999
0110010010100010100000100: 636205 615764 649637 542999 550575
0110010010100010100000100: 636205 615764 649637 542999 573107
0110010010100010100000100: 636205 615764 570191 542999 621373
0110010010100010100000100: 636205 615764 570191 542999 550575
0110010010100010100000100: 636205 615764 570191 542999 568804
0110010010100010100000100: 636205 615764 570191 542999 477687
0110010010100010100000100: 636205 615764 570191 542999 573107
0110010010100010100000100: 636205 615764 570191 542999 507623
0110010010100010100000100: 636205 615764 570191 542999 487123
0110010010100010100000100: 649637 636205 550575 615764 507623
0110010010100010100000100: 649637 636205 573107 615764 477687
0110010011100000100001000: 573107 477687 649637 507623 621373
0110010011100000100001000: 573107 477687 649637 531895 621373
0110010011100000100001000: 573107 477687 649637 531895 507623
0110010011100000100001000: 573107 477687 649637 487123 621373
0110010011100000100001000: 573107 477687 649637 487123 531895
0110010010100010100000100: 573107 649637 477687 550575 621373
0110010010100010100000100: 573107 649637 477687 550575 531895
0110010010100010100000100: 573107 649637 477687 550575 487123
0110010011100000100001000: 573107 649637 477687 636205 550575
0110010010100010100000100: 573107 649637 477687 636205 621373
0110010010100010100000100: 573107 649637 477687 636205 507623
0110010010100010100000100: 573107 649637 477687 636205 531895
0110010010100010100000100: 573107 649637 477687 636205 487123
0110010010100010100000100: 477687 573107 621373 649637 550721
0110010010100010100000100: 477687 507623 621373 550575 550721
0110010010100010100000100: 477687 531895 621373 568804 550721
0110010011100000100001000: 477687 531895 621373 542999 568804
0110010010100010100000100: 477687 531895 573107 568804 649637
0110010011100000100001000: 477687 531895 573107 542999 568804
0110010010100010100000100: 477687 531895 573107 542999 649637
0111110000100001000010000: 477687 531895 507623 573107 621373
0110010010100010100000100: 477687 531895 507623 568804 550575
0110010011100000100001000: 477687 531895 507623 542999 568804
0110010010100010100000100: 477687 531895 507623 542999 550575
0110010011100000100001000: 477687 531895 487123 542999 568804
0111110000100001000010000: 477687 487123 531895 573107 621373
0111010100110001000100010: 477687 487123 507623 621373 550721
0111110100110001000010000: 477687 487123 507623 573107 621373
0111010100110001000100010: 477687 487123 507623 573107 649637
0111110100110001000010000: 477687 487123 507623 531895 621373
0111110100110001000010000: 477687 487123 507623 531895 573107
0111010100110001000100010: 477687 487123 507623 531895 568804
0111010100110001000100010: 477687 487123 507623 531895 542999
0110010011100000100001000: 550575 649637 507623 636205 573107
0110010010100010100000100: 550575 507623 649637 477687 636205
0110010010100010100000100: 550575 507623 649637 487123 573107
0110010010100010100000100: 550575 507623 649637 487123 636205
0110010011100000100001000: 621373 477687 550721 507623 573107
0110010011100000100001000: 621373 477687 550721 531895 573107
0110010011100000100001000: 621373 477687 550721 531895 507623
0110010011100000100001000: 621373 477687 550721 487123 573107
0110010011100000100001000: 621373 477687 550721 487123 531895
0110010011100000100001000: 621373 570191 550721 568804 550575
0110010011100000100001000: 621373 570191 550721 573107 550575
0110010011100000100001000: 621373 570191 550721 573107 568804
0110010011100000100001000: 621373 570191 550721 649637 568804
0110010011100000100001000: 621373 570191 550721 636205 550575
0110010011100000100001000: 621373 570191 550721 636205 568804
0110010011100000100001000: 621373 570191 550721 636205 573107
0110010011100000100001000: 621373 570191 550721 507623 568804
0110010011100000100001000: 621373 570191 550721 507623 573107
0110010011100000100001000: 621373 570191 550721 507623 649637
0110010011100000100001000: 621373 570191 550721 507623 636205
0110010011100000100001000: 621373 570191 550721 531895 550575
0110010011100000100001000: 621373 570191 550721 531895 573107
0110010011100000100001000: 621373 570191 550721 531895 649637
0110010011100000100001000: 621373 570191 550721 531895 636205
0110010011100000100001000: 621373 570191 550721 531895 507623
0110010011100000100001000: 621373 570191 550721 487123 550575
0110010011100000100001000: 621373 570191 550721 487123 568804
0110010011100000100001000: 621373 570191 550721 487123 573107
0110010011100000100001000: 621373 570191 550721 487123 649637
0110010011100000100001000: 621373 570191 550721 487123 636205
0110010011100000100001000: 621373 570191 550721 487123 531895
0111010100110001000100010: 621373 570191 477687 550721 542999
0110010010100010100000100: 621373 550721 477687 542999 573107
0110010010100010100000100: 621373 550721 477687 542999 507623
0110010010100010100000100: 621373 550721 477687 542999 487123
0110010010100010100000100: 621373 550721 570191 542999 550575
0110010010100010100000100: 621373 550721 570191 542999 568804
0110010010100010100000100: 621373 550721 570191 542999 573107
0110010010100010100000100: 621373 550721 570191 542999 649637
0110010010100010100000100: 621373 550721 570191 542999 636205
0110010010100010100000100: 621373 550721 570191 542999 507623
0110010010100010100000100: 621373 550721 570191 542999 487123
