0110100110000100: 640636 594338 463267 585028
0110100110000100: 640636 594338 463267 495561
0110100010010010: 640636 594338 463267 550254
0110100010010010: 640636 594338 463267 631515
0110100110000100: 640636 594338 463267 585028
0110100110000100: 640636 594338 463267 495561
0110100110000100: 640636 594338 463267 585028
0110100110000100: 640636 594338 463267 495561
0110100110000100: 640636 594338 463267 585028
0110100110000100: 640636 594338 463267 495561
0110100110000100: 640636 594338 463267 585028
0110100110000100: 640636 594338 463267 495561
0110100110000100: 640636 594338 463267 585028
0110100110000100: 640636 594338 463267 495561
0110100110000100: 640636 463267 594338 550254
0110100110000100: 640636 463267 594338 631515
0110100010010010: 640636 463267 594338 585028
0110100010010010: 640636 463267 594338 495561
0110100110000100: 640636 463267 594338 550254
0110100110000100: 640636 463267 594338 631515
0110100110000100: 640636 463267 594338 550254
0110100110000100: 640636 463267 594338 631515
0110100110000100: 640636 463267 594338 550254
0110100110000100: 640636 463267 594338 631515
0110100110000100: 640636 463267 594338 550254
0110100110000100: 640636 463267 594338 631515
0110100110000100: 640636 463267 594338 550254
0110100110000100: 640636 463267 594338 631515
0111100010001000: 463267 640636 631515 550254
0101101001001000: 463267 640636 594338 550254
0101101001001000: 463267 640636 594338 631515
0110100110000100: 463267 550254 631515 473595
0110100110000100: 463267 550254 631515 470405
0110100010010010: 463267 550254 631515 639896
0110100010010010: 463267 550254 631515 640653
0110100010010010: 463267 550254 631515 495561
0111100010001000: 463267 550254 640636 631515
0110100110000100: 463267 550254 640636 473595
0110100110000100: 463267 550254 640636 470405
0110100010010010: 463267 550254 640636 594338
0110100010010010: 463267 550254 640636 594338
0110100110000100: 463267 550254 631515 473595
0110100110000100: 463267 550254 631515 470405
0110100110000100: 463267 550254 631515 473595
0110100110000100: 463267 550254 631515 470405
0110100110000100: 463267 550254 640636 473595
0110100110000100: 463267 550254 640636 470405
0110100110000100: 463267 550254 640636 473595
0110100110000100: 463267 550254 640636 470405
0110100010010010: 463267 550254 640636 594338
0111100010001000: 463267 550254 631515 640636
0111100010001000: 463267 550254 631515 640636
0111100010001000: 463267 550254 631515 640636
0111100010001000: 463267 550254 640636 631515
0111100010001000: 463267 550254 640636 631515
0110100010010010: 463267 550254 640636 594338
0110100110000100: 463267 550254 631515 473595
0110100110000100: 463267 550254 631515 470405
0110100110000100: 463267 550254 631515 473595
0110100110000100: 463267 550254 631515 470405
0111100010001000: 463267 550254 631515 640636
0110100110000100: 463267 550254 631515 473595
0110100110000100: 463267 550254 631515 470405
0110100110000100: 463267 550254 640636 473595
0110100110000100: 463267 550254 640636 470405
0110100110000100: 463267 550254 640636 473595
0110100110000100: 463267 550254 640636 470405
0111100010001000: 463267 550254 640636 631515
0111100010001000: 463267 550254 640636 631515
0110100010010010: 463267 550254 640636 594338
0110100010010010: 463267 550254 640636 594338
0110100110000100: 463267 631515 550254 639896
0110100110000100: 463267 631515 550254 640653
0110100110000100: 463267 631515 550254 495561
0110100010010010: 463267 631515 550254 473595
0110100010010010: 463267 631515 550254 470405
0111100010001000: 463267 631515 640636 550254
0110100110000100: 463267 631515 640636 639896
0110100110000100: 463267 631515 640636 640653
0110100110000100: 463267 631515 640636 495561
0110100010010010: 463267 631515 640636 594338
0110100010010010: 463267 631515 640636 594338
0111100010001000: 463267 631515 550254 640636
0110100110000100: 463267 631515 550254 639896
0110100110000100: 463267 631515 550254 640653
0110100110000100: 463267 631515 550254 495561
0110100110000100: 463267 631515 550254 639896
0110100110000100: 463267 631515 550254 640653
0110100110000100: 463267 631515 550254 495561
0110100010010010: 463267 631515 550254 473595
0110100010010010: 463267 631515 550254 470405
0110100110000100: 463267 631515 640636 639896
0110100110000100: 463267 631515 640636 640653
0110100110000100: 463267 631515 640636 495561
0110100110000100: 463267 631515 640636 639896
0110100110000100: 463267 631515 640636 640653
0110100110000100: 463267 631515 640636 495561
0110100010010010: 463267 631515 640636 594338
0111100010001000: 463267 631515 550254 640636
0111100010001000: 463267 631515 550254 640636
0111100010001000: 463267 631515 550254 640636
0111100010001000: 463267 631515 640636 550254
0111100010001000: 463267 631515 640636 550254
0110100010010010: 463267 631515 640636 594338
0110100110000100: 463267 631515 550254 639896
0110100110000100: 463267 631515 550254 640653
0110100110000100: 463267 631515 550254 495561
0110100110000100: 463267 631515 550254 639896
0110100110000100: 463267 631515 550254 640653
0110100110000100: 463267 631515 550254 495561
0111100010001000: 463267 631515 550254 640636
0110100010010010: 463267 631515 550254 473595
0110100010010010: 463267 631515 550254 470405
0110100110000100: 463267 631515 640636 639896
0110100110000100: 463267 631515 640636 640653
0110100110000100: 463267 631515 640636 495561
0110100110000100: 463267 631515 640636 639896
0110100110000100: 463267 631515 640636 640653
0110100110000100: 463267 631515 640636 495561
0111100010001000: 463267 631515 640636 550254
0111100010001000: 463267 631515 640636 550254
0110100010010010: 463267 631515 640636 594338
0110100010010010: 463267 631515 640636 594338
0110100010010010: 463267 640636 550254 473595
0110100010010010: 463267 640636 550254 470405
0111100010001000: 463267 640636 631515 550254
0110100010010010: 463267 640636 631515 639896
0110100010010010: 463267 640636 631515 640653
0110100010010010: 463267 640636 631515 495561
0111100010001000: 463267 640636 550254 631515
0110100110000100: 463267 640636 550254 594338
0110100110000100: 463267 640636 550254 594338
0111100010001000: 463267 640636 631515 550254
0111100010001000: 463267 640636 631515 550254
0110100110000100: 463267 640636 631515 594338
0110100110000100: 463267 640636 631515 594338
0101101001001000: 463267 640636 594338 550254
0101101001001000: 463267 640636 594338 631515
0100101001010010: 463267 640636 594338 585028
0100101001010010: 463267 640636 594338 495561
0100101001010010: 463267 640636 594338 585028
0100101001010010: 463267 640636 594338 495561
0101101001001000: 463267 640636 594338 550254
0101101001001000: 463267 640636 594338 631515
0101101001001000: 463267 640636 594338 550254
0101101001001000: 463267 640636 594338 631515
0101101001001000: 495561 594338 585028 620438
0101101001001000: 495561 594338 585028 498341
0101101001001000: 495561 594338 585028 631515
0101101001001000: 495561 594338 640636 620438
0101101001001000: 495561 594338 640636 498341
0101101001001000: 495561 594338 640636 631515
0100101101000100: 495561 594338 640636 585028
0101101001001000: 495561 620438 644679 594338
0101101001001000: 495561 620438 644679 631515
0111100010001000: 495561 498341 620438 594338
0110100110010110: 495561 498341 620438 644679
0101101001001000: 495561 498341 644679 594338
0101101001001000: 495561 498341 644679 631515
0101101001001000: 495561 498341 640653 594338
0101101001001000: 495561 498341 640653 620438
0100101101000100: 495561 498341 640653 644679
0111100010001000: 495561 631515 620438 594338
0111100010001000: 495561 631515 498341 594338
0111100010001000: 495561 631515 498341 620438
0110100110010110: 495561 631515 498341 640653
0110100110000100: 495561 594338 620438 585028
0110100110000100: 495561 594338 620438 640636
0110100010010010: 495561 594338 620438 644679
0110100010010010: 495561 594338 620438 644679
0111100010001000: 495561 594338 498341 620438
0110100110000100: 495561 594338 498341 585028
0110100110000100: 495561 594338 498341 640636
0110100010010010: 495561 594338 498341 644679
0110100010010010: 495561 594338 498341 640653
0110100010010010: 495561 594338 498341 644679
0110100010010010: 495561 594338 498341 640653
0111100010001000: 495561 594338 631515 620438
0111100010001000: 495561 594338 631515 498341
0110100110000100: 495561 594338 631515 585028
0110100110000100: 495561 594338 631515 640636
0110100010010010: 495561 594338 631515 639896
0110100010010010: 495561 594338 631515 640653
0110100010010010: 495561 594338 631515 463267
0110100110000100: 495561 594338 620438 585028
0110100110000100: 495561 594338 620438 640636
0110100110000100: 495561 594338 620438 585028
0110100110000100: 495561 594338 620438 640636
0110100110000100: 495561 594338 620438 585028
0110100110000100: 495561 594338 620438 640636
0110100010010010: 495561 594338 620438 644679
0110100110000100: 495561 594338 498341 585028
0110100110000100: 495561 594338 498341 640636
0110100110000100: 495561 594338 498341 585028
0110100110000100: 495561 594338 498341 640636
0110100110000100: 495561 594338 498341 585028
0110100110000100: 495561 594338 498341 640636
0110100110000100: 495561 594338 631515 585028
0110100110000100: 495561 594338 631515 640636
0110100110000100: 495561 594338 631515 585028
0110100110000100: 495561 594338 631515 640636
0110100110000100: 495561 594338 631515 585028
0110100110000100: 495561 594338 631515 640636
0101101001001000: 495561 594338 585028 620438
0101101001001000: 495561 594338 585028 498341
0101101001001000: 495561 594338 585028 631515
0100101001010010: 495561 594338 585028 583351
0100101001010010: 495561 594338 585028 473595
0100101001010010: 495561 594338 585028 583351
0100101001010010: 495561 594338 585028 473595
0100101001010010: 495561 594338 585028 583351
0100101001010010: 495561 594338 585028 473595
0101101001001000: 495561 594338 640636 620438
0101101001001000: 495561 594338 640636 498341
0101101001001000: 495561 594338 640636 631515
0100101001010010: 495561 594338 640636 463267
0100101001010010: 495561 594338 640636 463267
0100101101000100: 495561 594338 640636 585028
0100101001010010: 495561 594338 640636 463267
0100101001010010: 495561 594338 640636 463267
0110100110000100: 495561 620438 594338 644679
0110100010010010: 495561 620438 594338 585028
0110100010010010: 495561 620438 594338 640636
0110100010010010: 495561 620438 594338 585028
0110100010010010: 495561 620438 594338 640636
0111100010001000: 495561 620438 498341 594338
0110100010010010: 495561 620438 498341 640653
0110100010010010: 495561 620438 498341 640653
0110100110010110: 495561 620438 498341 644679
0110100110010110: 495561 620438 498341 644679
0111100010001000: 495561 620438 631515 594338
0111100010001000: 495561 620438 631515 498341
0110100110000100: 495561 620438 631515 644679
0110100010010010: 495561 620438 631515 639896
0110100010010010: 495561 620438 631515 640653
0110100010010010: 495561 620438 631515 463267
0111100010001000: 495561 620438 594338 498341
0111100010001000: 495561 620438 594338 631515
0110100110000100: 495561 620438 594338 644679
0110100110000100: 495561 620438 594338 644679
0110100110000100: 495561 620438 594338 644679
0110100110010110: 495561 620438 498341 644679
0110100110000100: 495561 620438 631515 644679
0110100110000100: 495561 620438 631515 644679
0110100110000100: 495561 620438 631515 644679
0101101001001000: 495561 620438 644679 594338
0101101001001000: 495561 620438 644679 631515
0101101001011010: 495561 620438 644679 498341
0101101001011010: 495561 620438 644679 498341
0101101001011010: 495561 620438 644679 498341
0110100110000100: 495561 498341 594338 644679
0110100110000100: 495561 498341 594338 640653
0110100010010010: 495561 498341 594338 585028
0110100010010010: 495561 498341 594338 640636
0110100010010010: 495561 498341 594338 585028
0110100010010010: 495561 498341 594338 640636
0111100010001000: 495561 498341 620438 594338
0110100110000100: 495561 498341 620438 640653
0110100110010110: 495561 498341 620438 644679
0110100110010110: 495561 498341 620438 644679
0111100010001000: 495561 498341 631515 594338
0111100010001000: 495561 498341 631515 620438
0110100110000100: 495561 498341 631515 644679
0110100010010010: 495561 498341 631515 639896
0110100010010010: 495561 498341 631515 463267
0110100110010110: 495561 498341 631515 640653
0110100110010110: 495561 498341 631515 640653
0111100010001000: 495561 498341 594338 620438
0111100010001000: 495561 498341 594338 631515
0110100110000100: 495561 498341 594338 644679
0110100110000100: 495561 498341 594338 640653
0110100110000100: 495561 498341 594338 644679
0110100110000100: 495561 498341 594338 640653
0110100110000100: 495561 498341 594338 644679
0110100110000100: 495561 498341 594338 640653
0111100010001000: 495561 498341 620438 594338
0111100010001000: 495561 498341 620438 631515
0111100010001000: 495561 498341 620438 594338
0110100110000100: 495561 498341 620438 640653
0110100110000100: 495561 498341 620438 640653
0110100110000100: 495561 498341 620438 640653
0110100110010110: 495561 498341 620438 644679
0110100110010110: 495561 498341 620438 644679
0110100110010110: 495561 498341 620438 644679
0110100110000100: 495561 498341 631515 644679
0110100110000100: 495561 498341 631515 644679
0110100110000100: 495561 498341 631515 644679
0110100110010110: 495561 498341 631515 640653
0101101001001000: 495561 498341 644679 594338
0101101001001000: 495561 498341 644679 631515
0101101001011010: 495561 498341 644679 620438
0101101001011010: 495561 498341 644679 620438
0101101001011010: 495561 498341 644679 620438
0101101001011010: 495561 498341 644679 620438
0101101001011010: 495561 498341 644679 620438
0101101001001000: 495561 498341 640653 594338
0101101001001000: 495561 498341 640653 620438
0100101001010010: 495561 498341 640653 470405
0100101001010010: 495561 498341 640653 470405
0100101101000100: 495561 498341 640653 644679
0101101001011010: 495561 498341 640653 631515
0101101001011010: 495561 498341 640653 631515
0101101001011010: 495561 498341 640653 631515
0100101001010010: 495561 498341 640653 470405
0110100110000100: 495561 631515 594338 639896
0110100110000100: 495561 631515 594338 640653
0110100110000100: 495561 631515 594338 463267
0110100010010010: 495561 631515 594338 585028
0110100010010010: 495561 631515 594338 640636
0110100010010010: 495561 631515 594338 585028
0110100010010010: 495561 631515 594338 640636
0111100010001000: 495561 631515 620438 594338
0110100110000100: 495561 631515 620438 639896
0110100110000100: 495561 631515 620438 640653
0110100110000100: 495561 631515 620438 463267
0110100010010010: 495561 631515 620438 644679
0110100010010010: 495561 631515 620438 644679
0111100010001000: 495561 631515 498341 594338
0111100010001000: 495561 631515 498341 620438
0110100110000100: 495561 631515 498341 639896
0110100110000100: 495561 631515 498341 463267
0110100010010010: 495561 631515 498341 644679
0110100010010010: 495561 631515 498341 644679
0110100110010110: 495561 631515 498341 640653
0110100110010110: 495561 631515 498341 640653
0111100010001000: 495561 631515 594338 620438
0111100010001000: 495561 631515 594338 498341
0110100110000100: 495561 631515 594338 639896
0110100110000100: 495561 631515 594338 640653
0110100110000100: 495561 631515 594338 463267
0110100110000100: 495561 631515 594338 639896
0110100110000100: 495561 631515 594338 640653
0110100110000100: 495561 631515 594338 463267
0110100010010010: 495561 631515 594338 585028
0110100010010010: 495561 631515 594338 640636
0111100010001000: 495561 631515 620438 594338
0111100010001000: 495561 631515 620438 498341
0111100010001000: 495561 631515 620438 594338
0110100110000100: 495561 631515 620438 639896
0110100110000100: 495561 631515 620438 640653
0110100110000100: 495561 631515 620438 463267
0110100110000100: 495561 631515 620438 639896
0110100110000100: 495561 631515 620438 640653
0110100110000100: 495561 631515 620438 463267
0110100010010010: 495561 631515 620438 644679
0111100010001000: 495561 631515 498341 594338
0111100010001000: 495561 631515 498341 620438
0111100010001000: 495561 631515 498341 594338
0111100010001000: 495561 631515 498341 620438
0110100110000100: 495561 631515 498341 639896
0110100110000100: 495561 631515 498341 463267
0110100110000100: 495561 631515 498341 639896
0110100110000100: 495561 631515 498341 463267
0110100110010110: 495561 631515 498341 640653
0110100010010010: 495561 631515 498341 644679
0110100110010110: 495561 631515 498341 640653
0110100110010110: 495561 631515 498341 640653
0111100010001000: 495561 631515 594338 620438
0111100010001000: 495561 631515 594338 498341
0111100010001000: 495561 631515 594338 620438
0111100010001000: 495561 631515 594338 498341
0110100010010010: 495561 631515 594338 585028
0110100010010010: 495561 631515 594338 640636
0111100010001000: 495561 631515 620438 594338
0111100010001000: 495561 631515 620438 498341
0111100010001000: 495561 631515 620438 594338
0111100010001000: 495561 631515 620438 498341
0110100010010010: 495561 631515 620438 644679
0111100010001000: 495561 631515 498341 594338
0111100010001000: 495561 631515 498341 620438
0111100010001000: 495561 631515 498341 594338
0111100010001000: 495561 631515 498341 620438
0110100010010010: 495561 631515 498341 644679
0110100110000100: 495561 631515 594338 639896
0110100110000100: 495561 631515 594338 640653
0110100110000100: 495561 631515 594338 463267
0110100110000100: 495561 631515 594338 639896
0110100110000100: 495561 631515 594338 640653
0110100110000100: 495561 631515 594338 463267
0111100010001000: 495561 631515 594338 620438
0111100010001000: 495561 631515 594338 498341
0110100010010010: 495561 631515 594338 585028
0110100010010010: 495561 631515 594338 640636
0110100010010010: 495561 631515 594338 585028
0110100010010010: 495561 631515 594338 640636
0110100110000100: 495561 631515 620438 639896
0110100110000100: 495561 631515 620438 640653
0110100110000100: 495561 631515 620438 463267
0110100110000100: 495561 631515 620438 639896
0110100110000100: 495561 631515 620438 640653
0110100110000100: 495561 631515 620438 463267
0111100010001000: 495561 631515 620438 594338
0111100010001000: 495561 631515 620438 498341
0111100010001000: 495561 631515 620438 594338
0110100010010010: 495561 631515 620438 644679
0110100010010010: 495561 631515 620438 644679
0110100110000100: 495561 631515 498341 639896
0110100110000100: 495561 631515 498341 463267
0110100110000100: 495561 631515 498341 639896
0110100110000100: 495561 631515 498341 463267
0111100010001000: 495561 631515 498341 594338
0111100010001000: 495561 631515 498341 620438
0111100010001000: 495561 631515 498341 594338
0111100010001000: 495561 631515 498341 620438
0110100010010010: 495561 631515 498341 644679
0110100110010110: 495561 631515 498341 640653
0110100010010010: 495561 631515 498341 644679
0110100110010110: 495561 631515 498341 640653
0101101001001000: 631515 640653 470405 639896
0101101001001000: 631515 640653 470405 495561
0101101001001000: 631515 640653 470405 463267
0101101001001000: 631515 640653 498341 639896
0101101001001000: 631515 640653 498341 463267
0100101101000100: 631515 640653 498341 470405
0111100010001000: 631515 495561 640653 639896
0110100110010110: 631515 495561 640653 498341
0111100010001000: 631515 463267 640653 639896
0111100010001000: 631515 463267 495561 639896
0111100010001000: 631515 463267 495561 640653
0101101001001000: 631515 463267 550254 639896
0101101001001000: 631515 463267 550254 640653
0101101001001000: 631515 463267 550254 495561
0101101001001000: 631515 463267 640636 639896
0101101001001000: 631515 463267 640636 640653
0101101001001000: 631515 463267 640636 495561
0100101101000100: 631515 463267 640636 550254
0110100010010010: 631515 639896 640653 470405
0110100010010010: 631515 639896 640653 498341
0110100010010010: 631515 639896 640653 470405
0110100010010010: 631515 639896 640653 498341
0111100010001000: 631515 639896 495561 640653
0110100010010010: 631515 639896 495561 594338
0110100010010010: 631515 639896 495561 620438
0110100010010010: 631515 639896 495561 498341
0111100010001000: 631515 639896 463267 640653
0111100010001000: 631515 639896 463267 495561
0110100010010010: 631515 639896 463267 550254
0110100010010010: 631515 639896 463267 640636
0110100010010010: 631515 639896 463267 550254
0110100010010010: 631515 639896 463267 640636
0110100110000100: 631515 640653 639896 470405
0110100110000100: 631515 640653 639896 498341
0111100010001000: 631515 640653 495561 639896
0110100110000100: 631515 640653 495561 470405
0110100010010010: 631515 640653 495561 594338
0110100010010010: 631515 640653 495561 620438
0110100110010110: 631515 640653 495561 498341
0110100110010110: 631515 640653 495561 498341
0111100010001000: 631515 640653 463267 639896
0111100010001000: 631515 640653 463267 495561
0110100110000100: 631515 640653 463267 470405
0110100110000100: 631515 640653 463267 498341
0110100010010010: 631515 640653 463267 550254
0110100010010010: 631515 640653 463267 640636
0110100010010010: 631515 640653 463267 550254
0110100010010010: 631515 640653 463267 640636
0111100010001000: 631515 640653 639896 495561
0111100010001000: 631515 640653 639896 463267
0110100110000100: 631515 640653 639896 470405
0110100110000100: 631515 640653 639896 498341
0110100110000100: 631515 640653 639896 470405
0110100110000100: 631515 640653 639896 498341
0110100110000100: 631515 640653 639896 470405
0110100110000100: 631515 640653 639896 498341
0110100110000100: 631515 640653 495561 470405
0110100110000100: 631515 640653 495561 470405
0110100110000100: 631515 640653 495561 470405
0110100110010110: 631515 640653 495561 498341
0110100110000100: 631515 640653 463267 470405
0110100110000100: 631515 640653 463267 498341
0110100110000100: 631515 640653 463267 470405
0110100110000100: 631515 640653 463267 498341
0110100110000100: 631515 640653 463267 470405
0110100110000100: 631515 640653 463267 498341
0101101001001000: 631515 640653 470405 639896
0101101001001000: 631515 640653 470405 495561
0101101001001000: 631515 640653 470405 463267
0100101001010010: 631515 640653 470405 550254
0100101001010010: 631515 640653 470405 550254
0100101001010010: 631515 640653 470405 550254
0100101001010010: 631515 640653 470405 550254
0101101001001000: 631515 640653 498341 639896
0101101001001000: 631515 640653 498341 463267
0100101001010010: 631515 640653 498341 644679
0100101001010010: 631515 640653 498341 644679
0100101101000100: 631515 640653 498341 470405
0101101001011010: 631515 640653 498341 495561
0101101001011010: 631515 640653 498341 495561
0101101001011010: 631515 640653 498341 495561
0100101001010010: 631515 640653 498341 644679
0111100010001000: 631515 495561 640653 639896
0110100010010010: 631515 495561 640653 470405
0110100010010010: 631515 495561 640653 470405
0110100110010110: 631515 495561 640653 498341
0111100010001000: 631515 495561 463267 639896
0111100010001000: 631515 495561 463267 640653
0110100010010010: 631515 495561 463267 550254
0110100010010010: 631515 495561 463267 640636
0110100010010010: 631515 495561 463267 550254
0110100010010010: 631515 495561 463267 640636
0111100010001000: 631515 495561 639896 640653
0111100010001000: 631515 495561 639896 463267
0110100110000100: 631515 495561 639896 594338
0110100110000100: 631515 495561 639896 620438
0110100110000100: 631515 495561 639896 498341
0111100010001000: 631515 495561 640653 639896
0111100010001000: 631515 495561 640653 463267
0111100010001000: 631515 495561 640653 639896
0110100110000100: 631515 495561 640653 594338
0110100110000100: 631515 495561 640653 620438
0110100110010110: 631515 495561 640653 498341
0110100010010010: 631515 495561 640653 470405
0110100110010110: 631515 495561 640653 498341
0110100110000100: 631515 495561 463267 594338
0110100110000100: 631515 495561 463267 620438
0110100110000100: 631515 495561 463267 498341
0110100010010010: 631515 495561 463267 550254
0110100010010010: 631515 495561 463267 640636
0111100010001000: 631515 495561 639896 640653
0111100010001000: 631515 495561 639896 463267
0111100010001000: 631515 495561 639896 640653
0111100010001000: 631515 495561 639896 463267
0111100010001000: 631515 495561 640653 639896
0111100010001000: 631515 495561 640653 463267
0111100010001000: 631515 495561 640653 639896
0111100010001000: 631515 495561 640653 463267
0110100010010010: 631515 495561 640653 470405
0111100010001000: 631515 495561 463267 639896
0111100010001000: 631515 495561 463267 640653
0111100010001000: 631515 495561 463267 639896
0111100010001000: 631515 495561 463267 640653
0110100010010010: 631515 495561 463267 550254
0110100010010010: 631515 495561 463267 640636
0110100110000100: 631515 495561 639896 594338
0110100110000100: 631515 495561 639896 620438
0110100110000100: 631515 495561 639896 498341
0110100110000100: 631515 495561 639896 594338
0110100110000100: 631515 495561 639896 620438
0110100110000100: 631515 495561 639896 498341
0111100010001000: 631515 495561 639896 640653
0111100010001000: 631515 495561 639896 463267
0110100110000100: 631515 495561 640653 594338
0110100110000100: 631515 495561 640653 620438
0110100110000100: 631515 495561 640653 594338
0110100110000100: 631515 495561 640653 620438
0111100010001000: 631515 495561 640653 639896
0111100010001000: 631515 495561 640653 463267
0111100010001000: 631515 495561 640653 639896
0110100010010010: 631515 495561 640653 470405
0110100110010110: 631515 495561 640653 498341
0110100010010010: 631515 495561 640653 470405
0110100110010110: 631515 495561 640653 498341
0110100110000100: 631515 495561 463267 594338
0110100110000100: 631515 495561 463267 620438
0110100110000100: 631515 495561 463267 498341
0110100110000100: 631515 495561 463267 594338
0110100110000100: 631515 495561 463267 620438
0110100110000100: 631515 495561 463267 498341
0111100010001000: 631515 495561 463267 639896
0111100010001000: 631515 495561 463267 640653
0111100010001000: 631515 495561 463267 639896
0111100010001000: 631515 495561 463267 640653
0110100010010010: 631515 495561 463267 550254
0110100010010010: 631515 495561 463267 640636
0110100010010010: 631515 495561 463267 550254
0110100010010010: 631515 495561 463267 640636
0111100010001000: 631515 463267 640653 639896
0110100010010010: 631515 463267 640653 470405
0110100010010010: 631515 463267 640653 498341
0110100010010010: 631515 463267 640653 470405
0110100010010010: 631515 463267 640653 498341
0111100010001000: 631515 463267 495561 639896
0111100010001000: 631515 463267 495561 640653
0110100010010010: 631515 463267 495561 594338
0110100010010010: 631515 463267 495561 620438
0110100010010010: 631515 463267 495561 498341
0111100010001000: 631515 463267 639896 640653
0111100010001000: 631515 463267 639896 495561
0110100110000100: 631515 463267 639896 550254
0110100110000100: 631515 463267 639896 640636
0110100110000100: 631515 463267 639896 550254
0110100110000100: 631515 463267 639896 640636
0111100010001000: 631515 463267 640653 639896
0111100010001000: 631515 463267 640653 495561
0111100010001000: 631515 463267 640653 639896
0110100110000100: 631515 463267 640653 550254
0110100110000100: 631515 463267 640653 640636
0110100110000100: 631515 463267 640653 550254
0110100110000100: 631515 463267 640653 640636
0111100010001000: 631515 463267 495561 639896
0111100010001000: 631515 463267 495561 640653
0111100010001000: 631515 463267 495561 639896
0111100010001000: 631515 463267 495561 640653
0110100110000100: 631515 463267 495561 550254
0110100110000100: 631515 463267 495561 640636
0110100110000100: 631515 463267 495561 550254
0110100110000100: 631515 463267 495561 640636
0101101001001000: 631515 463267 550254 639896
0101101001001000: 631515 463267 550254 640653
0101101001001000: 631515 463267 550254 495561
0100101001010010: 631515 463267 550254 473595
0100101001010010: 631515 463267 550254 470405
0100101001010010: 631515 463267 550254 473595
0100101001010010: 631515 463267 550254 470405
0100101001010010: 631515 463267 550254 473595
0100101001010010: 631515 463267 550254 470405
0101101001001000: 631515 463267 640636 639896
0101101001001000: 631515 463267 640636 640653
0101101001001000: 631515 463267 640636 495561
0100101001010010: 631515 463267 640636 594338
0100101001010010: 631515 463267 640636 594338
0100101101000100: 631515 463267 640636 550254
0100101001010010: 631515 463267 640636 594338
0100101001010010: 631515 463267 640636 594338
0101101001001000: 640653 470405 550254 498341
0101101001001000: 640653 470405 550254 631515
0111100010001000: 640653 631515 498341 470405
0110100110010110: 640653 631515 498341 495561
0110100110000100: 640653 470405 498341 550254
0110100010010010: 640653 470405 498341 644679
0110100010010010: 640653 470405 498341 495561
0111100010001000: 640653 470405 631515 498341
0110100110000100: 640653 470405 631515 550254
0110100010010010: 640653 470405 631515 639896
0110100010010010: 640653 470405 631515 495561
0110100010010010: 640653 470405 631515 463267
0110100110000100: 640653 470405 498341 550254
0110100110000100: 640653 470405 498341 550254
0110100110000100: 640653 470405 498341 550254
0110100110000100: 640653 470405 631515 550254
0110100110000100: 640653 470405 631515 550254
0110100110000100: 640653 470405 631515 550254
0101101001001000: 640653 470405 550254 498341
0101101001001000: 640653 470405 550254 631515
0100101001010010: 640653 470405 550254 473595
0100101001010010: 640653 470405 550254 463267
0100101001010010: 640653 470405 550254 473595
0100101001010010: 640653 470405 550254 463267
0101101001001000: 640653 470405 550254 498341
0101101001001000: 640653 470405 550254 631515
0110100110000100: 640653 498341 470405 644679
0110100110000100: 640653 498341 470405 495561
0110100010010010: 640653 498341 470405 550254
0110100010010010: 640653 498341 470405 550254
0111100010001000: 640653 498341 631515 470405
0110100110000100: 640653 498341 631515 644679
0110100010010010: 640653 498341 631515 639896
0110100010010010: 640653 498341 631515 463267
0110100110010110: 640653 498341 631515 495561
0110100110010110: 640653 498341 631515 495561
0111100010001000: 640653 498341 470405 631515
0110100110000100: 640653 498341 470405 644679
0110100110000100: 640653 498341 470405 495561
0110100110000100: 640653 498341 470405 644679
0110100110000100: 640653 498341 470405 495561
0110100010010010: 640653 498341 470405 550254
0110100110000100: 640653 498341 631515 644679
0110100110000100: 640653 498341 631515 644679
0110100110010110: 640653 498341 631515 495561
0111100010001000: 640653 498341 470405 631515
0111100010001000: 640653 498341 470405 631515
0110100010010010: 640653 498341 470405 550254
0111100010001000: 640653 498341 631515 470405
0111100010001000: 640653 498341 631515 470405
0111100010001000: 640653 498341 631515 470405
0110100110000100: 640653 498341 470405 644679
0110100110000100: 640653 498341 470405 495561
0110100110000100: 640653 498341 470405 644679
0110100110000100: 640653 498341 470405 495561
0111100010001000: 640653 498341 470405 631515
0110100010010010: 640653 498341 470405 550254
0110100010010010: 640653 498341 470405 550254
0110100110000100: 640653 498341 631515 644679
0110100110000100: 640653 498341 631515 644679
0111100010001000: 640653 498341 631515 470405
0111100010001000: 640653 498341 631515 470405
0110100110010110: 640653 498341 631515 495561
0110100110000100: 640653 498341 631515 644679
0110100010010010: 640653 631515 470405 550254
0110100010010010: 640653 631515 470405 550254
0111100010001000: 640653 631515 498341 470405
0110100010010010: 640653 631515 498341 644679
0110100110010110: 640653 631515 498341 495561
0111100010001000: 640653 631515 470405 498341
0110100110000100: 640653 631515 470405 639896
0110100110000100: 640653 631515 470405 495561
0110100110000100: 640653 631515 470405 463267
0110100010010010: 640653 631515 470405 550254
0111100010001000: 640653 631515 498341 470405
0111100010001000: 640653 631515 498341 470405
0110100110000100: 640653 631515 498341 639896
0110100110000100: 640653 631515 498341 463267
0110100110010110: 640653 631515 498341 495561
0110100010010010: 640653 631515 498341 644679
0110100110010110: 640653 631515 498341 495561
0111100010001000: 640653 631515 470405 498341
0111100010001000: 640653 631515 470405 498341
0110100010010010: 640653 631515 470405 550254
0111100010001000: 640653 631515 498341 470405
0111100010001000: 640653 631515 498341 470405
0111100010001000: 640653 631515 498341 470405
0110100110000100: 640653 631515 470405 639896
0110100110000100: 640653 631515 470405 495561
0110100110000100: 640653 631515 470405 463267
0110100110000100: 640653 631515 470405 639896
0110100110000100: 640653 631515 470405 495561
0110100110000100: 640653 631515 470405 463267
0111100010001000: 640653 631515 470405 498341
0110100010010010: 640653 631515 470405 550254
0110100010010010: 640653 631515 470405 550254
0110100110000100: 640653 631515 498341 639896
0110100110000100: 640653 631515 498341 463267
0110100110000100: 640653 631515 498341 639896
0110100110000100: 640653 631515 498341 463267
0111100010001000: 640653 631515 498341 470405
0111100010001000: 640653 631515 498341 470405
0110100010010010: 640653 631515 498341 644679
0110100110010110: 640653 631515 498341 495561
0101101001001000: 498341 644679 620438 640653
0110100110010110: 498341 495561 644679 620438
0111100010001000: 498341 495561 640653 644679
0110100110010110: 498341 495561 640653 631515
0110100110000100: 498341 644679 640653 620438
0110100010010010: 498341 644679 640653 470405
0110100010010010: 498341 644679 640653 631515
0111100010001000: 498341 644679 495561 640653
0110100010010010: 498341 644679 495561 594338
0110100010010010: 498341 644679 495561 631515
0110100110010110: 498341 644679 495561 620438
0110100110010110: 498341 644679 495561 620438
0110100110000100: 498341 644679 640653 620438
0110100110000100: 498341 644679 640653 620438
0110100110000100: 498341 644679 640653 620438
0110100110010110: 498341 644679 495561 620438
0101101001001000: 498341 644679 620438 640653
0101101001011010: 498341 644679 620438 495561
0101101001011010: 498341 644679 620438 495561
0101101001011010: 498341 644679 620438 495561
0110100010010010: 498341 640653 644679 620438
0110100010010010: 498341 640653 644679 620438
0111100010001000: 498341 640653 495561 644679
0110100010010010: 498341 640653 495561 594338
0110100010010010: 498341 640653 495561 620438
0110100110010110: 498341 640653 495561 631515
0111100010001000: 498341 640653 644679 495561
0110100110000100: 498341 640653 644679 470405
0110100110000100: 498341 640653 644679 631515
0110100010010010: 498341 640653 644679 620438
0110100110000100: 498341 640653 495561 470405
0110100110010110: 498341 640653 495561 631515
0111100010001000: 498341 640653 644679 495561
0111100010001000: 498341 640653 644679 495561
0110100010010010: 498341 640653 644679 620438
0111100010001000: 498341 640653 495561 644679
0111100010001000: 498341 640653 495561 644679
0111100010001000: 498341 640653 495561 644679
0110100110000100: 498341 640653 644679 470405
0110100110000100: 498341 640653 644679 631515
0110100110000100: 498341 640653 644679 470405
0110100110000100: 498341 640653 644679 631515
0111100010001000: 498341 640653 644679 495561
0110100010010010: 498341 640653 644679 620438
0110100010010010: 498341 640653 644679 620438
0110100110000100: 498341 640653 495561 470405
0110100110000100: 498341 640653 495561 470405
0111100010001000: 498341 640653 495561 644679
0111100010001000: 498341 640653 495561 644679
0110100110010110: 498341 640653 495561 631515
0110100110000100: 498341 640653 495561 470405
0110100110010110: 498341 495561 644679 620438
0111100010001000: 498341 495561 640653 644679
0110100010010010: 498341 495561 640653 470405
0110100110010110: 498341 495561 640653 631515
0111100010001000: 498341 495561 644679 640653
0110100110000100: 498341 495561 644679 594338
0110100110000100: 498341 495561 644679 631515
0110100110010110: 498341 495561 644679 620438
0110100110010110: 498341 495561 644679 620438
0111100010001000: 498341 495561 640653 644679
0111100010001000: 498341 495561 640653 644679
0110100110000100: 498341 495561 640653 594338
0110100110000100: 498341 495561 640653 620438
0110100110010110: 498341 495561 640653 631515
0110100010010010: 498341 495561 640653 470405
0110100110010110: 498341 495561 640653 631515
0111100010001000: 498341 495561 644679 640653
0111100010001000: 498341 495561 644679 640653
0111100010001000: 498341 495561 640653 644679
0111100010001000: 498341 495561 640653 644679
0111100010001000: 498341 495561 640653 644679
0110100110000100: 498341 495561 644679 594338
0110100110000100: 498341 495561 644679 631515
0110100110000100: 498341 495561 644679 594338
0110100110000100: 498341 495561 644679 631515
0111100010001000: 498341 495561 644679 640653
0110100110010110: 498341 495561 644679 620438
0110100110010110: 498341 495561 644679 620438
0110100110000100: 498341 495561 640653 594338
0110100110000100: 498341 495561 640653 620438
0110100110000100: 498341 495561 640653 594338
0110100110000100: 498341 495561 640653 620438
0111100010001000: 498341 495561 640653 644679
0111100010001000: 498341 495561 640653 644679
0110100010010010: 498341 495561 640653 470405
0110100110010110: 498341 495561 640653 631515
0110100110010110: 620438 495561 644679 498341
0110100010010010: 620438 644679 495561 594338
0110100010010010: 620438 644679 495561 631515
0110100110010110: 620438 644679 495561 498341
0110100110010110: 620438 644679 495561 498341
0110100110010110: 620438 644679 495561 498341
0110100110010110: 620438 644679 495561 498341
0110100110010110: 620438 495561 644679 498341
0110100110000100: 620438 495561 644679 594338
0110100110000100: 620438 495561 644679 631515
0110100110010110: 620438 495561 644679 498341
0110100110010110: 620438 495561 644679 498341
0110100110000100: 620438 495561 644679 594338
0110100110000100: 620438 495561 644679 631515
0110100110000100: 620438 495561 644679 594338
0110100110000100: 620438 495561 644679 631515
0110100110010110: 620438 495561 644679 498341
0110100110000100: 470405 550254 640653 473595
0110100110000100: 470405 550254 640653 463267
0110100010010010: 470405 550254 640653 498341
0110100010010010: 470405 550254 640653 631515
0110100110000100: 470405 550254 640653 473595
0110100110000100: 470405 550254 640653 463267
0110100110000100: 470405 550254 640653 473595
0110100110000100: 470405 550254 640653 463267
0110100110000100: 470405 550254 640653 473595
0110100110000100: 470405 550254 640653 463267
0110100110000100: 470405 550254 640653 473595
0110100110000100: 470405 550254 640653 463267
0110100110000100: 470405 550254 640653 473595
0110100110000100: 470405 550254 640653 463267
0110100010010010: 470405 640653 550254 473595
0110100010010010: 470405 640653 550254 463267
0110100110000100: 470405 640653 550254 498341
0110100110000100: 470405 640653 550254 631515
0110100110000100: 470405 640653 550254 498341
0110100110000100: 470405 640653 550254 631515
0110100110000100: 470405 640653 550254 498341
0110100110000100: 470405 640653 550254 631515
0110100110000100: 470405 640653 550254 498341
0110100110000100: 470405 640653 550254 631515
0101101001001000: 473595 550254 470405 585028
0101101001001000: 473595 550254 470405 481237
0101101001001000: 473595 550254 470405 583351
0101101001001000: 473595 550254 463267 585028
0101101001001000: 473595 550254 463267 481237
0101101001001000: 473595 550254 463267 583351
0100101101000100: 473595 550254 463267 470405
0111101011001000: 473595 585028 583351 550254
0111101011001000: 473595 585028 583351 481237
0101101001001000: 473595 585028 594338 550254
0101101001001000: 473595 585028 594338 481237
0101101101001100: 473595 585028 594338 583351
0111100010001000: 473595 481237 585028 550254
0101101001001000: 473595 481237 638509 550254
0101101001001000: 473595 481237 638509 585028
0101101001001000: 473595 481237 638509 583351
0101101001001000: 473595 481237 562949 550254
0101101001001000: 473595 481237 562949 585028
0101101001001000: 473595 481237 562949 583351
0100101101000100: 473595 481237 562949 638509
0111100010001000: 473595 583351 481237 550254
0111101011001000: 473595 583351 585028 550254
0111101011001000: 473595 583351 585028 481237
0101101001001000: 473595 583351 601475 550254
0101101001001000: 473595 583351 601475 481237
0101101101001100: 473595 583351 601475 585028
0110100110000100: 473595 550254 585028 470405
0110100110000100: 473595 550254 585028 463267
0110100010010010: 473595 550254 585028 594338
0111100010011010: 473595 550254 585028 583351
0110100010010010: 473595 550254 585028 594338
0111100010001000: 473595 550254 481237 585028
0110100110000100: 473595 550254 481237 470405
0110100110000100: 473595 550254 481237 463267
0110100010010010: 473595 550254 481237 638509
0110100010010010: 473595 550254 481237 562949
0110100010010010: 473595 550254 481237 638509
0110100010010010: 473595 550254 481237 562949
0111100010001000: 473595 550254 583351 481237
0110100110000100: 473595 550254 583351 470405
0110100110000100: 473595 550254 583351 463267
0110100010010010: 473595 550254 583351 601475
0111100010011010: 473595 550254 583351 585028
0110100010010010: 473595 550254 583351 601475
0110100110000100: 473595 550254 585028 470405
0110100110000100: 473595 550254 585028 463267
0110100110000100: 473595 550254 585028 470405
0110100110000100: 473595 550254 585028 463267
0110100110000100: 473595 550254 585028 470405
0110100110000100: 473595 550254 585028 463267
0110100110000100: 473595 550254 481237 470405
0110100110000100: 473595 550254 481237 463267
0110100110000100: 473595 550254 481237 470405
0110100110000100: 473595 550254 481237 463267
0110100110000100: 473595 550254 481237 470405
0110100110000100: 473595 550254 481237 463267
0110100110000100: 473595 550254 583351 470405
0110100110000100: 473595 550254 583351 463267
0110100110000100: 473595 550254 583351 470405
0110100110000100: 473595 550254 583351 463267
0110100110000100: 473595 550254 583351 470405
0110100110000100: 473595 550254 583351 463267
0101101001001000: 473595 550254 470405 585028
0101101001001000: 473595 550254 470405 481237
0101101001001000: 473595 550254 470405 583351
0100101001010010: 473595 550254 470405 640653
0100101001010010: 473595 550254 470405 640653
0100101001010010: 473595 550254 470405 640653
0100101001010010: 473595 550254 470405 640653
0101101001001000: 473595 550254 463267 585028
0101101001001000: 473595 550254 463267 481237
0101101001001000: 473595 550254 463267 583351
0100101001010010: 473595 550254 463267 631515
0100101001010010: 473595 550254 463267 640636
0100101001010010: 473595 550254 463267 631515
0100101001010010: 473595 550254 463267 640636
0100101101000100: 473595 550254 463267 470405
0100101001010010: 473595 550254 463267 631515
0100101001010010: 473595 550254 463267 640636
0110100110000100: 473595 585028 550254 594338
0110100010010010: 473595 585028 550254 470405
0110100010010010: 473595 585028 550254 463267
0110100010010010: 473595 585028 550254 470405
0110100010010010: 473595 585028 550254 463267
0111100010001000: 473595 585028 481237 550254
0110100110000100: 473595 585028 481237 594338
0110100010010010: 473595 585028 481237 638509
0110100010010010: 473595 585028 481237 562949
0110100010010010: 473595 585028 481237 638509
0110100010010010: 473595 585028 481237 562949
0111100010001000: 473595 585028 550254 481237
0110100110000100: 473595 585028 550254 594338
0110100110000100: 473595 585028 550254 594338
0111100110001100: 473595 585028 550254 583351
0110100110000100: 473595 585028 550254 594338
0110100110000100: 473595 585028 481237 594338
0110100110000100: 473595 585028 481237 594338
0111100110001100: 473595 585028 481237 583351
0110100110000100: 473595 585028 481237 594338
0111101011001000: 473595 585028 583351 550254
0111101011001000: 473595 585028 583351 481237
0110101011010010: 473595 585028 583351 601475
0110101011010010: 473595 585028 583351 601475
0110101011010010: 473595 585028 583351 601475
0110101011010010: 473595 585028 583351 601475
0110101111000100: 473595 585028 583351 594338
0101101001001000: 473595 585028 594338 550254
0101101001001000: 473595 585028 594338 481237
0100101001010010: 473595 585028 594338 495561
0100101001010010: 473595 585028 594338 640636
0100101001010010: 473595 585028 594338 495561
0100101001010010: 473595 585028 594338 640636
0101101101001100: 473595 585028 594338 583351
0100101001010010: 473595 585028 594338 495561
0100101001010010: 473595 585028 594338 640636
0111101011001000: 473595 585028 583351 550254
0111101011001000: 473595 585028 583351 481237
0111101011001000: 473595 585028 583351 550254
0111101011001000: 473595 585028 583351 481237
0110101111000100: 473595 585028 583351 594338
0110101111000100: 473595 585028 583351 594338
0110101111000100: 473595 585028 583351 594338
0110101111000100: 473595 585028 583351 594338
0110101111000100: 473595 585028 583351 594338
0110100110000100: 473595 481237 550254 638509
0110100110000100: 473595 481237 550254 562949
0110100010010010: 473595 481237 550254 470405
0110100010010010: 473595 481237 550254 463267
0110100010010010: 473595 481237 550254 470405
0110100010010010: 473595 481237 550254 463267
0111100010001000: 473595 481237 585028 550254
0110100110000100: 473595 481237 585028 638509
0110100110000100: 473595 481237 585028 562949
0110100010010010: 473595 481237 585028 594338
0111100010011010: 473595 481237 585028 583351
0110100010010010: 473595 481237 585028 594338
0111100010001000: 473595 481237 583351 550254
0110100110000100: 473595 481237 583351 638509
0110100110000100: 473595 481237 583351 562949
0110100010010010: 473595 481237 583351 601475
0111100010011010: 473595 481237 583351 585028
0110100010010010: 473595 481237 583351 601475
0111100010001000: 473595 481237 550254 585028
0111100010001000: 473595 481237 550254 583351
0110100110000100: 473595 481237 550254 638509
0110100110000100: 473595 481237 550254 562949
0110100110000100: 473595 481237 550254 638509
0110100110000100: 473595 481237 550254 562949
0110100110000100: 473595 481237 550254 638509
0110100110000100: 473595 481237 550254 562949
0111100010001000: 473595 481237 585028 550254
0111100010001000: 473595 481237 585028 550254
0110100110000100: 473595 481237 585028 638509
0110100110000100: 473595 481237 585028 562949
0110100110000100: 473595 481237 585028 638509
0110100110000100: 473595 481237 585028 562949
0110100110000100: 473595 481237 585028 638509
0110100110000100: 473595 481237 585028 562949
0110100110000100: 473595 481237 583351 638509
0110100110000100: 473595 481237 583351 562949
0110100110000100: 473595 481237 583351 638509
0110100110000100: 473595 481237 583351 562949
0110100110000100: 473595 481237 583351 638509
0110100110000100: 473595 481237 583351 562949
0101101001001000: 473595 481237 638509 550254
0101101001001000: 473595 481237 638509 585028
0101101001001000: 473595 481237 638509 583351
0100101001010010: 473595 481237 638509 601475
0100101001010010: 473595 481237 638509 601475
0100101001010010: 473595 481237 638509 601475
0100101001010010: 473595 481237 638509 601475
0101101001001000: 473595 481237 562949 550254
0101101001001000: 473595 481237 562949 585028
0101101001001000: 473595 481237 562949 583351
0100101101000100: 473595 481237 562949 638509
0110100110000100: 473595 583351 550254 601475
0110100010010010: 473595 583351 550254 470405
0110100010010010: 473595 583351 550254 463267
0110100010010010: 473595 583351 550254 470405
0110100010010010: 473595 583351 550254 463267
0111100010001000: 473595 583351 481237 550254
0110100110000100: 473595 583351 481237 601475
0110100010010010: 473595 583351 481237 638509
0110100010010010: 473595 583351 481237 562949
0110100010010010: 473595 583351 481237 638509
0110100010010010: 473595 583351 481237 562949
0111100010001000: 473595 583351 550254 481237
0110100110000100: 473595 583351 550254 601475
0110100110000100: 473595 583351 550254 601475
0111100110001100: 473595 583351 550254 585028
0110100110000100: 473595 583351 550254 601475
0111100010001000: 473595 583351 481237 550254
0111100010001000: 473595 583351 481237 550254
0110100110000100: 473595 583351 481237 601475
0110100110000100: 473595 583351 481237 601475
0111100110001100: 473595 583351 481237 585028
0110100110000100: 473595 583351 481237 601475
0111101011001000: 473595 583351 585028 550254
0111101011001000: 473595 583351 585028 481237
0110101011010010: 473595 583351 585028 594338
0110101011010010: 473595 583351 585028 594338
0110101011010010: 473595 583351 585028 594338
0110101011010010: 473595 583351 585028 594338
0110101111000100: 473595 583351 585028 601475
0101101001001000: 473595 583351 601475 550254
0101101001001000: 473595 583351 601475 481237
0100101001010010: 473595 583351 601475 638509
0100101001010010: 473595 583351 601475 638509
0101101101001100: 473595 583351 601475 585028
0100101001010010: 473595 583351 601475 638509
0100101001010010: 473595 583351 601475 638509
0111101011001000: 473595 583351 585028 550254
0111101011001000: 473595 583351 585028 481237
0111101011001000: 473595 583351 585028 550254
0111101011001000: 473595 583351 585028 481237
0110101111000100: 473595 583351 585028 601475
0110101111000100: 473595 583351 585028 601475
0110101111000100: 473595 583351 585028 601475
0110101111000100: 473595 583351 585028 601475
0111101011001000: 473595 583351 585028 550254
0111101011001000: 473595 583351 585028 481237
0111101011001000: 473595 583351 585028 550254
0111101011001000: 473595 583351 585028 481237
0110101111000100: 473595 583351 585028 601475
0101101001001000: 583351 601475 638509 585028
0101101001001000: 583351 601475 638509 473595
0111101011001000: 583351 585028 473595 601475
0111101011001000: 583351 473595 585028 601475
0110100110000100: 583351 601475 585028 638509
0110100010010010: 583351 601475 585028 594338
0111100010011010: 583351 601475 585028 473595
0110100110000100: 583351 601475 473595 638509
0110100010010010: 583351 601475 473595 550254
0110100010010010: 583351 601475 473595 481237
0111100010011010: 583351 601475 473595 585028
0110100110000100: 583351 601475 585028 638509
0110100110000100: 583351 601475 585028 638509
0110100110000100: 583351 601475 585028 638509
0110100110000100: 583351 601475 473595 638509
0110100110000100: 583351 601475 473595 638509
0110100110000100: 583351 601475 473595 638509
0101101001001000: 583351 601475 638509 585028
0101101001001000: 583351 601475 638509 473595
0100101001010010: 583351 601475 638509 481237
0100101001010010: 583351 601475 638509 481237
0100101001010010: 583351 601475 638509 481237
0110100110000100: 583351 585028 601475 594338
0110100010010010: 583351 585028 601475 638509
0110100010010010: 583351 585028 601475 638509
0110100110000100: 583351 585028 601475 594338
0110100110000100: 583351 585028 601475 594338
0111100110001100: 583351 585028 601475 473595
0110100010010010: 583351 585028 601475 638509
0111101011001000: 583351 585028 473595 601475
0110101011010010: 583351 585028 473595 550254
0110101011010010: 583351 585028 473595 481237
0110101011010010: 583351 585028 473595 550254
0110101011010010: 583351 585028 473595 481237
0111101011001000: 583351 585028 473595 601475
0111101011001000: 583351 585028 473595 601475
0110100010010010: 583351 585028 601475 638509
0111101011001000: 583351 585028 473595 601475
0111101011001000: 583351 585028 473595 601475
0110101111000100: 583351 585028 473595 594338
0110101111000100: 583351 585028 473595 594338
0111101011001000: 583351 585028 473595 601475
0110101111000100: 583351 585028 473595 594338
0111101011001000: 583351 585028 473595 601475
0110100110000100: 583351 585028 601475 594338
0110100110000100: 583351 585028 601475 594338
0111100110001100: 583351 585028 601475 473595
0111100110001100: 583351 585028 601475 473595
0111100110001100: 583351 585028 601475 473595
0110100010010010: 583351 585028 601475 638509
0110100010010010: 583351 585028 601475 638509
0111101011001000: 583351 585028 473595 601475
0110100010010010: 583351 473595 601475 638509
0110100010010010: 583351 473595 601475 638509
0110100110000100: 583351 473595 601475 550254
0110100110000100: 583351 473595 601475 481237
0111100110001100: 583351 473595 601475 585028
0110100010010010: 583351 473595 601475 638509
0111101011001000: 583351 473595 585028 601475
0111101011001000: 583351 473595 585028 601475
0111101011001000: 583351 473595 585028 601475
0110100010010010: 583351 473595 601475 638509
0111101011001000: 583351 473595 585028 601475
0111101011001000: 583351 473595 585028 601475
0110101111000100: 583351 473595 585028 550254
0110101111000100: 583351 473595 585028 481237
0110101111000100: 583351 473595 585028 550254
0110101111000100: 583351 473595 585028 481237
0111101011001000: 583351 473595 585028 601475
0110101011010010: 583351 473595 585028 594338
0111101011001000: 583351 473595 585028 601475
0110100110000100: 583351 473595 601475 550254
0110100110000100: 583351 473595 601475 481237
0110100110000100: 583351 473595 601475 550254
0110100110000100: 583351 473595 601475 481237
0111100110001100: 583351 473595 601475 585028
0111100110001100: 583351 473595 601475 585028
0111100110001100: 583351 473595 601475 585028
0110100010010010: 583351 473595 601475 638509
0110100010010010: 583351 473595 601475 638509
0111101011001000: 583351 473595 585028 601475
0111101011001000: 583351 473595 585028 601475
0111101011001000: 583351 473595 585028 601475
0111101011001000: 583351 473595 585028 601475
0101101001001000: 481237 638509 601475 562949
0101101001001000: 481237 638509 601475 473595
0111100010001000: 481237 473595 562949 638509
0110100110000100: 481237 638509 562949 601475
0111100010001000: 481237 638509 473595 562949
0110100110000100: 481237 638509 473595 601475
0110100010010010: 481237 638509 473595 550254
0110100010010010: 481237 638509 473595 585028
0110100010010010: 481237 638509 473595 583351
0110100110000100: 481237 638509 562949 601475
0110100110000100: 481237 638509 562949 601475
0110100110000100: 481237 638509 562949 601475
0110100110000100: 481237 638509 473595 601475
0110100110000100: 481237 638509 473595 601475
0110100110000100: 481237 638509 473595 601475
0101101001001000: 481237 638509 601475 562949
0101101001001000: 481237 638509 601475 473595
0100101001010010: 481237 638509 601475 583351
0100101001010010: 481237 638509 601475 583351
0100101001010010: 481237 638509 601475 583351
0110100010010010: 481237 562949 638509 601475
0110100010010010: 481237 562949 638509 601475
0111100010001000: 481237 562949 473595 638509
0110100010010010: 481237 562949 473595 550254
0110100010010010: 481237 562949 473595 585028
0110100010010010: 481237 562949 473595 583351
0111100010001000: 481237 562949 638509 473595
0110100010010010: 481237 473595 638509 601475
0110100010010010: 481237 473595 638509 601475
0111100010001000: 481237 473595 562949 638509
0111100010001000: 481237 473595 638509 562949
0110100110000100: 481237 473595 638509 550254
0110100110000100: 481237 473595 638509 585028
0110100110000100: 481237 473595 638509 583351
0110100010010010: 481237 473595 638509 601475
0111100010001000: 481237 473595 562949 638509
0111100010001000: 481237 473595 562949 638509
0110100110000100: 481237 473595 562949 550254
0110100110000100: 481237 473595 562949 585028
0110100110000100: 481237 473595 562949 583351
0111100010001000: 481237 473595 638509 562949
0111100010001000: 481237 473595 638509 562949
0110100010010010: 481237 473595 638509 601475
0111100010001000: 481237 473595 562949 638509
0111100010001000: 481237 473595 562949 638509
0110100110000100: 481237 473595 638509 550254
0110100110000100: 481237 473595 638509 585028
0110100110000100: 481237 473595 638509 583351
0110100110000100: 481237 473595 638509 550254
0110100110000100: 481237 473595 638509 585028
0110100110000100: 481237 473595 638509 583351
0111100010001000: 481237 473595 638509 562949
0110100010010010: 481237 473595 638509 601475
0110100010010010: 481237 473595 638509 601475
0110100110000100: 481237 473595 562949 550254
0110100110000100: 481237 473595 562949 585028
0110100110000100: 481237 473595 562949 583351
0110100110000100: 481237 473595 562949 550254
0110100110000100: 481237 473595 562949 585028
0110100110000100: 481237 473595 562949 583351
0111100010001000: 481237 473595 562949 638509
0111100010001000: 481237 473595 562949 638509
0111101011001000: 585028 583351 473595 594338
0111101011001000: 585028 473595 583351 594338
0110100110000100: 585028 594338 583351 495561
0110100110000100: 585028 594338 583351 640636
0110100010010010: 585028 594338 583351 601475
0111100010011010: 585028 594338 583351 473595
0110100110000100: 585028 594338 473595 495561
0110100110000100: 585028 594338 473595 640636
0110100010010010: 585028 594338 473595 550254
0110100010010010: 585028 594338 473595 481237
0111100010011010: 585028 594338 473595 583351
0110100110000100: 585028 594338 583351 495561
0110100110000100: 585028 594338 583351 640636
0110100110000100: 585028 594338 583351 495561
0110100110000100: 585028 594338 583351 640636
0110100110000100: 585028 594338 473595 495561
0110100110000100: 585028 594338 473595 640636
0110100110000100: 585028 594338 473595 495561
0110100110000100: 585028 594338 473595 640636
0111100010011010: 585028 594338 583351 473595
0111100010011010: 585028 594338 583351 473595
0111100010011010: 585028 594338 473595 583351
0111100010011010: 585028 594338 473595 583351
0110100110000100: 585028 594338 583351 495561
0110100110000100: 585028 594338 583351 640636
0110100110000100: 585028 594338 583351 495561
0110100110000100: 585028 594338 583351 640636
0110100110000100: 585028 594338 583351 495561
0110100110000100: 585028 594338 583351 640636
0111100010011010: 585028 594338 583351 473595
0110100110000100: 585028 594338 473595 495561
0110100110000100: 585028 594338 473595 640636
0110100110000100: 585028 594338 473595 495561
0110100110000100: 585028 594338 473595 640636
0110100110000100: 585028 594338 473595 495561
0110100110000100: 585028 594338 473595 640636
0111100010011010: 585028 594338 473595 583351
0110100010010010: 585028 583351 594338 495561
0110100010010010: 585028 583351 594338 640636
0110100110000100: 585028 583351 594338 601475
0111100110001100: 585028 583351 594338 473595
0111101011001000: 585028 583351 473595 594338
0111101011001000: 585028 583351 473595 594338
0111101011001000: 585028 583351 473595 594338
0111101011001000: 585028 583351 473595 594338
0111101011001000: 585028 583351 473595 594338
0110101111000100: 585028 583351 473595 601475
0110101111000100: 585028 583351 473595 601475
0111101011001000: 585028 583351 473595 594338
0110101111000100: 585028 583351 473595 601475
0111101011001000: 585028 583351 473595 594338
0110100110000100: 585028 583351 594338 601475
0110100110000100: 585028 583351 594338 601475
0111100110001100: 585028 583351 594338 473595
0111100110001100: 585028 583351 594338 473595
0111100110001100: 585028 583351 594338 473595
0110100110000100: 585028 583351 594338 601475
0111100110001100: 585028 583351 594338 473595
0111101011001000: 585028 583351 473595 594338
0110100010010010: 585028 473595 594338 495561
0110100010010010: 585028 473595 594338 640636
0110100110000100: 585028 473595 594338 550254
0110100110000100: 585028 473595 594338 481237
0111100110001100: 585028 473595 594338 583351
0110100010010010: 585028 473595 594338 495561
0110100010010010: 585028 473595 594338 640636
0111101011001000: 585028 473595 583351 594338
0111101011001000: 585028 473595 583351 594338
0111101011001000: 585028 473595 583351 594338
0111101011001000: 585028 473595 583351 594338
0111101011001000: 585028 473595 583351 594338
0110101111000100: 585028 473595 583351 550254
0110101111000100: 585028 473595 583351 481237
0110101111000100: 585028 473595 583351 550254
0110101111000100: 585028 473595 583351 481237
0111101011001000: 585028 473595 583351 594338
0110101011010010: 585028 473595 583351 601475
0111101011001000: 585028 473595 583351 594338
0110100110000100: 585028 473595 594338 550254
0110100110000100: 585028 473595 594338 481237
0110100110000100: 585028 473595 594338 550254
0110100110000100: 585028 473595 594338 481237
0111100110001100: 585028 473595 594338 583351
0111100110001100: 585028 473595 594338 583351
0111100110001100: 585028 473595 594338 583351
0110100010010010: 585028 473595 594338 495561
0110100010010010: 585028 473595 594338 640636
0111100110001100: 585028 473595 594338 583351
0111101011001000: 585028 473595 583351 594338
0111101011001000: 585028 473595 583351 594338
0111101011001000: 585028 473595 583351 594338
0111101011001000: 585028 473595 583351 594338
0111100010001000: 594338 640636 495561 585028
0101101001001000: 594338 640636 463267 585028
0101101001001000: 594338 640636 463267 495561
0110100010010010: 594338 585028 495561 620438
0110100010010010: 594338 585028 495561 498341
0110100010010010: 594338 585028 495561 631515
0111100010001000: 594338 585028 640636 495561
0110100010010010: 594338 585028 640636 463267
0110100010010010: 594338 585028 640636 463267
0110100110000100: 594338 585028 495561 583351
0110100110000100: 594338 585028 495561 473595
0110100110000100: 594338 585028 640636 583351
0110100110000100: 594338 585028 640636 473595
0110100010010010: 594338 585028 640636 463267
0111100010001000: 594338 585028 495561 640636
0111100010001000: 594338 585028 495561 640636
0111100010001000: 594338 585028 495561 640636
0111100010001000: 594338 585028 640636 495561
0111100010001000: 594338 585028 640636 495561
0110100010010010: 594338 585028 640636 463267
0110100110000100: 594338 585028 495561 583351
0110100110000100: 594338 585028 495561 473595
0110100110000100: 594338 585028 495561 583351
0110100110000100: 594338 585028 495561 473595
0111100010001000: 594338 585028 495561 640636
0110100110000100: 594338 585028 495561 583351
0110100110000100: 594338 585028 495561 473595
0110100110000100: 594338 585028 640636 583351
0110100110000100: 594338 585028 640636 473595
0110100110000100: 594338 585028 640636 583351
0110100110000100: 594338 585028 640636 473595
0111100010001000: 594338 585028 640636 495561
0111100010001000: 594338 585028 640636 495561
0110100010010010: 594338 585028 640636 463267
0110100010010010: 594338 585028 640636 463267
0110100010010010: 594338 495561 585028 583351
0110100010010010: 594338 495561 585028 473595
0111100010001000: 594338 495561 640636 585028
0110100010010010: 594338 495561 640636 463267
0110100010010010: 594338 495561 640636 463267
0111100010001000: 594338 495561 585028 640636
0110100110000100: 594338 495561 585028 620438
0110100110000100: 594338 495561 585028 498341
0110100110000100: 594338 495561 585028 631515
0110100010010010: 594338 495561 585028 583351
0110100010010010: 594338 495561 585028 473595
0110100110000100: 594338 495561 640636 620438
0110100110000100: 594338 495561 640636 498341
0110100110000100: 594338 495561 640636 631515
0110100010010010: 594338 495561 640636 463267
0111100010001000: 594338 495561 585028 640636
0111100010001000: 594338 495561 585028 640636
0111100010001000: 594338 495561 585028 640636
0111100010001000: 594338 495561 640636 585028
0111100010001000: 594338 495561 640636 585028
0110100010010010: 594338 495561 640636 463267
0110100110000100: 594338 495561 585028 620438
0110100110000100: 594338 495561 585028 498341
0110100110000100: 594338 495561 585028 631515
0110100110000100: 594338 495561 585028 620438
0110100110000100: 594338 495561 585028 498341
0110100110000100: 594338 495561 585028 631515
0111100010001000: 594338 495561 585028 640636
0110100010010010: 594338 495561 585028 583351
0110100010010010: 594338 495561 585028 473595
0110100110000100: 594338 495561 640636 620438
0110100110000100: 594338 495561 640636 498341
0110100110000100: 594338 495561 640636 631515
0110100110000100: 594338 495561 640636 620438
0110100110000100: 594338 495561 640636 498341
0110100110000100: 594338 495561 640636 631515
0111100010001000: 594338 495561 640636 585028
0111100010001000: 594338 495561 640636 585028
0110100010010010: 594338 495561 640636 463267
0110100010010010: 594338 495561 640636 463267
0110100010010010: 594338 640636 585028 583351
0110100010010010: 594338 640636 585028 473595
0111100010001000: 594338 640636 495561 585028
0110100010010010: 594338 640636 495561 620438
0110100010010010: 594338 640636 495561 498341
0110100010010010: 594338 640636 495561 631515
0111100010001000: 594338 640636 585028 495561
0110100110000100: 594338 640636 585028 463267
0110100110000100: 594338 640636 585028 463267
0111100010001000: 594338 640636 495561 585028
0111100010001000: 594338 640636 495561 585028
0110100110000100: 594338 640636 495561 463267
0110100110000100: 594338 640636 495561 463267
0101101001001000: 594338 640636 463267 585028
0101101001001000: 594338 640636 463267 495561
0100101001010010: 594338 640636 463267 550254
0100101001010010: 594338 640636 463267 631515
0100101001010010: 594338 640636 463267 550254
0100101001010010: 594338 640636 463267 631515
0101101001001000: 594338 640636 463267 585028
0101101001001000: 594338 640636 463267 495561
0101101001001000: 594338 640636 463267 585028
0101101001001000: 594338 640636 463267 495561
0110100110000100: 638509 601475 481237 583351
0110100010010010: 638509 601475 481237 562949
0110100010010010: 638509 601475 481237 473595
0110100110000100: 638509 601475 481237 583351
0110100110000100: 638509 601475 481237 583351
0110100110000100: 638509 601475 481237 583351
0110100110000100: 638509 601475 481237 583351
0110100110000100: 638509 601475 481237 583351
0110100010010010: 638509 481237 601475 583351
0110100110000100: 638509 481237 601475 562949
0110100110000100: 638509 481237 601475 473595
0110100010010010: 638509 481237 601475 583351
0110100110000100: 638509 481237 601475 562949
0110100110000100: 638509 481237 601475 473595
0110100110000100: 638509 481237 601475 562949
0110100110000100: 638509 481237 601475 473595
0110100010010010: 638509 481237 601475 583351
0110100010010010: 601475 638509 583351 585028
0110100010010010: 601475 638509 583351 473595
0110100110000100: 601475 638509 583351 481237
0110100110000100: 601475 638509 583351 481237
0110100110000100: 601475 638509 583351 481237
0110100110000100: 601475 638509 583351 481237
0110100010010010: 601475 583351 638509 481237
0110100110000100: 601475 583351 638509 585028
0110100110000100: 601475 583351 638509 473595
0110100010010010: 601475 583351 638509 481237
0110100110000100: 601475 583351 638509 585028
0110100110000100: 601475 583351 638509 473595
0110100110000100: 601475 583351 638509 585028
0110100110000100: 601475 583351 638509 473595
0110100010010010: 601475 583351 638509 481237
0110100110010110: 644679 498341 620438 495561
0110100010010010: 644679 620438 498341 640653
0110100110010110: 644679 620438 498341 495561
0110100110010110: 644679 620438 498341 495561
0110100110010110: 644679 620438 498341 495561
0110100110010110: 644679 498341 620438 495561
0110100110000100: 644679 498341 620438 640653
0110100110010110: 644679 498341 620438 495561
0110100110010110: 644679 498341 620438 495561
0110100110000100: 644679 498341 620438 640653
0110100110000100: 644679 498341 620438 640653
0110100110010110: 644679 498341 620438 495561
0101101001001000: 550254 470405 640653 473595
0101101001001000: 550254 470405 640653 463267
0111100010001000: 550254 463267 470405 473595
0110100010010010: 550254 473595 470405 640653
0110100010010010: 550254 473595 470405 640653
0111100010001000: 550254 473595 463267 470405
0110100010010010: 550254 473595 463267 631515
0110100010010010: 550254 473595 463267 640636
0110100110000100: 550254 473595 470405 585028
0110100110000100: 550254 473595 470405 481237
0110100110000100: 550254 473595 470405 583351
0110100010010010: 550254 473595 470405 640653
0110100110000100: 550254 473595 463267 585028
0110100110000100: 550254 473595 463267 481237
0110100110000100: 550254 473595 463267 583351
0110100010010010: 550254 473595 463267 631515
0110100010010010: 550254 473595 463267 640636
0111100010001000: 550254 473595 470405 463267
0111100010001000: 550254 473595 470405 463267
0110100010010010: 550254 473595 470405 640653
0111100010001000: 550254 473595 463267 470405
0111100010001000: 550254 473595 463267 470405
0111100010001000: 550254 473595 463267 470405
0110100110000100: 550254 473595 470405 585028
0110100110000100: 550254 473595 470405 481237
0110100110000100: 550254 473595 470405 583351
0110100110000100: 550254 473595 470405 585028
0110100110000100: 550254 473595 470405 481237
0110100110000100: 550254 473595 470405 583351
0111100010001000: 550254 473595 470405 463267
0110100010010010: 550254 473595 470405 640653
0110100010010010: 550254 473595 470405 640653
0110100110000100: 550254 473595 463267 585028
0110100110000100: 550254 473595 463267 481237
0110100110000100: 550254 473595 463267 583351
0110100110000100: 550254 473595 463267 585028
0110100110000100: 550254 473595 463267 481237
0110100110000100: 550254 473595 463267 583351
0111100010001000: 550254 473595 463267 470405
0111100010001000: 550254 473595 463267 470405
0110100010010010: 550254 473595 463267 631515
0110100010010010: 550254 473595 463267 640636
0110100010010010: 550254 470405 473595 585028
0110100010010010: 550254 470405 473595 481237
0110100010010010: 550254 470405 473595 583351
0111100010001000: 550254 470405 463267 473595
0110100010010010: 550254 470405 463267 631515
0110100010010010: 550254 470405 463267 640636
0111100010001000: 550254 470405 473595 463267
0110100110000100: 550254 470405 473595 640653
0110100110000100: 550254 470405 473595 640653
0110100110000100: 550254 470405 463267 640653
0110100110000100: 550254 470405 463267 640653
0101101001001000: 550254 470405 640653 473595
0101101001001000: 550254 470405 640653 463267
0100101001010010: 550254 470405 640653 498341
0100101001010010: 550254 470405 640653 631515
0100101001010010: 550254 470405 640653 498341
0100101001010010: 550254 470405 640653 631515
0101101001001000: 550254 470405 640653 473595
0101101001001000: 550254 470405 640653 463267
0101101001001000: 550254 470405 640653 473595
0110100010010010: 550254 463267 473595 585028
0110100010010010: 550254 463267 473595 481237
0110100010010010: 550254 463267 473595 583351
0111100010001000: 550254 463267 470405 473595
0110100010010010: 550254 463267 470405 640653
0110100010010010: 550254 463267 470405 640653
0111100010001000: 550254 463267 473595 470405
0110100110000100: 550254 463267 473595 631515
0110100110000100: 550254 463267 473595 640636
0111100010001000: 550254 463267 470405 473595
0111100010001000: 550254 463267 470405 473595
0110100110000100: 550254 463267 470405 631515
0110100110000100: 550254 463267 470405 640636
0110100010010010: 550254 463267 470405 640653
0111100010001000: 550254 463267 473595 470405
0111100010001000: 550254 463267 473595 470405
0111100010001000: 550254 463267 473595 470405
0111100010001000: 550254 463267 470405 473595
0111100010001000: 550254 463267 470405 473595
0110100010010010: 550254 463267 470405 640653
0110100110000100: 550254 463267 473595 631515
0110100110000100: 550254 463267 473595 640636
0110100110000100: 550254 463267 473595 631515
0110100110000100: 550254 463267 473595 640636
0111100010001000: 550254 463267 473595 470405
0110100110000100: 550254 463267 473595 631515
0110100110000100: 550254 463267 473595 640636
0110100110000100: 550254 463267 470405 631515
0110100110000100: 550254 463267 470405 640636
0110100110000100: 550254 463267 470405 631515
0110100110000100: 550254 463267 470405 640636
0111100010001000: 550254 463267 470405 473595
0111100010001000: 550254 463267 470405 473595
0110100010010010: 550254 463267 470405 640653
0110100010010010: 550254 463267 470405 640653
