Vertex,0101101101001100,0111100110001100,0110100110010110,0101101101011110,0111100010011010,0110100110000100,0100101101000100,0110101011010010,0111101011011010,0100101001010010,0111101111011110,0110100010010010,0111101011001000,0101101001001000,0101101001011010,0111100010001000,0111100110011110,0111101111001100,0110101111000100,0110101111010110
587962,18.0,43.0,140.0,0.0,16.0,344.0,12.0,51.0,0.0,63.0,0.0,204.0,113.0,100.0,56.0,238.0,0.0,0.0,63.0,0.0
530437,50.0,191.0,657.0,14.0,108.0,858.0,52.0,189.0,270.0,119.0,155.0,433.0,637.0,261.0,238.0,865.0,14.0,324.0,293.0,264.0
581336,12.0,75.0,140.0,7.0,54.0,391.0,18.0,80.0,99.0,48.0,0.0,212.0,303.0,106.0,56.0,358.0,7.0,108.0,132.0,95.0
472523,26.0,140.0,105.0,5.0,90.0,427.0,6.0,131.0,119.0,53.0,155.0,221.0,508.0,112.0,44.0,366.0,7.0,144.0,221.0,101.0
626122,16.0,85.0,276.0,9.0,58.0,448.0,16.0,86.0,238.0,49.0,0.0,229.0,329.0,119.0,85.0,578.0,14.0,288.0,144.0,216.0
554368,94.0,412.0,210.0,23.0,262.0,624.0,8.0,439.0,554.0,32.0,155.0,320.0,1530.0,179.0,94.0,772.0,32.0,666.0,689.0,503.0
507302,10.0,21.0,35.0,0.0,6.0,240.0,12.0,29.0,0.0,39.0,0.0,138.0,51.0,71.0,14.0,78.0,0.0,0.0,31.0,0.0
634802,20.0,92.0,136.0,7.0,62.0,498.0,12.0,100.0,158.0,64.0,0.0,258.0,350.0,155.0,52.0,494.0,6.0,198.0,158.0,152.0
655715,24.0,68.0,379.0,0.0,26.0,494.0,24.0,62.0,0.0,71.0,0.0,263.0,192.0,140.0,143.0,446.0,0.0,0.0,92.0,0.0
522491,16.0,80.0,173.0,3.0,56.0,338.0,4.0,88.0,98.0,36.0,0.0,173.0,316.0,89.0,62.0,454.0,4.0,126.0,140.0,84.0
502542,14.0,35.0,35.0,0.0,14.0,309.0,4.0,39.0,0.0,33.0,0.0,155.0,99.0,90.0,16.0,190.0,0.0,0.0,51.0,0.0
570276,18.0,129.0,140.0,5.0,88.0,358.0,2.0,109.0,183.0,33.0,155.0,181.0,485.0,80.0,38.0,374.0,13.0,216.0,203.0,148.0
511282,28.0,126.0,239.0,7.0,84.0,695.0,36.0,138.0,162.0,139.0,0.0,380.0,482.0,215.0,93.0,508.0,8.0,198.0,216.0,159.0
480792,4.0,59.0,35.0,6.0,50.0,269.0,10.0,56.0,98.0,14.0,0.0,119.0,262.0,71.0,14.0,310.0,7.0,108.0,108.0,95.0
505586,18.0,49.0,35.0,0.0,16.0,304.0,4.0,47.0,0.0,36.0,0.0,151.0,133.0,91.0,16.0,125.0,0.0,0.0,65.0,0.0
629564,8.0,58.0,35.0,0.0,46.0,291.0,0.0,62.0,36.0,34.0,0.0,153.0,248.0,89.0,16.0,336.0,0.0,54.0,106.0,30.0
581720,8.0,58.0,0.0,0.0,46.0,248.0,0.0,62.0,36.0,13.0,0.0,123.0,249.0,75.0,0.0,336.0,0.0,54.0,106.0,30.0
490098,12.0,87.0,348.0,6.0,64.0,448.0,28.0,80.0,165.0,44.0,0.0,219.0,338.0,99.0,111.0,484.0,16.0,180.0,142.0,135.0
640914,8.0,16.0,70.0,0.0,4.0,247.0,16.0,24.0,0.0,24.0,0.0,156.0,42.0,72.0,32.0,96.0,0.0,0.0,24.0,0.0
499700,4.0,8.0,0.0,0.0,2.0,105.0,0.0,12.0,0.0,0.0,0.0,56.0,21.0,30.0,0.0,0.0,0.0,0.0,12.0,0.0
graph,102.0,458.0,797.0,23.0,288.0,1984.0,66.0,471.0,554.0,236.0,155.0,1036.0,1672.0,561.0,295.0,1852.0,32.0,666.0,749.0,503.0
