Vertex,0110010010100010100100110,0110010011100110110001100,0111010101110001000101010,0111010110110011100000100,0111110110110011100010100,0111110000100001000010000,0111010100110001000100010,0111110100110001000010000,0110010011100100110001000,0111110110110001100010000,0111010101110001000001000,0110010011100000100001000,0110010010100010100000100
561428,1.0,1.0,2.0,4.0,1.0,3.0,11.0,8.0,9.0,5.0,14.0,31.0,18.0
489744,1.0,0.0,0.0,2.0,1.0,2.0,7.0,6.0,3.0,3.0,12.0,27.0,18.0
527555,0.0,1.0,2.0,2.0,1.0,2.0,4.0,5.0,5.0,2.0,4.0,13.0,13.0
481935,1.0,0.0,0.0,1.0,0.0,0.0,2.0,1.0,0.0,0.0,4.0,15.0,18.0
548912,0.0,0.0,0.0,1.0,0.0,0.0,1.0,1.0,0.0,0.0,4.0,14.0,6.0
641266,0.0,0.0,2.0,4.0,1.0,1.0,6.0,4.0,1.0,5.0,3.0,15.0,10.0
497505,1.0,1.0,1.0,0.0,0.0,3.0,5.0,5.0,7.0,2.0,4.0,23.0,16.0
635014,0.0,1.0,1.0,0.0,0.0,3.0,2.0,5.0,6.0,2.0,4.0,16.0,7.0
618799,0.0,0.0,0.0,4.0,1.0,1.0,8.0,5.0,3.0,5.0,13.0,12.0,14.0
620846,0.0,1.0,2.0,1.0,0.0,0.0,5.0,0.0,9.0,0.0,1.0,8.0,17.0
578671,1.0,0.0,0.0,0.0,0.0,0.0,4.0,0.0,2.0,0.0,0.0,14.0,17.0
584902,0.0,0.0,0.0,1.0,0.0,0.0,0.0,0.0,0.0,1.0,7.0,7.0,6.0
graph,1.0,1.0,2.0,4.0,1.0,3.0,11.0,8.0,9.0,5.0,14.0,39.0,32.0
