Vertex,0111010101110001000101010,0111010101110001000001000,0110010010100010100000100,0111110100110001000110010,0110010011100100110001000,0111010100110001000100010,0110010011100000100001000,0111110100110001000010000
475061,0.0,4.0,8.0,1.0,1.0,7.0,9.0,3.0
570191,2.0,5.0,9.0,1.0,3.0,12.0,19.0,5.0
623415,0.0,3.0,7.0,0.0,0.0,2.0,2.0,0.0
457466,1.0,3.0,2.0,1.0,0.0,6.0,9.0,3.0
470867,2.0,2.0,5.0,0.0,3.0,9.0,19.0,5.0
464389,2.0,4.0,5.0,1.0,3.0,6.0,6.0,3.0
591592,0.0,4.0,1.0,1.0,1.0,6.0,7.0,3.0
654611,0.0,0.0,3.0,0.0,0.0,1.0,0.0,0.0
649067,0.0,1.0,2.0,0.0,1.0,2.0,11.0,1.0
517656,1.0,1.0,3.0,0.0,0.0,7.0,8.0,1.0
521012,2.0,3.0,5.0,0.0,3.0,7.0,5.0,1.0
graph,2.0,6.0,10.0,1.0,3.0,13.0,19.0,5.0
