0111101011001000: 586419 615464 503811 554368
0111101011001000: 586419 615464 503811 473224
0111101011001000: 586419 503811 615464 554368
0111101011001000: 586419 503811 615464 473224
0101101001001000: 586419 503811 552381 554368
0101101001001000: 586419 503811 552381 473224
0101101101001100: 586419 503811 552381 615464
0111100010001000: 586419 473224 554368 615464
0110100110010110: 586419 473224 554368 516908
0111100010001000: 586419 473224 503811 554368
0101101001001000: 586419 473224 475419 615464
0101101001001000: 586419 473224 475419 554368
0101101001001000: 586419 473224 475419 503811
0101101001001000: 586419 473224 516908 615464
0101101001001000: 586419 473224 516908 503811
0100101101000100: 586419 473224 516908 475419
0110100010010010: 586419 615464 554368 516908
0110100010010010: 586419 615464 554368 497405
0110100010010010: 586419 615464 554368 624834
0110100010010010: 586419 615464 554368 533613
0110100010010010: 586419 615464 554368 502659
0111100010001000: 586419 615464 473224 554368
0110100010010010: 586419 615464 473224 475419
0110100010010010: 586419 615464 473224 516908
0110100010010010: 586419 615464 473224 475419
0110100010010010: 586419 615464 473224 516908
0111100110001100: 586419 615464 554368 503811
0111100110001100: 586419 615464 473224 503811
0111101011001000: 586419 615464 503811 554368
0111101011001000: 586419 615464 503811 473224
0110101011010010: 586419 615464 503811 552381
0110101011010010: 586419 615464 503811 552381
0110101011010010: 586419 615464 503811 552381
0110101011010010: 586419 615464 503811 552381
0111101011001000: 586419 615464 503811 554368
0111101011001000: 586419 615464 503811 473224
0111101011001000: 586419 615464 503811 554368
0111101011001000: 586419 615464 503811 473224
0110100110000100: 586419 554368 615464 516908
0110100110000100: 586419 554368 615464 497405
0110100110000100: 586419 554368 615464 624834
0110100110000100: 586419 554368 615464 533613
0110100110000100: 586419 554368 615464 502659
0111100010011010: 586419 554368 615464 503811
0110100110000100: 586419 554368 503811 516908
0110100110000100: 586419 554368 503811 497405
0110100110000100: 586419 554368 503811 624834
0110100110000100: 586419 554368 503811 533613
0110100110000100: 586419 554368 503811 502659
0110100010010010: 586419 554368 503811 552381
0111100010011010: 586419 554368 503811 615464
0110100010010010: 586419 554368 503811 552381
0111100010001000: 586419 554368 473224 615464
0111100010001000: 586419 554368 473224 503811
0110100110000100: 586419 554368 473224 497405
0110100110000100: 586419 554368 473224 624834
0110100110000100: 586419 554368 473224 533613
0110100110000100: 586419 554368 473224 502659
0110100010010010: 586419 554368 473224 475419
0110100010010010: 586419 554368 473224 475419
0110100110010110: 586419 554368 473224 516908
0110100110010110: 586419 554368 473224 516908
0111100010001000: 586419 554368 615464 473224
0110100110000100: 586419 554368 615464 516908
0110100110000100: 586419 554368 615464 497405
0110100110000100: 586419 554368 615464 624834
0110100110000100: 586419 554368 615464 533613
0110100110000100: 586419 554368 615464 502659
0110100110000100: 586419 554368 615464 516908
0110100110000100: 586419 554368 615464 497405
0110100110000100: 586419 554368 615464 624834
0110100110000100: 586419 554368 615464 533613
0110100110000100: 586419 554368 615464 502659
0110100110000100: 586419 554368 503811 516908
0110100110000100: 586419 554368 503811 497405
0110100110000100: 586419 554368 503811 624834
0110100110000100: 586419 554368 503811 533613
0110100110000100: 586419 554368 503811 502659
0110100110000100: 586419 554368 503811 516908
0110100110000100: 586419 554368 503811 497405
0110100110000100: 586419 554368 503811 624834
0110100110000100: 586419 554368 503811 533613
0110100110000100: 586419 554368 503811 502659
0110100010010010: 586419 554368 503811 552381
0110100110000100: 586419 554368 473224 497405
0110100110000100: 586419 554368 473224 624834
0110100110000100: 586419 554368 473224 533613
0110100110000100: 586419 554368 473224 502659
0110100110000100: 586419 554368 473224 497405
0110100110000100: 586419 554368 473224 624834
0110100110000100: 586419 554368 473224 533613
0110100110000100: 586419 554368 473224 502659
0110100010010010: 586419 554368 473224 475419
0110100110010110: 586419 554368 473224 516908
0111100010001000: 586419 554368 615464 473224
0111100010001000: 586419 554368 615464 473224
0111100010011010: 586419 554368 615464 503811
0111100010011010: 586419 554368 615464 503811
0111100010001000: 586419 554368 503811 473224
0111100010001000: 586419 554368 503811 473224
0111100010011010: 586419 554368 503811 615464
0111100010011010: 586419 554368 503811 615464
0110100010010010: 586419 554368 503811 552381
0111100010011010: 586419 554368 503811 615464
0111100010001000: 586419 554368 473224 615464
0111100010001000: 586419 554368 473224 503811
0111100010001000: 586419 554368 473224 615464
0111100010001000: 586419 554368 473224 503811
0110100010010010: 586419 554368 473224 475419
0110100110000100: 586419 554368 615464 516908
0110100110000100: 586419 554368 615464 497405
0110100110000100: 586419 554368 615464 624834
0110100110000100: 586419 554368 615464 533613
0110100110000100: 586419 554368 615464 502659
0110100110000100: 586419 554368 615464 516908
0110100110000100: 586419 554368 615464 497405
0110100110000100: 586419 554368 615464 624834
0110100110000100: 586419 554368 615464 533613
0110100110000100: 586419 554368 615464 502659
0111100010001000: 586419 554368 615464 473224
0111100010011010: 586419 554368 615464 503811
0110100110000100: 586419 554368 503811 516908
0110100110000100: 586419 554368 503811 497405
0110100110000100: 586419 554368 503811 624834
0110100110000100: 586419 554368 503811 533613
0110100110000100: 586419 554368 503811 502659
0110100110000100: 586419 554368 503811 516908
0110100110000100: 586419 554368 503811 497405
0110100110000100: 586419 554368 503811 624834
0110100110000100: 586419 554368 503811 533613
0110100110000100: 586419 554368 503811 502659
0111100010001000: 586419 554368 503811 473224
0110100010010010: 586419 554368 503811 552381
0110100010010010: 586419 554368 503811 552381
0111100010011010: 586419 554368 503811 615464
0110100110000100: 586419 554368 473224 497405
0110100110000100: 586419 554368 473224 624834
0110100110000100: 586419 554368 473224 533613
0110100110000100: 586419 554368 473224 502659
0110100110000100: 586419 554368 473224 497405
0110100110000100: 586419 554368 473224 624834
0110100110000100: 586419 554368 473224 533613
0110100110000100: 586419 554368 473224 502659
0111100010001000: 586419 554368 473224 615464
0111100010001000: 586419 554368 473224 503811
0111100010001000: 586419 554368 473224 615464
0111100010001000: 586419 554368 473224 503811
0110100010010010: 586419 554368 473224 475419
0110100110010110: 586419 554368 473224 516908
0110100010010010: 586419 554368 473224 475419
0110100110010110: 586419 554368 473224 516908
0110100110000100: 586419 503811 554368 552381
0110100010010010: 586419 503811 554368 516908
0110100010010010: 586419 503811 554368 497405
0110100010010010: 586419 503811 554368 624834
0110100010010010: 586419 503811 554368 533613
0110100010010010: 586419 503811 554368 502659
0111100010001000: 586419 503811 473224 554368
0110100110000100: 586419 503811 473224 552381
0110100010010010: 586419 503811 473224 475419
0110100010010010: 586419 503811 473224 516908
0110100010010010: 586419 503811 473224 475419
0110100010010010: 586419 503811 473224 516908
0111100010001000: 586419 503811 554368 473224
0110100110000100: 586419 503811 554368 552381
0110100110000100: 586419 503811 554368 552381
0111100110001100: 586419 503811 554368 615464
0110100110000100: 586419 503811 554368 552381
0110100110000100: 586419 503811 473224 552381
0110100110000100: 586419 503811 473224 552381
0111100110001100: 586419 503811 473224 615464
0110100110000100: 586419 503811 473224 552381
0111101011001000: 586419 503811 615464 554368
0111101011001000: 586419 503811 615464 473224
0101101001001000: 586419 503811 552381 554368
0101101001001000: 586419 503811 552381 473224
0100101001010010: 586419 503811 552381 533613
0100101001010010: 586419 503811 552381 533613
0101101101001100: 586419 503811 552381 615464
0100101001010010: 586419 503811 552381 533613
0100101001010010: 586419 503811 552381 533613
0111101011001000: 586419 503811 615464 554368
0111101011001000: 586419 503811 615464 473224
0111101011001000: 586419 503811 615464 554368
0111101011001000: 586419 503811 615464 473224
0110101111000100: 586419 503811 615464 552381
0110101111000100: 586419 503811 615464 552381
0110101111000100: 586419 503811 615464 552381
0111101011001000: 586419 503811 615464 554368
0111101011001000: 586419 503811 615464 473224
0111101011001000: 586419 503811 615464 554368
0111101011001000: 586419 503811 615464 473224
0110101111000100: 586419 503811 615464 552381
0110100110000100: 586419 473224 615464 475419
0110100110000100: 586419 473224 615464 516908
0111100010011010: 586419 473224 615464 503811
0111100010001000: 586419 473224 554368 615464
0110100110000100: 586419 473224 554368 475419
0110100010010010: 586419 473224 554368 497405
0110100010010010: 586419 473224 554368 624834
0110100010010010: 586419 473224 554368 533613
0110100010010010: 586419 473224 554368 502659
0110100110010110: 586419 473224 554368 516908
0110100110010110: 586419 473224 554368 516908
0111100010001000: 586419 473224 503811 554368
0110100110000100: 586419 473224 503811 475419
0110100110000100: 586419 473224 503811 516908
0110100010010010: 586419 473224 503811 552381
0111100010011010: 586419 473224 503811 615464
0110100010010010: 586419 473224 503811 552381
0111100010001000: 586419 473224 615464 554368
0110100110000100: 586419 473224 615464 475419
0110100110000100: 586419 473224 615464 516908
0110100110000100: 586419 473224 615464 475419
0110100110000100: 586419 473224 615464 516908
0110100110000100: 586419 473224 615464 475419
0110100110000100: 586419 473224 615464 516908
0111100010001000: 586419 473224 554368 615464
0111100010001000: 586419 473224 554368 503811
0111100010001000: 586419 473224 554368 615464
0110100110000100: 586419 473224 554368 475419
0110100110000100: 586419 473224 554368 475419
0110100110000100: 586419 473224 554368 475419
0110100110010110: 586419 473224 554368 516908
0110100110010110: 586419 473224 554368 516908
0110100110010110: 586419 473224 554368 516908
0111100010001000: 586419 473224 503811 554368
0111100010001000: 586419 473224 503811 554368
0110100110000100: 586419 473224 503811 475419
0110100110000100: 586419 473224 503811 516908
0110100110000100: 586419 473224 503811 475419
0110100110000100: 586419 473224 503811 516908
0110100110000100: 586419 473224 503811 475419
0110100110000100: 586419 473224 503811 516908
0101101001001000: 586419 473224 475419 615464
0101101001001000: 586419 473224 475419 554368
0101101001001000: 586419 473224 475419 503811
0100101001010010: 586419 473224 475419 624834
0100101001010010: 586419 473224 475419 624834
0100101001010010: 586419 473224 475419 624834
0100101001010010: 586419 473224 475419 624834
0101101001001000: 586419 473224 516908 615464
0101101001001000: 586419 473224 516908 503811
0100101101000100: 586419 473224 516908 475419
0101101001011010: 586419 473224 516908 554368
0101101001011010: 586419 473224 516908 554368
0101101001011010: 586419 473224 516908 554368
0101101001011010: 586419 473224 516908 554368
0101101001011010: 586419 473224 516908 554368
0101101001001000: 473224 475419 624834 516908
0101101001001000: 473224 475419 624834 586419
0101101001001000: 473224 516908 554368 475419
0111100010001000: 473224 586419 516908 475419
0110100110010110: 473224 586419 516908 554368
0110100110000100: 473224 475419 516908 624834
0110100010010010: 473224 475419 516908 554368
0110100010010010: 473224 475419 516908 554368
0111100010001000: 473224 475419 586419 516908
0110100110000100: 473224 475419 586419 624834
0110100010010010: 473224 475419 586419 615464
0110100010010010: 473224 475419 586419 554368
0110100010010010: 473224 475419 586419 503811
0110100110000100: 473224 475419 516908 624834
0110100110000100: 473224 475419 516908 624834
0110100110000100: 473224 475419 516908 624834
0110100110000100: 473224 475419 586419 624834
0110100110000100: 473224 475419 586419 624834
0110100110000100: 473224 475419 586419 624834
0101101001001000: 473224 475419 624834 516908
0101101001001000: 473224 475419 624834 586419
0100101001010010: 473224 475419 624834 497405
0100101001010010: 473224 475419 624834 554368
0100101001010010: 473224 475419 624834 497405
0100101001010010: 473224 475419 624834 554368
0101101001001000: 473224 475419 624834 516908
0101101001001000: 473224 475419 624834 586419
0110100110000100: 473224 516908 475419 554368
0110100010010010: 473224 516908 475419 624834
0110100010010010: 473224 516908 475419 624834
0111100010001000: 473224 516908 586419 475419
0110100010010010: 473224 516908 586419 615464
0110100010010010: 473224 516908 586419 503811
0110100110010110: 473224 516908 586419 554368
0110100110010110: 473224 516908 586419 554368
0111100010001000: 473224 516908 475419 586419
0110100110000100: 473224 516908 475419 554368
0110100110000100: 473224 516908 475419 554368
0110100110000100: 473224 516908 475419 554368
0110100110010110: 473224 516908 586419 554368
0101101001001000: 473224 516908 554368 475419
0100101001010010: 473224 516908 554368 497405
0100101001010010: 473224 516908 554368 624834
0100101001010010: 473224 516908 554368 533613
0100101001010010: 473224 516908 554368 502659
0100101001010010: 473224 516908 554368 497405
0100101001010010: 473224 516908 554368 624834
0100101001010010: 473224 516908 554368 533613
0100101001010010: 473224 516908 554368 502659
0101101001011010: 473224 516908 554368 586419
0101101001011010: 473224 516908 554368 586419
0101101001011010: 473224 516908 554368 586419
0101101001001000: 473224 516908 554368 475419
0101101001001000: 473224 516908 554368 475419
0110100010010010: 473224 586419 475419 624834
0110100010010010: 473224 586419 475419 624834
0111100010001000: 473224 586419 516908 475419
0110100110010110: 473224 586419 516908 554368
0111100010001000: 473224 586419 475419 516908
0110100110000100: 473224 586419 475419 615464
0110100110000100: 473224 586419 475419 554368
0110100110000100: 473224 586419 475419 503811
0110100010010010: 473224 586419 475419 624834
0111100010001000: 473224 586419 516908 475419
0111100010001000: 473224 586419 516908 475419
0110100110000100: 473224 586419 516908 615464
0110100110000100: 473224 586419 516908 503811
0110100110010110: 473224 586419 516908 554368
0110100110010110: 473224 586419 516908 554368
0111100010001000: 473224 586419 475419 516908
0111100010001000: 473224 586419 475419 516908
0110100010010010: 473224 586419 475419 624834
0111100010001000: 473224 586419 516908 475419
0111100010001000: 473224 586419 516908 475419
0110100110000100: 473224 586419 475419 615464
0110100110000100: 473224 586419 475419 554368
0110100110000100: 473224 586419 475419 503811
0110100110000100: 473224 586419 475419 615464
0110100110000100: 473224 586419 475419 554368
0110100110000100: 473224 586419 475419 503811
0111100010001000: 473224 586419 475419 516908
0110100010010010: 473224 586419 475419 624834
0110100010010010: 473224 586419 475419 624834
0110100110000100: 473224 586419 516908 615464
0110100110000100: 473224 586419 516908 503811
0110100110000100: 473224 586419 516908 615464
0110100110000100: 473224 586419 516908 503811
0111100010001000: 473224 586419 516908 475419
0111100010001000: 473224 586419 516908 475419
0110100110010110: 473224 586419 516908 554368
0110100110010110: 473224 586419 516908 554368
0110100110000100: 552381 533613 503811 554368
0110100110000100: 552381 533613 503811 502659
0110100010010010: 552381 533613 503811 615464
0110100010010010: 552381 533613 503811 586419
0110100110000100: 552381 533613 503811 554368
0110100110000100: 552381 533613 503811 502659
0110100110000100: 552381 533613 503811 554368
0110100110000100: 552381 533613 503811 502659
0110100110000100: 552381 533613 503811 554368
0110100110000100: 552381 533613 503811 502659
0110100110000100: 552381 533613 503811 554368
0110100110000100: 552381 533613 503811 502659
0110100110000100: 552381 533613 503811 554368
0110100110000100: 552381 533613 503811 502659
0110100110000100: 552381 503811 533613 615464
0110100110000100: 552381 503811 533613 586419
0110100010010010: 552381 503811 533613 554368
0110100010010010: 552381 503811 533613 502659
0110100110000100: 552381 503811 533613 615464
0110100110000100: 552381 503811 533613 586419
0110100110000100: 552381 503811 533613 615464
0110100110000100: 552381 503811 533613 586419
0110100110000100: 552381 503811 533613 615464
0110100110000100: 552381 503811 533613 586419
0110100110000100: 552381 503811 533613 615464
0110100110000100: 552381 503811 533613 586419
0110100110000100: 552381 503811 533613 615464
0110100110000100: 552381 503811 533613 586419
0111101011001000: 503811 615464 586419 552381
0101101001001000: 503811 552381 533613 615464
0101101001001000: 503811 552381 533613 586419
0111101011001000: 503811 586419 615464 552381
0110100010010010: 503811 615464 552381 533613
0110100010010010: 503811 615464 552381 533613
0111100110001100: 503811 615464 552381 586419
0111101011001000: 503811 615464 586419 552381
0110101011010010: 503811 615464 586419 554368
0110101011010010: 503811 615464 586419 473224
0110101011010010: 503811 615464 586419 554368
0110101011010010: 503811 615464 586419 473224
0111101011001000: 503811 615464 586419 552381
0111101011001000: 503811 615464 586419 552381
0111101011001000: 503811 615464 586419 552381
0111100010011010: 503811 552381 615464 586419
0110100010010010: 503811 552381 586419 554368
0110100010010010: 503811 552381 586419 473224
0111100010011010: 503811 552381 586419 615464
0110100110000100: 503811 552381 615464 533613
0110100110000100: 503811 552381 615464 533613
0110100110000100: 503811 552381 586419 533613
0110100110000100: 503811 552381 586419 533613
0101101001001000: 503811 552381 533613 615464
0101101001001000: 503811 552381 533613 586419
0100101001010010: 503811 552381 533613 554368
0100101001010010: 503811 552381 533613 502659
0100101001010010: 503811 552381 533613 554368
0100101001010010: 503811 552381 533613 502659
0101101001001000: 503811 552381 533613 615464
0101101001001000: 503811 552381 533613 586419
0101101001001000: 503811 552381 533613 615464
0110100010010010: 503811 586419 552381 533613
0110100010010010: 503811 586419 552381 533613
0110100110000100: 503811 586419 552381 554368
0110100110000100: 503811 586419 552381 473224
0111100110001100: 503811 586419 552381 615464
0110100010010010: 503811 586419 552381 533613
0111101011001000: 503811 586419 615464 552381
0110100010010010: 503811 586419 552381 533613
0111101011001000: 503811 586419 615464 552381
0111101011001000: 503811 586419 615464 552381
0110101111000100: 503811 586419 615464 554368
0110101111000100: 503811 586419 615464 473224
0110101111000100: 503811 586419 615464 554368
0110101111000100: 503811 586419 615464 473224
0111101011001000: 503811 586419 615464 552381
0110100110000100: 503811 586419 552381 554368
0110100110000100: 503811 586419 552381 473224
0110100110000100: 503811 586419 552381 554368
0110100110000100: 503811 586419 552381 473224
0111100110001100: 503811 586419 552381 615464
0111100110001100: 503811 586419 552381 615464
0111100110001100: 503811 586419 552381 615464
0110100010010010: 503811 586419 552381 533613
0110100010010010: 503811 586419 552381 533613
0111101011001000: 503811 586419 615464 552381
0111101011001000: 503811 586419 615464 552381
0111101011001000: 503811 586419 615464 552381
0110101011010010: 502659 554368 533613 552381
0110101011010010: 502659 554368 533613 552381
0110101111000100: 502659 554368 533613 516908
0110101111000100: 502659 554368 533613 497405
0110101111000100: 502659 554368 533613 624834
0110101111000100: 502659 554368 533613 586419
0110101111000100: 502659 554368 533613 516908
0110101111000100: 502659 554368 533613 497405
0110101111000100: 502659 554368 533613 624834
0110101111000100: 502659 554368 533613 586419
0110101011010010: 502659 554368 533613 552381
0110101011010010: 502659 533613 554368 516908
0110101011010010: 502659 533613 554368 497405
0110101011010010: 502659 533613 554368 624834
0110101011010010: 502659 533613 554368 586419
0110101011010010: 502659 533613 554368 516908
0110101011010010: 502659 533613 554368 497405
0110101011010010: 502659 533613 554368 624834
0110101011010010: 502659 533613 554368 586419
0110101111000100: 502659 533613 554368 552381
0110101111000100: 502659 533613 554368 552381
0110101111000100: 502659 533613 554368 552381
0111101011001000: 533613 554368 502659 552381
0111101011001000: 533613 502659 554368 552381
0101101001001000: 533613 552381 503811 554368
0101101001001000: 533613 552381 503811 502659
0110100110000100: 533613 554368 552381 516908
0110100110000100: 533613 554368 552381 497405
0110100110000100: 533613 554368 552381 624834
0110100110000100: 533613 554368 552381 586419
0110100010010010: 533613 554368 552381 503811
0110100010010010: 533613 554368 552381 503811
0110100110000100: 533613 554368 552381 516908
0110100110000100: 533613 554368 552381 497405
0110100110000100: 533613 554368 552381 624834
0110100110000100: 533613 554368 552381 586419
0110100110000100: 533613 554368 552381 516908
0110100110000100: 533613 554368 552381 497405
0110100110000100: 533613 554368 552381 624834
0110100110000100: 533613 554368 552381 586419
0111100110001100: 533613 554368 552381 502659
0110100010010010: 533613 554368 552381 503811
0111101011001000: 533613 554368 502659 552381
0110100010010010: 533613 554368 552381 503811
0111101011001000: 533613 554368 502659 552381
0111101011001000: 533613 554368 502659 552381
0110101111000100: 533613 554368 502659 516908
0110101111000100: 533613 554368 502659 497405
0110101111000100: 533613 554368 502659 624834
0110101111000100: 533613 554368 502659 586419
0110101111000100: 533613 554368 502659 516908
0110101111000100: 533613 554368 502659 497405
0110101111000100: 533613 554368 502659 624834
0110101111000100: 533613 554368 502659 586419
0111101011001000: 533613 554368 502659 552381
0110100110000100: 533613 554368 552381 516908
0110100110000100: 533613 554368 552381 497405
0110100110000100: 533613 554368 552381 624834
0110100110000100: 533613 554368 552381 586419
0110100110000100: 533613 554368 552381 516908
0110100110000100: 533613 554368 552381 497405
0110100110000100: 533613 554368 552381 624834
0110100110000100: 533613 554368 552381 586419
0111100110001100: 533613 554368 552381 502659
0111100110001100: 533613 554368 552381 502659
0111100110001100: 533613 554368 552381 502659
0110100010010010: 533613 554368 552381 503811
0110100010010010: 533613 554368 552381 503811
0111101011001000: 533613 554368 502659 552381
0110100010010010: 533613 502659 552381 503811
0110100010010010: 533613 502659 552381 503811
0111100110001100: 533613 502659 552381 554368
0111101011001000: 533613 502659 554368 552381
0111101011001000: 533613 502659 554368 552381
0111101011001000: 533613 502659 554368 552381
0111101011001000: 533613 502659 554368 552381
0111101011001000: 533613 502659 554368 552381
0111101011001000: 533613 502659 554368 552381
0110100010010010: 533613 552381 554368 516908
0110100010010010: 533613 552381 554368 497405
0110100010010010: 533613 552381 554368 624834
0110100010010010: 533613 552381 554368 586419
0111100010011010: 533613 552381 554368 502659
0111100010011010: 533613 552381 502659 554368
0110100110000100: 533613 552381 554368 503811
0110100110000100: 533613 552381 554368 503811
0110100110000100: 533613 552381 502659 503811
0110100110000100: 533613 552381 502659 503811
0101101001001000: 533613 552381 503811 554368
0101101001001000: 533613 552381 503811 502659
0100101001010010: 533613 552381 503811 615464
0100101001010010: 533613 552381 503811 586419
0100101001010010: 533613 552381 503811 615464
0100101001010010: 533613 552381 503811 586419
0101101001001000: 533613 552381 503811 554368
0101101001001000: 533613 552381 503811 502659
0101101001001000: 533613 552381 503811 554368
0101101001001000: 533613 552381 503811 502659
0101101001001000: 554368 516908 473224 497405
0101101001001000: 554368 516908 473224 624834
0101101001001000: 554368 516908 473224 533613
0101101001001000: 554368 516908 473224 502659
0111101011001000: 554368 497405 624834 516908
0111101011001000: 554368 497405 624834 533613
0111101011001000: 554368 497405 624834 502659
0111101011001000: 554368 497405 624834 586419
0111101011001000: 554368 624834 497405 516908
0111101011001000: 554368 624834 497405 533613
0111101011001000: 554368 624834 497405 502659
0111101011001000: 554368 624834 497405 586419
0101101001001000: 554368 624834 475419 516908
0101101001001000: 554368 624834 475419 533613
0101101001001000: 554368 624834 475419 502659
0101101001001000: 554368 624834 475419 586419
0101101101001100: 554368 624834 475419 497405
0111100010001000: 554368 533613 497405 516908
0111100010001000: 554368 533613 624834 516908
0111101011001000: 554368 533613 502659 516908
0111101011001000: 554368 533613 502659 497405
0111101011001000: 554368 533613 502659 624834
0111101011001000: 554368 533613 502659 586419
0101101001001000: 554368 533613 552381 516908
0101101001001000: 554368 533613 552381 497405
0101101001001000: 554368 533613 552381 624834
0101101001001000: 554368 533613 552381 586419
0101101101001100: 554368 533613 552381 502659
0111100010001000: 554368 502659 497405 516908
0111100010001000: 554368 502659 624834 516908
0111101011001000: 554368 502659 533613 516908
0111101011001000: 554368 502659 533613 497405
0111101011001000: 554368 502659 533613 624834
0111101011001000: 554368 502659 533613 586419
0110100110010110: 554368 586419 516908 473224
0111100010001000: 554368 586419 497405 516908
0111100010001000: 554368 586419 624834 516908
0111100010001000: 554368 586419 533613 516908
0111100010001000: 554368 586419 533613 497405
0111100010001000: 554368 586419 533613 624834
0111100010001000: 554368 586419 502659 516908
0111100010001000: 554368 586419 502659 497405
0111100010001000: 554368 586419 502659 624834
0101101001001000: 554368 586419 615464 516908
0101101001001000: 554368 586419 615464 497405
0101101001001000: 554368 586419 615464 624834
0101101001001000: 554368 586419 615464 533613
0101101001001000: 554368 586419 615464 502659
0101101001001000: 554368 586419 503811 516908
0101101001001000: 554368 586419 503811 497405
0101101001001000: 554368 586419 503811 624834
0101101001001000: 554368 586419 503811 533613
0101101001001000: 554368 586419 503811 502659
0101101001001000: 554368 586419 473224 497405
0101101001001000: 554368 586419 473224 624834
0101101001001000: 554368 586419 473224 533613
0101101001001000: 554368 586419 473224 502659
0100101101000100: 554368 586419 473224 615464
0100101101000100: 554368 586419 473224 503811
0110100110000100: 554368 516908 497405 473224
0111100010011010: 554368 516908 497405 624834
0110100110000100: 554368 516908 624834 473224
0110100010010010: 554368 516908 624834 475419
0111100010011010: 554368 516908 624834 497405
0110100010010010: 554368 516908 624834 475419
0111100010001000: 554368 516908 533613 497405
0111100010001000: 554368 516908 533613 624834
0110100110000100: 554368 516908 533613 473224
0110100010010010: 554368 516908 533613 552381
0111100010011010: 554368 516908 533613 502659
0110100010010010: 554368 516908 533613 552381
0111100010001000: 554368 516908 502659 497405
0111100010001000: 554368 516908 502659 624834
0110100110000100: 554368 516908 502659 473224
0111100010011010: 554368 516908 502659 533613
0111100010001000: 554368 516908 586419 497405
0111100010001000: 554368 516908 586419 624834
0111100010001000: 554368 516908 586419 533613
0111100010001000: 554368 516908 586419 502659
0110100010010010: 554368 516908 586419 615464
0110100010010010: 554368 516908 586419 503811
0110100010010010: 554368 516908 586419 615464
0110100010010010: 554368 516908 586419 503811
0110100110010110: 554368 516908 586419 473224
0110100110010110: 554368 516908 586419 473224
0110100110000100: 554368 516908 497405 473224
0110100110000100: 554368 516908 497405 473224
0110100110000100: 554368 516908 497405 473224
0110100110000100: 554368 516908 624834 473224
0110100110000100: 554368 516908 624834 473224
0110100110000100: 554368 516908 624834 473224
0110100110000100: 554368 516908 533613 473224
0110100110000100: 554368 516908 533613 473224
0110100110000100: 554368 516908 533613 473224
0110100110000100: 554368 516908 502659 473224
0110100110000100: 554368 516908 502659 473224
0110100110000100: 554368 516908 502659 473224
0110100110010110: 554368 516908 586419 473224
0101101001001000: 554368 516908 473224 497405
0101101001001000: 554368 516908 473224 624834
0101101001001000: 554368 516908 473224 533613
0101101001001000: 554368 516908 473224 502659
0100101001010010: 554368 516908 473224 475419
0100101001010010: 554368 516908 473224 475419
0101101001011010: 554368 516908 473224 586419
0101101001011010: 554368 516908 473224 586419
0101101001011010: 554368 516908 473224 586419
0100101001010010: 554368 516908 473224 475419
0110100010010010: 554368 497405 516908 473224
0110100010010010: 554368 497405 516908 473224
0111100010001000: 554368 497405 533613 516908
0110100010010010: 554368 497405 533613 552381
0111100010011010: 554368 497405 533613 502659
0110100010010010: 554368 497405 533613 552381
0111100010001000: 554368 497405 502659 516908
0111100010011010: 554368 497405 502659 533613
0111100010001000: 554368 497405 586419 516908
0111100010001000: 554368 497405 586419 533613
0111100010001000: 554368 497405 586419 502659
0110100010010010: 554368 497405 586419 615464
0110100010010010: 554368 497405 586419 503811
0110100010010010: 554368 497405 586419 473224
0110100010010010: 554368 497405 586419 615464
0110100010010010: 554368 497405 586419 503811
0110100010010010: 554368 497405 586419 473224
0111100010001000: 554368 497405 516908 533613
0111100010001000: 554368 497405 516908 502659
0111100010001000: 554368 497405 516908 586419
0111100110001100: 554368 497405 516908 624834
0111100110001100: 554368 497405 533613 624834
0111100110001100: 554368 497405 502659 624834
0111100110001100: 554368 497405 586419 624834
0111101011001000: 554368 497405 624834 516908
0111101011001000: 554368 497405 624834 533613
0111101011001000: 554368 497405 624834 502659
0111101011001000: 554368 497405 624834 586419
0110101011010010: 554368 497405 624834 475419
0110101011010010: 554368 497405 624834 475419
0110101011010010: 554368 497405 624834 475419
0110101011010010: 554368 497405 624834 475419
0111101011001000: 554368 497405 624834 516908
0111101011001000: 554368 497405 624834 533613
0111101011001000: 554368 497405 624834 502659
0111101011001000: 554368 497405 624834 586419
0111101011001000: 554368 497405 624834 516908
0111101011001000: 554368 497405 624834 533613
0111101011001000: 554368 497405 624834 502659
0111101011001000: 554368 497405 624834 586419
0110100110000100: 554368 624834 516908 475419
0110100010010010: 554368 624834 516908 473224
0110100010010010: 554368 624834 516908 473224
0111100010001000: 554368 624834 533613 516908
0110100110000100: 554368 624834 533613 475419
0110100010010010: 554368 624834 533613 552381
0111100010011010: 554368 624834 533613 502659
0110100010010010: 554368 624834 533613 552381
0111100010001000: 554368 624834 502659 516908
0110100110000100: 554368 624834 502659 475419
0111100010011010: 554368 624834 502659 533613
0111100010001000: 554368 624834 586419 516908
0111100010001000: 554368 624834 586419 533613
0111100010001000: 554368 624834 586419 502659
0110100110000100: 554368 624834 586419 475419
0110100010010010: 554368 624834 586419 615464
0110100010010010: 554368 624834 586419 503811
0110100010010010: 554368 624834 586419 473224
0110100010010010: 554368 624834 586419 615464
0110100010010010: 554368 624834 586419 503811
0110100010010010: 554368 624834 586419 473224
0111100010001000: 554368 624834 516908 533613
0111100010001000: 554368 624834 516908 502659
0111100010001000: 554368 624834 516908 586419
0110100110000100: 554368 624834 516908 475419
0110100110000100: 554368 624834 516908 475419
0111100110001100: 554368 624834 516908 497405
0110100110000100: 554368 624834 516908 475419
0110100010010010: 554368 624834 516908 473224
0110100110000100: 554368 624834 533613 475419
0110100110000100: 554368 624834 533613 475419
0111100110001100: 554368 624834 533613 497405
0110100110000100: 554368 624834 533613 475419
0110100110000100: 554368 624834 502659 475419
0110100110000100: 554368 624834 502659 475419
0111100110001100: 554368 624834 502659 497405
0110100110000100: 554368 624834 502659 475419
0110100110000100: 554368 624834 586419 475419
0110100110000100: 554368 624834 586419 475419
0111100110001100: 554368 624834 586419 497405
0110100110000100: 554368 624834 586419 475419
0111101011001000: 554368 624834 497405 516908
0111101011001000: 554368 624834 497405 533613
0111101011001000: 554368 624834 497405 502659
0111101011001000: 554368 624834 497405 586419
0101101001001000: 554368 624834 475419 516908
0101101001001000: 554368 624834 475419 533613
0101101001001000: 554368 624834 475419 502659
0101101001001000: 554368 624834 475419 586419
0100101001010010: 554368 624834 475419 473224
0100101001010010: 554368 624834 475419 473224
0101101101001100: 554368 624834 475419 497405
0100101001010010: 554368 624834 475419 473224
0100101001010010: 554368 624834 475419 473224
0111101011001000: 554368 624834 497405 516908
0111101011001000: 554368 624834 497405 533613
0111101011001000: 554368 624834 497405 502659
0111101011001000: 554368 624834 497405 586419
0111101011001000: 554368 624834 497405 516908
0111101011001000: 554368 624834 497405 533613
0111101011001000: 554368 624834 497405 502659
0111101011001000: 554368 624834 497405 586419
0110101111000100: 554368 624834 497405 475419
0110101111000100: 554368 624834 497405 475419
0110101111000100: 554368 624834 497405 475419
0111101011001000: 554368 624834 497405 516908
0111101011001000: 554368 624834 497405 533613
0111101011001000: 554368 624834 497405 502659
0111101011001000: 554368 624834 497405 586419
0111101011001000: 554368 624834 497405 516908
0111101011001000: 554368 624834 497405 533613
0111101011001000: 554368 624834 497405 502659
0111101011001000: 554368 624834 497405 586419
0110101111000100: 554368 624834 497405 475419
0110100010010010: 554368 533613 516908 473224
0110100010010010: 554368 533613 516908 473224
0111100010001000: 554368 533613 497405 516908
0111100010011010: 554368 533613 497405 624834
0111100010001000: 554368 533613 624834 516908
0110100010010010: 554368 533613 624834 475419
0111100010011010: 554368 533613 624834 497405
0110100010010010: 554368 533613 624834 475419
0111100010001000: 554368 533613 586419 516908
0111100010001000: 554368 533613 586419 497405
0111100010001000: 554368 533613 586419 624834
0110100010010010: 554368 533613 586419 615464
0110100010010010: 554368 533613 586419 503811
0110100010010010: 554368 533613 586419 473224
0110100010010010: 554368 533613 586419 615464
0110100010010010: 554368 533613 586419 503811
0110100010010010: 554368 533613 586419 473224
0111100010001000: 554368 533613 516908 497405
0111100010001000: 554368 533613 516908 624834
0111100010001000: 554368 533613 516908 586419
0110100110000100: 554368 533613 516908 552381
0111100110001100: 554368 533613 516908 502659
0110100110000100: 554368 533613 516908 552381
0110100010010010: 554368 533613 516908 473224
0111100010001000: 554368 533613 497405 516908
0111100010001000: 554368 533613 497405 586419
0111100010001000: 554368 533613 497405 516908
0110100110000100: 554368 533613 497405 552381
0111100110001100: 554368 533613 497405 502659
0110100110000100: 554368 533613 497405 552381
0111100010001000: 554368 533613 624834 516908
0111100010001000: 554368 533613 624834 586419
0111100010001000: 554368 533613 624834 516908
0110100110000100: 554368 533613 624834 552381
0111100110001100: 554368 533613 624834 502659
0110100110000100: 554368 533613 624834 552381
0110100110000100: 554368 533613 586419 552381
0111100110001100: 554368 533613 586419 502659
0110100110000100: 554368 533613 586419 552381
0111101011001000: 554368 533613 502659 516908
0111101011001000: 554368 533613 502659 497405
0111101011001000: 554368 533613 502659 624834
0111101011001000: 554368 533613 502659 586419
0101101001001000: 554368 533613 552381 516908
0101101001001000: 554368 533613 552381 497405
0101101001001000: 554368 533613 552381 624834
0101101001001000: 554368 533613 552381 586419
0100101001010010: 554368 533613 552381 503811
0100101001010010: 554368 533613 552381 503811
0101101101001100: 554368 533613 552381 502659
0100101001010010: 554368 533613 552381 503811
0100101001010010: 554368 533613 552381 503811
0111101011001000: 554368 533613 502659 516908
0111101011001000: 554368 533613 502659 497405
0111101011001000: 554368 533613 502659 624834
0111101011001000: 554368 533613 502659 586419
0111101011001000: 554368 533613 502659 516908
0111101011001000: 554368 533613 502659 497405
0111101011001000: 554368 533613 502659 624834
0111101011001000: 554368 533613 502659 586419
0110101111000100: 554368 533613 502659 552381
0110101111000100: 554368 533613 502659 552381
0110101111000100: 554368 533613 502659 552381
0110101111000100: 554368 533613 502659 552381
0110100010010010: 554368 502659 516908 473224
0110100010010010: 554368 502659 516908 473224
0111100010001000: 554368 502659 497405 516908
0111100010011010: 554368 502659 497405 624834
0111100010001000: 554368 502659 624834 516908
0110100010010010: 554368 502659 624834 475419
0111100010011010: 554368 502659 624834 497405
0110100010010010: 554368 502659 624834 475419
0111100010001000: 554368 502659 586419 516908
0111100010001000: 554368 502659 586419 497405
0111100010001000: 554368 502659 586419 624834
0110100010010010: 554368 502659 586419 615464
0110100010010010: 554368 502659 586419 503811
0110100010010010: 554368 502659 586419 473224
0110100010010010: 554368 502659 586419 615464
0110100010010010: 554368 502659 586419 503811
0110100010010010: 554368 502659 586419 473224
0111100010001000: 554368 502659 516908 497405
0111100010001000: 554368 502659 516908 624834
0111100010001000: 554368 502659 516908 586419
0111100110001100: 554368 502659 516908 533613
0111100010001000: 554368 502659 497405 516908
0111100010001000: 554368 502659 497405 586419
0111100010001000: 554368 502659 497405 516908
0111100110001100: 554368 502659 497405 533613
0111100010001000: 554368 502659 624834 516908
0111100010001000: 554368 502659 624834 586419
0111100010001000: 554368 502659 624834 516908
0111100110001100: 554368 502659 624834 533613
0111100110001100: 554368 502659 586419 533613
0111101011001000: 554368 502659 533613 516908
0111101011001000: 554368 502659 533613 497405
0111101011001000: 554368 502659 533613 624834
0111101011001000: 554368 502659 533613 586419
0110101011010010: 554368 502659 533613 552381
0110101011010010: 554368 502659 533613 552381
0111101011001000: 554368 502659 533613 516908
0111101011001000: 554368 502659 533613 497405
0111101011001000: 554368 502659 533613 624834
0111101011001000: 554368 502659 533613 586419
0111101011001000: 554368 502659 533613 516908
0111101011001000: 554368 502659 533613 497405
0111101011001000: 554368 502659 533613 624834
0111101011001000: 554368 502659 533613 586419
0111101011001000: 554368 502659 533613 516908
0111101011001000: 554368 502659 533613 497405
0111101011001000: 554368 502659 533613 624834
0111101011001000: 554368 502659 533613 586419
0111101011001000: 554368 502659 533613 516908
0111101011001000: 554368 502659 533613 497405
0111101011001000: 554368 502659 533613 624834
0111101011001000: 554368 502659 533613 586419
0110100110010110: 554368 586419 516908 473224
0111100010001000: 554368 586419 497405 516908
0111100010011010: 554368 586419 497405 624834
0111100010001000: 554368 586419 624834 516908
0110100010010010: 554368 586419 624834 475419
0111100010011010: 554368 586419 624834 497405
0110100010010010: 554368 586419 624834 475419
0111100010001000: 554368 586419 533613 516908
0111100010001000: 554368 586419 533613 497405
0111100010001000: 554368 586419 533613 624834
0110100010010010: 554368 586419 533613 552381
0111100010011010: 554368 586419 533613 502659
0110100010010010: 554368 586419 533613 552381
0111100010001000: 554368 586419 502659 516908
0111100010001000: 554368 586419 502659 497405
0111100010001000: 554368 586419 502659 624834
0111100010011010: 554368 586419 502659 533613
0111100010001000: 554368 586419 516908 497405
0111100010001000: 554368 586419 516908 624834
0111100010001000: 554368 586419 516908 533613
0111100010001000: 554368 586419 516908 502659
0110100110000100: 554368 586419 516908 615464
0110100110000100: 554368 586419 516908 503811
0110100110000100: 554368 586419 516908 615464
0110100110000100: 554368 586419 516908 503811
0110100110010110: 554368 586419 516908 473224
0110100110010110: 554368 586419 516908 473224
0111100010001000: 554368 586419 497405 516908
0111100010001000: 554368 586419 497405 533613
0111100010001000: 554368 586419 497405 502659
0111100010001000: 554368 586419 497405 516908
0110100110000100: 554368 586419 497405 615464
0110100110000100: 554368 586419 497405 503811
0110100110000100: 554368 586419 497405 473224
0110100110000100: 554368 586419 497405 615464
0110100110000100: 554368 586419 497405 503811
0110100110000100: 554368 586419 497405 473224
0111100010001000: 554368 586419 624834 516908
0111100010001000: 554368 586419 624834 533613
0111100010001000: 554368 586419 624834 502659
0111100010001000: 554368 586419 624834 516908
0110100110000100: 554368 586419 624834 615464
0110100110000100: 554368 586419 624834 503811
0110100110000100: 554368 586419 624834 473224
0110100110000100: 554368 586419 624834 615464
0110100110000100: 554368 586419 624834 503811
0110100110000100: 554368 586419 624834 473224
0110100010010010: 554368 586419 624834 475419
0111100010001000: 554368 586419 533613 516908
0111100010001000: 554368 586419 533613 497405
0111100010001000: 554368 586419 533613 624834
0111100010001000: 554368 586419 533613 516908
0111100010001000: 554368 586419 533613 497405
0111100010001000: 554368 586419 533613 624834
0110100110000100: 554368 586419 533613 615464
0110100110000100: 554368 586419 533613 503811
0110100110000100: 554368 586419 533613 473224
0110100110000100: 554368 586419 533613 615464
0110100110000100: 554368 586419 533613 503811
0110100110000100: 554368 586419 533613 473224
0110100010010010: 554368 586419 533613 552381
0111100010001000: 554368 586419 502659 516908
0111100010001000: 554368 586419 502659 497405
0111100010001000: 554368 586419 502659 624834
0111100010001000: 554368 586419 502659 516908
0111100010001000: 554368 586419 502659 497405
0111100010001000: 554368 586419 502659 624834
0110100110000100: 554368 586419 502659 615464
0110100110000100: 554368 586419 502659 503811
0110100110000100: 554368 586419 502659 473224
0110100110000100: 554368 586419 502659 615464
0110100110000100: 554368 586419 502659 503811
0110100110000100: 554368 586419 502659 473224
0101101001001000: 554368 586419 615464 516908
0101101001001000: 554368 586419 615464 497405
0101101001001000: 554368 586419 615464 624834
0101101001001000: 554368 586419 615464 533613
0101101001001000: 554368 586419 615464 502659
0100101101010110: 554368 586419 615464 503811
0101101001001000: 554368 586419 503811 516908
0101101001001000: 554368 586419 503811 497405
0101101001001000: 554368 586419 503811 624834
0101101001001000: 554368 586419 503811 533613
0101101001001000: 554368 586419 503811 502659
0100101001010010: 554368 586419 503811 552381
0100101001010010: 554368 586419 503811 552381
0100101001010010: 554368 586419 503811 552381
0100101001010010: 554368 586419 503811 552381
0100101101010110: 554368 586419 503811 615464
0101101001001000: 554368 586419 473224 497405
0101101001001000: 554368 586419 473224 624834
0101101001001000: 554368 586419 473224 533613
0101101001001000: 554368 586419 473224 502659
0100101001010010: 554368 586419 473224 475419
0100101001010010: 554368 586419 473224 475419
0100101101000100: 554368 586419 473224 615464
0100101101000100: 554368 586419 473224 503811
0101101001011010: 554368 586419 473224 516908
0101101001011010: 554368 586419 473224 516908
0101101001011010: 554368 586419 473224 516908
0100101001010010: 554368 586419 473224 475419
0100101001010010: 554368 586419 473224 475419
0101101001011010: 554368 586419 473224 516908
0101101001001000: 624834 475419 473224 497405
0101101001001000: 624834 475419 473224 554368
0111101011001000: 624834 497405 554368 475419
0111101011001000: 624834 554368 497405 475419
0110100110000100: 624834 475419 497405 473224
0111100010011010: 624834 475419 497405 554368
0110100110000100: 624834 475419 554368 473224
0110100010010010: 624834 475419 554368 516908
0110100010010010: 624834 475419 554368 533613
0110100010010010: 624834 475419 554368 502659
0110100010010010: 624834 475419 554368 586419
0111100010011010: 624834 475419 554368 497405
0110100110000100: 624834 475419 497405 473224
0110100110000100: 624834 475419 497405 473224
0110100110000100: 624834 475419 497405 473224
0110100110000100: 624834 475419 554368 473224
0110100110000100: 624834 475419 554368 473224
0110100110000100: 624834 475419 554368 473224
0101101001001000: 624834 475419 473224 497405
0101101001001000: 624834 475419 473224 554368
0100101001010010: 624834 475419 473224 516908
0100101001010010: 624834 475419 473224 586419
0100101001010010: 624834 475419 473224 516908
0100101001010010: 624834 475419 473224 586419
0101101001001000: 624834 475419 473224 497405
0101101001001000: 624834 475419 473224 554368
0110100010010010: 624834 497405 475419 473224
0110100010010010: 624834 497405 475419 473224
0111100110001100: 624834 497405 475419 554368
0111101011001000: 624834 497405 554368 475419
0110101011010010: 624834 497405 554368 516908
0110101011010010: 624834 497405 554368 533613
0110101011010010: 624834 497405 554368 502659
0110101011010010: 624834 497405 554368 586419
0110101011010010: 624834 497405 554368 516908
0110101011010010: 624834 497405 554368 533613
0110101011010010: 624834 497405 554368 502659
0110101011010010: 624834 497405 554368 586419
0111101011001000: 624834 497405 554368 475419
0111101011001000: 624834 497405 554368 475419
0111101011001000: 624834 497405 554368 475419
0111101011001000: 624834 497405 554368 475419
0110100010010010: 624834 554368 475419 473224
0110100010010010: 624834 554368 475419 473224
0110100110000100: 624834 554368 475419 516908
0110100110000100: 624834 554368 475419 533613
0110100110000100: 624834 554368 475419 502659
0110100110000100: 624834 554368 475419 586419
0111100110001100: 624834 554368 475419 497405
0110100010010010: 624834 554368 475419 473224
0111101011001000: 624834 554368 497405 475419
0110100010010010: 624834 554368 475419 473224
0111101011001000: 624834 554368 497405 475419
0111101011001000: 624834 554368 497405 475419
0110101111000100: 624834 554368 497405 516908
0110101111000100: 624834 554368 497405 533613
0110101111000100: 624834 554368 497405 502659
0110101111000100: 624834 554368 497405 586419
0110101111000100: 624834 554368 497405 516908
0110101111000100: 624834 554368 497405 533613
0110101111000100: 624834 554368 497405 502659
0110101111000100: 624834 554368 497405 586419
0111101011001000: 624834 554368 497405 475419
0110100110000100: 624834 554368 475419 516908
0110100110000100: 624834 554368 475419 533613
0110100110000100: 624834 554368 475419 502659
0110100110000100: 624834 554368 475419 586419
0110100110000100: 624834 554368 475419 516908
0110100110000100: 624834 554368 475419 533613
0110100110000100: 624834 554368 475419 502659
0110100110000100: 624834 554368 475419 586419
0111100110001100: 624834 554368 475419 497405
0111100110001100: 624834 554368 475419 497405
0111100110001100: 624834 554368 475419 497405
0110100010010010: 624834 554368 475419 473224
0110100010010010: 624834 554368 475419 473224
0111101011001000: 624834 554368 497405 475419
0111101011001000: 624834 554368 497405 475419
0111101011001000: 624834 554368 497405 475419
0110101111000100: 497405 624834 554368 475419
0110101111000100: 497405 624834 554368 475419
0110101111000100: 497405 624834 554368 475419
0110101111000100: 497405 554368 624834 516908
0110101111000100: 497405 554368 624834 533613
0110101111000100: 497405 554368 624834 502659
0110101111000100: 497405 554368 624834 586419
0110101111000100: 497405 554368 624834 516908
0110101111000100: 497405 554368 624834 533613
0110101111000100: 497405 554368 624834 502659
0110101111000100: 497405 554368 624834 586419
0110101011010010: 497405 554368 624834 475419
0110100110010110: 516908 473224 554368 586419
0110100010010010: 516908 554368 473224 475419
0110100110010110: 516908 554368 473224 586419
0110100110000100: 516908 554368 473224 497405
0110100110000100: 516908 554368 473224 624834
0110100110000100: 516908 554368 473224 533613
0110100110000100: 516908 554368 473224 502659
0110100010010010: 516908 554368 473224 475419
0110100110010110: 516908 554368 473224 586419
0110100110000100: 516908 554368 473224 497405
0110100110000100: 516908 554368 473224 624834
0110100110000100: 516908 554368 473224 533613
0110100110000100: 516908 554368 473224 502659
0110100110000100: 516908 554368 473224 497405
0110100110000100: 516908 554368 473224 624834
0110100110000100: 516908 554368 473224 533613
0110100110000100: 516908 554368 473224 502659
0110100010010010: 516908 554368 473224 475419
0110100110010110: 516908 554368 473224 586419
0110100010010010: 516908 473224 554368 497405
0110100010010010: 516908 473224 554368 624834
0110100010010010: 516908 473224 554368 533613
0110100010010010: 516908 473224 554368 502659
0110100110010110: 516908 473224 554368 586419
0110100110000100: 516908 473224 554368 475419
0110100110010110: 516908 473224 554368 586419
0110100110010110: 516908 473224 554368 586419
0110100110000100: 516908 473224 554368 475419
0110100110000100: 516908 473224 554368 475419
0110100110010110: 516908 473224 554368 586419
0110100110000100: 516908 473224 554368 475419
0110100010010010: 475419 624834 473224 516908
0110100010010010: 475419 624834 473224 586419
0110100110000100: 475419 624834 473224 497405
0110100110000100: 475419 624834 473224 554368
0110100110000100: 475419 624834 473224 497405
0110100110000100: 475419 624834 473224 554368
0110100110000100: 475419 624834 473224 497405
0110100110000100: 475419 624834 473224 554368
0110100110000100: 475419 624834 473224 497405
0110100110000100: 475419 624834 473224 554368
0110100010010010: 475419 473224 624834 497405
0110100010010010: 475419 473224 624834 554368
0110100110000100: 475419 473224 624834 516908
0110100110000100: 475419 473224 624834 586419
0110100110000100: 475419 473224 624834 516908
0110100110000100: 475419 473224 624834 586419
0110100110000100: 475419 473224 624834 516908
0110100110000100: 475419 473224 624834 586419
0110100110000100: 475419 473224 624834 516908
0110100110000100: 475419 473224 624834 586419
0110101111000100: 615464 503811 586419 552381
0110101111000100: 615464 503811 586419 552381
0110101111000100: 615464 503811 586419 552381
0110101111000100: 615464 586419 503811 554368
0110101111000100: 615464 586419 503811 473224
0110101111000100: 615464 586419 503811 554368
0110101111000100: 615464 586419 503811 473224
0110101011010010: 615464 586419 503811 552381
