0110010011100000100001000: 564286 550157 638244 513951 519783
0110010011100100110001000: 564286 550157 638244 466328 519783
0110010011100100110001000: 564286 550157 638244 466328 513951
0110010011100100110001000: 564286 550157 638244 647004 519783
0110010011100100110001000: 564286 550157 638244 647004 513951
0111010101110001000001000: 564286 550157 636849 638244 519783
0111010101110001000001000: 564286 550157 636849 638244 513951
0111010100110001000100010: 564286 550157 636849 638244 490331
0111010101110001000101010: 564286 550157 636849 638244 466328
0111010101110001000001000: 564286 550157 494226 638244 513951
0111010101110001000101010: 564286 550157 494226 638244 466328
0111010101110001000101010: 564286 550157 494226 638244 647004
0111110110110001100010000: 564286 550157 494226 636849 638244
0111010110110011100000100: 564286 550157 494226 636849 568453
0111010110110011100000100: 564286 550157 494226 468613 568453
0111010101110001000001000: 564286 550157 468613 638244 519783
0111010101110001000001000: 564286 550157 468613 638244 513951
0111010101110001000101010: 564286 550157 468613 638244 466328
0111010101110001000101010: 564286 550157 468613 638244 647004
0111110110110001100010000: 564286 550157 468613 636849 638244
0111010110110011100000100: 564286 550157 468613 636849 621760
0111010110110011100000100: 564286 550157 468613 636849 632674
0111110110110001100010000: 564286 550157 468613 494226 638244
0111110111110001100011000: 564286 550157 468613 494226 636849
0111010110110011100000100: 564286 550157 468613 494226 621760
0111010110110011100000100: 564286 550157 468613 494226 632674
0110010010100010100000100: 564286 494226 636849 568453 647004
0110010011100000100001000: 564286 494226 636849 519783 568453
0110010010100010100000100: 564286 494226 636849 519783 647004
0110010011100000100001000: 564286 494226 468613 519783 568453
0110010011100000100001000: 564286 494226 638244 519783 568453
0111010101110001000001000: 564286 494226 550157 638244 568453
0111010100110001000100010: 564286 494226 550157 638244 490331
0110010010100010100000100: 564286 468613 636849 621760 647004
0110010011100000100001000: 564286 468613 636849 632674 621760
0110010010100010100000100: 564286 468613 636849 632674 647004
0110010010100010100100110: 564286 468613 494226 621760 568453
0110010010100010100100110: 564286 468613 494226 621760 519783
0110010011100000100001000: 564286 468613 494226 632674 621760
0110010010100010100000100: 564286 468613 494226 632674 568453
0110010010100010100000100: 564286 468613 494226 632674 519783
0110010011100000100001000: 564286 468613 638244 632674 621760
0111010101110001000001000: 564286 468613 550157 638244 621760
0111010101110001000001000: 564286 468613 550157 638244 632674
0111010100110001000100010: 564286 468613 550157 638244 490331
0110010011100000100001000: 564286 638244 636849 490331 466328
0110010011100100110001000: 564286 638244 636849 647004 466328
0110010011100100110001000: 564286 638244 636849 647004 490331
0110010010100010100000100: 564286 638244 550157 490331 519783
0110010010100010100000100: 564286 638244 550157 490331 513951
0110010011100100110001000: 564286 638244 550157 466328 490331
0110010011100100110001000: 564286 638244 550157 647004 490331
0110010011100110110001100: 564286 638244 550157 647004 466328
0110010010100010100000100: 564286 638244 494226 466328 568453
0110010010100010100000100: 564286 638244 494226 466328 519783
0110010011100000100001000: 564286 638244 494226 647004 466328
0110010010100010100000100: 564286 638244 494226 647004 568453
0110010010100010100000100: 564286 638244 494226 647004 519783
0110010011100000100001000: 564286 638244 494226 490331 466328
0110010011100000100001000: 564286 638244 494226 490331 647004
0110010010100010100000100: 564286 638244 494226 490331 568453
0110010010100010100000100: 564286 638244 494226 490331 519783
0111110000100001000010000: 564286 638244 468613 494226 636849
0110010010100010100000100: 564286 638244 468613 466328 621760
0110010010100010100000100: 564286 638244 468613 466328 632674
0110010011100000100001000: 564286 638244 468613 647004 466328
0110010010100010100000100: 564286 638244 468613 647004 621760
0110010010100010100000100: 564286 638244 468613 647004 632674
0110010011100000100001000: 564286 638244 468613 490331 466328
0110010011100000100001000: 564286 638244 468613 490331 647004
0110010010100010100000100: 564286 638244 468613 490331 621760
0110010010100010100100110: 564286 638244 468613 490331 632674
0110010011100100110001000: 638244 466328 647004 550157 644698
0110010011100000100001000: 638244 466328 490331 550157 644698
0110010011100100110001000: 638244 466328 564286 550157 644698
0110010010100010100000100: 638244 647004 466328 636849 644698
0110010010100010100000100: 638244 490331 466328 632674 644698
0110010010100010100000100: 638244 490331 466328 632674 550157
0110010010100010100000100: 638244 490331 647004 632674 636849
0110010010100010100000100: 638244 490331 647004 632674 550157
0110010010100010100000100: 638244 564286 466328 636849 644698
0110010011100000100001000: 638244 564286 466328 494226 636849
0110010010100010100000100: 638244 564286 466328 494226 644698
0110010011100000100001000: 638244 564286 466328 468613 636849
0110010011100000100001000: 638244 564286 466328 468613 494226
0110010010100010100000100: 638244 564286 466328 468613 644698
0110010011100000100001000: 638244 564286 647004 468613 494226
0110010011100100110001000: 638244 564286 647004 636849 494226
0110010011100100110001000: 638244 564286 647004 636849 468613
0111110000100001000010000: 638244 564286 490331 647004 466328
0110010010100010100000100: 638244 564286 490331 636849 632674
0110010010100010100000100: 638244 564286 490331 550157 632674
0110010011100000100001000: 638244 564286 490331 494226 636849
0110010010100010100000100: 638244 564286 490331 494226 632674
0110010011100000100001000: 638244 564286 490331 468613 636849
0110010011100000100001000: 638244 564286 490331 468613 494226
0110010010100010100000100: 490331 638244 632674 466328 468613
0110010011100000100001000: 490331 638244 632674 647004 466328
0110010010100010100000100: 490331 638244 632674 647004 468613
0110010011100000100001000: 490331 638244 632674 564286 466328
0110010011100000100001000: 490331 638244 632674 564286 647004
0110010011100000100001000: 632674 468613 490331 550157 621760
0110010011100000100001000: 632674 468613 490331 564286 621760
0110010010100010100000100: 632674 490331 468613 638244 621760
0110010010100010100000100: 632674 490331 468613 638244 550157
0110010011100100110001000: 468613 621760 550157 519783 568453
0110010011100000100001000: 468613 621760 632674 519783 568453
0110010011100000100001000: 468613 621760 564286 519783 568453
0110010010100010100000100: 468613 550157 621760 466328 568453
0110010011100000100001000: 468613 550157 621760 636849 466328
0110010010100010100000100: 468613 550157 621760 636849 568453
0110010011100000100001000: 468613 550157 621760 513951 466328
0110010011100000100001000: 468613 550157 621760 513951 636849
0110010010100010100000100: 468613 550157 621760 513951 568453
0110010011100000100001000: 468613 550157 621760 647004 466328
0110010011100000100001000: 468613 550157 621760 647004 513951
0110010010100010100000100: 468613 550157 621760 647004 568453
0110010011100000100001000: 468613 550157 621760 494226 466328
0110010011100000100001000: 468613 550157 621760 494226 636849
0110010011100000100001000: 468613 550157 621760 494226 513951
0110010011100000100001000: 468613 550157 621760 494226 647004
0110010010100010100100110: 468613 550157 621760 494226 568453
0110010011100100110001000: 468613 550157 621760 519783 466328
0110010011100100110001000: 468613 550157 621760 519783 636849
0110010011100100110001000: 468613 550157 621760 519783 513951
0110010011100100110001000: 468613 550157 621760 519783 647004
0110010011100000100001000: 468613 550157 632674 519783 466328
0110010011100000100001000: 468613 550157 632674 636849 466328
0110010011100000100001000: 468613 550157 632674 636849 519783
0110010011100000100001000: 468613 550157 632674 513951 466328
0110010011100000100001000: 468613 550157 632674 513951 519783
0110010011100000100001000: 468613 550157 632674 513951 636849
0110010011100000100001000: 468613 550157 632674 647004 466328
0110010011100000100001000: 468613 550157 632674 647004 519783
0110010011100000100001000: 468613 550157 632674 647004 513951
0110010011100000100001000: 468613 550157 632674 494226 466328
0110010011100000100001000: 468613 550157 632674 494226 636849
0110010011100000100001000: 468613 550157 632674 494226 513951
0110010011100000100001000: 468613 550157 632674 494226 647004
0111010101110001000001000: 468613 550157 564286 621760 466328
0111010101110001000001000: 468613 550157 564286 621760 513951
0111010101110001000001000: 468613 550157 564286 621760 647004
0111010101110001000101010: 468613 550157 564286 621760 519783
0111010101110001000001000: 468613 550157 564286 632674 466328
0111010101110001000001000: 468613 550157 564286 632674 519783
0111010101110001000001000: 468613 550157 564286 632674 513951
0111010101110001000001000: 468613 550157 564286 632674 647004
0110010010100010100000100: 468613 632674 621760 490331 568453
0110010010100010100000100: 468613 632674 621760 490331 519783
0110010010100010100000100: 468613 632674 550157 490331 466328
0110010010100010100000100: 468613 632674 550157 490331 519783
0110010010100010100000100: 468613 632674 550157 490331 636849
0110010010100010100000100: 468613 632674 550157 490331 513951
0110010010100010100000100: 468613 632674 550157 490331 647004
0110010010100010100000100: 468613 632674 550157 490331 494226
0110010010100010100000100: 468613 564286 621760 636849 568453
0110010010100010100000100: 468613 564286 621760 636849 519783
0110010011100000100001000: 468613 564286 621760 494226 636849
0110010011100000100001000: 468613 564286 621760 638244 636849
0110010011100000100001000: 468613 564286 621760 638244 494226
0110010010100010100000100: 468613 564286 621760 638244 568453
0110010010100010100000100: 468613 564286 621760 638244 519783
0110010010100010100000100: 468613 564286 632674 636849 490331
0110010011100000100001000: 468613 564286 632674 494226 636849
0110010010100010100000100: 468613 564286 632674 494226 490331
0110010011100000100001000: 468613 564286 632674 638244 636849
0110010011100000100001000: 468613 564286 632674 638244 494226
0111010100110001000100010: 468613 564286 550157 621760 568453
0111110100110001000010000: 468613 564286 550157 632674 621760
0111010100110001000100010: 468613 564286 550157 632674 490331
0110010011100100110001000: 494226 519783 568453 621760 496527
0110010011100000100001000: 494226 519783 564286 621760 496527
0111010101110001000001000: 494226 519783 550157 568453 496527
0111010101110001000101010: 494226 519783 550157 568453 621760
0110010010100010100000100: 494226 550157 568453 466328 621760
0110010011100000100001000: 494226 550157 568453 636849 466328
0110010010100010100000100: 494226 550157 568453 636849 621760
0110010011100000100001000: 494226 550157 568453 513951 466328
0110010011100000100001000: 494226 550157 568453 513951 636849
0110010010100010100000100: 494226 550157 568453 513951 621760
0110010011100000100001000: 494226 550157 568453 647004 466328
0110010011100000100001000: 494226 550157 568453 647004 513951
0110010010100010100000100: 494226 550157 568453 647004 621760
0110010011100000100001000: 494226 550157 568453 468613 466328
0110010011100000100001000: 494226 550157 568453 468613 636849
0110010011100000100001000: 494226 550157 568453 468613 513951
0110010011100000100001000: 494226 550157 568453 468613 647004
0111010101110001000001000: 494226 550157 519783 568453 466328
0111010101110001000001000: 494226 550157 519783 568453 636849
0111010101110001000001000: 494226 550157 519783 568453 513951
0111010101110001000001000: 494226 550157 519783 568453 647004
0111010101110001000001000: 494226 550157 519783 568453 468613
0111010110110011100000100: 494226 550157 519783 564286 496527
0111010110110011100000100: 494226 550157 519783 564286 621760
0111010101110001000001000: 494226 550157 564286 568453 466328
0111010101110001000001000: 494226 550157 564286 568453 513951
0111010101110001000001000: 494226 550157 564286 568453 647004
0111110110110001100010000: 494226 550157 564286 519783 568453
0111010110110011100000100: 494226 550157 564286 519783 638244
0110010010100010100000100: 494226 564286 568453 636849 621760
0110010011100000100001000: 494226 564286 568453 468613 636849
0110010011100000100001000: 494226 564286 568453 638244 636849
0110010011100000100001000: 494226 564286 568453 638244 468613
0110010010100010100000100: 494226 564286 568453 638244 621760
0110010010100010100000100: 494226 564286 519783 636849 496527
0110010010100010100000100: 494226 564286 519783 636849 621760
0110010011100000100001000: 494226 564286 519783 468613 636849
0110010010100010100000100: 494226 564286 519783 468613 496527
0110010011100000100001000: 494226 564286 519783 638244 636849
0110010011100000100001000: 494226 564286 519783 638244 468613
0110010010100010100000100: 494226 564286 519783 638244 496527
0110010010100010100000100: 494226 564286 519783 638244 621760
0111010100110001000100010: 494226 564286 550157 568453 621760
0110010011100000100001000: 647004 550157 638244 513951 519783
0110010011100000100001000: 647004 550157 638244 494226 513951
0110010011100000100001000: 647004 550157 638244 468613 519783
0110010011100000100001000: 647004 550157 638244 468613 513951
0110010011100000100001000: 647004 550157 638244 468613 494226
0110010011100100110001000: 647004 550157 638244 466328 519783
0110010011100100110001000: 647004 550157 638244 466328 513951
0110010011100100110001000: 647004 550157 638244 466328 494226
0110010011100100110001000: 647004 550157 638244 466328 468613
0111010101110001000001000: 647004 550157 636849 638244 519783
0111010101110001000001000: 647004 550157 636849 638244 513951
0111010101110001000001000: 647004 550157 636849 638244 494226
0111010101110001000001000: 647004 550157 636849 638244 468613
0111010100110001000100010: 647004 550157 636849 638244 490331
0111010101110001000101010: 647004 550157 636849 638244 466328
0110010011100000100001000: 647004 638244 636849 490331 466328
0110010010100010100000100: 647004 638244 550157 490331 519783
0110010010100010100000100: 647004 638244 550157 490331 513951
0110010010100010100000100: 647004 638244 550157 490331 494226
0110010010100010100000100: 647004 638244 550157 490331 468613
0110010011100100110001000: 647004 638244 550157 466328 490331
0110010011100000100001000: 550157 466328 519783 638244 644698
0110010011100000100001000: 550157 466328 636849 638244 644698
0110010011100000100001000: 550157 466328 513951 638244 644698
0110010011100000100001000: 550157 466328 494226 638244 644698
0110010011100000100001000: 550157 466328 468613 638244 644698
0110010010100010100000100: 550157 519783 466328 496527 644698
0110010010100010100000100: 550157 519783 466328 496527 638244
0110010011100000100001000: 550157 519783 466328 621760 496527
0110010010100010100000100: 550157 519783 466328 621760 644698
0110010010100010100000100: 550157 519783 466328 621760 638244
0110010011100000100001000: 550157 519783 636849 621760 496527
0110010011100000100001000: 550157 519783 513951 621760 496527
0110010011100000100001000: 550157 519783 647004 621760 496527
0110010011100100110001000: 550157 519783 468613 621760 496527
0110010011100000100001000: 550157 519783 564286 621760 496527
0111010101110001000001000: 550157 519783 494226 466328 496527
0111010101110001000001000: 550157 519783 494226 466328 621760
0111010101110001000001000: 550157 519783 494226 636849 496527
0111010101110001000001000: 550157 519783 494226 636849 621760
0111010101110001000001000: 550157 519783 494226 513951 496527
0111010101110001000001000: 550157 519783 494226 513951 621760
0111010101110001000001000: 550157 519783 494226 647004 496527
0111010101110001000001000: 550157 519783 494226 647004 621760
0111010101110001000001000: 550157 519783 494226 468613 496527
0111010101110001000101010: 550157 519783 494226 468613 621760
0111110110110001100010000: 550157 636849 564286 647004 466328
0111110110110001100010000: 550157 636849 564286 647004 519783
0111110110110001100010000: 550157 636849 564286 647004 513951
0111010110110011100100110: 550157 636849 564286 647004 638244
0110010010100010100000100: 550157 513951 466328 500008 644698
0110010010100010100000100: 550157 513951 466328 500008 638244
0110010010100010100000100: 550157 513951 519783 500008 496527
0110010010100010100000100: 550157 513951 519783 500008 621760
0111110000100001000010000: 550157 513951 636849 519783 466328
0110010010100010100000100: 550157 647004 519783 638244 496527
0110010010100010100000100: 550157 647004 519783 638244 621760
0111110000100001000010000: 550157 647004 513951 519783 466328
0110010010100010100000100: 550157 647004 513951 638244 500008
0111010100110001000100010: 550157 647004 636849 466328 644698
0111110100110001000010000: 550157 647004 636849 519783 466328
0111010100110001000100010: 550157 647004 636849 519783 496527
0111010100110001000100010: 550157 647004 636849 519783 621760
0111110100110001000010000: 550157 647004 636849 513951 466328
0111110100110001000010000: 550157 647004 636849 513951 519783
0111010100110001000100010: 550157 647004 636849 513951 500008
0111110100110001000010000: 550157 647004 636849 494226 466328
0111110100110001000010000: 550157 647004 636849 494226 513951
0111010100110001000100010: 550157 647004 636849 494226 568453
0111110100110001000010000: 550157 647004 636849 468613 466328
0111110100110001000010000: 550157 647004 636849 468613 519783
0111110100110001000010000: 550157 647004 636849 468613 513951
0111110100110001000010000: 550157 647004 636849 468613 494226
0111010100110001000100010: 550157 647004 636849 468613 621760
0111010100110001000100010: 550157 647004 636849 468613 632674
0110010010100010100000100: 550157 494226 466328 568453 644698
0110010010100010100000100: 550157 494226 466328 568453 638244
0111110000100001000010000: 550157 494226 513951 636849 466328
0110010010100010100000100: 550157 494226 513951 568453 500008
0111110000100001000010000: 550157 494226 647004 513951 466328
0110010010100010100000100: 550157 494226 647004 568453 638244
0111010100110001000100010: 550157 494226 519783 466328 644698
0111010100110001000100010: 550157 494226 519783 466328 638244
0111110100110001000010000: 550157 494226 519783 636849 466328
0111110100110001000010000: 550157 494226 519783 513951 466328
0111110100110001000010000: 550157 494226 519783 513951 636849
0111010100110001000100010: 550157 494226 519783 513951 500008
0111110100110001000010000: 550157 494226 519783 647004 466328
0111110100110001000010000: 550157 494226 519783 647004 513951
0111010100110001000100010: 550157 494226 519783 647004 638244
0111110100110001000110010: 550157 494226 519783 647004 636849
0111110100110001000010000: 550157 494226 519783 468613 466328
0111110100110001000010000: 550157 494226 519783 468613 636849
0111110100110001000010000: 550157 494226 519783 468613 513951
0111110100110001000010000: 550157 494226 519783 468613 647004
0111010100110001000100010: 550157 494226 519783 468613 632674
0111110110110001100010000: 550157 494226 564286 519783 466328
0111110110110001100010000: 550157 494226 564286 519783 513951
0111110110110001100010000: 550157 494226 564286 519783 647004
0110010010100010100000100: 550157 468613 466328 621760 644698
0110010010100010100000100: 550157 468613 466328 621760 638244
0110010011100000100001000: 550157 468613 466328 632674 621760
0110010010100010100000100: 550157 468613 466328 632674 644698
0110010010100010100000100: 550157 468613 466328 632674 638244
0110010010100010100000100: 550157 468613 519783 632674 496527
0110010011100100110001000: 550157 468613 519783 621760 632674
0111110000100001000010000: 550157 468613 636849 519783 466328
0110010011100000100001000: 550157 468613 636849 632674 621760
0111110000100001000010000: 550157 468613 513951 519783 466328
0111110000100001000010000: 550157 468613 513951 636849 466328
0111110000100001000010000: 550157 468613 513951 636849 519783
0110010010100010100000100: 550157 468613 513951 621760 500008
0110010011100000100001000: 550157 468613 513951 632674 621760
0110010010100010100000100: 550157 468613 513951 632674 500008
0111110000100001000010000: 550157 468613 647004 519783 466328
0111110000100001000010000: 550157 468613 647004 513951 466328
0111110000100001000010000: 550157 468613 647004 513951 519783
0110010010100010100000100: 550157 468613 647004 621760 638244
0110010011100000100001000: 550157 468613 647004 632674 621760
0110010010100010100000100: 550157 468613 647004 632674 638244
0111110000100001000010000: 550157 468613 494226 636849 466328
0111110000100001000010000: 550157 468613 494226 513951 466328
0111110000100001000010000: 550157 468613 494226 513951 636849
0111110000100001000010000: 550157 468613 494226 647004 466328
0111110000100001000010000: 550157 468613 494226 647004 513951
0110010011100000100001000: 550157 468613 494226 632674 621760
0110010010100010100000100: 550157 468613 494226 632674 568453
0110010010100010100000100: 550157 564286 519783 638244 496527
0110010010100010100000100: 550157 564286 519783 638244 621760
0111110000100001000010000: 550157 564286 513951 519783 466328
0110010010100010100000100: 550157 564286 513951 638244 500008
0111110000100001000010000: 550157 564286 647004 519783 466328
0111110000100001000010000: 550157 564286 647004 513951 466328
0111110000100001000010000: 550157 564286 647004 513951 519783
0111010100110001000100010: 550157 564286 636849 466328 644698
0111110100110001000010000: 550157 564286 636849 519783 466328
0111010100110001000100010: 550157 564286 636849 519783 496527
0111010100110001000100010: 550157 564286 636849 519783 621760
0111110100110001000010000: 550157 564286 636849 513951 466328
0111110100110001000010000: 550157 564286 636849 513951 519783
0111010100110001000100010: 550157 564286 636849 513951 500008
0111110110110011100010100: 550157 564286 636849 494226 647004
0111110110110011100010100: 550157 564286 636849 468613 647004
0111010100110001000100010: 550157 564286 494226 466328 644698
0111110100110001000010000: 550157 564286 494226 513951 466328
0111010100110001000100010: 550157 564286 494226 513951 500008
0111110100110001000010000: 550157 564286 494226 647004 466328
0111110100110001000010000: 550157 564286 494226 647004 513951
0111110110110001100010000: 550157 564286 494226 636849 466328
0111110110110001100010000: 550157 564286 494226 636849 513951
0111110110110011100010100: 550157 564286 494226 636849 519783
0111110110110011100010100: 550157 564286 494226 468613 519783
0111010100110001000100010: 550157 564286 468613 466328 644698
0111110100110001000010000: 550157 564286 468613 519783 466328
0111010100110001000100010: 550157 564286 468613 519783 496527
0111110100110001000010000: 550157 564286 468613 513951 466328
0111110100110001000010000: 550157 564286 468613 513951 519783
0111010100110001000100010: 550157 564286 468613 513951 500008
0111110100110001000010000: 550157 564286 468613 647004 466328
0111110100110001000010000: 550157 564286 468613 647004 519783
0111110100110001000010000: 550157 564286 468613 647004 513951
0111110110110001100010000: 550157 564286 468613 636849 466328
0111110110110001100010000: 550157 564286 468613 636849 519783
0111110110110001100010000: 550157 564286 468613 636849 513951
0111110110110001100010000: 550157 564286 468613 494226 466328
0111110110110001100010000: 550157 564286 468613 494226 513951
0111110110110001100010000: 550157 564286 468613 494226 647004
0110010010100010100000100: 513951 550157 500008 466328 629365
0110010011100000100001000: 513951 550157 500008 519783 466328
0110010010100010100000100: 513951 550157 500008 519783 629365
0110010011100000100001000: 513951 550157 500008 636849 466328
0110010011100000100001000: 513951 550157 500008 636849 519783
0110010010100010100000100: 513951 550157 500008 636849 629365
0110010011100000100001000: 513951 550157 500008 647004 466328
0110010011100000100001000: 513951 550157 500008 647004 519783
0110010010100010100000100: 513951 550157 500008 647004 629365
0110010011100000100001000: 513951 550157 500008 494226 466328
0110010011100000100001000: 513951 550157 500008 494226 636849
0110010011100000100001000: 513951 550157 500008 494226 647004
0110010010100010100000100: 513951 550157 500008 494226 629365
0110010011100000100001000: 513951 550157 500008 468613 466328
0110010011100000100001000: 513951 550157 500008 468613 519783
0110010011100000100001000: 513951 550157 500008 468613 636849
0110010011100000100001000: 513951 550157 500008 468613 647004
0110010011100000100001000: 513951 550157 500008 468613 494226
0110010010100010100000100: 513951 550157 500008 468613 629365
0110010011100000100001000: 513951 550157 500008 564286 466328
0110010011100000100001000: 513951 550157 500008 564286 519783
0110010011100000100001000: 513951 550157 500008 564286 647004
0110010010100010100000100: 513951 550157 500008 564286 629365
0110010010100010100000100: 500008 513951 629365 550157 644698
0110010011100000100001000: 636849 564286 647004 468613 494226
0110010010100010100000100: 519783 621760 496527 568453 524856
0110010011100000100001000: 519783 621760 496527 468613 568453
0110010010100010100000100: 519783 621760 496527 468613 524856
0110010011100100110001000: 519783 621760 494226 568453 468613
0110010010100010100000100: 519783 550157 496527 466328 524856
0110010011100000100001000: 519783 550157 496527 636849 466328
0110010010100010100000100: 519783 550157 496527 636849 524856
0110010011100000100001000: 519783 550157 496527 513951 466328
0110010011100000100001000: 519783 550157 496527 513951 636849
0110010010100010100000100: 519783 550157 496527 513951 524856
0110010011100000100001000: 519783 550157 496527 647004 466328
0110010011100000100001000: 519783 550157 496527 647004 513951
0110010010100010100000100: 519783 550157 496527 647004 524856
0110010011100000100001000: 519783 550157 496527 468613 466328
0110010011100000100001000: 519783 550157 496527 468613 636849
0110010011100000100001000: 519783 550157 496527 468613 513951
0110010011100000100001000: 519783 550157 496527 468613 647004
0110010010100010100000100: 519783 550157 496527 468613 524856
0110010011100000100001000: 519783 550157 496527 564286 466328
0110010011100000100001000: 519783 550157 496527 564286 513951
0110010011100000100001000: 519783 550157 496527 564286 647004
0110010010100010100000100: 519783 550157 496527 564286 524856
0110010010100010100000100: 519783 550157 621760 466328 568453
0110010011100000100001000: 519783 550157 621760 636849 466328
0110010010100010100000100: 519783 550157 621760 636849 568453
0110010011100000100001000: 519783 550157 621760 513951 466328
0110010011100000100001000: 519783 550157 621760 513951 636849
0110010010100010100000100: 519783 550157 621760 513951 568453
0110010011100000100001000: 519783 550157 621760 647004 466328
0110010011100000100001000: 519783 550157 621760 647004 513951
0110010010100010100000100: 519783 550157 621760 647004 568453
0110010011100000100001000: 519783 550157 621760 564286 466328
0110010011100000100001000: 519783 550157 621760 564286 513951
0110010011100000100001000: 519783 550157 621760 564286 647004
0110010010100010100000100: 519783 550157 621760 564286 568453
0110010010100010100000100: 519783 494226 496527 568453 524856
0110010011100000100001000: 519783 494226 496527 564286 568453
0110010010100010100000100: 519783 494226 496527 564286 524856
0110010011100100110001000: 519783 494226 621760 568453 564286
0111010100110001000100010: 519783 494226 550157 496527 524856
0111110100110001000010000: 519783 494226 550157 621760 496527
0110010011100000100001000: 621760 519783 568453 550157 496527
0110010011100000100001000: 621760 519783 468613 494226 496527
0110010011100000100001000: 621760 468613 568453 632674 550157
0110010010100010100000100: 621760 468613 568453 632674 494226
0110010011100000100001000: 621760 468613 568453 564286 632674
0110010010100010100000100: 621760 468613 519783 632674 496527
0110010010100010100000100: 621760 468613 519783 632674 494226
0110010011100000100001000: 621760 468613 519783 564286 632674
0110010010100010100000100: 621760 468613 519783 564286 496527
0110010010100010100000100: 466328 550157 644698 519783 629365
0110010011100000100001000: 466328 550157 644698 636849 519783
0110010010100010100000100: 466328 550157 644698 636849 629365
0110010011100000100001000: 466328 550157 644698 513951 519783
0110010011100000100001000: 466328 550157 644698 513951 636849
0110010010100010100000100: 466328 550157 644698 513951 629365
0110010011100000100001000: 466328 550157 644698 647004 519783
0110010011100000100001000: 466328 550157 644698 647004 513951
0110010010100010100000100: 466328 550157 644698 647004 629365
0110010011100000100001000: 466328 550157 644698 494226 636849
0110010011100000100001000: 466328 550157 644698 494226 513951
0110010011100000100001000: 466328 550157 644698 494226 647004
0110010010100010100000100: 466328 550157 644698 494226 629365
0110010011100000100001000: 466328 550157 644698 468613 519783
0110010011100000100001000: 466328 550157 644698 468613 636849
0110010011100000100001000: 466328 550157 644698 468613 513951
0110010011100000100001000: 466328 550157 644698 468613 647004
0110010011100000100001000: 466328 550157 644698 468613 494226
0110010010100010100000100: 466328 550157 644698 468613 629365
0110010011100000100001000: 466328 550157 644698 564286 519783
0110010011100000100001000: 466328 550157 644698 564286 513951
0110010011100000100001000: 466328 550157 644698 564286 647004
0110010010100010100000100: 466328 550157 644698 564286 629365
0110010011100000100001000: 466328 550157 638244 636849 519783
0110010011100000100001000: 466328 550157 638244 513951 519783
0110010011100000100001000: 466328 550157 638244 513951 636849
0110010011100000100001000: 466328 550157 638244 494226 636849
0110010011100000100001000: 466328 550157 638244 494226 513951
0110010011100000100001000: 466328 550157 638244 468613 519783
0110010011100000100001000: 466328 550157 638244 468613 636849
0110010011100000100001000: 466328 550157 638244 468613 513951
0110010011100000100001000: 466328 550157 638244 468613 494226
0110010010100010100000100: 466328 638244 644698 647004 629365
0110010011100000100001000: 466328 638244 644698 490331 647004
0110010010100010100000100: 466328 638244 644698 490331 629365
0110010011100000100001000: 466328 638244 644698 564286 647004
0110010011100000100001000: 466328 638244 644698 564286 490331
0110010010100010100000100: 466328 638244 644698 564286 629365
0110010010100010100000100: 466328 638244 550157 490331 519783
0110010010100010100000100: 466328 638244 550157 490331 636849
0110010010100010100000100: 466328 638244 550157 490331 513951
0110010010100010100000100: 466328 638244 550157 490331 494226
0110010010100010100000100: 466328 638244 550157 490331 468613
0110010010100010100000100: 644698 466328 629365 550157 500008
0110010011100000100001000: 644698 466328 629365 638244 550157
0110010010100010100000100: 644698 466328 629365 638244 500008
0110010010100010100000100: 496527 519783 524856 621760 541661
0110010011100000100001000: 496527 519783 524856 550157 621760
0110010010100010100000100: 496527 519783 524856 550157 541661
0110010011100000100001000: 496527 519783 524856 494226 621760
0110010010100010100000100: 496527 519783 524856 494226 541661
0110010010100010100000100: 629365 500008 644698 513951 466328
