Vertex,0111010110110011100000100,0110010011100000100001000,0111110000100001000010000,0111110111110101110011000,0111110110110011100110110,0111110110110101110010000,0111010110110011100100110,0111010101110001000101010,0111110110110011100010100,0110010010100010100000100,0111110100110001000110010,0111110110110001100010000,0111110111110001100011000,0111110111110111110011100,0111110100110001000010000,0110010010100010100100110,0111010100110001000100010,0111010101110001000001000,0110010011100100110001000,0110010011100110110001100
561001,2.0,179.0,0.0,0.0,0.0,0.0,0.0,0.0,0.0,187.0,0.0,0.0,0.0,0.0,2.0,8.0,42.0,7.0,8.0,0.0
597426,18.0,311.0,16.0,0.0,0.0,3.0,1.0,12.0,2.0,183.0,0.0,16.0,0.0,0.0,28.0,7.0,63.0,84.0,38.0,1.0
619615,6.0,400.0,251.0,0.0,0.0,3.0,0.0,4.0,0.0,94.0,0.0,24.0,0.0,0.0,177.0,7.0,40.0,37.0,31.0,0.0
570191,66.0,431.0,128.0,12.0,3.0,38.0,8.0,31.0,23.0,214.0,24.0,116.0,3.0,2.0,256.0,7.0,123.0,207.0,90.0,2.0
561366,23.0,291.0,157.0,0.0,0.0,3.0,1.0,18.0,7.0,141.0,26.0,56.0,0.0,0.0,217.0,4.0,69.0,94.0,42.0,1.0
467688,21.0,284.0,148.0,0.0,0.0,3.0,2.0,18.0,4.0,112.0,29.0,48.0,0.0,0.0,233.0,2.0,73.0,84.0,51.0,1.0
637313,22.0,267.0,6.0,0.0,0.0,2.0,2.0,11.0,1.0,183.0,0.0,10.0,0.0,0.0,12.0,5.0,56.0,62.0,42.0,2.0
568203,5.0,228.0,16.0,0.0,0.0,3.0,0.0,4.0,0.0,67.0,0.0,14.0,0.0,0.0,23.0,1.0,28.0,54.0,21.0,0.0
554368,103.0,1184.0,638.0,12.0,2.0,38.0,13.0,63.0,42.0,209.0,76.0,255.0,4.0,2.0,846.0,6.0,197.0,385.0,195.0,6.0
564032,28.0,357.0,163.0,2.0,0.0,1.0,10.0,22.0,8.0,154.0,20.0,58.0,1.0,0.0,223.0,6.0,73.0,88.0,101.0,6.0
460381,18.0,262.0,199.0,0.0,0.0,3.0,1.0,11.0,4.0,66.0,13.0,34.0,0.0,0.0,213.0,1.0,43.0,57.0,25.0,0.0
568668,39.0,282.0,121.0,7.0,2.0,27.0,8.0,26.0,25.0,166.0,20.0,120.0,4.0,2.0,217.0,6.0,89.0,151.0,73.0,5.0
594228,44.0,336.0,20.0,3.0,3.0,0.0,11.0,22.0,9.0,138.0,0.0,33.0,3.0,0.0,25.0,3.0,61.0,104.0,107.0,6.0
654194,10.0,184.0,3.0,0.0,0.0,1.0,0.0,5.0,0.0,74.0,0.0,4.0,0.0,0.0,6.0,5.0,27.0,64.0,21.0,0.0
506867,23.0,185.0,123.0,8.0,1.0,24.0,7.0,14.0,20.0,81.0,23.0,113.0,4.0,2.0,222.0,2.0,57.0,128.0,30.0,2.0
593386,24.0,297.0,152.0,5.0,0.0,14.0,0.0,18.0,17.0,122.0,20.0,95.0,2.0,1.0,222.0,6.0,57.0,132.0,21.0,0.0
514913,18.0,225.0,127.0,2.0,0.0,1.0,0.0,7.0,14.0,74.0,26.0,80.0,2.0,0.0,220.0,2.0,54.0,66.0,15.0,0.0
545029,18.0,256.0,161.0,1.0,0.0,2.0,0.0,8.0,9.0,97.0,19.0,55.0,0.0,0.0,212.0,2.0,45.0,63.0,34.0,1.0
562355,24.0,233.0,162.0,1.0,1.0,2.0,3.0,16.0,15.0,96.0,20.0,59.0,0.0,0.0,213.0,3.0,42.0,90.0,39.0,2.0
522786,54.0,264.0,140.0,6.0,3.0,11.0,7.0,13.0,25.0,111.0,21.0,98.0,3.0,1.0,216.0,2.0,85.0,84.0,49.0,2.0
536869,11.0,210.0,163.0,0.0,0.0,3.0,0.0,2.0,8.0,44.0,21.0,54.0,1.0,0.0,206.0,2.0,40.0,45.0,16.0,0.0
546838,10.0,262.0,207.0,0.0,0.0,3.0,0.0,6.0,4.0,62.0,11.0,37.0,1.0,0.0,192.0,1.0,32.0,44.0,36.0,1.0
542209,6.0,204.0,200.0,0.0,0.0,3.0,0.0,3.0,2.0,27.0,15.0,35.0,0.0,0.0,204.0,0.0,17.0,64.0,16.0,0.0
519250,20.0,244.0,14.0,1.0,0.0,2.0,1.0,11.0,6.0,103.0,1.0,18.0,2.0,0.0,23.0,1.0,36.0,95.0,37.0,1.0
476236,7.0,184.0,0.0,0.0,0.0,0.0,0.0,10.0,0.0,115.0,0.0,3.0,0.0,0.0,2.0,1.0,36.0,56.0,32.0,1.0
graph,124.0,1512.0,663.0,12.0,3.0,38.0,15.0,71.0,49.0,584.0,77.0,287.0,6.0,2.0,882.0,18.0,297.0,469.0,234.0,8.0
