Vertex,0111101011001000,0101101001011010,0101101001001000,0110101011010010,0111101011011010,0111100010011010,0111100010001000,0111100110001100,0101101101001100,0110100010010010,0101101101011110,0110101111010110,0100101001010010,0100101101000100,0110100110000100,0110100110010110,0111100110011110,0111101111001100,0111101111011110,0110101111000100
518642,513.0,27.0,164.0,146.0,354.0,90.0,448.0,126.0,24.0,322.0,13.0,309.0,76.0,20.0,580.0,70.0,8.0,468.0,310.0,226.0
581763,345.0,59.0,133.0,88.0,111.0,56.0,588.0,92.0,16.0,278.0,4.0,94.0,51.0,16.0,520.0,140.0,4.0,144.0,0.0,148.0
554368,1377.0,59.0,227.0,365.0,478.0,244.0,1237.0,345.0,58.0,407.0,17.0,413.0,37.0,6.0,801.0,140.0,13.0,630.0,310.0,595.0
629434,365.0,33.0,124.0,92.0,93.0,60.0,537.0,96.0,16.0,273.0,6.0,81.0,44.0,20.0,502.0,105.0,5.0,108.0,0.0,156.0
601837,63.0,32.0,96.0,29.0,0.0,6.0,123.0,24.0,10.0,194.0,0.0,0.0,52.0,14.0,345.0,70.0,0.0,0.0,0.0,33.0
497201,425.0,22.0,132.0,124.0,254.0,80.0,457.0,106.0,20.0,278.0,12.0,222.0,66.0,20.0,502.0,70.0,8.0,324.0,0.0,188.0
572511,234.0,0.0,63.0,49.0,108.0,46.0,423.0,49.0,2.0,108.0,3.0,94.0,24.0,0.0,223.0,0.0,3.0,144.0,0.0,95.0
634322,278.0,0.0,44.0,60.0,84.0,54.0,392.0,60.0,4.0,66.0,0.0,70.0,4.0,0.0,154.0,0.0,0.0,126.0,155.0,114.0
543082,457.0,16.0,82.0,108.0,72.0,86.0,312.0,104.0,12.0,154.0,0.0,60.0,30.0,4.0,282.0,35.0,0.0,108.0,310.0,192.0
623997,278.0,0.0,44.0,60.0,84.0,54.0,392.0,60.0,4.0,66.0,0.0,70.0,4.0,0.0,154.0,0.0,0.0,126.0,155.0,114.0
655195,77.0,16.0,68.0,27.0,0.0,8.0,84.0,29.0,10.0,136.0,0.0,0.0,27.0,6.0,269.0,35.0,0.0,0.0,0.0,37.0
530718,202.0,32.0,118.0,56.0,72.0,36.0,526.0,48.0,8.0,222.0,0.0,60.0,37.0,8.0,418.0,70.0,0.0,108.0,0.0,88.0
647066,201.0,22.0,72.0,48.0,54.0,44.0,445.0,46.0,4.0,135.0,2.0,47.0,10.0,8.0,270.0,70.0,1.0,72.0,0.0,84.0
593386,303.0,16.0,97.0,70.0,87.0,54.0,420.0,72.0,8.0,207.0,4.0,74.0,48.0,12.0,360.0,35.0,4.0,108.0,0.0,126.0
463195,201.0,0.0,87.0,48.0,54.0,38.0,421.0,44.0,4.0,152.0,2.0,47.0,28.0,6.0,291.0,0.0,1.0,72.0,0.0,84.0
538207,356.0,16.0,79.0,75.0,55.0,66.0,303.0,81.0,6.0,171.0,5.0,51.0,47.0,2.0,291.0,35.0,5.0,54.0,0.0,145.0
460496,119.0,16.0,76.0,49.0,0.0,14.0,56.0,44.0,18.0,161.0,0.0,0.0,40.0,6.0,277.0,35.0,0.0,0.0,0.0,61.0
602692,21.0,0.0,49.0,12.0,0.0,2.0,30.0,8.0,4.0,104.0,0.0,0.0,21.0,4.0,179.0,0.0,0.0,0.0,0.0,12.0
534340,21.0,0.0,57.0,12.0,0.0,2.0,24.0,8.0,4.0,127.0,0.0,0.0,44.0,4.0,186.0,0.0,0.0,0.0,0.0,12.0
571810,63.0,22.0,68.0,29.0,0.0,12.0,93.0,26.0,10.0,165.0,0.0,0.0,35.0,8.0,291.0,70.0,0.0,0.0,0.0,33.0
654568,41.0,0.0,40.0,17.0,0.0,4.0,69.0,16.0,6.0,86.0,0.0,0.0,15.0,6.0,165.0,0.0,0.0,0.0,0.0,21.0
552808,0.0,0.0,14.0,0.0,0.0,0.0,24.0,0.0,0.0,41.0,0.0,0.0,16.0,4.0,49.0,0.0,0.0,0.0,0.0,0.0
536134,0.0,0.0,18.0,0.0,0.0,0.0,24.0,0.0,0.0,70.0,0.0,0.0,32.0,2.0,91.0,0.0,0.0,0.0,0.0,0.0
539876,0.0,0.0,8.0,0.0,0.0,0.0,0.0,0.0,0.0,25.0,0.0,0.0,8.0,0.0,28.0,0.0,0.0,0.0,0.0,0.0
graph,1485.0,97.0,490.0,391.0,490.0,264.0,1857.0,371.0,62.0,987.0,17.0,423.0,199.0,44.0,1807.0,245.0,13.0,648.0,310.0,641.0
