0110010011100000100001000: 570367 625657 502617 602394 556733
0110010011100100110001000: 570367 625657 570191 556733 602394
0110010011100000100001000: 570367 625657 469276 602394 556733
0110010010100010100000100: 570367 502617 625657 639882 556733
0110010010100010100000100: 570367 502617 625657 639882 602394
0110010011100000100001000: 570367 502617 625657 643151 639882
0110010010100010100000100: 570367 502617 625657 643151 556733
0110010010100010100000100: 570367 502617 625657 643151 602394
0110010011100100110001000: 570367 502617 570191 643151 639882
0111010101110001000001000: 570367 502617 469276 625657 643151
0110010010100010100000100: 570367 570191 625657 610882 602394
0110010011100000100001000: 570367 570191 625657 539994 610882
0110010010100010100100110: 570367 570191 625657 539994 602394
0110010011100000100001000: 570367 570191 625657 589380 610882
0110010011100000100001000: 570367 570191 625657 589380 539994
0110010010100010100100110: 570367 570191 625657 589380 602394
0110010011100000100001000: 570367 570191 625657 494724 610882
0110010011100000100001000: 570367 570191 625657 494724 539994
0110010011100000100001000: 570367 570191 625657 494724 589380
0110010010100010100000100: 570367 570191 625657 494724 602394
0110010011100000100001000: 570367 570191 625657 509097 610882
0110010011100000100001000: 570367 570191 625657 509097 539994
0110010011100000100001000: 570367 570191 625657 509097 589380
0110010011100000100001000: 570367 570191 625657 509097 494724
0110010010100010100000100: 570367 570191 625657 509097 602394
0110010011100000100001000: 570367 570191 625657 643151 610882
0110010011100000100001000: 570367 570191 625657 643151 539994
0110010011100000100001000: 570367 570191 625657 643151 589380
0110010011100000100001000: 570367 570191 625657 643151 494724
0110010010100010100000100: 570367 570191 625657 643151 602394
0110010011100000100001000: 570367 570191 625657 524316 610882
0110010011100000100001000: 570367 570191 625657 524316 494724
0110010011100000100001000: 570367 570191 625657 524316 509097
0110010010100010100000100: 570367 570191 625657 524316 602394
0110010011100100110001000: 570367 570191 625657 556733 610882
0110010011100100110001000: 570367 570191 625657 556733 539994
0110010011100100110001000: 570367 570191 625657 556733 589380
0110010011100100110001000: 570367 570191 625657 556733 509097
0110010011100100110001000: 570367 570191 625657 556733 643151
0110010011100100110001000: 570367 570191 625657 556733 524316
0110010010100010100000100: 570367 570191 502617 610882 639882
0110010011100000100001000: 570367 570191 502617 539994 610882
0110010010100010100000100: 570367 570191 502617 539994 639882
0110010011100000100001000: 570367 570191 502617 589380 610882
0110010011100000100001000: 570367 570191 502617 589380 539994
0110010010100010100000100: 570367 570191 502617 589380 639882
0110010011100000100001000: 570367 570191 502617 556733 610882
0110010011100000100001000: 570367 570191 502617 556733 539994
0110010011100000100001000: 570367 570191 502617 556733 589380
0110010010100010100000100: 570367 570191 502617 556733 639882
0110010011100000100001000: 570367 570191 502617 494724 610882
0110010011100000100001000: 570367 570191 502617 494724 539994
0110010011100000100001000: 570367 570191 502617 494724 589380
0110010010100010100100110: 570367 570191 502617 494724 639882
0110010011100000100001000: 570367 570191 502617 509097 610882
0110010011100000100001000: 570367 570191 502617 509097 539994
0110010011100000100001000: 570367 570191 502617 509097 589380
0110010011100000100001000: 570367 570191 502617 509097 556733
0110010011100000100001000: 570367 570191 502617 509097 494724
0110010010100010100000100: 570367 570191 502617 509097 639882
0110010011100000100001000: 570367 570191 502617 524316 610882
0110010011100000100001000: 570367 570191 502617 524316 556733
0110010011100000100001000: 570367 570191 502617 524316 494724
0110010011100000100001000: 570367 570191 502617 524316 509097
0110010010100010100100110: 570367 570191 502617 524316 639882
0110010011100100110001000: 570367 570191 502617 643151 610882
0110010011100100110001000: 570367 570191 502617 643151 539994
0110010011100100110001000: 570367 570191 502617 643151 589380
0110010011100100110001000: 570367 570191 502617 643151 556733
0110010011100100110001000: 570367 570191 502617 643151 494724
0111010101110001000001000: 570367 570191 469276 625657 610882
0111010101110001000001000: 570367 570191 469276 625657 539994
0111010101110001000001000: 570367 570191 469276 625657 589380
0111010101110001000001000: 570367 570191 469276 625657 494724
0111010101110001000001000: 570367 570191 469276 625657 643151
0111010101110001000001000: 570367 570191 469276 625657 524316
0111010101110001000101010: 570367 570191 469276 625657 556733
0110010010100010100000100: 570367 469276 625657 483793 556733
0110010010100010100000100: 570367 469276 625657 483793 602394
0110010011100000100001000: 570367 469276 625657 639882 483793
0110010010100010100000100: 570367 469276 625657 639882 556733
0110010010100010100000100: 570367 469276 625657 639882 602394
0110010011100000100001000: 570367 469276 625657 509097 483793
0110010011100000100001000: 570367 469276 625657 509097 639882
0110010010100010100000100: 570367 469276 625657 509097 556733
0110010010100010100000100: 570367 469276 625657 509097 602394
0111010101110001000001000: 570367 469276 502617 625657 483793
0111010101110001000001000: 570367 469276 502617 625657 509097
0111010100110001000100010: 570367 469276 502617 625657 556733
0111010100110001000100010: 570367 469276 502617 625657 602394
0111010101110001000001000: 570367 469276 570191 625657 483793
0111010101110001000001000: 570367 469276 570191 625657 639882
0111010100110001000100010: 570367 469276 570191 625657 602394
0111110110110001100010000: 570367 469276 570191 502617 625657
0111010110110011100000100: 570367 469276 570191 502617 610882
0111010110110011100000100: 570367 469276 570191 502617 539994
0111010110110011100000100: 570367 469276 570191 502617 589380
0111010110110011100000100: 570367 469276 570191 502617 556733
0111010110110011100000100: 570367 469276 570191 502617 494724
0111010110110011100000100: 570367 469276 570191 502617 524316
0111010110110011100100110: 570367 469276 570191 502617 643151
0110010010100010100100110: 469276 639882 483793 580418 589380
0110010011100000100001000: 469276 639882 483793 494724 580418
0110010010100010100000100: 469276 639882 483793 494724 589380
0110010011100100110001000: 469276 639882 483793 524316 580418
0110010011100100110001000: 469276 639882 483793 524316 494724
0110010011100000100001000: 469276 639882 509097 494724 580418
0110010011100000100001000: 469276 639882 509097 524316 580418
0110010011100000100001000: 469276 639882 509097 524316 494724
0110010011100100110001000: 469276 639882 570191 494724 580418
0110010011100100110001000: 469276 639882 570191 524316 580418
0110010011100000100001000: 469276 639882 570367 494724 580418
0110010011100000100001000: 469276 639882 570367 524316 580418
0110010011100000100001000: 469276 639882 570367 524316 494724
0111010101110001000001000: 469276 639882 502617 483793 580418
0111010101110001000001000: 469276 639882 502617 483793 494724
0111010101110001000101010: 469276 639882 502617 483793 524316
0111010101110001000001000: 469276 639882 502617 509097 580418
0111010101110001000001000: 469276 639882 502617 509097 494724
0111010101110001000001000: 469276 639882 502617 509097 524316
0111010101110001000001000: 469276 639882 502617 570191 580418
0111010101110001000101010: 469276 639882 502617 570191 494724
0111010101110001000101010: 469276 639882 502617 570191 524316
0110010010100010100000100: 469276 502617 483793 643151 589380
0110010010100010100100110: 469276 502617 483793 643151 524316
0111010101110001000001000: 469276 502617 639882 483793 643151
0111010100110001000100010: 469276 502617 639882 483793 589380
0111110100110001000010000: 469276 502617 639882 509097 483793
0111010101110001000101010: 469276 502617 639882 509097 643151
0111110100110001000010000: 469276 502617 639882 570191 483793
0111010100110001000100010: 469276 502617 639882 570191 610882
0111010100110001000100010: 469276 502617 639882 570191 539994
0111010100110001000100010: 469276 502617 639882 570191 589380
0111010100110001000100010: 469276 502617 639882 570191 556733
0111010101110001000101010: 469276 502617 639882 570191 643151
0111010110110011100000100: 469276 502617 639882 570367 580418
0111010110110011100000100: 469276 502617 639882 570367 494724
0111010110110011100000100: 469276 502617 639882 570367 524316
0111010101110001000001000: 469276 502617 570367 483793 643151
0111010101110001000101010: 469276 502617 570367 509097 643151
0111110110110001100010000: 469276 502617 570367 639882 483793
0111110110110001100010000: 469276 502617 570367 639882 509097
0111010110110011100000100: 469276 502617 570367 639882 625657
0110010010100010100000100: 469276 509097 483793 643151 589380
0110010010100010100100110: 469276 509097 483793 643151 524316
0110010010100010100000100: 469276 509097 639882 643151 580418
0110010010100010100000100: 469276 509097 639882 643151 494724
0110010010100010100100110: 469276 509097 639882 643151 524316
0110010011100000100001000: 469276 570191 483793 539994 610882
0110010011100000100001000: 469276 570191 483793 556733 610882
0110010011100000100001000: 469276 570191 483793 556733 539994
0110010011100000100001000: 469276 570191 483793 494724 610882
0110010011100000100001000: 469276 570191 483793 494724 539994
0110010011100000100001000: 469276 570191 483793 643151 610882
0110010011100000100001000: 469276 570191 483793 643151 539994
0110010011100000100001000: 469276 570191 483793 643151 556733
0110010011100000100001000: 469276 570191 483793 643151 494724
0110010011100100110001000: 469276 570191 483793 589380 610882
0110010011100100110001000: 469276 570191 483793 589380 539994
0110010011100100110001000: 469276 570191 483793 589380 556733
0110010011100100110001000: 469276 570191 483793 589380 494724
0110010011100100110001000: 469276 570191 483793 589380 643151
0110010011100100110001000: 469276 570191 483793 524316 610882
0110010011100100110001000: 469276 570191 483793 524316 556733
0110010011100100110001000: 469276 570191 483793 524316 494724
0110010010100010100000100: 469276 570191 639882 610882 580418
0110010011100000100001000: 469276 570191 639882 539994 610882
0110010010100010100000100: 469276 570191 639882 539994 580418
0110010011100000100001000: 469276 570191 639882 589380 610882
0110010011100000100001000: 469276 570191 639882 589380 539994
0110010010100010100100110: 469276 570191 639882 589380 580418
0110010011100000100001000: 469276 570191 639882 556733 610882
0110010011100000100001000: 469276 570191 639882 556733 539994
0110010011100000100001000: 469276 570191 639882 556733 589380
0110010010100010100000100: 469276 570191 639882 556733 580418
0110010011100000100001000: 469276 570191 639882 643151 610882
0110010011100000100001000: 469276 570191 639882 643151 539994
0110010011100000100001000: 469276 570191 639882 643151 589380
0110010011100000100001000: 469276 570191 639882 643151 556733
0110010010100010100000100: 469276 570191 639882 643151 580418
0110010011100100110001000: 469276 570191 639882 494724 610882
0110010011100100110001000: 469276 570191 639882 494724 539994
0110010011100100110001000: 469276 570191 639882 494724 589380
0110010011100100110001000: 469276 570191 639882 494724 643151
0110010011100100110001000: 469276 570191 639882 524316 610882
0110010011100100110001000: 469276 570191 639882 524316 556733
0110010011100110110001100: 469276 570191 639882 524316 494724
0110010011100000100001000: 469276 570191 502617 539994 610882
0110010011100000100001000: 469276 570191 502617 589380 610882
0110010011100000100001000: 469276 570191 502617 589380 539994
0110010011100000100001000: 469276 570191 502617 556733 610882
0110010011100000100001000: 469276 570191 502617 556733 539994
0110010011100000100001000: 469276 570191 502617 556733 589380
0110010011100000100001000: 469276 570191 502617 494724 610882
0110010011100000100001000: 469276 570191 502617 494724 539994
0110010011100000100001000: 469276 570191 502617 494724 589380
0110010011100000100001000: 469276 570191 502617 524316 610882
0110010011100000100001000: 469276 570191 502617 524316 556733
0110010011100000100001000: 469276 570191 502617 524316 494724
0110010011100100110001000: 469276 570191 502617 643151 610882
0110010011100100110001000: 469276 570191 502617 643151 539994
0110010011100100110001000: 469276 570191 502617 643151 589380
0110010011100100110001000: 469276 570191 502617 643151 556733
0110010011100100110001000: 469276 570191 502617 643151 494724
0111010101110001000001000: 469276 570191 509097 483793 610882
0111010101110001000001000: 469276 570191 509097 483793 539994
0111010101110001000001000: 469276 570191 509097 483793 556733
0111010101110001000001000: 469276 570191 509097 483793 494724
0111010101110001000101010: 469276 570191 509097 483793 589380
0111010101110001000101010: 469276 570191 509097 483793 524316
0111110100110001000010000: 469276 570191 509097 639882 483793
0111010101110001000001000: 469276 570191 509097 639882 610882
0111010101110001000001000: 469276 570191 509097 639882 539994
0111010101110001000001000: 469276 570191 509097 639882 589380
0111010101110001000001000: 469276 570191 509097 639882 556733
0111010100110001000100010: 469276 570191 509097 639882 580418
0111010101110001000101010: 469276 570191 509097 639882 494724
0111010101110001000101010: 469276 570191 509097 639882 524316
0111110100110001000010000: 469276 570191 509097 502617 483793
0111010101110001000001000: 469276 570191 509097 502617 610882
0111010101110001000001000: 469276 570191 509097 502617 539994
0111010101110001000001000: 469276 570191 509097 502617 589380
0111010101110001000001000: 469276 570191 509097 502617 556733
0111010101110001000001000: 469276 570191 509097 502617 494724
0111010101110001000001000: 469276 570191 509097 502617 524316
0111110100110001000110010: 469276 570191 509097 502617 639882
0111010101110001000001000: 469276 570191 570367 483793 610882
0111010101110001000001000: 469276 570191 570367 483793 539994
0111010101110001000001000: 469276 570191 570367 483793 556733
0111010101110001000001000: 469276 570191 570367 483793 494724
0111010101110001000001000: 469276 570191 570367 483793 643151
0111010101110001000101010: 469276 570191 570367 483793 589380
0111010101110001000101010: 469276 570191 570367 483793 524316
0111010101110001000001000: 469276 570191 570367 639882 610882
0111010101110001000001000: 469276 570191 570367 639882 539994
0111010101110001000001000: 469276 570191 570367 639882 589380
0111010101110001000001000: 469276 570191 570367 639882 556733
0111010101110001000001000: 469276 570191 570367 639882 643151
0111010101110001000101010: 469276 570191 570367 639882 494724
0111010101110001000101010: 469276 570191 570367 639882 524316
0111110110110001100010000: 469276 570191 570367 509097 483793
0111110110110001100010000: 469276 570191 570367 509097 639882
0111010110110011100000100: 469276 570191 570367 509097 625657
0110010010100010100000100: 469276 570367 483793 625657 589380
0110010010100010100000100: 469276 570367 483793 625657 524316
0110010010100010100000100: 469276 570367 639882 625657 580418
0110010010100010100000100: 469276 570367 639882 625657 494724
0110010010100010100000100: 469276 570367 639882 625657 524316
0111110000100001000010000: 469276 570367 509097 639882 483793
0110010010100010100000100: 469276 570367 509097 625657 643151
0111010100110001000100010: 469276 570367 502617 483793 589380
0111010100110001000100010: 469276 570367 502617 483793 524316
0111110100110001000010000: 469276 570367 502617 509097 483793
0111110110110011100010100: 469276 570367 502617 570191 639882
0111110100110001000010000: 469276 570367 570191 639882 483793
0111010100110001000100010: 469276 570367 570191 639882 580418
0111110110110001100010000: 469276 570367 570191 502617 483793
0111110110110011100010100: 469276 570367 570191 502617 509097
0110010011100000100001000: 602394 625657 539994 570367 556733
0110010011100000100001000: 602394 625657 589380 570367 556733
0110010011100000100001000: 602394 625657 553971 570367 556733
0110010010100010100100110: 602394 539994 625657 570191 556733
0110010010100010100000100: 602394 539994 625657 524316 556733
0110010010100010100000100: 602394 539994 625657 524316 570367
0110010010100010100000100: 602394 589380 625657 483793 556733
0110010010100010100000100: 602394 589380 625657 483793 570367
0110010011100000100001000: 602394 589380 625657 580418 483793
0110010010100010100000100: 602394 589380 625657 580418 556733
0110010010100010100000100: 602394 589380 625657 580418 570367
0110010011100000100001000: 602394 589380 625657 570191 483793
0110010011100000100001000: 602394 589380 625657 570191 580418
0110010010100010100100110: 602394 589380 625657 570191 556733
0110010011100000100001000: 602394 589380 625657 524316 580418
0110010010100010100000100: 602394 589380 625657 524316 556733
0110010010100010100000100: 602394 589380 625657 524316 570367
0110010011100000100001000: 602394 589380 539994 580418 483793
0110010011100100110001000: 602394 589380 539994 570191 483793
0110010011100100110001000: 602394 589380 539994 570191 580418
0110010011100100110001000: 602394 589380 539994 524316 580418
0110010011100000100001000: 602394 589380 553971 580418 483793
0110010011100000100001000: 602394 589380 553971 570191 483793
0110010011100000100001000: 602394 589380 553971 570191 580418
0110010011100000100001000: 602394 589380 553971 524316 580418
0110010010100010100000100: 602394 553971 625657 610882 556733
0110010010100010100000100: 602394 553971 625657 610882 570367
0110010010100010100000100: 602394 553971 539994 610882 524316
0110010010100010100100110: 602394 553971 539994 610882 570191
0111110000100001000010000: 602394 553971 589380 539994 625657
0110010010100010100000100: 602394 553971 589380 610882 483793
0110010010100010100000100: 602394 553971 589380 610882 580418
0110010010100010100000100: 602394 553971 589380 610882 524316
0110010010100010100100110: 602394 553971 589380 610882 570191
0110010010100010100000100: 553971 602394 610882 625657 570191
0110010011100000100001000: 553971 602394 610882 539994 625657
0110010011100000100001000: 553971 602394 610882 589380 625657
0110010011100000100001000: 553971 602394 610882 589380 539994
0111010101110001000001000: 524316 483793 589380 539994 469276
0111010101110001000101010: 524316 483793 589380 639882 469276
0111010101110001000001000: 524316 483793 589380 643151 469276
0110010010100010100000100: 524316 539994 483793 602394 469276
0111010101110001000001000: 524316 539994 570191 483793 602394
0111010101110001000001000: 524316 539994 570191 639882 602394
0110010011100000100001000: 524316 639882 483793 502617 580418
0110010011100000100001000: 524316 639882 483793 494724 580418
0110010011100000100001000: 524316 639882 483793 494724 502617
0110010010100010100000100: 524316 639882 539994 580418 602394
0110010011100000100001000: 524316 639882 539994 502617 580418
0110010010100010100000100: 524316 639882 539994 502617 602394
0110010011100000100001000: 524316 639882 539994 494724 580418
0110010011100000100001000: 524316 639882 539994 494724 502617
0110010010100010100000100: 524316 639882 539994 494724 602394
0110010011100000100001000: 524316 639882 539994 469276 580418
0110010011100000100001000: 524316 639882 539994 469276 494724
0110010010100010100000100: 524316 639882 539994 469276 602394
0110010011100000100001000: 524316 639882 589380 494724 502617
0110010011100000100001000: 524316 639882 589380 469276 494724
0110010011100100110001000: 524316 639882 589380 580418 502617
0110010011100100110001000: 524316 639882 589380 580418 494724
0110010011100100110001000: 524316 639882 589380 580418 469276
0110010011100000100001000: 524316 639882 643151 494724 580418
0110010011100000100001000: 524316 639882 643151 469276 580418
0110010011100000100001000: 524316 639882 643151 469276 494724
0110010011100100110001000: 524316 639882 643151 502617 580418
0110010011100100110001000: 524316 639882 643151 502617 494724
0110010011100000100001000: 524316 639882 570191 502617 580418
0110010011100100110001000: 524316 639882 570191 494724 580418
0110010011100100110001000: 524316 639882 570191 494724 502617
0110010010100010100000100: 524316 589380 639882 602394 502617
0110010010100010100000100: 524316 589380 639882 602394 494724
0110010010100010100000100: 524316 589380 639882 602394 469276
0110010011100100110001000: 524316 589380 639882 580418 602394
0110010011100000100001000: 524316 589380 643151 602394 580418
0111010101110001000001000: 524316 589380 483793 539994 580418
0111010101110001000101010: 524316 589380 483793 539994 602394
0111110100110001000010000: 524316 589380 483793 639882 539994
0111010101110001000001000: 524316 589380 483793 639882 602394
0111010100110001000100010: 524316 589380 483793 639882 502617
0111010100110001000100010: 524316 589380 483793 639882 494724
0111010101110001000101010: 524316 589380 483793 639882 580418
0111110100110001000010000: 524316 589380 483793 643151 539994
0111110100110001000010000: 524316 589380 483793 643151 639882
0111010101110001000001000: 524316 589380 483793 643151 580418
0111010101110001000001000: 524316 589380 483793 643151 602394
0111010100110001000100010: 524316 589380 483793 643151 502617
0111010100110001000100010: 524316 589380 483793 643151 509097
0111010101110001000001000: 524316 589380 570191 639882 602394
0111010101110001000101010: 524316 589380 570191 639882 580418
0111110110110001100010000: 524316 589380 570191 483793 639882
0111010110110011100000100: 524316 589380 570191 483793 610882
0111010110110011100000100: 524316 589380 570191 483793 556733
0111010110110011100000100: 524316 589380 570191 483793 494724
0111010110110011100000100: 524316 589380 570191 483793 509097
0111010110110011100000100: 524316 589380 570191 483793 570367
0111010110110011100100110: 524316 589380 570191 483793 469276
0110010011100000100001000: 524316 643151 483793 509097 502617
0110010010100010100000100: 524316 643151 539994 502617 602394
0110010011100000100001000: 524316 643151 539994 509097 502617
0110010010100010100000100: 524316 643151 539994 509097 602394
0111110000100001000010000: 524316 643151 639882 539994 483793
0110010010100010100000100: 524316 643151 639882 509097 580418
0110010010100010100000100: 524316 643151 639882 509097 494724
0110010011100100110001000: 524316 643151 639882 502617 509097
0111110000100001000010000: 524316 643151 589380 639882 539994
0110010010100010100000100: 524316 643151 589380 502617 580418
0110010010100010100000100: 524316 643151 589380 502617 602394
0110010011100000100001000: 524316 643151 589380 509097 502617
0110010010100010100000100: 524316 643151 589380 509097 580418
0110010010100010100000100: 524316 643151 589380 509097 602394
0111010101110001000001000: 524316 643151 570191 483793 502617
0111010101110001000101010: 524316 643151 570191 639882 502617
0110010011100000100001000: 524316 570191 483793 556733 610882
0110010011100000100001000: 524316 570191 483793 494724 610882
0110010011100000100001000: 524316 570191 483793 509097 610882
0110010011100000100001000: 524316 570191 483793 509097 556733
0110010011100000100001000: 524316 570191 483793 509097 494724
0110010011100000100001000: 524316 570191 483793 570367 610882
0110010011100000100001000: 524316 570191 483793 570367 556733
0110010011100000100001000: 524316 570191 483793 570367 494724
0110010011100000100001000: 524316 570191 483793 570367 509097
0110010010100010100000100: 524316 570191 639882 610882 580418
0110010010100010100000100: 524316 570191 639882 610882 502617
0110010011100000100001000: 524316 570191 639882 556733 610882
0110010010100010100000100: 524316 570191 639882 556733 580418
0110010010100010100000100: 524316 570191 639882 556733 502617
0110010011100000100001000: 524316 570191 639882 509097 610882
0110010011100000100001000: 524316 570191 639882 509097 556733
0110010010100010100000100: 524316 570191 639882 509097 580418
0110010010100010100000100: 524316 570191 639882 509097 502617
0110010011100000100001000: 524316 570191 639882 570367 610882
0110010011100000100001000: 524316 570191 639882 570367 556733
0110010011100000100001000: 524316 570191 639882 570367 509097
0110010010100010100000100: 524316 570191 639882 570367 580418
0110010011100100110001000: 524316 570191 639882 494724 610882
0110010011100100110001000: 524316 570191 639882 494724 509097
0110010011100100110001000: 524316 570191 639882 494724 570367
0111010101110001000001000: 524316 570191 539994 483793 610882
0111010101110001000001000: 524316 570191 539994 483793 556733
0111010101110001000001000: 524316 570191 539994 483793 494724
0111010101110001000001000: 524316 570191 539994 483793 509097
0111010101110001000001000: 524316 570191 539994 483793 570367
0111010101110001000101010: 524316 570191 539994 483793 469276
0111110100110001000010000: 524316 570191 539994 639882 483793
0111010101110001000001000: 524316 570191 539994 639882 610882
0111010101110001000001000: 524316 570191 539994 639882 556733
0111010101110001000001000: 524316 570191 539994 639882 509097
0111010101110001000001000: 524316 570191 539994 639882 570367
0111010100110001000100010: 524316 570191 539994 639882 580418
0111010100110001000100010: 524316 570191 539994 639882 502617
0111010101110001000101010: 524316 570191 539994 639882 494724
0111010101110001000101010: 524316 570191 539994 639882 469276
0111010110110011100000100: 524316 570191 539994 643151 602394
0111010101110001000001000: 524316 570191 589380 639882 610882
0111010101110001000001000: 524316 570191 589380 639882 556733
0111010101110001000001000: 524316 570191 589380 639882 509097
0111010101110001000001000: 524316 570191 589380 639882 570367
0111010100110001000100010: 524316 570191 589380 639882 502617
0111010101110001000101010: 524316 570191 589380 639882 494724
0111010101110001000101010: 524316 570191 589380 639882 469276
0111110110110001100010000: 524316 570191 589380 539994 639882
0111110110110011100010100: 524316 570191 589380 539994 483793
0111010110110011100000100: 524316 570191 589380 539994 580418
0111010110110011100100110: 524316 570191 589380 539994 602394
0111110110110011100010100: 524316 570191 589380 643151 483793
0111010110110011100000100: 524316 570191 589380 643151 580418
0111010110110011100000100: 524316 570191 589380 643151 602394
0111010101110001000001000: 524316 570191 643151 483793 610882
0111010101110001000001000: 524316 570191 643151 483793 556733
0111010101110001000001000: 524316 570191 643151 483793 494724
0111010101110001000001000: 524316 570191 643151 483793 570367
0111010101110001000101010: 524316 570191 643151 483793 469276
0111110100110001000010000: 524316 570191 643151 639882 483793
0111010101110001000001000: 524316 570191 643151 639882 610882
0111010101110001000001000: 524316 570191 643151 639882 556733
0111010101110001000001000: 524316 570191 643151 639882 570367
0111010100110001000100010: 524316 570191 643151 639882 580418
0111010101110001000101010: 524316 570191 643151 639882 494724
0111010101110001000101010: 524316 570191 643151 639882 469276
0111110110110001100010000: 524316 570191 643151 539994 483793
0111110110110001100010000: 524316 570191 643151 539994 639882
0111010110110011100000100: 524316 570191 643151 539994 502617
0111110110110001100010000: 524316 570191 643151 589380 639882
0111110111110001100011000: 524316 570191 643151 589380 539994
0111010110110011100000100: 524316 570191 643151 589380 502617
0111010101110001000001000: 570191 539994 524316 610882 602394
0111010101110001000001000: 570191 539994 524316 556733 602394
0111010101110001000001000: 570191 539994 524316 494724 602394
0111010101110001000001000: 570191 539994 524316 509097 602394
0111010101110001000001000: 570191 539994 524316 469276 602394
0111010101110001000001000: 570191 539994 524316 570367 602394
0110010010100010100000100: 570191 589380 610882 483793 553971
0110010011100000100001000: 570191 589380 610882 580418 483793
0110010010100010100000100: 570191 589380 610882 580418 553971
0110010011100000100001000: 570191 589380 610882 602394 483793
0110010011100000100001000: 570191 589380 610882 602394 580418
0110010011100000100001000: 570191 589380 539994 580418 483793
0110010011100000100001000: 570191 589380 556733 580418 483793
0110010011100000100001000: 570191 589380 556733 602394 483793
0110010011100000100001000: 570191 589380 556733 602394 580418
0110010011100000100001000: 570191 589380 494724 580418 483793
0110010011100000100001000: 570191 589380 494724 602394 483793
0110010011100000100001000: 570191 589380 494724 602394 580418
0110010011100000100001000: 570191 589380 509097 580418 483793
0110010011100000100001000: 570191 589380 509097 602394 483793
0110010011100000100001000: 570191 589380 509097 602394 580418
0110010011100000100001000: 570191 589380 643151 580418 483793
0110010011100000100001000: 570191 589380 643151 602394 483793
0110010011100000100001000: 570191 589380 643151 602394 580418
0110010011100000100001000: 570191 589380 469276 602394 580418
0110010011100100110001000: 570191 589380 469276 483793 580418
0110010011100100110001000: 570191 589380 469276 483793 602394
0110010011100000100001000: 570191 589380 570367 580418 483793
0110010011100000100001000: 570191 589380 570367 602394 483793
0110010011100000100001000: 570191 589380 570367 602394 580418
0111010101110001000001000: 570191 589380 524316 610882 580418
0111010101110001000001000: 570191 589380 524316 610882 602394
0111010101110001000001000: 570191 589380 524316 556733 580418
0111010101110001000001000: 570191 589380 524316 556733 602394
0111010101110001000001000: 570191 589380 524316 494724 580418
0111010101110001000001000: 570191 589380 524316 494724 602394
0111010101110001000001000: 570191 589380 524316 509097 580418
0111010101110001000001000: 570191 589380 524316 509097 602394
0111010101110001000001000: 570191 589380 524316 469276 580418
0111010101110001000001000: 570191 589380 524316 469276 602394
0111010101110001000001000: 570191 589380 524316 570367 580418
0111010101110001000001000: 570191 589380 524316 570367 602394
0110010010100010100000100: 570191 556733 610882 625657 553971
0111110000100001000010000: 570191 556733 589380 539994 610882
0110010010100010100000100: 570191 556733 589380 625657 483793
0110010010100010100000100: 570191 556733 589380 625657 580418
0111010101110001000001000: 570191 556733 494724 610882 625657
0111010101110001000001000: 570191 556733 494724 539994 625657
0111010101110001000001000: 570191 556733 494724 589380 625657
0111010101110001000001000: 570191 556733 494724 509097 625657
0111010101110001000001000: 570191 556733 494724 643151 625657
0111010101110001000001000: 570191 556733 494724 524316 625657
0111010101110001000001000: 570191 556733 494724 469276 625657
0111010101110001000101010: 570191 556733 494724 570367 625657
0110010010100010100000100: 570191 494724 610882 639882 553971
0110010010100010100000100: 570191 494724 539994 639882 602394
0111110000100001000010000: 570191 494724 589380 539994 610882
0110010010100010100000100: 570191 494724 589380 639882 483793
0110010010100010100000100: 570191 494724 589380 639882 602394
0110010010100010100100110: 570191 494724 589380 639882 580418
0111010101110001000001000: 570191 494724 556733 610882 639882
0111010100110001000100010: 570191 494724 556733 610882 553971
0111110100110001000010000: 570191 494724 556733 539994 610882
0111010101110001000001000: 570191 494724 556733 539994 639882
0111010100110001000100010: 570191 494724 556733 539994 602394
0111110100110001000010000: 570191 494724 556733 589380 610882
0111110100110001000010000: 570191 494724 556733 589380 539994
0111010101110001000001000: 570191 494724 556733 589380 639882
0111010100110001000100010: 570191 494724 556733 589380 483793
0111010100110001000100010: 570191 494724 556733 589380 580418
0111010100110001000100010: 570191 494724 556733 589380 602394
0111110100110001000010000: 570191 494724 556733 509097 610882
0111110100110001000010000: 570191 494724 556733 509097 539994
0111110100110001000010000: 570191 494724 556733 509097 589380
0111010101110001000001000: 570191 494724 556733 509097 639882
0111110100110001000010000: 570191 494724 556733 643151 610882
0111110100110001000010000: 570191 494724 556733 643151 539994
0111110100110001000010000: 570191 494724 556733 643151 589380
0111010101110001000001000: 570191 494724 556733 643151 639882
0111010100110001000100010: 570191 494724 556733 643151 502617
0111110100110001000010000: 570191 494724 556733 524316 610882
0111110100110001000010000: 570191 494724 556733 524316 509097
0111010100110001000100010: 570191 494724 556733 524316 483793
0111010101110001000101010: 570191 494724 556733 524316 639882
0111110100110001000010000: 570191 494724 556733 469276 610882
0111110100110001000010000: 570191 494724 556733 469276 539994
0111110100110001000010000: 570191 494724 556733 469276 589380
0111110100110001000010000: 570191 494724 556733 469276 643151
0111110100110001000010000: 570191 494724 556733 469276 524316
0111010100110001000100010: 570191 494724 556733 469276 483793
0111010100110001000100010: 570191 494724 556733 469276 502617
0111010101110001000101010: 570191 494724 556733 469276 639882
0111110100110001000010000: 570191 494724 556733 570367 610882
0111110100110001000010000: 570191 494724 556733 570367 539994
0111110100110001000010000: 570191 494724 556733 570367 589380
0111110100110001000010000: 570191 494724 556733 570367 509097
0111110100110001000010000: 570191 494724 556733 570367 643151
0111110100110001000010000: 570191 494724 556733 570367 524316
0111010101110001000001000: 570191 494724 556733 570367 639882
0111010100110001000100010: 570191 494724 556733 570367 502617
0111110000100001000010000: 570191 509097 589380 539994 610882
0111110000100001000010000: 570191 509097 556733 539994 610882
0111110000100001000010000: 570191 509097 556733 589380 610882
0111110000100001000010000: 570191 509097 556733 589380 539994
0111110000100001000010000: 570191 509097 494724 539994 610882
0111110000100001000010000: 570191 509097 494724 589380 610882
0111110000100001000010000: 570191 509097 494724 589380 539994
0111110110110001100010000: 570191 509097 469276 643151 610882
0111110110110001100010000: 570191 509097 469276 643151 539994
0111110110110001100010000: 570191 509097 469276 643151 589380
0111110110110001100010000: 570191 509097 469276 643151 556733
0111110110110001100010000: 570191 509097 469276 643151 494724
0111010110110011100000100: 570191 509097 469276 643151 483793
0111010110110011100000100: 570191 509097 469276 643151 639882
0111010110110011100100110: 570191 509097 469276 643151 502617
0110010010100010100000100: 570191 643151 610882 502617 553971
0110010010100010100000100: 570191 643151 539994 502617 602394
0111110000100001000010000: 570191 643151 589380 539994 610882
0110010010100010100000100: 570191 643151 589380 502617 483793
0110010010100010100000100: 570191 643151 589380 502617 580418
0110010010100010100000100: 570191 643151 589380 502617 602394
0111110000100001000010000: 570191 643151 556733 539994 610882
0111110000100001000010000: 570191 643151 556733 589380 610882
0111110000100001000010000: 570191 643151 556733 589380 539994
0110010010100010100000100: 570191 643151 556733 502617 625657
0111110000100001000010000: 570191 643151 494724 539994 610882
0111110000100001000010000: 570191 643151 494724 589380 610882
0111110000100001000010000: 570191 643151 494724 589380 539994
0110010010100010100100110: 570191 643151 494724 502617 639882
0111010101110001000001000: 570191 643151 509097 610882 502617
0111010100110001000100010: 570191 643151 509097 610882 553971
0111110100110001000010000: 570191 643151 509097 539994 610882
0111010101110001000001000: 570191 643151 509097 539994 502617
0111010100110001000100010: 570191 643151 509097 539994 602394
0111110100110001000010000: 570191 643151 509097 589380 610882
0111110100110001000010000: 570191 643151 509097 589380 539994
0111010101110001000001000: 570191 643151 509097 589380 502617
0111010100110001000100010: 570191 643151 509097 589380 483793
0111010100110001000100010: 570191 643151 509097 589380 580418
0111010100110001000100010: 570191 643151 509097 589380 602394
0111110100110001000010000: 570191 643151 509097 556733 610882
0111110100110001000010000: 570191 643151 509097 556733 539994
0111110100110001000010000: 570191 643151 509097 556733 589380
0111010101110001000001000: 570191 643151 509097 556733 502617
0111010100110001000100010: 570191 643151 509097 556733 625657
0111110100110001000010000: 570191 643151 509097 494724 610882
0111110100110001000010000: 570191 643151 509097 494724 539994
0111110100110001000010000: 570191 643151 509097 494724 589380
0111010101110001000001000: 570191 643151 509097 494724 502617
0111010100110001000100010: 570191 643151 509097 494724 639882
0111110100110001000110010: 570191 643151 509097 494724 556733
0111110100110001000010000: 570191 643151 509097 570367 610882
0111110100110001000010000: 570191 643151 509097 570367 539994
0111110100110001000010000: 570191 643151 509097 570367 589380
0111110100110001000010000: 570191 643151 509097 570367 556733
0111110100110001000010000: 570191 643151 509097 570367 494724
0111010100110001000100010: 570191 643151 509097 570367 625657
0111010101110001000101010: 570191 643151 509097 570367 502617
0111110110110011100010100: 570191 643151 509097 524316 469276
0111010101110001000001000: 570191 643151 524316 610882 502617
0111010101110001000001000: 570191 643151 524316 556733 502617
0111010101110001000001000: 570191 643151 524316 494724 502617
0111010101110001000101010: 570191 643151 524316 469276 502617
0111010101110001000101010: 570191 643151 524316 570367 502617
0111110110110001100010000: 570191 643151 524316 509097 610882
0111110110110001100010000: 570191 643151 524316 509097 556733
0111110110110001100010000: 570191 643151 524316 509097 494724
0111110110110001100010000: 570191 643151 524316 509097 570367
0111010110110011100000100: 570191 643151 524316 509097 483793
0111010110110011100000100: 570191 643151 524316 509097 639882
0110010010100010100000100: 570191 524316 610882 483793 553971
0110010011100000100001000: 570191 524316 610882 639882 483793
0110010010100010100000100: 570191 524316 610882 639882 553971
0110010010100010100000100: 570191 524316 556733 483793 625657
0110010011100000100001000: 570191 524316 556733 639882 483793
0110010010100010100000100: 570191 524316 556733 639882 625657
0110010011100100110001000: 570191 524316 494724 639882 483793
0111110000100001000010000: 570191 524316 509097 556733 610882
0111110000100001000010000: 570191 524316 509097 494724 610882
0110010011100000100001000: 570191 524316 509097 639882 483793
0110010011100000100001000: 570191 524316 570367 639882 483793
0111010100110001000100010: 570191 524316 539994 610882 553971
0111110100110001000010000: 570191 524316 539994 556733 610882
0111010100110001000100010: 570191 524316 539994 556733 625657
0111110100110001000010000: 570191 524316 539994 494724 610882
0111110100110001000110010: 570191 524316 539994 494724 556733
0111110100110001000010000: 570191 524316 539994 509097 610882
0111110100110001000010000: 570191 524316 539994 509097 556733
0111110100110001000010000: 570191 524316 539994 509097 494724
0111110100110001000010000: 570191 524316 539994 469276 610882
0111110100110001000010000: 570191 524316 539994 469276 556733
0111110100110001000010000: 570191 524316 539994 469276 494724
0111010100110001000100010: 570191 524316 539994 469276 502617
0111110100110001000010000: 570191 524316 539994 570367 610882
0111110100110001000010000: 570191 524316 539994 570367 556733
0111110100110001000010000: 570191 524316 539994 570367 494724
0111110100110001000010000: 570191 524316 539994 570367 509097
0111010100110001000100010: 570191 524316 539994 570367 625657
0111010100110001000100010: 570191 524316 539994 570367 502617
0111010100110001000100010: 570191 524316 589380 610882 553971
0111110100110001000010000: 570191 524316 589380 556733 610882
0111010100110001000100010: 570191 524316 589380 556733 625657
0111110100110001000010000: 570191 524316 589380 494724 610882
0111110100110001000110010: 570191 524316 589380 494724 556733
0111110100110001000010000: 570191 524316 589380 509097 610882
0111110100110001000010000: 570191 524316 589380 509097 556733
0111110100110001000010000: 570191 524316 589380 509097 494724
0111110100110001000010000: 570191 524316 589380 469276 610882
0111110100110001000010000: 570191 524316 589380 469276 556733
0111110100110001000010000: 570191 524316 589380 469276 494724
0111010100110001000100010: 570191 524316 589380 469276 502617
0111110100110001000010000: 570191 524316 589380 570367 610882
0111110100110001000010000: 570191 524316 589380 570367 556733
0111110100110001000010000: 570191 524316 589380 570367 494724
0111110100110001000010000: 570191 524316 589380 570367 509097
0111010100110001000100010: 570191 524316 589380 570367 625657
0111010100110001000100010: 570191 524316 589380 570367 502617
0111110110110001100010000: 570191 524316 589380 539994 610882
0111110110110001100010000: 570191 524316 589380 539994 556733
0111110110110001100010000: 570191 524316 589380 539994 494724
0111110110110001100010000: 570191 524316 589380 539994 509097
0111110110110001100010000: 570191 524316 589380 539994 469276
0111110110110001100010000: 570191 524316 589380 539994 570367
0111010100110001000100010: 570191 524316 643151 610882 553971
0111110100110001000010000: 570191 524316 643151 556733 610882
0111010100110001000100010: 570191 524316 643151 556733 625657
0111110100110001000010000: 570191 524316 643151 494724 610882
0111110100110001000110010: 570191 524316 643151 494724 556733
0111110100110001000010000: 570191 524316 643151 469276 610882
0111110100110001000010000: 570191 524316 643151 469276 556733
0111110100110001000010000: 570191 524316 643151 469276 494724
0111110100110001000010000: 570191 524316 643151 570367 610882
0111110100110001000010000: 570191 524316 643151 570367 556733
0111110100110001000010000: 570191 524316 643151 570367 494724
0111010100110001000100010: 570191 524316 643151 570367 625657
0111110110110001100010000: 570191 524316 643151 539994 610882
0111110110110001100010000: 570191 524316 643151 539994 556733
0111110110110001100010000: 570191 524316 643151 539994 494724
0111110110110001100010000: 570191 524316 643151 539994 469276
0111110110110001100010000: 570191 524316 643151 539994 570367
0111110110110011100010100: 570191 524316 643151 539994 509097
0111110110110001100010000: 570191 524316 643151 589380 610882
0111110110110001100010000: 570191 524316 643151 589380 556733
0111110110110001100010000: 570191 524316 643151 589380 494724
0111110110110001100010000: 570191 524316 643151 589380 469276
0111110110110001100010000: 570191 524316 643151 589380 570367
0111110110110011100010100: 570191 524316 643151 589380 509097
0110010010100010100000100: 570191 469276 610882 483793 553971
0110010011100000100001000: 570191 469276 610882 639882 483793
0110010010100010100000100: 570191 469276 610882 639882 553971
0110010011100000100001000: 570191 469276 610882 502617 483793
0110010010100010100000100: 570191 469276 610882 502617 553971
0110010010100010100000100: 570191 469276 539994 483793 602394
0110010011100000100001000: 570191 469276 539994 639882 483793
0110010010100010100000100: 570191 469276 539994 639882 602394
0110010011100000100001000: 570191 469276 539994 502617 483793
0110010010100010100000100: 570191 469276 539994 502617 602394
0111110000100001000010000: 570191 469276 589380 539994 610882
0110010010100010100000100: 570191 469276 589380 639882 602394
0110010010100010100000100: 570191 469276 589380 502617 580418
0110010010100010100000100: 570191 469276 589380 502617 602394
0110010011100100110001000: 570191 469276 589380 483793 639882
0110010011100100110001000: 570191 469276 589380 483793 502617
0111110000100001000010000: 570191 469276 556733 539994 610882
0111110000100001000010000: 570191 469276 556733 589380 610882
0111110000100001000010000: 570191 469276 556733 589380 539994
0110010010100010100000100: 570191 469276 556733 483793 625657
0110010011100000100001000: 570191 469276 556733 639882 483793
0110010010100010100000100: 570191 469276 556733 639882 625657
0110010011100000100001000: 570191 469276 556733 502617 483793
0110010010100010100000100: 570191 469276 556733 502617 625657
0111110000100001000010000: 570191 469276 494724 539994 610882
0111110000100001000010000: 570191 469276 494724 589380 610882
0111110000100001000010000: 570191 469276 494724 589380 539994
0110010011100000100001000: 570191 469276 494724 502617 483793
0110010011100100110001000: 570191 469276 494724 639882 483793
0111110000100001000010000: 570191 469276 643151 539994 610882
0111110000100001000010000: 570191 469276 643151 589380 610882
0111110000100001000010000: 570191 469276 643151 589380 539994
0111110000100001000010000: 570191 469276 643151 556733 610882
0111110000100001000010000: 570191 469276 643151 556733 539994
0111110000100001000010000: 570191 469276 643151 556733 589380
0111110000100001000010000: 570191 469276 643151 494724 610882
0111110000100001000010000: 570191 469276 643151 494724 539994
0111110000100001000010000: 570191 469276 643151 494724 589380
0110010011100000100001000: 570191 469276 643151 639882 483793
0110010011100100110001000: 570191 469276 643151 502617 483793
0111110000100001000010000: 570191 469276 524316 556733 610882
0111110000100001000010000: 570191 469276 524316 494724 610882
0110010011100100110001000: 570191 469276 524316 483793 502617
0110010011100110110001100: 570191 469276 524316 639882 483793
0111010100110001000100010: 570191 469276 509097 610882 553971
0111110100110001000010000: 570191 469276 509097 539994 610882
0111010100110001000100010: 570191 469276 509097 539994 602394
0111110100110001000010000: 570191 469276 509097 589380 610882
0111110100110001000010000: 570191 469276 509097 589380 539994
0111010100110001000100010: 570191 469276 509097 589380 580418
0111010100110001000100010: 570191 469276 509097 589380 602394
0111110100110001000010000: 570191 469276 509097 556733 610882
0111110100110001000010000: 570191 469276 509097 556733 539994
0111110100110001000010000: 570191 469276 509097 556733 589380
0111010100110001000100010: 570191 469276 509097 556733 625657
0111110100110001000010000: 570191 469276 509097 494724 610882
0111110100110001000010000: 570191 469276 509097 494724 539994
0111110100110001000010000: 570191 469276 509097 494724 589380
0111110100110001000110010: 570191 469276 509097 494724 556733
0111110100110001000010000: 570191 469276 509097 524316 610882
0111110100110001000010000: 570191 469276 509097 524316 556733
0111110100110001000010000: 570191 469276 509097 524316 494724
0111110100110001000110010: 570191 469276 509097 524316 539994
0111110100110001000110010: 570191 469276 509097 524316 589380
0111110110110011100010100: 570191 469276 509097 570367 643151
0111110110110001100010000: 570191 469276 570367 509097 610882
0111110110110001100010000: 570191 469276 570367 509097 539994
0111110110110001100010000: 570191 469276 570367 509097 589380
0111110110110001100010000: 570191 469276 570367 509097 556733
0111110110110001100010000: 570191 469276 570367 509097 494724
0111110110110001100010000: 570191 469276 570367 509097 524316
0110010010100010100000100: 570191 570367 610882 625657 553971
0110010011100000100001000: 570191 570367 610882 502617 625657
0110010010100010100000100: 570191 570367 610882 502617 553971
0110010011100000100001000: 570191 570367 539994 502617 625657
0110010010100010100000100: 570191 570367 539994 502617 602394
0111110000100001000010000: 570191 570367 589380 539994 610882
0110010010100010100000100: 570191 570367 589380 625657 483793
0110010010100010100000100: 570191 570367 589380 625657 580418
0110010011100000100001000: 570191 570367 589380 502617 625657
0110010010100010100000100: 570191 570367 589380 502617 483793
0110010010100010100000100: 570191 570367 589380 502617 580418
0110010010100010100000100: 570191 570367 589380 502617 602394
0111110000100001000010000: 570191 570367 556733 539994 610882
0111110000100001000010000: 570191 570367 556733 589380 610882
0111110000100001000010000: 570191 570367 556733 589380 539994
0110010011100100110001000: 570191 570367 556733 625657 502617
0111110000100001000010000: 570191 570367 494724 539994 610882
0111110000100001000010000: 570191 570367 494724 589380 610882
0111110000100001000010000: 570191 570367 494724 589380 539994
0110010010100010100000100: 570191 570367 494724 625657 639882
0110010011100000100001000: 570191 570367 494724 502617 625657
0111110000100001000010000: 570191 570367 509097 539994 610882
0111110000100001000010000: 570191 570367 509097 589380 610882
0111110000100001000010000: 570191 570367 509097 589380 539994
0111110000100001000010000: 570191 570367 509097 556733 610882
0111110000100001000010000: 570191 570367 509097 556733 539994
0111110000100001000010000: 570191 570367 509097 556733 589380
0111110000100001000010000: 570191 570367 509097 494724 610882
0111110000100001000010000: 570191 570367 509097 494724 539994
0111110000100001000010000: 570191 570367 509097 494724 589380
0110010011100000100001000: 570191 570367 509097 502617 625657
0111110000100001000010000: 570191 570367 643151 539994 610882
0111110000100001000010000: 570191 570367 643151 589380 610882
0111110000100001000010000: 570191 570367 643151 589380 539994
0111110000100001000010000: 570191 570367 643151 556733 610882
0111110000100001000010000: 570191 570367 643151 556733 539994
0111110000100001000010000: 570191 570367 643151 556733 589380
0111110000100001000010000: 570191 570367 643151 494724 610882
0111110000100001000010000: 570191 570367 643151 494724 539994
0111110000100001000010000: 570191 570367 643151 494724 589380
0110010011100100110001000: 570191 570367 643151 502617 625657
0111110000100001000010000: 570191 570367 524316 556733 610882
0111110000100001000010000: 570191 570367 524316 494724 610882
0111110000100001000010000: 570191 570367 524316 509097 610882
0111110000100001000010000: 570191 570367 524316 509097 556733
0111110000100001000010000: 570191 570367 524316 509097 494724
0110010010100010100000100: 570191 570367 524316 625657 483793
0110010010100010100000100: 570191 570367 524316 625657 639882
0110010011100000100001000: 570191 570367 524316 502617 625657
0110010010100010100000100: 570191 570367 524316 502617 483793
0111010100110001000100010: 570191 570367 469276 610882 553971
0111110100110001000010000: 570191 570367 469276 539994 610882
0111010100110001000100010: 570191 570367 469276 539994 602394
0111110100110001000010000: 570191 570367 469276 589380 610882
0111110100110001000010000: 570191 570367 469276 589380 539994
0111010100110001000100010: 570191 570367 469276 589380 580418
0111010100110001000100010: 570191 570367 469276 589380 602394
0111110100110001000010000: 570191 570367 469276 556733 610882
0111110100110001000010000: 570191 570367 469276 556733 539994
0111110100110001000010000: 570191 570367 469276 556733 589380
0111110100110001000010000: 570191 570367 469276 494724 610882
0111110100110001000010000: 570191 570367 469276 494724 539994
0111110100110001000010000: 570191 570367 469276 494724 589380
0111110100110001000110010: 570191 570367 469276 494724 556733
0111110100110001000010000: 570191 570367 469276 643151 610882
0111110100110001000010000: 570191 570367 469276 643151 539994
0111110100110001000010000: 570191 570367 469276 643151 589380
0111110100110001000010000: 570191 570367 469276 643151 556733
0111110100110001000010000: 570191 570367 469276 643151 494724
0111110100110001000010000: 570191 570367 469276 524316 610882
0111110100110001000010000: 570191 570367 469276 524316 556733
0111110100110001000010000: 570191 570367 469276 524316 494724
0111110100110001000110010: 570191 570367 469276 524316 539994
0111110100110001000110010: 570191 570367 469276 524316 589380
0111110100110001000110010: 570191 570367 469276 524316 643151
0110010011100000100001000: 643151 502617 509097 570367 639882
0110010011100100110001000: 643151 502617 524316 639882 570367
0110010010100010100000100: 643151 570191 502617 610882 639882
0110010011100000100001000: 643151 570191 502617 539994 610882
0110010010100010100000100: 643151 570191 502617 539994 639882
0110010011100000100001000: 643151 570191 502617 589380 610882
0110010011100000100001000: 643151 570191 502617 589380 539994
0110010010100010100000100: 643151 570191 502617 589380 639882
0110010011100000100001000: 643151 570191 502617 556733 610882
0110010011100000100001000: 643151 570191 502617 556733 539994
0110010011100000100001000: 643151 570191 502617 556733 589380
0110010010100010100000100: 643151 570191 502617 556733 639882
0110010011100000100001000: 643151 570191 502617 494724 610882
0110010011100000100001000: 643151 570191 502617 494724 539994
0110010011100000100001000: 643151 570191 502617 494724 589380
0111010100110001000100010: 643151 570191 509097 502617 639882
0111110110110001100010000: 643151 570191 524316 509097 502617
0110010010100010100000100: 643151 524316 502617 483793 570367
0110010011100000100001000: 643151 524316 502617 539994 483793
0110010010100010100000100: 643151 524316 502617 539994 469276
0110010010100010100000100: 643151 524316 502617 539994 570367
0110010011100000100001000: 643151 524316 502617 589380 539994
0110010010100010100000100: 643151 524316 502617 589380 469276
0110010010100010100000100: 643151 524316 502617 589380 570367
0110010011100100110001000: 643151 524316 502617 639882 483793
0110010011100100110001000: 643151 524316 502617 639882 539994
0110010011100100110001000: 643151 524316 502617 639882 589380
0110010011100000100001000: 643151 524316 509097 539994 483793
0110010010100010100000100: 643151 524316 509097 539994 469276
0110010011100000100001000: 643151 524316 509097 639882 483793
0110010011100000100001000: 643151 524316 509097 639882 539994
0110010011100000100001000: 643151 524316 509097 589380 539994
0110010011100000100001000: 643151 524316 509097 589380 639882
0110010010100010100000100: 643151 524316 509097 589380 469276
0110010011100100110001000: 509097 643151 469276 502617 524316
0110010011100000100001000: 509097 469276 643151 639882 483793
0110010011100000100001000: 509097 469276 643151 570367 483793
0110010011100000100001000: 509097 469276 643151 570367 639882
0110010010100010100000100: 509097 469276 643151 570367 524316
0110010011100100110001000: 509097 469276 643151 502617 483793
0110010011100000100001000: 494724 639882 556733 502617 580418
0110010011100000100001000: 494724 639882 556733 524316 580418
0110010011100000100001000: 494724 639882 556733 524316 502617
0110010011100000100001000: 494724 639882 556733 469276 580418
0110010011100000100001000: 494724 639882 556733 469276 524316
0110010011100000100001000: 494724 639882 570191 502617 580418
0110010010100010100000100: 494724 556733 639882 625657 580418
0110010010100010100000100: 494724 556733 639882 625657 502617
0110010010100010100000100: 494724 556733 639882 625657 524316
0110010010100010100000100: 494724 556733 639882 625657 469276
0111010101110001000001000: 494724 556733 570191 639882 625657
0110010010100010100000100: 494724 570191 639882 610882 580418
0110010010100010100000100: 494724 570191 639882 610882 502617
0110010011100000100001000: 494724 570191 639882 539994 610882
0110010010100010100000100: 494724 570191 639882 539994 580418
0110010010100010100000100: 494724 570191 639882 539994 502617
0110010011100000100001000: 494724 570191 639882 589380 610882
0110010011100000100001000: 494724 570191 639882 589380 539994
0110010010100010100000100: 494724 570191 639882 589380 502617
0110010011100000100001000: 494724 570191 639882 509097 610882
0110010011100000100001000: 494724 570191 639882 509097 539994
0110010011100000100001000: 494724 570191 639882 509097 589380
0110010010100010100000100: 494724 570191 639882 509097 580418
0110010010100010100000100: 494724 570191 639882 509097 502617
0110010011100000100001000: 494724 570191 639882 643151 610882
0110010011100000100001000: 494724 570191 639882 643151 539994
0110010011100000100001000: 494724 570191 639882 643151 589380
0110010010100010100000100: 494724 570191 639882 643151 580418
0110010011100000100001000: 494724 570191 639882 570367 610882
0110010011100000100001000: 494724 570191 639882 570367 539994
0110010011100000100001000: 494724 570191 639882 570367 589380
0110010011100000100001000: 494724 570191 639882 570367 509097
0110010011100000100001000: 494724 570191 639882 570367 643151
0110010010100010100000100: 494724 570191 639882 570367 580418
0111010100110001000100010: 494724 570191 556733 639882 580418
0111010100110001000100010: 494724 570191 556733 639882 502617
0110010011100000100001000: 556733 625657 494724 570367 602394
0110010010100010100000100: 556733 494724 625657 639882 602394
0110010010100010100000100: 556733 494724 625657 639882 570367
0110010010100010100000100: 556733 570191 625657 610882 602394
0110010011100000100001000: 556733 570191 625657 539994 610882
0110010011100000100001000: 556733 570191 625657 589380 610882
0110010011100000100001000: 556733 570191 625657 589380 539994
0110010011100000100001000: 556733 570191 625657 509097 610882
0110010011100000100001000: 556733 570191 625657 509097 539994
0110010011100000100001000: 556733 570191 625657 509097 589380
0110010010100010100000100: 556733 570191 625657 509097 602394
0110010011100000100001000: 556733 570191 625657 643151 610882
0110010011100000100001000: 556733 570191 625657 643151 539994
0110010011100000100001000: 556733 570191 625657 643151 589380
0110010010100010100000100: 556733 570191 625657 643151 602394
0110010011100000100001000: 556733 570191 625657 524316 610882
0110010011100000100001000: 556733 570191 625657 524316 509097
0110010010100010100000100: 556733 570191 625657 524316 602394
0110010011100000100001000: 556733 570191 625657 469276 610882
0110010011100000100001000: 556733 570191 625657 469276 539994
0110010011100000100001000: 556733 570191 625657 469276 589380
0110010011100000100001000: 556733 570191 625657 469276 643151
0110010011100000100001000: 556733 570191 625657 469276 524316
0110010010100010100000100: 556733 570191 625657 469276 602394
0111010100110001000100010: 556733 570191 494724 625657 602394
0111010101110001000001000: 589380 483793 524316 580418 469276
0111010101110001000001000: 589380 483793 524316 602394 469276
0110010011100000100001000: 589380 570191 483793 539994 610882
0110010011100000100001000: 589380 570191 483793 556733 610882
0110010011100000100001000: 589380 570191 483793 556733 539994
0110010011100000100001000: 589380 570191 483793 494724 610882
0110010011100000100001000: 589380 570191 483793 494724 539994
0110010011100000100001000: 589380 570191 483793 509097 610882
0110010011100000100001000: 589380 570191 483793 509097 539994
0110010011100000100001000: 589380 570191 483793 509097 556733
0110010011100000100001000: 589380 570191 483793 509097 494724
0110010011100000100001000: 589380 570191 483793 643151 610882
0110010011100000100001000: 589380 570191 483793 643151 539994
0110010011100000100001000: 589380 570191 483793 643151 556733
0110010011100000100001000: 589380 570191 483793 643151 494724
0110010011100000100001000: 589380 570191 483793 570367 610882
0110010011100000100001000: 589380 570191 483793 570367 539994
0110010011100000100001000: 589380 570191 483793 570367 556733
0110010011100000100001000: 589380 570191 483793 570367 494724
0110010011100000100001000: 589380 570191 483793 570367 509097
0110010011100000100001000: 589380 570191 483793 570367 643151
0110010010100010100000100: 589380 570191 580418 610882 639882
0110010011100000100001000: 589380 570191 580418 539994 610882
0110010010100010100000100: 589380 570191 580418 539994 639882
0110010011100000100001000: 589380 570191 580418 556733 610882
0110010011100000100001000: 589380 570191 580418 556733 539994
0110010010100010100000100: 589380 570191 580418 556733 639882
0110010011100000100001000: 589380 570191 580418 494724 610882
0110010011100000100001000: 589380 570191 580418 494724 539994
0110010011100000100001000: 589380 570191 580418 509097 610882
0110010011100000100001000: 589380 570191 580418 509097 539994
0110010011100000100001000: 589380 570191 580418 509097 556733
0110010011100000100001000: 589380 570191 580418 509097 494724
0110010010100010100000100: 589380 570191 580418 509097 639882
0110010011100000100001000: 589380 570191 580418 643151 610882
0110010011100000100001000: 589380 570191 580418 643151 539994
0110010011100000100001000: 589380 570191 580418 643151 556733
0110010011100000100001000: 589380 570191 580418 643151 494724
0110010010100010100000100: 589380 570191 580418 643151 639882
0110010011100000100001000: 589380 570191 580418 469276 610882
0110010011100000100001000: 589380 570191 580418 469276 539994
0110010011100000100001000: 589380 570191 580418 469276 556733
0110010011100000100001000: 589380 570191 580418 469276 494724
0110010011100000100001000: 589380 570191 580418 469276 643151
0110010011100000100001000: 589380 570191 580418 570367 610882
0110010011100000100001000: 589380 570191 580418 570367 539994
0110010011100000100001000: 589380 570191 580418 570367 556733
0110010011100000100001000: 589380 570191 580418 570367 494724
0110010011100000100001000: 589380 570191 580418 570367 509097
0110010011100000100001000: 589380 570191 580418 570367 643151
0110010010100010100000100: 589380 570191 580418 570367 639882
0110010011100000100001000: 589380 570191 602394 556733 610882
0110010011100000100001000: 589380 570191 602394 494724 610882
0110010011100000100001000: 589380 570191 602394 509097 610882
0110010011100000100001000: 589380 570191 602394 509097 556733
0110010011100000100001000: 589380 570191 602394 509097 494724
0110010011100000100001000: 589380 570191 602394 643151 610882
0110010011100000100001000: 589380 570191 602394 643151 556733
0110010011100000100001000: 589380 570191 602394 643151 494724
0110010011100000100001000: 589380 570191 602394 469276 610882
0110010011100000100001000: 589380 570191 602394 469276 556733
0110010011100000100001000: 589380 570191 602394 469276 494724
0110010011100000100001000: 589380 570191 602394 469276 643151
0110010011100000100001000: 589380 570191 602394 570367 610882
0110010011100000100001000: 589380 570191 602394 570367 556733
0110010011100000100001000: 589380 570191 602394 570367 494724
0110010011100000100001000: 589380 570191 602394 570367 509097
0110010011100000100001000: 589380 570191 602394 570367 643151
0110010011100100110001000: 589380 570191 602394 539994 610882
0110010011100100110001000: 589380 570191 602394 539994 556733
0110010011100100110001000: 589380 570191 602394 539994 494724
0110010011100100110001000: 589380 570191 602394 539994 509097
0110010011100100110001000: 589380 570191 602394 539994 643151
0110010011100100110001000: 589380 570191 602394 539994 469276
0110010011100100110001000: 589380 570191 602394 539994 570367
0110010011100000100001000: 589380 524316 580418 643151 539994
0110010011100100110001000: 589380 524316 580418 639882 539994
0110010011100100110001000: 589380 524316 580418 639882 643151
0110010011100000100001000: 589380 524316 602394 643151 639882
0110010011100100110001000: 589380 524316 602394 539994 639882
0110010011100100110001000: 589380 524316 602394 539994 643151
0111110100110001000010000: 589380 524316 483793 602394 580418
0111010100110001000100010: 589380 524316 483793 602394 625657
0111010100110001000100010: 589380 524316 483793 602394 553971
0111110100110001000010000: 589380 524316 570191 602394 580418
0111010100110001000100010: 589380 524316 570191 602394 625657
0111010100110001000100010: 589380 524316 570191 602394 553971
0111110110110001100010000: 589380 524316 570191 483793 580418
0111110110110001100010000: 589380 524316 570191 483793 602394
0110010010100010100000100: 589380 602394 483793 625657 469276
0110010011100000100001000: 589380 602394 483793 539994 625657
0110010010100010100000100: 589380 602394 483793 539994 469276
0110010011100000100001000: 589380 602394 483793 553971 625657
0110010011100000100001000: 589380 602394 483793 553971 539994
0110010010100010100000100: 589380 602394 483793 553971 469276
0110010010100010100000100: 589380 602394 580418 625657 639882
0110010011100000100001000: 589380 602394 580418 539994 625657
0110010010100010100000100: 589380 602394 580418 539994 639882
0110010011100000100001000: 589380 602394 580418 553971 625657
0110010011100000100001000: 589380 602394 580418 553971 539994
0110010010100010100000100: 589380 602394 580418 553971 639882
0111110000100001000010000: 589380 602394 570191 580418 483793
0110010010100010100000100: 589380 602394 570191 625657 610882
0110010010100010100000100: 589380 602394 570191 625657 494724
0110010010100010100000100: 589380 602394 570191 625657 509097
0110010010100010100000100: 589380 602394 570191 625657 643151
0110010010100010100000100: 589380 602394 570191 625657 469276
0110010011100000100001000: 589380 602394 570191 553971 625657
0110010010100010100000100: 589380 602394 570191 553971 556733
0110010010100010100000100: 589380 602394 570191 553971 494724
0110010010100010100000100: 589380 602394 570191 553971 509097
0110010010100010100000100: 589380 602394 570191 553971 643151
0110010010100010100000100: 589380 602394 570191 553971 469276
0110010010100010100000100: 589380 602394 570191 553971 570367
0110010011100100110001000: 589380 602394 570191 539994 625657
0110010011100100110001000: 589380 602394 570191 539994 553971
0110010010100010100000100: 589380 602394 524316 625657 639882
0110010010100010100000100: 589380 602394 524316 625657 643151
0110010011100000100001000: 589380 602394 524316 553971 625657
0110010010100010100000100: 589380 602394 524316 553971 639882
0110010010100010100000100: 589380 602394 524316 553971 643151
0110010011100100110001000: 589380 602394 524316 539994 625657
0110010011100100110001000: 589380 602394 524316 539994 553971
0110010011100000100001000: 502617 639882 643151 494724 580418
0110010011100000100001000: 502617 639882 570367 494724 580418
0110010011100000100001000: 502617 639882 570367 524316 580418
0110010011100000100001000: 502617 639882 570367 524316 494724
0111010101110001000001000: 502617 639882 469276 643151 580418
0111010101110001000001000: 502617 639882 469276 643151 494724
0111010101110001000101010: 502617 639882 469276 643151 524316
0110010010100010100000100: 502617 643151 639882 509097 580418
0110010010100010100000100: 502617 643151 639882 509097 494724
0110010010100010100000100: 502617 643151 639882 570191 580418
0110010011100000100001000: 502617 643151 570367 524316 509097
0111110110110001100010000: 502617 469276 570367 639882 643151
0110010010100010100000100: 502617 570367 639882 625657 580418
0110010010100010100000100: 502617 570367 639882 625657 494724
0110010010100010100000100: 502617 570367 639882 625657 524316
0110010011100000100001000: 502617 570367 639882 570191 625657
0110010010100010100000100: 502617 570367 639882 570191 580418
0110010010100010100000100: 502617 570367 643151 625657 509097
0110010010100010100000100: 502617 570367 643151 625657 524316
0111010100110001000100010: 502617 570367 469276 643151 524316
0110010010100010100000100: 639882 502617 580418 643151 589380
0110010011100000100001000: 639882 502617 580418 570367 643151
0110010010100010100000100: 639882 502617 580418 570367 589380
0110010011100000100001000: 639882 502617 494724 570367 643151
0110010010100010100000100: 639882 494724 580418 556733 589380
0110010010100010100000100: 639882 494724 502617 556733 643151
0110010010100010100000100: 639882 494724 502617 556733 570367
0110010011100000100001000: 639882 524316 580418 539994 483793
0110010011100000100001000: 639882 524316 580418 643151 483793
0110010011100000100001000: 639882 524316 580418 643151 539994
0110010011100000100001000: 639882 524316 580418 570191 483793
0110010010100010100000100: 639882 524316 502617 483793 570367
0110010011100000100001000: 639882 524316 502617 539994 483793
0110010010100010100000100: 639882 524316 502617 539994 570367
0110010011100000100001000: 639882 524316 502617 589380 539994
0110010010100010100000100: 639882 524316 502617 589380 570367
0110010011100000100001000: 639882 524316 502617 570191 483793
0111110000100001000010000: 639882 524316 494724 502617 580418
0110010010100010100000100: 639882 524316 494724 483793 556733
0110010011100000100001000: 639882 524316 494724 539994 483793
0110010010100010100000100: 639882 524316 494724 539994 556733
0110010011100000100001000: 639882 524316 494724 589380 539994
0110010010100010100000100: 639882 524316 494724 589380 556733
0110010011100000100001000: 639882 524316 494724 643151 483793
0110010011100000100001000: 639882 524316 494724 643151 539994
0110010011100000100001000: 639882 524316 494724 643151 589380
0110010010100010100000100: 639882 524316 494724 643151 556733
0110010011100000100001000: 639882 524316 469276 589380 539994
0110010011100000100001000: 639882 524316 469276 643151 539994
0110010011100000100001000: 639882 524316 469276 643151 589380
0110010011100100110001000: 639882 524316 469276 483793 539994
0110010011100100110001000: 639882 524316 469276 483793 643151
0110010011100000100001000: 639882 469276 580418 509097 483793
0110010010100010100000100: 639882 469276 580418 509097 589380
0110010011100000100001000: 639882 469276 580418 570191 483793
0110010011100000100001000: 639882 469276 580418 570367 483793
0110010011100000100001000: 639882 469276 580418 570367 509097
0110010010100010100000100: 639882 469276 580418 570367 589380
0110010010100010100000100: 639882 469276 494724 483793 556733
0110010011100000100001000: 639882 469276 494724 509097 483793
0110010010100010100000100: 639882 469276 494724 509097 556733
0110010011100000100001000: 639882 469276 494724 570367 483793
0110010011100000100001000: 639882 469276 494724 570367 509097
0110010010100010100000100: 639882 469276 494724 570367 556733
0111110000100001000010000: 639882 469276 524316 494724 580418
0110010010100010100000100: 639882 469276 524316 509097 539994
0110010010100010100000100: 639882 469276 524316 509097 589380
0110010011100000100001000: 639882 469276 524316 570367 509097
0110010010100010100000100: 639882 469276 524316 570367 539994
0110010010100010100000100: 639882 469276 524316 570367 589380
0110010010100010100000100: 639882 469276 524316 570367 643151
0110010011100100110001000: 639882 469276 524316 483793 509097
0110010011100100110001000: 639882 469276 524316 483793 570367
0111010100110001000100010: 639882 469276 502617 580418 589380
0111110100110001000010000: 639882 469276 502617 494724 580418
0111010100110001000100010: 639882 469276 502617 494724 556733
0111110100110001000010000: 639882 469276 502617 524316 580418
0111110100110001000010000: 639882 469276 502617 524316 494724
0111010100110001000100010: 639882 469276 502617 524316 539994
0111010100110001000100010: 639882 469276 502617 524316 589380
0110010011100000100001000: 539994 570191 602394 556733 610882
0110010011100000100001000: 539994 570191 602394 494724 610882
0110010011100000100001000: 539994 570191 602394 509097 610882
0110010011100000100001000: 539994 570191 602394 509097 556733
0110010011100000100001000: 539994 570191 602394 509097 494724
0110010011100000100001000: 539994 570191 602394 643151 610882
0110010011100000100001000: 539994 570191 602394 643151 556733
0110010011100000100001000: 539994 570191 602394 643151 494724
0110010011100000100001000: 539994 570191 602394 469276 610882
0110010011100000100001000: 539994 570191 602394 469276 556733
0110010011100000100001000: 539994 570191 602394 469276 494724
0110010011100000100001000: 539994 570191 602394 469276 643151
0110010011100000100001000: 539994 570191 602394 570367 610882
0110010011100000100001000: 539994 570191 602394 570367 556733
0110010011100000100001000: 539994 570191 602394 570367 494724
0110010011100000100001000: 539994 570191 602394 570367 509097
0110010011100000100001000: 539994 570191 602394 570367 643151
0110010011100000100001000: 539994 524316 602394 639882 483793
0110010011100000100001000: 539994 524316 602394 643151 483793
0110010011100000100001000: 539994 524316 602394 643151 639882
0111010100110001000100010: 539994 524316 570191 602394 625657
0111010100110001000100010: 539994 524316 570191 602394 553971
0110010010100010100000100: 539994 602394 570191 625657 610882
0110010010100010100000100: 539994 602394 570191 625657 494724
0110010010100010100000100: 539994 602394 570191 625657 509097
0110010010100010100000100: 539994 602394 570191 625657 643151
0110010010100010100000100: 539994 602394 570191 625657 469276
0110010011100000100001000: 539994 602394 570191 553971 625657
0110010010100010100000100: 539994 602394 570191 553971 556733
0110010010100010100000100: 539994 602394 570191 553971 494724
0110010010100010100000100: 539994 602394 570191 553971 509097
0110010010100010100000100: 539994 602394 570191 553971 643151
0110010010100010100000100: 539994 602394 570191 553971 469276
0110010010100010100000100: 539994 602394 570191 553971 570367
0110010010100010100000100: 539994 602394 524316 625657 483793
0110010010100010100000100: 539994 602394 524316 625657 639882
0110010010100010100000100: 539994 602394 524316 625657 643151
0110010011100000100001000: 539994 602394 524316 553971 625657
0110010010100010100000100: 539994 602394 524316 553971 483793
0110010010100010100000100: 539994 602394 524316 553971 639882
0110010010100010100000100: 539994 602394 524316 553971 643151
0110010011100000100001000: 580418 639882 589380 494724 502617
0110010011100000100001000: 580418 639882 589380 469276 494724
0110010010100010100000100: 580418 589380 639882 483793 502617
0110010010100010100000100: 580418 589380 639882 483793 494724
0110010011100000100001000: 580418 589380 639882 570191 483793
0110010010100010100000100: 580418 589380 639882 570191 502617
0110010011100000100001000: 580418 589380 639882 602394 483793
0110010011100000100001000: 580418 589380 639882 602394 570191
0110010010100010100000100: 580418 589380 639882 602394 502617
0110010010100010100000100: 580418 589380 639882 602394 494724
0110010010100010100000100: 580418 589380 639882 602394 469276
0110010011100000100001000: 483793 589380 469276 602394 580418
0110010011100000100001000: 483793 524316 469276 643151 539994
0111010100110001000100010: 483793 524316 589380 469276 502617
0111010100110001000100010: 483793 524316 589380 469276 509097
0111010100110001000100010: 483793 524316 589380 469276 570367
0110010010100010100000100: 483793 469276 589380 639882 602394
0110010010100010100000100: 483793 469276 589380 502617 580418
0110010010100010100000100: 483793 469276 589380 502617 602394
0110010011100000100001000: 483793 469276 589380 509097 639882
0110010011100000100001000: 483793 469276 589380 509097 502617
0110010010100010100000100: 483793 469276 589380 509097 580418
0110010010100010100000100: 483793 469276 589380 509097 602394
0110010011100000100001000: 483793 469276 589380 570367 639882
0110010011100000100001000: 483793 469276 589380 570367 509097
0110010010100010100000100: 483793 469276 589380 570367 580418
0110010010100010100000100: 483793 469276 589380 570367 602394
0110010010100010100000100: 483793 469276 524316 502617 539994
0110010011100000100001000: 483793 469276 524316 509097 502617
0110010010100010100000100: 483793 469276 524316 509097 539994
0110010011100000100001000: 483793 469276 524316 570367 509097
0110010010100010100000100: 483793 469276 524316 570367 539994
0110010010100010100000100: 483793 469276 524316 570367 643151
0110010011100000100001000: 610882 570191 553971 589380 539994
0110010011100000100001000: 610882 570191 553971 556733 539994
0110010011100000100001000: 610882 570191 553971 556733 589380
0110010011100000100001000: 610882 570191 553971 494724 539994
0110010011100000100001000: 610882 570191 553971 494724 589380
0110010011100000100001000: 610882 570191 553971 509097 539994
0110010011100000100001000: 610882 570191 553971 509097 589380
0110010011100000100001000: 610882 570191 553971 509097 556733
0110010011100000100001000: 610882 570191 553971 509097 494724
0110010011100000100001000: 610882 570191 553971 643151 539994
0110010011100000100001000: 610882 570191 553971 643151 589380
0110010011100000100001000: 610882 570191 553971 643151 556733
0110010011100000100001000: 610882 570191 553971 643151 494724
0110010011100000100001000: 610882 570191 553971 524316 556733
0110010011100000100001000: 610882 570191 553971 524316 494724
0110010011100000100001000: 610882 570191 553971 524316 509097
0110010011100000100001000: 610882 570191 553971 469276 539994
0110010011100000100001000: 610882 570191 553971 469276 589380
0110010011100000100001000: 610882 570191 553971 469276 556733
0110010011100000100001000: 610882 570191 553971 469276 494724
0110010011100000100001000: 610882 570191 553971 469276 643151
0110010011100000100001000: 610882 570191 553971 469276 524316
0110010011100000100001000: 610882 570191 553971 570367 539994
0110010011100000100001000: 610882 570191 553971 570367 589380
0110010011100000100001000: 610882 570191 553971 570367 556733
0110010011100000100001000: 610882 570191 553971 570367 494724
0110010011100000100001000: 610882 570191 553971 570367 509097
0110010011100000100001000: 610882 570191 553971 570367 643151
0110010011100000100001000: 610882 570191 553971 570367 524316
0110010010100010100000100: 610882 553971 570191 602394 556733
0110010010100010100000100: 610882 553971 570191 602394 494724
0110010010100010100000100: 610882 553971 570191 602394 509097
0110010010100010100000100: 610882 553971 570191 602394 643151
0110010010100010100000100: 610882 553971 570191 602394 524316
0110010010100010100000100: 610882 553971 570191 602394 469276
0110010010100010100000100: 610882 553971 570191 602394 570367
0110010010100010100000100: 625657 602394 556733 539994 494724
0110010011100000100001000: 625657 602394 556733 589380 539994
0110010010100010100000100: 625657 602394 556733 589380 494724
0110010011100000100001000: 625657 602394 556733 553971 539994
0110010011100000100001000: 625657 602394 556733 553971 589380
0110010010100010100000100: 625657 602394 556733 553971 494724
0110010010100010100000100: 625657 602394 556733 553971 570191
0110010011100000100001000: 625657 602394 570367 589380 539994
0110010011100000100001000: 625657 602394 570367 553971 539994
0110010011100000100001000: 625657 602394 570367 553971 589380
0110010010100010100000100: 625657 570367 556733 502617 494724
0110010010100010100000100: 625657 570367 556733 469276 494724
0110010010100010100000100: 625657 570367 602394 502617 539994
0110010010100010100000100: 625657 570367 602394 502617 589380
0110010010100010100000100: 625657 570367 602394 502617 553971
0110010011100000100001000: 625657 570367 602394 570191 502617
0110010010100010100000100: 625657 570367 602394 570191 553971
0110010010100010100000100: 625657 570367 602394 469276 539994
0110010010100010100000100: 625657 570367 602394 469276 589380
0110010010100010100000100: 625657 570367 602394 469276 553971
