0110010010100010100000100: 592848 604778 547655 481896 580873
0110010011100000100001000: 592848 604778 547655 604702 481896
0110010010100010100100110: 592848 604778 547655 604702 580873
0110010011100000100001000: 592848 604778 547655 480235 481896
0110010011100000100001000: 592848 604778 547655 480235 604702
0110010010100010100000100: 592848 604778 547655 480235 580873
0110010011100100110001000: 592848 604778 547655 504249 481896
0110010011100100110001000: 592848 604778 547655 504249 604702
0110010011100100110001000: 592848 604778 547655 504249 480235
0110010011100000100001000: 592848 604778 548598 604702 481896
0110010011100000100001000: 592848 604778 548598 504249 481896
0110010011100000100001000: 592848 604778 548598 504249 604702
0110010011100000100001000: 592848 604778 548598 480235 481896
0110010011100000100001000: 592848 604778 548598 480235 604702
0110010011100000100001000: 592848 604778 548598 480235 504249
0110010011100000100001000: 592848 604778 461193 604702 481896
0110010011100000100001000: 592848 604778 461193 504249 481896
0110010011100000100001000: 592848 604778 461193 504249 604702
0110010011100100110001000: 592848 604778 461193 480235 481896
0110010011100100110001000: 592848 604778 461193 480235 604702
0110010011100100110001000: 592848 604778 461193 480235 504249
0110010010100010100000100: 592848 548598 547655 468771 504249
0110010011100000100001000: 592848 548598 547655 581357 468771
0110010010100010100000100: 592848 548598 547655 581357 504249
0110010011100100110001000: 592848 548598 547655 580873 468771
0110010011100100110001000: 592848 548598 547655 580873 581357
0110010010100010100000100: 592848 548598 604778 468771 481896
0110010010100010100000100: 592848 548598 604778 468771 604702
0110010010100010100000100: 592848 548598 604778 468771 504249
0110010010100010100000100: 592848 548598 604778 468771 480235
0110010011100000100001000: 592848 548598 604778 580873 468771
0110010010100010100000100: 592848 548598 604778 580873 481896
0110010010100010100000100: 592848 548598 604778 580873 480235
0110010010100010100100110: 592848 548598 604778 580873 604702
0110010010100010100100110: 592848 548598 604778 580873 504249
0110010011100000100001000: 592848 548598 604778 581357 468771
0110010011100000100001000: 592848 548598 604778 581357 580873
0110010010100010100000100: 592848 548598 604778 581357 481896
0110010010100010100000100: 592848 548598 604778 581357 604702
0110010010100010100000100: 592848 548598 604778 581357 504249
0110010010100010100100110: 592848 548598 604778 581357 480235
0110010011100000100001000: 592848 548598 461193 580873 468771
0110010011100000100001000: 592848 548598 461193 581357 468771
0110010011100000100001000: 592848 548598 461193 581357 580873
0110010010100010100000100: 592848 461193 547655 480235 504249
0110010010100010100000100: 592848 461193 547655 480235 580873
0111110000100001000010000: 592848 461193 548598 604778 547655
0110010010100010100000100: 592848 461193 548598 480235 468771
0110010010100010100000100: 592848 461193 548598 480235 580873
0110010010100010100100110: 592848 461193 548598 480235 581357
0110010011100000100001000: 461193 480235 592848 581357 580025
0110010011100100110001000: 461193 480235 592848 604778 580025
0110010011100100110001000: 461193 480235 592848 604778 581357
0110010010100010100000100: 461193 592848 480235 547655 580025
0110010010100010100000100: 461193 592848 480235 547655 581357
0110010011100000100001000: 461193 592848 480235 548598 547655
0110010010100010100000100: 461193 592848 480235 548598 580025
0110010011100100110001000: 461193 592848 480235 604778 547655
0110010011100100110001000: 461193 592848 480235 604778 548598
0110010010100010100000100: 581357 501997 491542 571369 481896
0110010011100000100001000: 581357 501997 491542 616717 571369
0110010010100010100000100: 581357 501997 491542 616717 481896
0110010011100000100001000: 581357 501997 491542 475811 571369
0110010010100010100000100: 581357 501997 491542 475811 481896
0110010011100000100001000: 581357 501997 491542 580025 571369
0110010011100000100001000: 581357 501997 491542 580025 616717
0110010010100010100000100: 581357 501997 491542 580025 481896
0110010011100000100001000: 581357 501997 513593 616717 571369
0110010011100000100001000: 581357 501997 513593 475811 571369
0110010011100000100001000: 581357 501997 513593 580025 571369
0110010011100000100001000: 581357 501997 513593 580025 616717
0110010011100000100001000: 581357 501997 480235 616717 571369
0110010011100000100001000: 581357 501997 480235 475811 571369
0110010011100100110001000: 581357 501997 480235 580025 571369
0110010011100100110001000: 581357 501997 480235 580025 616717
0110010011100000100001000: 581357 501997 548598 616717 571369
0110010011100000100001000: 581357 501997 548598 475811 571369
0110010011100000100001000: 581357 501997 548598 580025 571369
0110010011100000100001000: 581357 501997 548598 580025 616717
0110010011100000100001000: 581357 501997 632024 616717 571369
0110010011100000100001000: 581357 501997 632024 475811 571369
0110010011100000100001000: 581357 501997 632024 580025 571369
0110010011100000100001000: 581357 501997 632024 580025 616717
0110010010100010100100110: 581357 513593 491542 506960 481896
0110010010100010100000100: 581357 513593 501997 506960 571369
0110010010100010100000100: 581357 513593 501997 506960 616717
0110010010100010100000100: 581357 513593 501997 506960 475811
0110010010100010100000100: 581357 513593 501997 506960 580025
0110010010100010100100110: 581357 480235 491542 604778 481896
0110010011100000100001000: 581357 480235 491542 580025 604778
0110010010100010100000100: 581357 480235 491542 580025 481896
0110010011100000100001000: 581357 480235 491542 461193 604778
0110010011100000100001000: 581357 480235 491542 461193 580025
0110010010100010100000100: 581357 480235 491542 461193 481896
0110010010100010100000100: 581357 480235 501997 604778 571369
0110010010100010100000100: 581357 480235 501997 604778 616717
0110010010100010100000100: 581357 480235 501997 604778 475811
0110010011100000100001000: 581357 480235 501997 461193 604778
0110010010100010100000100: 581357 480235 501997 461193 571369
0110010010100010100000100: 581357 480235 501997 461193 616717
0110010010100010100000100: 581357 480235 501997 461193 475811
0110010011100100110001000: 581357 480235 501997 580025 604778
0110010011100100110001000: 581357 480235 501997 580025 461193
0111110000100001000010000: 581357 480235 513593 501997 491542
0110010010100010100000100: 581357 480235 513593 604778 506960
0110010011100000100001000: 581357 480235 513593 580025 604778
0110010010100010100000100: 581357 480235 513593 580025 506960
0110010011100000100001000: 581357 480235 513593 461193 604778
0110010011100000100001000: 581357 480235 513593 461193 580025
0110010010100010100000100: 581357 480235 513593 461193 506960
0110010011100000100001000: 581357 480235 548598 580025 604778
0110010011100000100001000: 581357 480235 548598 461193 604778
0110010011100000100001000: 581357 480235 548598 461193 580025
0110010011100000100001000: 581357 480235 632024 580025 604778
0110010011100000100001000: 581357 480235 632024 461193 604778
0110010011100000100001000: 581357 480235 632024 461193 580025
0110010010100010100000100: 581357 548598 491542 468771 481896
0110010011100000100001000: 581357 548598 491542 580873 468771
0110010010100010100000100: 581357 548598 491542 580873 481896
0110010011100000100001000: 581357 548598 491542 592848 468771
0110010011100000100001000: 581357 548598 491542 592848 580873
0110010010100010100000100: 581357 548598 491542 592848 481896
0110010010100010100000100: 581357 548598 501997 468771 571369
0110010010100010100000100: 581357 548598 501997 468771 616717
0110010010100010100000100: 581357 548598 501997 468771 475811
0110010010100010100000100: 581357 548598 501997 468771 580025
0110010011100000100001000: 581357 548598 501997 580873 468771
0110010010100010100000100: 581357 548598 501997 580873 571369
0110010010100010100000100: 581357 548598 501997 580873 475811
0110010010100010100000100: 581357 548598 501997 580873 580025
0110010010100010100100110: 581357 548598 501997 580873 616717
0110010011100000100001000: 581357 548598 501997 592848 468771
0110010011100000100001000: 581357 548598 501997 592848 580873
0110010010100010100000100: 581357 548598 501997 592848 571369
0110010010100010100000100: 581357 548598 501997 592848 616717
0110010010100010100000100: 581357 548598 501997 592848 475811
0110010010100010100000100: 581357 548598 501997 592848 580025
0111110000100001000010000: 581357 548598 513593 501997 491542
0110010010100010100000100: 581357 548598 513593 468771 506960
0110010011100000100001000: 581357 548598 513593 580873 468771
0110010010100010100000100: 581357 548598 513593 580873 506960
0110010011100000100001000: 581357 548598 513593 592848 468771
0110010011100000100001000: 581357 548598 513593 592848 580873
0110010010100010100000100: 581357 548598 513593 592848 506960
0111110000100001000010000: 581357 548598 480235 501997 491542
0111110000100001000010000: 581357 548598 480235 513593 491542
0111110000100001000010000: 581357 548598 480235 513593 501997
0110010010100010100000100: 581357 548598 480235 468771 604778
0110010010100010100000100: 581357 548598 480235 468771 580025
0110010010100010100000100: 581357 548598 480235 468771 461193
0110010011100000100001000: 581357 548598 480235 580873 468771
0110010010100010100000100: 581357 548598 480235 580873 604778
0110010010100010100000100: 581357 548598 480235 580873 580025
0110010010100010100000100: 581357 548598 480235 580873 461193
0110010011100000100001000: 581357 548598 480235 592848 468771
0110010011100000100001000: 581357 548598 480235 592848 580873
0110010010100010100000100: 581357 548598 480235 592848 580025
0110010011100000100001000: 581357 548598 632024 580873 468771
0110010011100000100001000: 581357 548598 632024 592848 468771
0110010011100000100001000: 581357 548598 632024 592848 580873
0110010010100010100000100: 581357 632024 491542 490255 481896
0110010010100010100000100: 581357 632024 501997 490255 571369
0110010010100010100000100: 581357 632024 501997 490255 616717
0110010010100010100000100: 581357 632024 501997 490255 475811
0110010010100010100100110: 581357 632024 501997 490255 580025
0111110000100001000010000: 581357 632024 513593 501997 491542
0110010010100010100000100: 581357 632024 513593 490255 506960
0111110000100001000010000: 581357 632024 480235 501997 491542
0111110000100001000010000: 581357 632024 480235 513593 491542
0111110000100001000010000: 581357 632024 480235 513593 501997
0110010010100010100000100: 581357 632024 480235 490255 604778
0110010010100010100000100: 581357 632024 480235 490255 461193
0110010010100010100100110: 581357 632024 480235 490255 580025
0111110000100001000010000: 581357 632024 548598 501997 491542
0111110000100001000010000: 581357 632024 548598 513593 491542
0111110000100001000010000: 581357 632024 548598 513593 501997
0111110000100001000010000: 581357 632024 548598 480235 491542
0111110000100001000010000: 581357 632024 548598 480235 501997
0111110000100001000010000: 581357 632024 548598 480235 513593
0110010010100010100000100: 581357 632024 548598 490255 468771
0110010010100010100000100: 581357 632024 548598 490255 580873
0110010010100010100000100: 581357 632024 548598 490255 592848
0110010011100000100001000: 632024 490255 581357 580025 476409
0110010010100010100000100: 632024 581357 490255 491542 476409
0110010010100010100000100: 632024 581357 490255 491542 580025
0110010011100000100001000: 632024 581357 490255 501997 491542
0110010010100010100000100: 632024 581357 490255 501997 476409
0110010011100000100001000: 632024 581357 490255 513593 491542
0110010011100000100001000: 632024 581357 490255 513593 501997
0110010010100010100000100: 632024 581357 490255 513593 476409
0110010010100010100000100: 632024 581357 490255 513593 580025
0110010011100000100001000: 632024 581357 490255 480235 491542
0110010011100000100001000: 632024 581357 490255 480235 501997
0110010011100000100001000: 632024 581357 490255 480235 513593
0110010010100010100000100: 632024 581357 490255 480235 476409
0110010011100000100001000: 632024 581357 490255 548598 491542
0110010011100000100001000: 632024 581357 490255 548598 501997
0110010011100000100001000: 632024 581357 490255 548598 513593
0110010011100000100001000: 632024 581357 490255 548598 480235
0110010010100010100000100: 632024 581357 490255 548598 476409
0110010010100010100000100: 632024 581357 490255 548598 580025
0110010010100010100000100: 548598 580873 468771 604702 476409
0110010011100000100001000: 548598 580873 468771 616717 604702
0110010010100010100000100: 548598 580873 468771 616717 476409
0110010011100000100001000: 548598 580873 468771 547655 604702
0110010011100000100001000: 548598 580873 468771 547655 616717
0110010010100010100000100: 548598 580873 468771 547655 476409
0110010011100000100001000: 548598 580873 468771 504249 604702
0110010011100000100001000: 548598 580873 468771 504249 616717
0110010010100010100000100: 548598 580873 468771 504249 476409
0110010011100000100001000: 548598 580873 581357 616717 604702
0110010011100000100001000: 548598 580873 581357 547655 604702
0110010011100000100001000: 548598 580873 581357 547655 616717
0110010011100000100001000: 548598 580873 581357 504249 604702
0110010011100000100001000: 548598 580873 581357 504249 616717
0110010011100000100001000: 548598 580873 592848 616717 604702
0110010011100000100001000: 548598 580873 592848 504249 604702
0110010011100000100001000: 548598 580873 592848 504249 616717
0110010011100100110001000: 548598 580873 592848 547655 604702
0110010011100100110001000: 548598 580873 592848 547655 616717
0110010010100010100000100: 548598 581357 468771 491542 476409
0110010011100000100001000: 548598 581357 468771 501997 491542
0110010010100010100000100: 548598 581357 468771 501997 476409
0110010011100000100001000: 548598 581357 468771 513593 491542
0110010011100000100001000: 548598 581357 468771 513593 501997
0110010010100010100000100: 548598 581357 468771 513593 476409
0110010011100000100001000: 548598 581357 468771 480235 491542
0110010011100000100001000: 548598 581357 468771 480235 501997
0110010011100000100001000: 548598 581357 468771 480235 513593
0110010010100010100000100: 548598 581357 468771 480235 476409
0110010011100000100001000: 548598 581357 468771 632024 491542
0110010011100000100001000: 548598 581357 468771 632024 501997
0110010011100000100001000: 548598 581357 468771 632024 513593
0110010011100000100001000: 548598 581357 468771 632024 480235
0110010010100010100000100: 548598 581357 468771 632024 476409
0110010010100010100000100: 548598 581357 580873 491542 604702
0110010010100010100000100: 548598 581357 580873 491542 616717
0110010010100010100000100: 548598 581357 580873 491542 547655
0110010010100010100000100: 548598 581357 580873 491542 504249
0110010011100000100001000: 548598 581357 580873 501997 491542
0110010010100010100000100: 548598 581357 580873 501997 604702
0110010010100010100000100: 548598 581357 580873 501997 547655
0110010010100010100000100: 548598 581357 580873 501997 504249
0110010011100000100001000: 548598 581357 580873 513593 491542
0110010011100000100001000: 548598 581357 580873 513593 501997
0110010010100010100000100: 548598 581357 580873 513593 604702
0110010010100010100000100: 548598 581357 580873 513593 616717
0110010010100010100000100: 548598 581357 580873 513593 547655
0110010010100010100000100: 548598 581357 580873 513593 504249
0110010011100000100001000: 548598 581357 580873 480235 491542
0110010011100000100001000: 548598 581357 580873 480235 501997
0110010011100000100001000: 548598 581357 580873 480235 513593
0110010010100010100000100: 548598 581357 580873 480235 604702
0110010010100010100000100: 548598 581357 580873 480235 616717
0110010010100010100000100: 548598 581357 580873 480235 547655
0110010010100010100000100: 548598 581357 580873 480235 504249
0110010011100000100001000: 548598 581357 580873 632024 491542
0110010011100000100001000: 548598 581357 580873 632024 501997
0110010011100000100001000: 548598 581357 580873 632024 513593
0110010011100000100001000: 548598 581357 580873 632024 480235
0110010010100010100000100: 548598 581357 580873 632024 604702
0110010010100010100000100: 548598 581357 580873 632024 616717
0110010010100010100000100: 548598 581357 580873 632024 547655
0110010010100010100000100: 548598 581357 580873 632024 504249
0110010011100000100001000: 548598 581357 592848 501997 491542
0110010011100000100001000: 548598 581357 592848 513593 491542
0110010011100000100001000: 548598 581357 592848 513593 501997
0110010011100000100001000: 548598 581357 592848 480235 491542
0110010011100000100001000: 548598 581357 592848 480235 501997
0110010011100000100001000: 548598 581357 592848 480235 513593
0110010011100000100001000: 548598 581357 592848 632024 491542
0110010011100000100001000: 548598 581357 592848 632024 501997
0110010011100000100001000: 548598 581357 592848 632024 513593
0110010011100000100001000: 548598 581357 592848 632024 480235
0110010010100010100000100: 548598 592848 468771 547655 476409
0110010011100000100001000: 548598 592848 468771 604778 547655
0110010010100010100000100: 548598 592848 468771 604778 476409
0110010011100000100001000: 548598 592848 468771 461193 547655
0110010011100000100001000: 548598 592848 468771 461193 604778
0110010010100010100000100: 548598 592848 468771 461193 476409
0110010010100010100000100: 548598 592848 580873 604778 616717
0110010011100000100001000: 548598 592848 580873 461193 604778
0110010010100010100000100: 548598 592848 580873 461193 604702
0110010010100010100000100: 548598 592848 580873 461193 616717
0110010010100010100000100: 548598 592848 580873 461193 504249
0110010011100100110001000: 548598 592848 580873 547655 604778
0110010011100100110001000: 548598 592848 580873 547655 461193
0111110000100001000010000: 548598 592848 581357 580873 468771
0110010010100010100000100: 548598 592848 581357 547655 491542
0110010010100010100000100: 548598 592848 581357 547655 501997
0110010010100010100000100: 548598 592848 581357 547655 513593
0110010010100010100000100: 548598 592848 581357 547655 480235
0110010010100010100000100: 548598 592848 581357 547655 632024
0110010011100000100001000: 548598 592848 581357 604778 547655
0110010010100010100000100: 548598 592848 581357 604778 491542
0110010010100010100000100: 548598 592848 581357 604778 501997
0110010010100010100000100: 548598 592848 581357 604778 513593
0110010010100010100000100: 548598 592848 581357 604778 632024
0110010011100000100001000: 548598 592848 581357 461193 547655
0110010011100000100001000: 548598 592848 581357 461193 604778
0110010010100010100000100: 548598 592848 581357 461193 491542
0110010010100010100000100: 548598 592848 581357 461193 501997
0110010010100010100000100: 548598 592848 581357 461193 513593
0110010010100010100000100: 548598 592848 581357 461193 632024
0110010011100000100001000: 580025 501997 490255 616717 571369
0110010011100000100001000: 580025 501997 490255 581357 571369
0110010011100000100001000: 580025 501997 490255 581357 616717
0110010011100000100001000: 580025 501997 480235 616717 571369
0111010101110001000001000: 580025 501997 475811 490255 571369
0111010101110001000001000: 580025 501997 475811 490255 581357
0111010101110001000001000: 580025 501997 475811 480235 571369
0111010101110001000101010: 580025 501997 475811 480235 581357
0110010010100010100000100: 580025 490255 501997 476409 571369
0110010010100010100000100: 580025 490255 501997 476409 616717
0110010010100010100000100: 580025 490255 501997 476409 581357
0110010011100000100001000: 580025 490255 501997 632024 476409
0110010010100010100000100: 580025 490255 501997 632024 571369
0110010010100010100000100: 580025 490255 501997 632024 616717
0110010011100000100001000: 580025 490255 480235 632024 476409
0110010011100000100001000: 580025 490255 475811 632024 476409
0110010010100010100000100: 580025 480235 501997 604778 571369
0110010010100010100000100: 580025 480235 501997 604778 616717
0110010011100000100001000: 580025 480235 501997 461193 604778
0110010010100010100000100: 580025 480235 501997 461193 571369
0110010010100010100000100: 580025 480235 501997 461193 616717
0110010010100010100000100: 580025 480235 490255 604778 476409
0110010010100010100000100: 580025 480235 490255 604778 632024
0110010011100000100001000: 580025 480235 490255 581357 604778
0110010010100010100000100: 580025 480235 490255 581357 476409
0110010011100000100001000: 580025 480235 490255 461193 604778
0110010011100000100001000: 580025 480235 490255 461193 581357
0110010010100010100000100: 580025 480235 490255 461193 476409
0110010010100010100000100: 580025 480235 490255 461193 632024
0110010011100000100001000: 580025 480235 475811 581357 604778
0110010011100000100001000: 580025 480235 475811 461193 604778
0110010011100000100001000: 580025 480235 475811 461193 581357
0110010010100010100000100: 580025 475811 490255 616717 476409
0110010010100010100000100: 580025 475811 490255 616717 632024
0110010010100010100000100: 580025 475811 480235 616717 604778
0110010010100010100000100: 580025 475811 480235 616717 581357
0110010010100010100000100: 580025 475811 480235 616717 461193
0111010100110001000100010: 580025 475811 501997 490255 476409
0111010100110001000100010: 580025 475811 501997 490255 632024
0111110100110001000010000: 580025 475811 501997 480235 490255
0111010100110001000100010: 580025 475811 501997 480235 604778
0111010100110001000100010: 580025 475811 501997 480235 461193
0111010110110011100000100: 475811 501997 616717 580025 580873
0111010110110011100000100: 475811 501997 580025 616717 490255
0111010110110011100000100: 475811 501997 580025 616717 480235
0110010010100010100000100: 475811 580025 616717 490255 580873
0110010011100000100001000: 475811 580025 616717 480235 490255
0110010010100010100000100: 475811 580025 616717 480235 580873
0110010011100000100001000: 480235 604778 580025 604702 481896
0110010011100000100001000: 480235 604778 580025 504249 481896
0110010011100000100001000: 480235 604778 580025 504249 604702
0110010011100000100001000: 480235 604778 580025 592848 481896
0110010011100000100001000: 480235 604778 580025 592848 604702
0110010011100000100001000: 480235 604778 580025 592848 504249
0110010011100000100001000: 480235 604778 581357 604702 481896
0110010011100000100001000: 480235 604778 581357 504249 481896
0110010011100000100001000: 480235 604778 581357 504249 604702
0110010011100000100001000: 480235 604778 581357 592848 481896
0110010011100000100001000: 480235 604778 581357 592848 604702
0110010011100000100001000: 480235 604778 581357 592848 504249
0110010011100000100001000: 480235 604778 461193 604702 481896
0110010011100000100001000: 480235 604778 461193 504249 481896
0110010011100000100001000: 480235 604778 461193 504249 604702
0110010010100010100000100: 480235 580025 604778 501997 481896
0110010010100010100000100: 480235 580025 604778 501997 604702
0110010010100010100000100: 480235 580025 604778 501997 504249
0110010010100010100000100: 480235 580025 604778 501997 592848
0110010011100000100001000: 480235 580025 604778 490255 501997
0110010010100010100000100: 480235 580025 604778 490255 481896
0110010010100010100000100: 480235 580025 604778 490255 604702
0110010010100010100000100: 480235 580025 604778 490255 504249
0110010010100010100000100: 480235 580025 604778 490255 592848
0110010011100000100001000: 480235 580025 604778 475811 490255
0110010010100010100000100: 480235 580025 604778 475811 481896
0110010010100010100000100: 480235 580025 604778 475811 604702
0110010010100010100000100: 480235 580025 604778 475811 504249
0110010010100010100000100: 480235 580025 604778 475811 592848
0110010011100000100001000: 480235 580025 581357 475811 490255
0110010011100100110001000: 480235 580025 581357 501997 490255
0110010011100000100001000: 480235 580025 461193 490255 501997
0110010011100000100001000: 480235 580025 461193 475811 490255
0110010010100010100000100: 480235 581357 604778 491542 604702
0110010010100010100000100: 480235 581357 604778 491542 504249
0110010010100010100000100: 480235 581357 604778 491542 592848
0110010011100000100001000: 480235 581357 604778 501997 491542
0110010010100010100000100: 480235 581357 604778 501997 481896
0110010010100010100000100: 480235 581357 604778 501997 604702
0110010010100010100000100: 480235 581357 604778 501997 504249
0110010010100010100000100: 480235 581357 604778 501997 592848
0110010011100000100001000: 480235 581357 604778 513593 491542
0110010011100000100001000: 480235 581357 604778 513593 501997
0110010010100010100000100: 480235 581357 604778 513593 481896
0110010010100010100000100: 480235 581357 604778 513593 604702
0110010010100010100000100: 480235 581357 604778 513593 504249
0110010010100010100000100: 480235 581357 604778 513593 592848
0110010011100000100001000: 480235 581357 604778 548598 491542
0110010011100000100001000: 480235 581357 604778 548598 501997
0110010011100000100001000: 480235 581357 604778 548598 513593
0110010010100010100000100: 480235 581357 604778 548598 481896
0110010010100010100000100: 480235 581357 604778 548598 604702
0110010010100010100000100: 480235 581357 604778 548598 504249
0110010011100000100001000: 480235 581357 604778 632024 491542
0110010011100000100001000: 480235 581357 604778 632024 501997
0110010011100000100001000: 480235 581357 604778 632024 513593
0110010011100000100001000: 480235 581357 604778 632024 548598
0110010010100010100000100: 480235 581357 604778 632024 481896
0110010010100010100000100: 480235 581357 604778 632024 604702
0110010010100010100000100: 480235 581357 604778 632024 504249
0110010010100010100000100: 480235 581357 604778 632024 592848
0110010010100010100000100: 480235 581357 580025 491542 490255
0110010010100010100000100: 480235 581357 580025 491542 475811
0110010011100000100001000: 480235 581357 580025 513593 491542
0110010010100010100000100: 480235 581357 580025 513593 490255
0110010010100010100000100: 480235 581357 580025 513593 475811
0110010011100000100001000: 480235 581357 580025 548598 491542
0110010011100000100001000: 480235 581357 580025 548598 513593
0110010010100010100000100: 480235 581357 580025 548598 490255
0110010010100010100000100: 480235 581357 580025 548598 475811
0110010011100000100001000: 480235 581357 580025 632024 491542
0110010011100000100001000: 480235 581357 580025 632024 513593
0110010011100000100001000: 480235 581357 580025 632024 548598
0110010010100010100000100: 480235 581357 580025 632024 475811
0110010011100100110001000: 480235 581357 580025 501997 491542
0110010011100100110001000: 480235 581357 580025 501997 513593
0110010011100100110001000: 480235 581357 580025 501997 548598
0110010011100100110001000: 480235 581357 580025 501997 632024
0110010011100000100001000: 480235 581357 461193 501997 491542
0110010011100000100001000: 480235 581357 461193 513593 491542
0110010011100000100001000: 480235 581357 461193 513593 501997
0110010011100000100001000: 480235 581357 461193 548598 491542
0110010011100000100001000: 480235 581357 461193 548598 501997
0110010011100000100001000: 480235 581357 461193 548598 513593
0110010011100000100001000: 480235 581357 461193 632024 491542
0110010011100000100001000: 480235 581357 461193 632024 501997
0110010011100000100001000: 480235 581357 461193 632024 513593
0110010011100000100001000: 480235 581357 461193 632024 548598
0110010010100010100000100: 480235 461193 580025 592848 501997
0110010010100010100000100: 480235 461193 580025 592848 490255
0110010010100010100000100: 480235 461193 580025 592848 475811
0111110000100001000010000: 480235 461193 581357 580025 604778
0110010010100010100000100: 480235 461193 581357 592848 491542
0110010010100010100000100: 480235 461193 581357 592848 501997
0110010010100010100000100: 480235 461193 581357 592848 513593
0110010010100010100000100: 480235 461193 581357 592848 632024
0110010011100000100001000: 604778 481896 604702 506960 491542
0110010011100000100001000: 604778 481896 504249 506960 491542
0110010011100000100001000: 604778 481896 480235 506960 491542
0110010011100000100001000: 604778 481896 592848 506960 491542
0110010010100010100000100: 604778 604702 481896 580873 491542
0110010010100010100000100: 604778 604702 481896 580873 506960
0110010010100010100000100: 604778 504249 481896 571369 491542
0110010010100010100000100: 604778 504249 481896 571369 506960
0110010011100000100001000: 604778 504249 481896 547655 571369
0110010010100010100000100: 604778 504249 481896 547655 491542
0110010010100010100000100: 604778 504249 481896 547655 506960
0110010011100000100001000: 604778 504249 481896 580873 571369
0110010010100010100000100: 604778 504249 481896 580873 491542
0110010010100010100000100: 604778 504249 481896 580873 506960
0110010011100000100001000: 604778 504249 604702 547655 571369
0110010011100100110001000: 604778 504249 604702 580873 571369
0110010011100000100001000: 604778 504249 480235 547655 571369
0110010011100000100001000: 604778 504249 480235 580873 571369
0110010011100000100001000: 604778 504249 592848 580873 571369
0110010011100100110001000: 604778 504249 592848 547655 571369
0110010010100010100000100: 604778 480235 481896 580025 491542
0110010010100010100000100: 604778 480235 481896 580025 506960
0110010011100000100001000: 604778 480235 481896 581357 580025
0110010010100010100000100: 604778 480235 481896 581357 506960
0110010011100000100001000: 604778 480235 481896 461193 580025
0110010011100000100001000: 604778 480235 481896 461193 581357
0110010010100010100000100: 604778 480235 481896 461193 491542
0110010010100010100000100: 604778 480235 481896 461193 506960
0110010010100010100000100: 604778 480235 604702 580025 580873
0110010011100000100001000: 604778 480235 604702 581357 580025
0110010010100010100000100: 604778 480235 604702 581357 580873
0110010011100000100001000: 604778 480235 604702 461193 580025
0110010011100000100001000: 604778 480235 604702 461193 581357
0110010010100010100000100: 604778 480235 604702 461193 580873
0111110000100001000010000: 604778 480235 504249 604702 481896
0110010010100010100000100: 604778 480235 504249 580025 571369
0110010010100010100000100: 604778 480235 504249 580025 547655
0110010010100010100000100: 604778 480235 504249 580025 580873
0110010011100000100001000: 604778 480235 504249 581357 580025
0110010010100010100000100: 604778 480235 504249 581357 571369
0110010010100010100000100: 604778 480235 504249 581357 547655
0110010010100010100000100: 604778 480235 504249 581357 580873
0110010011100000100001000: 604778 480235 504249 461193 580025
0110010011100000100001000: 604778 480235 504249 461193 581357
0110010010100010100000100: 604778 480235 504249 461193 571369
0110010010100010100000100: 604778 480235 504249 461193 547655
0110010010100010100000100: 604778 480235 504249 461193 580873
0110010011100000100001000: 604778 480235 592848 581357 580025
0110010010100010100000100: 604778 592848 481896 547655 491542
0110010010100010100000100: 604778 592848 481896 547655 506960
0110010011100000100001000: 604778 592848 481896 548598 547655
0110010010100010100000100: 604778 592848 481896 548598 491542
0110010010100010100000100: 604778 592848 481896 548598 506960
0110010011100000100001000: 604778 592848 481896 461193 547655
0110010011100000100001000: 604778 592848 481896 461193 548598
0110010010100010100000100: 604778 592848 481896 461193 491542
0110010010100010100000100: 604778 592848 481896 461193 506960
0110010011100000100001000: 604778 592848 604702 548598 547655
0110010011100000100001000: 604778 592848 604702 461193 547655
0110010011100000100001000: 604778 592848 604702 461193 548598
0110010010100010100000100: 604778 592848 604702 461193 580873
0111110000100001000010000: 604778 592848 504249 604702 481896
0110010010100010100000100: 604778 592848 504249 548598 571369
0110010011100000100001000: 604778 592848 504249 461193 548598
0110010010100010100000100: 604778 592848 504249 461193 571369
0110010010100010100000100: 604778 592848 504249 461193 580873
0110010011100100110001000: 604778 592848 504249 547655 548598
0110010011100100110001000: 604778 592848 504249 547655 461193
0111110000100001000010000: 604778 592848 480235 604702 481896
0111110000100001000010000: 604778 592848 480235 504249 481896
0111110000100001000010000: 604778 592848 480235 504249 604702
0110010010100010100000100: 604778 592848 480235 547655 580025
0110010010100010100000100: 604778 592848 480235 547655 581357
0110010011100000100001000: 604778 592848 480235 548598 547655
0110010010100010100000100: 604778 592848 480235 548598 580025
0110010010100010100000100: 490255 580025 476409 501997 468771
0110010011100000100001000: 490255 580025 476409 480235 501997
0110010010100010100000100: 490255 580025 476409 480235 468771
0110010011100000100001000: 490255 580025 476409 475811 480235
0110010010100010100000100: 490255 580025 476409 475811 468771
0110010011100000100001000: 490255 580025 632024 480235 501997
0110010011100000100001000: 490255 580025 632024 475811 480235
0110010010100010100000100: 490255 632024 476409 581357 468771
0110010010100010100000100: 490255 632024 580025 581357 475811
0110010010100010100000100: 580873 616717 604702 501997 604778
0110010010100010100000100: 580873 616717 604702 475811 604778
0110010010100010100000100: 580873 547655 616717 592848 501997
0110010010100010100000100: 580873 547655 616717 592848 475811
0111010101110001000001000: 580873 547655 504249 604702 592848
0111010101110001000001000: 580873 547655 504249 616717 592848
0111010101110001000101010: 580873 547655 504249 548598 592848
0110010010100010100000100: 580873 504249 616717 571369 475811
0110010010100010100100110: 580873 504249 616717 571369 501997
0110010011100000100001000: 580873 504249 616717 604778 571369
0110010010100010100000100: 580873 504249 616717 604778 501997
0110010010100010100000100: 580873 504249 616717 604778 475811
0110010011100000100001000: 580873 504249 548598 604778 571369
0111010101110001000001000: 580873 504249 547655 604702 571369
0111010101110001000101010: 580873 504249 547655 604702 604778
0111110100110001000010000: 580873 504249 547655 616717 604702
0111010101110001000001000: 580873 504249 547655 616717 571369
0111010101110001000001000: 580873 504249 547655 616717 604778
0111010100110001000100010: 580873 504249 547655 616717 501997
0111010100110001000100010: 580873 504249 547655 616717 475811
0111110100110001000010000: 580873 504249 547655 548598 604702
0111110100110001000010000: 580873 504249 547655 548598 616717
0111010101110001000001000: 580873 504249 547655 548598 571369
0111010101110001000001000: 580873 504249 547655 548598 604778
0111010100110001000100010: 580873 504249 547655 548598 468771
0111010100110001000100010: 580873 504249 547655 548598 581357
0110010010100010100000100: 580873 548598 604702 468771 604778
0110010011100000100001000: 580873 548598 604702 581357 468771
0110010010100010100000100: 580873 548598 604702 581357 604778
0110010011100000100001000: 580873 548598 604702 592848 468771
0110010011100000100001000: 580873 548598 604702 592848 581357
0110010010100010100000100: 580873 548598 616717 468771 501997
0110010010100010100000100: 580873 548598 616717 468771 475811
0110010011100000100001000: 580873 548598 616717 581357 468771
0110010010100010100000100: 580873 548598 616717 581357 475811
0110010011100000100001000: 580873 548598 616717 592848 468771
0110010011100000100001000: 580873 548598 616717 592848 581357
0110010010100010100000100: 580873 548598 616717 592848 501997
0110010010100010100000100: 580873 548598 616717 592848 475811
0111110000100001000010000: 580873 548598 547655 616717 604702
0110010011100000100001000: 580873 548598 547655 581357 468771
0111110000100001000010000: 580873 548598 504249 616717 604702
0110010010100010100000100: 580873 548598 504249 468771 571369
0110010010100010100000100: 580873 548598 504249 468771 604778
0110010011100000100001000: 580873 548598 504249 581357 468771
0110010010100010100000100: 580873 548598 504249 581357 571369
0110010010100010100000100: 580873 548598 504249 581357 604778
0110010011100000100001000: 580873 548598 504249 592848 468771
0110010011100000100001000: 580873 548598 504249 592848 581357
0110010010100010100000100: 580873 548598 504249 592848 571369
0110010010100010100000100: 504249 547655 571369 592848 501997
0111010101110001000001000: 504249 547655 580873 571369 592848
0111010101110001000101010: 504249 547655 580873 604778 592848
0110010010100010100000100: 504249 580873 571369 604702 501997
0110010011100000100001000: 504249 580873 571369 616717 604702
0110010011100000100001000: 504249 580873 571369 548598 604702
0110010011100000100001000: 504249 580873 571369 548598 616717
0110010010100010100000100: 504249 580873 571369 548598 501997
0110010011100000100001000: 504249 580873 604778 548598 616717
0110010011100100110001000: 504249 580873 604778 604702 616717
0110010011100100110001000: 504249 580873 604778 604702 548598
0111010100110001000100010: 504249 580873 547655 571369 501997
0111110100110001000010000: 504249 580873 547655 604778 571369
0111010100110001000100010: 504249 580873 547655 604778 481896
0111010100110001000100010: 504249 580873 547655 604778 480235
0110010010100010100000100: 504249 604778 571369 481896 501997
0110010011100000100001000: 504249 604778 571369 604702 481896
0110010010100010100000100: 504249 604778 571369 604702 501997
0110010011100000100001000: 504249 604778 571369 480235 481896
0110010011100000100001000: 504249 604778 571369 480235 604702
0110010010100010100000100: 504249 604778 571369 480235 501997
0110010011100000100001000: 504249 604778 571369 592848 481896
0110010011100000100001000: 504249 604778 571369 592848 604702
0110010011100000100001000: 504249 604778 571369 592848 480235
0110010010100010100000100: 504249 604778 571369 592848 501997
0110010011100000100001000: 504249 604778 547655 604702 481896
0110010011100000100001000: 504249 604778 547655 480235 481896
0110010011100000100001000: 504249 604778 547655 480235 604702
0110010010100010100000100: 504249 604778 580873 481896 616717
0110010010100010100000100: 504249 604778 580873 481896 548598
0110010011100000100001000: 504249 604778 580873 480235 481896
0110010010100010100000100: 504249 604778 580873 480235 616717
0110010010100010100000100: 504249 604778 580873 480235 548598
0110010011100000100001000: 504249 604778 580873 592848 481896
0110010011100000100001000: 504249 604778 580873 592848 480235
0110010010100010100000100: 504249 604778 580873 592848 616717
0110010011100100110001000: 504249 604778 580873 604702 481896
0110010011100100110001000: 504249 604778 580873 604702 480235
0110010011100100110001000: 504249 604778 580873 604702 592848
0110010011100000100001000: 547655 580873 592848 616717 604702
0111010100110001000100010: 547655 580873 504249 592848 461193
0110010010100010100000100: 547655 592848 504249 548598 571369
0110010011100000100001000: 547655 592848 504249 461193 548598
0110010010100010100000100: 547655 592848 504249 461193 571369
0110010010100010100000100: 547655 592848 580873 604778 616717
0110010011100000100001000: 547655 592848 580873 461193 604778
0110010010100010100000100: 547655 592848 580873 461193 604702
0110010010100010100000100: 547655 592848 580873 461193 616717
0110010010100010100000100: 468771 548598 476409 580873 490255
0110010011100000100001000: 468771 548598 476409 581357 580873
0110010010100010100000100: 468771 548598 476409 581357 490255
0110010011100000100001000: 468771 548598 476409 592848 580873
0110010011100000100001000: 468771 548598 476409 592848 581357
0110010010100010100000100: 468771 548598 476409 592848 490255
0110010010100010100000100: 476409 490255 468771 580025 548598
0110010011100000100001000: 476409 490255 468771 632024 580025
0110010010100010100000100: 476409 490255 468771 632024 548598
0110010011100000100001000: 513593 581357 506960 501997 491542
0110010010100010100000100: 513593 581357 506960 501997 481896
0110010011100000100001000: 513593 581357 506960 480235 491542
0110010011100000100001000: 513593 581357 506960 480235 501997
0110010010100010100000100: 513593 581357 506960 480235 481896
0110010011100000100001000: 513593 581357 506960 548598 491542
0110010011100000100001000: 513593 581357 506960 548598 501997
0110010011100000100001000: 513593 581357 506960 548598 480235
0110010010100010100000100: 513593 581357 506960 548598 481896
0110010011100000100001000: 513593 581357 506960 632024 491542
0110010011100000100001000: 513593 581357 506960 632024 501997
0110010011100000100001000: 513593 581357 506960 632024 480235
0110010011100000100001000: 513593 581357 506960 632024 548598
0110010010100010100000100: 513593 581357 506960 632024 481896
0110010011100000100001000: 506960 481896 513593 604778 491542
0110010010100010100000100: 506960 513593 481896 581357 604778
0110010011100000100001000: 616717 501997 580873 580025 571369
0110010011100000100001000: 616717 501997 580873 581357 571369
0110010011100000100001000: 616717 501997 580873 581357 580025
0111010101110001000001000: 616717 501997 475811 580873 571369
0111010101110001000001000: 616717 501997 475811 580873 581357
0110010010100010100000100: 616717 580873 501997 604702 571369
0110010010100010100000100: 616717 580873 501997 604702 580025
0110010010100010100000100: 616717 580873 501997 604702 581357
0110010011100000100001000: 616717 580873 501997 547655 604702
0110010010100010100000100: 616717 580873 501997 547655 571369
0110010010100010100000100: 616717 580873 501997 547655 580025
0110010010100010100000100: 616717 580873 501997 547655 581357
0110010011100000100001000: 616717 580873 501997 504249 604702
0110010010100010100000100: 616717 580873 501997 504249 580025
0110010010100010100000100: 616717 580873 501997 504249 581357
0110010011100000100001000: 616717 580873 501997 548598 604702
0110010011100000100001000: 616717 580873 501997 548598 547655
0110010011100000100001000: 616717 580873 501997 548598 504249
0110010010100010100000100: 616717 580873 501997 548598 571369
0110010010100010100000100: 616717 580873 501997 548598 580025
0110010011100000100001000: 616717 580873 475811 547655 604702
0110010011100000100001000: 616717 580873 475811 504249 604702
0110010011100000100001000: 616717 580873 475811 548598 604702
0110010011100000100001000: 616717 580873 475811 548598 547655
0110010011100000100001000: 616717 580873 475811 548598 504249
0110010010100010100000100: 616717 475811 580873 580025 604702
0110010010100010100000100: 616717 475811 580873 580025 547655
0110010010100010100000100: 616717 475811 580873 580025 504249
0110010010100010100000100: 616717 475811 580873 580025 548598
0111010100110001000100010: 616717 475811 501997 580873 604702
0111010100110001000100010: 616717 475811 501997 580873 547655
0111010100110001000100010: 616717 475811 501997 580873 504249
0111010100110001000100010: 616717 475811 501997 580873 548598
0111010100110001000100010: 501997 475811 616717 571369 504249
0111110100110001000010000: 501997 475811 616717 581357 571369
0111010100110001000100010: 501997 475811 616717 581357 491542
0111010100110001000100010: 501997 475811 616717 581357 513593
0111010100110001000100010: 501997 475811 616717 581357 480235
0111010100110001000100010: 501997 475811 616717 581357 548598
0111010100110001000100010: 501997 475811 616717 581357 632024
0111110110110001100010000: 501997 475811 580025 616717 571369
0111110110110001100010000: 501997 475811 580025 616717 581357
0110010010100010100000100: 501997 580025 571369 490255 504249
0110010011100000100001000: 501997 580025 571369 480235 490255
0110010010100010100000100: 501997 580025 571369 480235 504249
0110010010100010100000100: 501997 580025 616717 490255 580873
0110010011100000100001000: 501997 580025 616717 480235 490255
0110010010100010100000100: 501997 580025 616717 480235 580873
0111010100110001000100010: 501997 580025 475811 571369 504249
0111110100110001000010000: 501997 580025 475811 581357 571369
0111010100110001000100010: 501997 580025 475811 581357 491542
0111010100110001000100010: 501997 580025 475811 581357 513593
0111010100110001000100010: 501997 580025 475811 581357 548598
0111010100110001000100010: 501997 580025 475811 581357 632024
0110010010100010100000100: 501997 581357 571369 491542 504249
0110010011100000100001000: 501997 581357 571369 513593 491542
0110010010100010100000100: 501997 581357 571369 513593 504249
0110010011100000100001000: 501997 581357 571369 480235 491542
0110010011100000100001000: 501997 581357 571369 480235 513593
0110010010100010100000100: 501997 581357 571369 480235 504249
0110010011100000100001000: 501997 581357 571369 548598 491542
0110010011100000100001000: 501997 581357 571369 548598 513593
0110010011100000100001000: 501997 581357 571369 548598 480235
0110010010100010100000100: 501997 581357 571369 548598 504249
0110010011100000100001000: 501997 581357 571369 632024 491542
0110010011100000100001000: 501997 581357 571369 632024 513593
0110010011100000100001000: 501997 581357 571369 632024 480235
0110010011100000100001000: 501997 581357 571369 632024 548598
0110010010100010100000100: 501997 581357 571369 632024 504249
0110010010100010100000100: 501997 581357 616717 491542 580873
0110010011100000100001000: 501997 581357 616717 513593 491542
0110010010100010100000100: 501997 581357 616717 513593 580873
0110010011100000100001000: 501997 581357 616717 480235 491542
0110010011100000100001000: 501997 581357 616717 480235 513593
0110010010100010100000100: 501997 581357 616717 480235 580873
0110010011100000100001000: 501997 581357 616717 548598 491542
0110010011100000100001000: 501997 581357 616717 548598 513593
0110010011100000100001000: 501997 581357 616717 548598 480235
0110010011100000100001000: 501997 581357 616717 632024 491542
0110010011100000100001000: 501997 581357 616717 632024 513593
0110010011100000100001000: 501997 581357 616717 632024 480235
0110010011100000100001000: 501997 581357 616717 632024 548598
0110010010100010100000100: 501997 581357 616717 632024 580873
0110010011100000100001000: 501997 581357 475811 513593 491542
0110010011100000100001000: 501997 581357 475811 480235 491542
0110010011100000100001000: 501997 581357 475811 480235 513593
0110010011100000100001000: 501997 581357 475811 548598 491542
0110010011100000100001000: 501997 581357 475811 548598 513593
0110010011100000100001000: 501997 581357 475811 548598 480235
0110010011100000100001000: 501997 581357 475811 632024 491542
0110010011100000100001000: 501997 581357 475811 632024 513593
0110010011100000100001000: 501997 581357 475811 632024 480235
0110010011100000100001000: 501997 581357 475811 632024 548598
0111110000100001000010000: 501997 581357 580025 616717 571369
0110010010100010100000100: 501997 581357 580025 491542 490255
0110010011100000100001000: 501997 581357 580025 513593 491542
0110010010100010100000100: 501997 581357 580025 513593 490255
0110010011100000100001000: 501997 581357 580025 548598 491542
0110010011100000100001000: 501997 581357 580025 548598 513593
0110010010100010100000100: 501997 581357 580025 548598 490255
0110010011100000100001000: 501997 581357 580025 632024 491542
0110010011100000100001000: 501997 581357 580025 632024 513593
0110010011100000100001000: 501997 581357 580025 632024 548598
0110010011100000100001000: 604702 580873 604778 547655 616717
0110010011100000100001000: 604702 580873 604778 548598 616717
0110010011100000100001000: 604702 580873 604778 548598 547655
0110010010100010100000100: 604702 604778 580873 481896 616717
0110010010100010100000100: 604702 604778 580873 481896 547655
0110010010100010100000100: 604702 604778 580873 481896 548598
0110010011100000100001000: 604702 604778 580873 480235 481896
0110010010100010100000100: 604702 604778 580873 480235 616717
0110010010100010100000100: 604702 604778 580873 480235 547655
0110010010100010100000100: 604702 604778 580873 480235 548598
0110010011100000100001000: 604702 604778 580873 592848 481896
0110010011100000100001000: 604702 604778 580873 592848 480235
0110010010100010100000100: 604702 604778 580873 592848 616717
0110010011100000100001000: 491542 481896 581357 604778 506960
0110010010100010100000100: 491542 581357 481896 501997 506960
0110010010100010100000100: 491542 581357 481896 501997 604778
0110010011100000100001000: 491542 581357 481896 513593 501997
0110010010100010100000100: 491542 581357 481896 513593 604778
0110010011100000100001000: 491542 581357 481896 480235 501997
0110010011100000100001000: 491542 581357 481896 480235 513593
0110010010100010100000100: 491542 581357 481896 480235 506960
0110010011100000100001000: 491542 581357 481896 548598 501997
0110010011100000100001000: 491542 581357 481896 548598 513593
0110010011100000100001000: 491542 581357 481896 548598 480235
0110010010100010100000100: 491542 581357 481896 548598 506960
0110010010100010100000100: 491542 581357 481896 548598 604778
0110010011100000100001000: 491542 581357 481896 632024 501997
0110010011100000100001000: 491542 581357 481896 632024 513593
0110010011100000100001000: 491542 581357 481896 632024 480235
0110010011100000100001000: 491542 581357 481896 632024 548598
0110010010100010100000100: 491542 581357 481896 632024 506960
0110010010100010100000100: 491542 581357 481896 632024 604778
0110010010100010100000100: 481896 604778 491542 604702 581357
0110010011100000100001000: 481896 604778 491542 504249 604702
0110010010100010100000100: 481896 604778 491542 504249 581357
0110010011100000100001000: 481896 604778 491542 480235 604702
0110010011100000100001000: 481896 604778 491542 480235 504249
0110010011100000100001000: 481896 604778 491542 592848 604702
0110010011100000100001000: 481896 604778 491542 592848 504249
0110010011100000100001000: 481896 604778 491542 592848 480235
0110010010100010100000100: 481896 604778 491542 592848 581357
0110010010100010100000100: 481896 604778 506960 604702 513593
0110010011100000100001000: 481896 604778 506960 504249 604702
0110010010100010100000100: 481896 604778 506960 504249 513593
0110010011100000100001000: 481896 604778 506960 480235 604702
0110010011100000100001000: 481896 604778 506960 480235 504249
0110010010100010100000100: 481896 604778 506960 480235 513593
0110010011100000100001000: 481896 604778 506960 592848 604702
0110010011100000100001000: 481896 604778 506960 592848 504249
0110010011100000100001000: 481896 604778 506960 592848 480235
0110010010100010100000100: 481896 604778 506960 592848 513593
0110010011100000100001000: 571369 501997 504249 580025 616717
0110010011100000100001000: 571369 501997 504249 581357 616717
0110010011100000100001000: 571369 501997 504249 581357 475811
0110010011100000100001000: 571369 501997 504249 581357 580025
0110010010100010100000100: 571369 504249 501997 547655 616717
0110010010100010100000100: 571369 504249 501997 547655 475811
0110010010100010100000100: 571369 504249 501997 547655 580025
0110010010100010100000100: 571369 504249 501997 547655 581357
0110010010100010100000100: 571369 504249 501997 580873 475811
0110010010100010100000100: 571369 504249 501997 580873 580025
0110010010100010100000100: 571369 504249 501997 580873 581357
0110010011100000100001000: 571369 504249 501997 604778 547655
0110010011100000100001000: 571369 504249 501997 604778 580873
0110010010100010100000100: 571369 504249 501997 604778 616717
0110010010100010100000100: 571369 504249 501997 604778 475811
0110010010100010100000100: 571369 504249 501997 604778 580025
0110010010100010100000100: 571369 504249 501997 604778 581357
