Vertex,0110010011100000100001000,0110010010100010100000100
472343,0.0,5.0
592824,0.0,6.0
626811,0.0,4.0
481175,1.0,7.0
530646,0.0,3.0
652009,3.0,8.0
492189,3.0,8.0
595152,3.0,12.0
568819,1.0,7.0
574200,3.0,8.0
504775,0.0,6.0
557387,0.0,5.0
607627,0.0,6.0
598303,1.0,7.0
543838,0.0,2.0
521860,0.0,1.0
graph,3.0,19.0
