Vertex,0111010101110001000001000,0111010110110011100000100,0111010101110001000101010,0111110000100001000010000,0111110110110001100010000,0110010010100010100000100,0110010010100010100100110,0111010100110001000100010,0111110100110001000010000,0111110100110001000110010,0110010011100100110001000,0110010011100000100001000
591069,8.0,0.0,1.0,2.0,0.0,54.0,3.0,8.0,3.0,0.0,6.0,46.0
541814,21.0,0.0,2.0,0.0,1.0,61.0,3.0,18.0,2.0,2.0,5.0,32.0
607682,23.0,0.0,5.0,7.0,1.0,80.0,2.0,18.0,15.0,2.0,11.0,85.0
566663,4.0,0.0,0.0,0.0,0.0,40.0,1.0,6.0,1.0,0.0,2.0,28.0
599576,47.0,4.0,7.0,2.0,6.0,61.0,3.0,26.0,16.0,4.0,4.0,55.0
540966,23.0,0.0,5.0,2.0,1.0,40.0,0.0,12.0,4.0,2.0,9.0,37.0
472096,6.0,1.0,0.0,0.0,0.0,35.0,2.0,5.0,1.0,0.0,1.0,34.0
561637,22.0,0.0,1.0,6.0,1.0,13.0,0.0,14.0,15.0,2.0,3.0,36.0
571417,5.0,0.0,0.0,2.0,0.0,33.0,0.0,4.0,2.0,0.0,2.0,33.0
618323,52.0,4.0,6.0,12.0,6.0,89.0,3.0,29.0,23.0,4.0,17.0,123.0
560378,25.0,4.0,1.0,7.0,6.0,53.0,2.0,12.0,10.0,2.0,2.0,72.0
486926,6.0,1.0,0.0,0.0,0.0,15.0,0.0,2.0,1.0,0.0,0.0,21.0
580085,10.0,0.0,1.0,9.0,1.0,28.0,0.0,3.0,10.0,0.0,8.0,53.0
525199,10.0,0.0,1.0,9.0,1.0,47.0,1.0,7.0,10.0,0.0,8.0,64.0
499243,23.0,4.0,3.0,7.0,6.0,56.0,0.0,10.0,10.0,2.0,12.0,61.0
568289,5.0,1.0,1.0,0.0,0.0,48.0,0.0,5.0,1.0,0.0,7.0,28.0
462644,5.0,1.0,1.0,0.0,0.0,30.0,0.0,4.0,1.0,0.0,7.0,32.0
523490,0.0,0.0,0.0,0.0,0.0,32.0,0.0,2.0,0.0,0.0,1.0,10.0
graph,59.0,4.0,7.0,13.0,6.0,163.0,4.0,37.0,25.0,4.0,21.0,170.0
