Vertex,0110101111000100,0101101101001100,0101101001011010,0110100110000100,0111101011001000,0111101011011010,0101101001001000,0111100110001100,0110101011010010,0111100010001000,0110100110010110,0111101111001100,0100101001010010,0110100010010010,0100101101000100,0111100110011110,0110101111010110,0100101101010110,0101101101011110,0111101111011110,0111100010011010
598822,551.0,66.0,111.0,1148.0,1238.0,506.0,316.0,352.0,351.0,1098.0,313.0,630.0,233.0,681.0,40.0,24.0,490.0,4.0,20.0,465.0,234.0
461184,750.0,138.0,281.0,1426.0,1573.0,823.0,364.0,501.0,533.0,1206.0,869.0,936.0,241.0,757.0,72.0,58.0,807.0,24.0,51.0,930.0,420.0
570191,1920.0,292.0,138.0,1256.0,4210.0,2354.0,361.0,1172.0,1252.0,1270.0,350.0,2772.0,155.0,709.0,20.0,129.0,2219.0,2.0,135.0,5890.0,720.0
529868,96.0,32.0,25.0,804.0,152.0,0.0,205.0,66.0,96.0,255.0,70.0,0.0,211.0,542.0,26.0,0.0,0.0,2.0,0.0,0.0,24.0
501829,1411.0,234.0,498.0,2021.0,3091.0,1428.0,501.0,1007.0,941.0,1831.0,1501.0,1602.0,311.0,1037.0,76.0,108.0,1380.0,36.0,114.0,2325.0,716.0
589018,688.0,106.0,121.0,1118.0,1494.0,801.0,298.0,443.0,455.0,815.0,387.0,900.0,184.0,600.0,36.0,57.0,759.0,16.0,53.0,1395.0,354.0
474758,1069.0,190.0,404.0,1513.0,2272.0,1058.0,461.0,698.0,743.0,1261.0,1073.0,1188.0,280.0,829.0,88.0,70.0,1045.0,14.0,92.0,2015.0,438.0
573171,1481.0,246.0,395.0,1879.0,3235.0,1301.0,460.0,1033.0,991.0,1630.0,1206.0,1512.0,310.0,995.0,58.0,92.0,1253.0,22.0,86.0,3720.0,678.0
629582,745.0,100.0,166.0,845.0,1678.0,780.0,254.0,487.0,466.0,881.0,474.0,954.0,128.0,420.0,12.0,40.0,754.0,20.0,43.0,2015.0,368.0
477502,786.0,148.0,271.0,1510.0,1625.0,670.0,371.0,526.0,568.0,1311.0,879.0,810.0,258.0,826.0,64.0,35.0,611.0,24.0,28.0,775.0,440.0
493670,723.0,124.0,179.0,1237.0,1534.0,667.0,324.0,480.0,506.0,882.0,564.0,738.0,206.0,671.0,38.0,51.0,627.0,34.0,50.0,930.0,418.0
623295,833.0,116.0,142.0,955.0,1856.0,994.0,292.0,539.0,528.0,712.0,373.0,1152.0,158.0,516.0,8.0,68.0,976.0,24.0,70.0,2480.0,396.0
539389,271.0,22.0,15.0,604.0,632.0,82.0,176.0,153.0,155.0,673.0,35.0,108.0,111.0,329.0,18.0,2.0,74.0,2.0,3.0,0.0,126.0
641752,266.0,60.0,101.0,1069.0,551.0,0.0,263.0,185.0,190.0,847.0,315.0,0.0,190.0,606.0,46.0,0.0,0.0,0.0,0.0,0.0,80.0
478785,0.0,0.0,0.0,182.0,0.0,0.0,42.0,0.0,0.0,78.0,0.0,0.0,74.0,142.0,6.0,0.0,0.0,0.0,0.0,0.0,0.0
499869,342.0,68.0,150.0,713.0,735.0,74.0,187.0,235.0,230.0,689.0,410.0,90.0,65.0,326.0,24.0,4.0,71.0,2.0,6.0,0.0,134.0
483830,1006.0,194.0,342.0,1768.0,2099.0,1031.0,530.0,654.0,713.0,1311.0,937.0,1152.0,355.0,995.0,98.0,73.0,1025.0,28.0,88.0,1395.0,471.0
524316,1339.0,280.0,447.0,1398.0,2716.0,1155.0,402.0,870.0,996.0,995.0,1242.0,1314.0,271.0,791.0,72.0,82.0,1143.0,30.0,95.0,3255.0,578.0
468426,237.0,50.0,155.0,1086.0,497.0,0.0,279.0,160.0,177.0,837.0,420.0,0.0,226.0,661.0,62.0,0.0,0.0,0.0,0.0,0.0,70.0
587163,1002.0,192.0,203.0,1537.0,2072.0,790.0,444.0,647.0,728.0,898.0,558.0,918.0,319.0,864.0,48.0,48.0,783.0,30.0,53.0,2015.0,471.0
553793,297.0,66.0,95.0,757.0,607.0,70.0,215.0,205.0,219.0,620.0,243.0,90.0,101.0,390.0,38.0,3.0,64.0,4.0,5.0,0.0,111.0
515364,189.0,34.0,73.0,695.0,401.0,0.0,180.0,128.0,129.0,603.0,208.0,0.0,103.0,390.0,34.0,0.0,0.0,0.0,0.0,0.0,62.0
469057,494.0,84.0,124.0,1089.0,1057.0,260.0,294.0,305.0,348.0,838.0,315.0,288.0,229.0,646.0,56.0,15.0,251.0,14.0,20.0,155.0,234.0
624677,269.0,10.0,43.0,574.0,657.0,98.0,148.0,153.0,143.0,829.0,140.0,144.0,36.0,280.0,4.0,1.0,80.0,0.0,0.0,0.0,130.0
535963,612.0,142.0,312.0,1675.0,1234.0,298.0,485.0,409.0,455.0,1138.0,832.0,342.0,315.0,942.0,84.0,24.0,288.0,4.0,36.0,0.0,203.0
530839,99.0,30.0,10.0,575.0,169.0,0.0,146.0,68.0,89.0,251.0,35.0,0.0,104.0,356.0,24.0,0.0,0.0,0.0,0.0,0.0,20.0
517602,276.0,80.0,111.0,794.0,523.0,0.0,238.0,192.0,222.0,469.0,311.0,0.0,54.0,403.0,40.0,0.0,0.0,0.0,0.0,0.0,76.0
graph,4438.0,776.0,1228.0,7557.0,9477.0,3810.0,2059.0,2917.0,3056.0,6057.0,3515.0,4410.0,1307.0,4176.0,298.0,246.0,3675.0,84.0,262.0,7440.0,1993.0
