Vertex,0111100110001100,0111100010011010,0101101001001000,0110101011010010,0111101011001000,0110101111000100,0110100010010010,0110100110000100,0111100010001000,0100101001010010
644706,0.0,0.0,9.0,0.0,0.0,0.0,52.0,140.0,72.0,2.0
504960,0.0,0.0,4.0,0.0,0.0,0.0,22.0,48.0,24.0,0.0
477173,0.0,0.0,4.0,0.0,0.0,0.0,14.0,14.0,0.0,0.0
506456,0.0,0.0,17.0,0.0,0.0,0.0,62.0,157.0,72.0,8.0
495843,0.0,0.0,6.0,0.0,0.0,0.0,53.0,161.0,83.0,3.0
526001,5.0,2.0,13.0,2.0,13.0,5.0,34.0,74.0,24.0,8.0
629911,0.0,0.0,7.0,0.0,0.0,0.0,53.0,162.0,83.0,5.0
604052,0.0,0.0,4.0,0.0,0.0,0.0,28.0,68.0,24.0,3.0
538574,0.0,0.0,10.0,0.0,0.0,0.0,60.0,179.0,98.0,2.0
556069,0.0,0.0,4.0,0.0,0.0,0.0,20.0,33.0,0.0,3.0
602161,0.0,0.0,19.0,0.0,0.0,0.0,50.0,130.0,50.0,11.0
518877,0.0,0.0,0.0,0.0,0.0,0.0,6.0,19.0,0.0,3.0
565636,0.0,0.0,0.0,0.0,0.0,0.0,2.0,9.0,0.0,0.0
623968,10.0,4.0,16.0,4.0,26.0,10.0,33.0,48.0,0.0,10.0
552765,10.0,4.0,8.0,4.0,26.0,10.0,6.0,16.0,0.0,4.0
515482,10.0,4.0,18.0,4.0,26.0,10.0,29.0,48.0,0.0,10.0
579402,5.0,2.0,17.0,2.0,13.0,5.0,29.0,65.0,15.0,8.0
471491,0.0,0.0,8.0,0.0,0.0,0.0,25.0,60.0,15.0,8.0
638810,0.0,0.0,8.0,0.0,0.0,0.0,32.0,48.0,0.0,6.0
630401,0.0,0.0,4.0,0.0,0.0,0.0,30.0,69.0,24.0,6.0
graph,10.0,4.0,44.0,4.0,26.0,10.0,160.0,387.0,146.0,25.0
