Vertex,0110010010100010100100110,0110010011100110110001100,0111010101110001000001000,0111110110110001100010000,0110010011100100110001000,0111010101110001000101010,0111110100110001000110010,0110010011100000100001000,0111010100110001000100010,0111110110110011100110110,0111110100110001000010000,0111010110110011100100110,0111110111110111110011100,0110010010100010100000100,0111110000100001000010000,0111010110110011100000100,0111110110110101110010000,0111110110110011100010100,0111110111110001100011000,0111110111110101110011000
564950,4.0,3.0,159.0,171.0,67.0,33.0,28.0,258.0,107.0,6.0,153.0,6.0,5.0,194.0,53.0,45.0,34.0,59.0,19.0,29.0
614259,2.0,0.0,65.0,117.0,14.0,10.0,22.0,138.0,47.0,1.0,156.0,1.0,5.0,85.0,65.0,23.0,23.0,36.0,10.0,14.0
531421,4.0,1.0,70.0,124.0,37.0,14.0,23.0,167.0,57.0,4.0,152.0,2.0,4.0,114.0,62.0,27.0,20.0,44.0,15.0,18.0
635888,2.0,1.0,100.0,105.0,28.0,10.0,29.0,205.0,68.0,0.0,174.0,3.0,2.0,142.0,75.0,25.0,10.0,35.0,10.0,7.0
526001,8.0,1.0,123.0,132.0,62.0,15.0,30.0,261.0,79.0,5.0,117.0,3.0,1.0,210.0,40.0,41.0,16.0,56.0,19.0,15.0
607233,0.0,0.0,88.0,86.0,30.0,10.0,24.0,148.0,67.0,1.0,159.0,2.0,1.0,88.0,70.0,19.0,18.0,21.0,5.0,13.0
498334,6.0,2.0,51.0,127.0,52.0,17.0,17.0,216.0,45.0,5.0,141.0,2.0,3.0,124.0,73.0,26.0,13.0,52.0,21.0,14.0
462742,1.0,0.0,56.0,23.0,10.0,0.0,0.0,108.0,20.0,0.0,30.0,0.0,0.0,53.0,26.0,10.0,5.0,0.0,0.0,0.0
624951,2.0,1.0,51.0,116.0,41.0,12.0,22.0,201.0,44.0,4.0,157.0,1.0,1.0,95.0,89.0,17.0,8.0,37.0,18.0,10.0
656357,1.0,0.0,56.0,99.0,17.0,7.0,24.0,148.0,39.0,1.0,173.0,0.0,1.0,62.0,83.0,6.0,8.0,28.0,10.0,10.0
515170,0.0,0.0,66.0,83.0,6.0,4.0,31.0,101.0,14.0,0.0,174.0,1.0,0.0,65.0,63.0,5.0,6.0,16.0,0.0,1.0
458880,1.0,0.0,38.0,4.0,3.0,0.0,0.0,84.0,22.0,0.0,4.0,0.0,0.0,57.0,1.0,10.0,1.0,0.0,0.0,0.0
624299,6.0,3.0,106.0,27.0,53.0,31.0,2.0,226.0,49.0,0.0,37.0,5.0,0.0,127.0,20.0,25.0,4.0,8.0,0.0,1.0
545676,6.0,3.0,74.0,91.0,53.0,24.0,27.0,172.0,27.0,2.0,162.0,3.0,0.0,139.0,52.0,17.0,4.0,31.0,5.0,3.0
599853,3.0,1.0,61.0,106.0,17.0,11.0,21.0,154.0,27.0,1.0,164.0,1.0,1.0,78.0,89.0,9.0,7.0,30.0,10.0,11.0
656462,1.0,0.0,0.0,0.0,0.0,0.0,0.0,28.0,18.0,0.0,0.0,0.0,0.0,52.0,0.0,0.0,0.0,0.0,0.0,0.0
623388,1.0,0.0,42.0,78.0,17.0,1.0,21.0,125.0,24.0,1.0,166.0,0.0,0.0,51.0,70.0,9.0,5.0,20.0,2.0,2.0
521867,5.0,2.0,48.0,86.0,33.0,16.0,24.0,198.0,29.0,0.0,156.0,2.0,0.0,108.0,92.0,11.0,5.0,18.0,8.0,2.0
554368,0.0,2.0,234.0,381.0,41.0,29.0,85.0,304.0,120.0,8.0,514.0,6.0,6.0,61.0,208.0,72.0,49.0,120.0,39.0,38.0
491774,2.0,0.0,74.0,91.0,43.0,9.0,20.0,240.0,53.0,1.0,151.0,1.0,0.0,136.0,99.0,17.0,5.0,19.0,9.0,2.0
524223,0.0,0.0,47.0,14.0,13.0,1.0,0.0,89.0,20.0,0.0,6.0,0.0,0.0,68.0,13.0,11.0,2.0,0.0,0.0,0.0
594072,0.0,0.0,53.0,3.0,18.0,5.0,0.0,120.0,31.0,0.0,2.0,1.0,0.0,65.0,1.0,13.0,2.0,0.0,0.0,0.0
603176,0.0,0.0,18.0,1.0,10.0,1.0,0.0,94.0,28.0,0.0,2.0,0.0,0.0,61.0,1.0,7.0,0.0,0.0,0.0,0.0
graph,11.0,4.0,336.0,413.0,133.0,52.0,90.0,757.0,207.0,8.0,590.0,8.0,6.0,447.0,269.0,89.0,49.0,126.0,40.0,38.0
