Vertex,0110101111000100,0111101111001100,0100101001010010,0110101011010010,0101101001001000,0111101011011010,0100101101000100,0111100010011010,0110100110000100,0110101111010110,0110100010010010,0111100110001100,0111100010001000,0111101011001000
596204,20.0,18.0,4.0,8.0,16.0,12.0,2.0,8.0,64.0,10.0,42.0,20.0,23.0,55.0
508308,10.0,18.0,0.0,4.0,6.0,12.0,0.0,4.0,21.0,10.0,9.0,10.0,16.0,27.0
570191,20.0,18.0,3.0,8.0,10.0,12.0,0.0,8.0,53.0,10.0,33.0,20.0,8.0,55.0
646807,10.0,0.0,7.0,4.0,16.0,0.0,2.0,4.0,74.0,0.0,42.0,10.0,23.0,27.0
637910,10.0,18.0,0.0,4.0,6.0,12.0,0.0,4.0,21.0,10.0,9.0,10.0,16.0,28.0
592010,0.0,0.0,7.0,0.0,10.0,0.0,2.0,0.0,55.0,0.0,29.0,0.0,15.0,0.0
591374,0.0,0.0,0.0,0.0,8.0,0.0,2.0,0.0,28.0,0.0,16.0,0.0,15.0,0.0
582637,10.0,0.0,3.0,4.0,6.0,0.0,0.0,4.0,49.0,0.0,21.0,10.0,8.0,28.0
638723,0.0,0.0,10.0,0.0,4.0,0.0,0.0,0.0,44.0,0.0,20.0,0.0,0.0,0.0
637425,0.0,0.0,6.0,0.0,6.0,0.0,0.0,0.0,51.0,0.0,23.0,0.0,0.0,0.0
graph,20.0,18.0,10.0,8.0,22.0,12.0,2.0,8.0,115.0,10.0,61.0,20.0,31.0,55.0
