Vertex,0100101101000100,0111101011011010,0110100110000100,0100101001010010,0111100110001100,0110101011010010,0101101101011110,0110100110010110,0110100010010010,0101101101001100,0101101001011010,0110101111000100,0111100010001000,0110101111010110,0111101011001000,0101101001001000,0111100010011010,0111100110011110,0111101111001100
546801,2.0,0.0,159.0,38.0,0.0,0.0,0.0,0.0,97.0,0.0,0.0,0.0,39.0,0.0,0.0,43.0,0.0,0.0,0.0
490382,0.0,0.0,106.0,26.0,8.0,12.0,0.0,0.0,64.0,4.0,0.0,12.0,15.0,0.0,21.0,31.0,2.0,0.0,0.0
491281,2.0,28.0,176.0,20.0,22.0,26.0,1.0,0.0,88.0,8.0,0.0,34.0,92.0,27.0,68.0,45.0,10.0,2.0,36.0
531451,2.0,0.0,211.0,21.0,9.0,6.0,0.0,0.0,111.0,0.0,0.0,13.0,116.0,0.0,34.0,42.0,6.0,0.0,0.0
603115,0.0,0.0,136.0,23.0,7.0,4.0,0.0,0.0,63.0,0.0,0.0,9.0,100.0,0.0,23.0,29.0,4.0,0.0,0.0
556036,2.0,49.0,343.0,41.0,41.0,26.0,3.0,37.0,175.0,4.0,11.0,51.0,251.0,51.0,125.0,65.0,20.0,6.0,54.0
553303,2.0,0.0,89.0,14.0,0.0,0.0,0.0,0.0,54.0,0.0,0.0,0.0,24.0,0.0,0.0,18.0,0.0,0.0,0.0
569986,4.0,61.0,384.0,26.0,59.0,52.0,3.0,37.0,191.0,12.0,11.0,79.0,259.0,61.0,179.0,71.0,26.0,6.0,72.0
456953,2.0,61.0,162.0,22.0,75.0,68.0,3.0,0.0,92.0,16.0,0.0,105.0,55.0,61.0,235.0,47.0,36.0,6.0,72.0
629837,0.0,17.0,81.0,4.0,26.0,26.0,1.0,0.0,29.0,8.0,0.0,40.0,77.0,17.0,84.0,14.0,14.0,2.0,18.0
488878,0.0,0.0,119.0,18.0,7.0,4.0,0.0,0.0,60.0,0.0,0.0,9.0,85.0,0.0,24.0,22.0,4.0,0.0,0.0
540973,2.0,0.0,123.0,13.0,7.0,4.0,0.0,37.0,52.0,0.0,11.0,9.0,100.0,0.0,24.0,29.0,4.0,0.0,0.0
574065,2.0,28.0,168.0,18.0,22.0,26.0,1.0,0.0,84.0,8.0,0.0,34.0,92.0,27.0,68.0,36.0,10.0,2.0,36.0
625112,0.0,0.0,108.0,18.0,8.0,12.0,0.0,0.0,69.0,4.0,0.0,12.0,0.0,0.0,21.0,28.0,2.0,0.0,0.0
650630,2.0,0.0,182.0,21.0,9.0,6.0,0.0,37.0,88.0,0.0,11.0,13.0,92.0,0.0,34.0,43.0,6.0,0.0,0.0
542226,2.0,0.0,81.0,17.0,0.0,0.0,0.0,0.0,55.0,0.0,0.0,0.0,15.0,0.0,0.0,21.0,0.0,0.0,0.0
graph,6.0,61.0,657.0,85.0,75.0,68.0,3.0,37.0,343.0,16.0,11.0,105.0,353.0,61.0,235.0,146.0,36.0,6.0,72.0
