Vertex,0111010110110011100100110,0111110110110001100010000,0111010110110011100000100,0111110100110001000110010,0110010010100010100100110,0111010101110001000101010,0110010011100000100001000,0111110111110001100011000,0111110110110011100010100,0111110110110101110010000,0111110111110111110011100,0111110000100001000010000,0111110110110011100110110,0110010010100010100000100,0110010011100100110001000,0111010101110001000001000,0110010011100110110001100,0111010100110001000100010,0111110111110101110011000,0111110100110001000010000
554368,7.0,126.0,60.0,45.0,4.0,19.0,617.0,7.0,12.0,29.0,1.0,394.0,2.0,115.0,89.0,151.0,1.0,133.0,10.0,408.0
643731,0.0,53.0,10.0,23.0,0.0,1.0,93.0,1.0,4.0,2.0,0.0,69.0,0.0,24.0,8.0,31.0,0.0,42.0,1.0,136.0
614066,0.0,27.0,7.0,8.0,0.0,0.0,131.0,1.0,2.0,3.0,0.0,135.0,0.0,10.0,9.0,16.0,0.0,16.0,0.0,110.0
544860,0.0,14.0,5.0,0.0,0.0,1.0,212.0,0.0,0.0,3.0,0.0,163.0,0.0,33.0,32.0,17.0,0.0,27.0,0.0,106.0
619722,0.0,44.0,14.0,6.0,0.0,1.0,140.0,4.0,2.0,1.0,0.0,150.0,0.0,12.0,12.0,20.0,0.0,8.0,2.0,91.0
625496,0.0,0.0,2.0,0.0,0.0,1.0,111.0,0.0,0.0,0.0,0.0,0.0,0.0,30.0,13.0,9.0,0.0,22.0,0.0,0.0
530274,0.0,0.0,0.0,0.0,0.0,0.0,117.0,0.0,0.0,0.0,0.0,0.0,0.0,25.0,14.0,0.0,0.0,26.0,0.0,0.0
637124,0.0,19.0,5.0,16.0,0.0,3.0,105.0,0.0,2.0,14.0,0.0,98.0,0.0,18.0,6.0,33.0,0.0,38.0,1.0,140.0
650338,2.0,23.0,7.0,16.0,2.0,13.0,125.0,0.0,2.0,14.0,0.0,98.0,0.0,48.0,27.0,46.0,1.0,42.0,1.0,140.0
490768,4.0,19.0,26.0,2.0,2.0,17.0,140.0,1.0,14.0,1.0,0.0,1.0,3.0,83.0,36.0,72.0,1.0,56.0,2.0,5.0
536708,1.0,50.0,19.0,14.0,0.0,5.0,128.0,4.0,7.0,10.0,1.0,120.0,2.0,27.0,21.0,45.0,0.0,25.0,4.0,105.0
500868,1.0,7.0,34.0,1.0,0.0,0.0,159.0,2.0,4.0,0.0,0.0,0.0,2.0,32.0,22.0,30.0,0.0,27.0,2.0,3.0
571930,5.0,49.0,32.0,12.0,2.0,5.0,164.0,6.0,9.0,9.0,1.0,120.0,3.0,47.0,39.0,42.0,0.0,28.0,5.0,108.0
575631,6.0,9.0,27.0,2.0,5.0,6.0,152.0,2.0,9.0,1.0,0.0,0.0,2.0,109.0,38.0,45.0,0.0,59.0,1.0,5.0
639554,0.0,14.0,5.0,0.0,0.0,0.0,168.0,0.0,0.0,3.0,0.0,163.0,0.0,20.0,21.0,18.0,0.0,15.0,0.0,106.0
482310,5.0,50.0,56.0,20.0,1.0,9.0,162.0,4.0,13.0,18.0,1.0,79.0,5.0,37.0,32.0,57.0,1.0,55.0,9.0,140.0
475400,7.0,44.0,23.0,6.0,1.0,8.0,170.0,4.0,7.0,1.0,0.0,149.0,2.0,31.0,51.0,19.0,1.0,37.0,2.0,94.0
489873,7.0,83.0,39.0,30.0,0.0,7.0,65.0,7.0,12.0,18.0,1.0,29.0,4.0,37.0,24.0,82.0,0.0,42.0,9.0,140.0
616039,0.0,27.0,8.0,8.0,0.0,1.0,155.0,1.0,2.0,3.0,0.0,135.0,0.0,28.0,20.0,25.0,0.0,25.0,0.0,110.0
531205,0.0,43.0,9.0,21.0,4.0,3.0,141.0,1.0,4.0,14.0,0.0,77.0,0.0,60.0,6.0,50.0,0.0,62.0,1.0,130.0
655559,0.0,4.0,7.0,0.0,4.0,0.0,60.0,0.0,0.0,1.0,0.0,0.0,0.0,79.0,5.0,37.0,0.0,20.0,0.0,3.0
graph,9.0,141.0,79.0,46.0,5.0,20.0,663.0,9.0,21.0,29.0,1.0,396.0,5.0,181.0,105.0,169.0,1.0,161.0,10.0,416.0
