Vertex,0110010010100010100000100,0110010010100010100100110,0111010100110001000100010,0110010011100100110001000,0110010011100110110001100,0111110100110001000010000,0111110110110011100010100,0111010101110001000101010,0111010110110011100000100,0111110110110001100010000,0111110000100001000010000,0111010101110001000001000,0110010011100000100001000
643907,27.0,2.0,4.0,14.0,1.0,2.0,0.0,2.0,1.0,1.0,1.0,3.0,28.0
462278,35.0,6.0,9.0,13.0,1.0,4.0,1.0,3.0,7.0,4.0,2.0,9.0,44.0
637917,31.0,2.0,3.0,12.0,1.0,2.0,0.0,2.0,1.0,1.0,1.0,2.0,25.0
559974,32.0,4.0,4.0,7.0,0.0,2.0,0.0,1.0,1.0,1.0,1.0,4.0,32.0
507768,26.0,2.0,15.0,1.0,0.0,5.0,1.0,4.0,7.0,4.0,0.0,13.0,17.0
540408,39.0,3.0,7.0,6.0,0.0,2.0,1.0,1.0,4.0,2.0,1.0,10.0,25.0
482310,31.0,4.0,10.0,17.0,1.0,3.0,1.0,3.0,7.0,4.0,2.0,6.0,33.0
505367,29.0,3.0,5.0,9.0,1.0,2.0,0.0,1.0,1.0,1.0,1.0,3.0,25.0
580817,38.0,4.0,5.0,7.0,0.0,0.0,0.0,1.0,1.0,0.0,0.0,2.0,19.0
556201,22.0,3.0,4.0,3.0,0.0,1.0,0.0,0.0,1.0,0.0,0.0,3.0,18.0
589437,28.0,2.0,7.0,7.0,0.0,1.0,1.0,1.0,3.0,2.0,1.0,8.0,18.0
610451,27.0,0.0,2.0,4.0,0.0,1.0,0.0,1.0,1.0,0.0,0.0,2.0,16.0
graph,73.0,7.0,15.0,20.0,1.0,5.0,1.0,4.0,7.0,4.0,2.0,13.0,60.0
