Vertex,0100101101000100,0101101001011010,0111100110011110,0111101011001000,0111100010011010,0110101011010010,0111101011011010,0101101101001100,0110101111010110,0100101001010010,0101101001001000,0100101101010110,0111100010001000,0110101111000100,0110100110010110,0111101111001100,0101101101011110,0110100110000100,0111100110001100,0110100010010010,0111101111011110
564950,16.0,64.0,23.0,1585.0,262.0,496.0,625.0,116.0,573.0,38.0,168.0,0.0,528.0,728.0,140.0,792.0,37.0,588.0,436.0,309.0,1550.0
653178,0.0,31.0,8.0,555.0,106.0,129.0,192.0,10.0,186.0,14.0,90.0,0.0,552.0,231.0,70.0,234.0,11.0,315.0,121.0,152.0,155.0
460788,0.0,15.0,5.0,830.0,152.0,208.0,225.0,32.0,205.0,12.0,83.0,0.0,536.0,356.0,35.0,306.0,6.0,283.0,200.0,144.0,775.0
502414,12.0,42.0,8.0,430.0,68.0,145.0,111.0,46.0,112.0,16.0,114.0,0.0,242.0,209.0,103.0,126.0,11.0,388.0,137.0,172.0,0.0
507440,0.0,32.0,0.0,365.0,70.0,83.0,84.0,6.0,70.0,6.0,90.0,0.0,744.0,151.0,70.0,126.0,0.0,315.0,79.0,154.0,0.0
556036,26.0,88.0,20.0,1179.0,200.0,377.0,399.0,90.0,382.0,77.0,211.0,2.0,709.0,547.0,208.0,486.0,26.0,730.0,331.0,379.0,775.0
602352,6.0,32.0,4.0,527.0,94.0,146.0,160.0,24.0,148.0,16.0,113.0,0.0,701.0,232.0,70.0,216.0,4.0,393.0,130.0,194.0,155.0
465665,14.0,30.0,15.0,1205.0,216.0,365.0,371.0,78.0,351.0,59.0,139.0,2.0,507.0,547.0,70.0,468.0,20.0,493.0,325.0,261.0,930.0
554368,12.0,81.0,32.0,2565.0,475.0,680.0,844.0,108.0,786.0,21.0,370.0,0.0,2506.0,1116.0,210.0,1062.0,46.0,1314.0,631.0,644.0,1705.0
627356,4.0,31.0,5.0,474.0,88.0,116.0,122.0,16.0,115.0,14.0,80.0,0.0,630.0,202.0,70.0,144.0,9.0,280.0,112.0,132.0,0.0
457203,14.0,113.0,17.0,961.0,180.0,281.0,354.0,58.0,338.0,53.0,170.0,2.0,621.0,433.0,278.0,432.0,26.0,579.0,257.0,286.0,620.0
474758,28.0,84.0,20.0,1388.0,232.0,458.0,459.0,116.0,439.0,61.0,210.0,0.0,706.0,652.0,210.0,576.0,26.0,755.0,400.0,389.0,1240.0
493221,10.0,22.0,4.0,310.0,59.0,116.0,48.0,40.0,44.0,27.0,132.0,0.0,171.0,156.0,70.0,54.0,8.0,481.0,111.0,232.0,0.0
460172,6.0,0.0,0.0,177.0,26.0,63.0,0.0,22.0,0.0,20.0,72.0,0.0,141.0,87.0,0.0,0.0,0.0,262.0,59.0,133.0,0.0
514349,0.0,32.0,0.0,84.0,8.0,48.0,0.0,16.0,0.0,14.0,86.0,0.0,0.0,48.0,70.0,0.0,0.0,301.0,32.0,165.0,0.0
535358,28.0,72.0,14.0,721.0,124.0,234.0,226.0,56.0,224.0,46.0,153.0,2.0,702.0,336.0,173.0,252.0,21.0,518.0,204.0,262.0,155.0
529713,10.0,0.0,4.0,520.0,103.0,124.0,76.0,16.0,71.0,23.0,70.0,0.0,595.0,220.0,0.0,90.0,4.0,275.0,125.0,129.0,0.0
499074,16.0,16.0,0.0,157.0,20.0,68.0,0.0,24.0,0.0,30.0,102.0,0.0,168.0,82.0,35.0,0.0,0.0,352.0,56.0,173.0,0.0
471681,10.0,11.0,3.0,381.0,72.0,112.0,74.0,20.0,71.0,26.0,103.0,0.0,676.0,170.0,35.0,90.0,4.0,386.0,98.0,194.0,0.0
493746,8.0,27.0,0.0,240.0,48.0,48.0,0.0,0.0,0.0,50.0,144.0,0.0,725.0,96.0,70.0,0.0,0.0,519.0,48.0,278.0,0.0
548035,0.0,0.0,0.0,240.0,48.0,48.0,0.0,0.0,0.0,10.0,64.0,0.0,648.0,96.0,0.0,0.0,0.0,234.0,48.0,125.0,0.0
596878,0.0,22.0,2.0,389.0,89.0,87.0,18.0,6.0,17.0,25.0,82.0,0.0,552.0,161.0,70.0,18.0,1.0,317.0,90.0,167.0,0.0
511083,4.0,0.0,0.0,0.0,0.0,0.0,0.0,0.0,0.0,21.0,59.0,0.0,38.0,0.0,0.0,0.0,0.0,214.0,0.0,121.0,0.0
591663,8.0,0.0,0.0,84.0,8.0,48.0,0.0,16.0,0.0,24.0,52.0,0.0,48.0,48.0,0.0,0.0,0.0,182.0,32.0,104.0,0.0
609956,6.0,11.0,0.0,21.0,8.0,12.0,0.0,4.0,0.0,41.0,83.0,0.0,62.0,12.0,35.0,0.0,0.0,326.0,10.0,188.0,0.0
588051,2.0,0.0,0.0,0.0,0.0,0.0,0.0,0.0,0.0,20.0,40.0,0.0,24.0,0.0,0.0,0.0,0.0,168.0,0.0,101.0,0.0
graph,60.0,214.0,46.0,3847.0,689.0,1123.0,1097.0,230.0,1033.0,191.0,770.0,2.0,3383.0,1729.0,523.0,1368.0,65.0,2742.0,1018.0,1397.0,2015.0
