0101101001001000: 586127 642710 552449 647881
0110100110010110: 586127 501997 642710 552449
0111100010001000: 586127 501997 647881 642710
0110100110010110: 586127 501997 647881 564950
0110100110000100: 586127 642710 647881 552449
0110100010010010: 586127 642710 647881 613750
0110100010010010: 586127 642710 647881 564950
0111100010001000: 586127 642710 501997 647881
0110100010010010: 586127 642710 501997 647526
0110100010010010: 586127 642710 501997 632115
0110100010010010: 586127 642710 501997 564950
0110100110010110: 586127 642710 501997 552449
0110100110010110: 586127 642710 501997 552449
0110100110000100: 586127 642710 647881 552449
0110100110000100: 586127 642710 647881 552449
0110100110000100: 586127 642710 647881 552449
0110100110010110: 586127 642710 501997 552449
0101101001001000: 586127 642710 552449 647881
0100101001010010: 586127 642710 552449 632115
0100101001010010: 586127 642710 552449 632115
0101101001011010: 586127 642710 552449 501997
0101101001011010: 586127 642710 552449 501997
0101101001011010: 586127 642710 552449 501997
0101101001001000: 586127 642710 552449 647881
0110100110000100: 586127 647881 642710 613750
0110100110000100: 586127 647881 642710 564950
0110100010010010: 586127 647881 642710 552449
0110100010010010: 586127 647881 642710 552449
0111100010001000: 586127 647881 501997 642710
0110100110000100: 586127 647881 501997 613750
0110100010010010: 586127 647881 501997 647526
0110100010010010: 586127 647881 501997 632115
0110100010010010: 586127 647881 501997 552449
0110100110010110: 586127 647881 501997 564950
0110100110010110: 586127 647881 501997 564950
0111100010001000: 586127 647881 642710 501997
0110100110000100: 586127 647881 642710 613750
0110100110000100: 586127 647881 642710 564950
0110100110000100: 586127 647881 642710 613750
0110100110000100: 586127 647881 642710 564950
0110100010010010: 586127 647881 642710 552449
0110100110000100: 586127 647881 501997 613750
0110100110000100: 586127 647881 501997 613750
0110100110010110: 586127 647881 501997 564950
0111100010001000: 586127 647881 642710 501997
0111100010001000: 586127 647881 642710 501997
0110100010010010: 586127 647881 642710 552449
0111100010001000: 586127 647881 501997 642710
0111100010001000: 586127 647881 501997 642710
0111100010001000: 586127 647881 501997 642710
0110100110000100: 586127 647881 642710 613750
0110100110000100: 586127 647881 642710 564950
0110100110000100: 586127 647881 642710 613750
0110100110000100: 586127 647881 642710 564950
0111100010001000: 586127 647881 642710 501997
0110100010010010: 586127 647881 642710 552449
0110100010010010: 586127 647881 642710 552449
0110100110000100: 586127 647881 501997 613750
0110100110000100: 586127 647881 501997 613750
0111100010001000: 586127 647881 501997 642710
0111100010001000: 586127 647881 501997 642710
0110100110010110: 586127 647881 501997 564950
0110100110000100: 586127 647881 501997 613750
0110100110000100: 586127 501997 642710 647526
0110100110000100: 586127 501997 642710 632115
0110100110000100: 586127 501997 642710 564950
0110100110010110: 586127 501997 642710 552449
0110100110010110: 586127 501997 642710 552449
0111100010001000: 586127 501997 647881 642710
0110100110000100: 586127 501997 647881 647526
0110100110000100: 586127 501997 647881 632115
0110100110000100: 586127 501997 647881 552449
0110100010010010: 586127 501997 647881 613750
0110100110010110: 586127 501997 647881 564950
0110100110010110: 586127 501997 647881 564950
0111100010001000: 586127 501997 642710 647881
0110100110000100: 586127 501997 642710 647526
0110100110000100: 586127 501997 642710 632115
0110100110000100: 586127 501997 642710 564950
0110100110000100: 586127 501997 642710 647526
0110100110000100: 586127 501997 642710 632115
0110100110000100: 586127 501997 642710 564950
0110100110010110: 586127 501997 642710 552449
0110100110010110: 586127 501997 642710 552449
0110100110010110: 586127 501997 642710 552449
0111100010001000: 586127 501997 647881 642710
0111100010001000: 586127 501997 647881 642710
0110100110000100: 586127 501997 647881 647526
0110100110000100: 586127 501997 647881 632115
0110100110000100: 586127 501997 647881 552449
0110100110000100: 586127 501997 647881 647526
0110100110000100: 586127 501997 647881 632115
0110100110000100: 586127 501997 647881 552449
0110100110010110: 586127 501997 647881 564950
0110100010010010: 586127 501997 647881 613750
0110100110010110: 586127 501997 647881 564950
0110100110010110: 586127 501997 647881 564950
0111100010001000: 586127 501997 642710 647881
0111100010001000: 586127 501997 642710 647881
0111100010001000: 586127 501997 647881 642710
0111100010001000: 586127 501997 647881 642710
0111100010001000: 586127 501997 647881 642710
0110100110000100: 586127 501997 642710 647526
0110100110000100: 586127 501997 642710 632115
0110100110000100: 586127 501997 642710 564950
0110100110000100: 586127 501997 642710 647526
0110100110000100: 586127 501997 642710 632115
0110100110000100: 586127 501997 642710 564950
0111100010001000: 586127 501997 642710 647881
0110100110010110: 586127 501997 642710 552449
0110100110010110: 586127 501997 642710 552449
0110100110000100: 586127 501997 647881 647526
0110100110000100: 586127 501997 647881 632115
0110100110000100: 586127 501997 647881 552449
0110100110000100: 586127 501997 647881 647526
0110100110000100: 586127 501997 647881 632115
0110100110000100: 586127 501997 647881 552449
0111100010001000: 586127 501997 647881 642710
0111100010001000: 586127 501997 647881 642710
0110100010010010: 586127 501997 647881 613750
0110100110010110: 586127 501997 647881 564950
0101101001001000: 501997 647526 535567 632115
0101101001001000: 501997 647526 535567 552449
0101101001001000: 501997 647526 535567 586127
0111101011001000: 501997 632115 552449 647526
0111101011001000: 501997 632115 552449 564950
0111101011001000: 501997 632115 552449 586127
0111101011001000: 501997 552449 632115 647526
0111101011001000: 501997 552449 632115 564950
0111101011001000: 501997 552449 632115 586127
0101101001001000: 501997 552449 642710 647526
0101101001001000: 501997 552449 642710 564950
0101101101001100: 501997 552449 642710 632115
0110100110010110: 501997 564950 647526 535567
0111100010001000: 501997 564950 632115 647526
0111100010001000: 501997 564950 552449 647526
0101101001001000: 501997 564950 510205 647526
0101101001001000: 501997 564950 510205 632115
0101101001001000: 501997 564950 510205 552449
0101101001001000: 501997 564950 510205 586127
0101101001001000: 501997 564950 535567 632115
0101101001001000: 501997 564950 535567 552449
0101101001001000: 501997 564950 535567 586127
0100101101000100: 501997 564950 535567 510205
0101101001001000: 501997 564950 647881 647526
0101101001001000: 501997 564950 647881 632115
0101101001001000: 501997 564950 647881 552449
0100101101000100: 501997 564950 647881 510205
0100101101000100: 501997 564950 647881 535567
0111100010001000: 501997 586127 632115 647526
0111100010001000: 501997 586127 552449 647526
0110100110010110: 501997 586127 552449 642710
0111100010001000: 501997 586127 564950 647526
0111100010001000: 501997 586127 564950 632115
0111100010001000: 501997 586127 564950 552449
0110100110010110: 501997 586127 564950 647881
0101101001001000: 501997 586127 642710 647526
0101101001001000: 501997 586127 642710 632115
0101101001001000: 501997 586127 642710 564950
0101101001001000: 501997 586127 647881 647526
0101101001001000: 501997 586127 647881 632115
0101101001001000: 501997 586127 647881 552449
0100101101000100: 501997 586127 647881 642710
0110100110000100: 501997 647526 632115 535567
0111100010011010: 501997 647526 632115 552449
0110100110000100: 501997 647526 552449 535567
0110100010010010: 501997 647526 552449 642710
0111100010011010: 501997 647526 552449 632115
0110100010010010: 501997 647526 552449 642710
0111100010001000: 501997 647526 564950 632115
0111100010001000: 501997 647526 564950 552449
0110100010010010: 501997 647526 564950 510205
0110100010010010: 501997 647526 564950 647881
0110100010010010: 501997 647526 564950 510205
0110100010010010: 501997 647526 564950 647881
0110100110010110: 501997 647526 564950 535567
0110100110010110: 501997 647526 564950 535567
0111100010001000: 501997 647526 586127 632115
0111100010001000: 501997 647526 586127 552449
0111100010001000: 501997 647526 586127 564950
0110100110000100: 501997 647526 586127 535567
0110100010010010: 501997 647526 586127 642710
0110100010010010: 501997 647526 586127 647881
0110100010010010: 501997 647526 586127 642710
0110100010010010: 501997 647526 586127 647881
0110100110000100: 501997 647526 632115 535567
0110100110000100: 501997 647526 632115 535567
0110100110000100: 501997 647526 632115 535567
0110100110000100: 501997 647526 552449 535567
0110100110000100: 501997 647526 552449 535567
0110100110000100: 501997 647526 552449 535567
0110100110010110: 501997 647526 564950 535567
0110100110000100: 501997 647526 586127 535567
0110100110000100: 501997 647526 586127 535567
0110100110000100: 501997 647526 586127 535567
0101101001001000: 501997 647526 535567 632115
0101101001001000: 501997 647526 535567 552449
0101101001001000: 501997 647526 535567 586127
0100101001010010: 501997 647526 535567 641093
0100101001010010: 501997 647526 535567 641093
0101101001011010: 501997 647526 535567 564950
0101101001011010: 501997 647526 535567 564950
0101101001011010: 501997 647526 535567 564950
0100101001010010: 501997 647526 535567 641093
0110100010010010: 501997 632115 647526 535567
0110100010010010: 501997 632115 647526 535567
0111100010001000: 501997 632115 564950 647526
0110100010010010: 501997 632115 564950 510205
0110100010010010: 501997 632115 564950 535567
0110100010010010: 501997 632115 564950 647881
0110100010010010: 501997 632115 564950 510205
0110100010010010: 501997 632115 564950 535567
0110100010010010: 501997 632115 564950 647881
0111100010001000: 501997 632115 586127 647526
0111100010001000: 501997 632115 586127 564950
0110100010010010: 501997 632115 586127 642710
0110100010010010: 501997 632115 586127 647881
0110100010010010: 501997 632115 586127 642710
0110100010010010: 501997 632115 586127 647881
0111100010001000: 501997 632115 647526 564950
0111100010001000: 501997 632115 647526 586127
0111100110001100: 501997 632115 647526 552449
0111100110001100: 501997 632115 564950 552449
0111100110001100: 501997 632115 586127 552449
0111101011001000: 501997 632115 552449 647526
0111101011001000: 501997 632115 552449 564950
0111101011001000: 501997 632115 552449 586127
0110101011010010: 501997 632115 552449 642710
0110101011010010: 501997 632115 552449 642710
0110101011010010: 501997 632115 552449 642710
0110101011010010: 501997 632115 552449 642710
0111101011001000: 501997 632115 552449 647526
0111101011001000: 501997 632115 552449 564950
0111101011001000: 501997 632115 552449 586127
0111101011001000: 501997 632115 552449 647526
0111101011001000: 501997 632115 552449 564950
0111101011001000: 501997 632115 552449 586127
0110100110000100: 501997 552449 647526 642710
0110100010010010: 501997 552449 647526 535567
0110100010010010: 501997 552449 647526 535567
0111100010001000: 501997 552449 564950 647526
0110100110000100: 501997 552449 564950 642710
0110100010010010: 501997 552449 564950 510205
0110100010010010: 501997 552449 564950 535567
0110100010010010: 501997 552449 564950 647881
0110100010010010: 501997 552449 564950 510205
0110100010010010: 501997 552449 564950 535567
0110100010010010: 501997 552449 564950 647881
0111100010001000: 501997 552449 586127 647526
0111100010001000: 501997 552449 586127 564950
0110100010010010: 501997 552449 586127 647881
0110100010010010: 501997 552449 586127 647881
0110100110010110: 501997 552449 586127 642710
0110100110010110: 501997 552449 586127 642710
0111100010001000: 501997 552449 647526 564950
0111100010001000: 501997 552449 647526 586127
0110100110000100: 501997 552449 647526 642710
0110100110000100: 501997 552449 647526 642710
0111100110001100: 501997 552449 647526 632115
0110100110000100: 501997 552449 647526 642710
0110100010010010: 501997 552449 647526 535567
0110100110000100: 501997 552449 564950 642710
0110100110000100: 501997 552449 564950 642710
0111100110001100: 501997 552449 564950 632115
0110100110000100: 501997 552449 564950 642710
0111100110001100: 501997 552449 586127 632115
0110100110010110: 501997 552449 586127 642710
0111101011001000: 501997 552449 632115 647526
0111101011001000: 501997 552449 632115 564950
0111101011001000: 501997 552449 632115 586127
0101101001001000: 501997 552449 642710 647526
0101101001001000: 501997 552449 642710 564950
0101101101001100: 501997 552449 642710 632115
0101101001011010: 501997 552449 642710 586127
0101101001011010: 501997 552449 642710 586127
0101101001011010: 501997 552449 642710 586127
0101101001011010: 501997 552449 642710 586127
0111101011001000: 501997 552449 632115 647526
0111101011001000: 501997 552449 632115 564950
0111101011001000: 501997 552449 632115 586127
0111101011001000: 501997 552449 632115 647526
0111101011001000: 501997 552449 632115 564950
0111101011001000: 501997 552449 632115 586127
0110101111000100: 501997 552449 632115 642710
0110101111000100: 501997 552449 632115 642710
0110101111000100: 501997 552449 632115 642710
0111101011001000: 501997 552449 632115 647526
0111101011001000: 501997 552449 632115 564950
0111101011001000: 501997 552449 632115 586127
0111101011001000: 501997 552449 632115 647526
0111101011001000: 501997 552449 632115 564950
0111101011001000: 501997 552449 632115 586127
0110101111000100: 501997 552449 632115 642710
0110100110000100: 501997 564950 647526 510205
0110100110000100: 501997 564950 647526 647881
0110100110010110: 501997 564950 647526 535567
0110100110010110: 501997 564950 647526 535567
0111100010001000: 501997 564950 632115 647526
0110100110000100: 501997 564950 632115 510205
0110100110000100: 501997 564950 632115 535567
0110100110000100: 501997 564950 632115 647881
0111100010011010: 501997 564950 632115 552449
0111100010001000: 501997 564950 552449 647526
0110100110000100: 501997 564950 552449 510205
0110100110000100: 501997 564950 552449 535567
0110100110000100: 501997 564950 552449 647881
0110100010010010: 501997 564950 552449 642710
0111100010011010: 501997 564950 552449 632115
0110100010010010: 501997 564950 552449 642710
0111100010001000: 501997 564950 586127 647526
0111100010001000: 501997 564950 586127 632115
0111100010001000: 501997 564950 586127 552449
0110100110000100: 501997 564950 586127 510205
0110100110000100: 501997 564950 586127 535567
0110100010010010: 501997 564950 586127 642710
0110100010010010: 501997 564950 586127 642710
0110100110010110: 501997 564950 586127 647881
0110100110010110: 501997 564950 586127 647881
0111100010001000: 501997 564950 647526 632115
0111100010001000: 501997 564950 647526 552449
0111100010001000: 501997 564950 647526 586127
0110100110000100: 501997 564950 647526 510205
0110100110000100: 501997 564950 647526 647881
0110100110000100: 501997 564950 647526 510205
0110100110000100: 501997 564950 647526 647881
0110100110000100: 501997 564950 647526 510205
0110100110000100: 501997 564950 647526 647881
0110100110010110: 501997 564950 647526 535567
0110100110010110: 501997 564950 647526 535567
0110100110010110: 501997 564950 647526 535567
0111100010001000: 501997 564950 632115 647526
0111100010001000: 501997 564950 632115 586127
0111100010001000: 501997 564950 632115 647526
0110100110000100: 501997 564950 632115 510205
0110100110000100: 501997 564950 632115 535567
0110100110000100: 501997 564950 632115 647881
0110100110000100: 501997 564950 632115 510205
0110100110000100: 501997 564950 632115 535567
0110100110000100: 501997 564950 632115 647881
0110100110000100: 501997 564950 632115 510205
0110100110000100: 501997 564950 632115 535567
0110100110000100: 501997 564950 632115 647881
0111100010001000: 501997 564950 552449 647526
0111100010001000: 501997 564950 552449 586127
0111100010001000: 501997 564950 552449 647526
0110100110000100: 501997 564950 552449 510205
0110100110000100: 501997 564950 552449 535567
0110100110000100: 501997 564950 552449 647881
0110100110000100: 501997 564950 552449 510205
0110100110000100: 501997 564950 552449 535567
0110100110000100: 501997 564950 552449 647881
0110100110000100: 501997 564950 552449 510205
0110100110000100: 501997 564950 552449 535567
0110100110000100: 501997 564950 552449 647881
0110100010010010: 501997 564950 552449 642710
0110100110000100: 501997 564950 586127 510205
0110100110000100: 501997 564950 586127 535567
0110100110000100: 501997 564950 586127 510205
0110100110000100: 501997 564950 586127 535567
0110100110000100: 501997 564950 586127 510205
0110100110000100: 501997 564950 586127 535567
0110100010010010: 501997 564950 586127 642710
0110100110010110: 501997 564950 586127 647881
0101101001001000: 501997 564950 510205 647526
0101101001001000: 501997 564950 510205 632115
0101101001001000: 501997 564950 510205 552449
0101101001001000: 501997 564950 510205 586127
0101101001001000: 501997 564950 535567 632115
0101101001001000: 501997 564950 535567 552449
0101101001001000: 501997 564950 535567 586127
0100101001010010: 501997 564950 535567 641093
0100101001010010: 501997 564950 535567 641093
0100101101000100: 501997 564950 535567 510205
0101101001011010: 501997 564950 535567 647526
0101101001011010: 501997 564950 535567 647526
0101101001011010: 501997 564950 535567 647526
0100101001010010: 501997 564950 535567 641093
0100101001010010: 501997 564950 535567 641093
0101101001011010: 501997 564950 535567 647526
0101101001011010: 501997 564950 535567 647526
0101101001001000: 501997 564950 647881 647526
0101101001001000: 501997 564950 647881 632115
0101101001001000: 501997 564950 647881 552449
0100101001010010: 501997 564950 647881 613750
0100101001010010: 501997 564950 647881 613750
0100101101000100: 501997 564950 647881 510205
0100101101000100: 501997 564950 647881 535567
0101101001011010: 501997 564950 647881 586127
0101101001011010: 501997 564950 647881 586127
0101101001011010: 501997 564950 647881 586127
0100101001010010: 501997 564950 647881 613750
0100101001010010: 501997 564950 647881 613750
0101101001011010: 501997 564950 647881 586127
0110100010010010: 501997 586127 647526 535567
0110100010010010: 501997 586127 647526 535567
0111100010001000: 501997 586127 632115 647526
0111100010011010: 501997 586127 632115 552449
0111100010001000: 501997 586127 552449 647526
0111100010011010: 501997 586127 552449 632115
0110100110010110: 501997 586127 552449 642710
0111100010001000: 501997 586127 564950 647526
0111100010001000: 501997 586127 564950 632115
0111100010001000: 501997 586127 564950 552449
0110100010010010: 501997 586127 564950 510205
0110100010010010: 501997 586127 564950 535567
0110100010010010: 501997 586127 564950 510205
0110100010010010: 501997 586127 564950 535567
0110100110010110: 501997 586127 564950 647881
0111100010001000: 501997 586127 647526 632115
0111100010001000: 501997 586127 647526 552449
0111100010001000: 501997 586127 647526 564950
0110100110000100: 501997 586127 647526 642710
0110100110000100: 501997 586127 647526 647881
0110100110000100: 501997 586127 647526 642710
0110100110000100: 501997 586127 647526 647881
0110100010010010: 501997 586127 647526 535567
0111100010001000: 501997 586127 632115 647526
0111100010001000: 501997 586127 632115 564950
0111100010001000: 501997 586127 632115 647526
0110100110000100: 501997 586127 632115 642710
0110100110000100: 501997 586127 632115 647881
0110100110000100: 501997 586127 632115 642710
0110100110000100: 501997 586127 632115 647881
0111100010001000: 501997 586127 552449 647526
0111100010001000: 501997 586127 552449 564950
0111100010001000: 501997 586127 552449 647526
0110100110000100: 501997 586127 552449 647881
0110100110000100: 501997 586127 552449 647881
0110100110010110: 501997 586127 552449 642710
0110100110010110: 501997 586127 552449 642710
0111100010001000: 501997 586127 564950 647526
0111100010001000: 501997 586127 564950 632115
0111100010001000: 501997 586127 564950 552449
0111100010001000: 501997 586127 564950 647526
0111100010001000: 501997 586127 564950 632115
0111100010001000: 501997 586127 564950 552449
0110100110000100: 501997 586127 564950 642710
0110100110000100: 501997 586127 564950 642710
0110100110010110: 501997 586127 564950 647881
0110100110010110: 501997 586127 564950 647881
0101101001001000: 501997 586127 642710 647526
0101101001001000: 501997 586127 642710 632115
0101101001001000: 501997 586127 642710 564950
0101101001011010: 501997 586127 642710 552449
0101101001011010: 501997 586127 642710 552449
0101101001011010: 501997 586127 642710 552449
0101101001011010: 501997 586127 642710 552449
0101101001001000: 501997 586127 647881 647526
0101101001001000: 501997 586127 647881 632115
0101101001001000: 501997 586127 647881 552449
0100101001010010: 501997 586127 647881 613750
0100101001010010: 501997 586127 647881 613750
0100101101000100: 501997 586127 647881 642710
0101101001011010: 501997 586127 647881 564950
0101101001011010: 501997 586127 647881 564950
0101101001011010: 501997 586127 647881 564950
0100101001010010: 501997 586127 647881 613750
0101101001001000: 647881 613750 641093 564950
0101101001001000: 647881 613750 641093 586127
0111100010001000: 647881 586127 564950 613750
0110100110010110: 647881 586127 564950 501997
0110100110000100: 647881 613750 564950 641093
0110100010010010: 647881 613750 564950 510205
0110100010010010: 647881 613750 564950 535567
0110100010010010: 647881 613750 564950 501997
0111100010001000: 647881 613750 586127 564950
0110100110000100: 647881 613750 586127 641093
0110100010010010: 647881 613750 586127 642710
0110100010010010: 647881 613750 586127 501997
0110100110000100: 647881 613750 564950 641093
0110100110000100: 647881 613750 564950 641093
0110100110000100: 647881 613750 564950 641093
0110100110000100: 647881 613750 586127 641093
0110100110000100: 647881 613750 586127 641093
0110100110000100: 647881 613750 586127 641093
0101101001001000: 647881 613750 641093 564950
0101101001001000: 647881 613750 641093 586127
0100101001010010: 647881 613750 641093 535567
0100101001010010: 647881 613750 641093 535567
0100101001010010: 647881 613750 641093 535567
0110100110000100: 647881 564950 613750 510205
0110100110000100: 647881 564950 613750 535567
0110100110000100: 647881 564950 613750 501997
0110100010010010: 647881 564950 613750 641093
0110100010010010: 647881 564950 613750 641093
0111100010001000: 647881 564950 586127 613750
0110100110000100: 647881 564950 586127 510205
0110100110000100: 647881 564950 586127 535567
0110100010010010: 647881 564950 586127 642710
0110100110010110: 647881 564950 586127 501997
0110100110010110: 647881 564950 586127 501997
0111100010001000: 647881 564950 613750 586127
0110100110000100: 647881 564950 613750 510205
0110100110000100: 647881 564950 613750 535567
0110100110000100: 647881 564950 613750 501997
0110100110000100: 647881 564950 613750 510205
0110100110000100: 647881 564950 613750 535567
0110100110000100: 647881 564950 613750 501997
0110100010010010: 647881 564950 613750 641093
0110100110000100: 647881 564950 586127 510205
0110100110000100: 647881 564950 586127 535567
0110100110000100: 647881 564950 586127 510205
0110100110000100: 647881 564950 586127 535567
0110100010010010: 647881 564950 586127 642710
0110100110010110: 647881 564950 586127 501997
0111100010001000: 647881 564950 613750 586127
0111100010001000: 647881 564950 613750 586127
0110100010010010: 647881 564950 613750 641093
0111100010001000: 647881 564950 586127 613750
0111100010001000: 647881 564950 586127 613750
0111100010001000: 647881 564950 586127 613750
0110100110000100: 647881 564950 613750 510205
0110100110000100: 647881 564950 613750 535567
0110100110000100: 647881 564950 613750 501997
0110100110000100: 647881 564950 613750 510205
0110100110000100: 647881 564950 613750 535567
0110100110000100: 647881 564950 613750 501997
0111100010001000: 647881 564950 613750 586127
0110100010010010: 647881 564950 613750 641093
0110100010010010: 647881 564950 613750 641093
0110100110000100: 647881 564950 586127 510205
0110100110000100: 647881 564950 586127 535567
0110100110000100: 647881 564950 586127 510205
0110100110000100: 647881 564950 586127 535567
0111100010001000: 647881 564950 586127 613750
0111100010001000: 647881 564950 586127 613750
0110100010010010: 647881 564950 586127 642710
0110100110010110: 647881 564950 586127 501997
0110100010010010: 647881 586127 613750 641093
0110100010010010: 647881 586127 613750 641093
0111100010001000: 647881 586127 564950 613750
0110100010010010: 647881 586127 564950 510205
0110100010010010: 647881 586127 564950 535567
0110100110010110: 647881 586127 564950 501997
0111100010001000: 647881 586127 613750 564950
0110100110000100: 647881 586127 613750 642710
0110100110000100: 647881 586127 613750 501997
0110100010010010: 647881 586127 613750 641093
0111100010001000: 647881 586127 564950 613750
0111100010001000: 647881 586127 564950 613750
0110100110000100: 647881 586127 564950 642710
0110100110010110: 647881 586127 564950 501997
0110100110010110: 647881 586127 564950 501997
0111100010001000: 647881 586127 613750 564950
0111100010001000: 647881 586127 613750 564950
0110100010010010: 647881 586127 613750 641093
0111100010001000: 647881 586127 564950 613750
0111100010001000: 647881 586127 564950 613750
0111100010001000: 647881 586127 564950 613750
0110100110000100: 647881 586127 613750 642710
0110100110000100: 647881 586127 613750 501997
0110100110000100: 647881 586127 613750 642710
0110100110000100: 647881 586127 613750 501997
0111100010001000: 647881 586127 613750 564950
0110100010010010: 647881 586127 613750 641093
0110100010010010: 647881 586127 613750 641093
0110100110000100: 647881 586127 564950 642710
0110100110000100: 647881 586127 564950 642710
0111100010001000: 647881 586127 564950 613750
0111100010001000: 647881 586127 564950 613750
0110100110010110: 647881 586127 564950 501997
0110100110000100: 647881 586127 564950 642710
0101101001001000: 564950 535567 647526 510205
0101101001001000: 564950 535567 647526 647881
0101101001001000: 564950 535567 641093 510205
0101101001001000: 564950 535567 641093 647881
0101101001001000: 564950 535567 641093 501997
0100101101000100: 564950 535567 641093 647526
0111100010001000: 564950 647881 535567 510205
0101101001001000: 564950 647881 613750 510205
0101101001001000: 564950 647881 613750 535567
0101101001001000: 564950 647881 613750 501997
0101101001001000: 564950 647881 586127 510205
0101101001001000: 564950 647881 586127 535567
0100101101000100: 564950 647881 586127 613750
0111100010001000: 564950 501997 535567 510205
0110100110010110: 564950 501997 535567 647526
0111100010001000: 564950 501997 647881 510205
0111100010001000: 564950 501997 647881 535567
0110100110010110: 564950 501997 647881 586127
0110100010010010: 564950 510205 535567 647526
0110100010010010: 564950 510205 535567 641093
0110100010010010: 564950 510205 535567 647526
0110100010010010: 564950 510205 535567 641093
0111100010001000: 564950 510205 647881 535567
0110100010010010: 564950 510205 647881 613750
0110100010010010: 564950 510205 647881 586127
0110100010010010: 564950 510205 647881 613750
0110100010010010: 564950 510205 647881 586127
0111100010001000: 564950 510205 501997 535567
0111100010001000: 564950 510205 501997 647881
0110100010010010: 564950 510205 501997 647526
0110100010010010: 564950 510205 501997 632115
0110100010010010: 564950 510205 501997 552449
0110100010010010: 564950 510205 501997 586127
0110100110000100: 564950 535567 510205 647526
0110100110000100: 564950 535567 510205 641093
0111100010001000: 564950 535567 647881 510205
0110100110000100: 564950 535567 647881 647526
0110100110000100: 564950 535567 647881 641093
0110100010010010: 564950 535567 647881 613750
0110100010010010: 564950 535567 647881 586127
0110100010010010: 564950 535567 647881 613750
0110100010010010: 564950 535567 647881 586127
0111100010001000: 564950 535567 501997 510205
0111100010001000: 564950 535567 501997 647881
0110100110000100: 564950 535567 501997 641093
0110100010010010: 564950 535567 501997 632115
0110100010010010: 564950 535567 501997 552449
0110100010010010: 564950 535567 501997 586127
0110100110010110: 564950 535567 501997 647526
0110100110010110: 564950 535567 501997 647526
0111100010001000: 564950 535567 510205 647881
0111100010001000: 564950 535567 510205 501997
0110100110000100: 564950 535567 510205 647526
0110100110000100: 564950 535567 510205 641093
0110100110000100: 564950 535567 510205 647526
0110100110000100: 564950 535567 510205 641093
0110100110000100: 564950 535567 510205 647526
0110100110000100: 564950 535567 510205 641093
0110100110000100: 564950 535567 647881 647526
0110100110000100: 564950 535567 647881 641093
0110100110000100: 564950 535567 647881 647526
0110100110000100: 564950 535567 647881 641093
0110100110000100: 564950 535567 647881 647526
0110100110000100: 564950 535567 647881 641093
0110100110000100: 564950 535567 501997 641093
0110100110000100: 564950 535567 501997 641093
0110100110000100: 564950 535567 501997 641093
0110100110010110: 564950 535567 501997 647526
0101101001001000: 564950 535567 647526 510205
0101101001001000: 564950 535567 647526 647881
0101101001011010: 564950 535567 647526 501997
0101101001011010: 564950 535567 647526 501997
0101101001011010: 564950 535567 647526 501997
0101101001011010: 564950 535567 647526 501997
0101101001001000: 564950 535567 641093 510205
0101101001001000: 564950 535567 641093 647881
0101101001001000: 564950 535567 641093 501997
0100101001010010: 564950 535567 641093 613750
0100101001010010: 564950 535567 641093 613750
0100101101000100: 564950 535567 641093 647526
0100101001010010: 564950 535567 641093 613750
0100101001010010: 564950 535567 641093 613750
0111100010001000: 564950 647881 535567 510205
0110100010010010: 564950 647881 535567 647526
0110100010010010: 564950 647881 535567 641093
0110100010010010: 564950 647881 535567 647526
0110100010010010: 564950 647881 535567 641093
0111100010001000: 564950 647881 501997 510205
0111100010001000: 564950 647881 501997 535567
0110100010010010: 564950 647881 501997 647526
0110100010010010: 564950 647881 501997 632115
0110100010010010: 564950 647881 501997 552449
0110100110010110: 564950 647881 501997 586127
0111100010001000: 564950 647881 510205 535567
0111100010001000: 564950 647881 510205 501997
0110100110000100: 564950 647881 510205 613750
0110100110000100: 564950 647881 510205 586127
0110100110000100: 564950 647881 510205 613750
0110100110000100: 564950 647881 510205 586127
0111100010001000: 564950 647881 535567 510205
0111100010001000: 564950 647881 535567 501997
0111100010001000: 564950 647881 535567 510205
0110100110000100: 564950 647881 535567 613750
0110100110000100: 564950 647881 535567 586127
0110100110000100: 564950 647881 535567 613750
0110100110000100: 564950 647881 535567 586127
0110100110000100: 564950 647881 501997 613750
0110100110000100: 564950 647881 501997 613750
0110100110010110: 564950 647881 501997 586127
0101101001001000: 564950 647881 613750 510205
0101101001001000: 564950 647881 613750 535567
0101101001001000: 564950 647881 613750 501997
0100101001010010: 564950 647881 613750 641093
0100101001010010: 564950 647881 613750 641093
0100101001010010: 564950 647881 613750 641093
0100101001010010: 564950 647881 613750 641093
0101101001001000: 564950 647881 586127 510205
0101101001001000: 564950 647881 586127 535567
0100101001010010: 564950 647881 586127 642710
0100101001010010: 564950 647881 586127 642710
0100101101000100: 564950 647881 586127 613750
0101101001011010: 564950 647881 586127 501997
0101101001011010: 564950 647881 586127 501997
0101101001011010: 564950 647881 586127 501997
0100101001010010: 564950 647881 586127 642710
0111100010001000: 564950 501997 535567 510205
0110100010010010: 564950 501997 535567 641093
0110100010010010: 564950 501997 535567 641093
0110100110010110: 564950 501997 535567 647526
0111100010001000: 564950 501997 647881 510205
0111100010001000: 564950 501997 647881 535567
0110100010010010: 564950 501997 647881 613750
0110100010010010: 564950 501997 647881 613750
0110100110010110: 564950 501997 647881 586127
0111100010001000: 564950 501997 510205 535567
0111100010001000: 564950 501997 510205 647881
0110100110000100: 564950 501997 510205 647526
0110100110000100: 564950 501997 510205 632115
0110100110000100: 564950 501997 510205 552449
0110100110000100: 564950 501997 510205 586127
0111100010001000: 564950 501997 535567 510205
0111100010001000: 564950 501997 535567 647881
0111100010001000: 564950 501997 535567 510205
0110100110000100: 564950 501997 535567 632115
0110100110000100: 564950 501997 535567 552449
0110100110000100: 564950 501997 535567 586127
0110100110010110: 564950 501997 535567 647526
0110100010010010: 564950 501997 535567 641093
0110100110010110: 564950 501997 535567 647526
0111100010001000: 564950 501997 647881 510205
0111100010001000: 564950 501997 647881 535567
0111100010001000: 564950 501997 647881 510205
0111100010001000: 564950 501997 647881 535567
0110100110000100: 564950 501997 647881 647526
0110100110000100: 564950 501997 647881 632115
0110100110000100: 564950 501997 647881 552449
0110100110010110: 564950 501997 647881 586127
0110100010010010: 564950 501997 647881 613750
0110100110010110: 564950 501997 647881 586127
0111100010001000: 564950 501997 510205 535567
0111100010001000: 564950 501997 510205 647881
0111100010001000: 564950 501997 510205 535567
0111100010001000: 564950 501997 510205 647881
0111100010001000: 564950 501997 535567 510205
0111100010001000: 564950 501997 535567 647881
0111100010001000: 564950 501997 535567 510205
0111100010001000: 564950 501997 535567 647881
0110100010010010: 564950 501997 535567 641093
0111100010001000: 564950 501997 647881 510205
0111100010001000: 564950 501997 647881 535567
0111100010001000: 564950 501997 647881 510205
0111100010001000: 564950 501997 647881 535567
0110100010010010: 564950 501997 647881 613750
0110100110000100: 564950 501997 510205 647526
0110100110000100: 564950 501997 510205 632115
0110100110000100: 564950 501997 510205 552449
0110100110000100: 564950 501997 510205 586127
0110100110000100: 564950 501997 510205 647526
0110100110000100: 564950 501997 510205 632115
0110100110000100: 564950 501997 510205 552449
0110100110000100: 564950 501997 510205 586127
0111100010001000: 564950 501997 510205 535567
0111100010001000: 564950 501997 510205 647881
0110100110000100: 564950 501997 535567 632115
0110100110000100: 564950 501997 535567 552449
0110100110000100: 564950 501997 535567 586127
0110100110000100: 564950 501997 535567 632115
0110100110000100: 564950 501997 535567 552449
0110100110000100: 564950 501997 535567 586127
0111100010001000: 564950 501997 535567 510205
0111100010001000: 564950 501997 535567 647881
0111100010001000: 564950 501997 535567 510205
0110100010010010: 564950 501997 535567 641093
0110100110010110: 564950 501997 535567 647526
0110100010010010: 564950 501997 535567 641093
0110100110010110: 564950 501997 535567 647526
0110100110000100: 564950 501997 647881 647526
0110100110000100: 564950 501997 647881 632115
0110100110000100: 564950 501997 647881 552449
0110100110000100: 564950 501997 647881 647526
0110100110000100: 564950 501997 647881 632115
0110100110000100: 564950 501997 647881 552449
0111100010001000: 564950 501997 647881 510205
0111100010001000: 564950 501997 647881 535567
0111100010001000: 564950 501997 647881 510205
0111100010001000: 564950 501997 647881 535567
0110100010010010: 564950 501997 647881 613750
0110100110010110: 564950 501997 647881 586127
0110100010010010: 564950 501997 647881 613750
0110100110010110: 564950 501997 647881 586127
0110100110010110: 642710 586127 552449 501997
0110100110000100: 642710 552449 586127 632115
0110100010010010: 642710 552449 586127 647881
0110100110010110: 642710 552449 586127 501997
0110100110010110: 642710 552449 586127 501997
0110100110000100: 642710 552449 586127 632115
0110100110000100: 642710 552449 586127 632115
0110100110010110: 642710 552449 586127 501997
0110100110000100: 642710 552449 586127 632115
0110100110000100: 642710 552449 586127 632115
0110100110010110: 642710 552449 586127 501997
0110100110000100: 642710 552449 586127 632115
0110100010010010: 642710 586127 552449 632115
0110100110010110: 642710 586127 552449 501997
0110100110000100: 642710 586127 552449 647881
0110100110010110: 642710 586127 552449 501997
0110100110010110: 642710 586127 552449 501997
0110100110000100: 642710 586127 552449 647881
0110100110000100: 642710 586127 552449 647881
0110100110010110: 642710 586127 552449 501997
0110100110000100: 642710 586127 552449 647881
0111101011001000: 552449 632115 501997 642710
0101101001001000: 552449 642710 586127 632115
0110100110010110: 552449 501997 642710 586127
0111101011001000: 552449 501997 632115 642710
0110100010010010: 552449 632115 642710 586127
0110100010010010: 552449 632115 642710 586127
0111100110001100: 552449 632115 642710 501997
0111101011001000: 552449 632115 501997 642710
0110101011010010: 552449 632115 501997 647526
0110101011010010: 552449 632115 501997 564950
0110101011010010: 552449 632115 501997 586127
0110101011010010: 552449 632115 501997 647526
0110101011010010: 552449 632115 501997 564950
0110101011010010: 552449 632115 501997 586127
0111101011001000: 552449 632115 501997 642710
0111101011001000: 552449 632115 501997 642710
0111101011001000: 552449 632115 501997 642710
0111100010011010: 552449 642710 632115 501997
0110100010010010: 552449 642710 501997 647526
0110100010010010: 552449 642710 501997 564950
0111100010011010: 552449 642710 501997 632115
0110100110010110: 552449 642710 501997 586127
0110100110000100: 552449 642710 632115 586127
0110100110000100: 552449 642710 632115 586127
0110100110010110: 552449 642710 501997 586127
0101101001001000: 552449 642710 586127 632115
0100101001010010: 552449 642710 586127 647881
0100101001010010: 552449 642710 586127 647881
0101101001011010: 552449 642710 586127 501997
0101101001011010: 552449 642710 586127 501997
0101101001011010: 552449 642710 586127 501997
0101101001001000: 552449 642710 586127 632115
0101101001001000: 552449 642710 586127 632115
0110100110010110: 552449 501997 642710 586127
0110100110000100: 552449 501997 642710 647526
0110100110000100: 552449 501997 642710 564950
0111100110001100: 552449 501997 642710 632115
0110100110010110: 552449 501997 642710 586127
0110100110010110: 552449 501997 642710 586127
0111101011001000: 552449 501997 632115 642710
0111101011001000: 552449 501997 632115 642710
0111101011001000: 552449 501997 632115 642710
0110101111000100: 552449 501997 632115 647526
0110101111000100: 552449 501997 632115 564950
0110101111000100: 552449 501997 632115 586127
0110101111000100: 552449 501997 632115 647526
0110101111000100: 552449 501997 632115 564950
0110101111000100: 552449 501997 632115 586127
0111101011001000: 552449 501997 632115 642710
0110100110000100: 552449 501997 642710 647526
0110100110000100: 552449 501997 642710 564950
0110100110000100: 552449 501997 642710 647526
0110100110000100: 552449 501997 642710 564950
0111100110001100: 552449 501997 642710 632115
0111100110001100: 552449 501997 642710 632115
0111100110001100: 552449 501997 642710 632115
0110100110010110: 552449 501997 642710 586127
0110100110010110: 552449 501997 642710 586127
0111101011001000: 552449 501997 632115 642710
0111101011001000: 552449 501997 632115 642710
0111101011001000: 552449 501997 632115 642710
0101101001001000: 535567 647526 501997 641093
0101101001001000: 535567 641093 613750 647526
0101101001001000: 535567 641093 613750 564950
0110100110010110: 535567 564950 647526 501997
0111100010001000: 535567 564950 641093 647526
0110100110000100: 535567 647526 641093 501997
0110100010010010: 535567 647526 641093 613750
0110100010010010: 535567 647526 641093 613750
0111100010001000: 535567 647526 564950 641093
0110100010010010: 535567 647526 564950 510205
0110100010010010: 535567 647526 564950 647881
0110100110010110: 535567 647526 564950 501997
0110100110010110: 535567 647526 564950 501997
0110100110000100: 535567 647526 641093 501997
0110100110000100: 535567 647526 641093 501997
0110100110000100: 535567 647526 641093 501997
0110100110010110: 535567 647526 564950 501997
0101101001001000: 535567 647526 501997 641093
0100101001010010: 535567 647526 501997 632115
0100101001010010: 535567 647526 501997 552449
0100101001010010: 535567 647526 501997 586127
0100101001010010: 535567 647526 501997 632115
0100101001010010: 535567 647526 501997 552449
0100101001010010: 535567 647526 501997 586127
0101101001011010: 535567 647526 501997 564950
0101101001011010: 535567 647526 501997 564950
0101101001011010: 535567 647526 501997 564950
0101101001001000: 535567 647526 501997 641093
0110100110000100: 535567 641093 647526 613750
0110100010010010: 535567 641093 647526 501997
0110100010010010: 535567 641093 647526 501997
0111100010001000: 535567 641093 564950 647526
0110100110000100: 535567 641093 564950 613750
0110100010010010: 535567 641093 564950 510205
0110100010010010: 535567 641093 564950 647881
0110100010010010: 535567 641093 564950 501997
0111100010001000: 535567 641093 647526 564950
0110100110000100: 535567 641093 647526 613750
0110100110000100: 535567 641093 647526 613750
0110100110000100: 535567 641093 647526 613750
0110100110000100: 535567 641093 564950 613750
0110100110000100: 535567 641093 564950 613750
0110100110000100: 535567 641093 564950 613750
0101101001001000: 535567 641093 613750 647526
0101101001001000: 535567 641093 613750 564950
0100101001010010: 535567 641093 613750 647881
0100101001010010: 535567 641093 613750 647881
0100101001010010: 535567 641093 613750 647881
0110100110010110: 535567 564950 647526 501997
0111100010001000: 535567 564950 641093 647526
0110100010010010: 535567 564950 641093 613750
0110100010010010: 535567 564950 641093 613750
0111100010001000: 535567 564950 647526 641093
0110100110000100: 535567 564950 647526 510205
0110100110000100: 535567 564950 647526 647881
0110100110010110: 535567 564950 647526 501997
0110100110010110: 535567 564950 647526 501997
0111100010001000: 535567 564950 641093 647526
0111100010001000: 535567 564950 641093 647526
0110100110000100: 535567 564950 641093 510205
0110100110000100: 535567 564950 641093 647881
0110100110000100: 535567 564950 641093 501997
0110100010010010: 535567 564950 641093 613750
0111100010001000: 535567 564950 647526 641093
0111100010001000: 535567 564950 647526 641093
0111100010001000: 535567 564950 641093 647526
0111100010001000: 535567 564950 641093 647526
0110100010010010: 535567 564950 641093 613750
0110100110000100: 535567 564950 647526 510205
0110100110000100: 535567 564950 647526 647881
0110100110000100: 535567 564950 647526 510205
0110100110000100: 535567 564950 647526 647881
0111100010001000: 535567 564950 647526 641093
0110100110010110: 535567 564950 647526 501997
0110100110010110: 535567 564950 647526 501997
0110100110000100: 535567 564950 641093 510205
0110100110000100: 535567 564950 641093 647881
0110100110000100: 535567 564950 641093 501997
0110100110000100: 535567 564950 641093 510205
0110100110000100: 535567 564950 641093 647881
0110100110000100: 535567 564950 641093 501997
0111100010001000: 535567 564950 641093 647526
0111100010001000: 535567 564950 641093 647526
0110100010010010: 535567 564950 641093 613750
0110100010010010: 535567 564950 641093 613750
0110100110000100: 641093 613750 535567 647881
0110100010010010: 641093 613750 535567 647526
0110100010010010: 641093 613750 535567 564950
0110100110000100: 641093 613750 535567 647881
0110100110000100: 641093 613750 535567 647881
0110100110000100: 641093 613750 535567 647881
0110100110000100: 641093 613750 535567 647881
0110100110000100: 641093 613750 535567 647881
0110100010010010: 641093 535567 613750 647881
0110100110000100: 641093 535567 613750 647526
0110100110000100: 641093 535567 613750 564950
0110100010010010: 641093 535567 613750 647881
0110100110000100: 641093 535567 613750 647526
0110100110000100: 641093 535567 613750 564950
0110100110000100: 641093 535567 613750 647526
0110100110000100: 641093 535567 613750 564950
0110100010010010: 641093 535567 613750 647881
0110101111000100: 632115 552449 501997 642710
0110101111000100: 632115 552449 501997 642710
0110101111000100: 632115 552449 501997 642710
0110101111000100: 632115 501997 552449 647526
0110101111000100: 632115 501997 552449 564950
0110101111000100: 632115 501997 552449 586127
0110101111000100: 632115 501997 552449 647526
0110101111000100: 632115 501997 552449 564950
0110101111000100: 632115 501997 552449 586127
0110101011010010: 632115 501997 552449 642710
0110100110010110: 647526 501997 535567 564950
0110100010010010: 647526 535567 501997 632115
0110100010010010: 647526 535567 501997 552449
0110100010010010: 647526 535567 501997 586127
0110100110010110: 647526 535567 501997 564950
0110100110000100: 647526 535567 501997 641093
0110100110010110: 647526 535567 501997 564950
0110100110000100: 647526 535567 501997 641093
0110100110000100: 647526 535567 501997 641093
0110100110010110: 647526 535567 501997 564950
0110100110000100: 647526 535567 501997 641093
0110100010010010: 647526 501997 535567 641093
0110100110010110: 647526 501997 535567 564950
0110100110000100: 647526 501997 535567 632115
0110100110000100: 647526 501997 535567 552449
0110100110000100: 647526 501997 535567 586127
0110100110010110: 647526 501997 535567 564950
0110100010010010: 647526 501997 535567 641093
0110100110010110: 647526 501997 535567 564950
0110100110000100: 647526 501997 535567 632115
0110100110000100: 647526 501997 535567 552449
0110100110000100: 647526 501997 535567 586127
0110100110000100: 647526 501997 535567 632115
0110100110000100: 647526 501997 535567 552449
0110100110000100: 647526 501997 535567 586127
0110100010010010: 647526 501997 535567 641093
0110100110010110: 647526 501997 535567 564950
0110100010010010: 613750 641093 647881 564950
0110100010010010: 613750 641093 647881 586127
0110100110000100: 613750 641093 647881 535567
0110100110000100: 613750 641093 647881 535567
0110100110000100: 613750 641093 647881 535567
0110100110000100: 613750 641093 647881 535567
0110100010010010: 613750 647881 641093 535567
0110100110000100: 613750 647881 641093 564950
0110100110000100: 613750 647881 641093 586127
0110100010010010: 613750 647881 641093 535567
0110100110000100: 613750 647881 641093 564950
0110100110000100: 613750 647881 641093 586127
0110100110000100: 613750 647881 641093 564950
0110100110000100: 613750 647881 641093 586127
0110100010010010: 613750 647881 641093 535567
