Vertex,0110101111010110,0110100110010110,0100101101000100,0101101001001000,0110100110000100,0111101011001000,0110101111000100,0100101001010010,0111100110001100,0111101011011010,0111101111001100,0110101011010010,0111100110011110,0111100010001000,0111100010011010,0110100010010010,0101101101011110,0101101001011010,0101101101001100
550157,51.0,140.0,16.0,136.0,476.0,254.0,122.0,44.0,76.0,51.0,54.0,88.0,4.0,296.0,40.0,254.0,7.0,57.0,24.0
475199,0.0,35.0,0.0,36.0,126.0,30.0,12.0,2.0,6.0,0.0,0.0,6.0,0.0,96.0,6.0,59.0,0.0,11.0,0.0
580319,0.0,35.0,4.0,31.0,106.0,0.0,0.0,3.0,0.0,0.0,0.0,0.0,0.0,38.0,0.0,54.0,0.0,11.0,0.0
582938,24.0,70.0,16.0,113.0,395.0,111.0,53.0,62.0,33.0,21.0,18.0,37.0,2.0,221.0,18.0,207.0,3.0,31.0,10.0
503542,34.0,0.0,4.0,76.0,254.0,189.0,91.0,34.0,57.0,33.0,36.0,65.0,2.0,112.0,30.0,129.0,3.0,0.0,18.0
488850,0.0,70.0,4.0,38.0,133.0,30.0,12.0,8.0,6.0,0.0,0.0,6.0,0.0,120.0,6.0,61.0,0.0,30.0,0.0
634257,51.0,0.0,6.0,80.0,287.0,207.0,100.0,45.0,64.0,51.0,54.0,74.0,4.0,103.0,39.0,149.0,7.0,0.0,20.0
497281,27.0,0.0,2.0,59.0,233.0,139.0,66.0,31.0,42.0,30.0,36.0,48.0,2.0,95.0,29.0,121.0,4.0,0.0,12.0
526860,0.0,105.0,10.0,71.0,250.0,30.0,12.0,22.0,6.0,0.0,0.0,6.0,0.0,173.0,6.0,124.0,0.0,42.0,0.0
488803,0.0,0.0,4.0,40.0,144.0,14.0,7.0,18.0,5.0,0.0,0.0,5.0,0.0,54.0,2.0,77.0,0.0,0.0,2.0
589221,0.0,105.0,12.0,60.0,199.0,13.0,7.0,22.0,5.0,0.0,0.0,5.0,0.0,116.0,2.0,97.0,0.0,46.0,2.0
626714,0.0,0.0,6.0,51.0,224.0,33.0,19.0,48.0,15.0,0.0,0.0,17.0,0.0,78.0,11.0,129.0,0.0,0.0,6.0
586164,0.0,0.0,4.0,32.0,122.0,42.0,24.0,22.0,16.0,0.0,0.0,24.0,0.0,24.0,4.0,71.0,0.0,0.0,8.0
536204,0.0,0.0,4.0,32.0,116.0,0.0,0.0,25.0,0.0,0.0,0.0,0.0,0.0,38.0,0.0,72.0,0.0,0.0,0.0
571523,17.0,0.0,6.0,47.0,200.0,67.0,34.0,32.0,24.0,18.0,18.0,26.0,2.0,62.0,17.0,110.0,4.0,0.0,8.0
566570,0.0,0.0,2.0,34.0,123.0,38.0,18.0,16.0,12.0,0.0,0.0,12.0,0.0,31.0,6.0,68.0,0.0,0.0,4.0
643025,0.0,0.0,2.0,26.0,101.0,35.0,19.0,18.0,13.0,0.0,0.0,17.0,0.0,15.0,4.0,63.0,0.0,0.0,6.0
603113,0.0,0.0,2.0,18.0,91.0,0.0,0.0,28.0,0.0,0.0,0.0,0.0,0.0,24.0,0.0,63.0,0.0,0.0,0.0
graph,51.0,140.0,26.0,245.0,895.0,308.0,149.0,120.0,95.0,51.0,54.0,109.0,4.0,424.0,55.0,477.0,7.0,57.0,30.0
