0110010010100010100100110: 581438 558899 602157 481409 561428
0110010011100000100001000: 581438 558899 602157 628720 481409
0110010010100010100000100: 581438 558899 602157 628720 561428
0110010011100000100001000: 558899 481409 628720 561428 617534
0110010011100000100001000: 558899 481409 581438 561428 617534
0110010010100010100000100: 558899 628720 481409 560706 617534
0110010010100010100100110: 558899 628720 481409 560706 561428
0110010011100000100001000: 558899 628720 481409 529487 560706
0110010010100010100000100: 558899 628720 481409 529487 617534
0110010010100010100100110: 558899 628720 481409 529487 561428
0110010011100000100001000: 558899 628720 481409 626870 529487
0110010010100010100000100: 558899 628720 481409 626870 617534
0110010010100010100000100: 558899 628720 481409 626870 561428
0110010011100000100001000: 558899 628720 581438 529487 560706
0110010011100000100001000: 558899 628720 581438 626870 529487
0110010010100010100000100: 558899 581438 481409 602157 617534
0110010010100010100000100: 558899 581438 628720 602157 560706
0110010010100010100000100: 558899 581438 628720 602157 529487
0110010010100010100000100: 558899 581438 628720 602157 626870
0110010011100000100001000: 602157 561428 581438 560706 481409
0110010011100000100001000: 602157 561428 581438 596741 481409
0110010011100000100001000: 602157 561428 581438 596741 560706
0110010011100000100001000: 602157 561428 581438 540965 481409
0110010011100000100001000: 602157 561428 581438 540965 560706
0110010011100000100001000: 602157 561428 581438 540965 596741
0110010011100000100001000: 602157 561428 581438 641196 481409
0110010011100000100001000: 602157 561428 581438 641196 560706
0110010011100000100001000: 602157 561428 581438 641196 596741
0110010011100000100001000: 602157 561428 581438 554132 481409
0110010011100000100001000: 602157 561428 581438 554132 560706
0110010011100000100001000: 602157 561428 581438 554132 596741
0110010011100000100001000: 602157 561428 581438 554132 540965
0110010011100000100001000: 602157 561428 581438 554132 641196
0110010011100000100001000: 602157 561428 581438 587182 481409
0110010011100000100001000: 602157 561428 581438 587182 560706
0110010011100000100001000: 602157 561428 581438 587182 596741
0110010011100000100001000: 602157 561428 581438 587182 540965
0110010011100000100001000: 602157 561428 581438 587182 641196
0110010011100000100001000: 602157 561428 581438 587182 554132
0110010011100000100001000: 602157 561428 581438 529487 481409
0110010011100000100001000: 602157 561428 581438 529487 560706
0110010011100000100001000: 602157 561428 581438 529487 540965
0110010011100000100001000: 602157 561428 581438 529487 641196
0110010011100000100001000: 602157 561428 581438 529487 554132
0110010011100000100001000: 602157 561428 581438 529487 587182
0110010011100000100001000: 602157 561428 581438 612954 481409
0110010011100000100001000: 602157 561428 581438 612954 560706
0110010011100000100001000: 602157 561428 581438 612954 596741
0110010011100000100001000: 602157 561428 581438 612954 540965
0110010011100000100001000: 602157 561428 581438 612954 641196
0110010011100000100001000: 602157 561428 581438 612954 554132
0110010011100000100001000: 602157 561428 581438 612954 587182
0110010011100000100001000: 602157 561428 581438 612954 529487
0110010011100000100001000: 602157 561428 581438 517895 481409
0110010011100000100001000: 602157 561428 581438 517895 560706
0110010011100000100001000: 602157 561428 581438 517895 540965
0110010011100000100001000: 602157 561428 581438 517895 641196
0110010011100000100001000: 602157 561428 581438 517895 554132
0110010011100000100001000: 602157 561428 581438 517895 587182
0110010011100000100001000: 602157 561428 581438 517895 529487
0110010011100000100001000: 602157 561428 581438 517895 612954
0110010010100010100000100: 602157 581438 561428 558899 560706
0110010010100010100000100: 602157 581438 561428 558899 596741
0110010010100010100000100: 602157 581438 561428 558899 540965
0110010010100010100000100: 602157 581438 561428 558899 641196
0110010010100010100000100: 602157 581438 561428 558899 554132
0110010010100010100000100: 602157 581438 561428 558899 587182
0110010010100010100000100: 602157 581438 561428 558899 529487
0110010010100010100000100: 602157 581438 561428 558899 612954
0110010010100010100000100: 602157 581438 561428 558899 517895
0110010011100000100001000: 561428 481409 560706 558899 617534
0110010011100000100001000: 561428 481409 596741 558899 617534
0110010011100000100001000: 561428 481409 540965 558899 617534
0110010011100000100001000: 561428 481409 641196 558899 617534
0110010011100000100001000: 561428 481409 554132 558899 617534
0110010011100100110001000: 561428 481409 587182 617534 558899
0110010011100000100001000: 561428 481409 529487 558899 617534
0110010011100000100001000: 561428 481409 612954 558899 617534
0110010011100000100001000: 561428 481409 517895 558899 617534
0110010011100000100001000: 561428 481409 602157 558899 617534
0110010010100010100000100: 561428 560706 481409 543023 617534
0110010010100010100000100: 561428 560706 481409 543023 558899
0110010011100000100001000: 561428 560706 481409 628720 543023
0110010010100010100000100: 561428 560706 481409 628720 617534
0110010011100000100001000: 561428 560706 481409 626870 543023
0110010010100010100000100: 561428 560706 481409 626870 617534
0110010010100010100000100: 561428 560706 481409 626870 558899
0110010011100000100001000: 561428 560706 481409 555264 543023
0110010011100000100001000: 561428 560706 481409 555264 628720
0110010011100000100001000: 561428 560706 481409 555264 626870
0110010010100010100000100: 561428 560706 481409 555264 617534
0110010010100010100000100: 561428 560706 481409 555264 558899
0110010011100000100001000: 561428 560706 596741 628720 543023
0110010011100000100001000: 561428 560706 596741 626870 543023
0110010011100000100001000: 561428 560706 596741 555264 543023
0110010011100000100001000: 561428 560706 596741 555264 628720
0110010011100000100001000: 561428 560706 596741 555264 626870
0110010011100000100001000: 561428 560706 540965 628720 543023
0110010011100000100001000: 561428 560706 540965 626870 543023
0110010011100000100001000: 561428 560706 540965 555264 543023
0110010011100000100001000: 561428 560706 540965 555264 628720
0110010011100000100001000: 561428 560706 540965 555264 626870
0110010011100000100001000: 561428 560706 641196 628720 543023
0110010011100000100001000: 561428 560706 641196 626870 543023
0110010011100000100001000: 561428 560706 641196 555264 543023
0110010011100000100001000: 561428 560706 641196 555264 628720
0110010011100000100001000: 561428 560706 641196 555264 626870
0110010011100000100001000: 561428 560706 554132 555264 628720
0110010011100000100001000: 561428 560706 554132 555264 626870
0110010011100100110001000: 561428 560706 554132 543023 628720
0110010011100100110001000: 561428 560706 554132 543023 626870
0110010011100100110001000: 561428 560706 554132 543023 555264
0110010011100000100001000: 561428 560706 587182 628720 543023
0110010011100000100001000: 561428 560706 587182 626870 543023
0110010011100000100001000: 561428 560706 587182 555264 543023
0110010011100000100001000: 561428 560706 587182 555264 628720
0110010011100000100001000: 561428 560706 587182 555264 626870
0110010011100000100001000: 561428 560706 529487 626870 543023
0110010011100000100001000: 561428 560706 529487 555264 543023
0110010011100000100001000: 561428 560706 529487 555264 626870
0110010011100100110001000: 561428 560706 529487 628720 543023
0110010011100100110001000: 561428 560706 529487 628720 555264
0110010011100000100001000: 561428 560706 612954 628720 543023
0110010011100000100001000: 561428 560706 612954 626870 543023
0110010011100100110001000: 561428 560706 612954 555264 543023
0110010011100100110001000: 561428 560706 612954 555264 628720
0110010011100100110001000: 561428 560706 612954 555264 626870
0110010011100000100001000: 561428 560706 517895 628720 543023
0110010011100000100001000: 561428 560706 517895 626870 543023
0110010011100000100001000: 561428 560706 517895 555264 543023
0110010011100000100001000: 561428 560706 517895 555264 628720
0110010011100000100001000: 561428 560706 517895 555264 626870
0110010011100000100001000: 561428 560706 602157 628720 543023
0110010011100000100001000: 561428 560706 602157 626870 543023
0110010011100000100001000: 561428 560706 602157 555264 543023
0110010011100000100001000: 561428 560706 602157 555264 628720
0110010011100000100001000: 561428 560706 602157 555264 626870
0111010110110011100000100: 561428 596741 529487 517895 628720
0111110110110001100010000: 561428 596741 517895 529487 481409
0111110110110001100010000: 561428 596741 517895 529487 560706
0111110110110001100010000: 561428 596741 517895 529487 540965
0111110110110001100010000: 561428 596741 517895 529487 641196
0111110110110001100010000: 561428 596741 517895 529487 554132
0111110110110001100010000: 561428 596741 517895 529487 587182
0111110110110001100010000: 561428 596741 517895 529487 612954
0111110110110001100010000: 561428 596741 517895 529487 602157
0110010010100010100000100: 561428 540965 481409 478113 617534
0110010010100010100000100: 561428 540965 481409 478113 558899
0110010010100010100000100: 561428 540965 560706 478113 543023
0110010010100010100000100: 561428 540965 560706 478113 628720
0110010010100010100000100: 561428 540965 560706 478113 626870
0110010010100010100000100: 561428 540965 560706 478113 555264
0111110000100001000010000: 561428 540965 596741 560706 481409
0111010101110001000001000: 561428 540965 641196 481409 478113
0111010101110001000001000: 561428 540965 641196 560706 478113
0111010101110001000001000: 561428 540965 641196 596741 478113
0111010101110001000001000: 561428 540965 641196 554132 478113
0111010101110001000001000: 561428 540965 641196 587182 478113
0111010101110001000001000: 561428 540965 641196 529487 478113
0111010101110001000001000: 561428 540965 641196 612954 478113
0111010101110001000001000: 561428 540965 641196 517895 478113
0111010101110001000001000: 561428 540965 641196 602157 478113
0110010010100010100000100: 561428 641196 481409 630274 617534
0110010010100010100000100: 561428 641196 481409 630274 558899
0110010010100010100000100: 561428 641196 560706 630274 543023
0110010010100010100000100: 561428 641196 560706 630274 628720
0110010010100010100000100: 561428 641196 560706 630274 626870
0110010010100010100000100: 561428 641196 560706 630274 555264
0111110000100001000010000: 561428 641196 596741 560706 481409
0111010101110001000001000: 561428 641196 540965 481409 630274
0111010100110001000100010: 561428 641196 540965 481409 617534
0111010100110001000100010: 561428 641196 540965 481409 558899
0111110100110001000010000: 561428 641196 540965 560706 481409
0111010101110001000001000: 561428 641196 540965 560706 630274
0111010100110001000100010: 561428 641196 540965 560706 543023
0111010100110001000100010: 561428 641196 540965 560706 628720
0111010100110001000100010: 561428 641196 540965 560706 626870
0111010100110001000100010: 561428 641196 540965 560706 555264
0111110100110001000010000: 561428 641196 540965 596741 481409
0111110100110001000010000: 561428 641196 540965 596741 560706
0111010101110001000001000: 561428 641196 540965 596741 630274
0111110100110001000010000: 561428 641196 540965 554132 481409
0111110100110001000010000: 561428 641196 540965 554132 560706
0111110100110001000010000: 561428 641196 540965 554132 596741
0111010101110001000001000: 561428 641196 540965 554132 630274
0111010100110001000100010: 561428 641196 540965 554132 543023
0111010100110001000100010: 561428 641196 540965 554132 504007
0111110100110001000010000: 561428 641196 540965 587182 481409
0111110100110001000010000: 561428 641196 540965 587182 560706
0111110100110001000010000: 561428 641196 540965 587182 596741
0111110100110001000010000: 561428 641196 540965 587182 554132
0111010101110001000001000: 561428 641196 540965 587182 630274
0111010100110001000100010: 561428 641196 540965 587182 617534
0111010100110001000100010: 561428 641196 540965 587182 639172
0111110100110001000010000: 561428 641196 540965 529487 481409
0111110100110001000010000: 561428 641196 540965 529487 560706
0111110100110001000010000: 561428 641196 540965 529487 554132
0111110100110001000010000: 561428 641196 540965 529487 587182
0111010101110001000001000: 561428 641196 540965 529487 630274
0111010100110001000100010: 561428 641196 540965 529487 628720
0111110100110001000010000: 561428 641196 540965 612954 481409
0111110100110001000010000: 561428 641196 540965 612954 560706
0111110100110001000010000: 561428 641196 540965 612954 596741
0111110100110001000010000: 561428 641196 540965 612954 554132
0111110100110001000010000: 561428 641196 540965 612954 587182
0111110100110001000010000: 561428 641196 540965 612954 529487
0111010100110001000100010: 561428 641196 540965 612954 555264
0111010101110001000101010: 561428 641196 540965 612954 630274
0111110100110001000010000: 561428 641196 540965 517895 481409
0111110100110001000010000: 561428 641196 540965 517895 560706
0111110100110001000010000: 561428 641196 540965 517895 554132
0111110100110001000010000: 561428 641196 540965 517895 587182
0111110100110001000010000: 561428 641196 540965 517895 529487
0111110100110001000010000: 561428 641196 540965 517895 612954
0111010101110001000001000: 561428 641196 540965 517895 630274
0111110100110001000010000: 561428 641196 540965 602157 481409
0111110100110001000010000: 561428 641196 540965 602157 560706
0111110100110001000010000: 561428 641196 540965 602157 596741
0111110100110001000010000: 561428 641196 540965 602157 554132
0111110100110001000010000: 561428 641196 540965 602157 587182
0111110100110001000010000: 561428 641196 540965 602157 529487
0111110100110001000010000: 561428 641196 540965 602157 612954
0111110100110001000010000: 561428 641196 540965 602157 517895
0111010101110001000001000: 561428 641196 540965 602157 630274
0111010100110001000100010: 561428 641196 540965 602157 581438
0110010010100010100000100: 561428 554132 481409 543023 617534
0110010010100010100000100: 561428 554132 481409 543023 558899
0110010011100000100001000: 561428 554132 481409 504007 543023
0110010010100010100000100: 561428 554132 481409 504007 617534
0110010010100010100000100: 561428 554132 481409 504007 558899
0110010010100010100000100: 561428 554132 560706 504007 628720
0110010010100010100000100: 561428 554132 560706 504007 626870
0110010010100010100000100: 561428 554132 560706 504007 555264
0110010011100100110001000: 561428 554132 560706 543023 504007
0111110000100001000010000: 561428 554132 596741 560706 481409
0110010011100000100001000: 561428 554132 596741 504007 543023
0111110000100001000010000: 561428 554132 540965 560706 481409
0111110000100001000010000: 561428 554132 540965 596741 481409
0111110000100001000010000: 561428 554132 540965 596741 560706
0110010010100010100000100: 561428 554132 540965 543023 478113
0110010011100000100001000: 561428 554132 540965 504007 543023
0110010010100010100000100: 561428 554132 540965 504007 478113
0111110000100001000010000: 561428 554132 641196 560706 481409
0111110000100001000010000: 561428 554132 641196 596741 481409
0111110000100001000010000: 561428 554132 641196 596741 560706
0110010010100010100000100: 561428 554132 641196 543023 630274
0110010011100000100001000: 561428 554132 641196 504007 543023
0110010010100010100000100: 561428 554132 641196 504007 630274
0110010011100000100001000: 561428 554132 587182 504007 543023
0110010011100000100001000: 561428 554132 529487 504007 543023
0110010011100000100001000: 561428 554132 612954 504007 543023
0110010011100000100001000: 561428 554132 517895 504007 543023
0110010011100000100001000: 561428 554132 602157 504007 543023
0110010010100010100000100: 561428 587182 481409 639172 558899
0110010011100100110001000: 561428 587182 481409 617534 639172
0110010010100010100000100: 561428 587182 560706 617534 543023
0110010010100010100000100: 561428 587182 560706 617534 628720
0110010010100010100000100: 561428 587182 560706 617534 626870
0110010010100010100000100: 561428 587182 560706 617534 555264
0110010011100000100001000: 561428 587182 560706 639172 617534
0110010010100010100000100: 561428 587182 560706 639172 543023
0110010010100010100000100: 561428 587182 560706 639172 628720
0110010010100010100000100: 561428 587182 560706 639172 626870
0110010010100010100000100: 561428 587182 560706 639172 555264
0111110000100001000010000: 561428 587182 596741 560706 481409
0110010011100000100001000: 561428 587182 596741 639172 617534
0111110000100001000010000: 561428 587182 540965 560706 481409
0111110000100001000010000: 561428 587182 540965 596741 481409
0111110000100001000010000: 561428 587182 540965 596741 560706
0110010010100010100000100: 561428 587182 540965 617534 478113
0110010011100000100001000: 561428 587182 540965 639172 617534
0110010010100010100000100: 561428 587182 540965 639172 478113
0111110000100001000010000: 561428 587182 641196 560706 481409
0111110000100001000010000: 561428 587182 641196 596741 481409
0111110000100001000010000: 561428 587182 641196 596741 560706
0110010010100010100000100: 561428 587182 641196 617534 630274
0110010011100000100001000: 561428 587182 641196 639172 617534
0110010010100010100000100: 561428 587182 641196 639172 630274
0111110000100001000010000: 561428 587182 554132 560706 481409
0111110000100001000010000: 561428 587182 554132 596741 481409
0111110000100001000010000: 561428 587182 554132 596741 560706
0111110000100001000010000: 561428 587182 554132 540965 481409
0111110000100001000010000: 561428 587182 554132 540965 560706
0111110000100001000010000: 561428 587182 554132 540965 596741
0111110000100001000010000: 561428 587182 554132 641196 481409
0111110000100001000010000: 561428 587182 554132 641196 560706
0111110000100001000010000: 561428 587182 554132 641196 596741
0110010010100010100000100: 561428 587182 554132 617534 543023
0110010010100010100000100: 561428 587182 554132 617534 504007
0110010011100000100001000: 561428 587182 554132 639172 617534
0110010010100010100000100: 561428 587182 554132 639172 543023
0110010010100010100000100: 561428 587182 554132 639172 504007
0110010011100000100001000: 561428 587182 529487 639172 617534
0110010011100000100001000: 561428 587182 612954 639172 617534
0110010011100000100001000: 561428 587182 517895 639172 617534
0110010011100000100001000: 561428 587182 602157 639172 617534
0110010010100010100000100: 561428 529487 481409 628720 617534
0111110000100001000010000: 561428 529487 540965 560706 481409
0110010010100010100000100: 561428 529487 540965 628720 478113
0111110000100001000010000: 561428 529487 641196 560706 481409
0110010010100010100000100: 561428 529487 641196 628720 630274
0111110000100001000010000: 561428 529487 554132 560706 481409
0111110000100001000010000: 561428 529487 554132 540965 481409
0111110000100001000010000: 561428 529487 554132 540965 560706
0111110000100001000010000: 561428 529487 554132 641196 481409
0111110000100001000010000: 561428 529487 554132 641196 560706
0110010010100010100000100: 561428 529487 554132 628720 543023
0110010010100010100000100: 561428 529487 554132 628720 504007
0111110000100001000010000: 561428 529487 587182 560706 481409
0111110000100001000010000: 561428 529487 587182 540965 481409
0111110000100001000010000: 561428 529487 587182 540965 560706
0111110000100001000010000: 561428 529487 587182 641196 481409
0111110000100001000010000: 561428 529487 587182 641196 560706
0111110000100001000010000: 561428 529487 587182 554132 481409
0111110000100001000010000: 561428 529487 587182 554132 560706
0111110000100001000010000: 561428 529487 587182 554132 540965
0111110000100001000010000: 561428 529487 587182 554132 641196
0110010010100010100000100: 561428 529487 587182 628720 617534
0110010010100010100000100: 561428 529487 587182 628720 639172
0111010101110001000001000: 561428 529487 596741 481409 628720
0111010100110001000100010: 561428 529487 596741 481409 617534
0111010100110001000100010: 561428 529487 596741 481409 558899
0111110100110001000010000: 561428 529487 596741 560706 481409
0111010100110001000100010: 561428 529487 596741 560706 543023
0111010100110001000100010: 561428 529487 596741 560706 626870
0111010100110001000100010: 561428 529487 596741 560706 555264
0111010101110001000101010: 561428 529487 596741 560706 628720
0111110100110001000010000: 561428 529487 596741 540965 481409
0111110100110001000010000: 561428 529487 596741 540965 560706
0111010101110001000001000: 561428 529487 596741 540965 628720
0111010100110001000100010: 561428 529487 596741 540965 478113
0111110100110001000010000: 561428 529487 596741 641196 481409
0111110100110001000010000: 561428 529487 596741 641196 560706
0111010101110001000001000: 561428 529487 596741 641196 628720
0111010100110001000100010: 561428 529487 596741 641196 630274
0111110100110001000110010: 561428 529487 596741 641196 540965
0111110100110001000010000: 561428 529487 596741 554132 481409
0111110100110001000010000: 561428 529487 596741 554132 560706
0111110100110001000010000: 561428 529487 596741 554132 540965
0111110100110001000010000: 561428 529487 596741 554132 641196
0111010101110001000001000: 561428 529487 596741 554132 628720
0111010100110001000100010: 561428 529487 596741 554132 543023
0111010100110001000100010: 561428 529487 596741 554132 504007
0111110100110001000010000: 561428 529487 596741 587182 481409
0111110100110001000010000: 561428 529487 596741 587182 560706
0111110100110001000010000: 561428 529487 596741 587182 540965
0111110100110001000010000: 561428 529487 596741 587182 641196
0111110100110001000010000: 561428 529487 596741 587182 554132
0111010101110001000001000: 561428 529487 596741 587182 628720
0111010100110001000100010: 561428 529487 596741 587182 617534
0111010100110001000100010: 561428 529487 596741 587182 639172
0111110100110001000010000: 561428 529487 596741 612954 481409
0111110100110001000010000: 561428 529487 596741 612954 560706
0111110100110001000010000: 561428 529487 596741 612954 540965
0111110100110001000010000: 561428 529487 596741 612954 641196
0111110100110001000010000: 561428 529487 596741 612954 554132
0111110100110001000010000: 561428 529487 596741 612954 587182
0111010101110001000001000: 561428 529487 596741 612954 628720
0111010100110001000100010: 561428 529487 596741 612954 630274
0111010100110001000100010: 561428 529487 596741 612954 555264
0111110100110001000010000: 561428 529487 596741 602157 481409
0111110100110001000010000: 561428 529487 596741 602157 560706
0111110100110001000010000: 561428 529487 596741 602157 540965
0111110100110001000010000: 561428 529487 596741 602157 641196
0111110100110001000010000: 561428 529487 596741 602157 554132
0111110100110001000010000: 561428 529487 596741 602157 587182
0111110100110001000010000: 561428 529487 596741 602157 612954
0111010101110001000001000: 561428 529487 596741 602157 628720
0111010100110001000100010: 561428 529487 596741 602157 581438
0110010010100010100000100: 561428 612954 481409 630274 617534
0110010010100010100000100: 561428 612954 481409 630274 558899
0110010011100000100001000: 561428 612954 481409 555264 630274
0110010010100010100000100: 561428 612954 481409 555264 617534
0110010010100010100000100: 561428 612954 481409 555264 558899
0110010010100010100000100: 561428 612954 560706 630274 543023
0110010010100010100000100: 561428 612954 560706 630274 628720
0110010010100010100000100: 561428 612954 560706 630274 626870
0110010011100100110001000: 561428 612954 560706 555264 630274
0111110000100001000010000: 561428 612954 596741 560706 481409
0110010011100000100001000: 561428 612954 596741 555264 630274
0111110000100001000010000: 561428 612954 540965 560706 481409
0111110000100001000010000: 561428 612954 540965 596741 481409
0111110000100001000010000: 561428 612954 540965 596741 560706
0110010010100010100000100: 561428 612954 540965 630274 478113
0110010011100000100001000: 561428 612954 540965 555264 630274
0110010010100010100000100: 561428 612954 540965 555264 478113
0111110000100001000010000: 561428 612954 641196 560706 481409
0111110000100001000010000: 561428 612954 641196 596741 481409
0111110000100001000010000: 561428 612954 641196 596741 560706
0110010011100100110001000: 561428 612954 641196 630274 555264
0111110000100001000010000: 561428 612954 554132 560706 481409
0111110000100001000010000: 561428 612954 554132 596741 481409
0111110000100001000010000: 561428 612954 554132 596741 560706
0111110000100001000010000: 561428 612954 554132 540965 481409
0111110000100001000010000: 561428 612954 554132 540965 560706
0111110000100001000010000: 561428 612954 554132 540965 596741
0111110000100001000010000: 561428 612954 554132 641196 481409
0111110000100001000010000: 561428 612954 554132 641196 560706
0111110000100001000010000: 561428 612954 554132 641196 596741
0110010010100010100000100: 561428 612954 554132 630274 543023
0110010010100010100000100: 561428 612954 554132 630274 504007
0110010011100000100001000: 561428 612954 554132 555264 630274
0110010010100010100000100: 561428 612954 554132 555264 543023
0110010010100010100000100: 561428 612954 554132 555264 504007
0111110000100001000010000: 561428 612954 587182 560706 481409
0111110000100001000010000: 561428 612954 587182 596741 481409
0111110000100001000010000: 561428 612954 587182 596741 560706
0111110000100001000010000: 561428 612954 587182 540965 481409
0111110000100001000010000: 561428 612954 587182 540965 560706
0111110000100001000010000: 561428 612954 587182 540965 596741
0111110000100001000010000: 561428 612954 587182 641196 481409
0111110000100001000010000: 561428 612954 587182 641196 560706
0111110000100001000010000: 561428 612954 587182 641196 596741
0111110000100001000010000: 561428 612954 587182 554132 481409
0111110000100001000010000: 561428 612954 587182 554132 560706
0111110000100001000010000: 561428 612954 587182 554132 596741
0111110000100001000010000: 561428 612954 587182 554132 540965
0111110000100001000010000: 561428 612954 587182 554132 641196
0110010010100010100000100: 561428 612954 587182 630274 617534
0110010010100010100000100: 561428 612954 587182 630274 639172
0110010011100000100001000: 561428 612954 587182 555264 630274
0110010010100010100000100: 561428 612954 587182 555264 617534
0110010010100010100000100: 561428 612954 587182 555264 639172
0111110000100001000010000: 561428 612954 529487 560706 481409
0111110000100001000010000: 561428 612954 529487 540965 481409
0111110000100001000010000: 561428 612954 529487 540965 560706
0111110000100001000010000: 561428 612954 529487 641196 481409
0111110000100001000010000: 561428 612954 529487 641196 560706
0111110000100001000010000: 561428 612954 529487 554132 481409
0111110000100001000010000: 561428 612954 529487 554132 560706
0111110000100001000010000: 561428 612954 529487 554132 540965
0111110000100001000010000: 561428 612954 529487 554132 641196
0111110000100001000010000: 561428 612954 529487 587182 481409
0111110000100001000010000: 561428 612954 529487 587182 560706
0111110000100001000010000: 561428 612954 529487 587182 540965
0111110000100001000010000: 561428 612954 529487 587182 641196
0111110000100001000010000: 561428 612954 529487 587182 554132
0110010010100010100000100: 561428 612954 529487 630274 628720
0110010011100000100001000: 561428 612954 529487 555264 630274
0110010010100010100000100: 561428 612954 529487 555264 628720
0110010011100000100001000: 561428 612954 517895 555264 630274
0110010011100000100001000: 561428 612954 602157 555264 630274
0111110000100001000010000: 561428 517895 540965 560706 481409
0111110000100001000010000: 561428 517895 641196 560706 481409
0111110000100001000010000: 561428 517895 554132 560706 481409
0111110000100001000010000: 561428 517895 554132 540965 481409
0111110000100001000010000: 561428 517895 554132 540965 560706
0111110000100001000010000: 561428 517895 554132 641196 481409
0111110000100001000010000: 561428 517895 554132 641196 560706
0111110000100001000010000: 561428 517895 587182 560706 481409
0111110000100001000010000: 561428 517895 587182 540965 481409
0111110000100001000010000: 561428 517895 587182 540965 560706
0111110000100001000010000: 561428 517895 587182 641196 481409
0111110000100001000010000: 561428 517895 587182 641196 560706
0111110000100001000010000: 561428 517895 587182 554132 481409
0111110000100001000010000: 561428 517895 587182 554132 560706
0111110000100001000010000: 561428 517895 587182 554132 540965
0111110000100001000010000: 561428 517895 587182 554132 641196
0111110000100001000010000: 561428 517895 529487 560706 481409
0111110000100001000010000: 561428 517895 529487 540965 481409
0111110000100001000010000: 561428 517895 529487 540965 560706
0111110000100001000010000: 561428 517895 529487 641196 481409
0111110000100001000010000: 561428 517895 529487 641196 560706
0111110000100001000010000: 561428 517895 529487 554132 481409
0111110000100001000010000: 561428 517895 529487 554132 560706
0111110000100001000010000: 561428 517895 529487 554132 540965
0111110000100001000010000: 561428 517895 529487 554132 641196
0111110000100001000010000: 561428 517895 529487 587182 481409
0111110000100001000010000: 561428 517895 529487 587182 560706
0111110000100001000010000: 561428 517895 529487 587182 540965
0111110000100001000010000: 561428 517895 529487 587182 641196
0111110000100001000010000: 561428 517895 529487 587182 554132
0111110000100001000010000: 561428 517895 612954 560706 481409
0111110000100001000010000: 561428 517895 612954 540965 481409
0111110000100001000010000: 561428 517895 612954 540965 560706
0111110000100001000010000: 561428 517895 612954 641196 481409
0111110000100001000010000: 561428 517895 612954 641196 560706
0111110000100001000010000: 561428 517895 612954 554132 481409
0111110000100001000010000: 561428 517895 612954 554132 560706
0111110000100001000010000: 561428 517895 612954 554132 540965
0111110000100001000010000: 561428 517895 612954 554132 641196
0111110000100001000010000: 561428 517895 612954 587182 481409
0111110000100001000010000: 561428 517895 612954 587182 560706
0111110000100001000010000: 561428 517895 612954 587182 540965
0111110000100001000010000: 561428 517895 612954 587182 641196
0111110000100001000010000: 561428 517895 612954 587182 554132
0111110000100001000010000: 561428 517895 612954 529487 481409
0111110000100001000010000: 561428 517895 612954 529487 560706
0111110000100001000010000: 561428 517895 612954 529487 540965
0111110000100001000010000: 561428 517895 612954 529487 641196
0111110000100001000010000: 561428 517895 612954 529487 554132
0111110000100001000010000: 561428 517895 612954 529487 587182
0111010100110001000100010: 561428 517895 596741 481409 617534
0111010100110001000100010: 561428 517895 596741 481409 558899
0111110100110001000010000: 561428 517895 596741 560706 481409
0111010100110001000100010: 561428 517895 596741 560706 543023
0111010100110001000100010: 561428 517895 596741 560706 628720
0111010100110001000100010: 561428 517895 596741 560706 626870
0111010100110001000100010: 561428 517895 596741 560706 555264
0111110100110001000010000: 561428 517895 596741 540965 481409
0111110100110001000010000: 561428 517895 596741 540965 560706
0111010100110001000100010: 561428 517895 596741 540965 478113
0111110100110001000010000: 561428 517895 596741 641196 481409
0111110100110001000010000: 561428 517895 596741 641196 560706
0111010100110001000100010: 561428 517895 596741 641196 630274
0111110100110001000110010: 561428 517895 596741 641196 540965
0111110100110001000010000: 561428 517895 596741 554132 481409
0111110100110001000010000: 561428 517895 596741 554132 560706
0111110100110001000010000: 561428 517895 596741 554132 540965
0111110100110001000010000: 561428 517895 596741 554132 641196
0111010100110001000100010: 561428 517895 596741 554132 543023
0111010100110001000100010: 561428 517895 596741 554132 504007
0111110100110001000010000: 561428 517895 596741 587182 481409
0111110100110001000010000: 561428 517895 596741 587182 560706
0111110100110001000010000: 561428 517895 596741 587182 540965
0111110100110001000010000: 561428 517895 596741 587182 641196
0111110100110001000010000: 561428 517895 596741 587182 554132
0111010100110001000100010: 561428 517895 596741 587182 617534
0111010100110001000100010: 561428 517895 596741 587182 639172
0111110100110001000010000: 561428 517895 596741 612954 481409
0111110100110001000010000: 561428 517895 596741 612954 560706
0111110100110001000010000: 561428 517895 596741 612954 540965
0111110100110001000010000: 561428 517895 596741 612954 641196
0111110100110001000010000: 561428 517895 596741 612954 554132
0111110100110001000010000: 561428 517895 596741 612954 587182
0111010100110001000100010: 561428 517895 596741 612954 630274
0111010100110001000100010: 561428 517895 596741 612954 555264
0111110100110001000010000: 561428 517895 596741 602157 481409
0111110100110001000010000: 561428 517895 596741 602157 560706
0111110100110001000010000: 561428 517895 596741 602157 540965
0111110100110001000010000: 561428 517895 596741 602157 641196
0111110100110001000010000: 561428 517895 596741 602157 554132
0111110100110001000010000: 561428 517895 596741 602157 587182
0111110100110001000010000: 561428 517895 596741 602157 612954
0111010100110001000100010: 561428 517895 596741 602157 581438
0110010010100010100000100: 561428 602157 481409 581438 617534
0110010010100010100000100: 561428 602157 560706 581438 543023
0110010010100010100000100: 561428 602157 560706 581438 628720
0110010010100010100000100: 561428 602157 560706 581438 626870
0110010010100010100000100: 561428 602157 560706 581438 555264
0111110000100001000010000: 561428 602157 596741 560706 481409
0111110000100001000010000: 561428 602157 540965 560706 481409
0111110000100001000010000: 561428 602157 540965 596741 481409
0111110000100001000010000: 561428 602157 540965 596741 560706
0110010010100010100000100: 561428 602157 540965 581438 478113
0111110000100001000010000: 561428 602157 641196 560706 481409
0111110000100001000010000: 561428 602157 641196 596741 481409
0111110000100001000010000: 561428 602157 641196 596741 560706
0110010010100010100000100: 561428 602157 641196 581438 630274
0111110000100001000010000: 561428 602157 554132 560706 481409
0111110000100001000010000: 561428 602157 554132 596741 481409
0111110000100001000010000: 561428 602157 554132 596741 560706
0111110000100001000010000: 561428 602157 554132 540965 481409
0111110000100001000010000: 561428 602157 554132 540965 560706
0111110000100001000010000: 561428 602157 554132 540965 596741
0111110000100001000010000: 561428 602157 554132 641196 481409
0111110000100001000010000: 561428 602157 554132 641196 560706
0111110000100001000010000: 561428 602157 554132 641196 596741
0110010010100010100000100: 561428 602157 554132 581438 543023
0110010010100010100000100: 561428 602157 554132 581438 504007
0111110000100001000010000: 561428 602157 587182 560706 481409
0111110000100001000010000: 561428 602157 587182 596741 481409
0111110000100001000010000: 561428 602157 587182 596741 560706
0111110000100001000010000: 561428 602157 587182 540965 481409
0111110000100001000010000: 561428 602157 587182 540965 560706
0111110000100001000010000: 561428 602157 587182 540965 596741
0111110000100001000010000: 561428 602157 587182 641196 481409
0111110000100001000010000: 561428 602157 587182 641196 560706
0111110000100001000010000: 561428 602157 587182 641196 596741
0111110000100001000010000: 561428 602157 587182 554132 481409
0111110000100001000010000: 561428 602157 587182 554132 560706
0111110000100001000010000: 561428 602157 587182 554132 596741
0111110000100001000010000: 561428 602157 587182 554132 540965
0111110000100001000010000: 561428 602157 587182 554132 641196
0110010010100010100000100: 561428 602157 587182 581438 617534
0110010010100010100000100: 561428 602157 587182 581438 639172
0111110000100001000010000: 561428 602157 529487 560706 481409
0111110000100001000010000: 561428 602157 529487 540965 481409
0111110000100001000010000: 561428 602157 529487 540965 560706
0111110000100001000010000: 561428 602157 529487 641196 481409
0111110000100001000010000: 561428 602157 529487 641196 560706
0111110000100001000010000: 561428 602157 529487 554132 481409
0111110000100001000010000: 561428 602157 529487 554132 560706
0111110000100001000010000: 561428 602157 529487 554132 540965
0111110000100001000010000: 561428 602157 529487 554132 641196
0111110000100001000010000: 561428 602157 529487 587182 481409
0111110000100001000010000: 561428 602157 529487 587182 560706
0111110000100001000010000: 561428 602157 529487 587182 540965
0111110000100001000010000: 561428 602157 529487 587182 641196
0111110000100001000010000: 561428 602157 529487 587182 554132
0110010010100010100000100: 561428 602157 529487 581438 628720
0111110000100001000010000: 561428 602157 612954 560706 481409
0111110000100001000010000: 561428 602157 612954 596741 481409
0111110000100001000010000: 561428 602157 612954 596741 560706
0111110000100001000010000: 561428 602157 612954 540965 481409
0111110000100001000010000: 561428 602157 612954 540965 560706
0111110000100001000010000: 561428 602157 612954 540965 596741
0111110000100001000010000: 561428 602157 612954 641196 481409
0111110000100001000010000: 561428 602157 612954 641196 560706
0111110000100001000010000: 561428 602157 612954 641196 596741
0111110000100001000010000: 561428 602157 612954 554132 481409
0111110000100001000010000: 561428 602157 612954 554132 560706
0111110000100001000010000: 561428 602157 612954 554132 596741
0111110000100001000010000: 561428 602157 612954 554132 540965
0111110000100001000010000: 561428 602157 612954 554132 641196
0111110000100001000010000: 561428 602157 612954 587182 481409
0111110000100001000010000: 561428 602157 612954 587182 560706
0111110000100001000010000: 561428 602157 612954 587182 596741
0111110000100001000010000: 561428 602157 612954 587182 540965
0111110000100001000010000: 561428 602157 612954 587182 641196
0111110000100001000010000: 561428 602157 612954 587182 554132
0111110000100001000010000: 561428 602157 612954 529487 481409
0111110000100001000010000: 561428 602157 612954 529487 560706
0111110000100001000010000: 561428 602157 612954 529487 540965
0111110000100001000010000: 561428 602157 612954 529487 641196
0111110000100001000010000: 561428 602157 612954 529487 554132
0111110000100001000010000: 561428 602157 612954 529487 587182
0110010010100010100000100: 561428 602157 612954 581438 630274
0110010010100010100000100: 561428 602157 612954 581438 555264
0111110000100001000010000: 561428 602157 517895 560706 481409
0111110000100001000010000: 561428 602157 517895 540965 481409
0111110000100001000010000: 561428 602157 517895 540965 560706
0111110000100001000010000: 561428 602157 517895 641196 481409
0111110000100001000010000: 561428 602157 517895 641196 560706
0111110000100001000010000: 561428 602157 517895 554132 481409
0111110000100001000010000: 561428 602157 517895 554132 560706
0111110000100001000010000: 561428 602157 517895 554132 540965
0111110000100001000010000: 561428 602157 517895 554132 641196
0111110000100001000010000: 561428 602157 517895 587182 481409
0111110000100001000010000: 561428 602157 517895 587182 560706
0111110000100001000010000: 561428 602157 517895 587182 540965
0111110000100001000010000: 561428 602157 517895 587182 641196
0111110000100001000010000: 561428 602157 517895 587182 554132
0111110000100001000010000: 561428 602157 517895 529487 481409
0111110000100001000010000: 561428 602157 517895 529487 560706
0111110000100001000010000: 561428 602157 517895 529487 540965
0111110000100001000010000: 561428 602157 517895 529487 641196
0111110000100001000010000: 561428 602157 517895 529487 554132
0111110000100001000010000: 561428 602157 517895 529487 587182
0111110000100001000010000: 561428 602157 517895 612954 481409
0111110000100001000010000: 561428 602157 517895 612954 560706
0111110000100001000010000: 561428 602157 517895 612954 540965
0111110000100001000010000: 561428 602157 517895 612954 641196
0111110000100001000010000: 561428 602157 517895 612954 554132
0111110000100001000010000: 561428 602157 517895 612954 587182
0111110000100001000010000: 561428 602157 517895 612954 529487
0110010011100000100001000: 555264 560706 612954 628720 543023
0110010011100000100001000: 555264 560706 612954 626870 543023
0110010010100010100000100: 555264 612954 560706 630274 543023
0110010010100010100000100: 555264 612954 560706 630274 628720
0110010010100010100000100: 555264 612954 560706 630274 626870
0110010010100010100000100: 612954 555264 630274 560706 641196
0110010011100000100001000: 612954 561428 630274 560706 481409
0110010011100000100001000: 612954 561428 630274 596741 481409
0110010011100000100001000: 612954 561428 630274 596741 560706
0110010011100000100001000: 612954 561428 630274 540965 481409
0110010011100000100001000: 612954 561428 630274 540965 560706
0110010011100000100001000: 612954 561428 630274 540965 596741
0110010011100000100001000: 612954 561428 630274 554132 481409
0110010011100000100001000: 612954 561428 630274 554132 560706
0110010011100000100001000: 612954 561428 630274 554132 596741
0110010011100000100001000: 612954 561428 630274 554132 540965
0110010011100000100001000: 612954 561428 630274 587182 481409
0110010011100000100001000: 612954 561428 630274 587182 560706
0110010011100000100001000: 612954 561428 630274 587182 596741
0110010011100000100001000: 612954 561428 630274 587182 540965
0110010011100000100001000: 612954 561428 630274 587182 554132
0110010011100000100001000: 612954 561428 630274 529487 481409
0110010011100000100001000: 612954 561428 630274 529487 560706
0110010011100000100001000: 612954 561428 630274 529487 540965
0110010011100000100001000: 612954 561428 630274 529487 554132
0110010011100000100001000: 612954 561428 630274 529487 587182
0110010011100000100001000: 612954 561428 630274 517895 481409
0110010011100000100001000: 612954 561428 630274 517895 560706
0110010011100000100001000: 612954 561428 630274 517895 540965
0110010011100000100001000: 612954 561428 630274 517895 554132
0110010011100000100001000: 612954 561428 630274 517895 587182
0110010011100000100001000: 612954 561428 630274 517895 529487
0110010011100000100001000: 612954 561428 630274 602157 481409
0110010011100000100001000: 612954 561428 630274 602157 560706
0110010011100000100001000: 612954 561428 630274 602157 596741
0110010011100000100001000: 612954 561428 630274 602157 540965
0110010011100000100001000: 612954 561428 630274 602157 554132
0110010011100000100001000: 612954 561428 630274 602157 587182
0110010011100000100001000: 612954 561428 630274 602157 529487
0110010011100000100001000: 612954 561428 630274 602157 517895
0110010011100100110001000: 612954 561428 630274 641196 481409
0110010011100100110001000: 612954 561428 630274 641196 560706
0110010011100100110001000: 612954 561428 630274 641196 596741
0110010011100100110001000: 612954 561428 630274 641196 554132
0110010011100100110001000: 612954 561428 630274 641196 587182
0110010011100100110001000: 612954 561428 630274 641196 529487
0110010011100100110001000: 612954 561428 630274 641196 517895
0110010011100100110001000: 612954 561428 630274 641196 602157
0110010011100000100001000: 612954 561428 555264 596741 481409
0110010011100000100001000: 612954 561428 555264 540965 481409
0110010011100000100001000: 612954 561428 555264 540965 596741
0110010011100000100001000: 612954 561428 555264 641196 481409
0110010011100000100001000: 612954 561428 555264 641196 596741
0110010011100000100001000: 612954 561428 555264 554132 481409
0110010011100000100001000: 612954 561428 555264 554132 596741
0110010011100000100001000: 612954 561428 555264 554132 540965
0110010011100000100001000: 612954 561428 555264 554132 641196
0110010011100000100001000: 612954 561428 555264 587182 481409
0110010011100000100001000: 612954 561428 555264 587182 596741
0110010011100000100001000: 612954 561428 555264 587182 540965
0110010011100000100001000: 612954 561428 555264 587182 641196
0110010011100000100001000: 612954 561428 555264 587182 554132
0110010011100000100001000: 612954 561428 555264 529487 481409
0110010011100000100001000: 612954 561428 555264 529487 540965
0110010011100000100001000: 612954 561428 555264 529487 641196
0110010011100000100001000: 612954 561428 555264 529487 554132
0110010011100000100001000: 612954 561428 555264 529487 587182
0110010011100000100001000: 612954 561428 555264 517895 481409
0110010011100000100001000: 612954 561428 555264 517895 540965
0110010011100000100001000: 612954 561428 555264 517895 641196
0110010011100000100001000: 612954 561428 555264 517895 554132
0110010011100000100001000: 612954 561428 555264 517895 587182
0110010011100000100001000: 612954 561428 555264 517895 529487
0110010011100000100001000: 612954 561428 555264 602157 481409
0110010011100000100001000: 612954 561428 555264 602157 596741
0110010011100000100001000: 612954 561428 555264 602157 540965
0110010011100000100001000: 612954 561428 555264 602157 641196
0110010011100000100001000: 612954 561428 555264 602157 554132
0110010011100000100001000: 612954 561428 555264 602157 587182
0110010011100000100001000: 612954 561428 555264 602157 529487
0110010011100000100001000: 612954 561428 555264 602157 517895
0110010011100100110001000: 612954 561428 555264 560706 481409
0110010011100100110001000: 612954 561428 555264 560706 596741
0110010011100100110001000: 612954 561428 555264 560706 540965
0110010011100100110001000: 612954 561428 555264 560706 641196
0110010011100100110001000: 612954 561428 555264 560706 554132
0110010011100100110001000: 612954 561428 555264 560706 587182
0110010011100100110001000: 612954 561428 555264 560706 529487
0110010011100100110001000: 612954 561428 555264 560706 517895
0110010011100100110001000: 612954 561428 555264 560706 602157
0110010010100010100000100: 544183 626870 478113 560706 540965
0110010010100010100000100: 544183 626870 478113 628720 540965
0110010011100000100001000: 626870 560706 544183 555264 543023
0110010011100000100001000: 626870 560706 544183 561428 543023
0110010011100000100001000: 626870 560706 544183 561428 555264
0111010101110001000001000: 626870 560706 628720 544183 543023
0111010101110001000001000: 626870 560706 628720 544183 555264
0111010101110001000001000: 626870 560706 628720 544183 561428
0110010011100000100001000: 626870 628720 544183 558899 529487
0111010101110001000001000: 626870 628720 560706 544183 529487
0111010101110001000001000: 626870 628720 560706 544183 558899
0111010100110001000100010: 626870 628720 560706 544183 478113
0110010010100010100000100: 626870 544183 560706 478113 543023
0110010010100010100000100: 626870 544183 560706 478113 555264
0110010010100010100000100: 626870 544183 560706 478113 561428
0110010010100010100000100: 626870 544183 628720 478113 529487
0110010010100010100000100: 626870 544183 628720 478113 558899
0110010011100000100001000: 628720 560706 529487 555264 543023
0110010011100000100001000: 628720 560706 558899 555264 543023
0110010011100000100001000: 628720 560706 558899 561428 543023
0110010011100000100001000: 628720 560706 558899 561428 555264
0111010101110001000001000: 628720 560706 626870 529487 543023
0111010101110001000001000: 628720 560706 626870 529487 555264
0111010101110001000101010: 628720 560706 626870 529487 561428
0111010101110001000001000: 628720 560706 626870 558899 543023
0111010101110001000001000: 628720 560706 626870 558899 555264
0111010101110001000001000: 628720 560706 626870 558899 561428
0110010010100010100000100: 628720 529487 560706 596741 543023
0110010010100010100000100: 628720 529487 560706 596741 555264
0110010010100010100000100: 628720 626870 529487 544183 596741
0110010010100010100000100: 628720 626870 529487 544183 561428
0111010100110001000100010: 628720 626870 560706 529487 596741
0111110100110001000010000: 628720 626870 560706 558899 529487
0111010100110001000100010: 628720 626870 560706 558899 481409
0111010100110001000100010: 628720 626870 560706 558899 581438
0110010010100010100000100: 628720 558899 560706 481409 543023
0110010010100010100000100: 628720 558899 560706 481409 555264
0110010011100000100001000: 628720 558899 560706 581438 481409
0110010010100010100000100: 628720 558899 560706 581438 543023
0110010010100010100000100: 628720 558899 560706 581438 555264
0110010010100010100000100: 628720 558899 560706 581438 561428
0110010010100010100000100: 628720 558899 529487 481409 596741
0110010011100000100001000: 628720 558899 529487 581438 481409
0110010010100010100000100: 628720 558899 529487 581438 596741
0110010010100010100000100: 628720 558899 529487 581438 561428
0110010010100010100000100: 628720 558899 626870 481409 544183
0110010011100000100001000: 628720 558899 626870 581438 481409
0110010010100010100000100: 628720 558899 626870 581438 544183
0110010010100010100000100: 529487 628720 596741 560706 517895
0110010010100010100000100: 529487 628720 596741 626870 517895
0110010011100000100001000: 529487 628720 596741 558899 560706
0110010011100000100001000: 529487 628720 596741 558899 626870
0110010010100010100000100: 529487 628720 596741 558899 517895
0110010011100000100001000: 529487 628720 561428 558899 626870
0110010011100100110001000: 529487 628720 561428 560706 558899
0110010010100010100000100: 529487 561428 628720 481409 626870
0110010011100000100001000: 529487 561428 628720 540965 481409
0110010010100010100000100: 529487 561428 628720 540965 626870
0110010010100010100000100: 529487 561428 628720 540965 558899
0110010011100000100001000: 529487 561428 628720 641196 481409
0110010010100010100000100: 529487 561428 628720 641196 626870
0110010010100010100000100: 529487 561428 628720 641196 558899
0110010011100000100001000: 529487 561428 628720 554132 481409
0110010011100000100001000: 529487 561428 628720 554132 540965
0110010011100000100001000: 529487 561428 628720 554132 641196
0110010010100010100000100: 529487 561428 628720 554132 626870
0110010010100010100000100: 529487 561428 628720 554132 558899
0110010011100000100001000: 529487 561428 628720 587182 481409
0110010011100000100001000: 529487 561428 628720 587182 540965
0110010011100000100001000: 529487 561428 628720 587182 641196
0110010011100000100001000: 529487 561428 628720 587182 554132
0110010010100010100000100: 529487 561428 628720 587182 626870
0110010010100010100000100: 529487 561428 628720 587182 558899
0110010011100000100001000: 529487 561428 628720 612954 481409
0110010011100000100001000: 529487 561428 628720 612954 540965
0110010011100000100001000: 529487 561428 628720 612954 641196
0110010011100000100001000: 529487 561428 628720 612954 554132
0110010011100000100001000: 529487 561428 628720 612954 587182
0110010010100010100000100: 529487 561428 628720 612954 626870
0110010010100010100000100: 529487 561428 628720 612954 558899
0110010011100000100001000: 529487 561428 628720 517895 481409
0110010011100000100001000: 529487 561428 628720 517895 540965
0110010011100000100001000: 529487 561428 628720 517895 641196
0110010011100000100001000: 529487 561428 628720 517895 554132
0110010011100000100001000: 529487 561428 628720 517895 587182
0110010011100000100001000: 529487 561428 628720 517895 612954
0110010010100010100000100: 529487 561428 628720 517895 626870
0110010010100010100000100: 529487 561428 628720 517895 558899
0110010011100000100001000: 529487 561428 628720 602157 481409
0110010011100000100001000: 529487 561428 628720 602157 540965
0110010011100000100001000: 529487 561428 628720 602157 641196
0110010011100000100001000: 529487 561428 628720 602157 554132
0110010011100000100001000: 529487 561428 628720 602157 587182
0110010011100000100001000: 529487 561428 628720 602157 612954
0110010011100000100001000: 529487 561428 628720 602157 517895
0110010010100010100000100: 529487 561428 628720 602157 626870
0110010010100010100000100: 529487 561428 628720 602157 558899
0110010011100100110001000: 529487 561428 628720 560706 481409
0110010011100100110001000: 529487 561428 628720 560706 540965
0110010011100100110001000: 529487 561428 628720 560706 641196
0110010011100100110001000: 529487 561428 628720 560706 554132
0110010011100100110001000: 529487 561428 628720 560706 587182
0110010011100100110001000: 529487 561428 628720 560706 612954
0110010011100100110001000: 529487 561428 628720 560706 517895
0110010011100100110001000: 529487 561428 628720 560706 602157
0111010100110001000100010: 529487 561428 596741 628720 626870
0111010100110001000100010: 529487 561428 596741 628720 558899
0110010010100010100000100: 587182 639172 617534 619539 481409
0110010011100000100001000: 587182 561428 617534 596741 560706
0110010011100000100001000: 587182 561428 617534 540965 560706
0110010011100000100001000: 587182 561428 617534 540965 596741
0110010011100000100001000: 587182 561428 617534 641196 560706
0110010011100000100001000: 587182 561428 617534 641196 596741
0110010011100000100001000: 587182 561428 617534 554132 560706
0110010011100000100001000: 587182 561428 617534 554132 596741
0110010011100000100001000: 587182 561428 617534 554132 540965
0110010011100000100001000: 587182 561428 617534 554132 641196
0110010011100000100001000: 587182 561428 617534 529487 560706
0110010011100000100001000: 587182 561428 617534 529487 540965
0110010011100000100001000: 587182 561428 617534 529487 641196
0110010011100000100001000: 587182 561428 617534 529487 554132
0110010011100000100001000: 587182 561428 617534 612954 560706
0110010011100000100001000: 587182 561428 617534 612954 596741
0110010011100000100001000: 587182 561428 617534 612954 540965
0110010011100000100001000: 587182 561428 617534 612954 641196
0110010011100000100001000: 587182 561428 617534 612954 554132
0110010011100000100001000: 587182 561428 617534 612954 529487
0110010011100000100001000: 587182 561428 617534 517895 560706
0110010011100000100001000: 587182 561428 617534 517895 540965
0110010011100000100001000: 587182 561428 617534 517895 641196
0110010011100000100001000: 587182 561428 617534 517895 554132
0110010011100000100001000: 587182 561428 617534 517895 529487
0110010011100000100001000: 587182 561428 617534 517895 612954
0110010011100000100001000: 587182 561428 617534 602157 560706
0110010011100000100001000: 587182 561428 617534 602157 596741
0110010011100000100001000: 587182 561428 617534 602157 540965
0110010011100000100001000: 587182 561428 617534 602157 641196
0110010011100000100001000: 587182 561428 617534 602157 554132
0110010011100000100001000: 587182 561428 617534 602157 529487
0110010011100000100001000: 587182 561428 617534 602157 612954
0110010011100000100001000: 587182 561428 617534 602157 517895
0110010011100100110001000: 587182 561428 617534 481409 560706
0110010011100100110001000: 587182 561428 617534 481409 596741
0110010011100100110001000: 587182 561428 617534 481409 540965
0110010011100100110001000: 587182 561428 617534 481409 641196
0110010011100100110001000: 587182 561428 617534 481409 554132
0110010011100100110001000: 587182 561428 617534 481409 529487
0110010011100100110001000: 587182 561428 617534 481409 612954
0110010011100100110001000: 587182 561428 617534 481409 517895
0110010011100100110001000: 587182 561428 617534 481409 602157
0110010010100010100000100: 587182 561428 639172 481409 619539
0110010011100000100001000: 587182 561428 639172 560706 481409
0110010010100010100000100: 587182 561428 639172 560706 619539
0110010011100000100001000: 587182 561428 639172 596741 481409
0110010011100000100001000: 587182 561428 639172 596741 560706
0110010010100010100000100: 587182 561428 639172 596741 619539
0110010011100000100001000: 587182 561428 639172 540965 481409
0110010011100000100001000: 587182 561428 639172 540965 560706
0110010011100000100001000: 587182 561428 639172 540965 596741
0110010010100010100000100: 587182 561428 639172 540965 619539
0110010011100000100001000: 587182 561428 639172 641196 481409
0110010011100000100001000: 587182 561428 639172 641196 560706
0110010011100000100001000: 587182 561428 639172 641196 596741
0110010010100010100000100: 587182 561428 639172 641196 619539
0110010011100000100001000: 587182 561428 639172 554132 481409
0110010011100000100001000: 587182 561428 639172 554132 560706
0110010011100000100001000: 587182 561428 639172 554132 596741
0110010011100000100001000: 587182 561428 639172 554132 540965
0110010011100000100001000: 587182 561428 639172 554132 641196
0110010010100010100000100: 587182 561428 639172 554132 619539
0110010011100000100001000: 587182 561428 639172 529487 481409
0110010011100000100001000: 587182 561428 639172 529487 560706
0110010011100000100001000: 587182 561428 639172 529487 540965
0110010011100000100001000: 587182 561428 639172 529487 641196
0110010011100000100001000: 587182 561428 639172 529487 554132
0110010010100010100000100: 587182 561428 639172 529487 619539
0110010011100000100001000: 587182 561428 639172 612954 481409
0110010011100000100001000: 587182 561428 639172 612954 560706
0110010011100000100001000: 587182 561428 639172 612954 596741
0110010011100000100001000: 587182 561428 639172 612954 540965
0110010011100000100001000: 587182 561428 639172 612954 641196
0110010011100000100001000: 587182 561428 639172 612954 554132
0110010011100000100001000: 587182 561428 639172 612954 529487
0110010010100010100000100: 587182 561428 639172 612954 619539
0110010011100000100001000: 587182 561428 639172 517895 481409
0110010011100000100001000: 587182 561428 639172 517895 560706
0110010011100000100001000: 587182 561428 639172 517895 540965
0110010011100000100001000: 587182 561428 639172 517895 641196
0110010011100000100001000: 587182 561428 639172 517895 554132
0110010011100000100001000: 587182 561428 639172 517895 529487
0110010011100000100001000: 587182 561428 639172 517895 612954
0110010010100010100000100: 587182 561428 639172 517895 619539
0110010011100000100001000: 587182 561428 639172 602157 481409
0110010011100000100001000: 587182 561428 639172 602157 560706
0110010011100000100001000: 587182 561428 639172 602157 596741
0110010011100000100001000: 587182 561428 639172 602157 540965
0110010011100000100001000: 587182 561428 639172 602157 641196
0110010011100000100001000: 587182 561428 639172 602157 554132
0110010011100000100001000: 587182 561428 639172 602157 529487
0110010011100000100001000: 587182 561428 639172 602157 612954
0110010011100000100001000: 587182 561428 639172 602157 517895
0110010010100010100000100: 587182 561428 639172 602157 619539
0110010011100000100001000: 639172 587182 619539 561428 617534
0110010010100010100000100: 639172 619539 587182 555490 617534
0110010010100010100000100: 639172 619539 587182 555490 561428
0110010011100000100001000: 504007 554132 574050 561428 543023
0110010010100010100000100: 554132 504007 543023 574050 560706
0110010011100000100001000: 554132 561428 543023 596741 481409
0110010011100000100001000: 554132 561428 543023 540965 481409
0110010011100000100001000: 554132 561428 543023 540965 596741
0110010011100000100001000: 554132 561428 543023 641196 481409
0110010011100000100001000: 554132 561428 543023 641196 596741
0110010011100000100001000: 554132 561428 543023 587182 481409
0110010011100000100001000: 554132 561428 543023 587182 596741
0110010011100000100001000: 554132 561428 543023 587182 540965
0110010011100000100001000: 554132 561428 543023 587182 641196
0110010011100000100001000: 554132 561428 543023 529487 481409
0110010011100000100001000: 554132 561428 543023 529487 540965
0110010011100000100001000: 554132 561428 543023 529487 641196
0110010011100000100001000: 554132 561428 543023 529487 587182
0110010011100000100001000: 554132 561428 543023 612954 481409
0110010011100000100001000: 554132 561428 543023 612954 596741
0110010011100000100001000: 554132 561428 543023 612954 540965
0110010011100000100001000: 554132 561428 543023 612954 641196
0110010011100000100001000: 554132 561428 543023 612954 587182
0110010011100000100001000: 554132 561428 543023 612954 529487
0110010011100000100001000: 554132 561428 543023 517895 481409
0110010011100000100001000: 554132 561428 543023 517895 540965
0110010011100000100001000: 554132 561428 543023 517895 641196
0110010011100000100001000: 554132 561428 543023 517895 587182
0110010011100000100001000: 554132 561428 543023 517895 529487
0110010011100000100001000: 554132 561428 543023 517895 612954
0110010011100000100001000: 554132 561428 543023 602157 481409
0110010011100000100001000: 554132 561428 543023 602157 596741
0110010011100000100001000: 554132 561428 543023 602157 540965
0110010011100000100001000: 554132 561428 543023 602157 641196
0110010011100000100001000: 554132 561428 543023 602157 587182
0110010011100000100001000: 554132 561428 543023 602157 529487
0110010011100000100001000: 554132 561428 543023 602157 612954
0110010011100000100001000: 554132 561428 543023 602157 517895
0110010011100100110001000: 554132 561428 543023 560706 481409
0110010011100100110001000: 554132 561428 543023 560706 596741
0110010011100100110001000: 554132 561428 543023 560706 540965
0110010011100100110001000: 554132 561428 543023 560706 641196
0110010011100100110001000: 554132 561428 543023 560706 587182
0110010011100100110001000: 554132 561428 543023 560706 529487
0110010011100100110001000: 554132 561428 543023 560706 612954
0110010011100100110001000: 554132 561428 543023 560706 517895
0110010011100100110001000: 554132 561428 543023 560706 602157
0110010010100010100000100: 554132 561428 504007 481409 574050
0110010011100000100001000: 554132 561428 504007 560706 481409
0110010010100010100000100: 554132 561428 504007 560706 574050
0110010011100000100001000: 554132 561428 504007 596741 481409
0110010011100000100001000: 554132 561428 504007 596741 560706
0110010010100010100000100: 554132 561428 504007 596741 574050
0110010011100000100001000: 554132 561428 504007 540965 481409
0110010011100000100001000: 554132 561428 504007 540965 560706
0110010011100000100001000: 554132 561428 504007 540965 596741
0110010010100010100000100: 554132 561428 504007 540965 574050
0110010011100000100001000: 554132 561428 504007 641196 481409
0110010011100000100001000: 554132 561428 504007 641196 560706
0110010011100000100001000: 554132 561428 504007 641196 596741
0110010010100010100000100: 554132 561428 504007 641196 574050
0110010011100000100001000: 554132 561428 504007 587182 481409
0110010011100000100001000: 554132 561428 504007 587182 560706
0110010011100000100001000: 554132 561428 504007 587182 596741
0110010011100000100001000: 554132 561428 504007 587182 540965
0110010011100000100001000: 554132 561428 504007 587182 641196
0110010010100010100000100: 554132 561428 504007 587182 574050
0110010011100000100001000: 554132 561428 504007 529487 481409
0110010011100000100001000: 554132 561428 504007 529487 560706
0110010011100000100001000: 554132 561428 504007 529487 540965
0110010011100000100001000: 554132 561428 504007 529487 641196
0110010011100000100001000: 554132 561428 504007 529487 587182
0110010010100010100000100: 554132 561428 504007 529487 574050
0110010011100000100001000: 554132 561428 504007 612954 481409
0110010011100000100001000: 554132 561428 504007 612954 560706
0110010011100000100001000: 554132 561428 504007 612954 596741
0110010011100000100001000: 554132 561428 504007 612954 540965
0110010011100000100001000: 554132 561428 504007 612954 641196
0110010011100000100001000: 554132 561428 504007 612954 587182
0110010011100000100001000: 554132 561428 504007 612954 529487
0110010010100010100000100: 554132 561428 504007 612954 574050
0110010011100000100001000: 554132 561428 504007 517895 481409
0110010011100000100001000: 554132 561428 504007 517895 560706
0110010011100000100001000: 554132 561428 504007 517895 540965
0110010011100000100001000: 554132 561428 504007 517895 641196
0110010011100000100001000: 554132 561428 504007 517895 587182
0110010011100000100001000: 554132 561428 504007 517895 529487
0110010011100000100001000: 554132 561428 504007 517895 612954
0110010010100010100000100: 554132 561428 504007 517895 574050
0110010011100000100001000: 554132 561428 504007 602157 481409
0110010011100000100001000: 554132 561428 504007 602157 560706
0110010011100000100001000: 554132 561428 504007 602157 596741
0110010011100000100001000: 554132 561428 504007 602157 540965
0110010011100000100001000: 554132 561428 504007 602157 641196
0110010011100000100001000: 554132 561428 504007 602157 587182
0110010011100000100001000: 554132 561428 504007 602157 529487
0110010011100000100001000: 554132 561428 504007 602157 612954
0110010011100000100001000: 554132 561428 504007 602157 517895
0110010010100010100000100: 554132 561428 504007 602157 574050
0110010010100010100000100: 641196 540965 630274 478113 612954
0111010101110001000001000: 641196 540965 561428 630274 478113
0110010011100000100001000: 641196 561428 630274 560706 481409
0110010011100000100001000: 641196 561428 630274 596741 481409
0110010011100000100001000: 641196 561428 630274 596741 560706
0110010011100000100001000: 641196 561428 630274 554132 481409
0110010011100000100001000: 641196 561428 630274 554132 560706
0110010011100000100001000: 641196 561428 630274 554132 596741
0110010011100000100001000: 641196 561428 630274 587182 481409
0110010011100000100001000: 641196 561428 630274 587182 560706
0110010011100000100001000: 641196 561428 630274 587182 596741
0110010011100000100001000: 641196 561428 630274 587182 554132
0110010011100000100001000: 641196 561428 630274 529487 481409
0110010011100000100001000: 641196 561428 630274 529487 560706
0110010011100000100001000: 641196 561428 630274 529487 554132
0110010011100000100001000: 641196 561428 630274 529487 587182
0110010011100000100001000: 641196 561428 630274 517895 481409
0110010011100000100001000: 641196 561428 630274 517895 560706
0110010011100000100001000: 641196 561428 630274 517895 554132
0110010011100000100001000: 641196 561428 630274 517895 587182
0110010011100000100001000: 641196 561428 630274 517895 529487
0110010011100000100001000: 641196 561428 630274 602157 481409
0110010011100000100001000: 641196 561428 630274 602157 560706
0110010011100000100001000: 641196 561428 630274 602157 596741
0110010011100000100001000: 641196 561428 630274 602157 554132
0110010011100000100001000: 641196 561428 630274 602157 587182
0110010011100000100001000: 641196 561428 630274 602157 529487
0110010011100000100001000: 641196 561428 630274 602157 517895
0110010010100010100000100: 540965 641196 478113 630274 544183
0110010010100010100000100: 540965 561428 478113 481409 544183
0110010011100000100001000: 540965 561428 478113 560706 481409
0110010010100010100000100: 540965 561428 478113 560706 544183
0110010011100000100001000: 540965 561428 478113 596741 481409
0110010011100000100001000: 540965 561428 478113 596741 560706
0110010010100010100000100: 540965 561428 478113 596741 544183
0110010011100000100001000: 540965 561428 478113 554132 481409
0110010011100000100001000: 540965 561428 478113 554132 560706
0110010011100000100001000: 540965 561428 478113 554132 596741
0110010010100010100000100: 540965 561428 478113 554132 544183
0110010011100000100001000: 540965 561428 478113 587182 481409
0110010011100000100001000: 540965 561428 478113 587182 560706
0110010011100000100001000: 540965 561428 478113 587182 596741
0110010011100000100001000: 540965 561428 478113 587182 554132
0110010010100010100000100: 540965 561428 478113 587182 544183
0110010011100000100001000: 540965 561428 478113 529487 481409
0110010011100000100001000: 540965 561428 478113 529487 560706
0110010011100000100001000: 540965 561428 478113 529487 554132
0110010011100000100001000: 540965 561428 478113 529487 587182
0110010010100010100000100: 540965 561428 478113 529487 544183
0110010011100000100001000: 540965 561428 478113 612954 481409
0110010011100000100001000: 540965 561428 478113 612954 560706
0110010011100000100001000: 540965 561428 478113 612954 596741
0110010011100000100001000: 540965 561428 478113 612954 554132
0110010011100000100001000: 540965 561428 478113 612954 587182
0110010011100000100001000: 540965 561428 478113 612954 529487
0110010010100010100000100: 540965 561428 478113 612954 544183
0110010011100000100001000: 540965 561428 478113 517895 481409
0110010011100000100001000: 540965 561428 478113 517895 560706
0110010011100000100001000: 540965 561428 478113 517895 554132
0110010011100000100001000: 540965 561428 478113 517895 587182
0110010011100000100001000: 540965 561428 478113 517895 529487
0110010011100000100001000: 540965 561428 478113 517895 612954
0110010010100010100000100: 540965 561428 478113 517895 544183
0110010011100000100001000: 540965 561428 478113 602157 481409
0110010011100000100001000: 540965 561428 478113 602157 560706
0110010011100000100001000: 540965 561428 478113 602157 596741
0110010011100000100001000: 540965 561428 478113 602157 554132
0110010011100000100001000: 540965 561428 478113 602157 587182
0110010011100000100001000: 540965 561428 478113 602157 529487
0110010011100000100001000: 540965 561428 478113 602157 612954
0110010011100000100001000: 540965 561428 478113 602157 517895
0110010010100010100000100: 540965 561428 478113 602157 544183
0111010100110001000100010: 540965 561428 641196 478113 544183
0110010010100010100000100: 478113 544183 540965 626870 641196
0110010010100010100000100: 478113 544183 540965 626870 561428
0110010010100010100000100: 630274 612954 641196 555264 540965
0110010010100010100000100: 560706 628720 543023 529487 554132
0110010011100000100001000: 560706 628720 543023 558899 529487
0110010010100010100000100: 560706 628720 543023 558899 554132
0110010011100000100001000: 560706 628720 555264 558899 529487
0110010010100010100000100: 560706 626870 543023 544183 554132
0111010100110001000100010: 560706 626870 628720 543023 554132
0111110100110001000010000: 560706 626870 628720 555264 543023
0111010100110001000100010: 560706 626870 628720 555264 612954
0111110100110001000010000: 560706 626870 628720 561428 543023
0111110100110001000010000: 560706 626870 628720 561428 555264
0111010100110001000100010: 560706 626870 628720 561428 481409
0111010100110001000100010: 560706 626870 628720 561428 596741
0111010100110001000100010: 560706 626870 628720 561428 540965
0111010100110001000100010: 560706 626870 628720 561428 641196
0111010100110001000100010: 560706 626870 628720 561428 554132
0111010100110001000100010: 560706 626870 628720 561428 587182
0111010100110001000100010: 560706 626870 628720 561428 612954
0111010100110001000100010: 560706 626870 628720 561428 517895
0111010100110001000100010: 560706 626870 628720 561428 602157
0110010010100010100000100: 560706 555264 543023 612954 554132
0110010010100010100000100: 560706 555264 628720 612954 529487
0110010010100010100000100: 560706 555264 628720 612954 558899
0110010010100010100000100: 560706 555264 626870 612954 544183
0110010011100000100001000: 560706 561428 543023 596741 481409
0110010011100000100001000: 560706 561428 543023 540965 481409
0110010011100000100001000: 560706 561428 543023 540965 596741
0110010011100000100001000: 560706 561428 543023 641196 481409
0110010011100000100001000: 560706 561428 543023 641196 596741
0110010011100000100001000: 560706 561428 543023 587182 481409
0110010011100000100001000: 560706 561428 543023 587182 596741
0110010011100000100001000: 560706 561428 543023 587182 540965
0110010011100000100001000: 560706 561428 543023 587182 641196
0110010011100000100001000: 560706 561428 543023 529487 481409
0110010011100000100001000: 560706 561428 543023 529487 540965
0110010011100000100001000: 560706 561428 543023 529487 641196
0110010011100000100001000: 560706 561428 543023 529487 587182
0110010011100000100001000: 560706 561428 543023 612954 481409
0110010011100000100001000: 560706 561428 543023 612954 596741
0110010011100000100001000: 560706 561428 543023 612954 540965
0110010011100000100001000: 560706 561428 543023 612954 641196
0110010011100000100001000: 560706 561428 543023 612954 587182
0110010011100000100001000: 560706 561428 543023 612954 529487
0110010011100000100001000: 560706 561428 543023 517895 481409
0110010011100000100001000: 560706 561428 543023 517895 540965
0110010011100000100001000: 560706 561428 543023 517895 641196
0110010011100000100001000: 560706 561428 543023 517895 587182
0110010011100000100001000: 560706 561428 543023 517895 529487
0110010011100000100001000: 560706 561428 543023 517895 612954
0110010011100000100001000: 560706 561428 543023 602157 481409
0110010011100000100001000: 560706 561428 543023 602157 596741
0110010011100000100001000: 560706 561428 543023 602157 540965
0110010011100000100001000: 560706 561428 543023 602157 641196
0110010011100000100001000: 560706 561428 543023 602157 587182
0110010011100000100001000: 560706 561428 543023 602157 529487
0110010011100000100001000: 560706 561428 543023 602157 612954
0110010011100000100001000: 560706 561428 543023 602157 517895
0110010011100000100001000: 560706 561428 628720 596741 481409
0110010010100010100000100: 560706 561428 628720 596741 558899
0110010011100000100001000: 560706 561428 628720 540965 481409
0110010011100000100001000: 560706 561428 628720 540965 596741
0110010010100010100000100: 560706 561428 628720 540965 558899
0110010011100000100001000: 560706 561428 628720 641196 481409
0110010011100000100001000: 560706 561428 628720 641196 596741
0110010010100010100000100: 560706 561428 628720 641196 558899
0110010011100000100001000: 560706 561428 628720 554132 481409
0110010011100000100001000: 560706 561428 628720 554132 596741
0110010011100000100001000: 560706 561428 628720 554132 540965
0110010011100000100001000: 560706 561428 628720 554132 641196
0110010010100010100000100: 560706 561428 628720 554132 558899
0110010011100000100001000: 560706 561428 628720 587182 481409
0110010011100000100001000: 560706 561428 628720 587182 596741
0110010011100000100001000: 560706 561428 628720 587182 540965
0110010011100000100001000: 560706 561428 628720 587182 641196
0110010011100000100001000: 560706 561428 628720 587182 554132
0110010010100010100000100: 560706 561428 628720 587182 558899
0110010011100000100001000: 560706 561428 628720 612954 481409
0110010011100000100001000: 560706 561428 628720 612954 596741
0110010011100000100001000: 560706 561428 628720 612954 540965
0110010011100000100001000: 560706 561428 628720 612954 641196
0110010011100000100001000: 560706 561428 628720 612954 554132
0110010011100000100001000: 560706 561428 628720 612954 587182
0110010010100010100000100: 560706 561428 628720 612954 558899
0110010011100000100001000: 560706 561428 628720 517895 481409
0110010011100000100001000: 560706 561428 628720 517895 540965
0110010011100000100001000: 560706 561428 628720 517895 641196
0110010011100000100001000: 560706 561428 628720 517895 554132
0110010011100000100001000: 560706 561428 628720 517895 587182
0110010011100000100001000: 560706 561428 628720 517895 612954
0110010010100010100000100: 560706 561428 628720 517895 558899
0110010011100000100001000: 560706 561428 628720 602157 481409
0110010011100000100001000: 560706 561428 628720 602157 596741
0110010011100000100001000: 560706 561428 628720 602157 540965
0110010011100000100001000: 560706 561428 628720 602157 641196
0110010011100000100001000: 560706 561428 628720 602157 554132
0110010011100000100001000: 560706 561428 628720 602157 587182
0110010011100000100001000: 560706 561428 628720 602157 612954
0110010011100000100001000: 560706 561428 628720 602157 517895
0110010010100010100000100: 560706 561428 628720 602157 558899
0110010010100010100000100: 560706 561428 626870 481409 544183
0110010011100000100001000: 560706 561428 626870 596741 481409
0110010010100010100000100: 560706 561428 626870 596741 544183
0110010011100000100001000: 560706 561428 626870 540965 481409
0110010011100000100001000: 560706 561428 626870 540965 596741
0110010010100010100000100: 560706 561428 626870 540965 544183
0110010011100000100001000: 560706 561428 626870 641196 481409
0110010011100000100001000: 560706 561428 626870 641196 596741
0110010010100010100000100: 560706 561428 626870 641196 544183
0110010011100000100001000: 560706 561428 626870 554132 481409
0110010011100000100001000: 560706 561428 626870 554132 596741
0110010011100000100001000: 560706 561428 626870 554132 540965
0110010011100000100001000: 560706 561428 626870 554132 641196
0110010010100010100000100: 560706 561428 626870 554132 544183
0110010011100000100001000: 560706 561428 626870 587182 481409
0110010011100000100001000: 560706 561428 626870 587182 596741
0110010011100000100001000: 560706 561428 626870 587182 540965
0110010011100000100001000: 560706 561428 626870 587182 641196
0110010011100000100001000: 560706 561428 626870 587182 554132
0110010010100010100000100: 560706 561428 626870 587182 544183
0110010011100000100001000: 560706 561428 626870 529487 481409
0110010011100000100001000: 560706 561428 626870 529487 540965
0110010011100000100001000: 560706 561428 626870 529487 641196
0110010011100000100001000: 560706 561428 626870 529487 554132
0110010011100000100001000: 560706 561428 626870 529487 587182
0110010010100010100000100: 560706 561428 626870 529487 544183
0110010011100000100001000: 560706 561428 626870 612954 481409
0110010011100000100001000: 560706 561428 626870 612954 596741
0110010011100000100001000: 560706 561428 626870 612954 540965
0110010011100000100001000: 560706 561428 626870 612954 641196
0110010011100000100001000: 560706 561428 626870 612954 554132
0110010011100000100001000: 560706 561428 626870 612954 587182
0110010011100000100001000: 560706 561428 626870 612954 529487
0110010010100010100000100: 560706 561428 626870 612954 544183
0110010011100000100001000: 560706 561428 626870 517895 481409
0110010011100000100001000: 560706 561428 626870 517895 540965
0110010011100000100001000: 560706 561428 626870 517895 641196
0110010011100000100001000: 560706 561428 626870 517895 554132
0110010011100000100001000: 560706 561428 626870 517895 587182
0110010011100000100001000: 560706 561428 626870 517895 529487
0110010011100000100001000: 560706 561428 626870 517895 612954
0110010010100010100000100: 560706 561428 626870 517895 544183
0110010011100000100001000: 560706 561428 626870 602157 481409
0110010011100000100001000: 560706 561428 626870 602157 596741
0110010011100000100001000: 560706 561428 626870 602157 540965
0110010011100000100001000: 560706 561428 626870 602157 641196
0110010011100000100001000: 560706 561428 626870 602157 554132
0110010011100000100001000: 560706 561428 626870 602157 587182
0110010011100000100001000: 560706 561428 626870 602157 529487
0110010011100000100001000: 560706 561428 626870 602157 612954
0110010011100000100001000: 560706 561428 626870 602157 517895
0110010010100010100000100: 560706 561428 626870 602157 544183
0111110000100001000010000: 560706 561428 555264 628720 543023
0111110000100001000010000: 560706 561428 555264 626870 543023
0110010011100000100001000: 560706 561428 555264 596741 481409
0110010011100000100001000: 560706 561428 555264 540965 481409
0110010011100000100001000: 560706 561428 555264 540965 596741
0110010011100000100001000: 560706 561428 555264 641196 481409
0110010011100000100001000: 560706 561428 555264 641196 596741
0110010011100000100001000: 560706 561428 555264 554132 481409
0110010011100000100001000: 560706 561428 555264 554132 596741
0110010011100000100001000: 560706 561428 555264 554132 540965
0110010011100000100001000: 560706 561428 555264 554132 641196
0110010011100000100001000: 560706 561428 555264 587182 481409
0110010011100000100001000: 560706 561428 555264 587182 596741
0110010011100000100001000: 560706 561428 555264 587182 540965
0110010011100000100001000: 560706 561428 555264 587182 641196
0110010011100000100001000: 560706 561428 555264 587182 554132
0110010011100000100001000: 560706 561428 555264 529487 481409
0110010011100000100001000: 560706 561428 555264 529487 540965
0110010011100000100001000: 560706 561428 555264 529487 641196
0110010011100000100001000: 560706 561428 555264 529487 554132
0110010011100000100001000: 560706 561428 555264 529487 587182
0110010011100000100001000: 560706 561428 555264 517895 481409
0110010011100000100001000: 560706 561428 555264 517895 540965
0110010011100000100001000: 560706 561428 555264 517895 641196
0110010011100000100001000: 560706 561428 555264 517895 554132
0110010011100000100001000: 560706 561428 555264 517895 587182
0110010011100000100001000: 560706 561428 555264 517895 529487
0110010011100000100001000: 560706 561428 555264 602157 481409
0110010011100000100001000: 560706 561428 555264 602157 596741
0110010011100000100001000: 560706 561428 555264 602157 540965
0110010011100000100001000: 560706 561428 555264 602157 641196
0110010011100000100001000: 560706 561428 555264 602157 554132
0110010011100000100001000: 560706 561428 555264 602157 587182
0110010011100000100001000: 560706 561428 555264 602157 529487
0110010011100000100001000: 560706 561428 555264 602157 517895
0110010011100000100001000: 543023 560706 554132 555264 628720
0110010011100000100001000: 543023 560706 554132 555264 626870
0110010010100010100000100: 543023 554132 560706 504007 628720
0110010010100010100000100: 543023 554132 560706 504007 626870
0110010010100010100000100: 543023 554132 560706 504007 555264
0110010011100000100001000: 481409 561428 617534 596741 560706
0110010011100000100001000: 481409 561428 617534 540965 560706
0110010011100000100001000: 481409 561428 617534 540965 596741
0110010011100000100001000: 481409 561428 617534 641196 560706
0110010011100000100001000: 481409 561428 617534 641196 596741
0110010011100000100001000: 481409 561428 617534 554132 560706
0110010011100000100001000: 481409 561428 617534 554132 596741
0110010011100000100001000: 481409 561428 617534 554132 540965
0110010011100000100001000: 481409 561428 617534 554132 641196
0110010011100000100001000: 481409 561428 617534 529487 560706
0110010011100000100001000: 481409 561428 617534 529487 540965
0110010011100000100001000: 481409 561428 617534 529487 641196
0110010011100000100001000: 481409 561428 617534 529487 554132
0110010011100000100001000: 481409 561428 617534 612954 560706
0110010011100000100001000: 481409 561428 617534 612954 596741
0110010011100000100001000: 481409 561428 617534 612954 540965
0110010011100000100001000: 481409 561428 617534 612954 641196
0110010011100000100001000: 481409 561428 617534 612954 554132
0110010011100000100001000: 481409 561428 617534 612954 529487
0110010011100000100001000: 481409 561428 617534 517895 560706
0110010011100000100001000: 481409 561428 617534 517895 540965
0110010011100000100001000: 481409 561428 617534 517895 641196
0110010011100000100001000: 481409 561428 617534 517895 554132
0110010011100000100001000: 481409 561428 617534 517895 529487
0110010011100000100001000: 481409 561428 617534 517895 612954
0110010011100000100001000: 481409 561428 617534 602157 560706
0110010011100000100001000: 481409 561428 617534 602157 596741
0110010011100000100001000: 481409 561428 617534 602157 540965
0110010011100000100001000: 481409 561428 617534 602157 641196
0110010011100000100001000: 481409 561428 617534 602157 554132
0110010011100000100001000: 481409 561428 617534 602157 529487
0110010011100000100001000: 481409 561428 617534 602157 612954
0110010011100000100001000: 481409 561428 617534 602157 517895
0110010011100000100001000: 481409 561428 558899 596741 560706
0110010011100000100001000: 481409 561428 558899 540965 560706
0110010011100000100001000: 481409 561428 558899 540965 596741
0110010011100000100001000: 481409 561428 558899 641196 560706
0110010011100000100001000: 481409 561428 558899 641196 596741
0110010011100000100001000: 481409 561428 558899 554132 560706
0110010011100000100001000: 481409 561428 558899 554132 596741
0110010011100000100001000: 481409 561428 558899 554132 540965
0110010011100000100001000: 481409 561428 558899 554132 641196
0110010011100000100001000: 481409 561428 558899 587182 560706
0110010011100000100001000: 481409 561428 558899 587182 596741
0110010011100000100001000: 481409 561428 558899 587182 540965
0110010011100000100001000: 481409 561428 558899 587182 641196
0110010011100000100001000: 481409 561428 558899 587182 554132
0110010011100000100001000: 481409 561428 558899 529487 560706
0110010011100000100001000: 481409 561428 558899 529487 540965
0110010011100000100001000: 481409 561428 558899 529487 641196
0110010011100000100001000: 481409 561428 558899 529487 554132
0110010011100000100001000: 481409 561428 558899 529487 587182
0110010011100000100001000: 481409 561428 558899 612954 560706
0110010011100000100001000: 481409 561428 558899 612954 596741
0110010011100000100001000: 481409 561428 558899 612954 540965
0110010011100000100001000: 481409 561428 558899 612954 641196
0110010011100000100001000: 481409 561428 558899 612954 554132
0110010011100000100001000: 481409 561428 558899 612954 587182
0110010011100000100001000: 481409 561428 558899 612954 529487
0110010011100000100001000: 481409 561428 558899 517895 560706
0110010011100000100001000: 481409 561428 558899 517895 540965
0110010011100000100001000: 481409 561428 558899 517895 641196
0110010011100000100001000: 481409 561428 558899 517895 554132
0110010011100000100001000: 481409 561428 558899 517895 587182
0110010011100000100001000: 481409 561428 558899 517895 529487
0110010011100000100001000: 481409 561428 558899 517895 612954
0110010011100000100001000: 481409 561428 558899 602157 560706
0110010011100000100001000: 481409 561428 558899 602157 596741
0110010011100000100001000: 481409 561428 558899 602157 540965
0110010011100000100001000: 481409 561428 558899 602157 641196
0110010011100000100001000: 481409 561428 558899 602157 554132
0110010011100000100001000: 481409 561428 558899 602157 587182
0110010011100000100001000: 481409 561428 558899 602157 529487
0110010011100000100001000: 481409 561428 558899 602157 612954
0110010011100000100001000: 481409 561428 558899 602157 517895
0110010010100010100000100: 481409 558899 617534 628720 587182
0110010011100000100001000: 481409 558899 617534 581438 628720
0110010010100010100000100: 481409 558899 617534 581438 587182
0110010010100010100000100: 481409 558899 561428 628720 596741
0110010010100010100000100: 481409 558899 561428 628720 540965
0110010010100010100000100: 481409 558899 561428 628720 641196
0110010010100010100000100: 481409 558899 561428 628720 554132
0110010010100010100000100: 481409 558899 561428 628720 587182
0110010010100010100000100: 481409 558899 561428 628720 612954
0110010010100010100000100: 481409 558899 561428 628720 517895
0110010010100010100000100: 481409 558899 561428 628720 602157
0110010011100000100001000: 481409 558899 561428 581438 628720
0110010010100010100000100: 481409 558899 561428 581438 560706
0110010010100010100000100: 481409 558899 561428 581438 596741
0110010010100010100000100: 481409 558899 561428 581438 540965
0110010010100010100000100: 481409 558899 561428 581438 641196
0110010010100010100000100: 481409 558899 561428 581438 554132
0110010010100010100000100: 481409 558899 561428 581438 587182
0110010010100010100000100: 481409 558899 561428 581438 529487
0110010010100010100000100: 481409 558899 561428 581438 612954
0110010010100010100000100: 481409 558899 561428 581438 517895
0110010010100010100000100: 617534 587182 481409 639172 558899
