Vertex,0110010010100010100100110,0110010011100000100001000,0110010011100100110001000,0110010010100010100000100,0111110000100001000010000
473470,3.0,35.0,2.0,50.0,1.0
519313,0.0,16.0,0.0,24.0,1.0
492700,0.0,15.0,0.0,21.0,1.0
598963,0.0,11.0,0.0,23.0,0.0
635117,0.0,4.0,0.0,16.0,0.0
535567,3.0,34.0,5.0,41.0,1.0
639182,1.0,34.0,7.0,53.0,1.0
510174,2.0,30.0,9.0,41.0,1.0
640254,3.0,41.0,6.0,45.0,2.0
498833,2.0,59.0,7.0,74.0,2.0
508495,2.0,24.0,9.0,38.0,0.0
543636,1.0,68.0,8.0,81.0,3.0
612550,1.0,21.0,1.0,25.0,1.0
467288,0.0,48.0,10.0,64.0,2.0
538798,1.0,32.0,1.0,39.0,1.0
575591,1.0,11.0,0.0,20.0,0.0
614303,0.0,30.0,7.0,38.0,1.0
587163,0.0,19.0,9.0,29.0,1.0
633873,0.0,8.0,1.0,21.0,0.0
486919,0.0,5.0,4.0,14.0,0.0
535781,0.0,15.0,4.0,18.0,1.0
graph,4.0,112.0,18.0,155.0,4.0
