0110100110000100: 597830 509906 489987 457191
0110100110000100: 597830 509906 489987 470232
0110100010010010: 597830 509906 489987 459747
0110100110000100: 597830 509906 489987 457191
0110100110000100: 597830 509906 489987 470232
0110100110000100: 597830 509906 489987 457191
0110100110000100: 597830 509906 489987 470232
0110100010010010: 597830 509906 489987 459747
0110100110000100: 597830 509906 489987 457191
0110100110000100: 597830 509906 489987 470232
0110100110000100: 597830 509906 489987 457191
0110100110000100: 597830 509906 489987 470232
0110100010010010: 597830 509906 489987 459747
0110100110000100: 597830 489987 509906 459747
0110100010010010: 597830 489987 509906 457191
0110100010010010: 597830 489987 509906 470232
0110100110000100: 597830 489987 509906 459747
0110100110000100: 597830 489987 509906 459747
0110100110000100: 597830 489987 509906 459747
0110100110000100: 597830 489987 509906 459747
0110100110000100: 597830 489987 509906 459747
0110100110000100: 489987 459747 597830 466372
0110100010010010: 489987 459747 597830 509906
0110100110000100: 489987 459747 597830 466372
0110100110000100: 489987 459747 597830 466372
0110100110000100: 489987 459747 597830 466372
0110100110000100: 489987 459747 597830 466372
0110100110000100: 489987 459747 597830 466372
0110100010010010: 489987 597830 459747 466372
0110100110000100: 489987 597830 459747 509906
0110100110000100: 489987 597830 459747 509906
0110100110000100: 489987 597830 459747 509906
0110100110000100: 489987 597830 459747 509906
0110100110000100: 629585 496023 504579 496674
0110100010010010: 629585 496023 504579 530027
0110100110000100: 629585 496023 504579 496674
0110100110000100: 629585 496023 504579 496674
0110100110000100: 629585 496023 504579 496674
0110100110000100: 629585 496023 504579 496674
0110100110000100: 629585 496023 504579 496674
0110100110000100: 629585 504579 496023 530027
0110100010010010: 629585 504579 496023 496674
0110100110000100: 629585 504579 496023 530027
0110100110000100: 629585 504579 496023 530027
0110100110000100: 629585 504579 496023 530027
0110100110000100: 629585 504579 496023 530027
0110100110000100: 629585 504579 496023 530027
0110100110000100: 504579 530027 629585 489118
0110100010010010: 504579 530027 629585 496023
0110100110000100: 504579 530027 629585 489118
0110100110000100: 504579 530027 629585 489118
0110100110000100: 504579 530027 629585 489118
0110100110000100: 504579 530027 629585 489118
0110100110000100: 504579 530027 629585 489118
0110100010010010: 504579 629585 530027 489118
0110100110000100: 504579 629585 530027 496023
0110100110000100: 504579 629585 530027 496023
0110100110000100: 504579 629585 530027 496023
0110100110000100: 504579 629585 530027 496023
0110100110000100: 566384 489118 470232 530027
0110100010010010: 566384 489118 470232 476423
0110100010010010: 566384 489118 470232 466372
0110100010010010: 566384 489118 470232 509906
0110100110000100: 566384 489118 470232 530027
0110100110000100: 566384 489118 470232 530027
0110100110000100: 566384 489118 470232 530027
0110100110000100: 566384 489118 470232 530027
0110100110000100: 566384 489118 470232 530027
0110100110000100: 566384 470232 489118 476423
0110100110000100: 566384 470232 489118 466372
0110100110000100: 566384 470232 489118 509906
0110100010010010: 566384 470232 489118 530027
0110100110000100: 566384 470232 489118 476423
0110100110000100: 566384 470232 489118 466372
0110100110000100: 566384 470232 489118 509906
0110100110000100: 566384 470232 489118 476423
0110100110000100: 566384 470232 489118 466372
0110100110000100: 566384 470232 489118 509906
0110100010010010: 566384 470232 489118 530027
0110100110000100: 566384 470232 489118 476423
0110100110000100: 566384 470232 489118 466372
0110100110000100: 566384 470232 489118 509906
0110100110000100: 566384 470232 489118 476423
0110100110000100: 566384 470232 489118 466372
0110100110000100: 566384 470232 489118 509906
0110100010010010: 566384 470232 489118 530027
0110100110010110: 470232 466372 476423 483282
0110100110010110: 470232 509906 476423 457191
0111100010001000: 470232 509906 466372 476423
0101101001001000: 470232 509906 457191 466372
0101101001001000: 470232 509906 457191 566384
0101101001001000: 470232 509906 597830 476423
0101101001001000: 470232 509906 597830 466372
0101101001001000: 470232 509906 597830 566384
0100101101000100: 470232 509906 597830 457191
0111100010001000: 470232 566384 466372 476423
0111100010001000: 470232 566384 509906 476423
0111100010001000: 470232 566384 509906 466372
0101101001001000: 470232 566384 489118 476423
0101101001001000: 470232 566384 489118 466372
0101101001001000: 470232 566384 489118 509906
0110100110000100: 470232 476423 466372 530254
0110100110000100: 470232 476423 466372 457191
0110100010010010: 470232 476423 466372 459747
0110100010010010: 470232 476423 466372 496674
0110100110010110: 470232 476423 466372 483282
0110100110010110: 470232 476423 466372 483282
0111100010001000: 470232 476423 509906 466372
0110100110000100: 470232 476423 509906 530254
0110100110000100: 470232 476423 509906 483282
0110100010010010: 470232 476423 509906 597830
0110100010010010: 470232 476423 509906 597830
0110100110010110: 470232 476423 509906 457191
0110100110010110: 470232 476423 509906 457191
0111100010001000: 470232 476423 566384 466372
0111100010001000: 470232 476423 566384 509906
0110100110000100: 470232 476423 566384 530254
0110100110000100: 470232 476423 566384 483282
0110100110000100: 470232 476423 566384 457191
0110100010010010: 470232 476423 566384 489118
0110100010010010: 470232 476423 566384 489118
0110100110000100: 470232 476423 466372 530254
0110100110000100: 470232 476423 466372 457191
0110100110000100: 470232 476423 466372 530254
0110100110000100: 470232 476423 466372 457191
0110100110010110: 470232 476423 466372 483282
0110100110000100: 470232 476423 509906 530254
0110100110000100: 470232 476423 509906 483282
0110100110000100: 470232 476423 509906 530254
0110100110000100: 470232 476423 509906 483282
0110100010010010: 470232 476423 509906 597830
0110100110010110: 470232 476423 509906 457191
0110100110000100: 470232 476423 566384 530254
0110100110000100: 470232 476423 566384 483282
0110100110000100: 470232 476423 566384 457191
0110100110000100: 470232 476423 566384 530254
0110100110000100: 470232 476423 566384 483282
0110100110000100: 470232 476423 566384 457191
0110100010010010: 470232 476423 566384 489118
0111100010001000: 470232 476423 466372 509906
0111100010001000: 470232 476423 466372 566384
0111100010001000: 470232 476423 466372 509906
0111100010001000: 470232 476423 466372 566384
0111100010001000: 470232 476423 466372 509906
0111100010001000: 470232 476423 466372 566384
0111100010001000: 470232 476423 509906 466372
0111100010001000: 470232 476423 509906 566384
0111100010001000: 470232 476423 509906 466372
0111100010001000: 470232 476423 509906 566384
0110100010010010: 470232 476423 509906 597830
0111100010001000: 470232 476423 566384 466372
0111100010001000: 470232 476423 566384 509906
0111100010001000: 470232 476423 566384 466372
0111100010001000: 470232 476423 566384 509906
0110100010010010: 470232 476423 566384 489118
0110100110000100: 470232 476423 466372 530254
0110100110000100: 470232 476423 466372 457191
0110100110000100: 470232 476423 466372 530254
0110100110000100: 470232 476423 466372 457191
0111100010001000: 470232 476423 466372 509906
0111100010001000: 470232 476423 466372 566384
0110100110010110: 470232 476423 466372 483282
0110100110000100: 470232 476423 466372 530254
0110100110000100: 470232 476423 466372 457191
0110100110000100: 470232 476423 509906 530254
0110100110000100: 470232 476423 509906 483282
0110100110000100: 470232 476423 509906 530254
0110100110000100: 470232 476423 509906 483282
0111100010001000: 470232 476423 509906 466372
0111100010001000: 470232 476423 509906 566384
0111100010001000: 470232 476423 509906 466372
0110100010010010: 470232 476423 509906 597830
0110100110010110: 470232 476423 509906 457191
0110100010010010: 470232 476423 509906 597830
0110100110010110: 470232 476423 509906 457191
0110100110000100: 470232 476423 566384 530254
0110100110000100: 470232 476423 566384 483282
0110100110000100: 470232 476423 566384 457191
0110100110000100: 470232 476423 566384 530254
0110100110000100: 470232 476423 566384 483282
0110100110000100: 470232 476423 566384 457191
0111100010001000: 470232 476423 566384 466372
0111100010001000: 470232 476423 566384 509906
0111100010001000: 470232 476423 566384 466372
0111100010001000: 470232 476423 566384 509906
0110100010010010: 470232 476423 566384 489118
0110100010010010: 470232 476423 566384 489118
0110100110000100: 470232 466372 476423 459747
0110100110000100: 470232 466372 476423 496674
0110100010010010: 470232 466372 476423 530254
0110100010010010: 470232 466372 476423 457191
0110100110010110: 470232 466372 476423 483282
0110100110010110: 470232 466372 476423 483282
0111100010001000: 470232 466372 509906 476423
0110100110000100: 470232 466372 509906 459747
0110100110000100: 470232 466372 509906 496674
0110100110000100: 470232 466372 509906 483282
0110100010010010: 470232 466372 509906 457191
0110100010010010: 470232 466372 509906 597830
0110100010010010: 470232 466372 509906 457191
0110100010010010: 470232 466372 509906 597830
0111100010001000: 470232 466372 566384 476423
0111100010001000: 470232 466372 566384 509906
0110100110000100: 470232 466372 566384 459747
0110100110000100: 470232 466372 566384 496674
0110100110000100: 470232 466372 566384 483282
0110100010010010: 470232 466372 566384 489118
0110100010010010: 470232 466372 566384 489118
0111100010001000: 470232 466372 476423 509906
0111100010001000: 470232 466372 476423 566384
0110100110000100: 470232 466372 476423 459747
0110100110000100: 470232 466372 476423 496674
0110100110000100: 470232 466372 476423 459747
0110100110000100: 470232 466372 476423 496674
0110100110010110: 470232 466372 476423 483282
0110100110010110: 470232 466372 476423 483282
0110100110010110: 470232 466372 476423 483282
0110100110000100: 470232 466372 509906 459747
0110100110000100: 470232 466372 509906 496674
0110100110000100: 470232 466372 509906 483282
0110100110000100: 470232 466372 509906 459747
0110100110000100: 470232 466372 509906 496674
0110100110000100: 470232 466372 509906 483282
0110100010010010: 470232 466372 509906 457191
0110100010010010: 470232 466372 509906 597830
0110100110000100: 470232 466372 566384 459747
0110100110000100: 470232 466372 566384 496674
0110100110000100: 470232 466372 566384 483282
0110100110000100: 470232 466372 566384 459747
0110100110000100: 470232 466372 566384 496674
0110100110000100: 470232 466372 566384 483282
0110100010010010: 470232 466372 566384 489118
0111100010001000: 470232 466372 476423 509906
0111100010001000: 470232 466372 476423 566384
0111100010001000: 470232 466372 476423 509906
0111100010001000: 470232 466372 476423 566384
0111100010001000: 470232 466372 476423 509906
0111100010001000: 470232 466372 476423 566384
0111100010001000: 470232 466372 509906 476423
0111100010001000: 470232 466372 509906 566384
0111100010001000: 470232 466372 509906 476423
0111100010001000: 470232 466372 509906 566384
0110100010010010: 470232 466372 509906 457191
0110100010010010: 470232 466372 509906 597830
0111100010001000: 470232 466372 566384 476423
0111100010001000: 470232 466372 566384 509906
0111100010001000: 470232 466372 566384 476423
0111100010001000: 470232 466372 566384 509906
0110100010010010: 470232 466372 566384 489118
0110100110000100: 470232 466372 476423 459747
0110100110000100: 470232 466372 476423 496674
0110100110000100: 470232 466372 476423 459747
0110100110000100: 470232 466372 476423 496674
0111100010001000: 470232 466372 476423 509906
0111100010001000: 470232 466372 476423 566384
0110100110010110: 470232 466372 476423 483282
0110100110000100: 470232 466372 476423 459747
0110100110000100: 470232 466372 476423 496674
0110100110000100: 470232 466372 509906 459747
0110100110000100: 470232 466372 509906 496674
0110100110000100: 470232 466372 509906 483282
0110100110000100: 470232 466372 509906 459747
0110100110000100: 470232 466372 509906 496674
0110100110000100: 470232 466372 509906 483282
0111100010001000: 470232 466372 509906 476423
0111100010001000: 470232 466372 509906 566384
0111100010001000: 470232 466372 509906 476423
0110100010010010: 470232 466372 509906 457191
0110100010010010: 470232 466372 509906 597830
0110100010010010: 470232 466372 509906 457191
0110100010010010: 470232 466372 509906 597830
0110100110000100: 470232 466372 566384 459747
0110100110000100: 470232 466372 566384 496674
0110100110000100: 470232 466372 566384 483282
0110100110000100: 470232 466372 566384 459747
0110100110000100: 470232 466372 566384 496674
0110100110000100: 470232 466372 566384 483282
0111100010001000: 470232 466372 566384 476423
0111100010001000: 470232 466372 566384 509906
0111100010001000: 470232 466372 566384 476423
0111100010001000: 470232 466372 566384 509906
0110100010010010: 470232 466372 566384 489118
0110100010010010: 470232 466372 566384 489118
0110100110000100: 470232 509906 476423 597830
0110100010010010: 470232 509906 476423 530254
0110100010010010: 470232 509906 476423 483282
0110100110010110: 470232 509906 476423 457191
0110100110010110: 470232 509906 476423 457191
0111100010001000: 470232 509906 466372 476423
0110100110000100: 470232 509906 466372 457191
0110100110000100: 470232 509906 466372 597830
0110100010010010: 470232 509906 466372 459747
0110100010010010: 470232 509906 466372 496674
0110100010010010: 470232 509906 466372 483282
0111100010001000: 470232 509906 566384 476423
0111100010001000: 470232 509906 566384 466372
0110100110000100: 470232 509906 566384 457191
0110100110000100: 470232 509906 566384 597830
0110100010010010: 470232 509906 566384 489118
0110100010010010: 470232 509906 566384 489118
0111100010001000: 470232 509906 476423 466372
0111100010001000: 470232 509906 476423 566384
0110100110000100: 470232 509906 476423 597830
0110100110000100: 470232 509906 476423 597830
0110100110000100: 470232 509906 476423 597830
0110100110010110: 470232 509906 476423 457191
0110100110010110: 470232 509906 476423 457191
0110100110010110: 470232 509906 476423 457191
0111100010001000: 470232 509906 466372 476423
0111100010001000: 470232 509906 466372 566384
0111100010001000: 470232 509906 466372 476423
0110100110000100: 470232 509906 466372 457191
0110100110000100: 470232 509906 466372 597830
0110100110000100: 470232 509906 466372 457191
0110100110000100: 470232 509906 466372 597830
0110100110000100: 470232 509906 466372 457191
0110100110000100: 470232 509906 466372 597830
0110100110000100: 470232 509906 566384 457191
0110100110000100: 470232 509906 566384 597830
0110100110000100: 470232 509906 566384 457191
0110100110000100: 470232 509906 566384 597830
0110100110000100: 470232 509906 566384 457191
0110100110000100: 470232 509906 566384 597830
0110100010010010: 470232 509906 566384 489118
0101101001001000: 470232 509906 457191 466372
0101101001001000: 470232 509906 457191 566384
0100101001010010: 470232 509906 457191 483282
0100101001010010: 470232 509906 457191 483282
0101101001011010: 470232 509906 457191 476423
0101101001011010: 470232 509906 457191 476423
0101101001011010: 470232 509906 457191 476423
0100101001010010: 470232 509906 457191 483282
0101101001001000: 470232 509906 597830 476423
0101101001001000: 470232 509906 597830 466372
0101101001001000: 470232 509906 597830 566384
0100101001010010: 470232 509906 597830 489987
0100101001010010: 470232 509906 597830 489987
0100101101000100: 470232 509906 597830 457191
0100101001010010: 470232 509906 597830 489987
0100101001010010: 470232 509906 597830 489987
0110100010010010: 470232 566384 476423 530254
0110100010010010: 470232 566384 476423 483282
0110100010010010: 470232 566384 476423 457191
0111100010001000: 470232 566384 466372 476423
0110100010010010: 470232 566384 466372 459747
0110100010010010: 470232 566384 466372 496674
0110100010010010: 470232 566384 466372 483282
0111100010001000: 470232 566384 509906 476423
0111100010001000: 470232 566384 509906 466372
0110100010010010: 470232 566384 509906 457191
0110100010010010: 470232 566384 509906 597830
0110100010010010: 470232 566384 509906 457191
0110100010010010: 470232 566384 509906 597830
0111100010001000: 470232 566384 476423 466372
0111100010001000: 470232 566384 476423 509906
0110100110000100: 470232 566384 476423 489118
0110100110000100: 470232 566384 476423 489118
0111100010001000: 470232 566384 466372 476423
0111100010001000: 470232 566384 466372 509906
0111100010001000: 470232 566384 466372 476423
0110100110000100: 470232 566384 466372 489118
0110100110000100: 470232 566384 466372 489118
0111100010001000: 470232 566384 509906 476423
0111100010001000: 470232 566384 509906 466372
0111100010001000: 470232 566384 509906 476423
0111100010001000: 470232 566384 509906 466372
0110100110000100: 470232 566384 509906 489118
0110100110000100: 470232 566384 509906 489118
0101101001001000: 470232 566384 489118 476423
0101101001001000: 470232 566384 489118 466372
0101101001001000: 470232 566384 489118 509906
0100101001010010: 470232 566384 489118 530027
0100101001010010: 470232 566384 489118 530027
0100101001010010: 470232 566384 489118 530027
0110100110000100: 530027 489118 504579 566384
0110100010010010: 530027 489118 504579 629585
0110100110000100: 530027 489118 504579 566384
0110100110000100: 530027 489118 504579 566384
0110100110000100: 530027 489118 504579 566384
0110100110000100: 530027 489118 504579 566384
0110100110000100: 530027 489118 504579 566384
0110100010010010: 530027 504579 489118 566384
0110100110000100: 530027 504579 489118 629585
0110100110000100: 530027 504579 489118 629585
0110100110000100: 530027 504579 489118 629585
0110100110000100: 530027 504579 489118 629585
0110100010010010: 489118 530027 566384 470232
0110100110000100: 489118 530027 566384 504579
0110100110000100: 489118 530027 566384 504579
0110100110000100: 489118 530027 566384 504579
0110100110000100: 489118 530027 566384 504579
0110100010010010: 489118 566384 530027 504579
0110100110000100: 489118 566384 530027 470232
0110100110000100: 489118 566384 530027 470232
0110100110000100: 489118 566384 530027 470232
0110100110000100: 489118 566384 530027 470232
0111101011001000: 457191 476423 483282 509906
0111101011001000: 457191 483282 476423 509906
0110100110010110: 457191 509906 476423 470232
0110100110000100: 457191 476423 509906 530254
0110100010010010: 457191 476423 509906 597830
0110100110010110: 457191 476423 509906 470232
0110100110010110: 457191 476423 509906 470232
0110100110000100: 457191 476423 509906 530254
0110100110000100: 457191 476423 509906 530254
0111100110001100: 457191 476423 509906 483282
0110100010010010: 457191 476423 509906 597830
0110100110010110: 457191 476423 509906 470232
0111101011001000: 457191 476423 483282 509906
0110101011010010: 457191 476423 483282 466372
0110101011010010: 457191 476423 483282 466372
0111101011001000: 457191 476423 483282 509906
0111101011001000: 457191 476423 483282 509906
0111101011001000: 457191 476423 483282 509906
0110101111000100: 457191 476423 483282 530254
0110101111000100: 457191 476423 483282 470232
0110101111000100: 457191 476423 483282 530254
0110101111000100: 457191 476423 483282 470232
0111101011001000: 457191 476423 483282 509906
0110101011010010: 457191 476423 483282 466372
0111101011001000: 457191 476423 483282 509906
0110100110000100: 457191 476423 509906 530254
0110100110000100: 457191 476423 509906 530254
0111100110001100: 457191 476423 509906 483282
0111100110001100: 457191 476423 509906 483282
0111100110001100: 457191 476423 509906 483282
0110100010010010: 457191 476423 509906 597830
0110100110010110: 457191 476423 509906 470232
0111100110001100: 457191 476423 509906 483282
0111101011001000: 457191 476423 483282 509906
0110100110000100: 457191 483282 509906 466372
0110100010010010: 457191 483282 509906 470232
0110100010010010: 457191 483282 509906 597830
0110100110000100: 457191 483282 509906 466372
0110100110000100: 457191 483282 509906 466372
0111100110001100: 457191 483282 509906 476423
0111101011001000: 457191 483282 476423 509906
0110101011010010: 457191 483282 476423 530254
0110101011010010: 457191 483282 476423 470232
0110101011010010: 457191 483282 476423 530254
0110101011010010: 457191 483282 476423 470232
0111101011001000: 457191 483282 476423 509906
0111101011001000: 457191 483282 476423 509906
0111101011001000: 457191 483282 476423 509906
0110101111000100: 457191 483282 476423 466372
0110101111000100: 457191 483282 476423 466372
0111101011001000: 457191 483282 476423 509906
0110101111000100: 457191 483282 476423 466372
0111101011001000: 457191 483282 476423 509906
0110100110000100: 457191 483282 509906 466372
0110100110000100: 457191 483282 509906 466372
0111100110001100: 457191 483282 509906 476423
0111100110001100: 457191 483282 509906 476423
0111100110001100: 457191 483282 509906 476423
0110100110000100: 457191 483282 509906 466372
0111100110001100: 457191 483282 509906 476423
0111101011001000: 457191 483282 476423 509906
0111101011001000: 457191 483282 476423 509906
0111101011001000: 457191 483282 476423 509906
0111101011001000: 457191 483282 476423 509906
0110100110000100: 457191 509906 476423 597830
0110100010010010: 457191 509906 476423 530254
0111100010011010: 457191 509906 476423 483282
0110100110010110: 457191 509906 476423 470232
0110100110010110: 457191 509906 476423 470232
0110100110000100: 457191 509906 483282 470232
0110100110000100: 457191 509906 483282 597830
0110100010010010: 457191 509906 483282 466372
0111100010011010: 457191 509906 483282 476423
0110100110000100: 457191 509906 476423 597830
0110100110000100: 457191 509906 476423 597830
0110100110010110: 457191 509906 476423 470232
0110100110010110: 457191 509906 476423 470232
0110100110000100: 457191 509906 483282 470232
0110100110000100: 457191 509906 483282 597830
0110100110000100: 457191 509906 483282 470232
0110100110000100: 457191 509906 483282 597830
0111100010011010: 457191 509906 476423 483282
0111100010011010: 457191 509906 476423 483282
0111100010011010: 457191 509906 476423 483282
0111100010011010: 457191 509906 483282 476423
0111100010011010: 457191 509906 483282 476423
0111100010011010: 457191 509906 483282 476423
0110100110000100: 457191 509906 476423 597830
0110100110000100: 457191 509906 476423 597830
0110100110010110: 457191 509906 476423 470232
0110100110000100: 457191 509906 476423 597830
0111100010011010: 457191 509906 476423 483282
0110100110000100: 457191 509906 483282 470232
0110100110000100: 457191 509906 483282 597830
0110100110000100: 457191 509906 483282 470232
0110100110000100: 457191 509906 483282 597830
0110100110000100: 457191 509906 483282 470232
0110100110000100: 457191 509906 483282 597830
0111100010011010: 457191 509906 483282 476423
0110100110010110: 509906 470232 457191 476423
0111100010001000: 509906 597830 470232 457191
0101101001001000: 509906 597830 489987 457191
0101101001001000: 509906 597830 489987 470232
0110100010010010: 509906 457191 470232 466372
0110100010010010: 509906 457191 470232 566384
0110100110010110: 509906 457191 470232 476423
0111100010001000: 509906 457191 597830 470232
0110100010010010: 509906 457191 597830 489987
0110100010010010: 509906 457191 597830 489987
0110100110000100: 509906 457191 470232 483282
0110100110010110: 509906 457191 470232 476423
0110100110000100: 509906 457191 597830 476423
0110100110000100: 509906 457191 597830 483282
0110100010010010: 509906 457191 597830 489987
0111100010001000: 509906 457191 470232 597830
0111100010001000: 509906 457191 470232 597830
0111100010001000: 509906 457191 470232 597830
0111100010001000: 509906 457191 597830 470232
0111100010001000: 509906 457191 597830 470232
0110100010010010: 509906 457191 597830 489987
0110100110000100: 509906 457191 470232 483282
0110100110000100: 509906 457191 470232 483282
0111100010001000: 509906 457191 470232 597830
0110100110010110: 509906 457191 470232 476423
0110100110000100: 509906 457191 470232 483282
0110100110000100: 509906 457191 597830 476423
0110100110000100: 509906 457191 597830 483282
0110100110000100: 509906 457191 597830 476423
0110100110000100: 509906 457191 597830 483282
0111100010001000: 509906 457191 597830 470232
0111100010001000: 509906 457191 597830 470232
0110100010010010: 509906 457191 597830 489987
0110100010010010: 509906 457191 597830 489987
0110100010010010: 509906 470232 457191 483282
0110100110010110: 509906 470232 457191 476423
0111100010001000: 509906 470232 597830 457191
0110100010010010: 509906 470232 597830 489987
0110100010010010: 509906 470232 597830 489987
0111100010001000: 509906 470232 457191 597830
0110100110000100: 509906 470232 457191 466372
0110100110000100: 509906 470232 457191 566384
0110100110010110: 509906 470232 457191 476423
0110100010010010: 509906 470232 457191 483282
0110100110010110: 509906 470232 457191 476423
0110100110000100: 509906 470232 597830 476423
0110100110000100: 509906 470232 597830 466372
0110100110000100: 509906 470232 597830 566384
0110100010010010: 509906 470232 597830 489987
0111100010001000: 509906 470232 457191 597830
0111100010001000: 509906 470232 457191 597830
0111100010001000: 509906 470232 457191 597830
0111100010001000: 509906 470232 597830 457191
0111100010001000: 509906 470232 597830 457191
0110100010010010: 509906 470232 597830 489987
0110100110000100: 509906 470232 457191 466372
0110100110000100: 509906 470232 457191 566384
0110100110000100: 509906 470232 457191 466372
0110100110000100: 509906 470232 457191 566384
0111100010001000: 509906 470232 457191 597830
0110100010010010: 509906 470232 457191 483282
0110100110010110: 509906 470232 457191 476423
0110100110000100: 509906 470232 597830 476423
0110100110000100: 509906 470232 597830 466372
0110100110000100: 509906 470232 597830 566384
0110100110000100: 509906 470232 597830 476423
0110100110000100: 509906 470232 597830 466372
0110100110000100: 509906 470232 597830 566384
0111100010001000: 509906 470232 597830 457191
0111100010001000: 509906 470232 597830 457191
0110100010010010: 509906 470232 597830 489987
0110100010010010: 509906 470232 597830 489987
0110100010010010: 509906 597830 457191 476423
0110100010010010: 509906 597830 457191 483282
0111100010001000: 509906 597830 470232 457191
0110100010010010: 509906 597830 470232 476423
0110100010010010: 509906 597830 470232 466372
0110100010010010: 509906 597830 470232 566384
0111100010001000: 509906 597830 457191 470232
0110100110000100: 509906 597830 457191 489987
0110100110000100: 509906 597830 457191 489987
0111100010001000: 509906 597830 470232 457191
0111100010001000: 509906 597830 470232 457191
0110100110000100: 509906 597830 470232 489987
0110100110000100: 509906 597830 470232 489987
0101101001001000: 509906 597830 489987 457191
0101101001001000: 509906 597830 489987 470232
0100101001010010: 509906 597830 489987 459747
0100101001010010: 509906 597830 489987 459747
0100101001010010: 509906 597830 489987 459747
0101101001001000: 466372 459747 489987 496674
0101101001001000: 466372 459747 489987 483282
0101101001001000: 466372 459747 489987 470232
0101101001001000: 466372 496674 496023 459747
0101101001001000: 466372 496674 496023 483282
0101101001001000: 466372 496674 496023 470232
0111100010001000: 466372 483282 496674 459747
0101101001001000: 466372 483282 476423 459747
0101101001001000: 466372 483282 476423 496674
0101101001001000: 466372 483282 457191 459747
0101101001001000: 466372 483282 457191 496674
0101101001001000: 466372 483282 457191 470232
0111100010001000: 466372 470232 496674 459747
0111100010001000: 466372 470232 483282 459747
0111100010001000: 466372 470232 483282 496674
0110100110010110: 466372 470232 483282 476423
0110100110000100: 466372 459747 496674 489987
0110100010010010: 466372 459747 496674 496023
0110100010010010: 466372 459747 496674 496023
0111100010001000: 466372 459747 483282 496674
0110100110000100: 466372 459747 483282 489987
0110100010010010: 466372 459747 483282 476423
0110100010010010: 466372 459747 483282 457191
0110100010010010: 466372 459747 483282 476423
0110100010010010: 466372 459747 483282 457191
0111100010001000: 466372 459747 470232 496674
0111100010001000: 466372 459747 470232 483282
0110100110000100: 466372 459747 470232 489987
0110100010010010: 466372 459747 470232 476423
0110100010010010: 466372 459747 470232 509906
0110100010010010: 466372 459747 470232 566384
0110100110000100: 466372 459747 496674 489987
0110100110000100: 466372 459747 496674 489987
0110100110000100: 466372 459747 496674 489987
0110100110000100: 466372 459747 483282 489987
0110100110000100: 466372 459747 483282 489987
0110100110000100: 466372 459747 483282 489987
0110100110000100: 466372 459747 470232 489987
0110100110000100: 466372 459747 470232 489987
0110100110000100: 466372 459747 470232 489987
0101101001001000: 466372 459747 489987 496674
0101101001001000: 466372 459747 489987 483282
0101101001001000: 466372 459747 489987 470232
0100101001010010: 466372 459747 489987 597830
0100101001010010: 466372 459747 489987 597830
0100101001010010: 466372 459747 489987 597830
0110100110000100: 466372 496674 459747 496023
0110100010010010: 466372 496674 459747 489987
0110100010010010: 466372 496674 459747 489987
0111100010001000: 466372 496674 483282 459747
0110100110000100: 466372 496674 483282 496023
0110100010010010: 466372 496674 483282 476423
0110100010010010: 466372 496674 483282 457191
0110100010010010: 466372 496674 483282 476423
0110100010010010: 466372 496674 483282 457191
0111100010001000: 466372 496674 470232 459747
0111100010001000: 466372 496674 470232 483282
0110100110000100: 466372 496674 470232 496023
0110100010010010: 466372 496674 470232 476423
0110100010010010: 466372 496674 470232 509906
0110100010010010: 466372 496674 470232 566384
0111100010001000: 466372 496674 459747 483282
0111100010001000: 466372 496674 459747 470232
0110100110000100: 466372 496674 459747 496023
0110100110000100: 466372 496674 459747 496023
0110100110000100: 466372 496674 459747 496023
0110100110000100: 466372 496674 483282 496023
0110100110000100: 466372 496674 483282 496023
0110100110000100: 466372 496674 483282 496023
0110100110000100: 466372 496674 470232 496023
0110100110000100: 466372 496674 470232 496023
0110100110000100: 466372 496674 470232 496023
0101101001001000: 466372 496674 496023 459747
0101101001001000: 466372 496674 496023 483282
0101101001001000: 466372 496674 496023 470232
0100101001010010: 466372 496674 496023 629585
0100101001010010: 466372 496674 496023 629585
0100101001010010: 466372 496674 496023 629585
0110100110000100: 466372 483282 459747 476423
0110100110000100: 466372 483282 459747 457191
0110100010010010: 466372 483282 459747 489987
0110100010010010: 466372 483282 459747 489987
0111100010001000: 466372 483282 496674 459747
0110100110000100: 466372 483282 496674 476423
0110100110000100: 466372 483282 496674 457191
0110100010010010: 466372 483282 496674 496023
0110100010010010: 466372 483282 496674 496023
0111100010001000: 466372 483282 470232 459747
0111100010001000: 466372 483282 470232 496674
0110100110000100: 466372 483282 470232 457191
0110100010010010: 466372 483282 470232 509906
0110100010010010: 466372 483282 470232 566384
0110100110010110: 466372 483282 470232 476423
0110100110010110: 466372 483282 470232 476423
0111100010001000: 466372 483282 459747 496674
0111100010001000: 466372 483282 459747 470232
0110100110000100: 466372 483282 459747 476423
0110100110000100: 466372 483282 459747 457191
0110100110000100: 466372 483282 459747 476423
0110100110000100: 466372 483282 459747 457191
0110100110000100: 466372 483282 459747 476423
0110100110000100: 466372 483282 459747 457191
0110100010010010: 466372 483282 459747 489987
0111100010001000: 466372 483282 496674 459747
0111100010001000: 466372 483282 496674 470232
0111100010001000: 466372 483282 496674 459747
0110100110000100: 466372 483282 496674 476423
0110100110000100: 466372 483282 496674 457191
0110100110000100: 466372 483282 496674 476423
0110100110000100: 466372 483282 496674 457191
0110100110000100: 466372 483282 496674 476423
0110100110000100: 466372 483282 496674 457191
0110100010010010: 466372 483282 496674 496023
0110100110000100: 466372 483282 470232 457191
0110100110000100: 466372 483282 470232 457191
0110100110000100: 466372 483282 470232 457191
0110100110010110: 466372 483282 470232 476423
0101101001001000: 466372 483282 476423 459747
0101101001001000: 466372 483282 476423 496674
0100101001010010: 466372 483282 476423 530254
0100101001010010: 466372 483282 476423 530254
0101101001011010: 466372 483282 476423 470232
0101101001011010: 466372 483282 476423 470232
0101101001011010: 466372 483282 476423 470232
0101101001001000: 466372 483282 476423 459747
0101101001001000: 466372 483282 476423 496674
0101101001001000: 466372 483282 476423 459747
0101101001001000: 466372 483282 476423 496674
0100101101010110: 466372 483282 476423 457191
0101101001001000: 466372 483282 457191 459747
0101101001001000: 466372 483282 457191 496674
0101101001001000: 466372 483282 457191 470232
0100101001010010: 466372 483282 457191 509906
0100101001010010: 466372 483282 457191 509906
0100101001010010: 466372 483282 457191 509906
0100101101010110: 466372 483282 457191 476423
0110100010010010: 466372 470232 459747 489987
0110100010010010: 466372 470232 459747 489987
0111100010001000: 466372 470232 496674 459747
0110100010010010: 466372 470232 496674 496023
0110100010010010: 466372 470232 496674 496023
0111100010001000: 466372 470232 483282 459747
0111100010001000: 466372 470232 483282 496674
0110100010010010: 466372 470232 483282 457191
0110100010010010: 466372 470232 483282 457191
0110100110010110: 466372 470232 483282 476423
0111100010001000: 466372 470232 459747 496674
0111100010001000: 466372 470232 459747 483282
0110100110000100: 466372 470232 459747 476423
0110100110000100: 466372 470232 459747 509906
0110100110000100: 466372 470232 459747 566384
0110100010010010: 466372 470232 459747 489987
0111100010001000: 466372 470232 496674 459747
0111100010001000: 466372 470232 496674 483282
0111100010001000: 466372 470232 496674 459747
0110100110000100: 466372 470232 496674 476423
0110100110000100: 466372 470232 496674 509906
0110100110000100: 466372 470232 496674 566384
0110100010010010: 466372 470232 496674 496023
0111100010001000: 466372 470232 483282 459747
0111100010001000: 466372 470232 483282 496674
0111100010001000: 466372 470232 483282 459747
0111100010001000: 466372 470232 483282 496674
0110100110000100: 466372 470232 483282 509906
0110100110000100: 466372 470232 483282 566384
0110100110010110: 466372 470232 483282 476423
0110100010010010: 466372 470232 483282 457191
0110100110010110: 466372 470232 483282 476423
0111100010001000: 466372 470232 459747 496674
0111100010001000: 466372 470232 459747 483282
0111100010001000: 466372 470232 459747 496674
0111100010001000: 466372 470232 459747 483282
0110100010010010: 466372 470232 459747 489987
0111100010001000: 466372 470232 496674 459747
0111100010001000: 466372 470232 496674 483282
0111100010001000: 466372 470232 496674 459747
0111100010001000: 466372 470232 496674 483282
0110100010010010: 466372 470232 496674 496023
0111100010001000: 466372 470232 483282 459747
0111100010001000: 466372 470232 483282 496674
0111100010001000: 466372 470232 483282 459747
0111100010001000: 466372 470232 483282 496674
0110100010010010: 466372 470232 483282 457191
0110100110000100: 466372 470232 459747 476423
0110100110000100: 466372 470232 459747 509906
0110100110000100: 466372 470232 459747 566384
0110100110000100: 466372 470232 459747 476423
0110100110000100: 466372 470232 459747 509906
0110100110000100: 466372 470232 459747 566384
0111100010001000: 466372 470232 459747 496674
0111100010001000: 466372 470232 459747 483282
0110100010010010: 466372 470232 459747 489987
0110100010010010: 466372 470232 459747 489987
0110100110000100: 466372 470232 496674 476423
0110100110000100: 466372 470232 496674 509906
0110100110000100: 466372 470232 496674 566384
0110100110000100: 466372 470232 496674 476423
0110100110000100: 466372 470232 496674 509906
0110100110000100: 466372 470232 496674 566384
0111100010001000: 466372 470232 496674 459747
0111100010001000: 466372 470232 496674 483282
0111100010001000: 466372 470232 496674 459747
0110100010010010: 466372 470232 496674 496023
0110100010010010: 466372 470232 496674 496023
0110100110000100: 466372 470232 483282 509906
0110100110000100: 466372 470232 483282 566384
0110100110000100: 466372 470232 483282 509906
0110100110000100: 466372 470232 483282 566384
0111100010001000: 466372 470232 483282 459747
0111100010001000: 466372 470232 483282 496674
0111100010001000: 466372 470232 483282 459747
0111100010001000: 466372 470232 483282 496674
0110100010010010: 466372 470232 483282 457191
0110100110010110: 466372 470232 483282 476423
0110100010010010: 466372 470232 483282 457191
0110100110010110: 466372 470232 483282 476423
0111101011001000: 483282 476423 457191 466372
0110100110010110: 483282 466372 476423 470232
0111101011001000: 483282 457191 476423 466372
0110100110000100: 483282 476423 466372 530254
0110100010010010: 483282 476423 466372 459747
0110100010010010: 483282 476423 466372 496674
0110100110010110: 483282 476423 466372 470232
0110100110010110: 483282 476423 466372 470232
0110100110000100: 483282 476423 466372 530254
0110100110000100: 483282 476423 466372 530254
0111100110001100: 483282 476423 466372 457191
0110100110010110: 483282 476423 466372 470232
0111101011001000: 483282 476423 457191 466372
0110101011010010: 483282 476423 457191 509906
0110101011010010: 483282 476423 457191 509906
0111101011001000: 483282 476423 457191 466372
0111101011001000: 483282 476423 457191 466372
0111101011001000: 483282 476423 457191 466372
0110101111000100: 483282 476423 457191 530254
0110101111000100: 483282 476423 457191 470232
0110101111000100: 483282 476423 457191 530254
0110101111000100: 483282 476423 457191 470232
0111101011001000: 483282 476423 457191 466372
0110101011010010: 483282 476423 457191 509906
0111101011001000: 483282 476423 457191 466372
0110100110000100: 483282 476423 466372 530254
0110100110000100: 483282 476423 466372 530254
0111100110001100: 483282 476423 466372 457191
0111100110001100: 483282 476423 466372 457191
0111100110001100: 483282 476423 466372 457191
0110100110010110: 483282 476423 466372 470232
0110100110000100: 483282 476423 466372 530254
0111100110001100: 483282 476423 466372 457191
0111101011001000: 483282 476423 457191 466372
0110100010010010: 483282 466372 476423 530254
0111100010011010: 483282 466372 476423 457191
0110100110010110: 483282 466372 476423 470232
0110100010010010: 483282 466372 457191 509906
0111100010011010: 483282 466372 457191 476423
0110100110000100: 483282 466372 476423 459747
0110100110000100: 483282 466372 476423 496674
0110100110010110: 483282 466372 476423 470232
0110100110010110: 483282 466372 476423 470232
0110100110000100: 483282 466372 457191 459747
0110100110000100: 483282 466372 457191 496674
0110100110000100: 483282 466372 457191 470232
0110100010010010: 483282 466372 457191 509906
0111100010011010: 483282 466372 476423 457191
0111100010011010: 483282 466372 476423 457191
0111100010011010: 483282 466372 457191 476423
0111100010011010: 483282 466372 457191 476423
0111100010011010: 483282 466372 457191 476423
0110100110000100: 483282 466372 476423 459747
0110100110000100: 483282 466372 476423 496674
0110100110000100: 483282 466372 476423 459747
0110100110000100: 483282 466372 476423 496674
0110100110010110: 483282 466372 476423 470232
0110100110000100: 483282 466372 476423 459747
0110100110000100: 483282 466372 476423 496674
0111100010011010: 483282 466372 476423 457191
0110100110000100: 483282 466372 457191 459747
0110100110000100: 483282 466372 457191 496674
0110100110000100: 483282 466372 457191 470232
0110100110000100: 483282 466372 457191 459747
0110100110000100: 483282 466372 457191 496674
0110100110000100: 483282 466372 457191 470232
0110100010010010: 483282 466372 457191 509906
0111100010011010: 483282 466372 457191 476423
0110100010010010: 483282 457191 466372 459747
0110100010010010: 483282 457191 466372 496674
0110100010010010: 483282 457191 466372 470232
0110100110000100: 483282 457191 466372 509906
0111100110001100: 483282 457191 466372 476423
0111101011001000: 483282 457191 476423 466372
0111101011001000: 483282 457191 476423 466372
0111101011001000: 483282 457191 476423 466372
0111101011001000: 483282 457191 476423 466372
0111101011001000: 483282 457191 476423 466372
0110101111000100: 483282 457191 476423 509906
0110101111000100: 483282 457191 476423 509906
0111101011001000: 483282 457191 476423 466372
0110101111000100: 483282 457191 476423 509906
0111101011001000: 483282 457191 476423 466372
0110100110000100: 483282 457191 466372 509906
0110100110000100: 483282 457191 466372 509906
0111100110001100: 483282 457191 466372 476423
0111100110001100: 483282 457191 466372 476423
0111100110001100: 483282 457191 466372 476423
0110100110000100: 483282 457191 466372 509906
0111100110001100: 483282 457191 466372 476423
0111101011001000: 483282 457191 476423 466372
0111101011001000: 483282 457191 476423 466372
0111101011001000: 483282 457191 476423 466372
0111101011001000: 483282 457191 476423 466372
0110100110000100: 496674 496023 466372 629585
0110100010010010: 496674 496023 466372 459747
0110100010010010: 496674 496023 466372 483282
0110100010010010: 496674 496023 466372 470232
0110100110000100: 496674 496023 466372 629585
0110100110000100: 496674 496023 466372 629585
0110100110000100: 496674 496023 466372 629585
0110100110000100: 496674 496023 466372 629585
0110100110000100: 496674 496023 466372 629585
0110100010010010: 496674 466372 496023 629585
0110100110000100: 496674 466372 496023 459747
0110100110000100: 496674 466372 496023 483282
0110100110000100: 496674 466372 496023 470232
0110100010010010: 496674 466372 496023 629585
0110100110000100: 496674 466372 496023 459747
0110100110000100: 496674 466372 496023 483282
0110100110000100: 496674 466372 496023 470232
0110100110000100: 496674 466372 496023 459747
0110100110000100: 496674 466372 496023 483282
0110100110000100: 496674 466372 496023 470232
0110100010010010: 496674 466372 496023 629585
0110100010010010: 459747 466372 489987 597830
0110100110000100: 459747 466372 489987 496674
0110100110000100: 459747 466372 489987 483282
0110100110000100: 459747 466372 489987 470232
0110100010010010: 459747 466372 489987 597830
0110100110000100: 459747 466372 489987 496674
0110100110000100: 459747 466372 489987 483282
0110100110000100: 459747 466372 489987 470232
0110100110000100: 459747 466372 489987 496674
0110100110000100: 459747 466372 489987 483282
0110100110000100: 459747 466372 489987 470232
0110100010010010: 459747 466372 489987 597830
0110100010010010: 459747 489987 466372 496674
0110100010010010: 459747 489987 466372 483282
0110100010010010: 459747 489987 466372 470232
0110100110000100: 459747 489987 466372 597830
0110100110000100: 459747 489987 466372 597830
0110100110000100: 459747 489987 466372 597830
0110100110000100: 459747 489987 466372 597830
0101101001001000: 476423 530254 494271 483282
0101101001001000: 476423 530254 494271 457191
0101101001001000: 476423 530254 494271 470232
0111101011001000: 476423 483282 457191 530254
0111101011001000: 476423 483282 457191 470232
0101101001001000: 476423 483282 466372 530254
0101101101001100: 476423 483282 466372 457191
0111101011001000: 476423 457191 483282 530254
0111101011001000: 476423 457191 483282 470232
0101101001001000: 476423 457191 509906 530254
0101101101001100: 476423 457191 509906 483282
0111100010001000: 476423 470232 483282 530254
0110100110010110: 476423 470232 483282 466372
0111100010001000: 476423 470232 457191 530254
0110100110010110: 476423 470232 457191 509906
0110100110000100: 476423 530254 483282 494271
0110100010010010: 476423 530254 483282 466372
0111100010011010: 476423 530254 483282 457191
0110100010010010: 476423 530254 483282 466372
0110100110000100: 476423 530254 457191 494271
0110100010010010: 476423 530254 457191 509906
0111100010011010: 476423 530254 457191 483282
0110100010010010: 476423 530254 457191 509906
0111100010001000: 476423 530254 470232 483282
0111100010001000: 476423 530254 470232 457191
0110100110000100: 476423 530254 470232 494271
0110100010010010: 476423 530254 470232 466372
0110100010010010: 476423 530254 470232 509906
0110100010010010: 476423 530254 470232 566384
0110100110000100: 476423 530254 483282 494271
0110100110000100: 476423 530254 483282 494271
0110100110000100: 476423 530254 483282 494271
0110100110000100: 476423 530254 457191 494271
0110100110000100: 476423 530254 457191 494271
0110100110000100: 476423 530254 457191 494271
0110100110000100: 476423 530254 470232 494271
0110100110000100: 476423 530254 470232 494271
0110100110000100: 476423 530254 470232 494271
0101101001001000: 476423 530254 494271 483282
0101101001001000: 476423 530254 494271 457191
0101101001001000: 476423 530254 494271 470232
0110100010010010: 476423 483282 530254 494271
0110100010010010: 476423 483282 530254 494271
0111100010001000: 476423 483282 470232 530254
0110100010010010: 476423 483282 470232 509906
0110100010010010: 476423 483282 470232 566384
0110100110010110: 476423 483282 470232 466372
0111100010001000: 476423 483282 530254 470232
0110100110000100: 476423 483282 530254 466372
0111100110001100: 476423 483282 530254 457191
0110100110000100: 476423 483282 530254 466372
0110100010010010: 476423 483282 530254 494271
0111100110001100: 476423 483282 470232 457191
0110100110010110: 476423 483282 470232 466372
0111101011001000: 476423 483282 457191 530254
0111101011001000: 476423 483282 457191 470232
0110101011010010: 476423 483282 457191 509906
0110101011010010: 476423 483282 457191 509906
0110101111000100: 476423 483282 457191 466372
0101101001001000: 476423 483282 466372 530254
0100101001010010: 476423 483282 466372 459747
0100101001010010: 476423 483282 466372 496674
0100101001010010: 476423 483282 466372 459747
0100101001010010: 476423 483282 466372 496674
0101101101001100: 476423 483282 466372 457191
0101101001011010: 476423 483282 466372 470232
0101101001011010: 476423 483282 466372 470232
0101101001011010: 476423 483282 466372 470232
0101101001001000: 476423 483282 466372 530254
0101101001001000: 476423 483282 466372 530254
0111101011001000: 476423 483282 457191 530254
0111101011001000: 476423 483282 457191 470232
0111101011001000: 476423 483282 457191 530254
0111101011001000: 476423 483282 457191 470232
0110101111000100: 476423 483282 457191 466372
0110101111000100: 476423 483282 457191 466372
0110101111000100: 476423 483282 457191 466372
0110101111000100: 476423 483282 457191 466372
0110101111000100: 476423 483282 457191 466372
0110100010010010: 476423 457191 530254 494271
0110100010010010: 476423 457191 530254 494271
0111100010001000: 476423 457191 470232 530254
0110100010010010: 476423 457191 470232 466372
0110100010010010: 476423 457191 470232 566384
0110100110010110: 476423 457191 470232 509906
0111100010001000: 476423 457191 530254 470232
0110100110000100: 476423 457191 530254 509906
0111100110001100: 476423 457191 530254 483282
0110100110000100: 476423 457191 530254 509906
0110100010010010: 476423 457191 530254 494271
0111100110001100: 476423 457191 470232 483282
0110100110010110: 476423 457191 470232 509906
0111101011001000: 476423 457191 483282 530254
0111101011001000: 476423 457191 483282 470232
0110101011010010: 476423 457191 483282 466372
0110101011010010: 476423 457191 483282 466372
0110101111000100: 476423 457191 483282 509906
0101101001001000: 476423 457191 509906 530254
0100101001010010: 476423 457191 509906 597830
0100101001010010: 476423 457191 509906 597830
0101101101001100: 476423 457191 509906 483282
0101101001011010: 476423 457191 509906 470232
0101101001011010: 476423 457191 509906 470232
0101101001011010: 476423 457191 509906 470232
0100101001010010: 476423 457191 509906 597830
0111101011001000: 476423 457191 483282 530254
0111101011001000: 476423 457191 483282 470232
0111101011001000: 476423 457191 483282 530254
0111101011001000: 476423 457191 483282 470232
0110101111000100: 476423 457191 483282 509906
0110101111000100: 476423 457191 483282 509906
0110101111000100: 476423 457191 483282 509906
0110101111000100: 476423 457191 483282 509906
0111101011001000: 476423 457191 483282 530254
0111101011001000: 476423 457191 483282 470232
0111101011001000: 476423 457191 483282 530254
0111101011001000: 476423 457191 483282 470232
0110101111000100: 476423 457191 483282 509906
0110100010010010: 476423 470232 530254 494271
0110100010010010: 476423 470232 530254 494271
0111100010001000: 476423 470232 483282 530254
0111100010011010: 476423 470232 483282 457191
0110100110010110: 476423 470232 483282 466372
0111100010001000: 476423 470232 457191 530254
0111100010011010: 476423 470232 457191 483282
0110100110010110: 476423 470232 457191 509906
0111100010001000: 476423 470232 530254 483282
0111100010001000: 476423 470232 530254 457191
0110100110000100: 476423 470232 530254 466372
0110100110000100: 476423 470232 530254 509906
0110100110000100: 476423 470232 530254 566384
0110100010010010: 476423 470232 530254 494271
0111100010001000: 476423 470232 483282 530254
0111100010001000: 476423 470232 483282 530254
0110100110000100: 476423 470232 483282 509906
0110100110000100: 476423 470232 483282 566384
0110100110010110: 476423 470232 483282 466372
0110100110010110: 476423 470232 483282 466372
0111100010001000: 476423 470232 457191 530254
0111100010001000: 476423 470232 457191 530254
0110100110000100: 476423 470232 457191 466372
0110100110000100: 476423 470232 457191 566384
0110100110010110: 476423 470232 457191 509906
0110100110010110: 476423 470232 457191 509906
0111100010001000: 476423 470232 530254 483282
0111100010001000: 476423 470232 530254 457191
0111100010001000: 476423 470232 530254 483282
0111100010001000: 476423 470232 530254 457191
0110100010010010: 476423 470232 530254 494271
0111100010001000: 476423 470232 483282 530254
0111100010001000: 476423 470232 483282 530254
0111100010011010: 476423 470232 483282 457191
0111100010011010: 476423 470232 483282 457191
0111100010011010: 476423 470232 483282 457191
0111100010001000: 476423 470232 457191 530254
0111100010001000: 476423 470232 457191 530254
0111100010011010: 476423 470232 457191 483282
0111100010011010: 476423 470232 457191 483282
0111100010011010: 476423 470232 457191 483282
0110100110000100: 476423 470232 530254 466372
0110100110000100: 476423 470232 530254 509906
0110100110000100: 476423 470232 530254 566384
0110100110000100: 476423 470232 530254 466372
0110100110000100: 476423 470232 530254 509906
0110100110000100: 476423 470232 530254 566384
0111100010001000: 476423 470232 530254 483282
0111100010001000: 476423 470232 530254 457191
0110100010010010: 476423 470232 530254 494271
0110100010010010: 476423 470232 530254 494271
0110100110000100: 476423 470232 483282 509906
0110100110000100: 476423 470232 483282 566384
0110100110000100: 476423 470232 483282 509906
0110100110000100: 476423 470232 483282 566384
0111100010001000: 476423 470232 483282 530254
0111100010001000: 476423 470232 483282 530254
0110100110010110: 476423 470232 483282 466372
0110100110010110: 476423 470232 483282 466372
0111100010011010: 476423 470232 483282 457191
0110100110000100: 476423 470232 457191 466372
0110100110000100: 476423 470232 457191 566384
0110100110000100: 476423 470232 457191 466372
0110100110000100: 476423 470232 457191 566384
0111100010001000: 476423 470232 457191 530254
0111100010001000: 476423 470232 457191 530254
0110100110010110: 476423 470232 457191 509906
0110100110010110: 476423 470232 457191 509906
0111100010011010: 476423 470232 457191 483282
0110100010010010: 496023 496674 629585 504579
0110100110000100: 496023 496674 629585 466372
0110100110000100: 496023 496674 629585 466372
0110100110000100: 496023 496674 629585 466372
0110100110000100: 496023 496674 629585 466372
0110100010010010: 496023 629585 496674 466372
0110100110000100: 496023 629585 496674 504579
0110100110000100: 496023 629585 496674 504579
0110100110000100: 496023 629585 496674 504579
0110100110000100: 496023 629585 496674 504579
0110100010010010: 530254 494271 476423 483282
0110100010010010: 530254 494271 476423 457191
0110100010010010: 530254 494271 476423 470232
0110100110000100: 530254 476423 494271 483282
0110100110000100: 530254 476423 494271 457191
0110100110000100: 530254 476423 494271 470232
0110100110000100: 530254 476423 494271 483282
0110100110000100: 530254 476423 494271 457191
0110100110000100: 530254 476423 494271 470232
0110100110000100: 530254 476423 494271 483282
0110100110000100: 530254 476423 494271 457191
0110100110000100: 530254 476423 494271 470232
