Vertex,0111010100110001000100010,0110010010100010100000100,0111010101110001000001000
506186,0.0,5.0,0.0
590449,0.0,4.0,0.0
550998,0.0,6.0,0.0
486161,0.0,3.0,0.0
586622,1.0,6.0,0.0
508310,0.0,2.0,0.0
538751,0.0,1.0,0.0
473011,2.0,6.0,1.0
617380,2.0,6.0,1.0
498792,1.0,6.0,1.0
518978,1.0,7.0,1.0
501996,2.0,2.0,1.0
528275,2.0,6.0,0.0
546593,1.0,3.0,0.0
570204,1.0,1.0,0.0
477759,1.0,1.0,0.0
619312,1.0,5.0,0.0
graph,3.0,14.0,1.0
