Vertex,0111101011001000,0111101111011110,0101101001001000,0110101111010110,0110100110010110,0101101001011010,0101101101011110,0110100010010010,0110101011010010,0111100110001100,0111101111001100,0100101101010110,0111100110011110,0111100010011010,0110101111000100,0111101011011010,0101101101001100,0100101001010010,0110100110000100,0111100010001000,0100101101000100
594875,181.0,0.0,62.0,37.0,0.0,0.0,1.0,123.0,44.0,40.0,54.0,0.0,1.0,34.0,76.0,40.0,4.0,24.0,222.0,246.0,4.0
468249,21.0,0.0,32.0,0.0,0.0,0.0,0.0,80.0,12.0,8.0,0.0,0.0,0.0,2.0,12.0,0.0,4.0,22.0,122.0,0.0,0.0
542982,0.0,0.0,18.0,0.0,0.0,0.0,0.0,69.0,0.0,0.0,0.0,0.0,0.0,0.0,0.0,0.0,0.0,36.0,91.0,24.0,2.0
467288,306.0,0.0,89.0,176.0,72.0,25.0,11.0,175.0,72.0,74.0,216.0,0.0,9.0,56.0,128.0,181.0,8.0,48.0,314.0,235.0,10.0
570191,1139.0,310.0,130.0,334.0,70.0,27.0,15.0,227.0,325.0,304.0,450.0,4.0,15.0,217.0,509.0,357.0,66.0,19.0,464.0,559.0,2.0
492253,228.0,0.0,60.0,95.0,35.0,14.0,7.0,99.0,58.0,54.0,108.0,0.0,5.0,42.0,98.0,94.0,8.0,19.0,199.0,274.0,12.0
643151,241.0,0.0,74.0,135.0,37.0,11.0,6.0,149.0,57.0,61.0,180.0,0.0,6.0,51.0,101.0,143.0,6.0,38.0,283.0,276.0,8.0
462691,699.0,310.0,110.0,138.0,144.0,51.0,6.0,231.0,194.0,221.0,198.0,6.0,7.0,139.0,310.0,156.0,44.0,29.0,435.0,325.0,12.0
542794,297.0,155.0,44.0,60.0,0.0,0.0,0.0,66.0,63.0,81.0,108.0,0.0,0.0,54.0,123.0,72.0,6.0,4.0,154.0,264.0,0.0
597815,237.0,0.0,30.0,17.0,0.0,0.0,1.0,49.0,52.0,52.0,18.0,0.0,1.0,46.0,98.0,16.0,4.0,3.0,99.0,222.0,4.0
515760,664.0,310.0,107.0,175.0,74.0,21.0,5.0,227.0,191.0,208.0,252.0,2.0,8.0,116.0,295.0,194.0,42.0,36.0,422.0,318.0,14.0
567579,379.0,0.0,94.0,57.0,72.0,26.0,1.0,172.0,104.0,104.0,90.0,8.0,2.0,97.0,168.0,66.0,20.0,19.0,339.0,268.0,4.0
587253,200.0,0.0,60.0,34.0,35.0,11.0,2.0,138.0,48.0,46.0,36.0,0.0,2.0,45.0,84.0,32.0,4.0,32.0,238.0,248.0,6.0
547931,496.0,155.0,128.0,118.0,70.0,25.0,5.0,240.0,161.0,151.0,162.0,0.0,4.0,76.0,229.0,125.0,38.0,50.0,453.0,361.0,16.0
546198,92.0,0.0,72.0,0.0,35.0,11.0,0.0,168.0,53.0,39.0,0.0,0.0,0.0,17.0,55.0,0.0,18.0,52.0,290.0,107.0,12.0
610560,103.0,0.0,26.0,0.0,0.0,0.0,0.0,45.0,29.0,38.0,0.0,0.0,0.0,14.0,47.0,0.0,10.0,2.0,115.0,78.0,0.0
598866,105.0,0.0,36.0,0.0,0.0,0.0,0.0,71.0,38.0,35.0,0.0,6.0,0.0,40.0,52.0,0.0,12.0,4.0,126.0,15.0,2.0
612121,256.0,0.0,70.0,0.0,72.0,26.0,0.0,130.0,77.0,84.0,0.0,10.0,0.0,87.0,119.0,0.0,22.0,21.0,255.0,54.0,2.0
568642,179.0,0.0,30.0,0.0,0.0,0.0,0.0,59.0,49.0,59.0,0.0,4.0,0.0,51.0,81.0,0.0,14.0,8.0,129.0,39.0,0.0
467312,77.0,0.0,36.0,0.0,0.0,0.0,0.0,54.0,41.0,29.0,0.0,0.0,0.0,8.0,43.0,0.0,14.0,2.0,126.0,83.0,10.0
graph,1475.0,310.0,327.0,344.0,179.0,62.0,15.0,643.0,417.0,422.0,468.0,10.0,15.0,298.0,657.0,369.0,86.0,117.0,1219.0,999.0,30.0
