0110010011100000100001000: 538123 546297 640837 511739 472720
0110010010100010100000100: 538123 640837 546297 468016 472720
0110010010100010100000100: 538123 640837 546297 468016 511739
0110010011100000100001000: 538123 640837 546297 539940 468016
0110010010100010100000100: 538123 640837 546297 539940 472720
0110010010100010100000100: 538123 640837 546297 539940 511739
0110010011100000100001000: 538123 640837 546297 600633 468016
0110010010100010100000100: 538123 640837 546297 600633 472720
0110010010100010100000100: 538123 640837 546297 600633 511739
0110010011100000100001000: 640837 468016 539940 578718 617904
0110010011100000100001000: 640837 468016 600633 578718 617904
0110010011100000100001000: 640837 468016 538123 578718 617904
0110010010100010100000100: 640837 600633 468016 612134 578718
0110010010100010100100110: 640837 600633 468016 612134 617904
0111010101110001000001000: 640837 600633 539940 468016 612134
0111010100110001000100010: 640837 600633 539940 468016 617904
0111010100110001000100010: 640837 600633 539940 468016 578718
0111110100110001000010000: 640837 600633 539940 538123 468016
0111010101110001000001000: 640837 600633 539940 538123 612134
0111010100110001000100010: 640837 600633 539940 538123 546297
0110010010100010100000100: 640837 538123 468016 546297 617904
0110010010100010100000100: 640837 538123 468016 546297 578718
0110010010100010100000100: 640837 538123 600633 546297 612134
0110010011100000100001000: 463892 472720 509832 546297 612134
0110010011100000100001000: 463892 472720 509832 599991 612134
0110010011100000100001000: 463892 472720 509832 599991 546297
0110010010100010100000100: 463892 509832 472720 464825 612134
0110010010100010100000100: 463892 509832 472720 464825 546297
0110010010100010100000100: 463892 509832 472720 464825 599991
0110010011100000100001000: 600633 612134 539940 472720 617904
0110010011100000100001000: 600633 612134 640837 472720 617904
0110010010100010100000100: 600633 640837 612134 468016 472720
0110010011100000100001000: 600633 640837 612134 538123 468016
0110010010100010100000100: 600633 640837 612134 538123 617904
0110010010100010100000100: 600633 640837 612134 538123 472720
0111010100110001000100010: 600633 640837 539940 612134 617904
0111010100110001000100010: 600633 640837 539940 612134 472720
0110010011100000100001000: 599991 472720 511739 463892 612134
0110010011100100110001000: 599991 472720 511739 546297 612134
0110010011100100110001000: 599991 472720 511739 546297 463892
0110010011100100110001000: 511739 546297 599991 472720 538123
0110010011100000100001000: 472720 612134 546297 600633 617904
0110010011100000100001000: 472720 612134 599991 600633 617904
0110010011100000100001000: 472720 612134 463892 600633 617904
0110010010100010100000100: 472720 546297 612134 511739 617904
0110010010100010100000100: 472720 546297 612134 511739 600633
0110010011100000100001000: 472720 546297 612134 538123 511739
0110010010100010100000100: 472720 546297 612134 538123 617904
0110010010100010100000100: 472720 546297 612134 538123 600633
0110010011100000100001000: 472720 546297 463892 538123 511739
0110010010100010100000100: 472720 599991 612134 511739 617904
0110010010100010100000100: 472720 599991 612134 511739 600633
0110010010100010100000100: 472720 463892 612134 509832 617904
0110010010100010100000100: 472720 463892 612134 509832 600633
0110010010100010100000100: 472720 463892 546297 509832 511739
0110010010100010100000100: 472720 463892 546297 509832 538123
0111110000100001000010000: 472720 463892 599991 546297 612134
0110010010100010100000100: 472720 463892 599991 509832 511739
0110010011100000100001000: 578718 468016 608889 640837 617904
0110010010100010100000100: 578718 608889 468016 493907 617904
0110010010100010100000100: 578718 608889 468016 493907 640837
0110010010100010100000100: 608889 578718 493907 468016 576527
0110010011100000100001000: 546297 472720 511739 463892 612134
0110010011100000100001000: 546297 472720 538123 599991 612134
0110010011100000100001000: 546297 472720 538123 463892 612134
0110010011100000100001000: 546297 472720 538123 463892 599991
0110010010100010100000100: 546297 538123 472720 640837 612134
0110010010100010100000100: 546297 538123 472720 640837 599991
0110010010100010100000100: 546297 538123 472720 640837 463892
0110010010100010100000100: 546297 538123 511739 640837 599991
0110010010100010100000100: 612134 472720 617904 546297 468016
0110010011100000100001000: 612134 472720 617904 599991 546297
0110010010100010100000100: 612134 472720 617904 599991 468016
0110010011100000100001000: 612134 472720 617904 463892 546297
0110010011100000100001000: 612134 472720 617904 463892 599991
0110010010100010100000100: 612134 472720 617904 463892 468016
0110010011100000100001000: 612134 472720 600633 599991 546297
0110010011100000100001000: 612134 472720 600633 463892 546297
0110010011100000100001000: 612134 472720 600633 463892 599991
0110010010100010100000100: 612134 600633 617904 539940 468016
0110010010100010100000100: 612134 600633 472720 539940 546297
0110010010100010100000100: 612134 600633 472720 539940 599991
0110010010100010100000100: 612134 600633 472720 539940 463892
0110010010100010100000100: 612134 600633 472720 640837 546297
0110010010100010100000100: 612134 600633 472720 640837 599991
0110010010100010100000100: 612134 600633 472720 640837 463892
0110010011100000100001000: 617904 468016 612134 640837 578718
0110010010100010100000100: 617904 612134 468016 472720 578718
0110010010100010100000100: 617904 612134 468016 472720 640837
0110010011100000100001000: 617904 612134 468016 600633 472720
0110010010100010100000100: 617904 612134 468016 600633 578718
0110010010100010100000100: 468016 578718 617904 608889 612134
0110010010100010100000100: 468016 640837 617904 539940 612134
0110010011100000100001000: 468016 640837 617904 538123 539940
0110010011100000100001000: 468016 640837 617904 538123 600633
0110010010100010100000100: 468016 640837 617904 538123 612134
0110010010100010100000100: 468016 640837 578718 539940 608889
0110010010100010100000100: 468016 640837 578718 600633 608889
0110010011100000100001000: 468016 640837 578718 538123 539940
0110010011100000100001000: 468016 640837 578718 538123 600633
0110010010100010100000100: 468016 640837 578718 538123 608889
