0110010010100010100000100: 593095 577956 557451 564372 492104
0110010010100010100000100: 577956 593095 564372 557451 529585
0110010010100010100000100: 492104 557451 487529 593095 556163
0110010010100010100000100: 557451 593095 492104 577956 487529
0110010010100010100000100: 564372 577956 529585 593095 594920
0110010010100010100000100: 487529 492104 556163 557451 479180
