Vertex,0111100110011110,0110101111010110,0110101011010010,0110101111000100,0111101011001000,0100101101000100,0100101001010010,0111100010001000,0101101001001000,0111101111001100,0111100110001100,0110100110000100,0110100010010010,0111100010011010,0111101011011010,0101101101001100
633987,2.0,10.0,9.0,17.0,40.0,0.0,10.0,24.0,18.0,18.0,12.0,91.0,46.0,6.0,17.0,2.0
542275,2.0,10.0,18.0,34.0,80.0,2.0,19.0,55.0,44.0,18.0,24.0,163.0,90.0,12.0,17.0,4.0
641934,2.0,10.0,18.0,34.0,80.0,0.0,0.0,8.0,10.0,18.0,24.0,53.0,28.0,12.0,17.0,4.0
585683,0.0,0.0,5.0,9.0,20.0,0.0,14.0,0.0,14.0,0.0,8.0,68.0,41.0,2.0,0.0,2.0
618202,0.0,0.0,0.0,0.0,0.0,2.0,14.0,15.0,18.0,0.0,0.0,73.0,45.0,0.0,0.0,0.0
556056,0.0,0.0,4.0,8.0,20.0,0.0,3.0,32.0,16.0,0.0,4.0,65.0,32.0,4.0,0.0,0.0
584348,0.0,0.0,4.0,8.0,20.0,2.0,20.0,47.0,30.0,0.0,4.0,125.0,66.0,4.0,0.0,0.0
463401,2.0,10.0,9.0,17.0,40.0,0.0,10.0,24.0,18.0,18.0,12.0,91.0,46.0,6.0,17.0,2.0
540511,0.0,0.0,5.0,9.0,20.0,0.0,14.0,0.0,14.0,0.0,8.0,68.0,41.0,2.0,0.0,2.0
654135,0.0,0.0,0.0,0.0,0.0,2.0,14.0,15.0,18.0,0.0,0.0,73.0,45.0,0.0,0.0,0.0
599380,0.0,0.0,0.0,0.0,0.0,0.0,3.0,0.0,8.0,0.0,0.0,37.0,20.0,0.0,0.0,0.0
650655,0.0,0.0,0.0,0.0,0.0,0.0,3.0,0.0,0.0,0.0,0.0,9.0,4.0,0.0,0.0,0.0
graph,2.0,10.0,18.0,34.0,80.0,2.0,31.0,55.0,52.0,18.0,24.0,229.0,126.0,12.0,17.0,4.0
