Vertex,0110010011100110110001100,0111010101110001000101010,0111110000100001000010000,0111010101110001000001000,0111110100110001000110010,0111110111110101110011000,0111110111110111110011100,0110010011100100110001000,0110010010100010100100110,0111110110110011100010100,0110010010100010100000100,0111110110110101110010000,0111110110110011100110110,0111110100110001000010000,0111010100110001000100010,0110010011100000100001000,0111110110110001100010000,0111110111110001100011000,0111010110110011100100110,0111010110110011100000100
657526,1.0,14.0,47.0,138.0,13.0,5.0,1.0,33.0,2.0,40.0,138.0,7.0,2.0,125.0,76.0,303.0,118.0,10.0,3.0,67.0
485904,0.0,2.0,17.0,58.0,2.0,0.0,0.0,11.0,0.0,6.0,62.0,1.0,0.0,30.0,27.0,177.0,18.0,1.0,0.0,16.0
460145,0.0,7.0,92.0,92.0,10.0,1.0,0.0,51.0,3.0,20.0,139.0,1.0,2.0,105.0,65.0,358.0,66.0,7.0,1.0,38.0
473859,1.0,7.0,56.0,64.0,17.0,6.0,1.0,16.0,1.0,15.0,44.0,16.0,0.0,116.0,51.0,133.0,45.0,3.0,2.0,20.0
491400,0.0,1.0,0.0,7.0,0.0,0.0,0.0,7.0,0.0,0.0,68.0,0.0,0.0,0.0,12.0,29.0,0.0,0.0,0.0,2.0
554444,0.0,4.0,46.0,49.0,16.0,6.0,1.0,6.0,2.0,16.0,55.0,16.0,0.0,108.0,54.0,153.0,61.0,4.0,0.0,23.0
596508,2.0,17.0,11.0,74.0,3.0,1.0,0.0,42.0,2.0,5.0,82.0,1.0,0.0,21.0,28.0,162.0,18.0,0.0,3.0,14.0
605177,0.0,3.0,102.0,34.0,4.0,1.0,0.0,19.0,0.0,12.0,33.0,1.0,1.0,102.0,22.0,195.0,42.0,5.0,0.0,15.0
496815,0.0,9.0,72.0,81.0,11.0,1.0,0.0,32.0,4.0,17.0,142.0,1.0,1.0,107.0,47.0,306.0,67.0,7.0,1.0,26.0
628791,0.0,2.0,66.0,37.0,9.0,1.0,1.0,6.0,0.0,9.0,30.0,9.0,0.0,99.0,31.0,134.0,29.0,1.0,0.0,14.0
485999,0.0,3.0,62.0,54.0,13.0,2.0,0.0,5.0,3.0,6.0,76.0,0.0,0.0,97.0,40.0,159.0,41.0,1.0,0.0,13.0
504161,0.0,2.0,13.0,40.0,4.0,0.0,0.0,18.0,0.0,8.0,37.0,1.0,1.0,27.0,38.0,190.0,20.0,1.0,0.0,25.0
468016,2.0,10.0,87.0,45.0,5.0,0.0,0.0,32.0,0.0,6.0,50.0,2.0,0.0,100.0,21.0,171.0,29.0,1.0,2.0,7.0
582518,2.0,10.0,79.0,44.0,9.0,0.0,0.0,23.0,2.0,3.0,47.0,2.0,0.0,103.0,23.0,138.0,26.0,0.0,1.0,5.0
561428,2.0,21.0,220.0,200.0,28.0,6.0,1.0,67.0,2.0,42.0,136.0,16.0,2.0,312.0,106.0,548.0,154.0,11.0,4.0,72.0
484853,0.0,3.0,106.0,27.0,0.0,0.0,0.0,16.0,0.0,0.0,33.0,2.0,0.0,90.0,11.0,164.0,22.0,0.0,0.0,4.0
477738,0.0,1.0,86.0,31.0,8.0,0.0,0.0,28.0,0.0,3.0,59.0,2.0,0.0,89.0,24.0,161.0,31.0,1.0,1.0,10.0
569655,0.0,4.0,49.0,73.0,18.0,0.0,0.0,23.0,1.0,12.0,56.0,2.0,1.0,112.0,31.0,139.0,53.0,2.0,1.0,20.0
466312,0.0,0.0,8.0,25.0,0.0,0.0,0.0,5.0,3.0,0.0,65.0,0.0,0.0,8.0,15.0,130.0,4.0,0.0,0.0,7.0
473234,0.0,2.0,8.0,32.0,0.0,0.0,0.0,26.0,0.0,0.0,80.0,0.0,0.0,8.0,24.0,133.0,4.0,0.0,1.0,7.0
637990,0.0,3.0,4.0,22.0,0.0,0.0,0.0,11.0,0.0,0.0,50.0,0.0,0.0,3.0,21.0,133.0,3.0,0.0,0.0,6.0
616550,0.0,0.0,4.0,25.0,0.0,0.0,0.0,3.0,4.0,0.0,107.0,0.0,0.0,3.0,22.0,118.0,3.0,0.0,0.0,6.0
577463,0.0,0.0,0.0,18.0,0.0,0.0,0.0,0.0,1.0,0.0,71.0,0.0,0.0,0.0,16.0,56.0,1.0,0.0,0.0,3.0
graph,2.0,25.0,247.0,254.0,34.0,6.0,1.0,96.0,6.0,44.0,332.0,16.0,2.0,353.0,161.0,838.0,171.0,11.0,4.0,84.0
