0111010101110001000001000: 564950 650788 568040 651631 547395
0111010101110001000001000: 564950 650788 568040 487615 547395
0111010101110001000001000: 564950 568040 650788 651631 643823
0111010101110001000001000: 564950 568040 650788 651631 465364
0111010100110001000100010: 564950 568040 650788 651631 481237
0111010101110001000001000: 564950 568040 650788 487615 643823
0111010101110001000001000: 564950 568040 650788 487615 465364
0111010100110001000100010: 564950 568040 650788 487615 527664
0111010100110001000100010: 564950 568040 650788 487615 530121
0111010110110011100000100: 564950 568040 554368 650788 638526
0111010110110011100000100: 564950 568040 554368 650788 481237
0111010110110011100000100: 564950 568040 554368 650788 527664
0111010110110011100000100: 564950 568040 554368 650788 530121
0111010110110011100100110: 564950 568040 554368 650788 547395
0110010010100010100000100: 564950 651631 650788 481237 547395
0110010010100010100000100: 564950 651631 568040 481237 643823
0110010010100010100000100: 564950 651631 568040 481237 465364
0111010101110001000001000: 564950 651631 487615 650788 481237
0111010101110001000001000: 564950 651631 487615 568040 481237
0110010010100010100000100: 564950 487615 650788 527664 547395
0110010011100000100001000: 564950 487615 650788 530121 527664
0110010010100010100000100: 564950 487615 650788 530121 547395
0110010010100010100000100: 564950 487615 568040 527664 643823
0110010010100010100000100: 564950 487615 568040 527664 465364
0110010011100000100001000: 564950 487615 568040 530121 527664
0110010010100010100000100: 564950 487615 568040 530121 643823
0110010010100010100100110: 564950 487615 568040 530121 465364
0111010101110001000001000: 564950 487615 651631 650788 527664
0111010101110001000001000: 564950 487615 651631 650788 530121
0111010100110001000100010: 564950 487615 651631 650788 547395
0111010101110001000001000: 564950 487615 651631 568040 527664
0111010101110001000001000: 564950 487615 651631 568040 530121
0111010100110001000100010: 564950 487615 651631 568040 643823
0111010100110001000100010: 564950 487615 651631 568040 465364
0111110100110001000110010: 564950 487615 651631 568040 650788
0110010011100000100001000: 564950 554368 650788 481237 638526
0110010011100000100001000: 564950 554368 650788 465364 638526
0110010011100000100001000: 564950 554368 650788 465364 481237
0110010011100000100001000: 564950 554368 650788 527664 638526
0110010011100000100001000: 564950 554368 650788 527664 481237
0110010011100000100001000: 564950 554368 650788 527664 465364
0110010011100000100001000: 564950 554368 650788 530121 638526
0110010011100000100001000: 564950 554368 650788 530121 481237
0110010011100000100001000: 564950 554368 650788 530121 527664
0110010011100100110001000: 564950 554368 650788 547395 638526
0110010011100100110001000: 564950 554368 650788 547395 481237
0110010011100100110001000: 564950 554368 650788 547395 465364
0110010011100100110001000: 564950 554368 650788 547395 527664
0110010011100100110001000: 564950 554368 650788 547395 530121
0111110110110011100010100: 564950 554368 568040 651631 650788
0111010110110011100000100: 564950 554368 568040 651631 643823
0111110110110011100010100: 564950 554368 568040 487615 650788
0111010110110011100000100: 564950 554368 568040 487615 643823
0111010101110001000001000: 564950 554368 651631 650788 638526
0111010101110001000001000: 564950 554368 651631 650788 465364
0111010101110001000001000: 564950 554368 651631 650788 527664
0111010101110001000001000: 564950 554368 651631 650788 530121
0111010101110001000101010: 564950 554368 651631 650788 547395
0111010101110001000001000: 564950 554368 487615 650788 638526
0111010101110001000001000: 564950 554368 487615 650788 481237
0111010101110001000001000: 564950 554368 487615 650788 465364
0111010101110001000101010: 564950 554368 487615 650788 547395
0111110110110101110010000: 564950 554368 487615 651631 650788
0111110111110101110011000: 564950 554368 487615 651631 568040
0110010010100010100000100: 554368 547395 638526 650788 586421
0110010010100010100000100: 554368 481237 638526 468174 586421
0110010010100010100000100: 554368 481237 547395 468174 650788
0111010101110001000001000: 554368 481237 651631 638526 468174
0111010101110001000001000: 554368 481237 651631 547395 468174
0111010101110001000001000: 554368 481237 651631 465364 468174
0111010101110001000001000: 554368 481237 651631 568040 468174
0111010101110001000001000: 554368 481237 651631 527664 468174
0111010101110001000001000: 554368 481237 651631 530121 468174
0110010010100010100000100: 554368 465364 638526 643823 586421
0110010010100010100000100: 554368 465364 547395 643823 650788
0111110000100001000010000: 554368 465364 481237 547395 638526
0110010010100010100000100: 554368 465364 481237 643823 468174
0111010110110011100000100: 554368 465364 568040 530121 650788
0111010101110001000001000: 554368 465364 530121 638526 643823
0111010101110001000001000: 554368 465364 530121 547395 643823
0111010101110001000001000: 554368 465364 530121 481237 643823
0111010101110001000001000: 554368 465364 530121 527664 643823
0111010101110001000001000: 554368 465364 530121 651631 643823
0111010101110001000001000: 554368 465364 530121 564950 643823
0111110110110001100010000: 554368 465364 530121 568040 638526
0111110110110001100010000: 554368 465364 530121 568040 547395
0111110110110001100010000: 554368 465364 530121 568040 481237
0111110110110001100010000: 554368 465364 530121 568040 527664
0111110110110001100010000: 554368 465364 530121 568040 651631
0110010010100010100000100: 554368 568040 638526 643823 586421
0110010011100000100001000: 554368 568040 638526 650788 643823
0110010010100010100000100: 554368 568040 638526 650788 586421
0110010011100100110001000: 554368 568040 547395 650788 643823
0111110000100001000010000: 554368 568040 481237 547395 638526
0110010010100010100000100: 554368 568040 481237 643823 468174
0110010011100000100001000: 554368 568040 481237 650788 643823
0110010010100010100000100: 554368 568040 481237 650788 468174
0110010011100000100001000: 554368 568040 527664 650788 643823
0110010011100000100001000: 554368 568040 651631 650788 643823
0110010011100000100001000: 554368 568040 487615 650788 643823
0110010011100000100001000: 554368 568040 530121 650788 643823
0111010101110001000001000: 554368 568040 465364 638526 650788
0111010100110001000100010: 554368 568040 465364 638526 586421
0111110100110001000010000: 554368 568040 465364 547395 638526
0111010101110001000101010: 554368 568040 465364 547395 650788
0111110100110001000010000: 554368 568040 465364 481237 638526
0111110100110001000010000: 554368 568040 465364 481237 547395
0111010101110001000001000: 554368 568040 465364 481237 650788
0111010100110001000100010: 554368 568040 465364 481237 468174
0111110100110001000010000: 554368 568040 465364 527664 638526
0111110100110001000010000: 554368 568040 465364 527664 547395
0111110100110001000010000: 554368 568040 465364 527664 481237
0111010101110001000001000: 554368 568040 465364 527664 650788
0111010100110001000100010: 554368 568040 465364 527664 586421
0111110100110001000010000: 554368 568040 465364 651631 638526
0111110100110001000010000: 554368 568040 465364 651631 547395
0111110100110001000010000: 554368 568040 465364 651631 527664
0111010101110001000001000: 554368 568040 465364 651631 650788
0111110100110001000010000: 554368 568040 465364 487615 638526
0111110100110001000010000: 554368 568040 465364 487615 547395
0111110100110001000010000: 554368 568040 465364 487615 481237
0111010101110001000001000: 554368 568040 465364 487615 650788
0111110110110011100010100: 554368 568040 465364 564950 530121
0111010101110001000001000: 554368 568040 564950 638526 643823
0111010101110001000001000: 554368 568040 564950 547395 643823
0111010101110001000001000: 554368 568040 564950 481237 643823
0111010101110001000001000: 554368 568040 564950 527664 643823
0111010101110001000001000: 554368 568040 564950 530121 643823
0111110110110001100010000: 554368 568040 564950 465364 638526
0111110110110001100010000: 554368 568040 564950 465364 547395
0111110110110001100010000: 554368 568040 564950 465364 481237
0111110110110001100010000: 554368 568040 564950 465364 527664
0110010010100010100000100: 554368 527664 547395 586421 650788
0111110000100001000010000: 554368 527664 481237 547395 638526
0110010010100010100000100: 554368 527664 481237 586421 468174
0111110000100001000010000: 554368 527664 465364 547395 638526
0111110000100001000010000: 554368 527664 465364 481237 638526
0111110000100001000010000: 554368 527664 465364 481237 547395
0110010010100010100000100: 554368 527664 465364 586421 643823
0111110000100001000010000: 554368 527664 568040 547395 638526
0111110000100001000010000: 554368 527664 568040 481237 638526
0111110000100001000010000: 554368 527664 568040 481237 547395
0110010010100010100000100: 554368 527664 568040 586421 643823
0110010010100010100000100: 554368 527664 568040 586421 650788
0111010101110001000101010: 554368 527664 487615 638526 586421
0111010101110001000001000: 554368 527664 487615 547395 586421
0111010101110001000001000: 554368 527664 487615 481237 586421
0111010101110001000001000: 554368 527664 487615 465364 586421
0111010101110001000001000: 554368 527664 487615 568040 586421
0111110000100001000010000: 554368 651631 465364 547395 638526
0111110000100001000010000: 554368 651631 568040 547395 638526
0111110000100001000010000: 554368 651631 527664 547395 638526
0111110000100001000010000: 554368 651631 527664 465364 638526
0111110000100001000010000: 554368 651631 527664 465364 547395
0111110000100001000010000: 554368 651631 527664 568040 638526
0111110000100001000010000: 554368 651631 527664 568040 547395
0111010100110001000100010: 554368 651631 481237 638526 586421
0111110100110001000010000: 554368 651631 481237 547395 638526
0111010100110001000100010: 554368 651631 481237 547395 650788
0111110100110001000010000: 554368 651631 481237 465364 638526
0111110100110001000010000: 554368 651631 481237 465364 547395
0111010100110001000100010: 554368 651631 481237 465364 643823
0111110100110001000010000: 554368 651631 481237 568040 638526
0111110100110001000010000: 554368 651631 481237 568040 547395
0111010100110001000100010: 554368 651631 481237 568040 643823
0111010100110001000100010: 554368 651631 481237 568040 650788
0111110100110001000110010: 554368 651631 481237 568040 465364
0111110100110001000010000: 554368 651631 481237 527664 638526
0111110100110001000010000: 554368 651631 481237 527664 547395
0111110100110001000010000: 554368 651631 481237 527664 465364
0111110100110001000010000: 554368 651631 481237 527664 568040
0111010100110001000100010: 554368 651631 481237 527664 586421
0111110100110001000010000: 554368 651631 481237 530121 638526
0111110100110001000010000: 554368 651631 481237 530121 547395
0111110100110001000010000: 554368 651631 481237 530121 568040
0111110100110001000010000: 554368 651631 481237 530121 527664
0111010110110011100000100: 554368 651631 481237 487615 468174
0111010110110011100000100: 554368 651631 481237 564950 468174
0111110110110001100010000: 554368 651631 487615 481237 638526
0111110110110001100010000: 554368 651631 487615 481237 547395
0111110110110001100010000: 554368 651631 487615 481237 465364
0111110110110001100010000: 554368 651631 487615 481237 568040
0111110110110001100010000: 554368 651631 564950 481237 638526
0111110110110001100010000: 554368 651631 564950 481237 547395
0111110110110001100010000: 554368 651631 564950 481237 465364
0111110110110001100010000: 554368 651631 564950 481237 527664
0111110110110001100010000: 554368 651631 564950 481237 530121
0111010110110011100000100: 554368 651631 564950 481237 650788
0111110111110101110011000: 554368 651631 564950 487615 481237
0111110000100001000010000: 554368 487615 481237 547395 638526
0111110000100001000010000: 554368 487615 465364 547395 638526
0111110000100001000010000: 554368 487615 465364 481237 638526
0111110000100001000010000: 554368 487615 465364 481237 547395
0111110000100001000010000: 554368 487615 568040 547395 638526
0111110000100001000010000: 554368 487615 568040 481237 638526
0111110000100001000010000: 554368 487615 568040 481237 547395
0111110100110001000010000: 554368 487615 527664 547395 638526
0111010100110001000100010: 554368 487615 527664 547395 650788
0111110100110001000010000: 554368 487615 527664 481237 638526
0111110100110001000010000: 554368 487615 527664 481237 547395
0111010100110001000100010: 554368 487615 527664 481237 468174
0111110100110001000010000: 554368 487615 527664 465364 638526
0111110100110001000010000: 554368 487615 527664 465364 547395
0111110100110001000010000: 554368 487615 527664 465364 481237
0111010100110001000100010: 554368 487615 527664 465364 643823
0111110100110001000010000: 554368 487615 527664 568040 638526
0111110100110001000010000: 554368 487615 527664 568040 547395
0111110100110001000010000: 554368 487615 527664 568040 481237
0111010100110001000100010: 554368 487615 527664 568040 643823
0111010100110001000100010: 554368 487615 527664 568040 650788
0111110100110001000110010: 554368 487615 527664 568040 465364
0111010110110011100000100: 554368 487615 527664 651631 586421
0111010110110011100000100: 554368 487615 527664 530121 586421
0111010110110011100000100: 554368 487615 527664 564950 586421
0111010100110001000100010: 554368 487615 651631 638526 586421
0111110100110001000010000: 554368 487615 651631 547395 638526
0111010100110001000100010: 554368 487615 651631 547395 650788
0111110100110001000010000: 554368 487615 651631 465364 638526
0111110100110001000010000: 554368 487615 651631 465364 547395
0111010100110001000100010: 554368 487615 651631 465364 643823
0111110100110001000010000: 554368 487615 651631 568040 638526
0111110100110001000010000: 554368 487615 651631 568040 547395
0111010100110001000100010: 554368 487615 651631 568040 643823
0111010100110001000100010: 554368 487615 651631 568040 650788
0111110100110001000110010: 554368 487615 651631 568040 465364
0111110110110001100010000: 554368 487615 651631 527664 638526
0111110110110001100010000: 554368 487615 651631 527664 547395
0111110110110001100010000: 554368 487615 651631 527664 465364
0111110110110001100010000: 554368 487615 651631 527664 568040
0111110110110011100010100: 554368 487615 651631 527664 481237
0111110110110011100010100: 554368 487615 651631 530121 481237
0111110110110001100010000: 554368 487615 530121 527664 638526
0111110110110001100010000: 554368 487615 530121 527664 547395
0111110110110001100010000: 554368 487615 530121 527664 481237
0111110110110001100010000: 554368 487615 530121 527664 568040
0111110110110001100010000: 554368 487615 530121 651631 638526
0111110110110001100010000: 554368 487615 530121 651631 547395
0111110110110001100010000: 554368 487615 530121 651631 568040
0111110111110001100011000: 554368 487615 530121 651631 527664
0111110110110001100010000: 554368 487615 564950 527664 638526
0111110110110001100010000: 554368 487615 564950 527664 547395
0111110110110001100010000: 554368 487615 564950 527664 481237
0111110110110001100010000: 554368 487615 564950 527664 465364
0111010110110011100000100: 554368 487615 564950 527664 650788
0111110110110001100010000: 554368 487615 564950 530121 638526
0111110110110001100010000: 554368 487615 564950 530121 547395
0111110110110001100010000: 554368 487615 564950 530121 481237
0111110111110001100011000: 554368 487615 564950 530121 527664
0111010110110011100000100: 554368 487615 564950 530121 650788
0111110111110101110011000: 554368 487615 564950 651631 527664
0111110111110101110011000: 554368 487615 564950 651631 530121
0111110000100001000010000: 554368 530121 481237 547395 638526
0111110000100001000010000: 554368 530121 568040 547395 638526
0111110000100001000010000: 554368 530121 568040 481237 638526
0111110000100001000010000: 554368 530121 568040 481237 547395
0111110000100001000010000: 554368 530121 527664 547395 638526
0111110000100001000010000: 554368 530121 527664 481237 638526
0111110000100001000010000: 554368 530121 527664 481237 547395
0111110000100001000010000: 554368 530121 527664 568040 638526
0111110000100001000010000: 554368 530121 527664 568040 547395
0111110000100001000010000: 554368 530121 527664 568040 481237
0111110000100001000010000: 554368 530121 651631 547395 638526
0111110000100001000010000: 554368 530121 651631 568040 638526
0111110000100001000010000: 554368 530121 651631 568040 547395
0111110000100001000010000: 554368 530121 651631 527664 638526
0111110000100001000010000: 554368 530121 651631 527664 547395
0111110000100001000010000: 554368 530121 651631 527664 568040
0111010100110001000100010: 554368 530121 465364 638526 586421
0111110100110001000010000: 554368 530121 465364 547395 638526
0111010100110001000100010: 554368 530121 465364 547395 650788
0111110100110001000010000: 554368 530121 465364 481237 638526
0111110100110001000010000: 554368 530121 465364 481237 547395
0111010100110001000100010: 554368 530121 465364 481237 468174
0111110100110001000010000: 554368 530121 465364 527664 638526
0111110100110001000010000: 554368 530121 465364 527664 547395
0111110100110001000010000: 554368 530121 465364 527664 481237
0111010100110001000100010: 554368 530121 465364 527664 586421
0111110100110001000010000: 554368 530121 465364 651631 638526
0111110100110001000010000: 554368 530121 465364 651631 547395
0111110100110001000010000: 554368 530121 465364 651631 527664
0111110100110001000110010: 554368 530121 465364 651631 481237
0111110100110001000010000: 554368 530121 465364 564950 638526
0111110100110001000010000: 554368 530121 465364 564950 547395
0111110100110001000010000: 554368 530121 465364 564950 481237
0111110100110001000010000: 554368 530121 465364 564950 527664
0111010100110001000100010: 554368 530121 465364 564950 650788
0111110110110011100010100: 554368 530121 465364 487615 568040
0111010110110011100000100: 554368 530121 465364 487615 643823
0111010100110001000100010: 554368 530121 487615 638526 586421
0111110100110001000010000: 554368 530121 487615 547395 638526
0111010100110001000100010: 554368 530121 487615 547395 650788
0111110100110001000010000: 554368 530121 487615 481237 638526
0111110100110001000010000: 554368 530121 487615 481237 547395
0111010100110001000100010: 554368 530121 487615 481237 468174
0111110100110001000010000: 554368 530121 487615 568040 638526
0111110100110001000010000: 554368 530121 487615 568040 547395
0111110100110001000010000: 554368 530121 487615 568040 481237
0111010100110001000100010: 554368 530121 487615 568040 643823
0111010100110001000100010: 554368 530121 487615 568040 650788
0111110110110001100010000: 554368 530121 487615 465364 638526
0111110110110001100010000: 554368 530121 487615 465364 547395
0111110110110001100010000: 554368 530121 487615 465364 481237
0111110110110011100010100: 554368 530121 487615 465364 527664
0111110110110011100010100: 554368 530121 487615 465364 651631
0111110110110011100010100: 554368 530121 487615 465364 564950
0110010010100010100000100: 554368 564950 638526 650788 586421
0111110000100001000010000: 554368 564950 481237 547395 638526
0110010010100010100000100: 554368 564950 481237 650788 468174
0111110000100001000010000: 554368 564950 465364 547395 638526
0111110000100001000010000: 554368 564950 465364 481237 638526
0111110000100001000010000: 554368 564950 465364 481237 547395
0110010010100010100000100: 554368 564950 465364 650788 643823
0111110000100001000010000: 554368 564950 527664 547395 638526
0111110000100001000010000: 554368 564950 527664 481237 638526
0111110000100001000010000: 554368 564950 527664 481237 547395
0111110000100001000010000: 554368 564950 527664 465364 638526
0111110000100001000010000: 554368 564950 527664 465364 547395
0111110000100001000010000: 554368 564950 527664 465364 481237
0110010010100010100000100: 554368 564950 527664 650788 586421
0111110000100001000010000: 554368 564950 530121 547395 638526
0111110000100001000010000: 554368 564950 530121 481237 638526
0111110000100001000010000: 554368 564950 530121 481237 547395
0111110000100001000010000: 554368 564950 530121 527664 638526
0111110000100001000010000: 554368 564950 530121 527664 547395
0111110000100001000010000: 554368 564950 530121 527664 481237
0111010100110001000100010: 554368 564950 568040 638526 586421
0111110100110001000010000: 554368 564950 568040 547395 638526
0111110100110001000010000: 554368 564950 568040 481237 638526
0111110100110001000010000: 554368 564950 568040 481237 547395
0111010100110001000100010: 554368 564950 568040 481237 468174
0111110100110001000010000: 554368 564950 568040 527664 638526
0111110100110001000010000: 554368 564950 568040 527664 547395
0111110100110001000010000: 554368 564950 568040 527664 481237
0111010100110001000100010: 554368 564950 568040 527664 586421
0111110100110001000010000: 554368 564950 568040 530121 638526
0111110100110001000010000: 554368 564950 568040 530121 547395
0111110100110001000010000: 554368 564950 568040 530121 481237
0111110100110001000010000: 554368 564950 568040 530121 527664
0111110110110011100010100: 554368 564950 568040 651631 465364
0111110110110011100010100: 554368 564950 568040 487615 465364
0111010100110001000100010: 554368 564950 651631 638526 586421
0111110100110001000010000: 554368 564950 651631 547395 638526
0111110100110001000010000: 554368 564950 651631 465364 638526
0111110100110001000010000: 554368 564950 651631 465364 547395
0111010100110001000100010: 554368 564950 651631 465364 643823
0111110100110001000010000: 554368 564950 651631 527664 638526
0111110100110001000010000: 554368 564950 651631 527664 547395
0111110100110001000010000: 554368 564950 651631 527664 465364
0111010100110001000100010: 554368 564950 651631 527664 586421
0111110100110001000010000: 554368 564950 651631 530121 638526
0111110100110001000010000: 554368 564950 651631 530121 547395
0111110100110001000010000: 554368 564950 651631 530121 527664
0111110100110001000110010: 554368 564950 651631 530121 465364
0111110110110001100010000: 554368 564950 651631 568040 638526
0111110110110001100010000: 554368 564950 651631 568040 547395
0111110110110001100010000: 554368 564950 651631 568040 527664
0111110110110001100010000: 554368 564950 651631 568040 530121
0111110110110011100010100: 554368 564950 651631 568040 481237
0111010100110001000100010: 554368 564950 487615 638526 586421
0111110100110001000010000: 554368 564950 487615 547395 638526
0111110100110001000010000: 554368 564950 487615 481237 638526
0111110100110001000010000: 554368 564950 487615 481237 547395
0111010100110001000100010: 554368 564950 487615 481237 468174
0111110100110001000010000: 554368 564950 487615 465364 638526
0111110100110001000010000: 554368 564950 487615 465364 547395
0111110100110001000010000: 554368 564950 487615 465364 481237
0111010100110001000100010: 554368 564950 487615 465364 643823
0111110110110001100010000: 554368 564950 487615 568040 638526
0111110110110001100010000: 554368 564950 487615 568040 547395
0111110110110001100010000: 554368 564950 487615 568040 481237
0111110110110011100010100: 554368 564950 487615 568040 527664
0111110110110011100010100: 554368 564950 487615 568040 530121
0111110110110101110010000: 554368 564950 487615 651631 638526
0111110110110101110010000: 554368 564950 487615 651631 547395
0111110110110101110010000: 554368 564950 487615 651631 465364
0110010010100010100000100: 530121 487615 465364 527664 643823
0110010010100010100000100: 530121 487615 465364 527664 568040
0110010011100000100001000: 530121 487615 465364 651631 527664
0110010010100010100000100: 530121 487615 465364 651631 643823
0110010010100010100000100: 530121 487615 465364 651631 568040
0110010011100000100001000: 530121 487615 465364 564950 527664
0110010010100010100000100: 530121 487615 465364 564950 643823
0110010010100010100000100: 487615 651631 527664 481237 586421
0111010101110001000001000: 487615 651631 564950 527664 481237
0111010101110001000001000: 487615 651631 564950 530121 481237
0110010010100010100000100: 487615 530121 527664 465364 586421
0110010010100010100000100: 487615 530121 651631 465364 481237
0110010010100010100000100: 487615 564950 527664 650788 586421
0110010010100010100000100: 487615 564950 527664 568040 586421
0110010010100010100000100: 487615 564950 530121 650788 465364
0111010100110001000100010: 487615 564950 651631 527664 586421
0111110100110001000010000: 487615 564950 651631 530121 527664
0111010100110001000100010: 487615 564950 651631 530121 465364
0110010010100010100000100: 651631 487615 481237 527664 468174
0110010011100000100001000: 651631 487615 481237 530121 527664
0110010010100010100000100: 651631 487615 481237 530121 468174
0110010010100010100000100: 651631 564950 481237 650788 468174
0110010010100010100000100: 651631 564950 481237 568040 468174
0111010100110001000100010: 651631 564950 487615 481237 468174
0110010010100010100000100: 527664 487615 586421 651631 638526
0110010011100000100001000: 527664 487615 586421 530121 651631
0110010010100010100000100: 527664 487615 586421 530121 638526
0110010011100000100001000: 527664 487615 586421 564950 530121
0110010010100010100000100: 527664 487615 586421 564950 638526
0110010011100000100001000: 527664 554368 586421 481237 547395
0110010011100000100001000: 527664 554368 586421 465364 547395
0110010011100000100001000: 527664 554368 586421 465364 481237
0110010011100000100001000: 527664 554368 586421 568040 547395
0110010011100000100001000: 527664 554368 586421 568040 481237
0110010011100000100001000: 527664 554368 586421 651631 547395
0110010011100000100001000: 527664 554368 586421 651631 465364
0110010011100000100001000: 527664 554368 586421 651631 568040
0110010011100000100001000: 527664 554368 586421 530121 547395
0110010011100000100001000: 527664 554368 586421 530121 481237
0110010011100000100001000: 527664 554368 586421 530121 568040
0110010011100000100001000: 527664 554368 586421 530121 651631
0110010011100000100001000: 527664 554368 586421 564950 547395
0110010011100000100001000: 527664 554368 586421 564950 481237
0110010011100000100001000: 527664 554368 586421 564950 465364
0110010011100000100001000: 527664 554368 586421 564950 530121
0110010011100100110001000: 527664 554368 586421 638526 547395
0110010011100100110001000: 527664 554368 586421 638526 481237
0110010011100100110001000: 527664 554368 586421 638526 465364
0110010011100100110001000: 527664 554368 586421 638526 568040
0110010011100100110001000: 527664 554368 586421 638526 651631
0110010011100100110001000: 527664 554368 586421 638526 530121
0110010011100100110001000: 527664 554368 586421 638526 564950
0111010101110001000001000: 568040 650788 564950 643823 547395
0111010101110001000001000: 568040 650788 564950 465364 547395
0110010010100010100000100: 568040 465364 650788 530121 547395
0111010101110001000001000: 568040 465364 643823 650788 530121
0111010100110001000100010: 568040 465364 643823 650788 547395
0111010101110001000001000: 568040 465364 643823 564950 530121
0111010100110001000100010: 568040 465364 643823 564950 651631
0111010100110001000100010: 568040 465364 643823 564950 487615
0111110110110001100010000: 568040 465364 554368 643823 650788
0111010110110011100000100: 568040 465364 554368 643823 638526
0111010110110011100000100: 568040 465364 554368 643823 547395
0111010110110011100000100: 568040 465364 554368 643823 481237
0111010110110011100000100: 568040 465364 554368 643823 527664
0111010110110011100000100: 568040 465364 554368 643823 651631
0111010110110011100000100: 568040 465364 554368 643823 487615
0110010011100000100001000: 568040 554368 643823 547395 638526
0110010011100000100001000: 568040 554368 643823 481237 638526
0110010011100000100001000: 568040 554368 643823 481237 547395
0110010011100000100001000: 568040 554368 643823 527664 638526
0110010011100000100001000: 568040 554368 643823 527664 547395
0110010011100000100001000: 568040 554368 643823 527664 481237
0110010011100000100001000: 568040 554368 643823 651631 638526
0110010011100000100001000: 568040 554368 643823 651631 547395
0110010011100000100001000: 568040 554368 643823 651631 527664
0110010011100000100001000: 568040 554368 643823 487615 638526
0110010011100000100001000: 568040 554368 643823 487615 547395
0110010011100000100001000: 568040 554368 643823 487615 481237
0110010011100000100001000: 568040 554368 643823 530121 638526
0110010011100000100001000: 568040 554368 643823 530121 547395
0110010011100000100001000: 568040 554368 643823 530121 481237
0110010011100000100001000: 568040 554368 643823 530121 527664
0110010011100000100001000: 568040 554368 643823 530121 651631
0110010011100000100001000: 568040 554368 650788 481237 638526
0110010011100000100001000: 568040 554368 650788 527664 638526
0110010011100000100001000: 568040 554368 650788 527664 481237
0110010011100000100001000: 568040 554368 650788 651631 638526
0110010011100000100001000: 568040 554368 650788 651631 527664
0110010011100000100001000: 568040 554368 650788 487615 638526
0110010011100000100001000: 568040 554368 650788 487615 481237
0110010011100000100001000: 568040 554368 650788 530121 638526
0110010011100000100001000: 568040 554368 650788 530121 481237
0110010011100000100001000: 568040 554368 650788 530121 527664
0110010011100000100001000: 568040 554368 650788 530121 651631
0110010011100100110001000: 568040 554368 650788 547395 638526
0110010011100100110001000: 568040 554368 650788 547395 481237
0110010011100100110001000: 568040 554368 650788 547395 527664
0110010011100100110001000: 568040 554368 650788 547395 651631
0110010011100100110001000: 568040 554368 650788 547395 487615
0110010011100100110001000: 568040 554368 650788 547395 530121
0111110110110011100010100: 568040 554368 465364 564950 643823
0110010010100010100000100: 568040 564950 465364 651631 530121
0111010100110001000100010: 568040 564950 650788 465364 530121
0111110100110001000110010: 568040 564950 650788 465364 643823
0111110110110001100010000: 568040 564950 554368 650788 643823
0111110110110011100010100: 568040 564950 554368 650788 465364
0111010100110001000100010: 465364 568040 643823 530121 487615
0110010010100010100000100: 465364 530121 568040 487615 650788
0110010011100000100001000: 465364 554368 643823 547395 638526
0110010011100000100001000: 465364 554368 643823 481237 638526
0110010011100000100001000: 465364 554368 643823 481237 547395
0110010011100000100001000: 465364 554368 643823 527664 638526
0110010011100000100001000: 465364 554368 643823 527664 547395
0110010011100000100001000: 465364 554368 643823 527664 481237
0110010011100000100001000: 465364 554368 643823 651631 638526
0110010011100000100001000: 465364 554368 643823 651631 547395
0110010011100000100001000: 465364 554368 643823 651631 527664
0110010011100000100001000: 465364 554368 643823 487615 638526
0110010011100000100001000: 465364 554368 643823 487615 547395
0110010011100000100001000: 465364 554368 643823 487615 481237
0110010011100000100001000: 465364 554368 643823 564950 638526
0110010011100000100001000: 465364 554368 643823 564950 547395
0110010011100000100001000: 465364 554368 643823 564950 481237
0110010011100000100001000: 465364 554368 643823 564950 527664
0111110110110011100010100: 465364 554368 568040 530121 643823
0110010011100000100001000: 481237 554368 468174 547395 638526
0110010011100000100001000: 481237 554368 468174 465364 638526
0110010011100000100001000: 481237 554368 468174 465364 547395
0110010011100000100001000: 481237 554368 468174 568040 638526
0110010011100000100001000: 481237 554368 468174 568040 547395
0110010011100000100001000: 481237 554368 468174 527664 638526
0110010011100000100001000: 481237 554368 468174 527664 547395
0110010011100000100001000: 481237 554368 468174 527664 465364
0110010011100000100001000: 481237 554368 468174 527664 568040
0110010011100000100001000: 481237 554368 468174 487615 638526
0110010011100000100001000: 481237 554368 468174 487615 547395
0110010011100000100001000: 481237 554368 468174 487615 465364
0110010011100000100001000: 481237 554368 468174 487615 568040
0110010011100000100001000: 481237 554368 468174 530121 638526
0110010011100000100001000: 481237 554368 468174 530121 547395
0110010011100000100001000: 481237 554368 468174 530121 568040
0110010011100000100001000: 481237 554368 468174 530121 527664
0110010011100000100001000: 481237 554368 468174 564950 638526
0110010011100000100001000: 481237 554368 468174 564950 547395
0110010011100000100001000: 481237 554368 468174 564950 465364
0110010011100000100001000: 481237 554368 468174 564950 527664
0110010011100000100001000: 481237 554368 468174 564950 530121
0110010011100000100001000: 547395 554368 650788 481237 638526
0110010011100000100001000: 547395 554368 650788 465364 638526
0110010011100000100001000: 547395 554368 650788 465364 481237
0110010011100000100001000: 547395 554368 650788 527664 638526
0110010011100000100001000: 547395 554368 650788 527664 481237
0110010011100000100001000: 547395 554368 650788 527664 465364
0110010011100000100001000: 547395 554368 650788 651631 638526
0110010011100000100001000: 547395 554368 650788 651631 465364
0110010011100000100001000: 547395 554368 650788 651631 527664
0110010011100000100001000: 547395 554368 650788 487615 638526
0110010011100000100001000: 547395 554368 650788 487615 481237
0110010011100000100001000: 547395 554368 650788 487615 465364
0110010011100000100001000: 547395 554368 650788 530121 638526
0110010011100000100001000: 547395 554368 650788 530121 481237
0110010011100000100001000: 547395 554368 650788 530121 527664
0110010011100000100001000: 547395 554368 650788 530121 651631
0110010011100000100001000: 638526 554368 586421 481237 547395
0110010011100000100001000: 638526 554368 586421 465364 547395
0110010011100000100001000: 638526 554368 586421 465364 481237
0110010011100000100001000: 638526 554368 586421 568040 547395
0110010011100000100001000: 638526 554368 586421 568040 481237
0110010011100000100001000: 638526 554368 586421 651631 547395
0110010011100000100001000: 638526 554368 586421 651631 465364
0110010011100000100001000: 638526 554368 586421 651631 568040
0110010011100000100001000: 638526 554368 586421 487615 547395
0110010011100000100001000: 638526 554368 586421 487615 481237
0110010011100000100001000: 638526 554368 586421 487615 465364
0110010011100000100001000: 638526 554368 586421 487615 568040
0110010011100000100001000: 638526 554368 586421 530121 547395
0110010011100000100001000: 638526 554368 586421 530121 481237
0110010011100000100001000: 638526 554368 586421 530121 568040
0110010011100000100001000: 638526 554368 586421 530121 651631
0110010011100000100001000: 638526 554368 586421 564950 547395
0110010011100000100001000: 638526 554368 586421 564950 481237
0110010011100000100001000: 638526 554368 586421 564950 465364
0110010011100000100001000: 638526 554368 586421 564950 530121
