Vertex,0101101001001000,0110100110000100,0110101111000100,0111101111001100,0110101011010010,0111101111011110,0111101011001000,0100101101010110,0111100110011110,0100101101000100,0111100010001000,0111101011011010,0111100010011010,0101101101001100,0101101001011010,0110101111010110,0111100110001100,0110100110010110,0101101101011110,0100101001010010,0110100010010010
493097,118.0,457.0,215.0,108.0,121.0,155.0,505.0,2.0,6.0,6.0,374.0,96.0,90.0,22.0,0.0,88.0,137.0,0.0,5.0,70.0,260.0
599006,64.0,253.0,115.0,72.0,61.0,0.0,277.0,2.0,5.0,4.0,366.0,67.0,59.0,6.0,0.0,61.0,65.0,0.0,4.0,40.0,133.0
462278,367.0,1260.0,612.0,216.0,356.0,155.0,1424.0,20.0,11.0,20.0,1579.0,180.0,326.0,60.0,142.0,162.0,388.0,412.0,9.0,187.0,641.0
462284,65.0,294.0,37.0,0.0,27.0,0.0,74.0,0.0,0.0,6.0,89.0,0.0,8.0,10.0,0.0,0.0,29.0,0.0,0.0,71.0,188.0
517386,108.0,397.0,143.0,54.0,77.0,0.0,342.0,6.0,4.0,8.0,422.0,50.0,81.0,10.0,39.0,44.0,88.0,101.0,3.0,66.0,225.0
546031,158.0,622.0,373.0,198.0,247.0,155.0,816.0,4.0,11.0,14.0,404.0,164.0,159.0,58.0,56.0,152.0,240.0,140.0,9.0,94.0,343.0
487516,147.0,499.0,218.0,108.0,130.0,155.0,499.0,2.0,6.0,6.0,447.0,91.0,86.0,28.0,24.0,81.0,142.0,66.0,5.0,66.0,262.0
522644,86.0,404.0,27.0,0.0,19.0,0.0,63.0,0.0,0.0,14.0,155.0,0.0,12.0,6.0,11.0,0.0,26.0,35.0,0.0,54.0,230.0
656729,51.0,205.0,21.0,0.0,17.0,0.0,38.0,0.0,0.0,4.0,48.0,0.0,4.0,6.0,0.0,0.0,16.0,0.0,0.0,38.0,127.0
586445,84.0,343.0,98.0,54.0,58.0,0.0,227.0,0.0,0.0,2.0,475.0,36.0,48.0,8.0,11.0,30.0,56.0,35.0,0.0,31.0,169.0
593497,157.0,606.0,174.0,54.0,104.0,0.0,412.0,10.0,7.0,8.0,205.0,52.0,98.0,28.0,35.0,44.0,156.0,105.0,6.0,77.0,341.0
614577,206.0,766.0,180.0,90.0,124.0,0.0,375.0,10.0,12.0,26.0,304.0,92.0,93.0,40.0,66.0,85.0,136.0,169.0,11.0,168.0,414.0
590834,107.0,402.0,157.0,72.0,89.0,0.0,368.0,2.0,2.0,4.0,416.0,54.0,70.0,14.0,0.0,47.0,96.0,0.0,1.0,48.0,223.0
465289,78.0,295.0,48.0,0.0,36.0,0.0,99.0,0.0,0.0,6.0,116.0,0.0,10.0,12.0,0.0,0.0,40.0,0.0,0.0,46.0,147.0
582749,162.0,661.0,132.0,36.0,62.0,0.0,350.0,6.0,7.0,22.0,729.0,40.0,73.0,8.0,88.0,34.0,119.0,276.0,6.0,75.0,351.0
463008,40.0,140.0,91.0,0.0,47.0,0.0,223.0,2.0,0.0,0.0,360.0,0.0,51.0,2.0,0.0,0.0,48.0,0.0,0.0,18.0,76.0
657058,75.0,286.0,118.0,0.0,66.0,0.0,282.0,2.0,0.0,6.0,432.0,0.0,57.0,8.0,24.0,0.0,72.0,70.0,0.0,46.0,150.0
484179,71.0,293.0,95.0,18.0,55.0,0.0,225.0,2.0,1.0,2.0,407.0,14.0,54.0,6.0,0.0,10.0,54.0,0.0,0.0,35.0,159.0
541165,121.0,476.0,109.0,18.0,55.0,0.0,270.0,2.0,2.0,8.0,508.0,18.0,52.0,6.0,21.0,17.0,72.0,68.0,1.0,77.0,263.0
606626,88.0,388.0,151.0,36.0,83.0,0.0,366.0,6.0,2.0,4.0,412.0,28.0,88.0,10.0,21.0,20.0,98.0,68.0,0.0,68.0,214.0
561830,168.0,700.0,79.0,18.0,41.0,0.0,213.0,10.0,4.0,20.0,301.0,22.0,61.0,10.0,30.0,17.0,96.0,103.0,4.0,143.0,406.0
542074,56.0,185.0,18.0,0.0,12.0,0.0,38.0,0.0,0.0,4.0,85.0,0.0,6.0,4.0,0.0,0.0,12.0,0.0,0.0,42.0,105.0
585623,47.0,185.0,9.0,0.0,5.0,0.0,21.0,0.0,0.0,6.0,63.0,0.0,2.0,2.0,0.0,0.0,8.0,0.0,0.0,32.0,111.0
535849,56.0,215.0,12.0,0.0,12.0,0.0,21.0,0.0,0.0,0.0,15.0,0.0,8.0,4.0,0.0,0.0,10.0,0.0,0.0,56.0,142.0
graph,670.0,2583.0,808.0,288.0,476.0,155.0,1882.0,22.0,20.0,50.0,2178.0,251.0,399.0,92.0,142.0,223.0,551.0,412.0,16.0,412.0,1420.0
