0110010011100000100001000: 494226 560403 474637 479254 589380
0110010011100000100001000: 494226 560403 474637 479254 557219
0110010011100000100001000: 494226 560403 474637 618427 589380
0110010011100000100001000: 494226 560403 474637 618427 557219
0110010011100000100001000: 494226 560403 474637 618427 479254
0110010011100000100001000: 494226 560403 543759 479254 589380
0110010011100000100001000: 494226 560403 543759 479254 557219
0110010011100000100001000: 494226 560403 543759 618427 589380
0110010011100000100001000: 494226 560403 543759 618427 557219
0110010011100000100001000: 494226 560403 543759 618427 479254
0111010101110001000001000: 494226 560403 600243 474637 557219
0111010101110001000001000: 494226 560403 600243 474637 618427
0111010101110001000001000: 494226 560403 616039 474637 557219
0111010101110001000001000: 494226 560403 616039 474637 479254
0111010101110001000001000: 494226 560403 616039 543759 557219
0111010101110001000001000: 494226 560403 616039 543759 479254
0111110110110001100010000: 494226 560403 616039 600243 474637
0111010110110011100000100: 494226 560403 616039 600243 494745
0111010110110011100100110: 494226 560403 616039 600243 464807
0110010011100000100001000: 494226 600243 474637 479254 589380
0110010011100000100001000: 494226 600243 474637 479254 464807
0110010011100100110001000: 494226 600243 616039 589380 479254
0110010011100100110001000: 494226 600243 616039 464807 479254
0111010101110001000001000: 494226 600243 560403 474637 464807
0111110110110011100010100: 494226 600243 560403 543759 616039
0111010110110011100000100: 494226 600243 560403 543759 557219
0111010110110011100000100: 494226 600243 560403 543759 618427
0111010101110001000001000: 494226 600243 543759 474637 589380
0111010101110001000001000: 494226 600243 543759 474637 464807
0111010101110001000001000: 494226 600243 543759 474637 479254
0111110100110001000010000: 494226 600243 543759 616039 474637
0111010101110001000001000: 494226 600243 543759 616039 479254
0111010100110001000100010: 494226 600243 543759 616039 494745
0111010100110001000100010: 494226 600243 543759 616039 618427
0111010101110001000101010: 494226 600243 543759 616039 589380
0111010101110001000101010: 494226 600243 543759 616039 464807
0111110110110001100010000: 494226 600243 543759 560403 474637
0110010011100000100001000: 494226 616039 474637 464807 494745
0110010011100000100001000: 494226 616039 474637 618427 494745
0110010011100000100001000: 494226 616039 474637 618427 589380
0110010011100000100001000: 494226 616039 474637 618427 464807
0110010011100000100001000: 494226 616039 543759 464807 494745
0110010011100000100001000: 494226 616039 543759 618427 494745
0110010011100000100001000: 494226 616039 543759 618427 589380
0110010011100000100001000: 494226 616039 543759 618427 464807
0110010010100010100000100: 494226 616039 600243 494745 479254
0110010011100000100001000: 494226 616039 600243 618427 494745
0110010010100010100000100: 494226 616039 600243 618427 479254
0110010011100100110001000: 494226 616039 600243 589380 618427
0110010011100100110001000: 494226 616039 600243 464807 494745
0110010011100100110001000: 494226 616039 600243 464807 618427
0111010101110001000001000: 494226 616039 560403 474637 494745
0111010101110001000001000: 494226 616039 560403 474637 464807
0111110100110001000010000: 494226 616039 560403 543759 474637
0111010101110001000001000: 494226 616039 560403 543759 494745
0111010101110001000001000: 494226 616039 560403 543759 464807
0111010101110001000001000: 616039 494745 589380 618427 617940
0111010101110001000001000: 616039 494745 589380 494226 617940
0110010011100000100001000: 616039 589380 618427 557219 496705
0110010011100000100001000: 616039 589380 618427 600243 496705
0110010011100000100001000: 616039 589380 618427 600243 557219
0110010011100000100001000: 616039 589380 494226 557219 496705
0110010011100100110001000: 616039 589380 494226 600243 496705
0110010011100100110001000: 616039 589380 494226 600243 557219
0111010101110001000001000: 616039 589380 494745 618427 496705
0111010101110001000001000: 616039 589380 494745 618427 557219
0111010101110001000001000: 616039 589380 494745 618427 600243
0111110100110001000010000: 616039 589380 494745 494226 618427
0111010101110001000001000: 616039 589380 494745 494226 496705
0111010101110001000001000: 616039 589380 494745 494226 557219
0111010100110001000100010: 616039 589380 494745 494226 474637
0111010100110001000100010: 616039 589380 494745 494226 543759
0111010101110001000101010: 616039 589380 494745 494226 600243
0111010110110011100000100: 616039 589380 494745 560403 617940
0111010110110011100000100: 616039 589380 494745 464807 617940
0111010110110011100000100: 616039 589380 560403 494745 479254
0111010110110011100000100: 616039 589380 560403 464807 479254
0111010101110001000001000: 616039 589380 464807 618427 496705
0111010101110001000001000: 616039 589380 464807 618427 557219
0111010101110001000001000: 616039 589380 464807 494226 496705
0111010101110001000001000: 616039 589380 464807 494226 557219
0111110110110001100010000: 616039 589380 464807 494745 618427
0111110110110001100010000: 616039 589380 464807 494745 494226
0111010110110011100000100: 616039 589380 464807 494745 617367
0111110111110001100011000: 616039 589380 464807 560403 494745
0111010110110011100000100: 616039 589380 464807 560403 617367
0110010010100010100000100: 616039 560403 494745 557219 617940
0110010011100000100001000: 616039 560403 494745 479254 557219
0110010010100010100000100: 616039 560403 494745 479254 617940
0110010011100000100001000: 616039 560403 494745 600243 557219
0110010010100010100000100: 616039 560403 494745 600243 617940
0110010011100000100001000: 616039 560403 464807 479254 557219
0110010011100100110001000: 616039 560403 464807 600243 557219
0111110110110011100010100: 616039 560403 589380 618427 494745
0111110110110011100010100: 616039 560403 589380 618427 464807
0111010110110011100000100: 616039 560403 589380 618427 496705
0111110110110011100010100: 616039 560403 589380 494226 494745
0111110110110011100010100: 616039 560403 589380 494226 464807
0111010110110011100000100: 616039 560403 589380 494226 496705
0111010101110001000001000: 616039 560403 618427 494745 557219
0111010101110001000001000: 616039 560403 618427 494745 479254
0111010101110001000001000: 616039 560403 618427 494745 600243
0111010101110001000001000: 616039 560403 618427 464807 557219
0111010101110001000001000: 616039 560403 618427 464807 479254
0111010101110001000101010: 616039 560403 618427 464807 600243
0111010101110001000001000: 616039 560403 494226 494745 557219
0111010101110001000001000: 616039 560403 494226 494745 479254
0111010101110001000001000: 616039 560403 494226 464807 557219
0111010101110001000001000: 616039 560403 494226 464807 479254
0111010110110011100000100: 616039 560403 494226 589380 474637
0111010110110011100000100: 616039 560403 494226 589380 543759
0111110110110001100010000: 616039 560403 494226 618427 494745
0111110110110001100010000: 616039 560403 494226 618427 464807
0111110111110001100011000: 616039 560403 494226 618427 589380
0111010110110011100000100: 616039 560403 494226 618427 474637
0111010110110011100000100: 616039 560403 494226 618427 543759
0110010010100010100100110: 616039 464807 494745 617367 617940
0110010011100000100001000: 616039 464807 494745 600243 617367
0110010010100010100000100: 616039 464807 494745 600243 617940
0110010010100010100000100: 616039 464807 560403 617367 557219
0110010010100010100000100: 616039 464807 560403 617367 479254
0110010011100100110001000: 616039 464807 560403 600243 617367
0110010011100000100001000: 616039 464807 618427 600243 617367
0110010011100100110001000: 616039 464807 494226 600243 617367
0111010101110001000001000: 616039 464807 589380 618427 617367
0111110100110001000010000: 616039 464807 589380 494226 618427
0111010101110001000001000: 616039 464807 589380 494226 617367
0111010100110001000100010: 616039 464807 589380 494226 474637
0111010100110001000100010: 616039 464807 589380 494226 543759
0111010100110001000100010: 616039 618427 560403 494745 617940
0111110100110001000010000: 616039 618427 560403 464807 494745
0111010100110001000100010: 616039 618427 560403 464807 617367
0110010010100010100000100: 616039 494226 494745 474637 617940
0110010011100000100001000: 616039 494226 494745 543759 474637
0110010010100010100000100: 616039 494226 494745 543759 617940
0110010011100000100001000: 616039 494226 494745 600243 474637
0110010010100010100000100: 616039 494226 494745 600243 617940
0110010010100010100000100: 616039 494226 589380 474637 496705
0110010010100010100000100: 616039 494226 589380 474637 557219
0110010011100000100001000: 616039 494226 589380 543759 474637
0110010010100010100000100: 616039 494226 589380 543759 496705
0110010010100010100000100: 616039 494226 589380 543759 557219
0110010011100100110001000: 616039 494226 589380 600243 474637
0110010010100010100000100: 616039 494226 464807 474637 617367
0110010011100000100001000: 616039 494226 464807 543759 474637
0110010010100010100000100: 616039 494226 464807 543759 617367
0110010011100100110001000: 616039 494226 464807 600243 474637
0111110000100001000010000: 616039 494226 618427 464807 494745
0110010011100000100001000: 616039 494226 618427 543759 474637
0110010011100000100001000: 616039 494226 618427 600243 474637
0111010100110001000100010: 616039 494226 560403 494745 617940
0111110100110001000010000: 616039 494226 560403 464807 494745
0111010100110001000100010: 616039 494226 560403 464807 617367
0110010011100000100001000: 600243 589380 543759 496705 494745
0110010011100000100001000: 600243 589380 543759 557219 494745
0110010011100000100001000: 600243 589380 543759 557219 496705
0110010011100000100001000: 600243 589380 543759 616039 496705
0110010011100000100001000: 600243 589380 543759 616039 557219
0110010011100000100001000: 600243 589380 479254 557219 494745
0110010011100000100001000: 600243 589380 479254 616039 557219
0110010011100100110001000: 600243 589380 479254 496705 494745
0110010011100100110001000: 600243 589380 479254 496705 557219
0110010011100100110001000: 600243 589380 479254 496705 616039
0110010011100000100001000: 600243 589380 494226 496705 494745
0110010011100000100001000: 600243 589380 494226 557219 494745
0110010011100000100001000: 600243 589380 494226 557219 496705
0111010101110001000001000: 600243 589380 560403 543759 494745
0111010101110001000001000: 600243 589380 560403 543759 496705
0111010110110011100000100: 600243 589380 560403 464807 618427
0111010101110001000001000: 600243 589380 464807 543759 494745
0111010101110001000001000: 600243 589380 464807 543759 496705
0111010101110001000001000: 600243 589380 464807 543759 557219
0111010101110001000001000: 600243 589380 464807 479254 494745
0111010101110001000001000: 600243 589380 464807 479254 557219
0111010101110001000101010: 600243 589380 464807 479254 496705
0111010101110001000001000: 600243 589380 464807 494226 494745
0111010101110001000001000: 600243 589380 464807 494226 496705
0111010101110001000001000: 600243 589380 464807 494226 557219
0111110110110001100010000: 600243 589380 464807 560403 543759
0111010110110011100000100: 600243 589380 464807 560403 617367
0110010011100000100001000: 600243 560403 464807 618427 557219
0110010011100000100001000: 600243 560403 543759 618427 557219
0110010011100000100001000: 600243 560403 543759 616039 557219
0111010101110001000001000: 600243 560403 589380 543759 618427
0111110110110011100010100: 600243 560403 589380 479254 464807
0111010110110011100000100: 600243 560403 589380 479254 494745
0111110110110011100010100: 600243 560403 589380 494226 464807
0111010110110011100000100: 600243 560403 589380 494226 494745
0111010110110011100000100: 600243 560403 589380 494226 496705
0111010101110001000001000: 600243 560403 479254 464807 557219
0111010101110001000001000: 600243 560403 479254 464807 618427
0111010101110001000101010: 600243 560403 479254 464807 616039
0111010101110001000001000: 600243 560403 479254 543759 557219
0111010101110001000001000: 600243 560403 479254 543759 618427
0111010101110001000001000: 600243 560403 479254 543759 616039
0111110110110001100010000: 600243 560403 479254 589380 543759
0111010110110011100000100: 600243 560403 479254 589380 589896
0111010110110011100100110: 600243 560403 479254 589380 496705
0111010110110011100000100: 600243 560403 479254 494226 496705
0111010110110011100000100: 600243 560403 479254 494226 589896
0111010101110001000001000: 600243 560403 494226 464807 557219
0111010101110001000001000: 600243 560403 494226 464807 618427
0111010110110011100000100: 600243 560403 494226 589380 474637
0111110110110001100010000: 600243 560403 494226 479254 464807
0111110111110001100011000: 600243 560403 494226 479254 589380
0111010110110011100000100: 600243 560403 494226 479254 474637
0110010010100010100000100: 600243 464807 560403 617367 557219
0110010010100010100000100: 600243 464807 560403 617367 618427
0110010011100000100001000: 600243 464807 543759 616039 617367
0110010011100000100001000: 600243 464807 479254 616039 617367
0111010101110001000001000: 600243 464807 589380 543759 617367
0111110100110001000010000: 600243 464807 589380 479254 543759
0111010101110001000001000: 600243 464807 589380 479254 617367
0111010100110001000100010: 600243 464807 589380 479254 589896
0111110100110001000010000: 600243 464807 589380 494226 479254
0111010101110001000001000: 600243 464807 589380 494226 617367
0111010100110001000100010: 600243 464807 589380 494226 474637
0110010010100010100000100: 600243 479254 589380 589896 494745
0110010010100010100000100: 600243 479254 589380 589896 557219
0110010010100010100000100: 600243 479254 589380 589896 616039
0110010011100100110001000: 600243 479254 589380 496705 589896
0110010010100010100000100: 600243 479254 464807 496705 617367
0110010010100010100000100: 600243 479254 464807 496705 616039
0110010011100000100001000: 600243 479254 464807 589896 496705
0110010010100010100000100: 600243 479254 464807 589896 617367
0110010010100010100000100: 600243 479254 464807 589896 616039
0110010011100000100001000: 600243 479254 543759 589896 496705
0110010011100000100001000: 600243 479254 494226 589896 496705
0111010101110001000001000: 600243 479254 560403 464807 496705
0111010101110001000001000: 600243 479254 560403 464807 589896
0111010100110001000100010: 600243 479254 560403 464807 617367
0111110100110001000010000: 600243 479254 560403 543759 464807
0111010101110001000001000: 600243 479254 560403 543759 496705
0111010101110001000001000: 600243 479254 560403 543759 589896
0110010010100010100000100: 600243 494226 589380 474637 494745
0110010010100010100000100: 600243 494226 589380 474637 496705
0110010010100010100000100: 600243 494226 589380 474637 557219
0110010010100010100000100: 600243 494226 464807 474637 617367
0110010010100010100000100: 600243 494226 479254 474637 496705
0110010010100010100000100: 600243 494226 479254 474637 589896
0110010011100000100001000: 600243 494226 479254 616039 474637
0110010010100010100000100: 600243 494226 479254 616039 496705
0110010010100010100000100: 600243 494226 479254 616039 589896
0111010100110001000100010: 600243 494226 560403 464807 617367
0111110110110011100010100: 600243 494226 560403 543759 589380
0111110110110011100010100: 600243 494226 560403 543759 479254
0111010100110001000100010: 600243 494226 543759 589380 494745
0111010100110001000100010: 600243 494226 543759 589380 496705
0111010100110001000100010: 600243 494226 543759 589380 557219
0111010100110001000100010: 600243 494226 543759 464807 617367
0111110100110001000110010: 600243 494226 543759 464807 589380
0111110100110001000010000: 600243 494226 543759 479254 589380
0111110100110001000010000: 600243 494226 543759 479254 464807
0111010100110001000100010: 600243 494226 543759 479254 496705
0111010100110001000100010: 600243 494226 543759 479254 589896
0111110110110001100010000: 600243 494226 543759 560403 464807
0110010011100000100001000: 479254 560403 496705 618427 557219
0110010011100000100001000: 479254 560403 496705 616039 557219
0110010011100000100001000: 479254 560403 496705 494226 557219
0110010011100000100001000: 479254 560403 496705 494226 618427
0110010011100100110001000: 479254 560403 496705 589380 618427
0110010011100100110001000: 479254 560403 496705 589380 494226
0110010011100000100001000: 479254 560403 589896 618427 589380
0110010011100000100001000: 479254 560403 589896 618427 557219
0110010011100000100001000: 479254 560403 589896 616039 557219
0110010011100000100001000: 479254 560403 589896 494226 589380
0110010011100000100001000: 479254 560403 589896 494226 557219
0110010011100000100001000: 479254 560403 589896 494226 618427
0111010101110001000001000: 479254 560403 600243 496705 557219
0111010101110001000001000: 479254 560403 600243 496705 618427
0111010101110001000001000: 479254 560403 600243 496705 616039
0111010101110001000001000: 479254 560403 600243 589896 557219
0111010101110001000001000: 479254 560403 600243 589896 618427
0111010101110001000001000: 479254 560403 600243 589896 616039
0110010011100000100001000: 479254 600243 496705 543759 464807
0110010011100000100001000: 479254 600243 496705 494226 464807
0110010011100100110001000: 479254 600243 496705 589380 543759
0110010011100100110001000: 479254 600243 496705 589380 494226
0110010011100000100001000: 479254 600243 589896 543759 589380
0110010011100000100001000: 479254 600243 589896 543759 464807
0110010011100000100001000: 479254 600243 589896 494226 589380
0110010011100000100001000: 479254 600243 589896 494226 464807
0111110100110001000010000: 479254 600243 560403 589896 496705
0110010011100000100001000: 464807 589380 617367 496705 494745
0110010011100000100001000: 464807 589380 617367 560403 494745
0110010011100000100001000: 464807 589380 617367 560403 496705
0110010011100000100001000: 464807 589380 617367 557219 494745
0110010011100000100001000: 464807 589380 617367 557219 496705
0111010101110001000001000: 464807 589380 600243 617367 494745
0111010101110001000001000: 464807 589380 600243 617367 496705
0111010101110001000001000: 464807 589380 600243 617367 557219
0111010110110011100000100: 464807 589380 600243 616039 543759
0111010110110011100000100: 464807 589380 600243 616039 479254
0111010101110001000001000: 464807 589380 616039 617367 496705
0111010101110001000001000: 464807 589380 616039 617367 557219
0111110110110001100010000: 464807 589380 616039 600243 617367
0111010110110011100000100: 464807 589380 616039 600243 618427
0111010110110011100100110: 464807 589380 616039 600243 494226
0110010010100010100000100: 464807 617367 589380 617940 496705
0110010010100010100000100: 464807 617367 589380 617940 560403
0110010010100010100000100: 464807 617367 589380 617940 557219
0110010010100010100100110: 464807 617367 589380 617940 494745
0110010010100010100000100: 464807 600243 617367 560403 617940
0110010011100000100001000: 464807 600243 617367 543759 560403
0110010010100010100000100: 464807 600243 617367 543759 617940
0110010011100000100001000: 464807 600243 617367 479254 543759
0110010010100010100000100: 464807 600243 617367 479254 617940
0110010011100000100001000: 464807 600243 617367 494226 479254
0110010010100010100000100: 464807 600243 617367 494226 617940
0110010011100000100001000: 464807 600243 616039 479254 543759
0110010011100100110001000: 464807 600243 616039 560403 543759
0111010100110001000100010: 464807 600243 589380 617367 617940
0110010011100000100001000: 464807 616039 617367 560403 494745
0110010010100010100000100: 464807 616039 617367 560403 617940
0110010011100000100001000: 464807 616039 617367 618427 494745
0110010010100010100000100: 464807 616039 617367 618427 617940
0110010011100000100001000: 464807 616039 617367 494226 494745
0110010011100000100001000: 464807 616039 617367 494226 618427
0110010010100010100000100: 464807 616039 617367 494226 617940
0110010010100010100000100: 464807 616039 600243 494745 543759
0110010010100010100000100: 464807 616039 600243 494745 479254
0110010011100000100001000: 464807 616039 600243 618427 494745
0110010010100010100000100: 464807 616039 600243 618427 543759
0110010010100010100000100: 464807 616039 600243 618427 479254
0110010011100100110001000: 464807 616039 600243 560403 494745
0111010100110001000100010: 464807 616039 589380 617367 617940
0110010010100010100000100: 617367 464807 617940 600243 494745
0110010011100000100001000: 617367 464807 617940 616039 600243
0110010011100000100001000: 560403 589380 479254 464807 494745
0110010011100100110001000: 560403 589380 479254 496705 494745
0110010011100100110001000: 560403 589380 479254 496705 464807
0110010011100000100001000: 560403 589380 618427 496705 494745
0110010011100000100001000: 560403 589380 618427 464807 494745
0110010011100000100001000: 560403 589380 618427 464807 496705
0110010011100000100001000: 560403 589380 494226 496705 494745
0110010011100000100001000: 560403 589380 494226 464807 494745
0110010011100000100001000: 560403 589380 494226 464807 496705
0111010101110001000001000: 560403 589380 557219 479254 494745
0111010101110001000001000: 560403 589380 557219 479254 464807
0111010101110001000101010: 560403 589380 557219 479254 496705
0111010101110001000001000: 560403 589380 557219 618427 494745
0111010101110001000001000: 560403 589380 557219 618427 496705
0111010101110001000001000: 560403 589380 557219 618427 464807
0111010101110001000001000: 560403 589380 557219 494226 494745
0111010101110001000001000: 560403 589380 557219 494226 496705
0111010101110001000001000: 560403 589380 557219 494226 464807
0111010101110001000001000: 560403 589380 600243 618427 494745
0111010101110001000001000: 560403 589380 600243 618427 496705
0111110110110001100010000: 560403 589380 600243 557219 618427
0111010110110011100000100: 560403 589380 600243 557219 543759
0111010110110011100000100: 560403 589380 600243 616039 543759
0111010101110001000101010: 560403 589380 616039 479254 496705
0111110110110001100010000: 560403 589380 616039 557219 479254
0111110111110001100011000: 560403 589380 616039 600243 557219
0111010100110001000100010: 560403 557219 589380 479254 589896
0111110100110001000010000: 560403 557219 589380 618427 479254
0111110100110001000010000: 560403 557219 589380 494226 479254
0111110100110001000010000: 560403 557219 589380 494226 618427
0111010100110001000100010: 560403 557219 589380 494226 474637
0111010100110001000100010: 560403 557219 589380 494226 543759
0110010010100010100000100: 560403 479254 589380 589896 494745
0110010010100010100000100: 560403 479254 589380 589896 464807
0110010011100100110001000: 560403 479254 589380 496705 589896
0110010011100000100001000: 560403 479254 557219 589896 496705
0110010011100000100001000: 560403 479254 618427 589896 496705
0110010011100000100001000: 560403 479254 616039 589896 496705
0110010011100000100001000: 560403 479254 494226 589896 496705
0110010011100000100001000: 560403 600243 557219 543759 464807
0110010011100000100001000: 560403 600243 618427 543759 464807
0111110110110011100010100: 560403 600243 589380 479254 557219
0111110110110011100010100: 560403 600243 589380 479254 616039
0111110110110011100010100: 560403 600243 589380 494226 557219
0111110100110001000010000: 560403 600243 479254 618427 557219
0111110100110001000010000: 560403 600243 479254 616039 557219
0111010100110001000100010: 560403 600243 479254 616039 494745
0111110110110001100010000: 560403 600243 479254 589380 618427
0111110110110001100010000: 560403 600243 494226 589380 618427
0111110110110001100010000: 560403 600243 494226 479254 557219
0111110110110001100010000: 560403 600243 494226 479254 618427
0110010011100000100001000: 560403 616039 557219 464807 494745
0110010010100010100000100: 560403 616039 479254 494745 496705
0110010010100010100000100: 560403 616039 479254 494745 589896
0110010011100000100001000: 560403 616039 479254 464807 494745
0110010010100010100000100: 560403 616039 479254 464807 496705
0110010010100010100000100: 560403 616039 479254 464807 589896
0110010010100010100000100: 560403 616039 600243 494745 543759
0111010100110001000100010: 560403 616039 589380 479254 589896
0111110110110011100010100: 560403 616039 589380 618427 557219
0111110110110011100010100: 560403 616039 589380 618427 600243
0111110110110011100010100: 560403 616039 589380 494226 557219
0111110100110001000010000: 560403 616039 618427 479254 557219
0111010100110001000100010: 560403 616039 618427 479254 496705
0111010100110001000100010: 560403 616039 618427 479254 589896
0111110100110001000010000: 560403 616039 618427 600243 557219
0111010100110001000100010: 560403 616039 618427 600243 543759
0111110100110001000110010: 560403 616039 618427 600243 479254
0111110110110001100010000: 560403 616039 618427 589380 479254
0111110110110001100010000: 560403 616039 494226 589380 479254
0111110110110001100010000: 560403 616039 494226 618427 557219
0111110110110001100010000: 560403 616039 494226 618427 479254
0110010010100010100000100: 560403 494226 589380 474637 494745
0110010010100010100000100: 560403 494226 589380 474637 496705
0110010010100010100000100: 560403 494226 589380 474637 464807
0110010011100000100001000: 560403 494226 589380 543759 474637
0110010010100010100000100: 560403 494226 589380 543759 494745
0110010010100010100000100: 560403 494226 589380 543759 496705
0110010010100010100000100: 560403 494226 589380 543759 464807
0110010011100000100001000: 560403 494226 557219 543759 474637
0110010010100010100000100: 560403 494226 479254 474637 496705
0110010010100010100000100: 560403 494226 479254 474637 589896
0110010011100000100001000: 560403 494226 479254 543759 474637
0110010010100010100000100: 560403 494226 479254 543759 496705
0110010010100010100000100: 560403 494226 479254 543759 589896
0111110000100001000010000: 560403 494226 618427 479254 589380
0111110000100001000010000: 560403 494226 618427 479254 557219
0110010011100000100001000: 560403 494226 618427 543759 474637
0111110100110001000010000: 560403 494226 600243 618427 557219
0111110110110011100010100: 560403 494226 600243 616039 479254
0111110100110001000010000: 560403 494226 616039 479254 557219
0111010100110001000100010: 560403 494226 616039 479254 496705
0111010100110001000100010: 560403 494226 616039 479254 589896
0111110110110001100010000: 560403 494226 616039 600243 557219
0111110110110011100010100: 560403 494226 616039 600243 618427
0111110110110011100110110: 560403 494226 616039 600243 589380
0111010101110001000001000: 589380 494745 616039 496705 617940
0111010101110001000001000: 589380 494745 616039 557219 617940
0111010101110001000001000: 589380 494745 616039 600243 617940
0110010010100010100000100: 589380 496705 494745 479254 617940
0110010010100010100000100: 589380 560403 494745 479254 617940
0110010011100000100001000: 589380 560403 494745 618427 479254
0110010010100010100000100: 589380 560403 494745 618427 617940
0110010011100000100001000: 589380 560403 494745 494226 479254
0110010011100000100001000: 589380 560403 494745 494226 618427
0110010010100010100000100: 589380 560403 494745 494226 617940
0110010011100000100001000: 589380 560403 496705 494226 618427
0110010011100000100001000: 589380 560403 464807 618427 479254
0110010011100000100001000: 589380 560403 464807 494226 479254
0110010011100000100001000: 589380 560403 464807 494226 618427
0111110110110001100010000: 589380 560403 600243 557219 494745
0111110110110001100010000: 589380 560403 600243 557219 496705
0111110110110001100010000: 589380 560403 616039 557219 496705
0111110110110001100010000: 589380 560403 616039 600243 496705
0111010100110001000100010: 589380 557219 560403 494745 617940
0111110100110001000010000: 589380 557219 560403 496705 494745
0111110100110001000010000: 589380 557219 560403 464807 494745
0111110100110001000010000: 589380 557219 560403 464807 496705
0111010100110001000100010: 589380 557219 560403 464807 617367
0110010010100010100000100: 589380 464807 496705 617367 479254
0111110000100001000010000: 589380 464807 560403 496705 494745
0110010010100010100000100: 589380 464807 560403 617367 479254
0110010010100010100000100: 589380 464807 560403 617367 618427
0110010010100010100000100: 589380 464807 560403 617367 494226
0111110000100001000010000: 589380 464807 557219 496705 494745
0111110110110001100010000: 589380 464807 616039 600243 496705
0111110110110001100010000: 589380 464807 616039 600243 557219
0110010010100010100000100: 589380 600243 494745 543759 617940
0110010011100000100001000: 589380 600243 494745 479254 543759
0110010010100010100000100: 589380 600243 494745 479254 617940
0110010011100000100001000: 589380 600243 494745 494226 479254
0110010010100010100000100: 589380 600243 494745 494226 617940
0111110000100001000010000: 589380 600243 557219 496705 494745
0110010011100000100001000: 589380 600243 557219 479254 543759
0110010011100000100001000: 589380 600243 557219 494226 479254
0110010011100000100001000: 589380 600243 616039 479254 543759
0111010100110001000100010: 589380 600243 560403 494745 617940
0111110100110001000010000: 589380 600243 560403 496705 494745
0111110110110011100010100: 589380 600243 560403 464807 557219
0111010100110001000100010: 589380 600243 464807 494745 617940
0111110100110001000010000: 589380 600243 464807 496705 494745
0111110100110001000010000: 589380 600243 464807 557219 494745
0111110100110001000010000: 589380 600243 464807 557219 496705
0111110110110001100010000: 589380 600243 464807 560403 494745
0111110110110001100010000: 589380 600243 464807 560403 496705
0110010010100010100000100: 589380 616039 496705 618427 479254
0110010011100000100001000: 589380 616039 496705 494226 618427
0110010010100010100000100: 589380 616039 496705 494226 479254
0110010011100000100001000: 589380 616039 557219 494226 618427
0111110000100001000010000: 589380 616039 600243 557219 496705
0110010010100010100000100: 589380 616039 600243 618427 543759
0110010010100010100000100: 589380 616039 600243 618427 479254
0111010100110001000100010: 589380 616039 494745 496705 479254
0111110100110001000010000: 589380 616039 494745 557219 496705
0111110100110001000010000: 589380 616039 494745 600243 496705
0111110100110001000010000: 589380 616039 494745 600243 557219
0111010100110001000100010: 589380 616039 494745 600243 543759
0111010100110001000100010: 589380 616039 494745 600243 479254
0111110110110001100010000: 589380 616039 560403 494745 496705
0111110110110011100010100: 589380 616039 560403 494745 557219
0111110110110011100010100: 589380 616039 560403 494745 600243
0111110110110011100010100: 589380 616039 560403 464807 557219
0111010100110001000100010: 589380 616039 464807 496705 479254
0111110100110001000010000: 589380 616039 464807 557219 496705
0111110110110001100010000: 589380 616039 464807 494745 496705
0111110110110001100010000: 589380 616039 464807 494745 557219
0111110110110011100010100: 589380 616039 464807 494745 600243
0111110110110001100010000: 589380 616039 464807 560403 496705
0111110110110011100110110: 589380 616039 464807 560403 600243
0110010011100000100001000: 496705 589380 479254 557219 494745
0110010011100000100001000: 496705 589380 479254 464807 494745
0110010011100000100001000: 496705 589380 479254 464807 557219
0110010011100000100001000: 496705 589380 479254 616039 557219
0110010010100010100000100: 496705 479254 589380 589896 494745
0110010010100010100000100: 496705 479254 589380 589896 557219
0110010010100010100000100: 496705 479254 589380 589896 464807
0110010010100010100000100: 496705 479254 589380 589896 616039
0110010011100000100001000: 494745 589380 617940 560403 496705
0110010011100000100001000: 494745 589380 617940 557219 496705
0110010011100000100001000: 494745 589380 617940 464807 496705
0110010011100000100001000: 494745 589380 617940 464807 560403
0110010011100000100001000: 494745 589380 617940 464807 557219
0110010011100000100001000: 494745 589380 617940 600243 496705
0110010011100000100001000: 494745 589380 617940 600243 557219
0110010010100010100000100: 494745 617940 589380 617367 496705
0110010010100010100000100: 494745 617940 589380 617367 560403
0110010010100010100000100: 494745 617940 589380 617367 557219
0110010010100010100000100: 494745 617940 589380 617367 600243
0110010010100010100000100: 494745 616039 617940 560403 617367
0110010011100000100001000: 494745 616039 617940 464807 560403
0110010011100000100001000: 494745 616039 617940 618427 464807
0110010010100010100000100: 494745 616039 617940 618427 617367
0110010011100000100001000: 494745 616039 617940 494226 464807
0110010011100000100001000: 494745 616039 617940 494226 618427
0110010010100010100000100: 494745 616039 617940 494226 617367
0111010100110001000100010: 494745 616039 589380 617940 617367
