Vertex,0101101101001100,0110100010010010,0100101101010110,0110100110010110,0111100110001100,0111101011011010,0101101001011010,0111101111001100,0100101101000100,0111101111011110,0101101101011110,0111100010001000,0110101111010110,0111100010011010,0110101011010010,0110100110000100,0100101001010010,0111101011001000,0110101111000100,0101101001001000,0111100110011110
631466,6.0,52.0,0.0,0.0,75.0,101.0,0.0,126.0,0.0,310.0,2.0,207.0,84.0,68.0,71.0,103.0,7.0,329.0,135.0,20.0,6.0
548005,6.0,114.0,0.0,35.0,73.0,197.0,9.0,234.0,2.0,155.0,7.0,237.0,165.0,73.0,69.0,211.0,21.0,318.0,131.0,36.0,13.0
554368,10.0,83.0,0.0,105.0,214.0,365.0,34.0,432.0,0.0,465.0,16.0,800.0,310.0,200.0,213.0,161.0,18.0,997.0,407.0,46.0,21.0
525923,12.0,112.0,2.0,35.0,103.0,212.0,9.0,252.0,2.0,310.0,12.0,160.0,189.0,94.0,96.0,215.0,37.0,409.0,172.0,49.0,10.0
501857,2.0,71.0,0.0,0.0,62.0,124.0,0.0,144.0,0.0,155.0,5.0,200.0,108.0,56.0,59.0,124.0,17.0,291.0,117.0,30.0,8.0
466426,12.0,119.0,2.0,105.0,96.0,116.0,34.0,126.0,4.0,155.0,7.0,269.0,98.0,87.0,84.0,231.0,21.0,370.0,156.0,45.0,9.0
466832,2.0,66.0,0.0,0.0,51.0,82.0,0.0,90.0,2.0,0.0,4.0,255.0,71.0,48.0,51.0,118.0,16.0,244.0,99.0,24.0,6.0
608569,2.0,62.0,0.0,0.0,58.0,71.0,0.0,72.0,0.0,0.0,4.0,208.0,61.0,52.0,55.0,96.0,19.0,271.0,109.0,22.0,6.0
516094,0.0,54.0,0.0,70.0,30.0,0.0,24.0,0.0,2.0,0.0,0.0,344.0,0.0,30.0,30.0,93.0,21.0,150.0,60.0,24.0,0.0
477594,6.0,51.0,2.0,0.0,89.0,66.0,0.0,72.0,0.0,155.0,4.0,167.0,54.0,87.0,81.0,104.0,8.0,383.0,157.0,20.0,5.0
521009,2.0,23.0,0.0,0.0,48.0,32.0,0.0,36.0,0.0,0.0,2.0,264.0,27.0,42.0,45.0,44.0,5.0,221.0,89.0,10.0,2.0
506539,6.0,61.0,2.0,35.0,77.0,118.0,9.0,144.0,0.0,155.0,5.0,231.0,101.0,75.0,69.0,131.0,14.0,323.0,133.0,31.0,6.0
498598,4.0,85.0,0.0,70.0,46.0,48.0,19.0,72.0,2.0,0.0,0.0,336.0,40.0,44.0,48.0,159.0,11.0,201.0,84.0,40.0,0.0
530656,10.0,155.0,0.0,105.0,30.0,0.0,34.0,0.0,2.0,0.0,0.0,54.0,0.0,16.0,29.0,290.0,33.0,77.0,39.0,71.0,0.0
graph,20.0,277.0,2.0,140.0,263.0,383.0,43.0,450.0,4.0,465.0,17.0,933.0,327.0,243.0,250.0,520.0,62.0,1146.0,472.0,117.0,23.0
