Vertex,0110100110010110,0101101001011010,0101101001001000,0100101001010010,0110100010010010,0100101101000100,0110100110000100,0111100010001000
556917,35.0,11.0,30.0,10.0,106.0,2.0,187.0,113.0
593672,35.0,11.0,18.0,10.0,52.0,2.0,97.0,53.0
613423,0.0,0.0,18.0,10.0,46.0,2.0,73.0,15.0
534619,35.0,11.0,10.0,0.0,25.0,0.0,59.0,38.0
648011,0.0,0.0,16.0,10.0,45.0,0.0,90.0,38.0
649875,35.0,11.0,30.0,10.0,106.0,2.0,187.0,113.0
610377,35.0,11.0,12.0,0.0,26.0,2.0,42.0,15.0
620332,0.0,0.0,18.0,10.0,46.0,2.0,73.0,15.0
574999,35.0,11.0,18.0,10.0,52.0,2.0,97.0,53.0
510858,0.0,0.0,16.0,10.0,45.0,0.0,90.0,38.0
532209,35.0,11.0,10.0,0.0,25.0,0.0,59.0,38.0
574837,35.0,11.0,12.0,0.0,26.0,2.0,42.0,15.0
graph,70.0,22.0,52.0,20.0,150.0,4.0,274.0,136.0
