Vertex,0111010101110001000001000,0111010101110001000101010,0111110000100001000010000,0110010010100010100000100,0111010110110011100000100,0110010011100100110001000,0110010010100010100100110,0110010011100000100001000,0111110100110001000110010,0111110110110001100010000,0111110100110001000010000,0111010100110001000100010,0111110110110011100010100
574335,3.0,0.0,0.0,33.0,0.0,1.0,2.0,52.0,0.0,0.0,0.0,5.0,0.0
520862,4.0,0.0,90.0,30.0,0.0,16.0,2.0,154.0,0.0,2.0,28.0,11.0,0.0
544748,4.0,1.0,0.0,40.0,0.0,1.0,2.0,54.0,0.0,0.0,1.0,18.0,0.0
517403,2.0,0.0,0.0,18.0,0.0,13.0,1.0,92.0,0.0,0.0,1.0,9.0,0.0
554368,30.0,5.0,205.0,73.0,3.0,49.0,1.0,425.0,3.0,14.0,109.0,47.0,1.0
570378,7.0,2.0,90.0,33.0,0.0,25.0,2.0,180.0,0.0,2.0,29.0,24.0,0.0
601617,11.0,2.0,0.0,36.0,1.0,12.0,0.0,79.0,0.0,0.0,2.0,19.0,0.0
460875,18.0,3.0,70.0,41.0,2.0,23.0,0.0,122.0,1.0,7.0,42.0,15.0,1.0
647008,15.0,2.0,50.0,12.0,3.0,3.0,0.0,71.0,2.0,14.0,54.0,20.0,1.0
515241,11.0,1.0,65.0,13.0,0.0,12.0,0.0,99.0,3.0,2.0,50.0,14.0,0.0
568322,11.0,1.0,65.0,3.0,0.0,4.0,0.0,82.0,3.0,2.0,50.0,11.0,0.0
542141,4.0,0.0,90.0,3.0,0.0,5.0,0.0,99.0,0.0,2.0,28.0,1.0,0.0
518019,3.0,1.0,90.0,13.0,0.0,12.0,0.0,117.0,0.0,2.0,28.0,4.0,0.0
582172,10.0,1.0,70.0,18.0,1.0,13.0,0.0,99.0,1.0,7.0,41.0,13.0,1.0
617666,8.0,1.0,50.0,11.0,3.0,4.0,0.0,74.0,2.0,14.0,53.0,20.0,1.0
464002,2.0,2.0,90.0,26.0,0.0,22.0,0.0,142.0,0.0,2.0,28.0,7.0,0.0
473903,8.0,1.0,0.0,20.0,0.0,8.0,0.0,58.0,0.0,0.0,0.0,6.0,0.0
552713,7.0,1.0,0.0,23.0,1.0,10.0,0.0,67.0,0.0,0.0,0.0,5.0,0.0
651301,7.0,1.0,0.0,24.0,1.0,12.0,0.0,79.0,0.0,0.0,1.0,6.0,0.0
graph,33.0,5.0,205.0,94.0,3.0,49.0,2.0,429.0,3.0,14.0,109.0,51.0,1.0
