Vertex,0110100010010010,0111100010011010,0101101001001000,0101101001011010,0110101111010110,0111100010001000,0100101101000100,0111101111001100,0110100110000100,0111101011001000,0111100110001100,0101101101011110,0111101111011110,0101101101001100,0100101101010110,0111100110011110,0111101011011010,0110101111000100,0110101011010010,0110100110010110,0100101001010010
649039,348.0,240.0,180.0,15.0,456.0,536.0,16.0,594.0,620.0,1443.0,390.0,36.0,1395.0,94.0,0.0,29.0,489.0,655.0,437.0,35.0,73.0
596453,235.0,38.0,127.0,0.0,61.0,145.0,14.0,72.0,448.0,315.0,113.0,8.0,0.0,46.0,0.0,7.0,64.0,163.0,135.0,0.0,48.0
474307,275.0,218.0,141.0,18.0,333.0,619.0,8.0,486.0,542.0,1272.0,342.0,17.0,1085.0,68.0,0.0,21.0,385.0,556.0,340.0,70.0,26.0
626174,313.0,193.0,151.0,51.0,376.0,592.0,22.0,450.0,526.0,960.0,243.0,35.0,465.0,46.0,4.0,24.0,396.0,421.0,259.0,138.0,96.0
573575,184.0,92.0,99.0,14.0,64.0,716.0,8.0,90.0,344.0,496.0,119.0,2.0,0.0,18.0,0.0,2.0,68.0,215.0,127.0,35.0,33.0
549801,170.0,4.0,77.0,0.0,0.0,0.0,0.0,0.0,249.0,39.0,16.0,0.0,0.0,8.0,0.0,0.0,0.0,24.0,24.0,0.0,56.0
462278,401.0,253.0,211.0,119.0,673.0,701.0,34.0,846.0,734.0,1427.0,397.0,58.0,1240.0,104.0,4.0,40.0,712.0,660.0,450.0,313.0,93.0
554368,418.0,630.0,248.0,58.0,1110.0,2504.0,0.0,1494.0,862.0,3452.0,822.0,70.0,2480.0,124.0,0.0,46.0,1211.0,1484.0,884.0,140.0,18.0
542275,480.0,290.0,256.0,58.0,624.0,750.0,36.0,846.0,896.0,1739.0,492.0,46.0,1705.0,130.0,2.0,29.0,684.0,803.0,545.0,140.0,78.0
550157,318.0,235.0,155.0,115.0,345.0,640.0,18.0,432.0,582.0,1249.0,342.0,25.0,930.0,70.0,6.0,27.0,378.0,549.0,341.0,313.0,74.0
575038,253.0,139.0,118.0,16.0,105.0,619.0,8.0,126.0,422.0,667.0,168.0,11.0,155.0,30.0,4.0,7.0,114.0,291.0,181.0,35.0,72.0
603392,244.0,116.0,119.0,32.0,207.0,650.0,20.0,234.0,403.0,632.0,152.0,20.0,0.0,24.0,0.0,11.0,212.0,274.0,164.0,70.0,84.0
563956,77.0,90.0,46.0,0.0,61.0,693.0,6.0,72.0,185.0,512.0,126.0,5.0,0.0,20.0,0.0,4.0,67.0,220.0,132.0,0.0,0.0
638534,227.0,82.0,137.0,92.0,44.0,239.0,14.0,54.0,483.0,543.0,190.0,8.0,0.0,70.0,2.0,4.0,48.0,271.0,203.0,243.0,35.0
541956,200.0,16.0,104.0,14.0,0.0,99.0,10.0,0.0,359.0,137.0,52.0,0.0,0.0,24.0,0.0,0.0,0.0,76.0,68.0,35.0,42.0
516393,121.0,106.0,80.0,0.0,140.0,800.0,0.0,252.0,280.0,547.0,121.0,0.0,155.0,10.0,0.0,0.0,168.0,227.0,121.0,0.0,6.0
585776,288.0,140.0,156.0,32.0,223.0,737.0,18.0,288.0,530.0,797.0,206.0,22.0,310.0,44.0,0.0,12.0,241.0,356.0,226.0,70.0,75.0
457203,374.0,236.0,196.0,60.0,466.0,591.0,22.0,612.0,665.0,1312.0,347.0,43.0,775.0,78.0,2.0,23.0,502.0,593.0,385.0,140.0,97.0
544305,109.0,112.0,72.0,0.0,134.0,766.0,4.0,216.0,252.0,583.0,133.0,4.0,155.0,14.0,0.0,2.0,154.0,245.0,133.0,0.0,4.0
486381,155.0,98.0,79.0,16.0,112.0,659.0,14.0,126.0,268.0,508.0,110.0,11.0,0.0,8.0,0.0,6.0,114.0,210.0,114.0,35.0,48.0
607682,383.0,182.0,208.0,46.0,328.0,693.0,26.0,414.0,706.0,1032.0,263.0,28.0,310.0,54.0,0.0,16.0,347.0,461.0,295.0,105.0,103.0
476953,188.0,84.0,104.0,0.0,54.0,723.0,10.0,72.0,341.0,446.0,102.0,3.0,0.0,12.0,0.0,2.0,58.0,190.0,110.0,0.0,43.0
634611,117.0,34.0,70.0,0.0,0.0,152.0,0.0,0.0,245.0,196.0,58.0,0.0,0.0,16.0,0.0,0.0,0.0,92.0,58.0,0.0,4.0
638101,223.0,16.0,104.0,16.0,0.0,24.0,4.0,0.0,359.0,168.0,64.0,0.0,0.0,32.0,0.0,0.0,0.0,96.0,96.0,35.0,60.0
576989,39.0,0.0,18.0,0.0,0.0,0.0,0.0,0.0,63.0,0.0,0.0,0.0,0.0,0.0,0.0,0.0,0.0,0.0,0.0,0.0,4.0
graph,1535.0,911.0,814.0,193.0,1479.0,3662.0,78.0,1944.0,2841.0,5118.0,1342.0,113.0,2790.0,286.0,6.0,78.0,1603.0,2283.0,1457.0,488.0,318.0
