Vertex,0111010100110001000100010,0110010011100000100001000,0111110100110001000010000,0110010010100010100000100,0111010101110001000001000,0110010010100010100100110
618268,4.0,12.0,1.0,15.0,2.0,1.0
563241,2.0,12.0,1.0,15.0,1.0,1.0
638244,1.0,8.0,1.0,11.0,1.0,0.0
470179,2.0,7.0,0.0,8.0,0.0,1.0
469572,1.0,7.0,0.0,11.0,0.0,0.0
490760,4.0,5.0,1.0,7.0,2.0,1.0
568209,4.0,4.0,1.0,4.0,2.0,0.0
610105,1.0,2.0,0.0,10.0,0.0,0.0
472525,1.0,2.0,0.0,8.0,2.0,1.0
576393,0.0,1.0,0.0,11.0,0.0,0.0
graph,4.0,12.0,1.0,20.0,2.0,1.0
