0110100110000100: 528022 616610 469098 507019
0110100110000100: 528022 616610 469098 545211
0110100010010010: 528022 616610 469098 589769
0110100110000100: 528022 616610 469098 507019
0110100110000100: 528022 616610 469098 545211
0110100110000100: 528022 616610 469098 507019
0110100110000100: 528022 616610 469098 545211
0110100010010010: 528022 616610 469098 589769
0110100110000100: 528022 616610 469098 507019
0110100110000100: 528022 616610 469098 545211
0110100110000100: 528022 616610 469098 507019
0110100110000100: 528022 616610 469098 545211
0110100010010010: 528022 616610 469098 589769
0110100110000100: 528022 469098 616610 589769
0110100010010010: 528022 469098 616610 507019
0110100010010010: 528022 469098 616610 545211
0110100110000100: 528022 469098 616610 589769
0110100110000100: 528022 469098 616610 589769
0110100110000100: 528022 469098 616610 589769
0110100110000100: 528022 469098 616610 589769
0110100110000100: 528022 469098 616610 589769
0110100110000100: 469098 589769 528022 610798
0110100010010010: 469098 589769 528022 616610
0110100110000100: 469098 589769 528022 610798
0110100110000100: 469098 589769 528022 610798
0110100110000100: 469098 589769 528022 610798
0110100110000100: 469098 589769 528022 610798
0110100110000100: 469098 589769 528022 610798
0110100010010010: 469098 528022 589769 610798
0110100110000100: 469098 528022 589769 616610
0110100110000100: 469098 528022 589769 616610
0110100110000100: 469098 528022 589769 616610
0110100110000100: 469098 528022 589769 616610
0110100110000100: 583391 610798 493380 589769
0110100010010010: 583391 610798 493380 545211
0110100110000100: 583391 610798 493380 589769
0110100110000100: 583391 610798 493380 589769
0110100110000100: 583391 610798 493380 589769
0110100110000100: 583391 610798 493380 589769
0110100110000100: 583391 610798 493380 589769
0110100110000100: 583391 493380 610798 545211
0110100010010010: 583391 493380 610798 589769
0110100110000100: 583391 493380 610798 545211
0110100110000100: 583391 493380 610798 545211
0110100110000100: 583391 493380 610798 545211
0110100110000100: 583391 493380 610798 545211
0110100110000100: 583391 493380 610798 545211
0110100110000100: 493380 545211 583391 616610
0110100110000100: 493380 545211 583391 627329
0110100010010010: 493380 545211 583391 610798
0110100110000100: 493380 545211 583391 616610
0110100110000100: 493380 545211 583391 627329
0110100110000100: 493380 545211 583391 616610
0110100110000100: 493380 545211 583391 627329
0110100010010010: 493380 545211 583391 610798
0110100110000100: 493380 545211 583391 616610
0110100110000100: 493380 545211 583391 627329
0110100110000100: 493380 545211 583391 616610
0110100110000100: 493380 545211 583391 627329
0110100010010010: 493380 545211 583391 610798
0110100010010010: 493380 583391 545211 616610
0110100010010010: 493380 583391 545211 627329
0110100110000100: 493380 583391 545211 610798
0110100110000100: 493380 583391 545211 610798
0110100110000100: 493380 583391 545211 610798
0110100110000100: 493380 583391 545211 610798
0101101001001000: 545211 627329 617458 616610
0101101001001000: 545211 627329 617458 493380
0111100010001000: 545211 493380 627329 616610
0101101001001000: 545211 493380 583391 616610
0101101001001000: 545211 493380 583391 627329
0110100110000100: 545211 616610 627329 507019
0110100110000100: 545211 616610 627329 528022
0110100010010010: 545211 616610 627329 617458
0110100010010010: 545211 616610 627329 617458
0111100010001000: 545211 616610 493380 627329
0110100110000100: 545211 616610 493380 507019
0110100110000100: 545211 616610 493380 528022
0110100010010010: 545211 616610 493380 583391
0110100010010010: 545211 616610 493380 583391
0110100110000100: 545211 616610 627329 507019
0110100110000100: 545211 616610 627329 528022
0110100110000100: 545211 616610 627329 507019
0110100110000100: 545211 616610 627329 528022
0110100010010010: 545211 616610 627329 617458
0110100110000100: 545211 616610 493380 507019
0110100110000100: 545211 616610 493380 528022
0110100110000100: 545211 616610 493380 507019
0110100110000100: 545211 616610 493380 528022
0110100010010010: 545211 616610 493380 583391
0111100010001000: 545211 616610 627329 493380
0111100010001000: 545211 616610 627329 493380
0110100010010010: 545211 616610 627329 617458
0111100010001000: 545211 616610 493380 627329
0111100010001000: 545211 616610 493380 627329
0110100010010010: 545211 616610 493380 583391
0110100110000100: 545211 616610 627329 507019
0110100110000100: 545211 616610 627329 528022
0110100110000100: 545211 616610 627329 507019
0110100110000100: 545211 616610 627329 528022
0111100010001000: 545211 616610 627329 493380
0110100010010010: 545211 616610 627329 617458
0110100010010010: 545211 616610 627329 617458
0110100110000100: 545211 616610 493380 507019
0110100110000100: 545211 616610 493380 528022
0110100110000100: 545211 616610 493380 507019
0110100110000100: 545211 616610 493380 528022
0111100010001000: 545211 616610 493380 627329
0111100010001000: 545211 616610 493380 627329
0110100010010010: 545211 616610 493380 583391
0110100010010010: 545211 616610 493380 583391
0110100110000100: 545211 627329 616610 617458
0110100010010010: 545211 627329 616610 507019
0110100010010010: 545211 627329 616610 528022
0111100010001000: 545211 627329 493380 616610
0110100110000100: 545211 627329 493380 617458
0110100010010010: 545211 627329 493380 583391
0110100010010010: 545211 627329 493380 583391
0111100010001000: 545211 627329 616610 493380
0110100110000100: 545211 627329 616610 617458
0110100110000100: 545211 627329 616610 617458
0110100110000100: 545211 627329 616610 617458
0110100110000100: 545211 627329 493380 617458
0110100110000100: 545211 627329 493380 617458
0110100110000100: 545211 627329 493380 617458
0101101001001000: 545211 627329 617458 616610
0101101001001000: 545211 627329 617458 493380
0110100010010010: 545211 493380 616610 507019
0110100010010010: 545211 493380 616610 528022
0111100010001000: 545211 493380 627329 616610
0110100010010010: 545211 493380 627329 617458
0110100010010010: 545211 493380 627329 617458
0111100010001000: 545211 493380 616610 627329
0110100110000100: 545211 493380 616610 583391
0110100110000100: 545211 493380 616610 583391
0111100010001000: 545211 493380 627329 616610
0111100010001000: 545211 493380 627329 616610
0110100110000100: 545211 493380 627329 583391
0110100110000100: 545211 493380 627329 583391
0101101001001000: 545211 493380 583391 616610
0101101001001000: 545211 493380 583391 627329
0100101001010010: 545211 493380 583391 610798
0100101001010010: 545211 493380 583391 610798
0100101001010010: 545211 493380 583391 610798
0110100010010010: 627329 617458 545211 616610
0110100010010010: 627329 617458 545211 493380
0110100110000100: 627329 545211 617458 616610
0110100110000100: 627329 545211 617458 493380
0110100110000100: 627329 545211 617458 616610
0110100110000100: 627329 545211 617458 493380
0110100110000100: 627329 545211 617458 616610
0110100110000100: 627329 545211 617458 493380
0110100110000100: 610798 589769 583391 469098
0110100010010010: 610798 589769 583391 493380
0110100110000100: 610798 589769 583391 469098
0110100110000100: 610798 589769 583391 469098
0110100110000100: 610798 589769 583391 469098
0110100110000100: 610798 589769 583391 469098
0110100110000100: 610798 589769 583391 469098
0110100010010010: 610798 583391 589769 469098
0110100110000100: 610798 583391 589769 493380
0110100110000100: 610798 583391 589769 493380
0110100110000100: 610798 583391 589769 493380
0110100110000100: 610798 583391 589769 493380
0111100010001000: 616610 528022 545211 507019
0101101001001000: 616610 528022 469098 507019
0101101001001000: 616610 528022 469098 545211
0110100010010010: 616610 507019 545211 627329
0110100010010010: 616610 507019 545211 493380
0111100010001000: 616610 507019 528022 545211
0110100010010010: 616610 507019 528022 469098
0110100010010010: 616610 507019 528022 469098
0111100010001000: 616610 545211 528022 507019
0110100010010010: 616610 545211 528022 469098
0110100010010010: 616610 545211 528022 469098
0111100010001000: 616610 545211 507019 528022
0110100110000100: 616610 545211 507019 627329
0110100110000100: 616610 545211 507019 493380
0110100110000100: 616610 545211 528022 627329
0110100110000100: 616610 545211 528022 493380
0110100010010010: 616610 545211 528022 469098
0111100010001000: 616610 545211 507019 528022
0111100010001000: 616610 545211 507019 528022
0111100010001000: 616610 545211 528022 507019
0111100010001000: 616610 545211 528022 507019
0110100010010010: 616610 545211 528022 469098
0110100110000100: 616610 545211 507019 627329
0110100110000100: 616610 545211 507019 493380
0110100110000100: 616610 545211 507019 627329
0110100110000100: 616610 545211 507019 493380
0111100010001000: 616610 545211 507019 528022
0110100110000100: 616610 545211 528022 627329
0110100110000100: 616610 545211 528022 493380
0110100110000100: 616610 545211 528022 627329
0110100110000100: 616610 545211 528022 493380
0111100010001000: 616610 545211 528022 507019
0111100010001000: 616610 545211 528022 507019
0110100010010010: 616610 545211 528022 469098
0110100010010010: 616610 545211 528022 469098
0111100010001000: 616610 528022 545211 507019
0110100010010010: 616610 528022 545211 627329
0110100010010010: 616610 528022 545211 493380
0111100010001000: 616610 528022 507019 545211
0110100110000100: 616610 528022 507019 469098
0110100110000100: 616610 528022 507019 469098
0111100010001000: 616610 528022 545211 507019
0111100010001000: 616610 528022 545211 507019
0110100110000100: 616610 528022 545211 469098
0110100110000100: 616610 528022 545211 469098
0101101001001000: 616610 528022 469098 507019
0101101001001000: 616610 528022 469098 545211
0100101001010010: 616610 528022 469098 589769
0100101001010010: 616610 528022 469098 589769
0100101001010010: 616610 528022 469098 589769
0110100010010010: 589769 610798 469098 528022
0110100110000100: 589769 610798 469098 583391
0110100110000100: 589769 610798 469098 583391
0110100110000100: 589769 610798 469098 583391
0110100110000100: 589769 610798 469098 583391
0110100010010010: 589769 469098 610798 583391
0110100110000100: 589769 469098 610798 528022
0110100110000100: 589769 469098 610798 528022
0110100110000100: 589769 469098 610798 528022
0110100110000100: 589769 469098 610798 528022
