0110100110000100: 560564 522226 627452 494226
0110100110000100: 560564 522226 627452 545211
0110100110000100: 560564 522226 627452 494226
0110100110000100: 560564 522226 627452 545211
0110100110000100: 560564 522226 627452 494226
0110100110000100: 560564 522226 627452 545211
0110100110000100: 560564 522226 627452 494226
0110100110000100: 560564 522226 627452 545211
0110100110000100: 560564 522226 627452 494226
0110100110000100: 560564 522226 627452 545211
0110100010010010: 560564 627452 522226 494226
0110100010010010: 560564 627452 522226 545211
0110100110010110: 522226 545211 494226 541954
0101101001001000: 522226 545211 541954 560564
0111100010001000: 522226 560564 545211 494226
0101101001001000: 522226 560564 627452 494226
0101101001001000: 522226 560564 627452 545211
0110100110000100: 522226 494226 545211 504865
0110100110000100: 522226 494226 545211 612843
0110100110010110: 522226 494226 545211 541954
0110100110010110: 522226 494226 545211 541954
0111100010001000: 522226 494226 560564 545211
0110100110000100: 522226 494226 560564 504865
0110100110000100: 522226 494226 560564 612843
0110100110000100: 522226 494226 560564 541954
0110100010010010: 522226 494226 560564 627452
0110100010010010: 522226 494226 560564 627452
0110100110000100: 522226 494226 545211 504865
0110100110000100: 522226 494226 545211 612843
0110100110000100: 522226 494226 545211 504865
0110100110000100: 522226 494226 545211 612843
0110100110010110: 522226 494226 545211 541954
0110100110000100: 522226 494226 560564 504865
0110100110000100: 522226 494226 560564 612843
0110100110000100: 522226 494226 560564 541954
0110100110000100: 522226 494226 560564 504865
0110100110000100: 522226 494226 560564 612843
0110100110000100: 522226 494226 560564 541954
0110100010010010: 522226 494226 560564 627452
0111100010001000: 522226 494226 545211 560564
0111100010001000: 522226 494226 545211 560564
0111100010001000: 522226 494226 560564 545211
0111100010001000: 522226 494226 560564 545211
0110100010010010: 522226 494226 560564 627452
0110100110000100: 522226 494226 545211 504865
0110100110000100: 522226 494226 545211 612843
0110100110000100: 522226 494226 545211 504865
0110100110000100: 522226 494226 545211 612843
0111100010001000: 522226 494226 545211 560564
0110100110010110: 522226 494226 545211 541954
0110100110010110: 522226 494226 545211 541954
0110100110000100: 522226 494226 560564 504865
0110100110000100: 522226 494226 560564 612843
0110100110000100: 522226 494226 560564 541954
0110100110000100: 522226 494226 560564 504865
0110100110000100: 522226 494226 560564 612843
0110100110000100: 522226 494226 560564 541954
0111100010001000: 522226 494226 560564 545211
0111100010001000: 522226 494226 560564 545211
0110100010010010: 522226 494226 560564 627452
0110100010010010: 522226 494226 560564 627452
0110100010010010: 522226 545211 494226 504865
0110100010010010: 522226 545211 494226 612843
0110100110010110: 522226 545211 494226 541954
0110100110010110: 522226 545211 494226 541954
0111100010001000: 522226 545211 560564 494226
0110100110000100: 522226 545211 560564 541954
0110100010010010: 522226 545211 560564 627452
0110100010010010: 522226 545211 560564 627452
0111100010001000: 522226 545211 494226 560564
0110100110010110: 522226 545211 494226 541954
0110100110010110: 522226 545211 494226 541954
0110100110010110: 522226 545211 494226 541954
0110100110000100: 522226 545211 560564 541954
0110100110000100: 522226 545211 560564 541954
0110100110000100: 522226 545211 560564 541954
0101101001001000: 522226 545211 541954 560564
0100101001010010: 522226 545211 541954 469732
0100101001010010: 522226 545211 541954 469732
0101101001011010: 522226 545211 541954 494226
0101101001011010: 522226 545211 541954 494226
0101101001011010: 522226 545211 541954 494226
0101101001001000: 522226 545211 541954 560564
0110100010010010: 522226 560564 494226 504865
0110100010010010: 522226 560564 494226 612843
0110100010010010: 522226 560564 494226 541954
0111100010001000: 522226 560564 545211 494226
0110100010010010: 522226 560564 545211 541954
0110100010010010: 522226 560564 545211 541954
0111100010001000: 522226 560564 494226 545211
0110100110000100: 522226 560564 494226 627452
0110100110000100: 522226 560564 494226 627452
0111100010001000: 522226 560564 545211 494226
0111100010001000: 522226 560564 545211 494226
0110100110000100: 522226 560564 545211 627452
0110100110000100: 522226 560564 545211 627452
0101101001001000: 522226 560564 627452 494226
0101101001001000: 522226 560564 627452 545211
0110100110010110: 545211 522226 541954 494226
0110100110000100: 545211 541954 522226 469732
0110100010010010: 545211 541954 522226 560564
0110100110010110: 545211 541954 522226 494226
0110100110010110: 545211 541954 522226 494226
0110100110000100: 545211 541954 522226 469732
0110100110000100: 545211 541954 522226 469732
0110100110010110: 545211 541954 522226 494226
0110100110000100: 545211 541954 522226 469732
0110100110000100: 545211 541954 522226 469732
0110100110010110: 545211 541954 522226 494226
0110100110000100: 545211 541954 522226 469732
0110100010010010: 545211 522226 541954 469732
0110100110010110: 545211 522226 541954 494226
0110100110000100: 545211 522226 541954 560564
0110100110010110: 545211 522226 541954 494226
0110100110010110: 545211 522226 541954 494226
0110100110000100: 545211 522226 541954 560564
0110100110000100: 545211 522226 541954 560564
0110100110010110: 545211 522226 541954 494226
0110100110000100: 545211 522226 541954 560564
0101101001001000: 494226 504865 469732 612843
0101101001001000: 494226 504865 469732 522226
0101101001001000: 494226 612843 654267 504865
0101101001001000: 494226 612843 654267 541954
0101101001001000: 494226 612843 654267 522226
0110100110010110: 494226 541954 504865 469732
0111100010001000: 494226 541954 612843 504865
0101101001001000: 494226 541954 469732 612843
0101101001001000: 494226 541954 469732 522226
0101101001001000: 494226 541954 545211 504865
0101101001001000: 494226 541954 545211 612843
0100101101000100: 494226 541954 545211 469732
0111100010001000: 494226 522226 612843 504865
0111100010001000: 494226 522226 541954 504865
0111100010001000: 494226 522226 541954 612843
0110100110010110: 494226 522226 541954 545211
0101101001001000: 494226 522226 545211 504865
0101101001001000: 494226 522226 545211 612843
0101101001001000: 494226 522226 560564 504865
0101101001001000: 494226 522226 560564 612843
0101101001001000: 494226 522226 560564 541954
0100101101000100: 494226 522226 560564 545211
0110100110000100: 494226 504865 612843 469732
0110100010010010: 494226 504865 612843 654267
0110100010010010: 494226 504865 612843 654267
0111100010001000: 494226 504865 541954 612843
0110100010010010: 494226 504865 541954 545211
0110100010010010: 494226 504865 541954 545211
0110100110010110: 494226 504865 541954 469732
0110100110010110: 494226 504865 541954 469732
0111100010001000: 494226 504865 522226 612843
0111100010001000: 494226 504865 522226 541954
0110100110000100: 494226 504865 522226 469732
0110100010010010: 494226 504865 522226 545211
0110100010010010: 494226 504865 522226 560564
0110100010010010: 494226 504865 522226 545211
0110100010010010: 494226 504865 522226 560564
0110100110000100: 494226 504865 612843 469732
0110100110000100: 494226 504865 612843 469732
0110100110000100: 494226 504865 612843 469732
0110100110010110: 494226 504865 541954 469732
0110100110000100: 494226 504865 522226 469732
0110100110000100: 494226 504865 522226 469732
0110100110000100: 494226 504865 522226 469732
0101101001001000: 494226 504865 469732 612843
0101101001001000: 494226 504865 469732 522226
0101101001011010: 494226 504865 469732 541954
0101101001011010: 494226 504865 469732 541954
0101101001011010: 494226 504865 469732 541954
0110100110000100: 494226 612843 504865 654267
0110100010010010: 494226 612843 504865 469732
0110100010010010: 494226 612843 504865 469732
0111100010001000: 494226 612843 541954 504865
0110100110000100: 494226 612843 541954 654267
0110100010010010: 494226 612843 541954 469732
0110100010010010: 494226 612843 541954 545211
0110100010010010: 494226 612843 541954 469732
0110100010010010: 494226 612843 541954 545211
0111100010001000: 494226 612843 522226 504865
0111100010001000: 494226 612843 522226 541954
0110100110000100: 494226 612843 522226 654267
0110100010010010: 494226 612843 522226 545211
0110100010010010: 494226 612843 522226 560564
0110100010010010: 494226 612843 522226 545211
0110100010010010: 494226 612843 522226 560564
0111100010001000: 494226 612843 504865 541954
0111100010001000: 494226 612843 504865 522226
0110100110000100: 494226 612843 504865 654267
0110100110000100: 494226 612843 504865 654267
0110100110000100: 494226 612843 504865 654267
0110100110000100: 494226 612843 541954 654267
0110100110000100: 494226 612843 541954 654267
0110100110000100: 494226 612843 541954 654267
0110100110000100: 494226 612843 522226 654267
0110100110000100: 494226 612843 522226 654267
0110100110000100: 494226 612843 522226 654267
0101101001001000: 494226 612843 654267 504865
0101101001001000: 494226 612843 654267 541954
0101101001001000: 494226 612843 654267 522226
0110100110000100: 494226 541954 504865 545211
0110100110010110: 494226 541954 504865 469732
0110100110010110: 494226 541954 504865 469732
0111100010001000: 494226 541954 612843 504865
0110100110000100: 494226 541954 612843 469732
0110100110000100: 494226 541954 612843 545211
0110100010010010: 494226 541954 612843 654267
0110100010010010: 494226 541954 612843 654267
0111100010001000: 494226 541954 522226 504865
0111100010001000: 494226 541954 522226 612843
0110100110000100: 494226 541954 522226 469732
0110100010010010: 494226 541954 522226 560564
0110100010010010: 494226 541954 522226 560564
0110100110010110: 494226 541954 522226 545211
0110100110010110: 494226 541954 522226 545211
0111100010001000: 494226 541954 504865 612843
0111100010001000: 494226 541954 504865 522226
0110100110000100: 494226 541954 504865 545211
0110100110000100: 494226 541954 504865 545211
0110100110000100: 494226 541954 504865 545211
0110100110010110: 494226 541954 504865 469732
0110100110010110: 494226 541954 504865 469732
0110100110010110: 494226 541954 504865 469732
0111100010001000: 494226 541954 612843 504865
0111100010001000: 494226 541954 612843 522226
0111100010001000: 494226 541954 612843 504865
0110100110000100: 494226 541954 612843 469732
0110100110000100: 494226 541954 612843 545211
0110100110000100: 494226 541954 612843 469732
0110100110000100: 494226 541954 612843 545211
0110100110000100: 494226 541954 612843 469732
0110100110000100: 494226 541954 612843 545211
0110100010010010: 494226 541954 612843 654267
0110100110000100: 494226 541954 522226 469732
0110100110000100: 494226 541954 522226 469732
0110100110000100: 494226 541954 522226 469732
0110100110010110: 494226 541954 522226 545211
0101101001001000: 494226 541954 469732 612843
0101101001001000: 494226 541954 469732 522226
0101101001011010: 494226 541954 469732 504865
0101101001011010: 494226 541954 469732 504865
0101101001011010: 494226 541954 469732 504865
0101101001011010: 494226 541954 469732 504865
0101101001011010: 494226 541954 469732 504865
0101101001001000: 494226 541954 545211 504865
0101101001001000: 494226 541954 545211 612843
0100101101000100: 494226 541954 545211 469732
0101101001011010: 494226 541954 545211 522226
0101101001011010: 494226 541954 545211 522226
0101101001011010: 494226 541954 545211 522226
0101101001011010: 494226 541954 545211 522226
0110100010010010: 494226 522226 504865 469732
0110100010010010: 494226 522226 504865 469732
0111100010001000: 494226 522226 612843 504865
0110100010010010: 494226 522226 612843 654267
0110100010010010: 494226 522226 612843 654267
0111100010001000: 494226 522226 541954 504865
0111100010001000: 494226 522226 541954 612843
0110100010010010: 494226 522226 541954 469732
0110100010010010: 494226 522226 541954 469732
0110100110010110: 494226 522226 541954 545211
0111100010001000: 494226 522226 504865 612843
0111100010001000: 494226 522226 504865 541954
0110100110000100: 494226 522226 504865 545211
0110100110000100: 494226 522226 504865 560564
0110100110000100: 494226 522226 504865 545211
0110100110000100: 494226 522226 504865 560564
0110100010010010: 494226 522226 504865 469732
0111100010001000: 494226 522226 612843 504865
0111100010001000: 494226 522226 612843 541954
0111100010001000: 494226 522226 612843 504865
0110100110000100: 494226 522226 612843 545211
0110100110000100: 494226 522226 612843 560564
0110100110000100: 494226 522226 612843 545211
0110100110000100: 494226 522226 612843 560564
0110100010010010: 494226 522226 612843 654267
0111100010001000: 494226 522226 541954 504865
0111100010001000: 494226 522226 541954 612843
0111100010001000: 494226 522226 541954 504865
0111100010001000: 494226 522226 541954 612843
0110100110000100: 494226 522226 541954 560564
0110100110000100: 494226 522226 541954 560564
0110100110010110: 494226 522226 541954 545211
0110100110010110: 494226 522226 541954 545211
0101101001001000: 494226 522226 545211 504865
0101101001001000: 494226 522226 545211 612843
0101101001011010: 494226 522226 545211 541954
0101101001011010: 494226 522226 545211 541954
0101101001011010: 494226 522226 545211 541954
0101101001011010: 494226 522226 545211 541954
0101101001001000: 494226 522226 560564 504865
0101101001001000: 494226 522226 560564 612843
0101101001001000: 494226 522226 560564 541954
0100101001010010: 494226 522226 560564 627452
0100101001010010: 494226 522226 560564 627452
0100101101000100: 494226 522226 560564 545211
0100101001010010: 494226 522226 560564 627452
0100101001010010: 494226 522226 560564 627452
0101101001001000: 541954 469732 504865 545211
0110100110010110: 541954 494226 469732 504865
0111100010001000: 541954 545211 494226 469732
0110100110010110: 541954 545211 494226 522226
0101101001001000: 541954 545211 522226 469732
0110100010010010: 541954 469732 494226 612843
0110100010010010: 541954 469732 494226 522226
0110100110010110: 541954 469732 494226 504865
0110100110010110: 541954 469732 494226 504865
0111100010001000: 541954 469732 545211 494226
0110100110000100: 541954 469732 545211 504865
0110100010010010: 541954 469732 545211 522226
0110100010010010: 541954 469732 545211 522226
0110100110010110: 541954 469732 494226 504865
0110100110000100: 541954 469732 545211 504865
0110100110000100: 541954 469732 545211 504865
0110100110000100: 541954 469732 545211 504865
0101101001001000: 541954 469732 504865 545211
0101101001011010: 541954 469732 504865 494226
0101101001011010: 541954 469732 504865 494226
0101101001011010: 541954 469732 504865 494226
0110100110010110: 541954 494226 469732 504865
0111100010001000: 541954 494226 545211 469732
0110100110010110: 541954 494226 545211 522226
0111100010001000: 541954 494226 469732 545211
0110100110000100: 541954 494226 469732 612843
0110100110000100: 541954 494226 469732 522226
0110100110010110: 541954 494226 469732 504865
0110100110010110: 541954 494226 469732 504865
0110100110000100: 541954 494226 545211 504865
0110100110000100: 541954 494226 545211 612843
0110100110010110: 541954 494226 545211 522226
0111100010001000: 541954 494226 469732 545211
0111100010001000: 541954 494226 469732 545211
0111100010001000: 541954 494226 545211 469732
0111100010001000: 541954 494226 545211 469732
0110100110000100: 541954 494226 469732 612843
0110100110000100: 541954 494226 469732 522226
0110100110000100: 541954 494226 469732 612843
0110100110000100: 541954 494226 469732 522226
0111100010001000: 541954 494226 469732 545211
0110100110010110: 541954 494226 469732 504865
0110100110010110: 541954 494226 469732 504865
0110100110000100: 541954 494226 545211 504865
0110100110000100: 541954 494226 545211 612843
0110100110000100: 541954 494226 545211 504865
0110100110000100: 541954 494226 545211 612843
0111100010001000: 541954 494226 545211 469732
0111100010001000: 541954 494226 545211 469732
0110100110010110: 541954 494226 545211 522226
0110100110010110: 541954 494226 545211 522226
0110100010010010: 541954 545211 469732 504865
0110100010010010: 541954 545211 469732 504865
0111100010001000: 541954 545211 494226 469732
0110100010010010: 541954 545211 494226 504865
0110100010010010: 541954 545211 494226 612843
0110100110010110: 541954 545211 494226 522226
0111100010001000: 541954 545211 469732 494226
0110100110000100: 541954 545211 469732 522226
0110100110000100: 541954 545211 469732 522226
0111100010001000: 541954 545211 494226 469732
0111100010001000: 541954 545211 494226 469732
0110100110010110: 541954 545211 494226 522226
0110100110010110: 541954 545211 494226 522226
0101101001001000: 541954 545211 522226 469732
0100101001010010: 541954 545211 522226 560564
0100101001010010: 541954 545211 522226 560564
0101101001011010: 541954 545211 522226 494226
0101101001011010: 541954 545211 522226 494226
0101101001011010: 541954 545211 522226 494226
0101101001001000: 541954 545211 522226 469732
0101101001001000: 541954 545211 522226 469732
0110100110010110: 469732 541954 504865 494226
0110100010010010: 469732 504865 541954 545211
0110100110010110: 469732 504865 541954 494226
0110100110010110: 469732 504865 541954 494226
0110100110010110: 469732 504865 541954 494226
0110100110010110: 469732 504865 541954 494226
0110100110010110: 469732 541954 504865 494226
0110100110000100: 469732 541954 504865 545211
0110100110010110: 469732 541954 504865 494226
0110100110010110: 469732 541954 504865 494226
0110100110000100: 469732 541954 504865 545211
0110100110000100: 469732 541954 504865 545211
0110100110010110: 469732 541954 504865 494226
0110100010010010: 612843 654267 494226 504865
0110100010010010: 612843 654267 494226 541954
0110100010010010: 612843 654267 494226 522226
0110100110000100: 612843 494226 654267 504865
0110100110000100: 612843 494226 654267 541954
0110100110000100: 612843 494226 654267 522226
0110100110000100: 612843 494226 654267 504865
0110100110000100: 612843 494226 654267 541954
0110100110000100: 612843 494226 654267 522226
0110100110000100: 612843 494226 654267 504865
0110100110000100: 612843 494226 654267 541954
0110100110000100: 612843 494226 654267 522226
0110100110010110: 504865 494226 469732 541954
0110100010010010: 504865 469732 494226 612843
0110100010010010: 504865 469732 494226 522226
0110100110010110: 504865 469732 494226 541954
0110100110010110: 504865 469732 494226 541954
0110100110010110: 504865 469732 494226 541954
0110100110010110: 504865 494226 469732 541954
0110100110000100: 504865 494226 469732 612843
0110100110000100: 504865 494226 469732 522226
0110100110010110: 504865 494226 469732 541954
0110100110010110: 504865 494226 469732 541954
0110100110000100: 504865 494226 469732 612843
0110100110000100: 504865 494226 469732 522226
0110100110000100: 504865 494226 469732 612843
0110100110000100: 504865 494226 469732 522226
0110100110010110: 504865 494226 469732 541954
