Vertex,0110010010100010100100110,0110010010100010100000100,0111110100110001000110010,0111010101110001000001000,0111010110110011100000100,0110010011100110110001100,0111010100110001000100010,0110010011100100110001000,0111110111110111110011100,0111110111110001100011000,0111110110110101110010000,0111110000100001000010000,0111110111110101110011000,0111110110110011100010100,0111010101110001000101010,0111110100110001000010000,0111110110110001100010000,0111010110110011100100110,0110010011100000100001000,0111110110110011100110110
651774,5.0,130.0,35.0,101.0,16.0,4.0,37.0,60.0,1.0,12.0,12.0,370.0,12.0,25.0,24.0,404.0,171.0,2.0,262.0,1.0
483847,11.0,233.0,0.0,132.0,25.0,5.0,81.0,111.0,0.0,0.0,3.0,9.0,0.0,0.0,35.0,5.0,12.0,3.0,459.0,0.0
600880,1.0,69.0,30.0,52.0,6.0,0.0,15.0,12.0,0.0,1.0,4.0,378.0,3.0,18.0,5.0,415.0,123.0,0.0,137.0,1.0
528086,6.0,131.0,0.0,73.0,13.0,0.0,32.0,19.0,0.0,0.0,3.0,6.0,0.0,0.0,2.0,7.0,8.0,0.0,162.0,0.0
515170,1.0,104.0,48.0,75.0,17.0,0.0,50.0,21.0,1.0,6.0,24.0,282.0,15.0,30.0,7.0,428.0,174.0,1.0,140.0,2.0
477540,6.0,158.0,54.0,85.0,18.0,4.0,47.0,64.0,1.0,9.0,14.0,271.0,9.0,34.0,23.0,453.0,179.0,2.0,261.0,1.0
534801,5.0,101.0,0.0,11.0,0.0,3.0,52.0,61.0,0.0,0.0,7.0,533.0,0.0,0.0,18.0,360.0,73.0,0.0,342.0,0.0
581475,4.0,161.0,47.0,116.0,17.0,4.0,46.0,62.0,1.0,11.0,12.0,293.0,12.0,39.0,24.0,425.0,199.0,2.0,267.0,0.0
545211,2.0,221.0,52.0,171.0,36.0,0.0,80.0,45.0,2.0,15.0,31.0,201.0,26.0,48.0,24.0,416.0,270.0,1.0,305.0,5.0
472720,8.0,199.0,46.0,240.0,42.0,1.0,88.0,67.0,3.0,18.0,55.0,176.0,38.0,61.0,33.0,418.0,299.0,4.0,324.0,3.0
554368,4.0,121.0,172.0,308.0,57.0,4.0,139.0,88.0,4.0,36.0,78.0,1657.0,47.0,134.0,36.0,1983.0,790.0,3.0,617.0,5.0
606962,2.0,118.0,39.0,76.0,16.0,0.0,51.0,23.0,1.0,9.0,24.0,303.0,15.0,37.0,7.0,398.0,183.0,1.0,153.0,2.0
542768,2.0,112.0,40.0,77.0,14.0,0.0,41.0,17.0,1.0,17.0,10.0,310.0,13.0,41.0,7.0,404.0,200.0,0.0,218.0,1.0
647125,1.0,134.0,0.0,81.0,13.0,0.0,37.0,15.0,0.0,0.0,3.0,9.0,0.0,0.0,3.0,10.0,13.0,0.0,163.0,0.0
567010,1.0,74.0,22.0,57.0,7.0,0.0,13.0,19.0,0.0,9.0,3.0,420.0,4.0,22.0,6.0,377.0,143.0,0.0,176.0,1.0
647774,10.0,181.0,44.0,146.0,38.0,0.0,72.0,28.0,3.0,9.0,35.0,242.0,20.0,46.0,16.0,426.0,217.0,1.0,290.0,2.0
600123,4.0,124.0,0.0,91.0,12.0,0.0,53.0,31.0,0.0,0.0,5.0,13.0,0.0,0.0,10.0,19.0,19.0,0.0,326.0,0.0
559974,2.0,70.0,37.0,80.0,16.0,0.0,36.0,6.0,2.0,7.0,25.0,360.0,14.0,22.0,9.0,405.0,159.0,0.0,157.0,0.0
568949,0.0,24.0,26.0,28.0,1.0,0.0,8.0,7.0,0.0,0.0,7.0,435.0,0.0,3.0,0.0,415.0,83.0,0.0,100.0,0.0
592859,0.0,58.0,40.0,28.0,1.0,0.0,19.0,8.0,0.0,3.0,7.0,375.0,0.0,14.0,0.0,415.0,116.0,0.0,110.0,0.0
585718,2.0,74.0,29.0,42.0,4.0,0.0,18.0,8.0,0.0,5.0,6.0,395.0,1.0,22.0,3.0,392.0,127.0,0.0,157.0,0.0
597851,0.0,63.0,39.0,40.0,3.0,0.0,15.0,7.0,0.0,2.0,6.0,375.0,1.0,14.0,3.0,419.0,120.0,0.0,130.0,0.0
632085,0.0,48.0,42.0,42.0,4.0,0.0,15.0,7.0,0.0,2.0,6.0,362.0,1.0,12.0,3.0,443.0,108.0,0.0,139.0,0.0
639516,0.0,34.0,14.0,36.0,3.0,0.0,10.0,8.0,0.0,2.0,6.0,452.0,1.0,12.0,0.0,394.0,89.0,0.0,135.0,0.0
487919,3.0,133.0,54.0,42.0,6.0,0.0,41.0,15.0,0.0,7.0,4.0,253.0,3.0,41.0,2.0,424.0,185.0,0.0,150.0,1.0
645848,0.0,35.0,0.0,0.0,0.0,0.0,9.0,1.0,0.0,0.0,0.0,0.0,0.0,0.0,0.0,0.0,0.0,0.0,20.0,0.0
graph,16.0,582.0,182.0,446.0,77.0,5.0,221.0,162.0,4.0,36.0,78.0,1696.0,47.0,135.0,60.0,2051.0,812.0,4.0,1140.0,5.0
