Vertex,0110101111000100,0101101001001000,0110100110010110,0111101011001000,0110101011010010,0100101101000100,0111100010001000,0110100010010010,0101101101001100,0111100010011010,0101101001011010,0100101001010010,0110100110000100,0111100110001100
599345,31.0,17.0,0.0,74.0,17.0,0.0,72.0,26.0,2.0,14.0,0.0,3.0,57.0,17.0
610193,31.0,27.0,35.0,74.0,17.0,0.0,72.0,43.0,2.0,14.0,16.0,7.0,92.0,17.0
554368,65.0,82.0,105.0,155.0,35.0,6.0,245.0,140.0,6.0,26.0,38.0,8.0,287.0,41.0
629570,42.0,27.0,35.0,101.0,22.0,0.0,72.0,53.0,4.0,16.0,16.0,7.0,100.0,28.0
550954,8.0,22.0,35.0,20.0,4.0,0.0,104.0,37.0,0.0,4.0,6.0,0.0,77.0,4.0
464298,8.0,22.0,35.0,20.0,4.0,0.0,104.0,37.0,0.0,4.0,6.0,0.0,77.0,4.0
571675,42.0,29.0,0.0,101.0,22.0,0.0,72.0,65.0,4.0,16.0,0.0,10.0,117.0,28.0
642253,8.0,58.0,70.0,20.0,4.0,6.0,157.0,103.0,0.0,4.0,32.0,21.0,208.0,4.0
537838,7.0,29.0,35.0,14.0,5.0,4.0,38.0,44.0,2.0,2.0,16.0,9.0,99.0,5.0
461357,9.0,29.0,35.0,21.0,5.0,4.0,38.0,50.0,2.0,2.0,16.0,9.0,107.0,8.0
617685,0.0,20.0,35.0,0.0,0.0,0.0,0.0,38.0,0.0,0.0,6.0,0.0,70.0,0.0
577495,9.0,14.0,0.0,20.0,5.0,0.0,0.0,38.0,2.0,2.0,0.0,7.0,77.0,8.0
491389,0.0,22.0,0.0,0.0,0.0,4.0,38.0,43.0,0.0,0.0,0.0,11.0,97.0,0.0
648377,0.0,4.0,0.0,0.0,0.0,0.0,0.0,22.0,0.0,0.0,0.0,7.0,44.0,0.0
634345,0.0,6.0,0.0,0.0,0.0,0.0,0.0,21.0,0.0,0.0,0.0,7.0,51.0,0.0
550679,0.0,0.0,0.0,0.0,0.0,0.0,0.0,12.0,0.0,0.0,0.0,6.0,40.0,0.0
graph,65.0,102.0,105.0,155.0,35.0,6.0,253.0,193.0,6.0,26.0,38.0,28.0,400.0,41.0
