Vertex,0111010101110001000101010,0110010010100010100000100,0111010110110011100100110,0110010011100000100001000,0111010110110011100000100,0111010101110001000001000,0111110110110001100010000,0111110111110001100011000,0111110000100001000010000,0111010100110001000100010,0110010010100010100100110,0111110100110001000110010,0111110100110001000010000,0110010011100100110001000,0111110110110011100010100
576504,4.0,21.0,2.0,20.0,4.0,13.0,12.0,1.0,1.0,5.0,2.0,3.0,2.0,9.0,7.0
521154,2.0,17.0,2.0,26.0,5.0,10.0,11.0,2.0,4.0,2.0,2.0,0.0,4.0,11.0,6.0
638360,1.0,8.0,0.0,18.0,2.0,10.0,10.0,1.0,3.0,2.0,0.0,2.0,5.0,3.0,2.0
567740,2.0,13.0,1.0,18.0,5.0,11.0,2.0,0.0,0.0,1.0,1.0,0.0,0.0,7.0,0.0
566667,5.0,25.0,1.0,28.0,8.0,15.0,12.0,1.0,1.0,3.0,4.0,3.0,2.0,6.0,7.0
596910,3.0,20.0,1.0,24.0,5.0,13.0,10.0,1.0,2.0,4.0,3.0,1.0,5.0,7.0,6.0
653191,4.0,14.0,1.0,18.0,2.0,15.0,6.0,0.0,2.0,0.0,1.0,0.0,0.0,6.0,0.0
561428,6.0,13.0,2.0,17.0,12.0,31.0,21.0,2.0,2.0,10.0,1.0,3.0,7.0,2.0,9.0
655891,2.0,24.0,0.0,36.0,8.0,13.0,10.0,1.0,2.0,5.0,5.0,1.0,5.0,2.0,6.0
462655,1.0,21.0,0.0,26.0,4.0,13.0,10.0,1.0,3.0,6.0,2.0,2.0,5.0,2.0,2.0
586679,0.0,23.0,0.0,14.0,3.0,7.0,1.0,0.0,0.0,5.0,2.0,0.0,0.0,0.0,0.0
503088,0.0,21.0,0.0,10.0,2.0,4.0,0.0,0.0,0.0,7.0,2.0,0.0,0.0,0.0,0.0
graph,6.0,44.0,2.0,51.0,12.0,31.0,21.0,2.0,4.0,10.0,5.0,3.0,7.0,11.0,9.0
