Vertex,0111100010001000,0110100010010010,0101101101011110,0111101011001000,0110101111000100,0111101111001100,0100101101000100,0111100110011110,0110101111010110,0111101111011110,0100101001010010,0101101001001000,0110100110010110,0101101101001100,0110100110000100,0111100010011010,0111100110001100,0110101011010010,0111101011011010,0101101001011010
525923,24.0,64.0,2.0,175.0,79.0,54.0,0.0,1.0,37.0,155.0,18.0,28.0,0.0,14.0,108.0,26.0,53.0,51.0,42.0,0.0
492711,16.0,50.0,0.0,52.0,25.0,0.0,0.0,0.0,0.0,0.0,14.0,20.0,0.0,6.0,80.0,8.0,17.0,17.0,0.0,0.0
512982,24.0,65.0,0.0,0.0,0.0,0.0,2.0,0.0,0.0,0.0,25.0,18.0,0.0,0.0,90.0,0.0,0.0,0.0,0.0,0.0
541849,48.0,18.0,0.0,64.0,27.0,36.0,0.0,0.0,20.0,0.0,0.0,12.0,0.0,2.0,42.0,12.0,15.0,15.0,24.0,0.0
554368,72.0,62.0,2.0,174.0,78.0,72.0,2.0,2.0,47.0,155.0,11.0,30.0,35.0,12.0,114.0,28.0,49.0,50.0,57.0,10.0
457203,16.0,34.0,2.0,147.0,62.0,54.0,0.0,2.0,37.0,155.0,0.0,14.0,0.0,8.0,57.0,22.0,43.0,34.0,45.0,0.0
569986,56.0,68.0,0.0,158.0,70.0,36.0,2.0,1.0,20.0,155.0,19.0,24.0,35.0,12.0,101.0,22.0,49.0,44.0,27.0,10.0
615201,32.0,20.0,2.0,61.0,25.0,36.0,0.0,2.0,27.0,0.0,0.0,12.0,0.0,2.0,50.0,10.0,16.0,13.0,33.0,0.0
507066,48.0,93.0,0.0,63.0,30.0,0.0,4.0,0.0,0.0,0.0,28.0,30.0,35.0,8.0,149.0,6.0,24.0,22.0,0.0,10.0
508675,88.0,66.0,0.0,50.0,20.0,0.0,4.0,0.0,0.0,0.0,10.0,26.0,35.0,0.0,117.0,10.0,10.0,10.0,0.0,10.0
527189,24.0,24.0,0.0,0.0,0.0,0.0,2.0,0.0,0.0,0.0,3.0,10.0,0.0,0.0,52.0,0.0,0.0,0.0,0.0,0.0
graph,112.0,141.0,2.0,236.0,104.0,72.0,4.0,2.0,47.0,155.0,32.0,56.0,35.0,16.0,240.0,36.0,69.0,64.0,57.0,10.0
