0111101011001000: 457291 502784 593440 561537
0111101011001000: 457291 593440 502784 561537
0110100010010010: 457291 561537 502784 551214
0110100010010010: 457291 561537 502784 577510
0111100010011010: 457291 561537 502784 593440
0111100010011010: 457291 561537 593440 502784
0110100110000100: 457291 502784 561537 551214
0110100110000100: 457291 502784 561537 577510
0110100110000100: 457291 502784 561537 551214
0110100110000100: 457291 502784 561537 577510
0110100110000100: 457291 502784 561537 551214
0110100110000100: 457291 502784 561537 577510
0111100110001100: 457291 502784 561537 593440
0111101011001000: 457291 502784 593440 561537
0111101011001000: 457291 502784 593440 561537
0111101011001000: 457291 502784 593440 561537
0110101111000100: 457291 502784 593440 551214
0110101111000100: 457291 502784 593440 577510
0110101111000100: 457291 502784 593440 551214
0110101111000100: 457291 502784 593440 577510
0111101011001000: 457291 502784 593440 561537
0110100110000100: 457291 502784 561537 551214
0110100110000100: 457291 502784 561537 577510
0110100110000100: 457291 502784 561537 551214
0110100110000100: 457291 502784 561537 577510
0111100110001100: 457291 502784 561537 593440
0111100110001100: 457291 502784 561537 593440
0111100110001100: 457291 502784 561537 593440
0111101011001000: 457291 502784 593440 561537
0111100110001100: 457291 593440 561537 502784
0111101011001000: 457291 593440 502784 561537
0110101011010010: 457291 593440 502784 551214
0110101011010010: 457291 593440 502784 577510
0110101011010010: 457291 593440 502784 551214
0110101011010010: 457291 593440 502784 577510
0111101011001000: 457291 593440 502784 561537
0111101011001000: 457291 593440 502784 561537
0111101011001000: 457291 593440 502784 561537
0111101011001000: 457291 593440 502784 561537
0111101011001000: 457291 593440 502784 561537
0111101011001000: 457291 593440 502784 561537
0110101011010010: 593440 502784 457291 561537
0110101011010010: 593440 502784 457291 561537
0110101111000100: 593440 502784 457291 551214
0110101111000100: 593440 502784 457291 577510
0110101111000100: 593440 502784 457291 551214
0110101111000100: 593440 502784 457291 577510
0110101011010010: 593440 502784 457291 561537
0110101111000100: 593440 457291 502784 561537
0110101111000100: 593440 457291 502784 561537
0110101111000100: 593440 457291 502784 561537
0101101001001000: 502784 551214 546069 577510
0101101001001000: 502784 551214 546069 593440
0101101001001000: 502784 551214 546069 457291
0101101001001000: 502784 551214 507489 577510
0101101001001000: 502784 551214 507489 593440
0101101001001000: 502784 551214 507489 457291
0100101101000100: 502784 551214 507489 546069
0101101001001000: 502784 577510 621391 551214
0101101001001000: 502784 577510 621391 593440
0101101001001000: 502784 577510 621391 457291
0111100010001000: 502784 593440 577510 551214
0111101011001000: 502784 593440 457291 551214
0111101011001000: 502784 593440 457291 577510
0111100010001000: 502784 457291 577510 551214
0111101011001000: 502784 457291 593440 551214
0111101011001000: 502784 457291 593440 577510
0101101001001000: 502784 457291 561537 551214
0101101001001000: 502784 457291 561537 577510
0101101101001100: 502784 457291 561537 593440
0110100110000100: 502784 551214 577510 546069
0110100110000100: 502784 551214 577510 507489
0110100010010010: 502784 551214 577510 621391
0110100010010010: 502784 551214 577510 621391
0111100010001000: 502784 551214 593440 577510
0110100110000100: 502784 551214 593440 546069
0110100110000100: 502784 551214 593440 507489
0111100010011010: 502784 551214 593440 457291
0111100010001000: 502784 551214 457291 577510
0110100110000100: 502784 551214 457291 546069
0110100110000100: 502784 551214 457291 507489
0110100010010010: 502784 551214 457291 561537
0111100010011010: 502784 551214 457291 593440
0110100010010010: 502784 551214 457291 561537
0110100110000100: 502784 551214 577510 546069
0110100110000100: 502784 551214 577510 507489
0110100110000100: 502784 551214 577510 546069
0110100110000100: 502784 551214 577510 507489
0110100110000100: 502784 551214 577510 546069
0110100110000100: 502784 551214 577510 507489
0110100010010010: 502784 551214 577510 621391
0110100110000100: 502784 551214 593440 546069
0110100110000100: 502784 551214 593440 507489
0110100110000100: 502784 551214 593440 546069
0110100110000100: 502784 551214 593440 507489
0110100110000100: 502784 551214 593440 546069
0110100110000100: 502784 551214 593440 507489
0110100110000100: 502784 551214 457291 546069
0110100110000100: 502784 551214 457291 507489
0110100110000100: 502784 551214 457291 546069
0110100110000100: 502784 551214 457291 507489
0110100110000100: 502784 551214 457291 546069
0110100110000100: 502784 551214 457291 507489
0101101001001000: 502784 551214 546069 577510
0101101001001000: 502784 551214 546069 593440
0101101001001000: 502784 551214 546069 457291
0100101001010010: 502784 551214 546069 514332
0100101001010010: 502784 551214 546069 514332
0100101001010010: 502784 551214 546069 514332
0100101001010010: 502784 551214 546069 514332
0101101001001000: 502784 551214 507489 577510
0101101001001000: 502784 551214 507489 593440
0101101001001000: 502784 551214 507489 457291
0100101001010010: 502784 551214 507489 489813
0100101001010010: 502784 551214 507489 489813
0100101101000100: 502784 551214 507489 546069
0100101001010010: 502784 551214 507489 489813
0100101001010010: 502784 551214 507489 489813
0110100110000100: 502784 577510 551214 621391
0110100010010010: 502784 577510 551214 546069
0110100010010010: 502784 577510 551214 507489
0110100010010010: 502784 577510 551214 546069
0110100010010010: 502784 577510 551214 507489
0111100010001000: 502784 577510 593440 551214
0110100110000100: 502784 577510 593440 621391
0111100010011010: 502784 577510 593440 457291
0111100010001000: 502784 577510 457291 551214
0110100110000100: 502784 577510 457291 621391
0110100010010010: 502784 577510 457291 561537
0111100010011010: 502784 577510 457291 593440
0110100010010010: 502784 577510 457291 561537
0111100010001000: 502784 577510 551214 593440
0111100010001000: 502784 577510 551214 457291
0110100110000100: 502784 577510 551214 621391
0110100110000100: 502784 577510 551214 621391
0110100110000100: 502784 577510 551214 621391
0110100110000100: 502784 577510 593440 621391
0110100110000100: 502784 577510 593440 621391
0110100110000100: 502784 577510 593440 621391
0110100110000100: 502784 577510 457291 621391
0110100110000100: 502784 577510 457291 621391
0110100110000100: 502784 577510 457291 621391
0101101001001000: 502784 577510 621391 551214
0101101001001000: 502784 577510 621391 593440
0101101001001000: 502784 577510 621391 457291
0100101001010010: 502784 577510 621391 626402
0100101001010010: 502784 577510 621391 626402
0100101001010010: 502784 577510 621391 626402
0110100010010010: 502784 593440 551214 546069
0110100010010010: 502784 593440 551214 507489
0110100010010010: 502784 593440 551214 546069
0110100010010010: 502784 593440 551214 507489
0111100010001000: 502784 593440 577510 551214
0110100010010010: 502784 593440 577510 621391
0110100010010010: 502784 593440 577510 621391
0111100010001000: 502784 593440 551214 577510
0111100110001100: 502784 593440 551214 457291
0111100010001000: 502784 593440 577510 551214
0111100010001000: 502784 593440 577510 551214
0111100110001100: 502784 593440 577510 457291
0111101011001000: 502784 593440 457291 551214
0111101011001000: 502784 593440 457291 577510
0110101011010010: 502784 593440 457291 561537
0110101011010010: 502784 593440 457291 561537
0111101011001000: 502784 593440 457291 551214
0111101011001000: 502784 593440 457291 577510
0111101011001000: 502784 593440 457291 551214
0111101011001000: 502784 593440 457291 577510
0110100010010010: 502784 457291 551214 546069
0110100010010010: 502784 457291 551214 507489
0110100010010010: 502784 457291 551214 546069
0110100010010010: 502784 457291 551214 507489
0111100010001000: 502784 457291 577510 551214
0110100010010010: 502784 457291 577510 621391
0110100010010010: 502784 457291 577510 621391
0111100010001000: 502784 457291 551214 577510
0110100110000100: 502784 457291 551214 561537
0111100110001100: 502784 457291 551214 593440
0110100110000100: 502784 457291 551214 561537
0111100010001000: 502784 457291 577510 551214
0111100010001000: 502784 457291 577510 551214
0110100110000100: 502784 457291 577510 561537
0111100110001100: 502784 457291 577510 593440
0110100110000100: 502784 457291 577510 561537
0110100010010010: 502784 457291 577510 621391
0111101011001000: 502784 457291 593440 551214
0111101011001000: 502784 457291 593440 577510
0101101001001000: 502784 457291 561537 551214
0101101001001000: 502784 457291 561537 577510
0101101101001100: 502784 457291 561537 593440
0111101011001000: 502784 457291 593440 551214
0111101011001000: 502784 457291 593440 577510
0111101011001000: 502784 457291 593440 551214
0111101011001000: 502784 457291 593440 577510
0110101111000100: 502784 457291 593440 561537
0110101111000100: 502784 457291 593440 561537
0110101111000100: 502784 457291 593440 561537
0111101011001000: 502784 457291 593440 551214
0111101011001000: 502784 457291 593440 577510
0111101011001000: 502784 457291 593440 551214
0111101011001000: 502784 457291 593440 577510
0110101111000100: 502784 457291 593440 561537
0110100110000100: 577510 621391 502784 626402
0110100010010010: 577510 621391 502784 551214
0110100010010010: 577510 621391 502784 593440
0110100010010010: 577510 621391 502784 457291
0110100110000100: 577510 621391 502784 626402
0110100110000100: 577510 621391 502784 626402
0110100110000100: 577510 621391 502784 626402
0110100110000100: 577510 621391 502784 626402
0110100110000100: 577510 621391 502784 626402
0110100010010010: 577510 502784 621391 626402
0110100110000100: 577510 502784 621391 551214
0110100110000100: 577510 502784 621391 593440
0110100110000100: 577510 502784 621391 457291
0110100010010010: 577510 502784 621391 626402
0110100110000100: 577510 502784 621391 551214
0110100110000100: 577510 502784 621391 593440
0110100110000100: 577510 502784 621391 457291
0110100110000100: 577510 502784 621391 551214
0110100110000100: 577510 502784 621391 593440
0110100110000100: 577510 502784 621391 457291
0110100010010010: 577510 502784 621391 626402
0110100110000100: 514332 546069 469305 551214
0110100010010010: 514332 546069 469305 609563
0110100110000100: 514332 546069 469305 551214
0110100110000100: 514332 546069 469305 551214
0110100110000100: 514332 546069 469305 551214
0110100110000100: 514332 546069 469305 551214
0110100110000100: 514332 546069 469305 551214
0110100110000100: 514332 469305 546069 609563
0110100010010010: 514332 469305 546069 551214
0110100110000100: 514332 469305 546069 609563
0110100110000100: 514332 469305 546069 609563
0110100110000100: 514332 469305 546069 609563
0110100110000100: 514332 469305 546069 609563
0110100110000100: 514332 469305 546069 609563
0110100010010010: 469305 609563 514332 546069
0110100110000100: 469305 514332 609563 546069
0110100110000100: 469305 514332 609563 546069
0110100110000100: 469305 514332 609563 546069
0110100110000100: 621391 626402 577510 612503
0110100010010010: 621391 626402 577510 502784
0110100110000100: 621391 626402 577510 612503
0110100110000100: 621391 626402 577510 612503
0110100110000100: 621391 626402 577510 612503
0110100110000100: 621391 626402 577510 612503
0110100110000100: 621391 626402 577510 612503
0110100010010010: 621391 577510 626402 612503
0110100110000100: 621391 577510 626402 502784
0110100110000100: 621391 577510 626402 502784
0110100110000100: 621391 577510 626402 502784
0110100110000100: 621391 577510 626402 502784
0110100110000100: 626402 612503 621391 496348
0110100010010010: 626402 612503 621391 577510
0110100110000100: 626402 612503 621391 496348
0110100110000100: 626402 612503 621391 496348
0110100110000100: 626402 612503 621391 496348
0110100110000100: 626402 612503 621391 496348
0110100110000100: 626402 612503 621391 496348
0110100010010010: 626402 621391 612503 496348
0110100110000100: 626402 621391 612503 577510
0110100110000100: 626402 621391 612503 577510
0110100110000100: 626402 621391 612503 577510
0110100110000100: 626402 621391 612503 577510
0110100110000100: 496348 612503 489813 626402
0110100010010010: 496348 612503 489813 507489
0110100110000100: 496348 612503 489813 626402
0110100110000100: 496348 612503 489813 626402
0110100110000100: 496348 612503 489813 626402
0110100110000100: 496348 612503 489813 626402
0110100110000100: 496348 612503 489813 626402
0110100110000100: 496348 489813 612503 507489
0110100010010010: 496348 489813 612503 626402
0110100110000100: 496348 489813 612503 507489
0110100110000100: 496348 489813 612503 507489
0110100110000100: 496348 489813 612503 507489
0110100110000100: 496348 489813 612503 507489
0110100110000100: 496348 489813 612503 507489
0110100110000100: 489813 507489 496348 551214
0110100010010010: 489813 507489 496348 612503
0110100110000100: 489813 507489 496348 551214
0110100110000100: 489813 507489 496348 551214
0110100110000100: 489813 507489 496348 551214
0110100110000100: 489813 507489 496348 551214
0110100110000100: 489813 507489 496348 551214
0110100010010010: 489813 496348 507489 551214
0110100110000100: 489813 496348 507489 612503
0110100110000100: 489813 496348 507489 612503
0110100110000100: 489813 496348 507489 612503
0110100110000100: 489813 496348 507489 612503
0110100110000100: 507489 551214 489813 546069
0110100110000100: 507489 551214 489813 502784
0110100010010010: 507489 551214 489813 496348
0110100110000100: 507489 551214 489813 546069
0110100110000100: 507489 551214 489813 502784
0110100110000100: 507489 551214 489813 546069
0110100110000100: 507489 551214 489813 502784
0110100010010010: 507489 551214 489813 496348
0110100110000100: 507489 551214 489813 546069
0110100110000100: 507489 551214 489813 502784
0110100110000100: 507489 551214 489813 546069
0110100110000100: 507489 551214 489813 502784
0110100010010010: 507489 551214 489813 496348
0110100010010010: 507489 489813 551214 546069
0110100010010010: 507489 489813 551214 502784
0110100110000100: 507489 489813 551214 496348
0110100110000100: 507489 489813 551214 496348
0110100110000100: 507489 489813 551214 496348
0110100110000100: 507489 489813 551214 496348
0101101001001000: 551214 546069 514332 507489
0101101001001000: 551214 546069 514332 502784
0101101001001000: 551214 507489 489813 546069
0101101001001000: 551214 507489 489813 502784
0111100010001000: 551214 502784 507489 546069
0110100110000100: 551214 546069 507489 514332
0110100010010010: 551214 546069 507489 489813
0110100010010010: 551214 546069 507489 489813
0111100010001000: 551214 546069 502784 507489
0110100110000100: 551214 546069 502784 514332
0110100010010010: 551214 546069 502784 577510
0110100010010010: 551214 546069 502784 593440
0110100010010010: 551214 546069 502784 457291
0110100110000100: 551214 546069 507489 514332
0110100110000100: 551214 546069 507489 514332
0110100110000100: 551214 546069 507489 514332
0110100110000100: 551214 546069 502784 514332
0110100110000100: 551214 546069 502784 514332
0110100110000100: 551214 546069 502784 514332
0101101001001000: 551214 546069 514332 507489
0101101001001000: 551214 546069 514332 502784
0100101001010010: 551214 546069 514332 469305
0100101001010010: 551214 546069 514332 469305
0100101001010010: 551214 546069 514332 469305
0110100010010010: 551214 507489 546069 514332
0110100010010010: 551214 507489 546069 514332
0111100010001000: 551214 507489 502784 546069
0110100010010010: 551214 507489 502784 577510
0110100010010010: 551214 507489 502784 593440
0110100010010010: 551214 507489 502784 457291
0111100010001000: 551214 507489 546069 502784
0110100110000100: 551214 507489 546069 489813
0110100110000100: 551214 507489 546069 489813
0110100110000100: 551214 507489 502784 489813
0110100110000100: 551214 507489 502784 489813
0101101001001000: 551214 507489 489813 546069
0101101001001000: 551214 507489 489813 502784
0100101001010010: 551214 507489 489813 496348
0100101001010010: 551214 507489 489813 496348
0100101001010010: 551214 507489 489813 496348
0110100010010010: 551214 502784 546069 514332
0110100010010010: 551214 502784 546069 514332
0111100010001000: 551214 502784 507489 546069
0110100010010010: 551214 502784 507489 489813
0110100010010010: 551214 502784 507489 489813
0111100010001000: 551214 502784 546069 507489
0110100110000100: 551214 502784 546069 577510
0110100110000100: 551214 502784 546069 593440
0110100110000100: 551214 502784 546069 457291
0110100010010010: 551214 502784 546069 514332
0111100010001000: 551214 502784 507489 546069
0111100010001000: 551214 502784 507489 546069
0110100110000100: 551214 502784 507489 577510
0110100110000100: 551214 502784 507489 593440
0110100110000100: 551214 502784 507489 457291
0110100010010010: 551214 502784 507489 489813
0111100010001000: 551214 502784 546069 507489
0111100010001000: 551214 502784 546069 507489
0110100010010010: 551214 502784 546069 514332
0111100010001000: 551214 502784 507489 546069
0111100010001000: 551214 502784 507489 546069
0110100010010010: 551214 502784 507489 489813
0110100110000100: 551214 502784 546069 577510
0110100110000100: 551214 502784 546069 593440
0110100110000100: 551214 502784 546069 457291
0110100110000100: 551214 502784 546069 577510
0110100110000100: 551214 502784 546069 593440
0110100110000100: 551214 502784 546069 457291
0111100010001000: 551214 502784 546069 507489
0110100010010010: 551214 502784 546069 514332
0110100010010010: 551214 502784 546069 514332
0110100110000100: 551214 502784 507489 577510
0110100110000100: 551214 502784 507489 593440
0110100110000100: 551214 502784 507489 457291
0110100110000100: 551214 502784 507489 577510
0110100110000100: 551214 502784 507489 593440
0110100110000100: 551214 502784 507489 457291
0111100010001000: 551214 502784 507489 546069
0111100010001000: 551214 502784 507489 546069
0110100010010010: 551214 502784 507489 489813
0110100010010010: 551214 502784 507489 489813
0110100010010010: 612503 496348 626402 621391
0110100110000100: 612503 496348 626402 489813
0110100110000100: 612503 496348 626402 489813
0110100110000100: 612503 496348 626402 489813
0110100110000100: 612503 496348 626402 489813
0110100010010010: 612503 626402 496348 489813
0110100110000100: 612503 626402 496348 621391
0110100110000100: 612503 626402 496348 621391
0110100110000100: 612503 626402 496348 621391
0110100110000100: 612503 626402 496348 621391
0110100010010010: 546069 551214 514332 469305
0110100110000100: 546069 551214 514332 507489
0110100110000100: 546069 551214 514332 502784
0110100010010010: 546069 551214 514332 469305
0110100110000100: 546069 551214 514332 507489
0110100110000100: 546069 551214 514332 502784
0110100110000100: 546069 551214 514332 507489
0110100110000100: 546069 551214 514332 502784
0110100010010010: 546069 551214 514332 469305
0110100010010010: 546069 514332 551214 507489
0110100010010010: 546069 514332 551214 502784
0110100110000100: 546069 514332 551214 469305
0110100110000100: 546069 514332 551214 469305
0110100110000100: 546069 514332 551214 469305
0110100110000100: 546069 514332 551214 469305
