Vertex,0110100110000100,0110100010010010,0111101011001000,0101101001001000,0101101001011010,0110101111000100,0100101001010010,0111100010001000,0111100010011010,0100101101000100,0110101011010010,0111100110001100,0110100110010110
622452,121.0,56.0,0.0,22.0,18.0,0.0,6.0,121.0,0.0,6.0,0.0,0.0,109.0
484310,210.0,114.0,0.0,37.0,12.0,0.0,21.0,148.0,0.0,4.0,0.0,0.0,74.0
545211,123.0,61.0,0.0,20.0,12.0,0.0,15.0,97.0,0.0,4.0,0.0,0.0,72.0
513240,184.0,110.0,0.0,40.0,18.0,0.0,20.0,146.0,0.0,4.0,0.0,0.0,109.0
539615,123.0,61.0,0.0,20.0,12.0,0.0,15.0,97.0,0.0,4.0,0.0,0.0,72.0
515841,77.0,49.0,0.0,14.0,0.0,0.0,17.0,24.0,0.0,2.0,0.0,0.0,0.0
555243,82.0,37.0,0.0,14.0,0.0,0.0,3.0,38.0,0.0,0.0,0.0,0.0,0.0
634471,143.0,78.0,0.0,34.0,0.0,0.0,22.0,53.0,0.0,2.0,0.0,0.0,0.0
496301,77.0,49.0,0.0,14.0,0.0,0.0,13.0,24.0,0.0,2.0,0.0,0.0,0.0
532434,63.0,39.0,0.0,12.0,0.0,0.0,13.0,15.0,0.0,0.0,0.0,0.0,0.0
650340,113.0,54.0,0.0,24.0,0.0,0.0,12.0,53.0,0.0,0.0,0.0,0.0,0.0
493021,121.0,64.0,0.0,20.0,0.0,0.0,18.0,39.0,0.0,0.0,0.0,0.0,0.0
462358,84.0,43.0,0.0,22.0,0.0,0.0,12.0,30.0,0.0,2.0,0.0,0.0,0.0
499760,116.0,55.0,0.0,18.0,0.0,0.0,18.0,39.0,0.0,0.0,0.0,0.0,0.0
484473,67.0,46.0,0.0,17.0,0.0,0.0,16.0,15.0,0.0,2.0,0.0,0.0,0.0
582432,134.0,59.0,0.0,11.0,0.0,0.0,5.0,63.0,0.0,0.0,0.0,0.0,0.0
558597,63.0,37.0,0.0,11.0,0.0,0.0,8.0,15.0,0.0,0.0,0.0,0.0,0.0
566897,134.0,63.0,0.0,12.0,0.0,0.0,9.0,63.0,0.0,0.0,0.0,0.0,0.0
647900,30.0,19.0,0.0,6.0,0.0,0.0,3.0,0.0,0.0,0.0,0.0,0.0,0.0
613387,9.0,4.0,0.0,0.0,0.0,0.0,3.0,0.0,0.0,0.0,0.0,0.0,0.0
611690,71.0,38.0,0.0,8.0,0.0,0.0,6.0,24.0,0.0,0.0,0.0,0.0,0.0
589229,67.0,30.0,0.0,4.0,0.0,0.0,6.0,24.0,0.0,0.0,0.0,0.0,0.0
509682,48.0,32.0,0.0,8.0,0.0,0.0,6.0,0.0,0.0,0.0,0.0,0.0,0.0
621518,42.0,20.0,14.0,4.0,0.0,5.0,6.0,0.0,2.0,0.0,2.0,5.0,0.0
551829,32.0,16.0,28.0,4.0,0.0,10.0,3.0,0.0,4.0,0.0,4.0,10.0,0.0
645974,7.0,3.0,28.0,2.0,0.0,10.0,0.0,0.0,4.0,0.0,4.0,10.0,0.0
517895,15.0,9.0,28.0,2.0,0.0,10.0,0.0,0.0,4.0,0.0,4.0,10.0,0.0
615557,8.0,2.0,14.0,0.0,0.0,5.0,0.0,0.0,2.0,0.0,2.0,5.0,0.0
graph,591.0,312.0,28.0,100.0,18.0,10.0,69.0,282.0,4.0,8.0,4.0,10.0,109.0
