0110010011100100110001000: 535781 482153 570191 560599 655924
0110010010100010100000100: 535781 570191 482153 611095 655924
0110010010100010100000100: 535781 570191 482153 583737 655924
0110010011100000100001000: 535781 570191 482153 587920 611095
0110010011100000100001000: 535781 570191 482153 587920 583737
0110010010100010100000100: 535781 570191 482153 587920 655924
0110010011100000100001000: 535781 570191 482153 482387 611095
0110010011100000100001000: 535781 570191 482153 482387 583737
0110010011100000100001000: 535781 570191 482153 482387 587920
0110010010100010100000100: 535781 570191 482153 482387 655924
0110010011100000100001000: 535781 570191 482153 479942 611095
0110010011100000100001000: 535781 570191 482153 479942 583737
0110010011100000100001000: 535781 570191 482153 479942 587920
0110010010100010100000100: 535781 570191 482153 479942 655924
0110010011100100110001000: 535781 570191 482153 560599 611095
0110010011100100110001000: 535781 570191 482153 560599 482387
0110010011100100110001000: 535781 570191 482153 560599 479942
0110010011100000100001000: 570191 560599 611095 616707 482153
0110010011100100110001000: 570191 560599 482387 616707 482153
0110010011100000100001000: 570191 560599 479942 616707 482153
0110010011100100110001000: 570191 560599 535781 482153 616707
0111010101110001000001000: 570191 560599 583737 482387 482153
0111010101110001000101010: 570191 560599 583737 482387 616707
0111010101110001000001000: 570191 560599 583737 479942 482153
0111010101110001000001000: 570191 560599 583737 479942 616707
0111010101110001000001000: 570191 560599 583737 535781 616707
0111010101110001000101010: 570191 560599 583737 535781 482153
0111010110110011100000100: 570191 560599 583737 587920 524396
0111010101110001000001000: 570191 560599 587920 611095 482153
0111010101110001000001000: 570191 560599 587920 611095 616707
0111010101110001000001000: 570191 560599 587920 482387 482153
0111010101110001000101010: 570191 560599 587920 482387 616707
0111010101110001000001000: 570191 560599 587920 479942 482153
0111010101110001000001000: 570191 560599 587920 479942 616707
0111010101110001000001000: 570191 560599 587920 535781 616707
0111010101110001000101010: 570191 560599 587920 535781 482153
0111110110110001100010000: 570191 560599 587920 583737 482387
0111110110110001100010000: 570191 560599 587920 583737 479942
0111110110110001100010000: 570191 560599 587920 583737 535781
0111010110110011100000100: 570191 560599 587920 583737 561808
0111010110110011100000100: 570191 560599 587920 583737 637891
0111010101110001000001000: 570191 583737 560599 482387 524396
0111010100110001000100010: 570191 583737 560599 482387 637891
0111010100110001000100010: 570191 583737 560599 479942 637891
0111010100110001000100010: 570191 583737 560599 479942 552386
0111010101110001000101010: 570191 583737 560599 479942 524396
0111110100110001000010000: 570191 583737 560599 535781 482387
0111110100110001000010000: 570191 583737 560599 535781 479942
0111010101110001000001000: 570191 583737 560599 535781 524396
0111110110110011100010100: 570191 583737 560599 611095 587920
0111010110110011100000100: 570191 583737 560599 611095 482153
0111010110110011100000100: 570191 583737 560599 611095 616707
0111010101110001000001000: 570191 583737 611095 587920 524396
0111010100110001000100010: 570191 583737 611095 587920 561808
0111010100110001000100010: 570191 583737 611095 587920 637891
0111110100110001000010000: 570191 583737 611095 482387 587920
0111010101110001000001000: 570191 583737 611095 482387 524396
0111010100110001000100010: 570191 583737 611095 482387 616707
0111010100110001000100010: 570191 583737 611095 482387 637891
0111110100110001000010000: 570191 583737 611095 479942 587920
0111010100110001000100010: 570191 583737 611095 479942 637891
0111010100110001000100010: 570191 583737 611095 479942 552386
0111010101110001000101010: 570191 583737 611095 479942 524396
0111110100110001000010000: 570191 583737 611095 535781 587920
0111110100110001000010000: 570191 583737 611095 535781 482387
0111110100110001000010000: 570191 583737 611095 535781 479942
0111010101110001000001000: 570191 583737 611095 535781 524396
0111010100110001000100010: 570191 583737 611095 535781 482153
0111110110110001100010000: 570191 583737 611095 560599 482387
0111110110110001100010000: 570191 583737 611095 560599 479942
0111110110110001100010000: 570191 583737 611095 560599 535781
0110010011100000100001000: 570191 587920 611095 637891 561808
0110010010100010100000100: 570191 587920 583737 561808 524396
0110010011100000100001000: 570191 587920 583737 637891 561808
0110010010100010100000100: 570191 587920 583737 637891 524396
0110010011100100110001000: 570191 587920 482387 637891 561808
0110010011100100110001000: 570191 587920 479942 637891 561808
0110010011100000100001000: 570191 587920 535781 637891 561808
0111010101110001000001000: 570191 587920 560599 611095 561808
0111010101110001000001000: 570191 587920 560599 611095 637891
0111110100110001000010000: 570191 587920 560599 482387 611095
0111010101110001000001000: 570191 587920 560599 482387 561808
0111010101110001000101010: 570191 587920 560599 482387 637891
0111110100110001000010000: 570191 587920 560599 479942 611095
0111010101110001000001000: 570191 587920 560599 479942 561808
0111010100110001000100010: 570191 587920 560599 479942 524396
0111010100110001000100010: 570191 587920 560599 479942 552386
0111010101110001000101010: 570191 587920 560599 479942 637891
0111110100110001000010000: 570191 587920 560599 535781 611095
0111110100110001000010000: 570191 587920 560599 535781 482387
0111110100110001000010000: 570191 587920 560599 535781 479942
0111010101110001000001000: 570191 587920 560599 535781 561808
0111010101110001000001000: 570191 587920 560599 535781 637891
0110010010100010100000100: 570191 482387 560599 637891 482153
0110010011100100110001000: 570191 482387 560599 616707 637891
0110010011100000100001000: 570191 482387 611095 637891 616707
0110010010100010100100110: 570191 482387 583737 616707 524396
0110010011100000100001000: 570191 482387 583737 637891 616707
0110010010100010100000100: 570191 482387 583737 637891 524396
0110010010100010100000100: 570191 482387 587920 616707 561808
0110010011100100110001000: 570191 482387 587920 637891 616707
0110010011100000100001000: 570191 482387 535781 637891 616707
0111010101110001000101010: 570191 482387 479942 560599 616707
0111010101110001000001000: 570191 482387 479942 611095 616707
0111010101110001000001000: 570191 482387 479942 583737 616707
0111010101110001000001000: 570191 482387 479942 587920 616707
0111010101110001000001000: 570191 482387 479942 535781 616707
0110010010100010100000100: 570191 479942 560599 524396 482153
0110010010100010100100110: 570191 479942 560599 524396 616707
0110010011100000100001000: 570191 479942 560599 637891 524396
0110010010100010100000100: 570191 479942 560599 637891 482153
0110010010100010100000100: 570191 479942 560599 637891 616707
0110010011100000100001000: 570191 479942 560599 552386 524396
0110010011100000100001000: 570191 479942 560599 552386 637891
0110010010100010100000100: 570191 479942 560599 552386 482153
0110010010100010100000100: 570191 479942 560599 552386 616707
0110010011100000100001000: 570191 479942 611095 637891 524396
0110010011100000100001000: 570191 479942 611095 552386 524396
0110010011100000100001000: 570191 479942 611095 552386 637891
0110010011100000100001000: 570191 479942 583737 552386 637891
0110010011100100110001000: 570191 479942 583737 524396 637891
0110010011100100110001000: 570191 479942 583737 524396 552386
0110010010100010100000100: 570191 479942 587920 524396 561808
0110010011100000100001000: 570191 479942 587920 552386 524396
0110010010100010100000100: 570191 479942 587920 552386 561808
0110010011100100110001000: 570191 479942 587920 637891 524396
0110010011100100110001000: 570191 479942 587920 637891 552386
0110010011100000100001000: 570191 479942 535781 637891 524396
0110010011100000100001000: 570191 479942 535781 552386 524396
0110010011100000100001000: 570191 479942 535781 552386 637891
0111010101110001000001000: 570191 479942 482387 560599 524396
0111010101110001000001000: 570191 479942 482387 560599 552386
0111010100110001000100010: 570191 479942 482387 560599 482153
0111110100110001000010000: 570191 479942 482387 611095 560599
0111010101110001000001000: 570191 479942 482387 611095 524396
0111010101110001000001000: 570191 479942 482387 611095 552386
0111010101110001000001000: 570191 479942 482387 583737 552386
0111110100110001000110010: 570191 479942 482387 583737 560599
0111110100110001000110010: 570191 479942 482387 583737 611095
0111010101110001000101010: 570191 479942 482387 583737 524396
0111110100110001000010000: 570191 479942 482387 587920 611095
0111110100110001000010000: 570191 479942 482387 587920 583737
0111010101110001000001000: 570191 479942 482387 587920 524396
0111010101110001000001000: 570191 479942 482387 587920 552386
0111010100110001000100010: 570191 479942 482387 587920 561808
0111110100110001000110010: 570191 479942 482387 587920 560599
0111110100110001000010000: 570191 479942 482387 535781 560599
0111110100110001000010000: 570191 479942 482387 535781 611095
0111110100110001000010000: 570191 479942 482387 535781 583737
0111110100110001000010000: 570191 479942 482387 535781 587920
0111010101110001000001000: 570191 479942 482387 535781 524396
0111010101110001000001000: 570191 479942 482387 535781 552386
0111010100110001000100010: 570191 479942 482387 535781 482153
0110010010100010100000100: 570191 535781 583737 482153 524396
0110010010100010100000100: 570191 535781 587920 482153 561808
0110010010100010100000100: 570191 535781 587920 482153 637891
0111110000100001000010000: 570191 535781 482387 611095 560599
0111110000100001000010000: 570191 535781 482387 587920 611095
0111110000100001000010000: 570191 535781 482387 587920 583737
0110010010100010100000100: 570191 535781 482387 482153 616707
0110010010100010100000100: 570191 535781 482387 482153 637891
0111110000100001000010000: 570191 535781 479942 611095 560599
0111110000100001000010000: 570191 535781 479942 587920 611095
0111110000100001000010000: 570191 535781 479942 587920 583737
0110010010100010100000100: 570191 535781 479942 482153 524396
0110010010100010100000100: 570191 535781 479942 482153 637891
0110010010100010100000100: 570191 535781 479942 482153 552386
0110010011100100110001000: 479942 524396 482387 616707 583737
0110010011100000100001000: 479942 524396 637891 583737 616707
0110010011100000100001000: 479942 524396 552386 583737 616707
0110010011100100110001000: 479942 524396 570191 583737 616707
0111010101110001000101010: 479942 482387 637891 524396 616707
0111010101110001000001000: 479942 482387 637891 552386 616707
0111010101110001000101010: 479942 482387 570191 524396 616707
0111010101110001000001000: 479942 482387 570191 552386 616707
0111110110110001100010000: 479942 482387 570191 637891 524396
0111110110110001100010000: 479942 482387 570191 637891 552386
0111010110110011100000100: 479942 482387 570191 637891 560599
0111010110110011100000100: 479942 482387 570191 637891 611095
0111010110110011100000100: 479942 482387 570191 637891 583737
0111010110110011100000100: 479942 482387 570191 637891 535781
0111010110110011100100110: 479942 482387 570191 637891 587920
0110010010100010100000100: 479942 637891 524396 587920 616707
0110010010100010100000100: 479942 637891 524396 587920 583737
0111010101110001000001000: 479942 637891 482387 524396 587920
0111010100110001000100010: 479942 637891 482387 524396 583737
0111110100110001000010000: 479942 637891 482387 552386 524396
0111010101110001000001000: 479942 637891 482387 552386 587920
0110010011100000100001000: 479942 570191 524396 611095 560599
0110010010100010100000100: 479942 570191 524396 611095 616707
0110010011100000100001000: 479942 570191 524396 587920 611095
0110010010100010100000100: 479942 570191 524396 587920 616707
0110010011100000100001000: 479942 570191 524396 535781 560599
0110010011100000100001000: 479942 570191 524396 535781 611095
0110010011100000100001000: 479942 570191 524396 535781 587920
0110010010100010100000100: 479942 570191 524396 535781 616707
0110010011100100110001000: 479942 570191 524396 583737 587920
0110010011100100110001000: 479942 570191 524396 583737 535781
0110010011100000100001000: 479942 570191 637891 611095 560599
0110010011100000100001000: 479942 570191 637891 535781 560599
0110010011100000100001000: 479942 570191 637891 535781 611095
0110010011100000100001000: 479942 570191 637891 535781 583737
0110010011100100110001000: 479942 570191 637891 587920 611095
0110010011100100110001000: 479942 570191 637891 587920 583737
0110010011100100110001000: 479942 570191 637891 587920 535781
0111110000100001000010000: 479942 570191 552386 637891 524396
0110010011100000100001000: 479942 570191 552386 611095 560599
0110010011100000100001000: 479942 570191 552386 587920 611095
0110010011100000100001000: 479942 570191 552386 587920 583737
0110010011100000100001000: 479942 570191 552386 535781 560599
0110010011100000100001000: 479942 570191 552386 535781 611095
0110010011100000100001000: 479942 570191 552386 535781 583737
0110010011100000100001000: 479942 570191 552386 535781 587920
0111110100110001000010000: 479942 570191 482387 552386 524396
0110010011100000100001000: 637891 587920 482387 561808 560599
0110010011100000100001000: 637891 587920 479942 561808 560599
0110010010100010100000100: 637891 482387 587920 616707 561808
0110010010100010100100110: 637891 482387 587920 616707 560599
0111010101110001000001000: 637891 482387 479942 587920 616707
0110010010100010100000100: 637891 479942 587920 524396 560599
0110010010100010100000100: 637891 479942 587920 524396 561808
0110010011100000100001000: 637891 479942 587920 552386 524396
0110010010100010100000100: 637891 479942 587920 552386 560599
0110010010100010100000100: 637891 479942 587920 552386 561808
0111010100110001000100010: 637891 479942 482387 587920 560599
0111010100110001000100010: 637891 479942 482387 587920 561808
0110010011100000100001000: 482387 616707 637891 560599 524396
0110010011100100110001000: 482387 616707 479942 524396 560599
0110010011100100110001000: 482387 616707 570191 560599 524396
0110010010100010100000100: 482387 637891 616707 587920 524396
0110010010100010100000100: 482387 479942 616707 552386 560599
0110010011100100110001000: 482387 479942 616707 524396 552386
0111010100110001000100010: 482387 479942 637891 616707 560599
0111110110110001100010000: 482387 479942 570191 637891 616707
0110010010100010100000100: 482387 570191 616707 611095 524396
0110010011100000100001000: 482387 570191 616707 587920 611095
0110010011100000100001000: 482387 570191 616707 587920 583737
0110010010100010100000100: 482387 570191 616707 587920 524396
0110010011100000100001000: 482387 570191 616707 535781 611095
0110010011100000100001000: 482387 570191 616707 535781 583737
0110010011100000100001000: 482387 570191 616707 535781 587920
0110010010100010100000100: 482387 570191 616707 535781 524396
0110010011100100110001000: 482387 570191 616707 560599 611095
0110010011100100110001000: 482387 570191 616707 560599 535781
0110010011100000100001000: 482387 570191 637891 611095 560599
0110010011100000100001000: 482387 570191 637891 535781 560599
0110010011100000100001000: 482387 570191 637891 535781 611095
0110010011100000100001000: 482387 570191 637891 535781 583737
0110010011100100110001000: 482387 570191 637891 587920 611095
0110010011100100110001000: 482387 570191 637891 587920 583737
0110010011100100110001000: 482387 570191 637891 587920 535781
0110010011100000100001000: 587920 560599 561808 616707 482153
0110010011100000100001000: 587920 560599 561808 583737 482153
0110010011100000100001000: 587920 560599 561808 583737 616707
0110010011100000100001000: 587920 560599 637891 616707 482153
0110010011100000100001000: 587920 560599 637891 583737 482153
0110010011100000100001000: 587920 560599 637891 583737 616707
0111010101110001000001000: 587920 560599 570191 561808 482153
0111010101110001000001000: 587920 560599 570191 561808 616707
0111010101110001000001000: 587920 560599 570191 637891 482153
0111010101110001000001000: 587920 560599 570191 637891 616707
0110010010100010100000100: 587920 561808 560599 655924 616707
0110010010100010100000100: 587920 561808 560599 655924 583737
0110010010100010100100110: 587920 561808 560599 655924 482153
0110010010100010100000100: 587920 637891 560599 482387 482153
0110010010100010100000100: 587920 637891 560599 482387 583737
0110010010100010100000100: 587920 637891 560599 479942 482153
0110010010100010100000100: 587920 637891 560599 479942 616707
0110010010100010100000100: 587920 637891 560599 479942 583737
0110010010100010100000100: 587920 637891 561808 482387 655924
0110010010100010100000100: 587920 637891 561808 479942 655924
0110010010100010100000100: 587920 570191 561808 611095 655924
0110010010100010100000100: 587920 570191 561808 583737 655924
0110010011100000100001000: 587920 570191 561808 482387 611095
0110010011100000100001000: 587920 570191 561808 482387 583737
0110010010100010100000100: 587920 570191 561808 482387 655924
0110010011100000100001000: 587920 570191 561808 479942 611095
0110010011100000100001000: 587920 570191 561808 479942 583737
0110010010100010100000100: 587920 570191 561808 479942 655924
0110010011100000100001000: 587920 570191 561808 535781 611095
0110010011100000100001000: 587920 570191 561808 535781 583737
0110010011100000100001000: 587920 570191 561808 535781 482387
0110010011100000100001000: 587920 570191 561808 535781 479942
0110010010100010100000100: 587920 570191 561808 535781 655924
0110010011100000100001000: 587920 570191 637891 535781 611095
0110010011100000100001000: 587920 570191 637891 535781 583737
0111010100110001000100010: 587920 570191 560599 561808 655924
0111110100110001000010000: 587920 570191 560599 637891 561808
0110010011100000100001000: 561808 587920 655924 637891 560599
0110010010100010100000100: 561808 587920 655924 637891 482153
0110010011100000100001000: 561808 587920 655924 570191 637891
0110010010100010100000100: 561808 587920 655924 570191 482153
0110010011100100110001000: 583737 524396 560599 616707 479942
0110010011100000100001000: 583737 524396 611095 479942 616707
0110010010100010100000100: 583737 560599 524396 482153 479942
0110010011100000100001000: 583737 560599 524396 587920 482153
0110010010100010100000100: 583737 560599 524396 587920 479942
0110010011100100110001000: 583737 560599 524396 616707 482153
0110010011100100110001000: 583737 560599 524396 616707 587920
0110010011100000100001000: 583737 560599 611095 616707 482153
0110010011100000100001000: 583737 560599 611095 587920 482153
0110010011100000100001000: 583737 560599 611095 587920 616707
0111010101110001000001000: 583737 560599 570191 524396 482153
0111010101110001000101010: 583737 560599 570191 524396 616707
0110010010100010100000100: 583737 570191 524396 587920 616707
0110010011100000100001000: 583737 570191 524396 482387 587920
0110010011100000100001000: 583737 570191 524396 535781 587920
0110010011100000100001000: 583737 570191 524396 535781 482387
0110010010100010100000100: 583737 570191 524396 535781 616707
0111010100110001000100010: 583737 570191 611095 524396 616707
0111110110110001100010000: 583737 570191 611095 560599 524396
0110010010100010100000100: 616707 560599 524396 482153 479942
0110010011100000100001000: 616707 560599 524396 587920 482153
0110010010100010100000100: 616707 560599 524396 587920 479942
0110010011100000100001000: 616707 560599 524396 570191 482153
0110010011100000100001000: 616707 560599 482387 583737 482153
0110010011100000100001000: 616707 560599 482387 587920 482153
0110010011100000100001000: 616707 560599 482387 587920 583737
0110010010100010100000100: 616707 482387 524396 637891 583737
0110010011100000100001000: 616707 482387 524396 570191 637891
0110010010100010100000100: 616707 482387 560599 637891 482153
0110010010100010100000100: 616707 482387 560599 637891 583737
0110010010100010100000100: 616707 482387 560599 479942 482153
0110010010100010100000100: 616707 482387 560599 479942 583737
0110010010100010100000100: 616707 482387 560599 479942 587920
0110010011100000100001000: 560599 482153 616707 535781 655924
0110010011100000100001000: 560599 482153 583737 535781 655924
0110010011100000100001000: 560599 482153 587920 535781 655924
0110010010100010100000100: 560599 616707 482153 524396 655924
0110010010100010100000100: 560599 616707 482153 524396 535781
0110010011100000100001000: 560599 616707 482153 482387 524396
0110010010100010100000100: 560599 616707 482153 482387 655924
0110010010100010100000100: 560599 616707 482153 482387 535781
0110010011100100110001000: 560599 616707 583737 524396 482387
0110010011100000100001000: 560599 616707 587920 482387 524396
0110010010100010100000100: 560599 583737 482153 524396 655924
0110010010100010100000100: 560599 583737 482153 524396 535781
0110010011100000100001000: 560599 583737 482153 611095 524396
0110010010100010100000100: 560599 583737 482153 611095 655924
0110010010100010100000100: 560599 583737 482153 611095 535781
0110010010100010100000100: 560599 583737 616707 611095 482387
0110010011100100110001000: 560599 583737 616707 524396 611095
0110010011100000100001000: 560599 583737 587920 611095 524396
0110010010100010100000100: 560599 587920 482153 561808 535781
0110010011100000100001000: 560599 587920 482153 637891 561808
0110010010100010100000100: 560599 587920 482153 637891 655924
0110010010100010100000100: 560599 587920 482153 637891 535781
0110010010100010100000100: 560599 587920 616707 561808 524396
0110010010100010100000100: 560599 587920 616707 561808 482387
0110010011100000100001000: 560599 587920 616707 637891 561808
0110010010100010100000100: 560599 587920 616707 637891 524396
0111110000100001000010000: 560599 587920 583737 616707 482153
0110010010100010100000100: 560599 587920 583737 561808 524396
0110010010100010100000100: 560599 587920 583737 561808 611095
0110010011100000100001000: 560599 587920 583737 637891 561808
0110010010100010100000100: 560599 587920 583737 637891 524396
0110010010100010100000100: 560599 587920 583737 637891 611095
0110010010100010100000100: 560599 570191 482153 611095 655924
0110010011100000100001000: 560599 570191 482153 482387 611095
0110010010100010100000100: 560599 570191 482153 482387 655924
0110010011100000100001000: 560599 570191 482153 479942 611095
0110010010100010100000100: 560599 570191 482153 479942 655924
0110010010100010100000100: 560599 570191 616707 611095 524396
0110010011100000100001000: 560599 570191 616707 479942 611095
0110010011100000100001000: 560599 570191 616707 535781 611095
0110010011100000100001000: 560599 570191 616707 535781 479942
0110010010100010100000100: 560599 570191 616707 535781 524396
0111010100110001000100010: 560599 570191 583737 482153 655924
0111110100110001000010000: 560599 570191 583737 616707 482153
0111010100110001000100010: 560599 570191 587920 482153 655924
0111110100110001000010000: 560599 570191 587920 616707 482153
0111010100110001000100010: 560599 570191 587920 616707 524396
0111110110110001100010000: 560599 570191 587920 583737 482153
0111110110110001100010000: 560599 570191 587920 583737 616707
0110010010100010100000100: 524396 583737 616707 611095 482387
0110010011100000100001000: 524396 583737 479942 611095 560599
0110010010100010100000100: 524396 479942 616707 637891 560599
0110010011100000100001000: 524396 479942 616707 552386 637891
0110010010100010100000100: 524396 479942 616707 552386 560599
0110010011100000100001000: 524396 479942 616707 570191 637891
0110010011100000100001000: 524396 479942 616707 570191 552386
0110010010100010100000100: 524396 479942 583737 482387 560599
0110010010100010100000100: 524396 479942 583737 482387 611095
0110010010100010100000100: 524396 479942 583737 637891 560599
0110010010100010100000100: 524396 479942 583737 637891 611095
0110010011100000100001000: 524396 479942 583737 552386 482387
0110010011100000100001000: 524396 479942 583737 552386 637891
0110010010100010100000100: 524396 479942 583737 552386 560599
0110010010100010100000100: 524396 479942 583737 552386 611095
0110010010100010100000100: 482153 560599 655924 616707 561808
0110010011100000100001000: 482153 560599 655924 583737 616707
0110010010100010100000100: 482153 560599 655924 583737 561808
0110010011100000100001000: 482153 560599 655924 587920 616707
0110010011100000100001000: 482153 560599 655924 587920 583737
0110010011100000100001000: 482153 560599 655924 570191 616707
0110010010100010100000100: 482153 560599 655924 570191 561808
0110010011100000100001000: 482153 560599 535781 583737 616707
0110010011100000100001000: 482153 560599 535781 587920 616707
0110010011100000100001000: 482153 560599 535781 587920 583737
0110010010100010100000100: 482153 535781 655924 570191 561808
0110010011100000100001000: 655924 482153 561808 535781 560599
0110010010100010100000100: 655924 561808 482153 587920 535781
