0110100010010010: 578976 461252 564617 475384
0110100010010010: 578976 461252 564617 641266
0110100110000100: 578976 564617 461252 475384
0110100110000100: 578976 564617 461252 641266
0110100110000100: 578976 564617 461252 475384
0110100110000100: 578976 564617 461252 641266
0110100110000100: 578976 564617 461252 475384
0110100110000100: 578976 564617 461252 641266
0110100110000100: 578976 564617 461252 475384
0110100110000100: 578976 564617 461252 641266
0110100110000100: 578976 564617 461252 475384
0110100110000100: 578976 564617 461252 641266
0101101001001000: 564617 475384 550526 641266
0101101001001000: 564617 475384 550526 578976
0101101001001000: 564617 641266 493968 475384
0101101001001000: 564617 641266 493968 578976
0111100010001000: 564617 578976 641266 475384
0101101001001000: 564617 578976 461252 475384
0101101001001000: 564617 578976 461252 641266
0110100110000100: 564617 475384 641266 550526
0110100010010010: 564617 475384 641266 493968
0110100010010010: 564617 475384 641266 493968
0111100010001000: 564617 475384 578976 641266
0110100110000100: 564617 475384 578976 550526
0110100010010010: 564617 475384 578976 461252
0110100010010010: 564617 475384 578976 461252
0110100110000100: 564617 475384 641266 550526
0110100110000100: 564617 475384 641266 550526
0110100110000100: 564617 475384 641266 550526
0110100110000100: 564617 475384 578976 550526
0110100110000100: 564617 475384 578976 550526
0110100110000100: 564617 475384 578976 550526
0101101001001000: 564617 475384 550526 641266
0101101001001000: 564617 475384 550526 578976
0100101001010010: 564617 475384 550526 595435
0100101001010010: 564617 475384 550526 595435
0100101001010010: 564617 475384 550526 595435
0110100110000100: 564617 641266 475384 493968
0110100010010010: 564617 641266 475384 550526
0110100010010010: 564617 641266 475384 550526
0111100010001000: 564617 641266 578976 475384
0110100110000100: 564617 641266 578976 493968
0110100010010010: 564617 641266 578976 461252
0110100010010010: 564617 641266 578976 461252
0111100010001000: 564617 641266 475384 578976
0110100110000100: 564617 641266 475384 493968
0110100110000100: 564617 641266 475384 493968
0110100110000100: 564617 641266 475384 493968
0110100110000100: 564617 641266 578976 493968
0110100110000100: 564617 641266 578976 493968
0110100110000100: 564617 641266 578976 493968
0101101001001000: 564617 641266 493968 475384
0101101001001000: 564617 641266 493968 578976
0100101001010010: 564617 641266 493968 611942
0100101001010010: 564617 641266 493968 595435
0100101001010010: 564617 641266 493968 611942
0100101001010010: 564617 641266 493968 595435
0101101001001000: 564617 641266 493968 475384
0101101001001000: 564617 641266 493968 578976
0101101001001000: 564617 641266 493968 475384
0110100010010010: 564617 578976 475384 550526
0110100010010010: 564617 578976 475384 550526
0111100010001000: 564617 578976 641266 475384
0110100010010010: 564617 578976 641266 493968
0110100010010010: 564617 578976 641266 493968
0111100010001000: 564617 578976 475384 641266
0110100110000100: 564617 578976 475384 461252
0110100110000100: 564617 578976 475384 461252
0111100010001000: 564617 578976 641266 475384
0111100010001000: 564617 578976 641266 475384
0110100110000100: 564617 578976 641266 461252
0110100110000100: 564617 578976 641266 461252
0101101001001000: 564617 578976 461252 475384
0101101001001000: 564617 578976 461252 641266
0110100110000100: 641266 493968 564617 611942
0110100110000100: 641266 493968 564617 595435
0110100010010010: 641266 493968 564617 475384
0110100010010010: 641266 493968 564617 578976
0110100110000100: 641266 493968 564617 611942
0110100110000100: 641266 493968 564617 595435
0110100110000100: 641266 493968 564617 611942
0110100110000100: 641266 493968 564617 595435
0110100110000100: 641266 493968 564617 611942
0110100110000100: 641266 493968 564617 595435
0110100110000100: 641266 493968 564617 611942
0110100110000100: 641266 493968 564617 595435
0110100110000100: 641266 493968 564617 611942
0110100110000100: 641266 493968 564617 595435
0110100010010010: 641266 564617 493968 611942
0110100010010010: 641266 564617 493968 595435
0110100110000100: 641266 564617 493968 475384
0110100110000100: 641266 564617 493968 578976
0110100110000100: 641266 564617 493968 475384
0110100110000100: 641266 564617 493968 578976
0110100110000100: 641266 564617 493968 475384
0110100110000100: 641266 564617 493968 578976
0110100110000100: 641266 564617 493968 475384
0110100110000100: 641266 564617 493968 578976
0110100110000100: 550526 475384 595435 564617
0110100010010010: 550526 475384 595435 567404
0110100010010010: 550526 475384 595435 493968
0110100110000100: 550526 475384 595435 564617
0110100110000100: 550526 475384 595435 564617
0110100110000100: 550526 475384 595435 564617
0110100110000100: 550526 475384 595435 564617
0110100110000100: 550526 475384 595435 564617
0110100110000100: 550526 595435 475384 567404
0110100110000100: 550526 595435 475384 493968
0110100010010010: 550526 595435 475384 564617
0110100110000100: 550526 595435 475384 567404
0110100110000100: 550526 595435 475384 493968
0110100110000100: 550526 595435 475384 567404
0110100110000100: 550526 595435 475384 493968
0110100010010010: 550526 595435 475384 564617
0110100110000100: 550526 595435 475384 567404
0110100110000100: 550526 595435 475384 493968
0110100110000100: 550526 595435 475384 567404
0110100110000100: 550526 595435 475384 493968
0110100010010010: 550526 595435 475384 564617
0101101001001000: 595435 567404 611942 550526
0110100110010110: 595435 493968 567404 611942
0111100010001000: 595435 550526 493968 567404
0101101001001000: 595435 550526 475384 567404
0101101001001000: 595435 550526 475384 493968
0110100010010010: 595435 567404 493968 641266
0110100110010110: 595435 567404 493968 611942
0110100110010110: 595435 567404 493968 611942
0111100010001000: 595435 567404 550526 493968
0110100110000100: 595435 567404 550526 611942
0110100010010010: 595435 567404 550526 475384
0110100010010010: 595435 567404 550526 475384
0110100110010110: 595435 567404 493968 611942
0110100110000100: 595435 567404 550526 611942
0110100110000100: 595435 567404 550526 611942
0110100110000100: 595435 567404 550526 611942
0101101001001000: 595435 567404 611942 550526
0101101001011010: 595435 567404 611942 493968
0101101001011010: 595435 567404 611942 493968
0101101001011010: 595435 567404 611942 493968
0110100110000100: 595435 493968 567404 641266
0110100110010110: 595435 493968 567404 611942
0110100110010110: 595435 493968 567404 611942
0111100010001000: 595435 493968 550526 567404
0110100110000100: 595435 493968 550526 611942
0110100110000100: 595435 493968 550526 641266
0110100010010010: 595435 493968 550526 475384
0110100010010010: 595435 493968 550526 475384
0111100010001000: 595435 493968 567404 550526
0110100110000100: 595435 493968 567404 641266
0110100110000100: 595435 493968 567404 641266
0110100110010110: 595435 493968 567404 611942
0110100110010110: 595435 493968 567404 611942
0110100110010110: 595435 493968 567404 611942
0110100110000100: 595435 493968 550526 611942
0110100110000100: 595435 493968 550526 641266
0110100110000100: 595435 493968 550526 611942
0110100110000100: 595435 493968 550526 641266
0110100010010010: 595435 493968 550526 475384
0111100010001000: 595435 493968 567404 550526
0111100010001000: 595435 493968 567404 550526
0111100010001000: 595435 493968 550526 567404
0111100010001000: 595435 493968 550526 567404
0110100010010010: 595435 493968 550526 475384
0110100110000100: 595435 493968 567404 641266
0110100110000100: 595435 493968 567404 641266
0111100010001000: 595435 493968 567404 550526
0110100110010110: 595435 493968 567404 611942
0110100110010110: 595435 493968 567404 611942
0110100110000100: 595435 493968 550526 611942
0110100110000100: 595435 493968 550526 641266
0110100110000100: 595435 493968 550526 611942
0110100110000100: 595435 493968 550526 641266
0111100010001000: 595435 493968 550526 567404
0111100010001000: 595435 493968 550526 567404
0110100010010010: 595435 493968 550526 475384
0110100010010010: 595435 493968 550526 475384
0110100010010010: 595435 550526 567404 611942
0110100010010010: 595435 550526 567404 611942
0111100010001000: 595435 550526 493968 567404
0110100010010010: 595435 550526 493968 611942
0110100010010010: 595435 550526 493968 641266
0111100010001000: 595435 550526 567404 493968
0110100110000100: 595435 550526 567404 475384
0110100110000100: 595435 550526 567404 475384
0111100010001000: 595435 550526 493968 567404
0111100010001000: 595435 550526 493968 567404
0110100110000100: 595435 550526 493968 475384
0110100110000100: 595435 550526 493968 475384
0101101001001000: 595435 550526 475384 567404
0101101001001000: 595435 550526 475384 493968
0100101001010010: 595435 550526 475384 564617
0100101001010010: 595435 550526 475384 564617
0100101001010010: 595435 550526 475384 564617
0110100010010010: 475384 550526 564617 641266
0110100010010010: 475384 550526 564617 578976
0110100110000100: 475384 550526 564617 595435
0110100110000100: 475384 550526 564617 595435
0110100110000100: 475384 550526 564617 595435
0110100110000100: 475384 550526 564617 595435
0110100010010010: 475384 564617 550526 595435
0110100110000100: 475384 564617 550526 641266
0110100110000100: 475384 564617 550526 578976
0110100010010010: 475384 564617 550526 595435
0110100110000100: 475384 564617 550526 641266
0110100110000100: 475384 564617 550526 578976
0110100110000100: 475384 564617 550526 641266
0110100110000100: 475384 564617 550526 578976
0110100010010010: 475384 564617 550526 595435
0110100110010110: 611942 493968 567404 595435
0110100010010010: 611942 567404 493968 641266
0110100110010110: 611942 567404 493968 595435
0110100110010110: 611942 567404 493968 595435
0110100110010110: 611942 567404 493968 595435
0110100110010110: 611942 567404 493968 595435
0110100110000100: 611942 493968 567404 641266
0110100110010110: 611942 493968 567404 595435
0110100110010110: 611942 493968 567404 595435
0110100110000100: 611942 493968 567404 641266
0110100110000100: 611942 493968 567404 641266
0110100110010110: 611942 493968 567404 595435
0110100110010110: 611942 493968 567404 595435
0110100110000100: 611942 493968 567404 641266
0110100110000100: 611942 493968 567404 641266
0110100110010110: 611942 493968 567404 595435
0101101001001000: 493968 611942 567404 641266
0110100110010110: 493968 595435 611942 567404
0111100010001000: 493968 641266 595435 611942
0101101001001000: 493968 641266 564617 611942
0101101001001000: 493968 641266 564617 595435
0110100010010010: 493968 611942 595435 550526
0110100110010110: 493968 611942 595435 567404
0111100010001000: 493968 611942 641266 595435
0110100010010010: 493968 611942 641266 564617
0110100010010010: 493968 611942 641266 564617
0110100110010110: 493968 611942 595435 567404
0110100110000100: 493968 611942 641266 567404
0110100110000100: 493968 611942 641266 567404
0101101001001000: 493968 611942 567404 641266
0101101001011010: 493968 611942 567404 595435
0101101001011010: 493968 611942 567404 595435
0101101001011010: 493968 611942 567404 595435
0110100110010110: 493968 595435 611942 567404
0111100010001000: 493968 595435 641266 611942
0110100010010010: 493968 595435 641266 564617
0110100010010010: 493968 595435 641266 564617
0111100010001000: 493968 595435 611942 641266
0110100110000100: 493968 595435 611942 550526
0110100110010110: 493968 595435 611942 567404
0110100110010110: 493968 595435 611942 567404
0110100110000100: 493968 595435 641266 567404
0110100110000100: 493968 595435 641266 550526
0110100010010010: 493968 595435 641266 564617
0111100010001000: 493968 595435 611942 641266
0111100010001000: 493968 595435 611942 641266
0111100010001000: 493968 595435 641266 611942
0111100010001000: 493968 595435 641266 611942
0110100010010010: 493968 595435 641266 564617
0110100110000100: 493968 595435 611942 550526
0110100110000100: 493968 595435 611942 550526
0111100010001000: 493968 595435 611942 641266
0110100110010110: 493968 595435 611942 567404
0110100110010110: 493968 595435 611942 567404
0110100110000100: 493968 595435 641266 567404
0110100110000100: 493968 595435 641266 550526
0110100110000100: 493968 595435 641266 567404
0110100110000100: 493968 595435 641266 550526
0111100010001000: 493968 595435 641266 611942
0111100010001000: 493968 595435 641266 611942
0110100010010010: 493968 595435 641266 564617
0110100010010010: 493968 595435 641266 564617
0110100010010010: 493968 641266 611942 567404
0110100010010010: 493968 641266 611942 567404
0111100010001000: 493968 641266 595435 611942
0110100010010010: 493968 641266 595435 567404
0110100010010010: 493968 641266 595435 550526
0111100010001000: 493968 641266 611942 595435
0110100110000100: 493968 641266 611942 564617
0110100110000100: 493968 641266 611942 564617
0111100010001000: 493968 641266 595435 611942
0111100010001000: 493968 641266 595435 611942
0110100110000100: 493968 641266 595435 564617
0110100110000100: 493968 641266 595435 564617
0101101001001000: 493968 641266 564617 611942
0101101001001000: 493968 641266 564617 595435
0100101001010010: 493968 641266 564617 475384
0100101001010010: 493968 641266 564617 578976
0100101001010010: 493968 641266 564617 475384
0100101001010010: 493968 641266 564617 578976
0101101001001000: 493968 641266 564617 611942
0101101001001000: 493968 641266 564617 595435
0101101001001000: 493968 641266 564617 611942
0101101001001000: 493968 641266 564617 595435
0110100110010110: 567404 595435 611942 493968
0110100010010010: 567404 611942 595435 550526
0110100110010110: 567404 611942 595435 493968
0110100110010110: 567404 611942 595435 493968
0110100110010110: 567404 611942 595435 493968
0110100110010110: 567404 595435 611942 493968
0110100110000100: 567404 595435 611942 550526
0110100110010110: 567404 595435 611942 493968
0110100110010110: 567404 595435 611942 493968
0110100110000100: 567404 595435 611942 550526
0110100110000100: 567404 595435 611942 550526
0110100110010110: 567404 595435 611942 493968
