Vertex,0101101001001000,0110100010010010,0110101011010010,0111100010011010,0110101111000100,0111101011001000,0111100110001100,0111100010001000,0100101001010010,0110100110000100
561187,9.0,12.0,0.0,0.0,0.0,0.0,0.0,8.0,2.0,29.0
482689,21.0,32.0,0.0,0.0,0.0,0.0,0.0,8.0,11.0,70.0
612362,4.0,6.0,0.0,0.0,0.0,0.0,0.0,0.0,0.0,14.0
500817,17.0,24.0,2.0,2.0,5.0,13.0,5.0,8.0,8.0,54.0
632058,9.0,18.0,0.0,0.0,0.0,0.0,0.0,8.0,5.0,49.0
503891,0.0,10.0,0.0,0.0,0.0,0.0,0.0,0.0,3.0,40.0
572342,0.0,10.0,0.0,0.0,0.0,0.0,0.0,0.0,3.0,40.0
607682,4.0,14.0,0.0,0.0,0.0,0.0,0.0,0.0,3.0,44.0
649498,4.0,18.0,0.0,0.0,0.0,0.0,0.0,0.0,3.0,44.0
536786,15.0,25.0,4.0,4.0,10.0,26.0,10.0,0.0,8.0,47.0
616146,6.0,6.0,4.0,4.0,10.0,26.0,10.0,0.0,2.0,15.0
558083,7.0,23.0,4.0,4.0,10.0,26.0,10.0,0.0,5.0,40.0
623595,4.0,18.0,2.0,2.0,5.0,13.0,5.0,0.0,3.0,42.0
graph,25.0,54.0,4.0,4.0,10.0,26.0,10.0,8.0,14.0,132.0
