Vertex,0111110111110001100011000,0111110110110011100010100,0110010010100010100000100,0111010110110011100100110,0111110100110001000110010,0111110110110101110010000,0111010101110001000101010,0111110100110001000010000,0111110110110001100010000,0110010011100000100001000,0111010110110011100000100,0111110111110111110011100,0110010011100110110001100,0111010100110001000100010,0111110111110101110011000,0110010010100010100100110,0111110110110011100110110,0111110000100001000010000,0111010101110001000001000,0110010011100100110001000
554368,82.0,154.0,0.0,0.0,104.0,82.0,0.0,799.0,563.0,102.0,34.0,26.0,0.0,31.0,108.0,0.0,14.0,459.0,47.0,0.0
649998,21.0,30.0,17.0,6.0,19.0,12.0,6.0,214.0,147.0,103.0,19.0,3.0,3.0,17.0,25.0,0.0,5.0,159.0,53.0,15.0
496371,28.0,69.0,58.0,12.0,33.0,28.0,14.0,184.0,217.0,90.0,43.0,13.0,5.0,34.0,43.0,0.0,17.0,56.0,80.0,59.0
573171,39.0,79.0,63.0,12.0,40.0,30.0,14.0,182.0,227.0,134.0,49.0,14.0,5.0,42.0,52.0,0.0,15.0,44.0,91.0,53.0
596938,18.0,49.0,54.0,0.0,39.0,23.0,1.0,227.0,144.0,90.0,19.0,7.0,0.0,43.0,19.0,0.0,2.0,107.0,33.0,16.0
612121,11.0,28.0,33.0,0.0,46.0,20.0,1.0,235.0,133.0,67.0,10.0,3.0,0.0,32.0,17.0,0.0,0.0,123.0,33.0,4.0
487261,0.0,21.0,41.0,0.0,37.0,15.0,2.0,244.0,117.0,46.0,4.0,0.0,0.0,21.0,2.0,0.0,1.0,123.0,19.0,5.0
476530,13.0,25.0,38.0,0.0,49.0,13.0,2.0,238.0,140.0,68.0,7.0,1.0,0.0,27.0,15.0,0.0,1.0,121.0,35.0,8.0
471425,12.0,30.0,41.0,0.0,14.0,8.0,8.0,214.0,140.0,91.0,10.0,0.0,1.0,7.0,9.0,1.0,2.0,165.0,43.0,14.0
548851,10.0,17.0,14.0,0.0,6.0,12.0,0.0,228.0,112.0,79.0,7.0,0.0,0.0,8.0,5.0,0.0,0.0,190.0,29.0,6.0
494936,41.0,82.0,70.0,7.0,36.0,16.0,10.0,191.0,210.0,165.0,39.0,12.0,2.0,45.0,42.0,1.0,9.0,64.0,73.0,35.0
647628,13.0,31.0,19.0,0.0,15.0,15.0,3.0,238.0,113.0,103.0,18.0,2.0,0.0,17.0,11.0,0.0,0.0,160.0,30.0,8.0
645265,26.0,37.0,41.0,0.0,27.0,5.0,5.0,232.0,146.0,109.0,13.0,2.0,0.0,18.0,21.0,0.0,1.0,153.0,49.0,13.0
626649,18.0,30.0,39.0,6.0,28.0,17.0,5.0,212.0,146.0,133.0,38.0,3.0,3.0,48.0,22.0,0.0,5.0,149.0,55.0,20.0
528343,15.0,52.0,75.0,7.0,48.0,31.0,10.0,222.0,158.0,133.0,55.0,7.0,2.0,55.0,28.0,1.0,7.0,75.0,74.0,27.0
486975,26.0,57.0,43.0,5.0,33.0,27.0,5.0,208.0,177.0,102.0,32.0,12.0,2.0,30.0,33.0,1.0,6.0,108.0,57.0,12.0
539234,21.0,38.0,36.0,0.0,24.0,15.0,4.0,225.0,140.0,96.0,19.0,5.0,0.0,23.0,18.0,0.0,2.0,147.0,32.0,16.0
487920,1.0,4.0,41.0,0.0,0.0,2.0,0.0,3.0,8.0,145.0,46.0,0.0,0.0,49.0,2.0,0.0,0.0,1.0,54.0,9.0
463273,45.0,102.0,72.0,5.0,27.0,39.0,10.0,174.0,237.0,169.0,58.0,20.0,2.0,78.0,68.0,1.0,8.0,41.0,108.0,20.0
graph,88.0,187.0,159.0,12.0,125.0,82.0,20.0,894.0,655.0,405.0,104.0,26.0,5.0,125.0,108.0,1.0,19.0,489.0,199.0,68.0
