Vertex,0110010010100010100000100,0111110000100001000010000,0110010011100000100001000,0110010011100100110001000,0110010010100010100100110
480900,26.0,1.0,24.0,3.0,1.0
504974,41.0,1.0,35.0,3.0,1.0
596313,30.0,0.0,18.0,1.0,1.0
578204,13.0,1.0,13.0,3.0,0.0
597960,23.0,1.0,20.0,1.0,0.0
518561,40.0,1.0,33.0,1.0,1.0
487590,13.0,0.0,7.0,3.0,0.0
512864,16.0,0.0,7.0,0.0,0.0
513960,34.0,0.0,22.0,0.0,1.0
572367,15.0,0.0,7.0,0.0,0.0
483784,12.0,0.0,2.0,0.0,0.0
470253,14.0,0.0,5.0,0.0,0.0
473108,30.0,0.0,15.0,0.0,0.0
637296,16.0,0.0,6.0,0.0,0.0
547479,7.0,0.0,1.0,0.0,0.0
587614,3.0,0.0,0.0,0.0,0.0
522248,1.0,0.0,0.0,0.0,0.0
655269,15.0,0.0,8.0,0.0,0.0
552191,6.0,0.0,7.0,0.0,0.0
graph,71.0,1.0,46.0,3.0,1.0
