0111101011001000: 556456 615830 460145 465981
0111101011001000: 556456 460145 615830 465981
0110100110000100: 556456 615830 465981 624673
0110100110000100: 556456 615830 465981 624673
0110100110000100: 556456 615830 465981 624673
0111100110001100: 556456 615830 465981 460145
0111101011001000: 556456 615830 460145 465981
0110101011010010: 556456 615830 460145 583093
0110101011010010: 556456 615830 460145 617437
0110101011010010: 556456 615830 460145 583093
0110101011010010: 556456 615830 460145 617437
0111101011001000: 556456 615830 460145 465981
0111101011001000: 556456 615830 460145 465981
0111101011001000: 556456 615830 460145 465981
0110101111000100: 556456 615830 460145 624673
0110101111000100: 556456 615830 460145 624673
0111101011001000: 556456 615830 460145 465981
0110101111000100: 556456 615830 460145 624673
0111101011001000: 556456 615830 460145 465981
0110100110000100: 556456 615830 465981 624673
0110100110000100: 556456 615830 465981 624673
0111100110001100: 556456 615830 465981 460145
0111100110001100: 556456 615830 465981 460145
0111100110001100: 556456 615830 465981 460145
0111101011001000: 556456 615830 460145 465981
0110100010010010: 556456 465981 615830 624673
0111100010011010: 556456 465981 615830 460145
0110100010010010: 556456 465981 460145 583093
0110100010010010: 556456 465981 460145 617437
0111100010011010: 556456 465981 460145 615830
0110100110000100: 556456 460145 465981 583093
0110100110000100: 556456 460145 465981 617437
0110100110000100: 556456 460145 465981 583093
0110100110000100: 556456 460145 465981 617437
0110100110000100: 556456 460145 465981 583093
0110100110000100: 556456 460145 465981 617437
0111100110001100: 556456 460145 465981 615830
0111101011001000: 556456 460145 615830 465981
0110101011010010: 556456 460145 615830 624673
0110101011010010: 556456 460145 615830 624673
0111101011001000: 556456 460145 615830 465981
0111101011001000: 556456 460145 615830 465981
0111101011001000: 556456 460145 615830 465981
0111101011001000: 556456 460145 615830 465981
0110101111000100: 556456 460145 615830 583093
0110101111000100: 556456 460145 615830 617437
0110101111000100: 556456 460145 615830 583093
0110101111000100: 556456 460145 615830 617437
0111101011001000: 556456 460145 615830 465981
0110101011010010: 556456 460145 615830 624673
0111101011001000: 556456 460145 615830 465981
0110100110000100: 556456 460145 465981 583093
0110100110000100: 556456 460145 465981 617437
0110100110000100: 556456 460145 465981 583093
0110100110000100: 556456 460145 465981 617437
0111100110001100: 556456 460145 465981 615830
0111100110001100: 556456 460145 465981 615830
0111100110001100: 556456 460145 465981 615830
0111101011001000: 556456 460145 615830 465981
0111101011001000: 556456 460145 615830 465981
0111101011001000: 556456 460145 615830 465981
0111101011001000: 556456 460145 615830 465981
0101101001001000: 460145 583093 513955 615830
0101101001001000: 460145 583093 513955 556456
0101101001001000: 460145 583093 603657 615830
0101101001001000: 460145 583093 603657 617437
0101101001001000: 460145 583093 603657 556456
0100101101000100: 460145 583093 603657 513955
0111101011001000: 460145 615830 556456 583093
0111101011001000: 460145 615830 556456 617437
0101101001001000: 460145 615830 624673 583093
0101101001001000: 460145 615830 624673 617437
0101101101001100: 460145 615830 624673 556456
0110100110010110: 460145 617437 583093 513955
0111100010001000: 460145 617437 615830 583093
0101101001001000: 460145 617437 513955 615830
0101101001001000: 460145 617437 513955 556456
0111100010001000: 460145 556456 617437 583093
0111101011001000: 460145 556456 615830 583093
0111101011001000: 460145 556456 615830 617437
0101101001001000: 460145 556456 465981 583093
0101101001001000: 460145 556456 465981 617437
0101101101001100: 460145 556456 465981 615830
0110100110000100: 460145 583093 615830 513955
0110100110000100: 460145 583093 615830 603657
0110100010010010: 460145 583093 615830 624673
0111100010011010: 460145 583093 615830 556456
0110100010010010: 460145 583093 615830 624673
0111100010001000: 460145 583093 617437 615830
0110100110000100: 460145 583093 617437 603657
0110100110010110: 460145 583093 617437 513955
0110100110010110: 460145 583093 617437 513955
0111100010001000: 460145 583093 556456 617437
0110100110000100: 460145 583093 556456 513955
0110100110000100: 460145 583093 556456 603657
0110100010010010: 460145 583093 556456 465981
0111100010011010: 460145 583093 556456 615830
0110100010010010: 460145 583093 556456 465981
0110100110000100: 460145 583093 615830 513955
0110100110000100: 460145 583093 615830 603657
0110100110000100: 460145 583093 615830 513955
0110100110000100: 460145 583093 615830 603657
0110100110000100: 460145 583093 615830 513955
0110100110000100: 460145 583093 615830 603657
0110100110000100: 460145 583093 617437 603657
0110100110000100: 460145 583093 617437 603657
0110100110000100: 460145 583093 617437 603657
0110100110010110: 460145 583093 617437 513955
0110100110000100: 460145 583093 556456 513955
0110100110000100: 460145 583093 556456 603657
0110100110000100: 460145 583093 556456 513955
0110100110000100: 460145 583093 556456 603657
0110100110000100: 460145 583093 556456 513955
0110100110000100: 460145 583093 556456 603657
0101101001001000: 460145 583093 513955 615830
0101101001001000: 460145 583093 513955 556456
0101101001011010: 460145 583093 513955 617437
0101101001011010: 460145 583093 513955 617437
0101101001011010: 460145 583093 513955 617437
0101101001011010: 460145 583093 513955 617437
0101101001011010: 460145 583093 513955 617437
0101101001001000: 460145 583093 603657 615830
0101101001001000: 460145 583093 603657 617437
0101101001001000: 460145 583093 603657 556456
0100101001010010: 460145 583093 603657 494156
0100101001010010: 460145 583093 603657 494156
0100101101000100: 460145 583093 603657 513955
0100101001010010: 460145 583093 603657 494156
0100101001010010: 460145 583093 603657 494156
0110100110000100: 460145 615830 583093 624673
0110100010010010: 460145 615830 583093 513955
0110100010010010: 460145 615830 583093 603657
0110100010010010: 460145 615830 583093 513955
0110100010010010: 460145 615830 583093 603657
0111100010001000: 460145 615830 617437 583093
0110100110000100: 460145 615830 617437 624673
0110100010010010: 460145 615830 617437 513955
0110100010010010: 460145 615830 617437 513955
0111100010001000: 460145 615830 583093 617437
0110100110000100: 460145 615830 583093 624673
0110100110000100: 460145 615830 583093 624673
0111100110001100: 460145 615830 583093 556456
0110100110000100: 460145 615830 583093 624673
0110100110000100: 460145 615830 617437 624673
0110100110000100: 460145 615830 617437 624673
0111100110001100: 460145 615830 617437 556456
0110100110000100: 460145 615830 617437 624673
0110100010010010: 460145 615830 617437 513955
0111101011001000: 460145 615830 556456 583093
0111101011001000: 460145 615830 556456 617437
0110101011010010: 460145 615830 556456 465981
0110101011010010: 460145 615830 556456 465981
0110101011010010: 460145 615830 556456 465981
0110101011010010: 460145 615830 556456 465981
0110101111000100: 460145 615830 556456 624673
0101101001001000: 460145 615830 624673 583093
0101101001001000: 460145 615830 624673 617437
0100101001010010: 460145 615830 624673 473720
0100101001010010: 460145 615830 624673 473720
0101101101001100: 460145 615830 624673 556456
0100101001010010: 460145 615830 624673 473720
0100101001010010: 460145 615830 624673 473720
0111101011001000: 460145 615830 556456 583093
0111101011001000: 460145 615830 556456 617437
0111101011001000: 460145 615830 556456 583093
0111101011001000: 460145 615830 556456 617437
0110101111000100: 460145 615830 556456 624673
0110101111000100: 460145 615830 556456 624673
0110101111000100: 460145 615830 556456 624673
0110101111000100: 460145 615830 556456 624673
0110101111000100: 460145 615830 556456 624673
0110100010010010: 460145 617437 583093 603657
0110100010010010: 460145 617437 583093 603657
0110100110010110: 460145 617437 583093 513955
0110100110010110: 460145 617437 583093 513955
0111100010001000: 460145 617437 615830 583093
0110100110000100: 460145 617437 615830 513955
0110100010010010: 460145 617437 615830 624673
0111100010011010: 460145 617437 615830 556456
0110100010010010: 460145 617437 615830 624673
0111100010001000: 460145 617437 556456 583093
0110100110000100: 460145 617437 556456 513955
0110100010010010: 460145 617437 556456 465981
0111100010011010: 460145 617437 556456 615830
0110100010010010: 460145 617437 556456 465981
0111100010001000: 460145 617437 583093 615830
0111100010001000: 460145 617437 583093 556456
0110100110010110: 460145 617437 583093 513955
0110100110010110: 460145 617437 583093 513955
0110100110010110: 460145 617437 583093 513955
0111100010001000: 460145 617437 615830 583093
0111100010001000: 460145 617437 615830 583093
0110100110000100: 460145 617437 615830 513955
0110100110000100: 460145 617437 615830 513955
0110100110000100: 460145 617437 615830 513955
0110100110000100: 460145 617437 556456 513955
0110100110000100: 460145 617437 556456 513955
0110100110000100: 460145 617437 556456 513955
0101101001001000: 460145 617437 513955 615830
0101101001001000: 460145 617437 513955 556456
0101101001011010: 460145 617437 513955 583093
0101101001011010: 460145 617437 513955 583093
0101101001011010: 460145 617437 513955 583093
0110100010010010: 460145 556456 583093 513955
0110100010010010: 460145 556456 583093 603657
0110100010010010: 460145 556456 583093 513955
0110100010010010: 460145 556456 583093 603657
0111100010001000: 460145 556456 617437 583093
0110100010010010: 460145 556456 617437 513955
0110100010010010: 460145 556456 617437 513955
0111100010001000: 460145 556456 583093 617437
0110100110000100: 460145 556456 583093 465981
0111100110001100: 460145 556456 583093 615830
0110100110000100: 460145 556456 583093 465981
0111100010001000: 460145 556456 617437 583093
0111100010001000: 460145 556456 617437 583093
0110100110000100: 460145 556456 617437 465981
0111100110001100: 460145 556456 617437 615830
0110100110000100: 460145 556456 617437 465981
0110100010010010: 460145 556456 617437 513955
0111101011001000: 460145 556456 615830 583093
0111101011001000: 460145 556456 615830 617437
0110101011010010: 460145 556456 615830 624673
0110101011010010: 460145 556456 615830 624673
0110101111000100: 460145 556456 615830 465981
0101101001001000: 460145 556456 465981 583093
0101101001001000: 460145 556456 465981 617437
0101101101001100: 460145 556456 465981 615830
0111101011001000: 460145 556456 615830 583093
0111101011001000: 460145 556456 615830 617437
0111101011001000: 460145 556456 615830 583093
0111101011001000: 460145 556456 615830 617437
0110101111000100: 460145 556456 615830 465981
0110101111000100: 460145 556456 615830 465981
0110101111000100: 460145 556456 615830 465981
0110101111000100: 460145 556456 615830 465981
0111101011001000: 460145 556456 615830 583093
0111101011001000: 460145 556456 615830 617437
0111101011001000: 460145 556456 615830 583093
0111101011001000: 460145 556456 615830 617437
0110101111000100: 460145 556456 615830 465981
0110100110010110: 617437 460145 513955 583093
0110100010010010: 617437 513955 460145 615830
0110100010010010: 617437 513955 460145 556456
0110100110010110: 617437 513955 460145 583093
0110100110010110: 617437 513955 460145 583093
0110100110010110: 617437 513955 460145 583093
0110100110010110: 617437 513955 460145 583093
0110100110010110: 617437 460145 513955 583093
0110100110000100: 617437 460145 513955 615830
0110100110000100: 617437 460145 513955 556456
0110100110010110: 617437 460145 513955 583093
0110100110010110: 617437 460145 513955 583093
0110100110000100: 617437 460145 513955 615830
0110100110000100: 617437 460145 513955 556456
0110100110000100: 617437 460145 513955 615830
0110100110000100: 617437 460145 513955 556456
0110100110010110: 617437 460145 513955 583093
0110100110000100: 624673 615830 473720 460145
0110100110000100: 624673 615830 473720 556456
0110100010010010: 624673 615830 473720 494156
0110100110000100: 624673 615830 473720 460145
0110100110000100: 624673 615830 473720 556456
0110100110000100: 624673 615830 473720 460145
0110100110000100: 624673 615830 473720 556456
0110100010010010: 624673 615830 473720 494156
0110100110000100: 624673 615830 473720 460145
0110100110000100: 624673 615830 473720 556456
0110100110000100: 624673 615830 473720 460145
0110100110000100: 624673 615830 473720 556456
0110100010010010: 624673 615830 473720 494156
0110100110000100: 624673 473720 615830 494156
0110100010010010: 624673 473720 615830 460145
0110100010010010: 624673 473720 615830 556456
0110100110000100: 624673 473720 615830 494156
0110100110000100: 624673 473720 615830 494156
0110100110000100: 624673 473720 615830 494156
0110100110000100: 624673 473720 615830 494156
0110100110000100: 624673 473720 615830 494156
0110100110000100: 473720 494156 624673 603657
0110100010010010: 473720 494156 624673 615830
0110100110000100: 473720 494156 624673 603657
0110100110000100: 473720 494156 624673 603657
0110100110000100: 473720 494156 624673 603657
0110100110000100: 473720 494156 624673 603657
0110100110000100: 473720 494156 624673 603657
0110100010010010: 473720 624673 494156 603657
0110100110000100: 473720 624673 494156 615830
0110100110000100: 473720 624673 494156 615830
0110100110000100: 473720 624673 494156 615830
0110100110000100: 473720 624673 494156 615830
0101101001001000: 615830 624673 473720 460145
0101101001001000: 615830 624673 473720 556456
0111101011001000: 615830 460145 556456 624673
0111101011001000: 615830 556456 460145 624673
0110100010010010: 615830 624673 460145 583093
0110100010010010: 615830 624673 460145 617437
0111100010011010: 615830 624673 460145 556456
0110100010010010: 615830 624673 556456 465981
0111100010011010: 615830 624673 556456 460145
0110100110000100: 615830 624673 460145 473720
0110100110000100: 615830 624673 460145 473720
0110100110000100: 615830 624673 556456 473720
0110100110000100: 615830 624673 556456 473720
0101101001001000: 615830 624673 473720 460145
0101101001001000: 615830 624673 473720 556456
0100101001010010: 615830 624673 473720 494156
0100101001010010: 615830 624673 473720 494156
0100101001010010: 615830 624673 473720 494156
0110100010010010: 615830 460145 624673 473720
0110100010010010: 615830 460145 624673 473720
0110100110000100: 615830 460145 624673 583093
0110100110000100: 615830 460145 624673 617437
0111100110001100: 615830 460145 624673 556456
0110100010010010: 615830 460145 624673 473720
0111101011001000: 615830 460145 556456 624673
0111101011001000: 615830 460145 556456 624673
0111101011001000: 615830 460145 556456 624673
0110100010010010: 615830 460145 624673 473720
0111101011001000: 615830 460145 556456 624673
0111101011001000: 615830 460145 556456 624673
0110101111000100: 615830 460145 556456 583093
0110101111000100: 615830 460145 556456 617437
0110101111000100: 615830 460145 556456 583093
0110101111000100: 615830 460145 556456 617437
0111101011001000: 615830 460145 556456 624673
0110101011010010: 615830 460145 556456 465981
0111101011001000: 615830 460145 556456 624673
0110100110000100: 615830 460145 624673 583093
0110100110000100: 615830 460145 624673 617437
0110100110000100: 615830 460145 624673 583093
0110100110000100: 615830 460145 624673 617437
0111100110001100: 615830 460145 624673 556456
0111100110001100: 615830 460145 624673 556456
0111100110001100: 615830 460145 624673 556456
0110100010010010: 615830 460145 624673 473720
0110100010010010: 615830 460145 624673 473720
0111101011001000: 615830 460145 556456 624673
0110100010010010: 615830 556456 624673 473720
0110100010010010: 615830 556456 624673 473720
0110100110000100: 615830 556456 624673 465981
0111100110001100: 615830 556456 624673 460145
0110100010010010: 615830 556456 624673 473720
0111101011001000: 615830 556456 460145 624673
0111101011001000: 615830 556456 460145 624673
0111101011001000: 615830 556456 460145 624673
0110100010010010: 615830 556456 624673 473720
0111101011001000: 615830 556456 460145 624673
0111101011001000: 615830 556456 460145 624673
0110101111000100: 615830 556456 460145 465981
0110101111000100: 615830 556456 460145 465981
0111101011001000: 615830 556456 460145 624673
0110101111000100: 615830 556456 460145 465981
0111101011001000: 615830 556456 460145 624673
0110100110000100: 615830 556456 624673 465981
0110100110000100: 615830 556456 624673 465981
0111100110001100: 615830 556456 624673 460145
0111100110001100: 615830 556456 624673 460145
0111100110001100: 615830 556456 624673 460145
0110100010010010: 615830 556456 624673 473720
0110100010010010: 615830 556456 624673 473720
0111101011001000: 615830 556456 460145 624673
0111101011001000: 615830 556456 460145 624673
0111101011001000: 615830 556456 460145 624673
0111101011001000: 615830 556456 460145 624673
0110100110000100: 494156 603657 473720 583093
0110100010010010: 494156 603657 473720 624673
0110100110000100: 494156 603657 473720 583093
0110100110000100: 494156 603657 473720 583093
0110100110000100: 494156 603657 473720 583093
0110100110000100: 494156 603657 473720 583093
0110100110000100: 494156 603657 473720 583093
0110100010010010: 494156 473720 603657 583093
0110100110000100: 494156 473720 603657 624673
0110100110000100: 494156 473720 603657 624673
0110100110000100: 494156 473720 603657 624673
0110100110000100: 494156 473720 603657 624673
0110100110000100: 603657 583093 494156 513955
0110100110000100: 603657 583093 494156 460145
0110100010010010: 603657 583093 494156 473720
0110100110000100: 603657 583093 494156 513955
0110100110000100: 603657 583093 494156 460145
0110100110000100: 603657 583093 494156 513955
0110100110000100: 603657 583093 494156 460145
0110100010010010: 603657 583093 494156 473720
0110100110000100: 603657 583093 494156 513955
0110100110000100: 603657 583093 494156 460145
0110100110000100: 603657 583093 494156 513955
0110100110000100: 603657 583093 494156 460145
0110100010010010: 603657 583093 494156 473720
0110100010010010: 603657 494156 583093 513955
0110100010010010: 603657 494156 583093 460145
0110100110000100: 603657 494156 583093 473720
0110100110000100: 603657 494156 583093 473720
0110100110000100: 603657 494156 583093 473720
0110100110000100: 603657 494156 583093 473720
0101101001001000: 583093 513955 617437 603657
0101101001001000: 583093 603657 494156 513955
0101101001001000: 583093 603657 494156 460145
0110100110010110: 583093 460145 513955 617437
0111100010001000: 583093 460145 603657 513955
0110100110000100: 583093 513955 603657 617437
0110100010010010: 583093 513955 603657 494156
0110100010010010: 583093 513955 603657 494156
0111100010001000: 583093 513955 460145 603657
0110100010010010: 583093 513955 460145 615830
0110100010010010: 583093 513955 460145 556456
0110100110010110: 583093 513955 460145 617437
0110100110010110: 583093 513955 460145 617437
0110100110000100: 583093 513955 603657 617437
0110100110000100: 583093 513955 603657 617437
0110100110000100: 583093 513955 603657 617437
0110100110010110: 583093 513955 460145 617437
0101101001001000: 583093 513955 617437 603657
0101101001011010: 583093 513955 617437 460145
0101101001011010: 583093 513955 617437 460145
0101101001011010: 583093 513955 617437 460145
0110100010010010: 583093 603657 513955 617437
0110100010010010: 583093 603657 513955 617437
0111100010001000: 583093 603657 460145 513955
0110100010010010: 583093 603657 460145 615830
0110100010010010: 583093 603657 460145 617437
0110100010010010: 583093 603657 460145 556456
0111100010001000: 583093 603657 513955 460145
0110100110000100: 583093 603657 513955 494156
0110100110000100: 583093 603657 513955 494156
0110100110000100: 583093 603657 460145 494156
0110100110000100: 583093 603657 460145 494156
0101101001001000: 583093 603657 494156 513955
0101101001001000: 583093 603657 494156 460145
0100101001010010: 583093 603657 494156 473720
0100101001010010: 583093 603657 494156 473720
0100101001010010: 583093 603657 494156 473720
0110100110010110: 583093 460145 513955 617437
0111100010001000: 583093 460145 603657 513955
0110100010010010: 583093 460145 603657 494156
0110100010010010: 583093 460145 603657 494156
0111100010001000: 583093 460145 513955 603657
0110100110000100: 583093 460145 513955 615830
0110100110000100: 583093 460145 513955 556456
0110100110010110: 583093 460145 513955 617437
0110100110010110: 583093 460145 513955 617437
0111100010001000: 583093 460145 603657 513955
0111100010001000: 583093 460145 603657 513955
0110100110000100: 583093 460145 603657 615830
0110100110000100: 583093 460145 603657 617437
0110100110000100: 583093 460145 603657 556456
0110100010010010: 583093 460145 603657 494156
0111100010001000: 583093 460145 513955 603657
0111100010001000: 583093 460145 513955 603657
0111100010001000: 583093 460145 603657 513955
0111100010001000: 583093 460145 603657 513955
0110100010010010: 583093 460145 603657 494156
0110100110000100: 583093 460145 513955 615830
0110100110000100: 583093 460145 513955 556456
0110100110000100: 583093 460145 513955 615830
0110100110000100: 583093 460145 513955 556456
0111100010001000: 583093 460145 513955 603657
0110100110010110: 583093 460145 513955 617437
0110100110010110: 583093 460145 513955 617437
0110100110000100: 583093 460145 603657 615830
0110100110000100: 583093 460145 603657 617437
0110100110000100: 583093 460145 603657 556456
0110100110000100: 583093 460145 603657 615830
0110100110000100: 583093 460145 603657 617437
0110100110000100: 583093 460145 603657 556456
0111100010001000: 583093 460145 603657 513955
0111100010001000: 583093 460145 603657 513955
0110100010010010: 583093 460145 603657 494156
0110100010010010: 583093 460145 603657 494156
0110100110010110: 513955 617437 583093 460145
0110100110010110: 513955 583093 617437 460145
0110100110000100: 513955 583093 617437 603657
0110100110010110: 513955 583093 617437 460145
0110100110000100: 513955 583093 617437 603657
0110100110000100: 513955 583093 617437 603657
0110100110010110: 513955 583093 617437 460145
0110100010010010: 513955 617437 583093 603657
0110100110010110: 513955 617437 583093 460145
0110100110010110: 513955 617437 583093 460145
0110100110010110: 513955 617437 583093 460145
0110100110010110: 513955 617437 583093 460145
