Vertex,0111110100110001000010000,0110010010100010100000100,0110010011100110110001100,0110010011100000100001000,0111110110110101110010000,0111110111110001100011000,0111010101110001000001000,0110010010100010100100110,0111010100110001000100010,0110010011100100110001000,0111110100110001000110010,0111110000100001000010000,0111010110110011100000100,0111110110110011100010100,0111010110110011100100110,0111110111110101110011000,0111110110110001100010000,0111010101110001000101010
536600,97.0,272.0,10.0,402.0,11.0,0.0,126.0,13.0,96.0,75.0,7.0,73.0,13.0,3.0,2.0,2.0,24.0,38.0
560181,55.0,403.0,3.0,389.0,11.0,0.0,103.0,16.0,107.0,108.0,4.0,31.0,14.0,2.0,1.0,2.0,19.0,32.0
502497,9.0,108.0,0.0,125.0,1.0,0.0,30.0,1.0,12.0,8.0,0.0,0.0,3.0,0.0,0.0,0.0,0.0,0.0
554475,10.0,111.0,0.0,166.0,1.0,0.0,34.0,3.0,15.0,22.0,0.0,8.0,1.0,0.0,0.0,0.0,2.0,3.0
464229,4.0,174.0,0.0,118.0,0.0,0.0,9.0,3.0,14.0,8.0,0.0,7.0,0.0,0.0,0.0,0.0,0.0,0.0
572528,24.0,371.0,4.0,401.0,1.0,0.0,47.0,19.0,73.0,106.0,1.0,21.0,3.0,0.0,0.0,0.0,2.0,20.0
482293,29.0,381.0,6.0,432.0,1.0,0.0,63.0,9.0,62.0,132.0,0.0,25.0,4.0,0.0,2.0,0.0,5.0,20.0
473651,29.0,252.0,0.0,269.0,0.0,0.0,53.0,8.0,41.0,32.0,1.0,30.0,12.0,1.0,0.0,1.0,18.0,8.0
617770,170.0,451.0,23.0,644.0,1.0,1.0,174.0,17.0,152.0,246.0,14.0,140.0,30.0,7.0,7.0,0.0,41.0,62.0
592048,65.0,256.0,1.0,272.0,1.0,1.0,85.0,4.0,55.0,79.0,8.0,47.0,13.0,3.0,2.0,0.0,20.0,16.0
521492,44.0,206.0,1.0,265.0,11.0,0.0,85.0,9.0,92.0,74.0,2.0,18.0,15.0,4.0,2.0,2.0,22.0,31.0
478030,79.0,376.0,23.0,434.0,11.0,0.0,130.0,20.0,125.0,201.0,4.0,48.0,28.0,5.0,6.0,2.0,32.0,64.0
588989,44.0,77.0,0.0,182.0,0.0,0.0,24.0,0.0,11.0,35.0,0.0,70.0,1.0,0.0,0.0,0.0,6.0,1.0
512266,87.0,169.0,9.0,297.0,1.0,0.0,74.0,7.0,39.0,72.0,6.0,76.0,0.0,0.0,1.0,0.0,11.0,23.0
524772,65.0,162.0,0.0,193.0,0.0,1.0,55.0,3.0,69.0,38.0,6.0,29.0,18.0,5.0,2.0,0.0,32.0,10.0
538082,94.0,151.0,6.0,208.0,1.0,0.0,82.0,2.0,59.0,52.0,8.0,55.0,14.0,7.0,4.0,0.0,26.0,21.0
598450,68.0,251.0,2.0,318.0,1.0,0.0,82.0,13.0,49.0,93.0,6.0,57.0,3.0,0.0,0.0,0.0,8.0,23.0
460246,70.0,151.0,12.0,312.0,1.0,0.0,42.0,7.0,14.0,103.0,0.0,104.0,0.0,0.0,1.0,0.0,11.0,14.0
474758,87.0,286.0,19.0,466.0,1.0,1.0,60.0,11.0,75.0,182.0,3.0,99.0,10.0,2.0,2.0,0.0,18.0,37.0
620791,87.0,277.0,13.0,372.0,0.0,0.0,77.0,11.0,69.0,140.0,6.0,76.0,21.0,6.0,6.0,1.0,29.0,33.0
532344,48.0,257.0,0.0,255.0,0.0,1.0,53.0,8.0,56.0,43.0,3.0,45.0,17.0,5.0,1.0,0.0,25.0,9.0
460785,4.0,107.0,0.0,99.0,0.0,0.0,30.0,0.0,9.0,18.0,0.0,2.0,3.0,0.0,1.0,0.0,2.0,2.0
600376,18.0,144.0,3.0,239.0,0.0,0.0,39.0,7.0,51.0,39.0,1.0,9.0,5.0,0.0,0.0,0.0,2.0,12.0
476129,2.0,98.0,0.0,68.0,0.0,0.0,12.0,1.0,8.0,1.0,0.0,0.0,2.0,0.0,0.0,0.0,0.0,0.0
518756,7.0,160.0,0.0,110.0,0.0,0.0,8.0,3.0,36.0,11.0,0.0,4.0,0.0,0.0,0.0,0.0,0.0,0.0
480101,2.0,79.0,0.0,102.0,0.0,0.0,10.0,0.0,17.0,16.0,0.0,2.0,0.0,0.0,0.0,0.0,0.0,1.0
469257,7.0,65.0,0.0,72.0,0.0,0.0,8.0,0.0,34.0,11.0,0.0,4.0,0.0,0.0,0.0,0.0,0.0,0.0
graph,261.0,1159.0,27.0,1442.0,11.0,1.0,319.0,39.0,288.0,389.0,16.0,216.0,46.0,10.0,8.0,2.0,71.0,96.0
