Vertex,0100101101000100,0111101111001100,0101101101001100,0111100110001100,0111100010001000,0110101011010010,0101101001001000,0111100110011110,0110100110010110,0110101111000100,0111101011001000,0110100110000100,0101101001011010,0111101011011010,0110100010010010,0110101111010110,0101101101011110,0100101001010010,0111100010011010
461119,2.0,36.0,8.0,35.0,62.0,26.0,24.0,2.0,37.0,46.0,107.0,126.0,11.0,33.0,72.0,27.0,2.0,16.0,14.0
587548,2.0,0.0,4.0,13.0,54.0,10.0,26.0,0.0,37.0,16.0,35.0,127.0,11.0,0.0,76.0,0.0,0.0,25.0,4.0
472285,2.0,0.0,0.0,0.0,39.0,0.0,14.0,0.0,0.0,0.0,0.0,87.0,0.0,0.0,52.0,0.0,0.0,16.0,0.0
622297,0.0,36.0,2.0,11.0,23.0,11.0,16.0,2.0,0.0,19.0,44.0,72.0,0.0,33.0,32.0,27.0,2.0,0.0,8.0
551023,4.0,36.0,8.0,39.0,54.0,30.0,36.0,2.0,35.0,54.0,127.0,126.0,14.0,33.0,73.0,27.0,2.0,18.0,18.0
481897,2.0,18.0,6.0,30.0,61.0,21.0,31.0,1.0,72.0,39.0,93.0,124.0,25.0,15.0,73.0,10.0,0.0,18.0,12.0
621403,4.0,0.0,2.0,8.0,54.0,5.0,20.0,0.0,37.0,9.0,21.0,88.0,11.0,0.0,47.0,0.0,0.0,17.0,2.0
555278,0.0,18.0,0.0,6.0,16.0,6.0,14.0,1.0,0.0,12.0,30.0,49.0,0.0,18.0,25.0,17.0,2.0,0.0,6.0
573166,2.0,0.0,0.0,6.0,39.0,6.0,29.0,0.0,35.0,12.0,30.0,109.0,14.0,0.0,59.0,0.0,0.0,14.0,6.0
521067,4.0,0.0,2.0,8.0,45.0,5.0,21.0,0.0,35.0,9.0,21.0,87.0,14.0,0.0,41.0,0.0,0.0,9.0,2.0
493020,0.0,0.0,0.0,0.0,15.0,0.0,2.0,0.0,0.0,0.0,0.0,24.0,0.0,0.0,9.0,0.0,0.0,3.0,0.0
488944,0.0,0.0,0.0,0.0,15.0,0.0,4.0,0.0,0.0,0.0,0.0,51.0,0.0,0.0,24.0,0.0,0.0,9.0,0.0
517190,2.0,0.0,0.0,0.0,15.0,0.0,15.0,0.0,0.0,0.0,0.0,70.0,0.0,0.0,37.0,0.0,0.0,13.0,0.0
519659,0.0,0.0,0.0,0.0,0.0,0.0,8.0,0.0,0.0,0.0,0.0,48.0,0.0,0.0,28.0,0.0,0.0,10.0,0.0
graph,6.0,36.0,8.0,39.0,123.0,30.0,65.0,2.0,72.0,54.0,127.0,297.0,25.0,33.0,162.0,27.0,2.0,42.0,18.0
