Vertex,0110010011100000100001000,0111010110110011100000100,0111010101110001000001000,0111110000100001000010000,0110010011100100110001000,0110010010100010100100110,0111110111110001100011000,0111010100110001000100010,0110010010100010100000100,0111010110110011100100110,0111110100110001000010000,0111110110110001100010000
559851,45.0,6.0,7.0,4.0,8.0,1.0,1.0,4.0,30.0,1.0,3.0,4.0
535658,23.0,2.0,2.0,2.0,2.0,1.0,0.0,1.0,19.0,0.0,2.0,0.0
529002,16.0,2.0,4.0,2.0,8.0,0.0,0.0,0.0,12.0,1.0,2.0,0.0
643187,16.0,0.0,0.0,0.0,0.0,1.0,0.0,4.0,22.0,0.0,0.0,0.0
473657,24.0,4.0,3.0,2.0,8.0,0.0,1.0,3.0,15.0,1.0,0.0,4.0
620865,25.0,8.0,13.0,2.0,4.0,2.0,1.0,11.0,25.0,1.0,3.0,6.0
610585,19.0,0.0,8.0,1.0,1.0,2.0,0.0,3.0,18.0,0.0,0.0,3.0
620625,32.0,6.0,3.0,2.0,2.0,2.0,1.0,4.0,21.0,0.0,0.0,4.0
591504,20.0,2.0,2.0,2.0,2.0,0.0,0.0,0.0,6.0,0.0,2.0,0.0
457525,34.0,8.0,13.0,2.0,4.0,3.0,1.0,11.0,28.0,1.0,3.0,6.0
562349,28.0,0.0,8.0,1.0,1.0,3.0,0.0,6.0,30.0,0.0,0.0,3.0
602131,11.0,2.0,2.0,0.0,0.0,2.0,0.0,1.0,23.0,0.0,0.0,0.0
550960,17.0,0.0,0.0,0.0,0.0,3.0,0.0,7.0,31.0,0.0,0.0,0.0
graph,62.0,8.0,13.0,4.0,8.0,4.0,1.0,11.0,56.0,1.0,3.0,6.0
