Vertex,0111010101110001000101010,0110010011100100110001000,0111110111110111110011100,0110010010100010100100110,0111010110110011100000100,0110010011100110110001100,0111010101110001000001000,0110010010100010100000100,0111110110110011100110110,0111110000100001000010000,0111110111110111110111110,0111110100110001000110010,0110010011100000100001000,0111010110110011100100110,0111110111110101110011000,0111010100110001000100010,0111110110110101110010000,0111110110110001100010000,0111110100110001000010000,0111110110110011100010100,0111110111110001100011000
617770,58.0,134.0,6.0,10.0,93.0,10.0,314.0,251.0,3.0,79.0,2.0,21.0,500.0,16.0,28.0,149.0,79.0,168.0,183.0,29.0,16.0
514076,19.0,24.0,6.0,4.0,35.0,3.0,124.0,76.0,1.0,67.0,1.0,13.0,227.0,5.0,14.0,86.0,48.0,93.0,139.0,17.0,6.0
502885,37.0,56.0,5.0,8.0,45.0,0.0,198.0,184.0,0.0,58.0,2.0,13.0,307.0,4.0,19.0,100.0,72.0,81.0,147.0,12.0,5.0
478450,15.0,42.0,0.0,2.0,21.0,0.0,98.0,121.0,1.0,95.0,0.0,8.0,316.0,1.0,6.0,46.0,5.0,65.0,124.0,14.0,9.0
483517,44.0,124.0,2.0,17.0,40.0,11.0,142.0,294.0,2.0,56.0,0.0,9.0,407.0,12.0,8.0,78.0,13.0,69.0,125.0,19.0,3.0
521843,38.0,72.0,0.0,5.0,30.0,8.0,131.0,217.0,0.0,33.0,0.0,9.0,336.0,8.0,4.0,50.0,6.0,37.0,60.0,9.0,2.0
575753,26.0,78.0,2.0,13.0,55.0,0.0,169.0,269.0,0.0,102.0,0.0,9.0,553.0,3.0,9.0,108.0,15.0,74.0,142.0,12.0,9.0
606015,18.0,76.0,0.0,8.0,8.0,7.0,89.0,186.0,0.0,49.0,0.0,0.0,312.0,4.0,0.0,49.0,9.0,26.0,58.0,0.0,0.0
477968,10.0,36.0,0.0,2.0,9.0,0.0,92.0,163.0,0.0,29.0,0.0,9.0,192.0,0.0,0.0,55.0,8.0,25.0,50.0,4.0,0.0
559895,16.0,56.0,0.0,3.0,22.0,5.0,100.0,109.0,2.0,107.0,0.0,6.0,334.0,4.0,7.0,42.0,4.0,78.0,121.0,11.0,9.0
630978,8.0,17.0,0.0,1.0,16.0,0.0,79.0,93.0,0.0,2.0,0.0,0.0,148.0,1.0,0.0,19.0,5.0,9.0,5.0,0.0,0.0
618636,9.0,23.0,0.0,6.0,26.0,0.0,107.0,135.0,1.0,55.0,0.0,13.0,251.0,0.0,6.0,62.0,5.0,54.0,112.0,19.0,4.0
622296,35.0,49.0,6.0,6.0,60.0,1.0,221.0,186.0,0.0,53.0,1.0,13.0,291.0,7.0,18.0,87.0,52.0,110.0,150.0,24.0,7.0
594989,42.0,72.0,6.0,9.0,78.0,4.0,238.0,216.0,2.0,45.0,2.0,15.0,353.0,7.0,24.0,132.0,79.0,117.0,157.0,25.0,8.0
561428,57.0,94.0,7.0,6.0,104.0,3.0,404.0,231.0,3.0,150.0,2.0,34.0,609.0,13.0,32.0,185.0,88.0,219.0,316.0,39.0,17.0
596294,16.0,30.0,0.0,0.0,4.0,2.0,78.0,94.0,0.0,56.0,0.0,18.0,202.0,1.0,0.0,32.0,9.0,35.0,106.0,0.0,0.0
638188,3.0,16.0,0.0,1.0,11.0,0.0,34.0,109.0,0.0,6.0,0.0,0.0,170.0,0.0,0.0,26.0,1.0,0.0,14.0,0.0,0.0
476243,1.0,19.0,0.0,1.0,1.0,0.0,9.0,96.0,0.0,1.0,0.0,0.0,88.0,0.0,0.0,32.0,0.0,0.0,1.0,0.0,0.0
507843,14.0,34.0,0.0,12.0,15.0,1.0,87.0,224.0,0.0,5.0,0.0,6.0,214.0,0.0,0.0,67.0,8.0,9.0,26.0,6.0,0.0
564772,7.0,22.0,0.0,2.0,16.0,0.0,75.0,97.0,0.0,1.0,0.0,0.0,140.0,1.0,0.0,19.0,7.0,4.0,9.0,0.0,0.0
496265,2.0,19.0,0.0,0.0,10.0,0.0,25.0,93.0,0.0,6.0,0.0,0.0,183.0,0.0,0.0,33.0,1.0,0.0,13.0,0.0,0.0
601928,14.0,39.0,0.0,12.0,15.0,0.0,98.0,221.0,0.0,4.0,0.0,3.0,218.0,3.0,0.0,76.0,8.0,3.0,24.0,0.0,0.0
629165,9.0,28.0,0.0,12.0,19.0,0.0,59.0,153.0,0.0,11.0,0.0,3.0,240.0,0.0,0.0,71.0,2.0,2.0,23.0,0.0,0.0
462302,6.0,16.0,0.0,0.0,8.0,0.0,67.0,85.0,0.0,8.0,0.0,0.0,162.0,0.0,0.0,22.0,8.0,14.0,26.0,0.0,0.0
592664,3.0,9.0,0.0,0.0,2.0,0.0,76.0,35.0,0.0,55.0,0.0,18.0,138.0,0.0,0.0,23.0,9.0,34.0,104.0,0.0,0.0
601833,8.0,30.0,0.0,0.0,2.0,0.0,61.0,97.0,0.0,82.0,0.0,0.0,234.0,0.0,0.0,41.0,9.0,34.0,95.0,0.0,0.0
graph,103.0,243.0,8.0,28.0,149.0,11.0,635.0,807.0,3.0,243.0,2.0,44.0,1425.0,18.0,35.0,338.0,110.0,272.0,466.0,48.0,19.0
