0110010010100010100000100: 546093 466932 520823 530680 543376
0110010010100010100000100: 466932 546093 530680 520823 478130
0110010010100010100000100: 520823 546093 543376 466932 574199
0110010010100010100000100: 574199 607627 543376 640210 520823
0110010010100010100000100: 607627 574199 640210 543376 540036
0110010010100010100000100: 530680 466932 478130 546093 513971
0110010010100010100000100: 543376 520823 574199 546093 607627
0110010010100010100000100: 478130 530680 513971 466932 471923
0110010010100010100000100: 640210 607627 540036 574199 600279
