Vertex,0110101011010010,0110100110010110,0111100110001100,0110100110000100,0110101111000100,0111101111011110,0100101101010110,0101101001001000,0101101101001100,0101101101011110,0111100110011110,0110100010010010,0111100010011010,0110101111010110,0111100010001000,0100101001010010,0111101111001100,0101101001011010,0100101101000100,0111101011011010,0111101011001000
483619,690.0,729.0,634.0,1079.0,926.0,1240.0,20.0,288.0,208.0,53.0,51.0,602.0,395.0,554.0,835.0,165.0,720.0,273.0,70.0,622.0,1888.0
558673,243.0,692.0,257.0,848.0,358.0,155.0,14.0,228.0,58.0,28.0,29.0,454.0,184.0,325.0,820.0,150.0,396.0,253.0,44.0,356.0,781.0
576568,297.0,667.0,311.0,1208.0,418.0,0.0,22.0,354.0,90.0,19.0,15.0,736.0,207.0,160.0,864.0,253.0,162.0,261.0,90.0,158.0,882.0
522635,262.0,529.0,284.0,1280.0,382.0,0.0,10.0,367.0,72.0,17.0,20.0,776.0,187.0,183.0,808.0,297.0,216.0,192.0,72.0,204.0,831.0
475348,83.0,0.0,114.0,348.0,145.0,0.0,0.0,72.0,22.0,2.0,4.0,132.0,57.0,57.0,318.0,12.0,90.0,0.0,8.0,68.0,344.0
476222,142.0,0.0,185.0,507.0,255.0,620.0,0.0,106.0,28.0,0.0,8.0,198.0,130.0,140.0,439.0,30.0,252.0,0.0,0.0,188.0,606.0
462691,454.0,426.0,670.0,1092.0,781.0,1395.0,2.0,237.0,104.0,29.0,52.0,672.0,311.0,377.0,716.0,157.0,540.0,135.0,30.0,491.0,1946.0
570276,601.0,902.0,584.0,1565.0,844.0,1395.0,16.0,446.0,174.0,27.0,35.0,884.0,364.0,371.0,1240.0,292.0,504.0,327.0,84.0,425.0,1768.0
653697,377.0,391.0,622.0,1043.0,698.0,1395.0,6.0,204.0,82.0,28.0,54.0,602.0,311.0,404.0,714.0,135.0,576.0,122.0,22.0,519.0,1792.0
460145,289.0,976.0,280.0,1417.0,415.0,0.0,14.0,415.0,74.0,14.0,9.0,830.0,238.0,166.0,1247.0,240.0,198.0,356.0,108.0,169.0,895.0
511282,452.0,980.0,649.0,1357.0,714.0,155.0,32.0,248.0,116.0,47.0,60.0,723.0,511.0,377.0,1140.0,205.0,414.0,283.0,70.0,435.0,1709.0
591309,196.0,245.0,184.0,958.0,254.0,0.0,12.0,257.0,60.0,13.0,10.0,581.0,171.0,126.0,544.0,208.0,126.0,109.0,56.0,123.0,521.0
647424,391.0,782.0,604.0,1345.0,681.0,930.0,2.0,286.0,94.0,25.0,45.0,766.0,280.0,350.0,1210.0,145.0,504.0,261.0,60.0,455.0,1727.0
642693,84.0,144.0,105.0,552.0,123.0,0.0,0.0,145.0,28.0,0.0,0.0,306.0,30.0,0.0,429.0,80.0,0.0,52.0,34.0,0.0,280.0
512364,160.0,249.0,194.0,783.0,236.0,0.0,12.0,215.0,52.0,0.0,0.0,488.0,107.0,0.0,546.0,181.0,0.0,91.0,50.0,0.0,517.0
639382,103.0,276.0,115.0,742.0,168.0,0.0,4.0,196.0,18.0,2.0,2.0,389.0,95.0,27.0,599.0,104.0,36.0,95.0,20.0,30.0,399.0
597391,95.0,105.0,93.0,679.0,123.0,0.0,12.0,192.0,30.0,0.0,0.0,504.0,75.0,0.0,270.0,203.0,0.0,46.0,36.0,0.0,249.0
503561,59.0,138.0,51.0,398.0,91.0,0.0,0.0,120.0,10.0,0.0,0.0,204.0,36.0,0.0,408.0,45.0,0.0,57.0,20.0,0.0,205.0
584981,96.0,177.0,130.0,626.0,151.0,0.0,0.0,160.0,32.0,0.0,0.0,363.0,40.0,0.0,506.0,120.0,0.0,70.0,46.0,0.0,350.0
562175,82.0,0.0,100.0,535.0,130.0,0.0,4.0,124.0,20.0,0.0,0.0,283.0,83.0,10.0,327.0,89.0,18.0,0.0,14.0,12.0,301.0
482001,77.0,175.0,102.0,578.0,118.0,0.0,0.0,147.0,26.0,0.0,0.0,302.0,30.0,0.0,507.0,60.0,0.0,68.0,42.0,0.0,261.0
524181,191.0,70.0,216.0,884.0,289.0,155.0,2.0,210.0,50.0,8.0,10.0,498.0,114.0,101.0,560.0,144.0,144.0,31.0,22.0,129.0,644.0
535470,64.0,105.0,52.0,486.0,92.0,0.0,0.0,142.0,12.0,0.0,0.0,302.0,34.0,0.0,344.0,101.0,0.0,44.0,16.0,0.0,203.0
580087,0.0,35.0,0.0,205.0,0.0,0.0,0.0,62.0,0.0,0.0,0.0,168.0,0.0,0.0,48.0,52.0,0.0,16.0,8.0,0.0,0.0
517399,12.0,35.0,8.0,260.0,12.0,0.0,0.0,76.0,4.0,0.0,0.0,180.0,2.0,0.0,72.0,43.0,0.0,14.0,12.0,0.0,21.0
646216,48.0,0.0,32.0,297.0,48.0,0.0,0.0,87.0,16.0,0.0,0.0,209.0,8.0,0.0,45.0,53.0,0.0,0.0,6.0,0.0,84.0
graph,1387.0,2207.0,1644.0,5268.0,2113.0,1860.0,46.0,1346.0,370.0,78.0,101.0,3038.0,1000.0,932.0,3889.0,891.0,1224.0,789.0,260.0,1096.0,4801.0
