Vertex,0110010010100010100000100,0110010011100000100001000
579515,13.0,8.0
604976,9.0,5.0
536477,6.0,5.0
631159,8.0,1.0
488063,3.0,1.0
628693,13.0,8.0
510151,6.0,5.0
588101,9.0,5.0
609743,8.0,1.0
456851,3.0,1.0
529490,6.0,0.0
583552,6.0,0.0
graph,18.0,8.0
