0111010110110011100000100: 554368 477775 650959 587819 461991
0111010110110011100000100: 554368 477775 650959 521626 461991
0111010110110011100000100: 554368 477775 587819 650959 585452
0111010110110011100000100: 554368 477775 587819 650959 615652
0111010110110011100000100: 554368 477775 587819 521626 585452
0111010110110011100000100: 554368 477775 587819 521626 615652
0111110110110001100010000: 554368 477775 521626 650959 471911
0111110111110001100011000: 554368 477775 521626 587819 650959
0111010101110001000001000: 554368 650959 477775 471911 461991
0111010100110001000100010: 554368 650959 477775 471911 615652
0110010010100010100000100: 554368 471911 650959 615652 461991
0110010010100010100100110: 554368 587819 650959 585452 461991
0110010011100000100001000: 554368 587819 650959 615652 585452
0110010010100010100000100: 554368 587819 650959 615652 461991
0110010011100000100001000: 554368 587819 521626 615652 585452
0111110110110011100010100: 554368 587819 477775 471911 650959
0111110110110011100010100: 554368 587819 477775 471911 521626
0111010101110001000001000: 554368 587819 471911 650959 585452
0111010100110001000100010: 554368 587819 471911 650959 461991
0111110100110001000010000: 554368 587819 471911 521626 650959
0111010101110001000001000: 554368 587819 471911 521626 585452
0111010100110001000100010: 554368 521626 477775 471911 615652
0110010010100010100100110: 587819 477775 585452 650959 461991
0110010011100000100001000: 587819 477775 585452 521626 650959
0110010010100010100000100: 587819 477775 585452 521626 461991
0110010011100000100001000: 587819 477775 471911 521626 650959
0110010011100000100001000: 587819 477775 615652 521626 650959
0111010110110011100000100: 587819 471911 615652 554368 527381
0111110110110001100010000: 587819 471911 554368 615652 585452
0111010110110011100000100: 587819 471911 554368 615652 650959
0111010110110011100000100: 587819 471911 554368 615652 521626
0110010010100010100000100: 587819 615652 585452 527381 461991
0110010010100010100000100: 587819 615652 477775 527381 650959
0110010010100010100000100: 587819 615652 477775 527381 521626
0111010101110001000001000: 587819 615652 471911 585452 527381
0111010100110001000100010: 587819 615652 471911 585452 461991
0111110100110001000010000: 587819 615652 471911 477775 585452
0111010101110001000001000: 587819 615652 471911 477775 527381
0111010100110001000100010: 587819 615652 471911 477775 650959
0111010100110001000100010: 587819 615652 471911 477775 521626
0110010011100000100001000: 587819 554368 585452 521626 650959
0110010010100010100000100: 587819 554368 585452 521626 461991
0110010010100010100000100: 587819 554368 615652 650959 527381
0110010011100000100001000: 587819 554368 615652 521626 650959
0110010010100010100000100: 587819 554368 615652 521626 527381
0111010100110001000100010: 587819 554368 477775 585452 461991
0111110100110001000010000: 587819 554368 477775 615652 585452
0111010100110001000100010: 587819 554368 477775 615652 527381
0111010100110001000100010: 587819 554368 471911 585452 461991
0111110110110001100010000: 587819 554368 471911 477775 585452
0111110110110011100010100: 587819 554368 471911 477775 615652
0110010011100000100001000: 615652 587819 527381 477775 585452
0110010011100000100001000: 615652 587819 527381 554368 585452
0110010010100010100000100: 471911 554368 615652 477775 527381
0110010010100010100000100: 471911 554368 615652 650959 527381
0110010011100000100001000: 471911 554368 615652 521626 650959
0110010010100010100000100: 471911 554368 615652 521626 527381
0110010011100000100001000: 650959 477775 461991 521626 587819
0110010010100010100000100: 650959 461991 477775 585452 521626
0110010010100010100000100: 650959 554368 461991 471911 585452
0110010011100000100001000: 650959 554368 461991 521626 471911
0110010011100000100001000: 650959 554368 461991 521626 587819
0110010010100010100000100: 650959 554368 461991 521626 585452
0111010100110001000100010: 650959 554368 477775 461991 585452
0110010011100000100001000: 477775 587819 650959 471911 585452
0110010010100010100000100: 477775 587819 650959 471911 461991
0110010011100000100001000: 477775 587819 650959 615652 585452
0110010010100010100000100: 477775 587819 650959 615652 461991
0110010011100000100001000: 477775 587819 521626 471911 585452
0110010011100000100001000: 477775 587819 521626 615652 585452
0110010011100000100001000: 585452 587819 461991 471911 477775
0110010010100010100000100: 585452 587819 461991 471911 650959
0110010011100000100001000: 585452 587819 461991 615652 477775
0110010010100010100000100: 585452 587819 461991 615652 650959
0110010011100000100001000: 585452 587819 461991 554368 615652
