Vertex,0100101101000100,0110100110010110,0110101111000100,0111100110001100,0111100010011010,0101101101001100,0110100010010010,0110100110000100,0101101001011010,0111100010001000,0110101011010010,0100101001010010,0101101001001000,0111101011001000
506867,2.0,0.0,8.0,4.0,4.0,0.0,59.0,129.0,0.0,79.0,4.0,7.0,34.0,20.0
614091,2.0,0.0,0.0,0.0,0.0,0.0,33.0,69.0,0.0,15.0,0.0,10.0,14.0,0.0
501640,0.0,0.0,0.0,0.0,0.0,0.0,32.0,48.0,0.0,0.0,0.0,14.0,8.0,0.0
563852,4.0,105.0,57.0,40.0,36.0,6.0,92.0,196.0,18.0,135.0,31.0,8.0,56.0,134.0
656911,2.0,0.0,0.0,0.0,0.0,0.0,18.0,42.0,0.0,15.0,0.0,0.0,12.0,0.0
568600,2.0,70.0,8.0,4.0,4.0,0.0,41.0,114.0,12.0,123.0,4.0,0.0,22.0,20.0
496553,0.0,0.0,38.0,28.0,21.0,4.0,51.0,116.0,0.0,40.0,20.0,7.0,22.0,91.0
501809,0.0,0.0,27.0,16.0,19.0,2.0,22.0,60.0,0.0,40.0,15.0,0.0,12.0,63.0
570532,0.0,70.0,38.0,28.0,21.0,4.0,32.0,89.0,12.0,75.0,20.0,0.0,12.0,91.0
468825,0.0,70.0,27.0,16.0,19.0,2.0,26.0,79.0,12.0,75.0,15.0,0.0,12.0,63.0
614472,0.0,0.0,9.0,8.0,2.0,2.0,36.0,71.0,0.0,0.0,5.0,10.0,12.0,21.0
585489,2.0,0.0,0.0,0.0,0.0,0.0,19.0,53.0,0.0,24.0,0.0,0.0,10.0,0.0
550425,2.0,105.0,16.0,16.0,18.0,4.0,35.0,114.0,18.0,59.0,10.0,0.0,14.0,33.0
graph,4.0,105.0,57.0,40.0,36.0,6.0,124.0,295.0,18.0,170.0,31.0,14.0,60.0,134.0
