0111101011001000: 475196 628953 584633 536746
0111101011001000: 475196 584633 628953 536746
0101101001001000: 475196 536746 509259 628953
0101101001001000: 475196 536746 509259 584633
0110100010010010: 475196 628953 536746 509259
0110100010010010: 475196 628953 536746 509259
0111100110001100: 475196 628953 536746 584633
0111101011001000: 475196 628953 584633 536746
0110101011010010: 475196 628953 584633 463035
0110101011010010: 475196 628953 584633 463035
0111101011001000: 475196 628953 584633 536746
0111101011001000: 475196 628953 584633 536746
0111101011001000: 475196 628953 584633 536746
0110100110000100: 475196 584633 536746 463035
0110100010010010: 475196 584633 536746 509259
0110100010010010: 475196 584633 536746 509259
0110100110000100: 475196 584633 536746 463035
0110100110000100: 475196 584633 536746 463035
0111100110001100: 475196 584633 536746 628953
0110100010010010: 475196 584633 536746 509259
0111101011001000: 475196 584633 628953 536746
0110100010010010: 475196 584633 536746 509259
0111101011001000: 475196 584633 628953 536746
0111101011001000: 475196 584633 628953 536746
0110101111000100: 475196 584633 628953 463035
0110101111000100: 475196 584633 628953 463035
0111101011001000: 475196 584633 628953 536746
0110100110000100: 475196 584633 536746 463035
0110100110000100: 475196 584633 536746 463035
0111100110001100: 475196 584633 536746 628953
0111100110001100: 475196 584633 536746 628953
0111100110001100: 475196 584633 536746 628953
0110100010010010: 475196 584633 536746 509259
0110100010010010: 475196 584633 536746 509259
0111101011001000: 475196 584633 628953 536746
0111101011001000: 475196 584633 628953 536746
0111101011001000: 475196 584633 628953 536746
0110100110000100: 475196 536746 628953 509259
0111100010011010: 475196 536746 628953 584633
0110100110000100: 475196 536746 584633 509259
0110100010010010: 475196 536746 584633 463035
0111100010011010: 475196 536746 584633 628953
0110100110000100: 475196 536746 628953 509259
0110100110000100: 475196 536746 628953 509259
0110100110000100: 475196 536746 628953 509259
0110100110000100: 475196 536746 584633 509259
0110100110000100: 475196 536746 584633 509259
0110100110000100: 475196 536746 584633 509259
0101101001001000: 475196 536746 509259 628953
0101101001001000: 475196 536746 509259 584633
0100101001010010: 475196 536746 509259 636676
0100101001010010: 475196 536746 509259 636676
0100101001010010: 475196 536746 509259 636676
0110100110000100: 536746 509259 475196 636676
0110100010010010: 536746 509259 475196 628953
0110100010010010: 536746 509259 475196 584633
0110100110000100: 536746 509259 475196 636676
0110100110000100: 536746 509259 475196 636676
0110100110000100: 536746 509259 475196 636676
0110100110000100: 536746 509259 475196 636676
0110100110000100: 536746 509259 475196 636676
0110100010010010: 536746 475196 509259 636676
0110100110000100: 536746 475196 509259 628953
0110100110000100: 536746 475196 509259 584633
0110100010010010: 536746 475196 509259 636676
0110100110000100: 536746 475196 509259 628953
0110100110000100: 536746 475196 509259 584633
0110100110000100: 536746 475196 509259 628953
0110100110000100: 536746 475196 509259 584633
0110100010010010: 536746 475196 509259 636676
0110100110000100: 590171 651287 587612 514820
0110100010010010: 590171 651287 587612 636676
0110100110000100: 590171 651287 587612 514820
0110100110000100: 590171 651287 587612 514820
0110100110000100: 590171 651287 587612 514820
0110100110000100: 590171 651287 587612 514820
0110100110000100: 590171 651287 587612 514820
0110100110000100: 590171 587612 651287 636676
0110100010010010: 590171 587612 651287 514820
0110100110000100: 590171 587612 651287 636676
0110100110000100: 590171 587612 651287 636676
0110100110000100: 590171 587612 651287 636676
0110100110000100: 590171 587612 651287 636676
0110100110000100: 590171 587612 651287 636676
0110100110000100: 587612 636676 590171 509259
0110100010010010: 587612 636676 590171 651287
0110100110000100: 587612 636676 590171 509259
0110100110000100: 587612 636676 590171 509259
0110100110000100: 587612 636676 590171 509259
0110100110000100: 587612 636676 590171 509259
0110100110000100: 587612 636676 590171 509259
0110100010010010: 587612 590171 636676 509259
0110100110000100: 587612 590171 636676 651287
0110100110000100: 587612 590171 636676 651287
0110100110000100: 587612 590171 636676 651287
0110100110000100: 587612 590171 636676 651287
0111101011001000: 584633 628953 475196 463035
0111101011001000: 584633 475196 628953 463035
0111100110001100: 584633 628953 463035 475196
0111101011001000: 584633 628953 475196 463035
0110101011010010: 584633 628953 475196 536746
0110101011010010: 584633 628953 475196 536746
0111101011001000: 584633 628953 475196 463035
0111101011001000: 584633 628953 475196 463035
0111101011001000: 584633 628953 475196 463035
0111100010011010: 584633 463035 628953 475196
0110100010010010: 584633 463035 475196 536746
0111100010011010: 584633 463035 475196 628953
0110100110000100: 584633 475196 463035 536746
0111100110001100: 584633 475196 463035 628953
0111101011001000: 584633 475196 628953 463035
0111101011001000: 584633 475196 628953 463035
0111101011001000: 584633 475196 628953 463035
0110101111000100: 584633 475196 628953 536746
0110101111000100: 584633 475196 628953 536746
0111101011001000: 584633 475196 628953 463035
0110100110000100: 584633 475196 463035 536746
0110100110000100: 584633 475196 463035 536746
0111100110001100: 584633 475196 463035 628953
0111100110001100: 584633 475196 463035 628953
0111100110001100: 584633 475196 463035 628953
0111101011001000: 584633 475196 628953 463035
0111101011001000: 584633 475196 628953 463035
0111101011001000: 584633 475196 628953 463035
0110100110000100: 509259 636676 536746 587612
0110100010010010: 509259 636676 536746 475196
0110100110000100: 509259 636676 536746 587612
0110100110000100: 509259 636676 536746 587612
0110100110000100: 509259 636676 536746 587612
0110100110000100: 509259 636676 536746 587612
0110100110000100: 509259 636676 536746 587612
0110100010010010: 509259 536746 636676 587612
0110100110000100: 509259 536746 636676 475196
0110100110000100: 509259 536746 636676 475196
0110100110000100: 509259 536746 636676 475196
0110100110000100: 509259 536746 636676 475196
0110101111000100: 628953 584633 475196 463035
0110101111000100: 628953 584633 475196 463035
0110101111000100: 628953 584633 475196 463035
0110101111000100: 628953 475196 584633 536746
0110101111000100: 628953 475196 584633 536746
0110101111000100: 628953 475196 584633 536746
0110100010010010: 636676 509259 587612 590171
0110100110000100: 636676 509259 587612 536746
0110100110000100: 636676 509259 587612 536746
0110100110000100: 636676 509259 587612 536746
0110100110000100: 636676 509259 587612 536746
0110100010010010: 636676 587612 509259 536746
0110100110000100: 636676 587612 509259 590171
0110100110000100: 636676 587612 509259 590171
0110100110000100: 636676 587612 509259 590171
0110100110000100: 636676 587612 509259 590171
0110100110000100: 651287 514820 590171 465616
0110100010010010: 651287 514820 590171 587612
0110100110000100: 651287 514820 590171 465616
0110100110000100: 651287 514820 590171 465616
0110100110000100: 651287 514820 590171 465616
0110100110000100: 651287 514820 590171 465616
0110100110000100: 651287 514820 590171 465616
0110100010010010: 651287 590171 514820 465616
0110100110000100: 651287 590171 514820 587612
0110100110000100: 651287 590171 514820 587612
0110100110000100: 651287 590171 514820 587612
0110100110000100: 651287 590171 514820 587612
0110100010010010: 514820 465616 651287 590171
0110100110000100: 514820 651287 465616 590171
0110100110000100: 514820 651287 465616 590171
0110100110000100: 514820 651287 465616 590171
