Vertex,0111100010001000,0110100010010010,0100101001010010,0110100110000100,0101101001001000,0100101101000100
595887,71.0,95.0,24.0,185.0,42.0,4.0
488451,63.0,76.0,13.0,142.0,28.0,2.0
579166,24.0,35.0,10.0,71.0,10.0,2.0
521242,24.0,34.0,6.0,76.0,16.0,0.0
540578,39.0,58.0,14.0,108.0,28.0,2.0
608788,24.0,34.0,6.0,76.0,16.0,0.0
507441,39.0,58.0,15.0,110.0,16.0,2.0
528343,0.0,33.0,10.0,55.0,10.0,0.0
459469,15.0,22.0,4.0,42.0,12.0,2.0
475852,15.0,38.0,10.0,66.0,16.0,2.0
652573,0.0,29.0,6.0,55.0,10.0,0.0
589590,15.0,27.0,9.0,58.0,6.0,0.0
507939,15.0,35.0,13.0,62.0,10.0,0.0
654772,0.0,10.0,4.0,14.0,4.0,0.0
graph,86.0,146.0,36.0,280.0,56.0,4.0
