Vertex,0111110100110001000110010,0111110111110001100011000,0111110110110011100110110,0111110110110101110010000,0111010110110011100100110,0111110110110011100010100,0111110100110001000010000,0111010100110001000100010,0111110000100001000010000,0110010011100110110001100,0110010010100010100100110,0111110111110101110011000,0111010101110001000001000,0110010011100100110001000,0110010011100000100001000,0110010010100010100000100,0111010110110011100000100,0111110110110001100010000,0111010101110001000101010
561830,7.0,3.0,3.0,0.0,7.0,17.0,91.0,76.0,41.0,7.0,2.0,1.0,172.0,120.0,442.0,287.0,48.0,55.0,38.0
575432,0.0,0.0,0.0,2.0,4.0,0.0,97.0,43.0,89.0,5.0,5.0,0.0,89.0,95.0,377.0,196.0,5.0,43.0,28.0
540757,0.0,0.0,0.0,0.0,0.0,0.0,3.0,19.0,4.0,0.0,0.0,0.0,26.0,18.0,96.0,113.0,5.0,3.0,1.0
493173,7.0,0.0,0.0,1.0,0.0,3.0,56.0,57.0,33.0,1.0,4.0,0.0,58.0,35.0,260.0,141.0,12.0,22.0,12.0
604462,4.0,0.0,0.0,0.0,1.0,6.0,56.0,49.0,31.0,1.0,2.0,0.0,88.0,50.0,322.0,144.0,20.0,16.0,16.0
561428,45.0,24.0,12.0,16.0,15.0,78.0,327.0,202.0,166.0,7.0,2.0,11.0,408.0,167.0,783.0,245.0,158.0,282.0,74.0
631889,29.0,6.0,2.0,11.0,2.0,24.0,131.0,110.0,51.0,3.0,2.0,6.0,128.0,47.0,332.0,208.0,46.0,95.0,26.0
588432,20.0,19.0,9.0,0.0,11.0,50.0,170.0,122.0,101.0,12.0,7.0,2.0,223.0,182.0,629.0,277.0,89.0,146.0,44.0
536600,11.0,10.0,7.0,0.0,8.0,27.0,148.0,79.0,115.0,10.0,5.0,2.0,181.0,163.0,585.0,267.0,60.0,113.0,30.0
501829,26.0,17.0,7.0,10.0,15.0,60.0,221.0,191.0,112.0,8.0,17.0,7.0,312.0,189.0,727.0,339.0,113.0,170.0,58.0
572003,0.0,0.0,0.0,0.0,0.0,0.0,8.0,19.0,8.0,0.0,0.0,0.0,34.0,21.0,159.0,96.0,11.0,4.0,1.0
586238,11.0,0.0,0.0,1.0,0.0,5.0,88.0,37.0,68.0,0.0,0.0,1.0,102.0,23.0,232.0,102.0,13.0,55.0,6.0
523495,8.0,2.0,0.0,1.0,2.0,9.0,58.0,73.0,26.0,0.0,10.0,1.0,107.0,41.0,274.0,189.0,25.0,33.0,18.0
549994,17.0,4.0,0.0,11.0,0.0,13.0,131.0,65.0,89.0,0.0,4.0,6.0,130.0,29.0,343.0,125.0,17.0,70.0,15.0
585748,3.0,6.0,0.0,2.0,2.0,13.0,110.0,45.0,92.0,2.0,0.0,0.0,107.0,72.0,415.0,179.0,17.0,49.0,20.0
626072,2.0,0.0,0.0,0.0,0.0,5.0,27.0,44.0,13.0,0.0,0.0,0.0,56.0,16.0,193.0,69.0,20.0,10.0,2.0
634942,10.0,10.0,7.0,7.0,2.0,20.0,92.0,95.0,64.0,5.0,2.0,5.0,68.0,100.0,375.0,134.0,52.0,82.0,18.0
654153,9.0,8.0,2.0,1.0,0.0,20.0,98.0,72.0,76.0,1.0,2.0,1.0,78.0,41.0,353.0,121.0,32.0,63.0,10.0
581357,18.0,10.0,5.0,1.0,11.0,27.0,153.0,143.0,107.0,9.0,13.0,1.0,215.0,191.0,717.0,341.0,70.0,104.0,48.0
588815,0.0,0.0,0.0,0.0,0.0,0.0,8.0,25.0,8.0,1.0,0.0,0.0,48.0,30.0,188.0,110.0,12.0,5.0,5.0
577028,7.0,7.0,2.0,6.0,1.0,24.0,126.0,82.0,90.0,1.0,5.0,6.0,80.0,50.0,357.0,105.0,29.0,74.0,16.0
580237,15.0,0.0,0.0,1.0,5.0,1.0,83.0,68.0,48.0,2.0,3.0,0.0,111.0,67.0,302.0,148.0,24.0,33.0,16.0
550453,19.0,0.0,0.0,1.0,7.0,1.0,92.0,108.0,37.0,3.0,3.0,0.0,123.0,87.0,331.0,173.0,24.0,33.0,26.0
469276,18.0,4.0,4.0,7.0,2.0,21.0,104.0,107.0,47.0,2.0,13.0,5.0,114.0,77.0,347.0,249.0,46.0,79.0,30.0
636963,0.0,0.0,0.0,1.0,0.0,0.0,26.0,24.0,25.0,0.0,4.0,0.0,60.0,26.0,238.0,117.0,16.0,5.0,5.0
591953,4.0,0.0,0.0,0.0,0.0,1.0,25.0,50.0,19.0,0.0,0.0,0.0,48.0,14.0,192.0,81.0,10.0,11.0,5.0
610754,0.0,0.0,0.0,0.0,0.0,0.0,1.0,35.0,0.0,0.0,0.0,0.0,19.0,14.0,106.0,104.0,6.0,0.0,2.0
graph,58.0,26.0,12.0,16.0,19.0,85.0,506.0,408.0,312.0,16.0,21.0,11.0,637.0,393.0,1935.0,932.0,196.0,331.0,114.0
