Vertex,0110101011010010,0111100010011010,0111101011011010,0110101111010110,0100101001010010,0110101111000100,0111101011001000,0110100110000100,0110100110010110,0111101111001100,0111100110001100,0111100110011110,0101101001011010,0110100010010010,0100101101000100,0101101001001000,0101101101001100,0111100010001000
535063,0.0,0.0,0.0,0.0,25.0,0.0,0.0,67.0,0.0,0.0,0.0,0.0,0.0,52.0,2.0,17.0,0.0,15.0
503773,0.0,0.0,0.0,0.0,47.0,0.0,0.0,163.0,0.0,0.0,0.0,0.0,0.0,114.0,6.0,38.0,0.0,69.0
511004,0.0,0.0,0.0,0.0,18.0,0.0,0.0,94.0,0.0,0.0,0.0,0.0,0.0,69.0,4.0,24.0,0.0,24.0
619984,0.0,0.0,0.0,0.0,28.0,0.0,0.0,135.0,0.0,0.0,0.0,0.0,0.0,94.0,10.0,40.0,0.0,69.0
511974,6.0,6.0,0.0,0.0,62.0,16.0,47.0,357.0,0.0,0.0,18.0,0.0,0.0,238.0,12.0,76.0,0.0,194.0
587857,2.0,2.0,0.0,0.0,28.0,6.0,21.0,258.0,70.0,0.0,8.0,0.0,18.0,125.0,4.0,56.0,0.0,161.0
474307,6.0,24.0,0.0,0.0,84.0,17.0,56.0,500.0,177.0,0.0,26.0,0.0,42.0,267.0,24.0,112.0,0.0,362.0
553787,18.0,40.0,22.0,10.0,66.0,52.0,172.0,500.0,144.0,18.0,70.0,4.0,35.0,271.0,20.0,93.0,0.0,346.0
570020,2.0,2.0,0.0,0.0,78.0,6.0,21.0,434.0,70.0,0.0,8.0,0.0,23.0,271.0,20.0,91.0,0.0,279.0
485076,28.0,48.0,56.0,30.0,28.0,80.0,260.0,324.0,74.0,54.0,105.0,8.0,17.0,178.0,6.0,58.0,0.0,173.0
530250,2.0,2.0,0.0,0.0,72.0,6.0,21.0,383.0,70.0,0.0,8.0,0.0,18.0,222.0,14.0,93.0,0.0,239.0
596651,40.0,62.0,56.0,30.0,15.0,92.0,284.0,386.0,111.0,54.0,116.0,8.0,18.0,197.0,0.0,38.0,4.0,248.0
501716,6.0,6.0,0.0,0.0,47.0,17.0,55.0,285.0,107.0,0.0,21.0,0.0,29.0,148.0,10.0,67.0,0.0,212.0
478787,0.0,0.0,0.0,0.0,49.0,0.0,0.0,279.0,33.0,0.0,0.0,0.0,12.0,157.0,8.0,60.0,0.0,173.0
623075,12.0,8.0,0.0,0.0,48.0,12.0,21.0,217.0,0.0,0.0,10.0,0.0,0.0,153.0,10.0,56.0,4.0,78.0
497906,12.0,20.0,18.0,10.0,4.0,31.0,87.0,102.0,0.0,18.0,34.0,2.0,0.0,32.0,0.0,14.0,0.0,53.0
569986,34.0,58.0,56.0,30.0,39.0,70.0,190.0,348.0,0.0,54.0,79.0,8.0,0.0,169.0,6.0,41.0,4.0,160.0
519334,24.0,34.0,16.0,10.0,28.0,43.0,109.0,219.0,0.0,18.0,45.0,2.0,0.0,110.0,2.0,27.0,4.0,95.0
484743,0.0,0.0,0.0,0.0,44.0,0.0,0.0,154.0,0.0,0.0,0.0,0.0,0.0,106.0,4.0,42.0,0.0,50.0
582581,0.0,0.0,0.0,0.0,27.0,0.0,0.0,130.0,0.0,0.0,0.0,0.0,0.0,77.0,4.0,29.0,0.0,69.0
640783,0.0,0.0,0.0,0.0,35.0,0.0,0.0,97.0,0.0,0.0,0.0,0.0,0.0,62.0,2.0,24.0,0.0,39.0
graph,48.0,78.0,56.0,30.0,218.0,112.0,336.0,1358.0,214.0,54.0,137.0,8.0,53.0,778.0,42.0,274.0,4.0,777.0
