Vertex,0110101111000100,0110100110000100,0101101101011110,0111100110001100,0111101011001000,0111100010011010,0110100010010010,0110101111010110,0101101001011010,0110101011010010,0101101101001100,0111101011011010,0100101001010010,0111100010001000,0100101101010110,0111101111011110,0111100110011110,0101101001001000,0110100110010110,0100101101000100,0111101111001100
509879,664.0,1395.0,20.0,514.0,1590.0,300.0,682.0,327.0,79.0,367.0,58.0,376.0,141.0,1463.0,4.0,155.0,30.0,314.0,249.0,20.0,450.0
628369,181.0,663.0,3.0,127.0,424.0,70.0,353.0,74.0,80.0,106.0,16.0,82.0,72.0,678.0,0.0,0.0,3.0,202.0,175.0,16.0,108.0
561428,725.0,1600.0,21.0,557.0,1688.0,332.0,752.0,314.0,170.0,428.0,80.0,346.0,71.0,1565.0,6.0,0.0,26.0,372.0,494.0,28.0,414.0
465992,87.0,232.0,2.0,55.0,218.0,40.0,98.0,17.0,0.0,43.0,2.0,17.0,9.0,330.0,0.0,0.0,2.0,56.0,0.0,2.0,18.0
505641,86.0,278.0,2.0,56.0,210.0,38.0,104.0,27.0,0.0,44.0,4.0,31.0,10.0,415.0,0.0,0.0,3.0,58.0,0.0,6.0,36.0
492792,246.0,794.0,7.0,176.0,565.0,150.0,386.0,118.0,30.0,144.0,32.0,145.0,112.0,567.0,8.0,155.0,16.0,156.0,142.0,16.0,162.0
582003,77.0,450.0,0.0,59.0,178.0,40.0,220.0,0.0,18.0,48.0,8.0,0.0,26.0,414.0,0.0,0.0,0.0,108.0,109.0,2.0,0.0
503290,60.0,452.0,0.0,44.0,149.0,26.0,256.0,0.0,26.0,29.0,2.0,0.0,76.0,488.0,0.0,0.0,0.0,111.0,70.0,14.0,0.0
472887,140.0,311.0,2.0,91.0,326.0,100.0,122.0,37.0,0.0,80.0,12.0,45.0,12.0,322.0,6.0,155.0,4.0,56.0,0.0,0.0,54.0
641777,149.0,482.0,3.0,95.0,344.0,74.0,262.0,34.0,16.0,89.0,14.0,34.0,78.0,340.0,0.0,0.0,3.0,128.0,35.0,12.0,36.0
524457,49.0,377.0,0.0,37.0,98.0,10.0,169.0,0.0,32.0,39.0,14.0,0.0,19.0,185.0,0.0,0.0,0.0,94.0,70.0,14.0,0.0
647959,243.0,542.0,8.0,166.0,560.0,143.0,252.0,145.0,33.0,144.0,24.0,162.0,60.0,587.0,10.0,155.0,11.0,149.0,142.0,0.0,198.0
567408,210.0,887.0,4.0,150.0,498.0,93.0,444.0,114.0,94.0,118.0,20.0,142.0,87.0,881.0,2.0,0.0,10.0,229.0,245.0,26.0,180.0
600621,170.0,497.0,2.0,120.0,415.0,78.0,257.0,57.0,16.0,93.0,10.0,65.0,44.0,567.0,2.0,0.0,2.0,150.0,35.0,2.0,90.0
632383,54.0,524.0,0.0,39.0,105.0,12.0,259.0,0.0,64.0,44.0,16.0,0.0,62.0,249.0,0.0,0.0,0.0,156.0,140.0,24.0,0.0
530043,239.0,896.0,4.0,184.0,567.0,109.0,427.0,124.0,89.0,131.0,26.0,159.0,68.0,944.0,0.0,0.0,12.0,187.0,282.0,16.0,198.0
646377,289.0,730.0,5.0,206.0,639.0,175.0,363.0,71.0,47.0,182.0,44.0,82.0,95.0,430.0,14.0,0.0,8.0,175.0,142.0,8.0,90.0
560630,37.0,514.0,0.0,29.0,74.0,8.0,273.0,0.0,27.0,27.0,10.0,0.0,67.0,256.0,0.0,0.0,0.0,127.0,70.0,20.0,0.0
605342,93.0,579.0,0.0,68.0,187.0,54.0,321.0,0.0,31.0,67.0,22.0,0.0,118.0,219.0,6.0,0.0,0.0,161.0,70.0,18.0,0.0
456762,62.0,480.0,0.0,46.0,122.0,16.0,280.0,0.0,16.0,44.0,16.0,0.0,100.0,188.0,0.0,0.0,0.0,135.0,35.0,12.0,0.0
615138,118.0,375.0,0.0,80.0,278.0,62.0,172.0,0.0,12.0,67.0,10.0,0.0,27.0,367.0,0.0,0.0,0.0,92.0,72.0,2.0,0.0
558436,96.0,373.0,1.0,66.0,230.0,54.0,178.0,17.0,12.0,53.0,6.0,16.0,28.0,366.0,0.0,0.0,1.0,90.0,72.0,4.0,18.0
611942,84.0,359.0,0.0,60.0,166.0,52.0,200.0,0.0,16.0,62.0,20.0,0.0,57.0,68.0,6.0,0.0,0.0,104.0,35.0,4.0,0.0
644571,87.0,260.0,0.0,59.0,216.0,46.0,99.0,20.0,0.0,44.0,4.0,26.0,14.0,385.0,0.0,0.0,1.0,56.0,0.0,0.0,36.0
643151,118.0,666.0,0.0,80.0,277.0,62.0,371.0,0.0,64.0,67.0,10.0,0.0,131.0,490.0,0.0,0.0,0.0,186.0,140.0,22.0,0.0
graph,1091.0,3679.0,21.0,791.0,2531.0,536.0,1825.0,374.0,243.0,640.0,120.0,432.0,396.0,3191.0,16.0,155.0,33.0,913.0,706.0,72.0,522.0
