Vertex,0110100110000100,0100101001010010,0101101001011010,0110100010010010,0110100110010110,0101101001001000,0111100010001000
519852,19.0,0.0,0.0,4.0,0.0,0.0,0.0
556880,29.0,0.0,0.0,6.0,0.0,0.0,0.0
491410,9.0,0.0,0.0,2.0,0.0,0.0,0.0
586148,39.0,0.0,0.0,8.0,0.0,0.0,0.0
626172,40.0,3.0,0.0,10.0,0.0,0.0,0.0
535287,44.0,3.0,0.0,14.0,0.0,4.0,0.0
476671,48.0,3.0,0.0,18.0,0.0,8.0,8.0
537250,38.0,3.0,6.0,16.0,35.0,8.0,8.0
637134,14.0,0.0,6.0,6.0,35.0,4.0,0.0
571229,14.0,0.0,6.0,6.0,35.0,4.0,8.0
636728,14.0,0.0,6.0,6.0,35.0,4.0,8.0
graph,77.0,3.0,6.0,24.0,35.0,8.0,8.0
