Vertex,0111110110110011100010100,0111010110110011100000100,0111010100110001000100010,0111110111110001100011000,0110010010100010100000100,0111110110110001100010000,0110010011100110110001100,0111110100110001000110010,0111010110110011100100110,0111110000100001000010000,0110010011100100110001000,0111110100110001000010000,0111110110110011100110110,0111010101110001000101010,0110010011100000100001000,0110010010100010100100110,0111010101110001000001000
512716,11.0,36.0,43.0,5.0,161.0,52.0,1.0,2.0,3.0,84.0,47.0,53.0,1.0,7.0,391.0,4.0,65.0
631152,4.0,11.0,18.0,3.0,66.0,16.0,0.0,0.0,1.0,27.0,31.0,23.0,0.0,3.0,209.0,0.0,30.0
515153,15.0,46.0,78.0,5.0,158.0,70.0,0.0,8.0,4.0,53.0,47.0,113.0,1.0,16.0,307.0,5.0,157.0
461858,0.0,3.0,11.0,0.0,81.0,6.0,0.0,0.0,1.0,10.0,17.0,5.0,0.0,3.0,137.0,1.0,26.0
500336,0.0,5.0,13.0,0.0,80.0,6.0,0.0,0.0,1.0,78.0,41.0,36.0,0.0,2.0,209.0,1.0,22.0
620321,0.0,4.0,8.0,0.0,53.0,6.0,0.0,0.0,0.0,10.0,5.0,4.0,0.0,0.0,113.0,2.0,22.0
589057,6.0,15.0,30.0,3.0,98.0,18.0,0.0,3.0,1.0,20.0,13.0,25.0,0.0,1.0,184.0,1.0,46.0
601934,0.0,3.0,5.0,0.0,58.0,1.0,0.0,0.0,0.0,0.0,1.0,0.0,0.0,0.0,30.0,0.0,13.0
648772,3.0,3.0,26.0,0.0,117.0,12.0,0.0,3.0,1.0,13.0,27.0,27.0,0.0,7.0,164.0,3.0,44.0
530614,6.0,20.0,19.0,3.0,80.0,21.0,1.0,1.0,2.0,22.0,39.0,21.0,1.0,7.0,193.0,2.0,42.0
636063,12.0,38.0,77.0,4.0,245.0,61.0,1.0,7.0,3.0,183.0,90.0,136.0,1.0,18.0,727.0,7.0,119.0
635003,0.0,0.0,5.0,0.0,26.0,0.0,0.0,0.0,0.0,0.0,2.0,0.0,0.0,0.0,18.0,0.0,0.0
521449,0.0,2.0,13.0,0.0,59.0,0.0,0.0,0.0,0.0,0.0,0.0,0.0,0.0,0.0,60.0,2.0,12.0
470218,1.0,5.0,20.0,0.0,58.0,13.0,1.0,3.0,2.0,60.0,28.0,45.0,0.0,6.0,158.0,2.0,37.0
632737,10.0,17.0,32.0,1.0,61.0,39.0,1.0,3.0,1.0,60.0,18.0,63.0,1.0,6.0,172.0,2.0,47.0
614480,0.0,2.0,15.0,0.0,103.0,13.0,0.0,0.0,0.0,20.0,13.0,24.0,0.0,5.0,158.0,5.0,48.0
497600,5.0,4.0,17.0,1.0,64.0,26.0,0.0,3.0,0.0,80.0,6.0,60.0,0.0,4.0,215.0,2.0,61.0
635660,2.0,7.0,43.0,0.0,82.0,17.0,0.0,5.0,0.0,41.0,14.0,56.0,0.0,8.0,169.0,4.0,30.0
467401,5.0,11.0,35.0,0.0,47.0,20.0,0.0,2.0,0.0,45.0,6.0,50.0,0.0,3.0,145.0,2.0,27.0
622900,0.0,4.0,7.0,0.0,45.0,6.0,0.0,0.0,0.0,78.0,19.0,36.0,0.0,0.0,184.0,1.0,18.0
623847,0.0,4.0,13.0,0.0,69.0,6.0,0.0,0.0,0.0,78.0,9.0,36.0,0.0,0.0,237.0,0.0,18.0
648990,0.0,5.0,13.0,0.0,105.0,6.0,0.0,0.0,0.0,78.0,21.0,37.0,0.0,4.0,259.0,7.0,21.0
611896,0.0,0.0,13.0,0.0,94.0,0.0,0.0,0.0,0.0,0.0,13.0,0.0,0.0,0.0,79.0,2.0,0.0
569579,0.0,0.0,6.0,0.0,20.0,0.0,0.0,0.0,0.0,0.0,0.0,0.0,0.0,0.0,50.0,0.0,0.0
596921,0.0,0.0,8.0,0.0,47.0,0.0,0.0,0.0,0.0,0.0,0.0,0.0,0.0,0.0,51.0,0.0,0.0
498605,0.0,0.0,17.0,0.0,113.0,0.0,0.0,0.0,0.0,0.0,3.0,0.0,0.0,0.0,96.0,5.0,0.0
graph,16.0,49.0,117.0,5.0,438.0,83.0,1.0,8.0,4.0,208.0,102.0,170.0,1.0,20.0,943.0,12.0,181.0
