Vertex,0111110000100001000010000,0111010100110001000100010,0111010101110001000001000,0111110100110001000010000,0110010011100110110001100,0110010011100100110001000,0110010010100010100000100,0110010011100000100001000,0110010010100010100100110,0111010101110001000101010
536600,29.0,11.0,7.0,11.0,2.0,48.0,126.0,208.0,6.0,3.0
545745,16.0,2.0,2.0,4.0,0.0,6.0,68.0,104.0,4.0,0.0
587763,10.0,11.0,7.0,11.0,0.0,4.0,22.0,59.0,0.0,3.0
636634,0.0,2.0,0.0,0.0,0.0,2.0,71.0,51.0,4.0,0.0
539748,1.0,1.0,0.0,0.0,0.0,1.0,46.0,46.0,2.0,0.0
610842,17.0,2.0,2.0,4.0,0.0,16.0,64.0,99.0,2.0,0.0
519052,17.0,1.0,1.0,4.0,1.0,19.0,56.0,98.0,3.0,1.0
464589,11.0,11.0,7.0,11.0,2.0,27.0,56.0,76.0,2.0,3.0
642074,23.0,2.0,0.0,4.0,2.0,48.0,93.0,155.0,5.0,2.0
583471,16.0,2.0,2.0,4.0,0.0,14.0,51.0,82.0,0.0,0.0
475062,5.0,2.0,0.0,0.0,0.0,16.0,83.0,90.0,5.0,0.0
654883,0.0,1.0,0.0,0.0,0.0,1.0,47.0,35.0,0.0,0.0
616844,1.0,1.0,0.0,0.0,0.0,3.0,43.0,45.0,3.0,0.0
496371,5.0,1.0,3.0,1.0,2.0,29.0,82.0,92.0,3.0,2.0
516863,4.0,1.0,4.0,1.0,1.0,17.0,58.0,76.0,4.0,1.0
593035,4.0,2.0,0.0,0.0,0.0,14.0,34.0,63.0,0.0,0.0
560177,0.0,1.0,0.0,0.0,0.0,1.0,21.0,20.0,0.0,0.0
576298,0.0,0.0,0.0,0.0,0.0,0.0,7.0,1.0,0.0,0.0
521154,1.0,1.0,0.0,0.0,0.0,4.0,72.0,40.0,2.0,0.0
graph,32.0,11.0,7.0,11.0,2.0,54.0,220.0,288.0,9.0,3.0
