0110010010100010100000100: 564950 622306 467962 596859 506290
0110010011100000100001000: 564950 622306 467962 481582 596859
0110010010100010100000100: 564950 622306 467962 481582 506290
0110010011100000100001000: 564950 622306 464197 481582 596859
0110010011100100110001000: 564950 622306 457587 596859 481582
0111010101110001000001000: 564950 622306 529896 467962 596859
0111010101110001000001000: 564950 622306 529896 467962 481582
0111010100110001000100010: 564950 622306 529896 467962 506290
0111110100110001000010000: 564950 622306 529896 464197 467962
0111010101110001000001000: 564950 622306 529896 464197 596859
0111010101110001000001000: 564950 622306 529896 464197 481582
0111010100110001000100010: 564950 622306 529896 464197 525559
0111110100110001000010000: 564950 622306 529896 457587 467962
0111110100110001000010000: 564950 622306 529896 457587 464197
0111010101110001000001000: 564950 622306 529896 457587 481582
0111010100110001000100010: 564950 622306 529896 457587 557464
0111010101110001000101010: 564950 622306 529896 457587 596859
0110010010100010100000100: 564950 464197 467962 525559 506290
0110010010100010100000100: 564950 464197 622306 525559 596859
0110010010100010100100110: 564950 464197 622306 525559 481582
0110010010100010100000100: 564950 457587 467962 596859 506290
0110010011100000100001000: 564950 457587 467962 557464 596859
0110010010100010100000100: 564950 457587 467962 557464 506290
0110010011100000100001000: 564950 457587 529896 557464 596859
0110010010100010100000100: 564950 457587 622306 557464 481582
0110010011100100110001000: 564950 457587 622306 596859 557464
0111110000100001000010000: 564950 457587 464197 529896 467962
0111110000100001000010000: 564950 457587 464197 622306 467962
0110010010100010100000100: 564950 457587 464197 596859 525559
0110010011100000100001000: 564950 457587 464197 557464 596859
0110010010100010100000100: 564950 457587 464197 557464 525559
0110010010100010100000100: 457587 557464 596859 638880 622306
0110010011100000100001000: 457587 564950 596859 529896 467962
0110010011100000100001000: 457587 564950 596859 464197 467962
0110010011100000100001000: 457587 564950 596859 464197 529896
0110010011100100110001000: 457587 564950 596859 622306 467962
0110010011100100110001000: 457587 564950 596859 622306 464197
0110010010100010100000100: 457587 564950 557464 467962 638880
0110010011100000100001000: 457587 564950 557464 529896 467962
0110010010100010100000100: 457587 564950 557464 529896 638880
0110010011100000100001000: 457587 564950 557464 622306 467962
0110010010100010100000100: 457587 564950 557464 622306 638880
0110010011100000100001000: 457587 564950 557464 464197 467962
0110010011100000100001000: 457587 564950 557464 464197 529896
0110010011100000100001000: 457587 564950 557464 464197 622306
0110010010100010100000100: 457587 564950 557464 464197 638880
0110010010100010100000100: 464197 564950 525559 467962 481582
0110010011100000100001000: 464197 564950 525559 529896 467962
0110010010100010100000100: 464197 564950 525559 529896 481582
0110010011100000100001000: 464197 564950 525559 622306 467962
0110010011100000100001000: 464197 564950 525559 457587 467962
0110010011100000100001000: 464197 564950 525559 457587 529896
0110010011100000100001000: 464197 564950 525559 457587 622306
0110010010100010100000100: 464197 564950 525559 457587 481582
0110010011100000100001000: 622306 481582 529896 525559 613272
0110010010100010100000100: 622306 481582 596859 613272 457587
0110010011100000100001000: 622306 481582 596859 525559 613272
0110010010100010100000100: 622306 481582 596859 525559 457587
0110010011100000100001000: 622306 481582 564950 525559 613272
0110010011100000100001000: 622306 564950 596859 464197 467962
0110010010100010100000100: 622306 564950 481582 467962 613272
0110010010100010100000100: 622306 564950 481582 467962 525559
0110010011100000100001000: 622306 564950 481582 464197 467962
0110010010100010100000100: 622306 564950 481582 464197 613272
0110010011100000100001000: 622306 564950 481582 457587 467962
0110010011100000100001000: 622306 564950 481582 457587 464197
0110010010100010100000100: 622306 564950 481582 457587 613272
0110010010100010100000100: 622306 564950 481582 457587 525559
0111110100110001000010000: 622306 564950 529896 481582 596859
0111010100110001000100010: 622306 564950 529896 481582 613272
0111010100110001000100010: 622306 564950 529896 481582 525559
0110010011100000100001000: 525559 481582 464197 622306 613272
0110010010100010100000100: 525559 464197 481582 564950 613272
0110010010100010100000100: 638880 485192 557464 613272 457587
0110010011100000100001000: 485192 613272 638880 481582 506290
0110010010100010100000100: 485192 638880 613272 557464 506290
0110010010100010100000100: 485192 638880 613272 557464 481582
0110010011100000100001000: 481582 613272 525559 485192 506290
0110010011100000100001000: 481582 613272 622306 485192 506290
0110010010100010100000100: 481582 525559 613272 464197 506290
0110010010100010100000100: 481582 525559 613272 464197 485192
0110010010100010100000100: 481582 622306 613272 529896 506290
0110010010100010100000100: 481582 622306 613272 529896 485192
0110010011100000100001000: 481582 622306 613272 596859 529896
0110010010100010100000100: 481582 622306 613272 596859 506290
0110010010100010100000100: 481582 622306 613272 596859 485192
0110010011100000100001000: 481582 622306 613272 564950 596859
0110010010100010100000100: 481582 622306 613272 564950 506290
0110010010100010100000100: 481582 622306 613272 564950 485192
0110010010100010100000100: 481582 622306 525559 529896 464197
0110010011100000100001000: 481582 622306 525559 596859 529896
0110010010100010100000100: 481582 622306 525559 596859 464197
0110010011100000100001000: 481582 622306 525559 564950 596859
0110010010100010100000100: 557464 457587 638880 596859 485192
0110010011100000100001000: 557464 457587 638880 564950 596859
0110010010100010100000100: 557464 457587 638880 564950 485192
0110010010100010100000100: 613272 481582 506290 525559 467962
0110010011100000100001000: 613272 481582 506290 622306 525559
0110010010100010100000100: 613272 481582 506290 622306 467962
0110010011100000100001000: 613272 481582 485192 622306 525559
0110010010100010100000100: 613272 485192 506290 638880 467962
0110010010100010100000100: 613272 485192 481582 638880 525559
0110010010100010100000100: 613272 485192 481582 638880 622306
0110010011100000100001000: 596859 622306 457587 481582 529896
0110010010100010100000100: 596859 457587 622306 557464 529896
0110010010100010100000100: 596859 457587 622306 557464 481582
0110010010100010100000100: 467962 564950 506290 529896 613272
0110010010100010100000100: 467962 564950 506290 622306 613272
0110010011100000100001000: 467962 564950 506290 464197 529896
0110010011100000100001000: 467962 564950 506290 464197 622306
0110010010100010100000100: 467962 564950 506290 464197 613272
0110010011100000100001000: 467962 564950 506290 457587 529896
0110010011100000100001000: 467962 564950 506290 457587 622306
0110010011100000100001000: 467962 564950 506290 457587 464197
0110010010100010100000100: 467962 564950 506290 457587 613272
0110010010100010100000100: 506290 613272 467962 481582 564950
0110010011100000100001000: 506290 613272 467962 485192 481582
0110010010100010100000100: 506290 613272 467962 485192 564950
