Vertex,0110010011100100110001000,0111010101110001000101010,0110010010100010100100110,0111010100110001000100010,0111010101110001000001000,0110010010100010100000100,0111110100110001000110010,0111110100110001000010000,0110010011100000100001000,0111110000100001000010000
565049,7.0,3.0,1.0,19.0,14.0,53.0,0.0,5.0,51.0,1.0
481237,7.0,2.0,2.0,17.0,28.0,77.0,1.0,9.0,54.0,2.0
557269,15.0,4.0,3.0,24.0,17.0,102.0,0.0,11.0,117.0,6.0
480970,1.0,0.0,1.0,5.0,6.0,53.0,0.0,1.0,28.0,0.0
638722,1.0,1.0,1.0,18.0,24.0,72.0,1.0,9.0,57.0,2.0
511282,14.0,5.0,5.0,29.0,44.0,110.0,1.0,18.0,142.0,7.0
650961,14.0,4.0,3.0,19.0,13.0,76.0,0.0,6.0,72.0,3.0
531712,2.0,0.0,0.0,11.0,5.0,60.0,0.0,3.0,55.0,2.0
650294,2.0,0.0,2.0,5.0,3.0,35.0,0.0,2.0,47.0,2.0
568668,15.0,3.0,4.0,18.0,31.0,81.0,1.0,12.0,83.0,4.0
548245,7.0,1.0,2.0,5.0,10.0,62.0,0.0,2.0,40.0,0.0
564822,2.0,0.0,1.0,4.0,6.0,40.0,0.0,2.0,40.0,2.0
582610,2.0,0.0,2.0,4.0,6.0,34.0,0.0,2.0,38.0,2.0
569371,7.0,2.0,2.0,17.0,28.0,61.0,1.0,11.0,63.0,3.0
542744,1.0,0.0,1.0,4.0,6.0,43.0,0.0,1.0,25.0,0.0
579897,2.0,0.0,0.0,1.0,9.0,17.0,0.0,6.0,50.0,4.0
493917,0.0,0.0,0.0,2.0,1.0,21.0,0.0,1.0,16.0,0.0
505056,0.0,0.0,0.0,8.0,2.0,30.0,0.0,1.0,13.0,0.0
507402,0.0,0.0,0.0,7.0,2.0,13.0,0.0,1.0,10.0,0.0
614543,1.0,0.0,0.0,2.0,7.0,24.0,0.0,1.0,20.0,0.0
543217,0.0,0.0,0.0,1.0,0.0,9.0,0.0,0.0,2.0,0.0
638703,0.0,0.0,0.0,3.0,8.0,35.0,0.0,1.0,17.0,0.0
585563,0.0,0.0,0.0,1.0,0.0,15.0,0.0,0.0,3.0,0.0
490207,0.0,0.0,0.0,1.0,0.0,22.0,0.0,0.0,7.0,0.0
graph,20.0,5.0,6.0,45.0,54.0,229.0,1.0,21.0,210.0,8.0
