Vertex,0111110111110001100011000,0110010011100110110001100,0111110000100001000010000,0111110110110011100110110,0111010110110011100100110,0110010011100100110001000,0110010011100000100001000,0111110100110001000010000,0111110110110001100010000,0111110111110111110111110,0111110111110111110011100,0110010010100010100100110,0111010101110001000101010,0111110110110011100010100,0111010100110001000100010,0110010010100010100000100,0111010101110001000001000,0111110111110101110011000,0111110100110001000110010,0111010110110011100000100,0111110110110101110010000
494226,7.0,2.0,53.0,0.0,5.0,87.0,462.0,166.0,105.0,1.0,3.0,13.0,37.0,22.0,197.0,300.0,326.0,29.0,35.0,75.0,56.0
573706,7.0,0.0,54.0,0.0,0.0,26.0,237.0,107.0,85.0,1.0,2.0,4.0,18.0,9.0,82.0,147.0,192.0,21.0,18.0,28.0,37.0
570872,11.0,0.0,48.0,0.0,8.0,68.0,426.0,133.0,138.0,1.0,5.0,6.0,25.0,38.0,201.0,328.0,277.0,37.0,16.0,98.0,53.0
568276,0.0,1.0,15.0,0.0,0.0,24.0,143.0,41.0,12.0,0.0,0.0,3.0,5.0,0.0,51.0,109.0,71.0,0.0,11.0,7.0,6.0
657625,0.0,0.0,2.0,0.0,0.0,22.0,157.0,7.0,1.0,0.0,0.0,6.0,9.0,0.0,43.0,188.0,75.0,0.0,0.0,16.0,4.0
468510,0.0,0.0,14.0,0.0,0.0,12.0,133.0,41.0,12.0,0.0,0.0,2.0,6.0,0.0,45.0,124.0,70.0,0.0,11.0,7.0,6.0
512658,8.0,0.0,55.0,0.0,0.0,25.0,292.0,85.0,76.0,0.0,2.0,0.0,9.0,11.0,55.0,161.0,134.0,9.0,11.0,34.0,11.0
520526,0.0,1.0,25.0,0.0,1.0,46.0,207.0,42.0,12.0,0.0,0.0,5.0,8.0,0.0,50.0,146.0,60.0,0.0,0.0,10.0,6.0
534394,2.0,8.0,30.0,0.0,10.0,133.0,359.0,91.0,37.0,0.0,0.0,8.0,62.0,4.0,117.0,324.0,173.0,8.0,21.0,29.0,15.0
503196,2.0,0.0,24.0,0.0,0.0,9.0,179.0,74.0,34.0,0.0,0.0,0.0,12.0,4.0,59.0,84.0,128.0,8.0,18.0,19.0,14.0
564950,13.0,4.0,29.0,0.0,7.0,51.0,320.0,124.0,150.0,1.0,6.0,5.0,43.0,39.0,173.0,267.0,284.0,37.0,30.0,106.0,64.0
520883,13.0,2.0,47.0,1.0,13.0,92.0,401.0,164.0,178.0,1.0,6.0,7.0,56.0,48.0,201.0,268.0,388.0,36.0,34.0,111.0,54.0
531210,0.0,4.0,15.0,0.0,0.0,65.0,244.0,25.0,12.0,0.0,0.0,10.0,15.0,0.0,65.0,242.0,69.0,0.0,0.0,15.0,4.0
516960,0.0,0.0,5.0,0.0,0.0,16.0,126.0,4.0,1.0,0.0,0.0,0.0,4.0,0.0,33.0,190.0,37.0,0.0,0.0,13.0,1.0
478512,5.0,0.0,47.0,0.0,1.0,37.0,261.0,73.0,51.0,0.0,0.0,2.0,6.0,8.0,39.0,116.0,102.0,5.0,1.0,19.0,4.0
640738,2.0,0.0,29.0,0.0,0.0,15.0,196.0,63.0,52.0,0.0,1.0,0.0,4.0,17.0,55.0,84.0,132.0,8.0,7.0,19.0,12.0
634271,0.0,0.0,22.0,0.0,0.0,14.0,150.0,33.0,22.0,0.0,0.0,0.0,1.0,0.0,31.0,117.0,65.0,0.0,0.0,8.0,7.0
462750,3.0,1.0,33.0,0.0,5.0,65.0,254.0,41.0,33.0,0.0,0.0,0.0,8.0,6.0,55.0,204.0,99.0,3.0,1.0,23.0,4.0
551139,6.0,7.0,50.0,1.0,11.0,100.0,308.0,79.0,72.0,0.0,1.0,1.0,29.0,17.0,72.0,195.0,136.0,11.0,9.0,35.0,9.0
506867,10.0,6.0,35.0,1.0,8.0,82.0,385.0,89.0,105.0,0.0,4.0,14.0,28.0,38.0,156.0,302.0,192.0,20.0,15.0,75.0,19.0
546196,5.0,0.0,41.0,0.0,0.0,37.0,271.0,73.0,55.0,0.0,0.0,4.0,13.0,8.0,46.0,178.0,122.0,5.0,3.0,23.0,5.0
571216,1.0,7.0,31.0,1.0,5.0,85.0,316.0,74.0,51.0,0.0,0.0,9.0,41.0,13.0,107.0,295.0,179.0,2.0,17.0,22.0,7.0
561972,0.0,2.0,22.0,1.0,6.0,85.0,273.0,50.0,44.0,0.0,0.0,1.0,22.0,8.0,85.0,336.0,129.0,1.0,17.0,23.0,6.0
613303,0.0,0.0,4.0,0.0,0.0,29.0,176.0,20.0,1.0,0.0,0.0,4.0,15.0,0.0,76.0,146.0,59.0,0.0,5.0,13.0,1.0
618717,0.0,0.0,0.0,0.0,0.0,14.0,69.0,1.0,0.0,0.0,0.0,0.0,1.0,0.0,28.0,83.0,5.0,0.0,0.0,4.0,0.0
475233,0.0,0.0,5.0,0.0,0.0,19.0,119.0,5.0,1.0,0.0,0.0,1.0,3.0,0.0,34.0,117.0,21.0,0.0,0.0,8.0,0.0
464992,0.0,0.0,0.0,0.0,0.0,2.0,46.0,0.0,0.0,0.0,0.0,0.0,0.0,0.0,19.0,84.0,0.0,0.0,0.0,0.0,0.0
graph,19.0,9.0,147.0,1.0,16.0,252.0,1302.0,341.0,268.0,1.0,6.0,21.0,96.0,58.0,435.0,1027.0,705.0,48.0,56.0,168.0,81.0
