Vertex,0111010101110001000101010,0111010101110001000001000,0111110100110001000010000,0110010010100010100000100,0110010011100000100001000,0111110111110101110011000,0111110110110001100010000,0111110100110001000110010,0111010100110001000100010,0111010110110011100000100,0110010010100010100100110,0111110110110011100110110,0111110110110011100010100,0111110000100001000010000,0111010110110011100100110,0110010011100110110001100,0111110111110001100011000,0110010011100100110001000,0111110110110101110010000
625774,7.0,22.0,38.0,11.0,82.0,1.0,23.0,2.0,18.0,6.0,0.0,0.0,6.0,20.0,0.0,0.0,0.0,14.0,0.0
573171,23.0,55.0,55.0,29.0,126.0,5.0,27.0,2.0,17.0,17.0,1.0,0.0,8.0,29.0,5.0,14.0,2.0,81.0,6.0
554368,26.0,56.0,61.0,15.0,112.0,5.0,51.0,1.0,25.0,31.0,0.0,1.0,13.0,29.0,5.0,11.0,4.0,55.0,6.0
488672,0.0,12.0,18.0,11.0,66.0,0.0,3.0,1.0,19.0,9.0,0.0,0.0,2.0,10.0,0.0,0.0,0.0,16.0,1.0
498138,5.0,21.0,22.0,30.0,73.0,1.0,13.0,0.0,9.0,8.0,1.0,0.0,4.0,15.0,1.0,1.0,2.0,32.0,0.0
483545,16.0,20.0,26.0,33.0,98.0,1.0,16.0,0.0,11.0,8.0,3.0,0.0,4.0,20.0,3.0,14.0,2.0,69.0,0.0
649391,10.0,18.0,21.0,41.0,73.0,1.0,16.0,1.0,14.0,10.0,3.0,1.0,6.0,11.0,1.0,3.0,2.0,36.0,0.0
635657,4.0,19.0,22.0,27.0,74.0,1.0,19.0,1.0,13.0,10.0,2.0,1.0,6.0,12.0,0.0,0.0,2.0,17.0,0.0
554003,10.0,11.0,23.0,28.0,80.0,0.0,14.0,0.0,12.0,1.0,0.0,0.0,0.0,19.0,0.0,7.0,0.0,41.0,1.0
457395,14.0,38.0,35.0,31.0,67.0,5.0,28.0,1.0,16.0,15.0,2.0,1.0,8.0,12.0,2.0,0.0,3.0,24.0,6.0
474307,14.0,60.0,38.0,37.0,98.0,5.0,30.0,1.0,13.0,18.0,4.0,1.0,8.0,14.0,3.0,3.0,3.0,23.0,6.0
642008,8.0,18.0,18.0,31.0,87.0,0.0,3.0,0.0,7.0,6.0,1.0,0.0,0.0,17.0,2.0,6.0,0.0,47.0,1.0
649949,7.0,15.0,18.0,26.0,90.0,0.0,3.0,0.0,12.0,5.0,0.0,0.0,0.0,17.0,1.0,9.0,0.0,45.0,1.0
655817,16.0,14.0,18.0,39.0,102.0,0.0,4.0,0.0,8.0,7.0,3.0,0.0,0.0,18.0,2.0,12.0,0.0,61.0,1.0
643226,0.0,26.0,2.0,16.0,37.0,0.0,5.0,0.0,1.0,4.0,0.0,0.0,0.0,2.0,0.0,0.0,0.0,4.0,1.0
graph,32.0,81.0,83.0,81.0,253.0,5.0,51.0,2.0,39.0,31.0,4.0,1.0,13.0,49.0,5.0,16.0,4.0,113.0,6.0
