0110010011100000100001000: 596106 472720 626431 480255 510723
0111010101110001000001000: 596106 472720 521130 626431 510723
0111010101110001000001000: 596106 472720 521130 626431 480255
0110010010100010100000100: 596106 626431 472720 463949 510723
0110010010100010100000100: 596106 626431 472720 463949 480255
0111010100110001000100010: 596106 521130 472720 626431 463949
0110010011100000100001000: 500489 512052 628981 584426 480255
0110010011100000100001000: 500489 512052 605495 584426 480255
0110010010100010100000100: 500489 605495 512052 596889 480255
0110010010100010100000100: 500489 605495 512052 596889 584426
0110010010100010100000100: 605495 500489 596889 628981 521181
0110010011100000100001000: 605495 500489 596889 512052 628981
0110010010100010100000100: 605495 500489 596889 512052 521181
0110010010100010100000100: 463949 626431 583471 596106 521181
0110010010100010100000100: 626431 596106 463949 472720 583471
0110010010100010100000100: 626431 596106 463949 521130 583471
0110010010100010100000100: 596889 605495 521181 500489 583471
0110010011100000100001000: 512052 480255 584426 472720 632067
0110010011100000100001000: 512052 480255 500489 472720 632067
0110010010100010100000100: 512052 584426 480255 557219 632067
0110010010100010100000100: 512052 584426 480255 557219 472720
0110010010100010100000100: 512052 500489 480255 628981 632067
0110010010100010100000100: 512052 500489 480255 628981 472720
0110010011100000100001000: 512052 500489 480255 605495 628981
0110010010100010100000100: 512052 500489 480255 605495 632067
0110010010100010100000100: 512052 500489 480255 605495 472720
0110010010100010100000100: 512052 500489 584426 628981 557219
0110010011100000100001000: 512052 500489 584426 605495 628981
0110010010100010100000100: 512052 500489 584426 605495 557219
0110010010100010100100110: 472720 480255 510723 632067 620890
0110010011100000100001000: 472720 480255 510723 512052 632067
0110010010100010100000100: 472720 480255 510723 512052 620890
0110010011100000100001000: 472720 480255 521130 512052 632067
0110010011100000100001000: 472720 480255 596106 512052 632067
0110010010100010100000100: 472720 596106 510723 626431 620890
0110010010100010100000100: 472720 596106 480255 626431 632067
0110010010100010100000100: 472720 596106 480255 626431 512052
0111010100110001000100010: 472720 596106 521130 510723 620890
0111110100110001000010000: 472720 596106 521130 480255 510723
0111010100110001000100010: 472720 596106 521130 480255 632067
0111010100110001000100010: 472720 596106 521130 480255 512052
0110010010100010100000100: 584426 512052 557219 480255 480167
0110010011100000100001000: 584426 512052 557219 500489 480255
0110010010100010100000100: 584426 512052 557219 500489 480167
0110010011100000100001000: 480255 472720 632067 521130 510723
0110010010100010100000100: 480255 472720 632067 521130 620890
0110010011100000100001000: 480255 472720 632067 596106 510723
0110010010100010100000100: 480255 472720 632067 596106 620890
0110010011100000100001000: 480255 472720 512052 521130 510723
0110010011100000100001000: 480255 472720 512052 596106 510723
0110010010100010100000100: 480255 512052 632067 584426 620890
0110010011100000100001000: 480255 512052 632067 500489 584426
0110010010100010100000100: 480255 512052 632067 500489 620890
0110010010100010100000100: 480255 512052 472720 584426 510723
0110010010100010100000100: 480255 512052 472720 584426 521130
0110010010100010100000100: 480255 512052 472720 584426 596106
0110010011100000100001000: 480255 512052 472720 500489 584426
0110010010100010100000100: 480255 512052 472720 500489 510723
0110010010100010100000100: 480255 512052 472720 500489 521130
0110010010100010100000100: 480255 512052 472720 500489 596106
0110010010100010100000100: 521181 596889 583471 605495 463949
0110010010100010100000100: 583471 463949 521181 626431 596889
0110010011100000100001000: 632067 480255 620890 512052 472720
0110010010100010100000100: 632067 480255 620890 512052 510723
0110010011100000100001000: 510723 472720 620890 521130 480255
0110010010100010100000100: 510723 472720 620890 521130 632067
0110010011100000100001000: 510723 472720 620890 596106 480255
0110010010100010100000100: 510723 472720 620890 596106 632067
