0110010011100000100001000: 649213 605428 523373 579305 601022
0110010010100010100000100: 649213 523373 605428 485110 601022
0110010010100010100100110: 649213 523373 605428 485110 579305
0110010011100000100001000: 485110 579305 523373 605428 509972
0110010011100000100001000: 485110 579305 523373 550254 605428
0110010011100000100001000: 485110 579305 523373 649801 509972
0110010011100000100001000: 485110 579305 523373 649801 605428
0110010010100010100000100: 485110 523373 579305 649213 509972
0110010010100010100000100: 485110 523373 579305 649213 550254
0110010010100010100000100: 485110 523373 579305 649213 649801
0110010011100000100001000: 579305 605428 509972 649213 601022
0110010011100000100001000: 579305 605428 550254 649213 601022
0110010011100000100001000: 579305 605428 649801 649213 601022
0110010011100000100001000: 579305 605428 485110 649213 601022
0110010010100010100000100: 579305 550254 605428 539719 601022
0110010010100010100000100: 579305 550254 605428 539719 649213
0110010010100010100000100: 579305 550254 605428 495298 601022
0110010010100010100000100: 579305 550254 605428 495298 649213
0111010101110001000001000: 579305 550254 509972 605428 539719
0111010101110001000001000: 579305 550254 509972 605428 495298
0111010100110001000100010: 579305 550254 509972 605428 601022
0111010100110001000100010: 579305 550254 509972 605428 649213
0111110100110001000010000: 579305 550254 509972 485110 605428
0111010101110001000001000: 579305 550254 509972 485110 539719
0111010101110001000001000: 579305 550254 509972 485110 495298
0111010100110001000100010: 579305 550254 509972 485110 523373
0111010101110001000001000: 579305 550254 649801 605428 539719
0111010101110001000001000: 579305 550254 649801 605428 495298
0111010101110001000001000: 579305 550254 649801 485110 539719
0111010101110001000001000: 579305 550254 649801 485110 495298
0111110110110001100010000: 579305 550254 649801 509972 605428
0111110110110001100010000: 579305 550254 649801 509972 485110
0111010110110011100000100: 579305 550254 649801 509972 559018
0110010010100010100000100: 579305 649801 605428 559018 601022
0110010010100010100000100: 579305 649801 605428 559018 649213
0111010101110001000001000: 579305 649801 550254 605428 559018
0111010100110001000100010: 579305 649801 550254 605428 601022
0111010100110001000100010: 579305 649801 550254 605428 649213
0111110100110001000010000: 579305 649801 550254 485110 605428
0111010101110001000001000: 579305 649801 550254 485110 559018
0111010100110001000100010: 579305 649801 550254 485110 523373
0110010010100010100000100: 579305 485110 605428 523373 601022
0110010010100010100000100: 579305 485110 550254 523373 539719
0110010010100010100000100: 579305 485110 550254 523373 495298
0111110000100001000010000: 579305 485110 649801 605428 509972
0110010010100010100000100: 579305 485110 649801 523373 559018
0110010010100010100000100: 649801 550254 559018 539719 624722
0110010011100000100001000: 649801 550254 559018 509972 539719
0110010010100010100000100: 649801 550254 559018 509972 624722
0110010011100000100001000: 649801 550254 559018 495298 509972
0110010010100010100000100: 649801 550254 559018 495298 624722
0111010101110001000001000: 649801 550254 579305 559018 539719
0111010101110001000001000: 649801 550254 579305 559018 495298
0110010010100010100000100: 649801 579305 559018 509972 624722
0110010011100000100001000: 649801 579305 559018 605428 509972
0110010010100010100000100: 649801 579305 559018 605428 624722
0110010011100000100001000: 649801 579305 559018 485110 509972
0110010011100000100001000: 649801 579305 559018 485110 605428
0110010010100010100000100: 649801 579305 559018 485110 624722
0111010100110001000100010: 649801 579305 550254 559018 624722
0111010101110001000001000: 550254 495298 539719 509972 478301
0111110100110001000010000: 550254 495298 539719 649801 509972
0111010101110001000001000: 550254 495298 539719 649801 478301
0111010100110001000100010: 550254 495298 539719 649801 559018
0111010101110001000001000: 550254 495298 539719 579305 478301
0111010100110001000100010: 550254 495298 539719 579305 605428
0111010100110001000100010: 550254 495298 539719 579305 485110
0110010010100010100000100: 550254 649801 495298 559018 478301
0110010011100000100001000: 550254 579305 539719 485110 605428
0110010010100010100000100: 550254 579305 495298 605428 478301
0110010011100000100001000: 550254 579305 495298 485110 605428
0110010010100010100000100: 550254 579305 495298 485110 478301
0111010100110001000100010: 550254 579305 509972 495298 478301
0111110100110001000110010: 550254 579305 509972 495298 539719
0111010100110001000100010: 550254 579305 649801 495298 478301
0111110100110001000110010: 550254 579305 649801 495298 539719
0111110110110001100010000: 550254 579305 649801 509972 539719
0111110110110001100010000: 550254 579305 649801 509972 495298
0110010011100000100001000: 605428 579305 601022 649801 509972
0110010011100000100001000: 605428 579305 601022 485110 509972
0110010011100000100001000: 605428 579305 601022 485110 550254
0110010011100000100001000: 605428 579305 601022 485110 649801
0110010011100000100001000: 605428 579305 649213 649801 509972
0110010011100000100001000: 605428 579305 649213 485110 509972
0110010011100000100001000: 605428 579305 649213 485110 550254
0110010011100000100001000: 605428 579305 649213 485110 649801
0110010010100010100000100: 605428 649213 579305 523373 509972
0110010010100010100000100: 605428 649213 579305 523373 550254
0110010010100010100000100: 605428 649213 579305 523373 649801
0110010010100010100000100: 495298 550254 478301 509972 624722
0110010011100000100001000: 495298 550254 478301 649801 509972
0110010010100010100000100: 495298 550254 478301 649801 624722
0110010010100010100000100: 495298 550254 478301 579305 624722
0111010100110001000100010: 495298 550254 539719 478301 624722
0110010010100010100000100: 478301 495298 624722 539719 559018
0110010010100010100000100: 478301 495298 624722 550254 559018
0110010010100010100000100: 624722 478301 559018 495298 649801
0110010010100010100000100: 559018 649801 624722 550254 478301
0110010010100010100000100: 559018 649801 624722 579305 478301
