0111101111001100: 620648 554368 568077 566580
0110100010010010: 620648 566580 568077 514170
0110101011010010: 620648 566580 554368 580840
0110101011010010: 620648 566580 554368 485363
0110101011010010: 620648 566580 554368 457529
0110101011010010: 620648 566580 554368 506903
0110101011010010: 620648 566580 554368 580840
0110101011010010: 620648 566580 554368 485363
0110101011010010: 620648 566580 554368 457529
0110101011010010: 620648 566580 554368 506903
0111101011011010: 620648 566580 554368 568077
0111101011011010: 620648 566580 554368 568077
0111101011011010: 620648 566580 554368 568077
0110101011010010: 620648 554368 568077 514170
0110101011010010: 620648 554368 568077 514170
0111101111001100: 620648 554368 568077 566580
0110101111000100: 620648 554368 566580 580840
0110101111000100: 620648 554368 566580 485363
0110101111000100: 620648 554368 566580 457529
0110101111000100: 620648 554368 566580 506903
0110101111000100: 620648 554368 566580 580840
0110101111000100: 620648 554368 566580 485363
0110101111000100: 620648 554368 566580 457529
0110101111000100: 620648 554368 566580 506903
0111101111001100: 620648 554368 566580 568077
0111101111001100: 620648 554368 566580 568077
0110101111000100: 620648 554368 568077 580840
0110101111000100: 620648 554368 568077 485363
0110101111000100: 620648 554368 568077 457529
0110101111000100: 620648 554368 568077 506903
0110101111000100: 620648 554368 568077 580840
0110101111000100: 620648 554368 568077 485363
0110101111000100: 620648 554368 568077 457529
0110101111000100: 620648 554368 568077 506903
0111101111001100: 620648 554368 568077 566580
0111101111001100: 620648 554368 568077 566580
0111101111001100: 620648 554368 568077 566580
0110101011010010: 620648 554368 568077 514170
0111101111001100: 620648 554368 566580 568077
0111101111001100: 620648 554368 566580 568077
0111101111001100: 620648 554368 568077 566580
0111101111001100: 620648 554368 568077 566580
0111101111001100: 620648 554368 568077 566580
0110100110000100: 620648 568077 566580 514170
0110100110000100: 620648 568077 566580 514170
0110100110000100: 620648 568077 566580 514170
0110101011010010: 620648 568077 554368 580840
0110101011010010: 620648 568077 554368 485363
0110101011010010: 620648 568077 554368 457529
0110101011010010: 620648 568077 554368 506903
0110101011010010: 620648 568077 554368 580840
0110101011010010: 620648 568077 554368 485363
0110101011010010: 620648 568077 554368 457529
0110101011010010: 620648 568077 554368 506903
0111101011011010: 620648 568077 554368 566580
0111101011011010: 620648 568077 554368 566580
0111101011011010: 620648 568077 554368 566580
0110101111000100: 620648 568077 554368 514170
0110101111000100: 620648 568077 554368 514170
0110101111000100: 620648 568077 554368 514170
0111101011011010: 620648 568077 554368 566580
0111101011011010: 620648 568077 554368 566580
0110100110000100: 620648 568077 566580 514170
0110100110000100: 620648 568077 566580 514170
0111100110011110: 620648 568077 566580 554368
0111101011011010: 620648 568077 554368 566580
0101101001001000: 568077 514170 635992 554368
0101101001001000: 568077 514170 635992 620648
0111101011001000: 568077 554368 620648 514170
0111101011001000: 568077 620648 554368 514170
0110100110000100: 568077 514170 554368 635992
0110100010010010: 568077 514170 554368 580840
0110100010010010: 568077 514170 554368 485363
0110100010010010: 568077 514170 554368 566580
0110100010010010: 568077 514170 554368 457529
0110100010010010: 568077 514170 554368 506903
0111100010011010: 568077 514170 554368 620648
0110100110000100: 568077 514170 620648 635992
0110100010010010: 568077 514170 620648 566580
0111100010011010: 568077 514170 620648 554368
0110100110000100: 568077 514170 554368 635992
0110100110000100: 568077 514170 554368 635992
0110100110000100: 568077 514170 554368 635992
0110100110000100: 568077 514170 620648 635992
0110100110000100: 568077 514170 620648 635992
0110100110000100: 568077 514170 620648 635992
0101101001001000: 568077 514170 635992 554368
0101101001001000: 568077 514170 635992 620648
0110100110000100: 568077 554368 514170 580840
0110100110000100: 568077 554368 514170 485363
0110100110000100: 568077 554368 514170 566580
0110100110000100: 568077 554368 514170 457529
0110100110000100: 568077 554368 514170 506903
0110100010010010: 568077 554368 514170 635992
0110100010010010: 568077 554368 514170 635992
0110100110000100: 568077 554368 514170 580840
0110100110000100: 568077 554368 514170 485363
0110100110000100: 568077 554368 514170 566580
0110100110000100: 568077 554368 514170 457529
0110100110000100: 568077 554368 514170 506903
0110100110000100: 568077 554368 514170 580840
0110100110000100: 568077 554368 514170 485363
0110100110000100: 568077 554368 514170 566580
0110100110000100: 568077 554368 514170 457529
0110100110000100: 568077 554368 514170 506903
0111100110001100: 568077 554368 514170 620648
0110100010010010: 568077 554368 514170 635992
0111101011001000: 568077 554368 620648 514170
0111101011001000: 568077 554368 620648 514170
0111101011001000: 568077 554368 620648 514170
0110100010010010: 568077 554368 514170 635992
0111101011001000: 568077 554368 620648 514170
0111101011001000: 568077 554368 620648 514170
0110101111000100: 568077 554368 620648 580840
0110101111000100: 568077 554368 620648 485363
0110101111000100: 568077 554368 620648 457529
0110101111000100: 568077 554368 620648 506903
0110101111000100: 568077 554368 620648 580840
0110101111000100: 568077 554368 620648 485363
0110101111000100: 568077 554368 620648 457529
0110101111000100: 568077 554368 620648 506903
0111101011001000: 568077 554368 620648 514170
0110101111010110: 568077 554368 620648 566580
0110101111010110: 568077 554368 620648 566580
0110101111010110: 568077 554368 620648 566580
0111101011001000: 568077 554368 620648 514170
0110100110000100: 568077 554368 514170 580840
0110100110000100: 568077 554368 514170 485363
0110100110000100: 568077 554368 514170 566580
0110100110000100: 568077 554368 514170 457529
0110100110000100: 568077 554368 514170 506903
0110100110000100: 568077 554368 514170 580840
0110100110000100: 568077 554368 514170 485363
0110100110000100: 568077 554368 514170 566580
0110100110000100: 568077 554368 514170 457529
0110100110000100: 568077 554368 514170 506903
0111100110001100: 568077 554368 514170 620648
0111100110001100: 568077 554368 514170 620648
0111100110001100: 568077 554368 514170 620648
0110100010010010: 568077 554368 514170 635992
0110100010010010: 568077 554368 514170 635992
0111101011001000: 568077 554368 620648 514170
0110100010010010: 568077 620648 514170 635992
0110100010010010: 568077 620648 514170 635992
0110100110000100: 568077 620648 514170 566580
0111100110001100: 568077 620648 514170 554368
0110100010010010: 568077 620648 514170 635992
0111101011001000: 568077 620648 554368 514170
0111101011001000: 568077 620648 554368 514170
0111101011001000: 568077 620648 554368 514170
0110100010010010: 568077 620648 514170 635992
0111101011001000: 568077 620648 554368 514170
0111101011001000: 568077 620648 554368 514170
0111101011001000: 568077 620648 554368 514170
0110101111010110: 568077 620648 554368 566580
0110101111010110: 568077 620648 554368 566580
0110101111010110: 568077 620648 554368 566580
0111101011001000: 568077 620648 554368 514170
0110100110000100: 568077 620648 514170 566580
0110100110000100: 568077 620648 514170 566580
0111100110001100: 568077 620648 514170 554368
0111100110001100: 568077 620648 514170 554368
0111100110001100: 568077 620648 514170 554368
0110100010010010: 568077 620648 514170 635992
0110100010010010: 568077 620648 514170 635992
0111101011001000: 568077 620648 554368 514170
0111101011001000: 568077 620648 554368 514170
0111101011001000: 568077 620648 554368 514170
0111101011001000: 568077 620648 554368 514170
0101101001001000: 506903 499967 485363 589424
0110100110010110: 506903 554368 499967 485363
0111100010001000: 506903 554368 589424 499967
0110100110000100: 506903 499967 589424 485363
0111100010001000: 506903 499967 554368 589424
0110100010010010: 506903 499967 554368 580840
0110100010010010: 506903 499967 554368 566580
0110100010010010: 506903 499967 554368 457529
0110100010010010: 506903 499967 554368 568077
0110100010010010: 506903 499967 554368 620648
0110100110010110: 506903 499967 554368 485363
0110100110010110: 506903 499967 554368 485363
0110100110000100: 506903 499967 589424 485363
0110100110000100: 506903 499967 589424 485363
0110100110000100: 506903 499967 589424 485363
0110100110010110: 506903 499967 554368 485363
0101101001001000: 506903 499967 485363 589424
0100101001010010: 506903 499967 485363 457529
0100101001010010: 506903 499967 485363 457529
0101101001011010: 506903 499967 485363 554368
0101101001011010: 506903 499967 485363 554368
0101101001011010: 506903 499967 485363 554368
0101101001001000: 506903 499967 485363 589424
0110100010010010: 506903 589424 499967 485363
0110100010010010: 506903 589424 499967 485363
0111100010001000: 506903 589424 554368 499967
0110100010010010: 506903 589424 554368 580840
0110100010010010: 506903 589424 554368 485363
0110100010010010: 506903 589424 554368 566580
0110100010010010: 506903 589424 554368 457529
0110100010010010: 506903 589424 554368 568077
0110100010010010: 506903 589424 554368 620648
0111100010001000: 506903 589424 499967 554368
0110100110000100: 506903 554368 499967 580840
0110100110000100: 506903 554368 499967 566580
0110100110000100: 506903 554368 499967 457529
0110100110000100: 506903 554368 499967 568077
0110100110000100: 506903 554368 499967 620648
0110100110010110: 506903 554368 499967 485363
0110100110010110: 506903 554368 499967 485363
0111100010001000: 506903 554368 589424 499967
0110100110000100: 506903 554368 589424 580840
0110100110000100: 506903 554368 589424 485363
0110100110000100: 506903 554368 589424 566580
0110100110000100: 506903 554368 589424 457529
0110100110000100: 506903 554368 589424 568077
0110100110000100: 506903 554368 589424 620648
0111100010001000: 506903 554368 499967 589424
0110100110000100: 506903 554368 499967 580840
0110100110000100: 506903 554368 499967 566580
0110100110000100: 506903 554368 499967 457529
0110100110000100: 506903 554368 499967 568077
0110100110000100: 506903 554368 499967 620648
0110100110000100: 506903 554368 499967 580840
0110100110000100: 506903 554368 499967 566580
0110100110000100: 506903 554368 499967 457529
0110100110000100: 506903 554368 499967 568077
0110100110000100: 506903 554368 499967 620648
0110100110010110: 506903 554368 499967 485363
0110100110010110: 506903 554368 499967 485363
0110100110010110: 506903 554368 499967 485363
0111100010001000: 506903 554368 589424 499967
0111100010001000: 506903 554368 589424 499967
0110100110000100: 506903 554368 589424 580840
0110100110000100: 506903 554368 589424 485363
0110100110000100: 506903 554368 589424 566580
0110100110000100: 506903 554368 589424 457529
0110100110000100: 506903 554368 589424 568077
0110100110000100: 506903 554368 589424 620648
0110100110000100: 506903 554368 589424 580840
0110100110000100: 506903 554368 589424 485363
0110100110000100: 506903 554368 589424 566580
0110100110000100: 506903 554368 589424 457529
0110100110000100: 506903 554368 589424 568077
0110100110000100: 506903 554368 589424 620648
0111100010001000: 506903 554368 499967 589424
0111100010001000: 506903 554368 499967 589424
0111100010001000: 506903 554368 589424 499967
0111100010001000: 506903 554368 589424 499967
0110100110000100: 506903 554368 499967 580840
0110100110000100: 506903 554368 499967 566580
0110100110000100: 506903 554368 499967 457529
0110100110000100: 506903 554368 499967 568077
0110100110000100: 506903 554368 499967 620648
0110100110000100: 506903 554368 499967 580840
0110100110000100: 506903 554368 499967 566580
0110100110000100: 506903 554368 499967 457529
0110100110000100: 506903 554368 499967 568077
0110100110000100: 506903 554368 499967 620648
0111100010001000: 506903 554368 499967 589424
0110100110010110: 506903 554368 499967 485363
0110100110010110: 506903 554368 499967 485363
0110100110000100: 506903 554368 589424 580840
0110100110000100: 506903 554368 589424 485363
0110100110000100: 506903 554368 589424 566580
0110100110000100: 506903 554368 589424 457529
0110100110000100: 506903 554368 589424 568077
0110100110000100: 506903 554368 589424 620648
0110100110000100: 506903 554368 589424 580840
0110100110000100: 506903 554368 589424 485363
0110100110000100: 506903 554368 589424 566580
0110100110000100: 506903 554368 589424 457529
0110100110000100: 506903 554368 589424 568077
0110100110000100: 506903 554368 589424 620648
0111100010001000: 506903 554368 589424 499967
0111100010001000: 506903 554368 589424 499967
0111101011001000: 554368 580840 457529 566580
0111101011001000: 554368 580840 457529 506903
0111101011001000: 554368 580840 457529 568077
0111101011001000: 554368 580840 457529 620648
0111101011001000: 554368 485363 457529 566580
0111101011001000: 554368 485363 457529 506903
0111101011001000: 554368 485363 457529 568077
0111101011001000: 554368 485363 457529 620648
0101101001001000: 554368 485363 499967 580840
0101101001001000: 554368 485363 499967 566580
0101101001001000: 554368 485363 499967 568077
0101101001001000: 554368 485363 499967 620648
0101101101001100: 554368 485363 499967 457529
0111100010001000: 554368 566580 485363 580840
0111101011001000: 554368 566580 620648 580840
0111101011001000: 554368 566580 620648 485363
0111101011001000: 554368 566580 620648 457529
0111101011001000: 554368 566580 620648 506903
0111101011001000: 554368 457529 580840 566580
0111101011001000: 554368 457529 580840 506903
0111101011001000: 554368 457529 580840 568077
0111101011001000: 554368 457529 580840 620648
0111101011001000: 554368 457529 485363 566580
0111101011001000: 554368 457529 485363 506903
0111101011001000: 554368 457529 485363 568077
0111101011001000: 554368 457529 485363 620648
0111101111001100: 554368 457529 485363 580840
0111100010001000: 554368 506903 485363 580840
0110100110010110: 554368 506903 485363 499967
0111100010001000: 554368 506903 566580 580840
0111100010001000: 554368 506903 566580 485363
0111100010001000: 554368 506903 457529 566580
0101101001001000: 554368 506903 499967 580840
0101101001001000: 554368 506903 499967 566580
0101101001001000: 554368 506903 499967 457529
0101101001001000: 554368 506903 499967 568077
0101101001001000: 554368 506903 499967 620648
0101101001001000: 554368 506903 589424 580840
0101101001001000: 554368 506903 589424 485363
0101101001001000: 554368 506903 589424 566580
0101101001001000: 554368 506903 589424 457529
0101101001001000: 554368 506903 589424 568077
0101101001001000: 554368 506903 589424 620648
0100101101000100: 554368 506903 589424 499967
0111100010001000: 554368 568077 485363 580840
0111100010001000: 554368 568077 566580 580840
0111100010001000: 554368 568077 566580 485363
0111100010001000: 554368 568077 457529 566580
0111100010001000: 554368 568077 506903 580840
0111100010001000: 554368 568077 506903 485363
0111100010001000: 554368 568077 506903 566580
0111100010001000: 554368 568077 506903 457529
0111101011001000: 554368 568077 620648 580840
0111101011001000: 554368 568077 620648 485363
0111101011001000: 554368 568077 620648 457529
0111101011001000: 554368 568077 620648 506903
0101101001001000: 554368 568077 514170 580840
0101101001001000: 554368 568077 514170 485363
0101101001001000: 554368 568077 514170 566580
0101101001001000: 554368 568077 514170 457529
0101101001001000: 554368 568077 514170 506903
0101101101001100: 554368 568077 514170 620648
0111100010001000: 554368 620648 485363 580840
0111100010001000: 554368 620648 506903 580840
0111100010001000: 554368 620648 506903 485363
0111100010001000: 554368 620648 506903 457529
0111101011001000: 554368 620648 566580 580840
0111101011001000: 554368 620648 566580 485363
0111101011001000: 554368 620648 566580 457529
0111101011001000: 554368 620648 566580 506903
0111101011001000: 554368 620648 568077 580840
0111101011001000: 554368 620648 568077 485363
0111101011001000: 554368 620648 568077 457529
0111101011001000: 554368 620648 568077 506903
0111101111001100: 554368 620648 568077 566580
0110100010010010: 554368 580840 485363 499967
0110100010010010: 554368 580840 485363 499967
0111100010001000: 554368 580840 566580 485363
0111100010011010: 554368 580840 566580 620648
0111100010001000: 554368 580840 506903 485363
0111100010001000: 554368 580840 506903 566580
0110100010010010: 554368 580840 506903 499967
0110100010010010: 554368 580840 506903 589424
0110100010010010: 554368 580840 506903 499967
0110100010010010: 554368 580840 506903 589424
0111100010001000: 554368 580840 568077 485363
0111100010001000: 554368 580840 568077 566580
0111100010001000: 554368 580840 568077 506903
0110100010010010: 554368 580840 568077 514170
0111100010011010: 554368 580840 568077 620648
0110100010010010: 554368 580840 568077 514170
0111100010001000: 554368 580840 620648 485363
0111100010001000: 554368 580840 620648 506903
0111100010011010: 554368 580840 620648 566580
0111100010011010: 554368 580840 620648 568077
0111100110001100: 554368 580840 566580 457529
0111100110001100: 554368 580840 506903 457529
0111100110001100: 554368 580840 568077 457529
0111100110001100: 554368 580840 620648 457529
0111101011001000: 554368 580840 457529 566580
0111101011001000: 554368 580840 457529 506903
0111101011001000: 554368 580840 457529 568077
0111101011001000: 554368 580840 457529 620648
0111101011011010: 554368 580840 457529 485363
0111101011011010: 554368 580840 457529 485363
0111101011011010: 554368 580840 457529 485363
0111101011001000: 554368 580840 457529 566580
0111101011001000: 554368 580840 457529 506903
0111101011001000: 554368 580840 457529 568077
0111101011001000: 554368 580840 457529 620648
0111101011001000: 554368 580840 457529 566580
0111101011001000: 554368 580840 457529 506903
0111101011001000: 554368 580840 457529 568077
0111101011001000: 554368 580840 457529 620648
0110100110000100: 554368 485363 580840 499967
0111100010001000: 554368 485363 566580 580840
0110100110000100: 554368 485363 566580 499967
0111100010011010: 554368 485363 566580 620648
0111100010001000: 554368 485363 506903 580840
0111100010001000: 554368 485363 506903 566580
0110100010010010: 554368 485363 506903 589424
0110100010010010: 554368 485363 506903 589424
0110100110010110: 554368 485363 506903 499967
0110100110010110: 554368 485363 506903 499967
0111100010001000: 554368 485363 568077 580840
0111100010001000: 554368 485363 568077 566580
0111100010001000: 554368 485363 568077 506903
0110100110000100: 554368 485363 568077 499967
0110100010010010: 554368 485363 568077 514170
0111100010011010: 554368 485363 568077 620648
0110100010010010: 554368 485363 568077 514170
0111100010001000: 554368 485363 620648 580840
0111100010001000: 554368 485363 620648 506903
0110100110000100: 554368 485363 620648 499967
0111100010011010: 554368 485363 620648 566580
0111100010011010: 554368 485363 620648 568077
0111100010001000: 554368 485363 580840 566580
0111100010001000: 554368 485363 580840 506903
0111100010001000: 554368 485363 580840 568077
0111100010001000: 554368 485363 580840 620648
0110100110000100: 554368 485363 580840 499967
0110100110000100: 554368 485363 580840 499967
0110100110000100: 554368 485363 580840 499967
0110100110000100: 554368 485363 566580 499967
0110100110000100: 554368 485363 566580 499967
0111100110001100: 554368 485363 566580 457529
0110100110000100: 554368 485363 566580 499967
0111100110001100: 554368 485363 506903 457529
0110100110010110: 554368 485363 506903 499967
0110100110000100: 554368 485363 568077 499967
0110100110000100: 554368 485363 568077 499967
0111100110001100: 554368 485363 568077 457529
0110100110000100: 554368 485363 568077 499967
0110100110000100: 554368 485363 620648 499967
0110100110000100: 554368 485363 620648 499967
0111100110001100: 554368 485363 620648 457529
0110100110000100: 554368 485363 620648 499967
0111101011001000: 554368 485363 457529 566580
0111101011001000: 554368 485363 457529 506903
0111101011001000: 554368 485363 457529 568077
0111101011001000: 554368 485363 457529 620648
0111101011011010: 554368 485363 457529 580840
0111101011011010: 554368 485363 457529 580840
0111101011011010: 554368 485363 457529 580840
0110101111000100: 554368 485363 457529 499967
0101101001001000: 554368 485363 499967 580840
0101101001001000: 554368 485363 499967 566580
0101101001001000: 554368 485363 499967 568077
0101101001001000: 554368 485363 499967 620648
0101101101001100: 554368 485363 499967 457529
0101101001011010: 554368 485363 499967 506903
0101101001011010: 554368 485363 499967 506903
0101101001011010: 554368 485363 499967 506903
0101101001011010: 554368 485363 499967 506903
0111101011001000: 554368 485363 457529 566580
0111101011001000: 554368 485363 457529 506903
0111101011001000: 554368 485363 457529 568077
0111101011001000: 554368 485363 457529 620648
0111101011001000: 554368 485363 457529 566580
0111101011001000: 554368 485363 457529 506903
0111101011001000: 554368 485363 457529 568077
0111101011001000: 554368 485363 457529 620648
0110101111000100: 554368 485363 457529 499967
0110101111000100: 554368 485363 457529 499967
0110101111000100: 554368 485363 457529 499967
0110101111000100: 554368 485363 457529 499967
0110101111000100: 554368 485363 457529 499967
0111100010011010: 554368 566580 580840 457529
0111100010001000: 554368 566580 485363 580840
0110100010010010: 554368 566580 485363 499967
0111100010011010: 554368 566580 485363 457529
0110100010010010: 554368 566580 485363 499967
0111100010011010: 554368 566580 457529 580840
0111100010011010: 554368 566580 457529 485363
0111100010001000: 554368 566580 506903 580840
0111100010001000: 554368 566580 506903 485363
0111100010001000: 554368 566580 506903 457529
0110100010010010: 554368 566580 506903 499967
0110100010010010: 554368 566580 506903 589424
0110100010010010: 554368 566580 506903 499967
0110100010010010: 554368 566580 506903 589424
0111100010001000: 554368 566580 568077 580840
0111100010001000: 554368 566580 568077 485363
0111100010001000: 554368 566580 568077 457529
0111100010001000: 554368 566580 568077 506903
0110100010010010: 554368 566580 568077 514170
0110100010010010: 554368 566580 568077 514170
0111100010001000: 554368 566580 580840 485363
0111100010001000: 554368 566580 580840 506903
0111100010001000: 554368 566580 580840 568077
0111100110001100: 554368 566580 580840 620648
0111100010001000: 554368 566580 485363 580840
0111100010001000: 554368 566580 485363 506903
0111100010001000: 554368 566580 485363 568077
0111100010001000: 554368 566580 485363 580840
0111100110001100: 554368 566580 485363 620648
0111100110001100: 554368 566580 457529 620648
0111100110001100: 554368 566580 506903 620648
0111101011001000: 554368 566580 620648 580840
0111101011001000: 554368 566580 620648 485363
0111101011001000: 554368 566580 620648 457529
0111101011001000: 554368 566580 620648 506903
0111101011011010: 554368 566580 620648 568077
0111101011011010: 554368 566580 620648 568077
0111101011011010: 554368 566580 620648 568077
0111101011001000: 554368 566580 620648 580840
0111101011001000: 554368 566580 620648 485363
0111101011001000: 554368 566580 620648 457529
0111101011001000: 554368 566580 620648 506903
0111101011001000: 554368 566580 620648 580840
0111101011001000: 554368 566580 620648 485363
0111101011001000: 554368 566580 620648 457529
0111101011001000: 554368 566580 620648 506903
0111100010011010: 554368 457529 566580 620648
0111100010001000: 554368 457529 506903 566580
0110100010010010: 554368 457529 506903 499967
0110100010010010: 554368 457529 506903 589424
0110100010010010: 554368 457529 506903 499967
0110100010010010: 554368 457529 506903 589424
0111100010001000: 554368 457529 568077 566580
0111100010001000: 554368 457529 568077 506903
0110100010010010: 554368 457529 568077 514170
0111100010011010: 554368 457529 568077 620648
0110100010010010: 554368 457529 568077 514170
0111100010001000: 554368 457529 620648 506903
0111100010011010: 554368 457529 620648 566580
0111100010011010: 554368 457529 620648 568077
0111100010001000: 554368 457529 566580 506903
0111100010001000: 554368 457529 566580 568077
0111100110001100: 554368 457529 566580 580840
0111100110001100: 554368 457529 566580 485363
0111100110001100: 554368 457529 506903 580840
0111100110001100: 554368 457529 506903 485363
0111100110001100: 554368 457529 568077 580840
0111100110001100: 554368 457529 568077 485363
0111100110001100: 554368 457529 620648 580840
0111100110001100: 554368 457529 620648 485363
0111101011001000: 554368 457529 580840 566580
0111101011001000: 554368 457529 580840 506903
0111101011001000: 554368 457529 580840 568077
0111101011001000: 554368 457529 580840 620648
0111101011001000: 554368 457529 485363 566580
0111101011001000: 554368 457529 485363 506903
0111101011001000: 554368 457529 485363 568077
0111101011001000: 554368 457529 485363 620648
0110101011010010: 554368 457529 485363 499967
0110101011010010: 554368 457529 485363 499967
0111101111001100: 554368 457529 485363 580840
0110101011010010: 554368 457529 485363 499967
0110101011010010: 554368 457529 485363 499967
0111101011001000: 554368 457529 580840 566580
0111101011001000: 554368 457529 580840 506903
0111101011001000: 554368 457529 580840 568077
0111101011001000: 554368 457529 580840 620648
0111101011001000: 554368 457529 580840 566580
0111101011001000: 554368 457529 580840 506903
0111101011001000: 554368 457529 580840 568077
0111101011001000: 554368 457529 580840 620648
0111101111001100: 554368 457529 580840 485363
0111101111001100: 554368 457529 580840 485363
0111101011001000: 554368 457529 485363 566580
0111101011001000: 554368 457529 485363 506903
0111101011001000: 554368 457529 485363 568077
0111101011001000: 554368 457529 485363 620648
0111101011001000: 554368 457529 485363 566580
0111101011001000: 554368 457529 485363 506903
0111101011001000: 554368 457529 485363 568077
0111101011001000: 554368 457529 485363 620648
0111101111001100: 554368 457529 485363 580840
0111101111001100: 554368 457529 485363 580840
0111101111001100: 554368 457529 485363 580840
0111101011001000: 554368 457529 580840 566580
0111101011001000: 554368 457529 580840 506903
0111101011001000: 554368 457529 580840 568077
0111101011001000: 554368 457529 580840 620648
0111101011001000: 554368 457529 580840 566580
0111101011001000: 554368 457529 580840 506903
0111101011001000: 554368 457529 580840 568077
0111101011001000: 554368 457529 580840 620648
0111101111001100: 554368 457529 580840 485363
0111101111001100: 554368 457529 580840 485363
0111101011001000: 554368 457529 485363 566580
0111101011001000: 554368 457529 485363 506903
0111101011001000: 554368 457529 485363 568077
0111101011001000: 554368 457529 485363 620648
0111101011001000: 554368 457529 485363 566580
0111101011001000: 554368 457529 485363 506903
0111101011001000: 554368 457529 485363 568077
0111101011001000: 554368 457529 485363 620648
0111101111001100: 554368 457529 485363 580840
0111101111001100: 554368 457529 485363 580840
0111101111001100: 554368 457529 485363 580840
0111100010011010: 554368 506903 580840 457529
0111100010001000: 554368 506903 485363 580840
0111100010011010: 554368 506903 485363 457529
0110100110010110: 554368 506903 485363 499967
0111100010001000: 554368 506903 566580 580840
0111100010001000: 554368 506903 566580 485363
0111100010011010: 554368 506903 566580 620648
0111100010001000: 554368 506903 457529 566580
0111100010011010: 554368 506903 457529 580840
0111100010011010: 554368 506903 457529 485363
0111100010001000: 554368 506903 568077 580840
0111100010001000: 554368 506903 568077 485363
0111100010001000: 554368 506903 568077 566580
0111100010001000: 554368 506903 568077 457529
0110100010010010: 554368 506903 568077 514170
0111100010011010: 554368 506903 568077 620648
0110100010010010: 554368 506903 568077 514170
0111100010001000: 554368 506903 620648 580840
0111100010001000: 554368 506903 620648 485363
0111100010001000: 554368 506903 620648 457529
0111100010011010: 554368 506903 620648 566580
0111100010011010: 554368 506903 620648 568077
0111100010001000: 554368 506903 580840 485363
0111100010001000: 554368 506903 580840 566580
0111100010001000: 554368 506903 580840 568077
0111100010001000: 554368 506903 580840 620648
0110100110000100: 554368 506903 580840 499967
0110100110000100: 554368 506903 580840 589424
0110100110000100: 554368 506903 580840 499967
0110100110000100: 554368 506903 580840 589424
0111100010001000: 554368 506903 485363 580840
0111100010001000: 554368 506903 485363 566580
0111100010001000: 554368 506903 485363 568077
0111100010001000: 554368 506903 485363 620648
0111100010001000: 554368 506903 485363 580840
0110100110000100: 554368 506903 485363 589424
0110100110000100: 554368 506903 485363 589424
0110100110010110: 554368 506903 485363 499967
0110100110010110: 554368 506903 485363 499967
0111100010001000: 554368 506903 566580 580840
0111100010001000: 554368 506903 566580 485363
0111100010001000: 554368 506903 566580 457529
0111100010001000: 554368 506903 566580 568077
0111100010001000: 554368 506903 566580 580840
0111100010001000: 554368 506903 566580 485363
0110100110000100: 554368 506903 566580 499967
0110100110000100: 554368 506903 566580 589424
0110100110000100: 554368 506903 566580 499967
0110100110000100: 554368 506903 566580 589424
0111100010001000: 554368 506903 457529 566580
0111100010001000: 554368 506903 457529 568077
0111100010001000: 554368 506903 457529 620648
0111100010001000: 554368 506903 457529 566580
0110100110000100: 554368 506903 457529 499967
0110100110000100: 554368 506903 457529 589424
0110100110000100: 554368 506903 457529 499967
0110100110000100: 554368 506903 457529 589424
0110100110000100: 554368 506903 568077 499967
0110100110000100: 554368 506903 568077 589424
0110100110000100: 554368 506903 568077 499967
0110100110000100: 554368 506903 568077 589424
0110100110000100: 554368 506903 620648 499967
0110100110000100: 554368 506903 620648 589424
0110100110000100: 554368 506903 620648 499967
0110100110000100: 554368 506903 620648 589424
0101101001001000: 554368 506903 499967 580840
0101101001001000: 554368 506903 499967 566580
0101101001001000: 554368 506903 499967 457529
0101101001001000: 554368 506903 499967 568077
0101101001001000: 554368 506903 499967 620648
0101101001011010: 554368 506903 499967 485363
0101101001011010: 554368 506903 499967 485363
0101101001011010: 554368 506903 499967 485363
0101101001011010: 554368 506903 499967 485363
0101101001001000: 554368 506903 589424 580840
0101101001001000: 554368 506903 589424 485363
0101101001001000: 554368 506903 589424 566580
0101101001001000: 554368 506903 589424 457529
0101101001001000: 554368 506903 589424 568077
0101101001001000: 554368 506903 589424 620648
0100101101000100: 554368 506903 589424 499967
0111100010011010: 554368 568077 580840 457529
0111100010001000: 554368 568077 485363 580840
0110100010010010: 554368 568077 485363 499967
0111100010011010: 554368 568077 485363 457529
0110100010010010: 554368 568077 485363 499967
0111100010001000: 554368 568077 566580 580840
0111100010001000: 554368 568077 566580 485363
0111100010001000: 554368 568077 457529 566580
0111100010011010: 554368 568077 457529 580840
0111100010011010: 554368 568077 457529 485363
0111100010001000: 554368 568077 506903 580840
0111100010001000: 554368 568077 506903 485363
0111100010001000: 554368 568077 506903 566580
0111100010001000: 554368 568077 506903 457529
0110100010010010: 554368 568077 506903 499967
0110100010010010: 554368 568077 506903 589424
0110100010010010: 554368 568077 506903 499967
0110100010010010: 554368 568077 506903 589424
0111100010001000: 554368 568077 580840 485363
0111100010001000: 554368 568077 580840 566580
0111100010001000: 554368 568077 580840 506903
0110100110000100: 554368 568077 580840 514170
0111100110001100: 554368 568077 580840 620648
0110100110000100: 554368 568077 580840 514170
0111100010001000: 554368 568077 485363 580840
0111100010001000: 554368 568077 485363 566580
0111100010001000: 554368 568077 485363 506903
0111100010001000: 554368 568077 485363 580840
0110100110000100: 554368 568077 485363 514170
0111100110001100: 554368 568077 485363 620648
0110100110000100: 554368 568077 485363 514170
0111100010001000: 554368 568077 566580 580840
0111100010001000: 554368 568077 566580 485363
0111100010001000: 554368 568077 566580 457529
0111100010001000: 554368 568077 566580 506903
0111100010001000: 554368 568077 566580 580840
0111100010001000: 554368 568077 566580 485363
0110100110000100: 554368 568077 566580 514170
0110100110000100: 554368 568077 566580 514170
0111100010001000: 554368 568077 457529 566580
0111100010001000: 554368 568077 457529 506903
0111100010001000: 554368 568077 457529 566580
0110100110000100: 554368 568077 457529 514170
0111100110001100: 554368 568077 457529 620648
0110100110000100: 554368 568077 457529 514170
0111100010001000: 554368 568077 506903 580840
0111100010001000: 554368 568077 506903 485363
0111100010001000: 554368 568077 506903 566580
0111100010001000: 554368 568077 506903 457529
0111100010001000: 554368 568077 506903 580840
0111100010001000: 554368 568077 506903 485363
0111100010001000: 554368 568077 506903 566580
0111100010001000: 554368 568077 506903 457529
0110100110000100: 554368 568077 506903 514170
0111100110001100: 554368 568077 506903 620648
0110100110000100: 554368 568077 506903 514170
0111101011001000: 554368 568077 620648 580840
0111101011001000: 554368 568077 620648 485363
0111101011001000: 554368 568077 620648 457529
0111101011001000: 554368 568077 620648 506903
0111101011011010: 554368 568077 620648 566580
0111101011011010: 554368 568077 620648 566580
0111101011011010: 554368 568077 620648 566580
0110101111000100: 554368 568077 620648 514170
0101101001001000: 554368 568077 514170 580840
0101101001001000: 554368 568077 514170 485363
0101101001001000: 554368 568077 514170 566580
0101101001001000: 554368 568077 514170 457529
0101101001001000: 554368 568077 514170 506903
0100101001010010: 554368 568077 514170 635992
0100101001010010: 554368 568077 514170 635992
0101101101001100: 554368 568077 514170 620648
0100101001010010: 554368 568077 514170 635992
0100101001010010: 554368 568077 514170 635992
0111101011001000: 554368 568077 620648 580840
0111101011001000: 554368 568077 620648 485363
0111101011001000: 554368 568077 620648 457529
0111101011001000: 554368 568077 620648 506903
0111101011001000: 554368 568077 620648 580840
0111101011001000: 554368 568077 620648 485363
0111101011001000: 554368 568077 620648 457529
0111101011001000: 554368 568077 620648 506903
0110101111000100: 554368 568077 620648 514170
0110101111000100: 554368 568077 620648 514170
0110101111000100: 554368 568077 620648 514170
0110101111000100: 554368 568077 620648 514170
0110101111000100: 554368 568077 620648 514170
0111100010011010: 554368 620648 580840 457529
0111100010001000: 554368 620648 485363 580840
0110100010010010: 554368 620648 485363 499967
0111100010011010: 554368 620648 485363 457529
0110100010010010: 554368 620648 485363 499967
0111100010011010: 554368 620648 457529 580840
0111100010011010: 554368 620648 457529 485363
0111100010001000: 554368 620648 506903 580840
0111100010001000: 554368 620648 506903 485363
0111100010001000: 554368 620648 506903 457529
0110100010010010: 554368 620648 506903 499967
0110100010010010: 554368 620648 506903 589424
0110100010010010: 554368 620648 506903 499967
0110100010010010: 554368 620648 506903 589424
0111100010001000: 554368 620648 580840 485363
0111100010001000: 554368 620648 580840 506903
0111100110001100: 554368 620648 580840 566580
0111100110001100: 554368 620648 580840 568077
0111100010001000: 554368 620648 485363 580840
0111100010001000: 554368 620648 485363 506903
0111100010001000: 554368 620648 485363 580840
0111100110001100: 554368 620648 485363 566580
0111100110001100: 554368 620648 485363 568077
0111100010001000: 554368 620648 457529 506903
0111100110001100: 554368 620648 457529 566580
0111100110001100: 554368 620648 457529 568077
0111100010001000: 554368 620648 506903 580840
0111100010001000: 554368 620648 506903 485363
0111100010001000: 554368 620648 506903 457529
0111100010001000: 554368 620648 506903 580840
0111100010001000: 554368 620648 506903 485363
0111100010001000: 554368 620648 506903 457529
0111100110001100: 554368 620648 506903 566580
0111100110001100: 554368 620648 506903 568077
0111101011001000: 554368 620648 566580 580840
0111101011001000: 554368 620648 566580 485363
0111101011001000: 554368 620648 566580 457529
0111101011001000: 554368 620648 566580 506903
0111101011001000: 554368 620648 568077 580840
0111101011001000: 554368 620648 568077 485363
0111101011001000: 554368 620648 568077 457529
0111101011001000: 554368 620648 568077 506903
0110101011010010: 554368 620648 568077 514170
0110101011010010: 554368 620648 568077 514170
0111101011001000: 554368 620648 566580 580840
0111101011001000: 554368 620648 566580 485363
0111101011001000: 554368 620648 566580 457529
0111101011001000: 554368 620648 566580 506903
0111101011001000: 554368 620648 566580 580840
0111101011001000: 554368 620648 566580 485363
0111101011001000: 554368 620648 566580 457529
0111101011001000: 554368 620648 566580 506903
0111101111001100: 554368 620648 566580 568077
0111101011001000: 554368 620648 568077 580840
0111101011001000: 554368 620648 568077 485363
0111101011001000: 554368 620648 568077 457529
0111101011001000: 554368 620648 568077 506903
0111101011001000: 554368 620648 568077 580840
0111101011001000: 554368 620648 568077 485363
0111101011001000: 554368 620648 568077 457529
0111101011001000: 554368 620648 568077 506903
0111101111001100: 554368 620648 568077 566580
0111101111001100: 554368 620648 568077 566580
0111101011001000: 554368 620648 566580 580840
0111101011001000: 554368 620648 566580 485363
0111101011001000: 554368 620648 566580 457529
0111101011001000: 554368 620648 566580 506903
0111101011001000: 554368 620648 566580 580840
0111101011001000: 554368 620648 566580 485363
0111101011001000: 554368 620648 566580 457529
0111101011001000: 554368 620648 566580 506903
0111101111001100: 554368 620648 566580 568077
0111101011001000: 554368 620648 568077 580840
0111101011001000: 554368 620648 568077 485363
0111101011001000: 554368 620648 568077 457529
0111101011001000: 554368 620648 568077 506903
0111101011001000: 554368 620648 568077 580840
0111101011001000: 554368 620648 568077 485363
0111101011001000: 554368 620648 568077 457529
0111101011001000: 554368 620648 568077 506903
0111101111001100: 554368 620648 568077 566580
0111101111001100: 457529 554368 485363 580840
0110100010010010: 457529 580840 485363 499967
0110101011010010: 457529 580840 554368 566580
0110101011010010: 457529 580840 554368 506903
0110101011010010: 457529 580840 554368 568077
0110101011010010: 457529 580840 554368 620648
0110101011010010: 457529 580840 554368 566580
0110101011010010: 457529 580840 554368 506903
0110101011010010: 457529 580840 554368 568077
0110101011010010: 457529 580840 554368 620648
0111101011011010: 457529 580840 554368 485363
0111101011011010: 457529 580840 554368 485363
0111101011011010: 457529 580840 554368 485363
0110100110000100: 457529 485363 580840 499967
0110100110000100: 457529 485363 580840 499967
0110100110000100: 457529 485363 580840 499967
0110101011010010: 457529 485363 554368 566580
0110101011010010: 457529 485363 554368 506903
0110101011010010: 457529 485363 554368 568077
0110101011010010: 457529 485363 554368 620648
0110101011010010: 457529 485363 554368 566580
0110101011010010: 457529 485363 554368 506903
0110101011010010: 457529 485363 554368 568077
0110101011010010: 457529 485363 554368 620648
0111101011011010: 457529 485363 554368 580840
0111101011011010: 457529 485363 554368 580840
0111101011011010: 457529 485363 554368 580840
0110101111000100: 457529 485363 554368 499967
0110101111000100: 457529 485363 554368 499967
0110101111000100: 457529 485363 554368 499967
0111101011011010: 457529 485363 554368 580840
0110100110000100: 457529 485363 580840 499967
0110100110000100: 457529 485363 580840 499967
0111100110011110: 457529 485363 580840 554368
0111101011011010: 457529 485363 554368 580840
0110101111000100: 457529 554368 580840 566580
0110101111000100: 457529 554368 580840 506903
0110101111000100: 457529 554368 580840 568077
0110101111000100: 457529 554368 580840 620648
0110101111000100: 457529 554368 580840 566580
0110101111000100: 457529 554368 580840 506903
0110101111000100: 457529 554368 580840 568077
0110101111000100: 457529 554368 580840 620648
0111101111001100: 457529 554368 580840 485363
0110101111000100: 457529 554368 485363 566580
0110101111000100: 457529 554368 485363 506903
0110101111000100: 457529 554368 485363 568077
0110101111000100: 457529 554368 485363 620648
0110101111000100: 457529 554368 485363 566580
0110101111000100: 457529 554368 485363 506903
0110101111000100: 457529 554368 485363 568077
0110101111000100: 457529 554368 485363 620648
0111101111001100: 457529 554368 485363 580840
0111101111001100: 457529 554368 485363 580840
0110101011010010: 457529 554368 485363 499967
0111101111001100: 457529 554368 580840 485363
0111101111001100: 457529 554368 485363 580840
0110101111000100: 566580 554368 620648 580840
0110101111000100: 566580 554368 620648 485363
0110101111000100: 566580 554368 620648 457529
0110101111000100: 566580 554368 620648 506903
0110101111000100: 566580 554368 620648 580840
0110101111000100: 566580 554368 620648 485363
0110101111000100: 566580 554368 620648 457529
0110101111000100: 566580 554368 620648 506903
0110101111010110: 566580 554368 620648 568077
0110101111010110: 566580 554368 620648 568077
0110101111010110: 566580 620648 554368 568077
0110101111010110: 566580 620648 554368 568077
0110100010010010: 514170 635992 568077 554368
0110100010010010: 514170 635992 568077 620648
0110100110000100: 514170 568077 635992 554368
0110100110000100: 514170 568077 635992 620648
0110100110000100: 514170 568077 635992 554368
0110100110000100: 514170 568077 635992 620648
0110100110000100: 514170 568077 635992 554368
0110100110000100: 514170 568077 635992 620648
0101101001001000: 485363 499967 506903 457529
0111101011001000: 485363 457529 554368 499967
0110100110010110: 485363 554368 499967 506903
0111101011001000: 485363 554368 457529 499967
0110100110000100: 485363 499967 457529 506903
0110100010010010: 485363 499967 457529 580840
0111100010011010: 485363 499967 457529 554368
0110100010010010: 485363 499967 554368 580840
0110100010010010: 485363 499967 554368 566580
0110100010010010: 485363 499967 554368 568077
0110100010010010: 485363 499967 554368 620648
0111100010011010: 485363 499967 554368 457529
0110100110010110: 485363 499967 554368 506903
0110100110010110: 485363 499967 554368 506903
0110100110000100: 485363 499967 457529 506903
0110100110000100: 485363 499967 457529 506903
0110100110000100: 485363 499967 457529 506903
0110100110010110: 485363 499967 554368 506903
0101101001001000: 485363 499967 506903 457529
0100101001010010: 485363 499967 506903 589424
0100101001010010: 485363 499967 506903 589424
0101101001011010: 485363 499967 506903 554368
0101101001011010: 485363 499967 506903 554368
0101101001011010: 485363 499967 506903 554368
0101101001001000: 485363 499967 506903 457529
0110100010010010: 485363 457529 499967 506903
0110100010010010: 485363 457529 499967 506903
0110100110000100: 485363 457529 499967 580840
0111100110001100: 485363 457529 499967 554368
0110100010010010: 485363 457529 499967 506903
0111101011001000: 485363 457529 554368 499967
0111101011001000: 485363 457529 554368 499967
0111101011001000: 485363 457529 554368 499967
0110100010010010: 485363 457529 499967 506903
0111101011001000: 485363 457529 554368 499967
0111101011001000: 485363 457529 554368 499967
0111101011001000: 485363 457529 554368 499967
0110101111010110: 485363 457529 554368 580840
0110101111010110: 485363 457529 554368 580840
0110101111010110: 485363 457529 554368 580840
0111101011001000: 485363 457529 554368 499967
0110100110000100: 485363 457529 499967 580840
0110100110000100: 485363 457529 499967 580840
0111100110001100: 485363 457529 499967 554368
0111100110001100: 485363 457529 499967 554368
0111100110001100: 485363 457529 499967 554368
0110100010010010: 485363 457529 499967 506903
0110100010010010: 485363 457529 499967 506903
0111101011001000: 485363 457529 554368 499967
0110100110010110: 485363 554368 499967 506903
0110100110000100: 485363 554368 499967 580840
0110100110000100: 485363 554368 499967 566580
0110100110000100: 485363 554368 499967 568077
0110100110000100: 485363 554368 499967 620648
0111100110001100: 485363 554368 499967 457529
0110100110010110: 485363 554368 499967 506903
0110100110010110: 485363 554368 499967 506903
0111101011001000: 485363 554368 457529 499967
0111101011001000: 485363 554368 457529 499967
0111101011001000: 485363 554368 457529 499967
0111101011001000: 485363 554368 457529 499967
0111101011001000: 485363 554368 457529 499967
0110101111000100: 485363 554368 457529 566580
0110101111000100: 485363 554368 457529 506903
0110101111000100: 485363 554368 457529 568077
0110101111000100: 485363 554368 457529 620648
0110101111000100: 485363 554368 457529 566580
0110101111000100: 485363 554368 457529 506903
0110101111000100: 485363 554368 457529 568077
0110101111000100: 485363 554368 457529 620648
0111101011001000: 485363 554368 457529 499967
0110101111010110: 485363 554368 457529 580840
0110101111010110: 485363 554368 457529 580840
0110101111010110: 485363 554368 457529 580840
0111101011001000: 485363 554368 457529 499967
0110100110000100: 485363 554368 499967 580840
0110100110000100: 485363 554368 499967 566580
0110100110000100: 485363 554368 499967 568077
0110100110000100: 485363 554368 499967 620648
0110100110000100: 485363 554368 499967 580840
0110100110000100: 485363 554368 499967 566580
0110100110000100: 485363 554368 499967 568077
0110100110000100: 485363 554368 499967 620648
0111100110001100: 485363 554368 499967 457529
0111100110001100: 485363 554368 499967 457529
0111100110001100: 485363 554368 499967 457529
0110100110010110: 485363 554368 499967 506903
0110100110010110: 485363 554368 499967 506903
0111101011001000: 485363 554368 457529 499967
0111101011001000: 485363 554368 457529 499967
0111101011001000: 485363 554368 457529 499967
0111101011001000: 485363 554368 457529 499967
0110101111010110: 580840 457529 554368 485363
0110101111010110: 580840 457529 554368 485363
0110101111000100: 580840 554368 457529 566580
0110101111000100: 580840 554368 457529 506903
0110101111000100: 580840 554368 457529 568077
0110101111000100: 580840 554368 457529 620648
0110101111000100: 580840 554368 457529 566580
0110101111000100: 580840 554368 457529 506903
0110101111000100: 580840 554368 457529 568077
0110101111000100: 580840 554368 457529 620648
0110101111010110: 580840 554368 457529 485363
0110101111010110: 580840 554368 457529 485363
0110100110010110: 499967 506903 485363 554368
0110100010010010: 499967 485363 506903 589424
0110100110010110: 499967 485363 506903 554368
0110100110000100: 499967 485363 506903 457529
0110100110010110: 499967 485363 506903 554368
0110100110000100: 499967 485363 506903 457529
0110100110000100: 499967 485363 506903 457529
0110100110010110: 499967 485363 506903 554368
0110100110000100: 499967 485363 506903 457529
0110100010010010: 499967 506903 485363 457529
0110100110010110: 499967 506903 485363 554368
0110100110000100: 499967 506903 485363 589424
0110100110010110: 499967 506903 485363 554368
0110100110010110: 499967 506903 485363 554368
0110100110000100: 499967 506903 485363 589424
0110100110000100: 499967 506903 485363 589424
0110100110010110: 499967 506903 485363 554368
0110100110000100: 499967 506903 485363 589424
