Vertex,0110100010010010,0111100110011110,0100101101000100,0111101111001100,0111101011001000,0100101101010110,0100101001010010,0111101011011010,0101101101011110,0101101101001100,0110100110000100,0111100010011010,0110101111010110,0110100110010110,0101101001001000,0101101001011010,0111100010001000,0110101111000100,0110101011010010,0111100110001100
476861,246.0,3.0,12.0,18.0,191.0,2.0,48.0,19.0,2.0,22.0,476.0,54.0,17.0,105.0,118.0,26.0,165.0,95.0,67.0,73.0
617513,221.0,4.0,8.0,90.0,282.0,2.0,32.0,71.0,3.0,10.0,446.0,60.0,64.0,70.0,116.0,22.0,581.0,119.0,67.0,74.0
553030,215.0,3.0,4.0,72.0,389.0,0.0,38.0,62.0,5.0,16.0,431.0,92.0,61.0,105.0,108.0,26.0,560.0,168.0,98.0,102.0
554368,655.0,24.0,22.0,468.0,1550.0,0.0,39.0,400.0,31.0,72.0,1371.0,306.0,379.0,385.0,384.0,142.0,2022.0,680.0,414.0,396.0
474307,346.0,10.0,22.0,270.0,688.0,2.0,73.0,215.0,10.0,36.0,649.0,136.0,199.0,105.0,177.0,30.0,543.0,304.0,188.0,185.0
573511,114.0,0.0,4.0,0.0,19.0,0.0,47.0,0.0,0.0,2.0,182.0,2.0,0.0,0.0,38.0,0.0,72.0,9.0,5.0,8.0
588432,527.0,14.0,40.0,216.0,525.0,2.0,110.0,195.0,21.0,32.0,1032.0,106.0,197.0,245.0,295.0,89.0,897.0,236.0,148.0,142.0
521103,210.0,0.0,8.0,0.0,73.0,0.0,36.0,0.0,0.0,10.0,391.0,16.0,0.0,70.0,110.0,21.0,181.0,37.0,29.0,27.0
460682,136.0,5.0,4.0,72.0,283.0,0.0,28.0,69.0,7.0,2.0,278.0,64.0,68.0,0.0,70.0,0.0,424.0,115.0,59.0,60.0
586294,139.0,0.0,6.0,0.0,78.0,0.0,30.0,0.0,0.0,10.0,273.0,10.0,0.0,35.0,76.0,16.0,94.0,39.0,29.0,28.0
506825,169.0,1.0,8.0,72.0,204.0,0.0,21.0,52.0,1.0,6.0,330.0,38.0,47.0,35.0,95.0,16.0,564.0,87.0,51.0,47.0
579583,170.0,1.0,10.0,72.0,204.0,0.0,11.0,52.0,1.0,6.0,355.0,44.0,47.0,70.0,98.0,21.0,588.0,87.0,51.0,49.0
524844,198.0,9.0,12.0,162.0,323.0,0.0,48.0,141.0,9.0,4.0,362.0,62.0,132.0,0.0,96.0,0.0,476.0,132.0,68.0,71.0
593620,181.0,0.0,2.0,0.0,130.0,0.0,28.0,0.0,0.0,0.0,359.0,26.0,0.0,70.0,105.0,32.0,535.0,52.0,26.0,26.0
643624,232.0,14.0,6.0,180.0,529.0,0.0,58.0,167.0,22.0,20.0,428.0,98.0,163.0,0.0,120.0,0.0,464.0,228.0,132.0,128.0
609562,140.0,0.0,2.0,18.0,292.0,0.0,19.0,12.0,0.0,10.0,287.0,60.0,10.0,70.0,78.0,20.0,504.0,125.0,73.0,71.0
572088,210.0,7.0,8.0,90.0,330.0,0.0,51.0,85.0,7.0,12.0,381.0,60.0,78.0,35.0,100.0,16.0,456.0,142.0,82.0,81.0
601358,297.0,9.0,10.0,90.0,422.0,0.0,86.0,90.0,15.0,16.0,567.0,84.0,92.0,105.0,165.0,48.0,493.0,182.0,106.0,104.0
577615,117.0,0.0,2.0,0.0,130.0,0.0,25.0,0.0,0.0,0.0,240.0,26.0,0.0,70.0,66.0,24.0,544.0,52.0,26.0,26.0
528530,140.0,0.0,2.0,0.0,61.0,0.0,30.0,0.0,0.0,10.0,242.0,6.0,0.0,35.0,65.0,16.0,24.0,33.0,29.0,24.0
595267,146.0,0.0,8.0,0.0,52.0,0.0,22.0,0.0,0.0,6.0,303.0,8.0,0.0,35.0,89.0,16.0,172.0,25.0,17.0,17.0
564960,119.0,0.0,6.0,0.0,38.0,0.0,22.0,0.0,0.0,4.0,235.0,6.0,0.0,35.0,72.0,16.0,85.0,18.0,12.0,12.0
569953,175.0,8.0,10.0,54.0,162.0,0.0,25.0,58.0,14.0,12.0,381.0,28.0,58.0,35.0,111.0,16.0,179.0,74.0,46.0,46.0
495718,209.0,0.0,8.0,0.0,73.0,0.0,37.0,0.0,0.0,10.0,425.0,16.0,0.0,105.0,116.0,35.0,181.0,37.0,29.0,27.0
graph,1328.0,28.0,56.0,486.0,1757.0,2.0,241.0,422.0,37.0,82.0,2606.0,352.0,403.0,455.0,717.0,162.0,2701.0,769.0,463.0,456.0
