Vertex,0101101101001100,0111101011001000,0110101111000100,0111100110011110,0110100110010110,0101101001011010,0110101011010010,0100101101000100,0101101101011110,0100101001010010,0111101011011010,0111100010011010,0111101111001100,0110101111010110,0111100110001100,0101101001001000,0110100110000100,0110100010010010,0111100010001000
464937,8.0,129.0,58.0,2.0,0.0,0.0,38.0,0.0,3.0,16.0,34.0,22.0,36.0,34.0,34.0,42.0,124.0,62.0,48.0
580492,4.0,101.0,43.0,3.0,0.0,0.0,24.0,0.0,3.0,10.0,48.0,18.0,54.0,44.0,27.0,29.0,89.0,40.0,56.0
462691,12.0,223.0,98.0,5.0,140.0,49.0,60.0,4.0,7.0,8.0,66.0,38.0,72.0,61.0,59.0,66.0,231.0,110.0,183.0
631890,4.0,28.0,14.0,0.0,0.0,0.0,10.0,0.0,0.0,2.0,0.0,4.0,0.0,0.0,10.0,14.0,43.0,18.0,8.0
573171,4.0,140.0,58.0,5.0,0.0,0.0,30.0,0.0,7.0,10.0,54.0,24.0,54.0,51.0,39.0,37.0,117.0,63.0,40.0
518171,6.0,95.0,43.0,0.0,35.0,14.0,29.0,0.0,0.0,12.0,12.0,16.0,18.0,10.0,25.0,31.0,101.0,53.0,72.0
505459,4.0,21.0,12.0,0.0,35.0,14.0,12.0,2.0,0.0,11.0,0.0,2.0,0.0,0.0,8.0,28.0,110.0,58.0,24.0
591933,2.0,106.0,43.0,3.0,70.0,26.0,21.0,4.0,4.0,5.0,32.0,18.0,36.0,27.0,30.0,34.0,130.0,68.0,103.0
509938,0.0,40.0,16.0,0.0,70.0,24.0,8.0,2.0,0.0,8.0,0.0,8.0,0.0,0.0,8.0,22.0,85.0,43.0,112.0
551800,0.0,40.0,16.0,0.0,105.0,34.0,8.0,4.0,0.0,11.0,0.0,8.0,0.0,0.0,8.0,34.0,131.0,71.0,136.0
619227,2.0,40.0,17.0,2.0,0.0,0.0,9.0,2.0,4.0,2.0,18.0,6.0,18.0,17.0,15.0,26.0,85.0,36.0,15.0
529657,2.0,33.0,14.0,0.0,105.0,35.0,7.0,6.0,0.0,13.0,0.0,4.0,0.0,0.0,13.0,33.0,138.0,74.0,63.0
graph,12.0,249.0,108.0,5.0,140.0,49.0,64.0,6.0,7.0,27.0,66.0,42.0,72.0,61.0,69.0,99.0,346.0,174.0,215.0
