Vertex,0100101101000100,0111100110011110,0110101111000100,0101101101001100,0100101001010010,0111101111001100,0110100110010110,0111100010001000,0111101011011010,0101101001001000,0110100010010010,0110100110000100,0101101001011010,0111101011001000,0111100010011010,0110101011010010,0110101111010110,0111100110001100
477083,6.0,1.0,39.0,6.0,10.0,18.0,138.0,117.0,15.0,37.0,71.0,141.0,55.0,91.0,12.0,21.0,10.0,30.0
510318,10.0,0.0,9.0,2.0,10.0,0.0,138.0,92.0,0.0,31.0,56.0,116.0,56.0,21.0,2.0,5.0,0.0,8.0
542613,4.0,0.0,8.0,0.0,6.0,0.0,70.0,88.0,0.0,26.0,45.0,91.0,30.0,20.0,4.0,4.0,0.0,4.0
650294,0.0,1.0,58.0,8.0,13.0,18.0,35.0,54.0,15.0,31.0,67.0,126.0,16.0,135.0,20.0,32.0,10.0,41.0
533567,6.0,0.0,9.0,2.0,4.0,0.0,68.0,68.0,0.0,26.0,41.0,95.0,26.0,19.0,2.0,5.0,0.0,8.0
644881,10.0,0.0,8.0,0.0,8.0,0.0,138.0,141.0,0.0,49.0,73.0,151.0,55.0,20.0,4.0,4.0,0.0,4.0
457395,10.0,1.0,58.0,8.0,6.0,18.0,175.0,179.0,15.0,62.0,100.0,217.0,74.0,135.0,20.0,32.0,10.0,41.0
554520,2.0,0.0,16.0,4.0,7.0,0.0,35.0,30.0,0.0,20.0,39.0,80.0,16.0,35.0,4.0,10.0,0.0,13.0
638448,0.0,1.0,19.0,2.0,4.0,18.0,0.0,63.0,15.0,18.0,31.0,79.0,0.0,44.0,8.0,11.0,10.0,11.0
559306,2.0,0.0,8.0,0.0,9.0,0.0,35.0,79.0,0.0,38.0,66.0,127.0,16.0,20.0,4.0,4.0,0.0,4.0
628522,4.0,0.0,0.0,0.0,4.0,0.0,0.0,38.0,0.0,20.0,24.0,58.0,0.0,0.0,0.0,0.0,0.0,0.0
603487,2.0,0.0,0.0,0.0,3.0,0.0,0.0,15.0,0.0,14.0,23.0,43.0,0.0,0.0,0.0,0.0,0.0,0.0
graph,14.0,1.0,58.0,8.0,21.0,18.0,208.0,241.0,15.0,93.0,159.0,331.0,86.0,135.0,20.0,32.0,10.0,41.0
