Vertex,0111010110110011100000100,0111110110110011100110110,0111010101110001000001000,0111010110110011100100110,0111110000100001000010000,0111110111110101110011000,0111110110110101110010000,0111110100110001000010000,0111010100110001000100010,0111110100110001000110010,0110010010100010100000100,0110010011100000100001000,0110010010100010100100110,0111010101110001000101010,0111110110110001100010000,0111110110110011100010100,0110010011100110110001100,0111110111110001100011000,0110010011100100110001000
564950,24.0,4.0,87.0,5.0,15.0,8.0,4.0,54.0,29.0,16.0,25.0,82.0,0.0,14.0,70.0,22.0,3.0,6.0,34.0
657490,10.0,2.0,55.0,4.0,14.0,1.0,1.0,25.0,10.0,5.0,35.0,80.0,0.0,13.0,32.0,9.0,3.0,3.0,26.0
628714,10.0,0.0,36.0,0.0,5.0,0.0,1.0,14.0,17.0,3.0,16.0,55.0,0.0,3.0,9.0,4.0,0.0,0.0,5.0
648951,15.0,4.0,49.0,5.0,18.0,2.0,0.0,49.0,15.0,7.0,26.0,74.0,1.0,10.0,38.0,18.0,3.0,5.0,31.0
524750,7.0,0.0,42.0,2.0,15.0,0.0,2.0,42.0,15.0,10.0,29.0,62.0,0.0,10.0,16.0,0.0,1.0,0.0,16.0
655825,3.0,0.0,45.0,0.0,33.0,8.0,4.0,55.0,8.0,6.0,7.0,63.0,0.0,5.0,45.0,8.0,0.0,4.0,5.0
496279,9.0,0.0,46.0,0.0,29.0,1.0,1.0,48.0,15.0,2.0,29.0,91.0,2.0,5.0,26.0,7.0,0.0,2.0,11.0
585661,9.0,1.0,60.0,4.0,18.0,1.0,1.0,47.0,24.0,7.0,20.0,66.0,0.0,6.0,29.0,15.0,1.0,2.0,12.0
509719,14.0,2.0,54.0,2.0,14.0,1.0,1.0,25.0,16.0,5.0,38.0,75.0,2.0,5.0,32.0,9.0,2.0,3.0,22.0
570191,32.0,4.0,96.0,4.0,11.0,11.0,10.0,57.0,39.0,18.0,32.0,71.0,1.0,7.0,84.0,30.0,0.0,8.0,8.0
505229,7.0,0.0,36.0,0.0,7.0,1.0,1.0,17.0,13.0,5.0,16.0,44.0,0.0,0.0,22.0,3.0,0.0,0.0,2.0
643735,6.0,0.0,43.0,0.0,15.0,5.0,6.0,52.0,31.0,16.0,17.0,59.0,0.0,1.0,28.0,10.0,0.0,2.0,5.0
530641,2.0,0.0,47.0,0.0,20.0,5.0,6.0,54.0,20.0,11.0,8.0,49.0,0.0,1.0,29.0,7.0,0.0,2.0,5.0
624303,8.0,0.0,17.0,0.0,0.0,0.0,0.0,0.0,20.0,0.0,43.0,49.0,2.0,2.0,1.0,0.0,0.0,0.0,8.0
501829,28.0,3.0,115.0,4.0,36.0,11.0,10.0,99.0,45.0,14.0,55.0,159.0,2.0,15.0,74.0,33.0,2.0,8.0,23.0
509109,6.0,0.0,38.0,0.0,15.0,0.0,2.0,42.0,21.0,10.0,41.0,63.0,0.0,3.0,15.0,0.0,0.0,0.0,2.0
617371,0.0,0.0,9.0,0.0,0.0,0.0,0.0,0.0,11.0,0.0,25.0,18.0,0.0,0.0,0.0,0.0,0.0,0.0,0.0
560267,0.0,0.0,0.0,0.0,0.0,0.0,0.0,0.0,1.0,0.0,11.0,0.0,0.0,0.0,0.0,0.0,0.0,0.0,0.0
579758,0.0,0.0,0.0,0.0,0.0,0.0,0.0,0.0,0.0,0.0,2.0,0.0,0.0,0.0,0.0,0.0,0.0,0.0,0.0
graph,38.0,4.0,175.0,6.0,53.0,11.0,10.0,136.0,70.0,27.0,95.0,232.0,2.0,20.0,110.0,35.0,3.0,9.0,43.0
