Vertex,0111010101110001000101010,0111010110110011100000100,0111110110110011100010100,0111010101110001000001000,0110010011100000100001000,0111110110110001100010000,0111010110110011100100110,0111110111110001100011000,0110010011100110110001100,0110010010100010100000100,0111110100110001000110010,0111110110110101110010000,0110010010100010100100110,0111110000100001000010000,0110010011100100110001000,0111110100110001000010000,0111010100110001000100010,0111110111110101110011000
530038,3.0,9.0,2.0,15.0,69.0,1.0,1.0,0.0,1.0,13.0,0.0,0.0,0.0,0.0,16.0,2.0,22.0,0.0
657611,3.0,8.0,9.0,17.0,34.0,21.0,1.0,0.0,0.0,14.0,7.0,1.0,1.0,26.0,8.0,61.0,14.0,0.0
642074,4.0,11.0,9.0,24.0,52.0,26.0,1.0,0.0,1.0,19.0,5.0,0.0,1.0,30.0,15.0,55.0,18.0,1.0
603837,5.0,0.0,0.0,3.0,66.0,12.0,1.0,0.0,1.0,9.0,0.0,1.0,0.0,54.0,23.0,53.0,15.0,0.0
528609,1.0,2.0,8.0,14.0,35.0,25.0,0.0,2.0,0.0,13.0,4.0,0.0,1.0,34.0,2.0,48.0,9.0,1.0
531160,3.0,3.0,0.0,12.0,65.0,2.0,0.0,0.0,1.0,10.0,0.0,0.0,0.0,0.0,9.0,2.0,14.0,0.0
548064,2.0,4.0,8.0,19.0,29.0,30.0,0.0,1.0,0.0,14.0,4.0,4.0,1.0,25.0,2.0,49.0,15.0,4.0
554368,4.0,12.0,14.0,31.0,138.0,60.0,1.0,2.0,1.0,5.0,14.0,4.0,0.0,90.0,22.0,147.0,40.0,4.0
467349,0.0,1.0,3.0,7.0,41.0,19.0,0.0,2.0,0.0,5.0,2.0,0.0,0.0,46.0,3.0,48.0,6.0,1.0
575884,0.0,4.0,9.0,7.0,28.0,36.0,0.0,2.0,0.0,15.0,6.0,4.0,1.0,12.0,3.0,48.0,27.0,4.0
569984,0.0,1.0,3.0,8.0,38.0,18.0,0.0,0.0,0.0,4.0,3.0,0.0,0.0,42.0,3.0,53.0,6.0,1.0
461168,0.0,1.0,0.0,13.0,30.0,12.0,0.0,0.0,0.0,0.0,9.0,1.0,0.0,35.0,3.0,63.0,5.0,0.0
650737,0.0,1.0,0.0,13.0,57.0,12.0,0.0,0.0,0.0,5.0,9.0,1.0,0.0,35.0,3.0,63.0,14.0,0.0
523413,0.0,3.0,5.0,8.0,31.0,26.0,0.0,1.0,0.0,9.0,7.0,4.0,0.0,21.0,3.0,53.0,21.0,4.0
575823,0.0,0.0,0.0,9.0,27.0,0.0,0.0,0.0,0.0,5.0,0.0,0.0,0.0,0.0,0.0,0.0,9.0,0.0
graph,5.0,12.0,14.0,40.0,148.0,60.0,1.0,2.0,1.0,28.0,14.0,4.0,1.0,90.0,23.0,149.0,47.0,4.0
