Vertex,0111101111001100,0110101111010110,0110101111000100,0110101011010010,0111100110001100,0101101001001000,0101101101001100,0100101101000100,0111100010011010,0111101011011010,0101101001011010,0111100010001000,0111100110011110,0110100110010110,0110100110000100,0111101011001000,0110100010010010
605551,0.0,0.0,35.0,19.0,20.0,8.0,2.0,0.0,22.0,0.0,0.0,64.0,0.0,0.0,46.0,84.0,16.0
554368,18.0,10.0,68.0,36.0,42.0,40.0,4.0,2.0,42.0,14.0,29.0,192.0,1.0,140.0,140.0,165.0,63.0
567078,0.0,0.0,35.0,19.0,20.0,10.0,2.0,0.0,22.0,0.0,12.0,99.0,0.0,70.0,72.0,84.0,24.0
515760,0.0,0.0,16.0,10.0,16.0,22.0,4.0,2.0,16.0,0.0,18.0,59.0,0.0,105.0,142.0,35.0,51.0
477333,18.0,10.0,29.0,15.0,20.0,10.0,2.0,0.0,18.0,14.0,12.0,107.0,1.0,70.0,82.0,71.0,26.0
524316,18.0,10.0,45.0,23.0,28.0,8.0,2.0,0.0,26.0,14.0,0.0,40.0,1.0,0.0,57.0,111.0,19.0
466328,0.0,0.0,12.0,6.0,6.0,20.0,0.0,2.0,6.0,0.0,23.0,155.0,0.0,105.0,107.0,30.0,42.0
541201,0.0,0.0,12.0,6.0,6.0,18.0,0.0,0.0,6.0,0.0,11.0,96.0,0.0,35.0,63.0,30.0,34.0
628766,18.0,10.0,20.0,10.0,10.0,10.0,0.0,0.0,10.0,14.0,0.0,72.0,1.0,0.0,44.0,50.0,17.0
472657,0.0,0.0,0.0,0.0,0.0,22.0,0.0,2.0,0.0,0.0,11.0,24.0,0.0,35.0,95.0,0.0,44.0
graph,18.0,10.0,68.0,36.0,42.0,42.0,4.0,2.0,42.0,14.0,29.0,227.0,1.0,140.0,212.0,165.0,84.0
