Vertex,0110010010100010100100110,0111110111110101110011000,0111110111110111110011100,0111110110110011100010100,0111110110110011100110110,0110010011100110110001100,0110010010100010100000100,0110010011100000100001000,0111110000100001000010000,0111110110110101110010000,0110010011100100110001000,0111110110110001100010000,0111010110110011100000100,0111010101110001000101010,0111110100110001000110010,0111010110110011100100110,0111010100110001000100010,0111110100110001000010000,0111110111110001100011000,0111010101110001000001000
581357,2.0,20.0,6.0,43.0,13.0,5.0,27.0,79.0,14.0,11.0,32.0,79.0,43.0,25.0,5.0,8.0,17.0,41.0,15.0,52.0
505064,1.0,3.0,0.0,14.0,2.0,2.0,32.0,98.0,14.0,3.0,31.0,28.0,26.0,17.0,3.0,2.0,23.0,31.0,8.0,36.0
548017,1.0,3.0,0.0,21.0,3.0,1.0,29.0,79.0,10.0,3.0,27.0,23.0,26.0,17.0,5.0,4.0,17.0,31.0,8.0,41.0
599370,2.0,4.0,0.0,28.0,4.0,2.0,43.0,58.0,8.0,3.0,26.0,45.0,19.0,19.0,12.0,3.0,29.0,33.0,3.0,49.0
585423,0.0,0.0,0.0,0.0,0.0,1.0,17.0,63.0,15.0,6.0,19.0,32.0,11.0,8.0,0.0,2.0,12.0,32.0,0.0,28.0
639896,0.0,6.0,0.0,16.0,5.0,3.0,25.0,64.0,18.0,1.0,23.0,48.0,17.0,16.0,4.0,7.0,11.0,36.0,6.0,42.0
606110,0.0,10.0,3.0,16.0,4.0,2.0,14.0,60.0,17.0,7.0,14.0,49.0,21.0,7.0,3.0,3.0,20.0,36.0,5.0,39.0
648339,0.0,12.0,3.0,19.0,4.0,2.0,25.0,91.0,21.0,9.0,15.0,53.0,21.0,8.0,4.0,3.0,16.0,48.0,10.0,65.0
463267,2.0,21.0,7.0,33.0,5.0,1.0,33.0,63.0,7.0,14.0,11.0,61.0,35.0,14.0,6.0,3.0,31.0,37.0,8.0,43.0
467699,0.0,8.0,1.0,19.0,0.0,0.0,11.0,69.0,11.0,5.0,10.0,32.0,18.0,5.0,3.0,0.0,10.0,33.0,5.0,55.0
501997,0.0,23.0,7.0,53.0,9.0,1.0,16.0,62.0,8.0,16.0,17.0,75.0,48.0,18.0,6.0,8.0,15.0,40.0,16.0,79.0
535398,0.0,11.0,5.0,22.0,9.0,3.0,29.0,48.0,3.0,12.0,24.0,56.0,31.0,16.0,7.0,7.0,20.0,25.0,5.0,45.0
566822,0.0,0.0,0.0,0.0,0.0,0.0,17.0,36.0,0.0,2.0,3.0,2.0,13.0,0.0,0.0,0.0,10.0,0.0,0.0,25.0
631870,2.0,4.0,0.0,15.0,1.0,0.0,32.0,54.0,8.0,3.0,8.0,36.0,18.0,9.0,6.0,0.0,13.0,27.0,2.0,54.0
561428,0.0,25.0,8.0,46.0,11.0,2.0,10.0,86.0,21.0,20.0,30.0,96.0,53.0,21.0,6.0,5.0,21.0,60.0,14.0,72.0
graph,2.0,30.0,8.0,69.0,14.0,5.0,72.0,202.0,35.0,23.0,58.0,143.0,80.0,40.0,14.0,11.0,53.0,102.0,21.0,145.0
