,Source,Target,eType,Time,Weight,SourceLocation,TargetLocation,SourceLatitude,SourceLongitude,TargetLatitude,TargetLongitude
0,512332,489112,1,15483405,1.0,4,4,2.3008,-164.699,1.5346,-168.604
1,512332,489112,0,3720690,1.0,-1,-1,,,,
2,651631,548652,0,11766966,1.0,-1,-1,,,,
3,472092,537354,0,21433528,1.0,-1,-1,,,,
4,537354,572173,1,20335248,1.0,5,3,24.8657,154.722,-26.0508,-111.629
5,591140,651631,0,29304438,1.0,-1,-1,,,,
6,624608,537354,0,14035586,1.0,-1,-1,,,,
7,526900,624608,0,17033086,1.0,-1,-1,,,,
8,535358,624608,1,18492527,1.0,4,0,2.01992,-165.042,35.6014,-41.0987
9,624608,489112,0,29242162,1.0,-1,-1,,,,
10,572173,535358,1,5883152,1.0,3,4,-26.0508,-111.629,2.01992,-165.042
11,600574,548652,0,19455960,1.0,-1,-1,,,,
12,600574,537354,0,26188602,1.0,-1,-1,,,,
13,624608,467432,0,15227025,1.0,-1,-1,,,,
14,542136,572173,0,22580189,1.0,-1,-1,,,,
15,629523,512332,1,28200628,1.0,2,4,-23.5682,91.8023,2.3008,-164.699
16,600574,591140,1,21303567,1.0,0,1,32.5163,-34.5109,-28.0355,-14.5325
17,635566,535358,1,31050051,1.0,5,4,23.2604,152.495,2.01992,-165.042
18,537354,467432,0,21696701,1.0,-1,-1,,,,
19,472092,641837,0,31030114,1.0,-1,-1,,,,
20,641837,600574,1,1910096,1.0,2,0,-24.1184,89.4676,32.5163,-34.5109
21,459130,629523,1,9246239,1.0,4,2,-1.23006,-164.861,-23.5682,91.8023
22,572173,526900,0,2420061,1.0,-1,-1,,,,
23,548652,467432,1,22817811,1.0,3,2,-24.8915,-111.181,-17.0873,88.4777
24,535358,548652,0,16180580,1.0,-1,-1,,,,
25,548652,471910,0,28985042,1.0,-1,-1,,,,
26,548652,526900,1,27410246,1.0,3,3,-24.8915,-111.181,-24.694,-110.999
27,489112,542136,0,5910211,1.0,-1,-1,,,,
28,542136,467432,0,991477,1.0,-1,-1,,,,
29,624608,471910,1,6587428,1.0,0,1,35.6014,-41.0987,-25.4252,-18.7034
30,624608,471910,1,14277868,1.0,0,1,35.6014,-41.0987,-25.4252,-18.7034
31,512332,459130,1,12960489,1.0,4,4,2.3008,-164.699,-1.23006,-164.861
32,651631,635566,0,20325118,1.0,-1,-1,,,,
33,489112,600574,0,29067392,1.0,-1,-1,,,,
34,548652,600971,0,12111164,1.0,-1,-1,,,,
35,512332,548652,0,17004036,1.0,-1,-1,,,,
36,467432,472092,0,26798043,1.0,-1,-1,,,,
37,471910,529703,1,7014982,1.0,1,0,-25.4252,-18.7034,36.3153,-36.1187
38,600971,459130,0,11956844,1.0,-1,-1,,,,
1525639,459130,527449,5,31536000,124.18,-1,-1,,,,
1525646,459130,567195,5,31536000,557.17,-1,-1,,,,
1525650,459130,536346,5,31536000,669.88,-1,-1,,,,
1525721,459130,520660,5,31536000,928.9,-1,-1,,,,
1525723,459130,473173,5,31536000,707.89,-1,-1,,,,
1525745,459130,632961,5,31536000,79.78,-1,-1,,,,
1525750,459130,575030,5,31536000,4108.38,-1,-1,,,,
1525770,459130,621924,5,31536000,486.15,-1,-1,,,,
1525780,459130,595581,5,31536000,720.63,-1,-1,,,,
1525785,459130,595298,5,31536000,870.89,-1,-1,,,,
1525787,459130,466907,5,31536000,347.96,-1,-1,,,,
1525788,459130,580426,5,31536000,93.65,-1,-1,,,,
1525791,459130,537281,5,31536000,166.2,-1,-1,,,,
1525792,459130,644226,5,31536000,164.01,-1,-1,,,,
1525793,459130,589943,5,31536000,831.82,-1,-1,,,,
1525798,459130,616315,5,31536000,564.66,-1,-1,,,,
1525802,459130,503701,5,31536000,624.81,-1,-1,,,,
1525805,459130,459381,5,31536000,146.29,-1,-1,,,,
12029812,489112,640784,5,31536000,112.72,-1,-1,,,,
12029814,489112,630626,5,31536000,2481.08,-1,-1,,,,
12029816,489112,527449,5,31536000,47.66,-1,-1,,,,
12029821,489112,595298,5,31536000,534.38,-1,-1,,,,
12029823,489112,466907,5,31536000,118.76,-1,-1,,,,
12029824,489112,589943,5,31536000,113.2,-1,-1,,,,
12029825,489112,577992,5,31536000,519.29,-1,-1,,,,
12029826,489112,537281,5,31536000,32.83,-1,-1,,,,
12029827,489112,580426,5,31536000,39.99,-1,-1,,,,
12029829,489112,595581,5,31536000,78.47,-1,-1,,,,
12029830,489112,459381,5,31536000,121.14,-1,-1,,,,
12029861,489112,642329,5,31536000,397.76,-1,-1,,,,
12029863,489112,621924,5,31536000,1028.05,-1,-1,,,,
12029902,489112,503701,5,31536000,567.94,-1,-1,,,,
12029903,489112,571970,5,31536000,29.42,-1,-1,,,,
12029906,489112,632961,5,31536000,3.23,-1,-1,,,,
12029908,489112,473173,5,31536000,437.07,-1,-1,,,,
12029909,489112,620120,5,31536000,258.12,-1,-1,,,,
12029910,489112,575030,5,31536000,446.06,-1,-1,,,,
12030772,489112,657173,6,14428800,4.0,4,1,1.0,-165.0,-29.0,-13.0
12030781,489112,616453,6,10540800,4.0,4,5,1.0,-165.0,22.0,156.0
12030785,489112,561157,6,18921600,4.0,1,0,-29.0,-13.0,33.0,-41.0
12030788,489112,499467,6,2160000,2.0,1,2,-29.0,-13.0,-22.0,91.0
12030792,489112,561157,6,28252800,2.0,4,0,1.0,-165.0,33.0,-41.0
12030793,489112,561157,6,28339200,0.0,4,0,1.0,-165.0,33.0,-41.0
12030797,489112,625756,6,6480000,0.0,4,3,1.0,-165.0,-25.0,-111.0
12030804,489112,509607,6,20649600,-1.0,3,4,-25.0,-111.0,1.0,-165.0
12030807,489112,561157,6,29548800,2.0,4,0,1.0,-165.0,33.0,-41.0
12030848,489112,561157,6,18921600,4.0,1,0,-29.0,-13.0,33.0,-41.0
12030854,489112,616453,6,10540800,4.0,4,5,1.0,-165.0,22.0,156.0
12030863,489112,499467,6,2160000,2.0,1,2,-29.0,-13.0,-22.0,91.0
12030864,489112,561157,6,29548800,2.0,4,0,1.0,-165.0,33.0,-41.0
12030865,489112,509607,6,20649600,-1.0,3,4,-25.0,-111.0,1.0,-165.0
12030876,489112,657173,6,14428800,4.0,4,1,1.0,-165.0,-29.0,-13.0
12030877,489112,561157,6,28252800,2.0,4,0,1.0,-165.0,33.0,-41.0
12030879,489112,561157,6,28339200,0.0,4,0,1.0,-165.0,33.0,-41.0
12030880,489112,625756,6,6480000,0.0,4,3,1.0,-165.0,-25.0,-111.0
12031126,489112,657173,6,14428800,4.0,4,1,1.0,-165.0,-29.0,-13.0
12031129,489112,561157,6,28252800,2.0,4,0,1.0,-165.0,33.0,-41.0
12031132,489112,561157,6,28339200,0.0,4,0,1.0,-165.0,33.0,-41.0
12031134,489112,625756,6,6480000,0.0,4,3,1.0,-165.0,-25.0,-111.0
12031135,489112,509607,6,20649600,-1.0,3,4,-25.0,-111.0,1.0,-165.0
12031157,489112,561157,6,29548800,2.0,4,0,1.0,-165.0,33.0,-41.0
12031174,489112,499467,6,2160000,2.0,1,2,-29.0,-13.0,-22.0,91.0
12031176,489112,616453,6,10540800,4.0,4,5,1.0,-165.0,22.0,156.0
12031212,489112,561157,6,18921600,4.0,1,0,-29.0,-13.0,33.0,-41.0
12031214,489112,561157,6,18921600,4.0,1,0,-29.0,-13.0,33.0,-41.0
12031215,489112,616453,6,10540800,4.0,4,5,1.0,-165.0,22.0,156.0
12031216,489112,499467,6,2160000,2.0,1,2,-29.0,-13.0,-22.0,91.0
12031217,489112,561157,6,29548800,2.0,4,0,1.0,-165.0,33.0,-41.0
12031218,489112,509607,6,20649600,-1.0,3,4,-25.0,-111.0,1.0,-165.0
12031219,489112,625756,6,6480000,0.0,4,3,1.0,-165.0,-25.0,-111.0
12031220,489112,561157,6,28339200,0.0,4,0,1.0,-165.0,33.0,-41.0
12031221,489112,561157,6,28252800,2.0,4,0,1.0,-165.0,33.0,-41.0
12031222,489112,657173,6,14428800,4.0,4,1,1.0,-165.0,-29.0,-13.0
12031389,489112,657173,6,14428800,4.0,4,1,1.0,-165.0,-29.0,-13.0
12031390,489112,561157,6,28252800,2.0,4,0,1.0,-165.0,33.0,-41.0
12031399,489112,561157,6,28339200,0.0,4,0,1.0,-165.0,33.0,-41.0
12031400,489112,625756,6,6480000,0.0,4,3,1.0,-165.0,-25.0,-111.0
12031401,489112,509607,6,20649600,-1.0,3,4,-25.0,-111.0,1.0,-165.0
12031438,489112,499467,6,2160000,2.0,1,2,-29.0,-13.0,-22.0,91.0
12031444,489112,561157,6,18921600,4.0,1,0,-29.0,-13.0,33.0,-41.0
12031446,489112,561157,6,29548800,2.0,4,0,1.0,-165.0,33.0,-41.0
12031456,489112,616453,6,10540800,4.0,4,5,1.0,-165.0,22.0,156.0
25539175,510031,542136,5,31536000,390.38,-1,-1,,,,
25545844,510031,651631,5,31536000,582.6,-1,-1,,,,
25549741,510031,624608,5,31536000,1231.87,-1,-1,,,,
25551057,510031,537354,5,31536000,842.08,-1,-1,,,,
25553052,510031,535358,5,31536000,206.3,-1,-1,,,,
25558166,510031,526900,5,31536000,289.94,-1,-1,,,,
25560510,510031,467432,5,31536000,601.14,-1,-1,,,,
25572020,510031,635566,5,31536000,25.45,-1,-1,,,,
25581003,510031,600971,5,31536000,3229.47,-1,-1,,,,
25581803,510031,629523,5,31536000,735.58,-1,-1,,,,
25582393,510031,512332,5,31536000,177.67,-1,-1,,,,
25583035,510031,489112,5,31536000,735.35,-1,-1,,,,
25585413,510031,472092,5,31536000,761.61,-1,-1,,,,
25595163,510031,572173,5,31536000,898.2,-1,-1,,,,
27046445,512332,509607,6,18662400,-1.0,0,4,33.0,-41.0,1.0,-165.0
27046458,512332,504508,2,14273158,79.0,-1,-1,,,,
27046485,512332,504508,2,525054,127.0,-1,-1,,,,
27046496,512332,527769,2,5633197,10381.0,-1,-1,,,,
27046501,512332,504508,2,8085655,1989.0,-1,-1,,,,
27046502,512332,485885,3,21431862,236.0,-1,-1,,,,
27046533,512332,504508,2,20096662,503.0,-1,-1,,,,
27046550,512332,469675,3,20147589,81.0,-1,-1,,,,
27046582,512332,500248,3,5636412,115.0,-1,-1,,,,
27046587,512332,620052,3,27406475,18.0,-1,-1,,,,
27046595,512332,482579,3,22479625,185.0,-1,-1,,,,
27046600,512332,613410,3,14776430,154.0,-1,-1,,,,
27046605,512332,504508,2,29755242,124.0,-1,-1,,,,
27046607,512332,527769,2,30505447,1481.0,-1,-1,,,,
27046613,512332,530158,2,2961561,152.0,-1,-1,,,,
27046616,512332,500811,3,23331114,470.0,-1,-1,,,,
27046650,512332,504508,2,7099807,1632.0,-1,-1,,,,
27046651,512332,597461,3,11295055,5450.0,-1,-1,,,,
27046660,512332,579591,3,24389908,111.0,-1,-1,,,,
27046670,512332,625756,6,18489600,5.0,4,3,1.0,-165.0,-25.0,-111.0
27046672,512332,509607,6,15206400,-1.0,1,4,-29.0,-13.0,1.0,-165.0
27046690,512332,519943,3,611838,1894.0,-1,-1,,,,
27046694,512332,519943,3,28279681,324.0,-1,-1,,,,
27046702,512332,504508,2,8346248,296.0,-1,-1,,,,
27046704,512332,657173,6,7430400,0.0,4,1,1.0,-165.0,-29.0,-13.0
27046723,512332,530158,2,11504673,316.0,-1,-1,,,,
27046735,512332,602870,3,18104520,135.0,-1,-1,,,,
27046748,512332,504508,2,10972811,5729.0,-1,-1,,,,
27046784,512332,546489,3,30529447,1.0,-1,-1,,,,
27046789,512332,504508,2,22228224,2226.0,-1,-1,,,,
27046791,512332,581518,3,30947211,736.0,-1,-1,,,,
27046792,512332,561157,6,17020800,2.0,4,0,1.0,-165.0,33.0,-41.0
27046796,512332,499177,3,21037338,1.0,-1,-1,,,,
27046802,512332,657173,6,8812800,4.0,4,1,1.0,-165.0,-29.0,-13.0
27046813,512332,504508,2,3063022,24.0,-1,-1,,,,
27046816,512332,504508,2,9283699,514.0,-1,-1,,,,
27046817,512332,504508,2,4495816,881.0,-1,-1,,,,
27046842,512332,578304,3,15752677,323.0,-1,-1,,,,
27046851,512332,641131,3,25435678,420.0,-1,-1,,,,
27046873,512332,504600,3,17465766,250.0,-1,-1,,,,
27046879,512332,616453,6,26265600,2.0,2,5,-22.0,91.0,22.0,156.0
27046897,512332,625756,6,15120000,4.0,4,3,1.0,-165.0,-25.0,-111.0
27046928,512332,490137,3,18622977,692.0,-1,-1,,,,
27046934,512332,552748,3,18588253,171.0,-1,-1,,,,
27046959,512332,530158,2,18423629,105.0,-1,-1,,,,
27046960,512332,563404,3,18423629,2.0,-1,-1,,,,
27046972,512332,504508,2,18520615,1400.0,-1,-1,,,,
27046980,512332,577037,3,18492946,957.0,-1,-1,,,,
27046987,512332,504508,2,18835249,5331.0,-1,-1,,,,
27047016,512332,530158,2,19268001,198.0,-1,-1,,,,
27047041,512332,504508,2,19024253,552.0,-1,-1,,,,
27047049,512332,504508,2,19010887,114.0,-1,-1,,,,
27047065,512332,552748,3,17934483,18.0,-1,-1,,,,
27047079,512332,504508,2,17923723,1482.0,-1,-1,,,,
27047082,512332,597727,3,17989841,337.0,-1,-1,,,,
27047092,512332,504508,2,17542118,8899.0,-1,-1,,,,
27047112,512332,504508,2,17631060,3691.0,-1,-1,,,,
27047129,512332,528019,3,18249168,380.0,-1,-1,,,,
27047161,512332,504508,2,17976658,201.0,-1,-1,,,,
27047172,512332,504508,2,18208993,286.0,-1,-1,,,,
27047173,512332,618142,3,18058702,9.0,-1,-1,,,,
27047221,512332,504508,2,20597760,88.0,-1,-1,,,,
27047251,512332,643265,3,20320423,353.0,-1,-1,,,,
27047283,512332,504508,2,20832535,523.0,-1,-1,,,,
27047291,512332,609237,3,20595170,12.0,-1,-1,,,,
27047293,512332,530158,2,20742139,523.0,-1,-1,,,,
27047301,512332,504508,2,20572249,5955.0,-1,-1,,,,
27047302,512332,459590,3,20572249,1307.0,-1,-1,,,,
27047308,512332,504508,2,19327390,255.0,-1,-1,,,,
27047313,512332,561701,3,30264400,6.0,-1,-1,,,,
27047326,512332,504508,2,20171195,75.0,-1,-1,,,,
27047332,512332,504508,2,19626064,71.0,-1,-1,,,,
27047334,512332,504508,2,19649543,1889.0,-1,-1,,,,
27047349,512332,527769,2,19767285,769.0,-1,-1,,,,
27047353,512332,504508,2,19700245,632.0,-1,-1,,,,
27047376,512332,504508,2,19544066,90.0,-1,-1,,,,
27047377,512332,483999,3,19455175,234.0,-1,-1,,,,
27047387,512332,530158,2,19527175,1546.0,-1,-1,,,,
27047400,512332,504508,2,20058062,268.0,-1,-1,,,,
27047407,512332,532053,2,20049618,78.0,-1,-1,,,,
27047409,512332,504508,2,20071208,559.0,-1,-1,,,,
27047425,512332,476648,3,20131244,5721.0,-1,-1,,,,
27047439,512332,504508,2,19872005,31.0,-1,-1,,,,
27047473,512332,504508,2,15391687,614.0,-1,-1,,,,
27047477,512332,504508,2,15379214,485.0,-1,-1,,,,
27047484,512332,530158,2,26980763,1062.0,-1,-1,,,,
27047496,512332,527769,2,15489922,105.0,-1,-1,,,,
27047497,512332,602870,3,19919891,162.0,-1,-1,,,,
27047500,512332,643087,3,15035606,2.0,-1,-1,,,,
27047530,512332,631478,3,15057037,2230.0,-1,-1,,,,
27047533,512332,530158,2,15743701,8039.0,-1,-1,,,,
27047540,512332,530158,2,15749107,8642.0,-1,-1,,,,
27047563,512332,530158,2,15828395,916.0,-1,-1,,,,
27047579,512332,530158,2,15580392,277.0,-1,-1,,,,
27047607,512332,504508,2,14521534,531.0,-1,-1,,,,
27047613,512332,504508,2,14523147,8651.0,-1,-1,,,,
27047620,512332,504508,2,14645283,1176.0,-1,-1,,,,
27047623,512332,504508,2,14634361,141.0,-1,-1,,,,
27047636,512332,467175,3,14261487,5594.0,-1,-1,,,,
27047640,512332,569441,3,14259875,82.0,-1,-1,,,,
27047648,512332,530158,2,14402833,114.0,-1,-1,,,,
27047652,512332,527769,2,14356259,631.0,-1,-1,,,,
27047655,512332,527769,2,14347022,685.0,-1,-1,,,,
27047666,512332,618398,3,14634360,382.0,-1,-1,,,,
27047671,512332,504508,2,15010251,220.0,-1,-1,,,,
27047696,512332,530158,2,15070851,171.0,-1,-1,,,,
27047699,512332,602710,3,14949024,30.0,-1,-1,,,,
27047726,512332,654907,3,15901490,552.0,-1,-1,,,,
27047728,512332,504508,2,14862126,748.0,-1,-1,,,,
27047738,512332,530158,2,17037373,278.0,-1,-1,,,,
27047740,512332,504508,2,17033444,295.0,-1,-1,,,,
27047774,512332,651537,3,16865215,27.0,-1,-1,,,,
27047785,512332,475970,3,6571498,474.0,-1,-1,,,,
27047805,512332,614798,3,17303766,579.0,-1,-1,,,,
27047806,512332,509607,6,18662400,-1.0,0,4,33.0,-41.0,1.0,-165.0
27047807,512332,657173,6,7430400,0.0,4,1,1.0,-165.0,-29.0,-13.0
27047808,512332,625756,6,18489600,5.0,4,3,1.0,-165.0,-25.0,-111.0
27047809,512332,509607,6,15206400,-1.0,1,4,-29.0,-13.0,1.0,-165.0
27047810,512332,616453,6,26265600,2.0,2,5,-22.0,91.0,22.0,156.0
27047812,512332,625756,6,15120000,4.0,4,3,1.0,-165.0,-25.0,-111.0
27047813,512332,657173,6,8812800,4.0,4,1,1.0,-165.0,-29.0,-13.0
27047814,512332,561157,6,17020800,2.0,4,0,1.0,-165.0,33.0,-41.0
27047816,512332,580553,3,17368343,87.0,-1,-1,,,,
27047818,512332,504508,2,17462929,1947.0,-1,-1,,,,
27047821,512332,504508,2,17462929,36.0,-1,-1,,,,
27047826,512332,641131,3,17467396,546.0,-1,-1,,,,
27047830,512332,530158,2,17500710,5664.0,-1,-1,,,,
27047843,512332,530158,2,17286051,1894.0,-1,-1,,,,
27047868,512332,504508,2,17415563,2441.0,-1,-1,,,,
27047885,512332,530158,2,16205763,316.0,-1,-1,,,,
27047888,512332,504508,2,16159474,19508.0,-1,-1,,,,
27047891,512332,504508,2,16285479,1220.0,-1,-1,,,,
27047908,512332,547205,3,15897613,238.0,-1,-1,,,,
27047925,512332,530158,2,15990025,5261.0,-1,-1,,,,
27047928,512332,504508,2,16006497,507.0,-1,-1,,,,
27047930,512332,509969,3,16018802,398.0,-1,-1,,,,
27047945,512332,504508,2,16609928,100.0,-1,-1,,,,
27047949,512332,504508,2,16637561,296.0,-1,-1,,,,
27047988,512332,504508,2,16435858,335.0,-1,-1,,,,
27048008,512332,504508,2,14196647,296.0,-1,-1,,,,
27048016,512332,643849,3,25066125,4483.0,-1,-1,,,,
27048025,512332,529694,3,25093848,100.0,-1,-1,,,,
27048026,512332,504508,2,25148712,1405.0,-1,-1,,,,
27048041,512332,461577,3,25148712,28.0,-1,-1,,,,
27048049,512332,504508,2,24905935,395.0,-1,-1,,,,
27048057,512332,504508,2,25024327,1645.0,-1,-1,,,,
27048083,512332,504508,2,25445482,4305.0,-1,-1,,,,
27048110,512332,477643,3,25143503,671.0,-1,-1,,,,
27048126,512332,504508,2,25246751,148.0,-1,-1,,,,
27048127,512332,630657,3,25342843,1.0,-1,-1,,,,
27048140,512332,504508,2,14214049,8651.0,-1,-1,,,,
27048145,512332,504508,2,24903749,78.0,-1,-1,,,,
27048146,512332,568436,3,24899710,18.0,-1,-1,,,,
27048153,512332,504508,2,24313828,269.0,-1,-1,,,,
27048157,512332,530158,2,24398476,265.0,-1,-1,,,,
27048180,512332,527769,2,7953410,4890.0,-1,-1,,,,
27048189,512332,504508,2,24145963,614.0,-1,-1,,,,
27048236,512332,504508,2,24827627,8.0,-1,-1,,,,
27048246,512332,530158,2,24487250,1569.0,-1,-1,,,,
27048275,512332,504508,2,13234355,258.0,-1,-1,,,,
27048391,512332,565579,3,4643045,1.0,-1,-1,,,,
27048406,512332,604563,3,26295864,3302.0,-1,-1,,,,
27048435,512332,615048,3,25923656,959.0,-1,-1,,,,
27048524,512332,605303,3,26014001,4256.0,-1,-1,,,,
27048555,512332,504508,2,24113746,7408.0,-1,-1,,,,
27048556,512332,473173,5,31536000,205.28,-1,-1,,,,
27048557,512332,632961,5,31536000,42.85,-1,-1,,,,
27048558,512332,571970,5,31536000,70.69,-1,-1,,,,
27048559,512332,503701,5,31536000,555.45,-1,-1,,,,
27048560,512332,642329,5,31536000,471.18,-1,-1,,,,
27048561,512332,616315,5,31536000,306.74,-1,-1,,,,
27048562,512332,580426,5,31536000,110.2,-1,-1,,,,
27048563,512332,523927,5,31536000,1036.82,-1,-1,,,,
27048564,512332,537281,5,31536000,58.16,-1,-1,,,,
27048565,512332,589943,5,31536000,242.48,-1,-1,,,,
27048566,512332,606730,5,31536000,146.07,-1,-1,,,,
27048567,512332,466907,5,31536000,7.25,-1,-1,,,,
27048568,512332,595298,5,31536000,585.8,-1,-1,,,,
27048569,512332,459381,5,31536000,120.51,-1,-1,,,,
27048571,512332,527449,5,31536000,21.23,-1,-1,,,,
27048586,512332,630626,5,31536000,50.27,-1,-1,,,,
27048588,512332,620120,5,31536000,471.3,-1,-1,,,,
27048589,512332,621924,5,31536000,292.86,-1,-1,,,,
27048599,512332,509816,3,21865525,38.0,-1,-1,,,,
27048604,512332,575030,5,31536000,1360.58,-1,-1,,,,
27048640,512332,504508,2,22377634,253.0,-1,-1,,,,
27048650,512332,525263,3,22444882,1490.0,-1,-1,,,,
27048662,512332,483999,3,22150336,811.0,-1,-1,,,,
27048674,512332,530158,2,22233636,241.0,-1,-1,,,,
27048692,512332,504508,2,21190442,916.0,-1,-1,,,,
27048694,512332,515723,3,21180282,265.0,-1,-1,,,,
27048712,512332,643849,3,21302158,33.0,-1,-1,,,,
27048724,512332,532053,2,21228441,105.0,-1,-1,,,,
27048746,512332,530158,2,21127214,110.0,-1,-1,,,,
27048773,512332,469675,3,21703254,2159.0,-1,-1,,,,
27048785,512332,504508,2,21727455,34.0,-1,-1,,,,
27048795,512332,504508,2,21342384,766.0,-1,-1,,,,
27048814,512332,504508,2,21518643,1175.0,-1,-1,,,,
27048831,512332,536624,3,27606895,506.0,-1,-1,,,,
27048854,512332,504508,2,23677563,126.0,-1,-1,,,,
27048859,512332,567281,3,23619124,22.0,-1,-1,,,,
27048868,512332,554011,3,3636641,188.0,-1,-1,,,,
27048889,512332,504508,2,23433941,326.0,-1,-1,,,,
27048892,512332,504508,2,23463462,78.0,-1,-1,,,,
27048922,512332,504508,2,24019252,1894.0,-1,-1,,,,
27048932,512332,520837,3,23674885,197.0,-1,-1,,,,
27048935,512332,576954,3,18638432,38.0,-1,-1,,,,
27048936,512332,530158,2,23761817,393.0,-1,-1,,,,
27048939,512332,504508,2,23795419,162.0,-1,-1,,,,
27048951,512332,504508,2,23881504,1315.0,-1,-1,,,,
27048962,512332,560703,3,23248115,2164.0,-1,-1,,,,
27049066,512332,610944,3,23089860,326.0,-1,-1,,,,
27049069,512332,530158,2,17213131,143.0,-1,-1,,,,
27049070,512332,581101,3,22900201,128.0,-1,-1,,,,
27049071,512332,504508,2,27066291,652.0,-1,-1,,,,
27049085,512332,483999,3,22999681,1909.0,-1,-1,,,,
27049089,512332,530158,2,22991236,614.0,-1,-1,,,,
27049099,512332,530158,2,26541014,916.0,-1,-1,,,,
27049104,512332,541067,3,4944994,519.0,-1,-1,,,,
27049129,512332,504508,2,5012427,2827.0,-1,-1,,,,
27049187,512332,504508,2,5549065,9007.0,-1,-1,,,,
27049208,512332,504508,2,5247848,1566.0,-1,-1,,,,
27049212,512332,469675,3,5238088,183.0,-1,-1,,,,
27049239,512332,539416,3,4254071,38.0,-1,-1,,,,
27049242,512332,596301,3,4245152,182.0,-1,-1,,,,
27049246,512332,504508,2,4243805,296.0,-1,-1,,,,
27049250,512332,542241,3,4250903,1032.0,-1,-1,,,,
27049267,512332,504508,2,4353176,31.0,-1,-1,,,,
27049273,512332,504508,2,3987870,4618.0,-1,-1,,,,
27049286,512332,489627,3,4237429,686.0,-1,-1,,,,
27049306,512332,625756,6,18489600,5.0,4,3,1.0,-165.0,-25.0,-111.0
27049307,512332,657173,6,7430400,0.0,4,1,1.0,-165.0,-29.0,-13.0
27049308,512332,509607,6,18662400,-1.0,0,4,33.0,-41.0,1.0,-165.0
27049310,512332,504508,2,18147381,6050.0,-1,-1,,,,
27049314,512332,583906,3,21090031,8.0,-1,-1,,,,
27049320,512332,509607,6,15206400,-1.0,1,4,-29.0,-13.0,1.0,-165.0
27049328,512332,527769,2,4601024,940.0,-1,-1,,,,
27049338,512332,616453,6,26265600,2.0,2,5,-22.0,91.0,22.0,156.0
27049339,512332,657173,6,8812800,4.0,4,1,1.0,-165.0,-29.0,-13.0
27049354,512332,625756,6,15120000,4.0,4,3,1.0,-165.0,-25.0,-111.0
27049356,512332,527769,2,4502068,894.0,-1,-1,,,,
27049364,512332,504508,2,4624453,307.0,-1,-1,,,,
27049369,512332,561157,6,17020800,2.0,4,0,1.0,-165.0,33.0,-41.0
27049376,512332,504508,2,6930003,3761.0,-1,-1,,,,
27049379,512332,578918,3,6918007,639.0,-1,-1,,,,
27049405,512332,625145,3,7101398,38.0,-1,-1,,,,
27049413,512332,504508,2,6755207,631.0,-1,-1,,,,
27049425,512332,504508,2,6851544,20.0,-1,-1,,,,
27049457,512332,461577,3,7375520,2.0,-1,-1,,,,
27049467,512332,467427,3,20768817,149.0,-1,-1,,,,
27049468,512332,504508,2,7461496,865.0,-1,-1,,,,
27049477,512332,504508,2,7102864,304.0,-1,-1,,,,
27049481,512332,504508,2,7119262,2032.0,-1,-1,,,,
27049484,512332,504508,2,7086248,175.0,-1,-1,,,,
27049493,512332,504508,2,7243041,126.0,-1,-1,,,,
27049531,512332,504508,2,6137736,25052.0,-1,-1,,,,
27049546,512332,504508,2,5724865,5924.0,-1,-1,,,,
27049555,512332,606994,3,5825552,81.0,-1,-1,,,,
27049560,512332,504508,2,5793948,4846.0,-1,-1,,,,
27049564,512332,518106,3,5792435,1216.0,-1,-1,,,,
27049566,512332,569215,3,5908207,741.0,-1,-1,,,,
27049607,512332,641131,3,6779767,77.0,-1,-1,,,,
27049617,512332,578304,3,6329680,800.0,-1,-1,,,,
27049622,512332,527769,2,6310573,24392.0,-1,-1,,,,
27049631,512332,530158,2,6430587,8028.0,-1,-1,,,,
27049639,512332,504508,2,6393659,2.0,-1,-1,,,,
27049643,512332,504508,2,6407663,2.0,-1,-1,,,,
27049644,512332,504508,2,3990246,7.0,-1,-1,,,,
27049649,512332,527769,2,1308052,1196.0,-1,-1,,,,
27049654,512332,492039,3,1393657,1.0,-1,-1,,,,
27049661,512332,631478,3,1313189,1491.0,-1,-1,,,,
27049695,512332,558517,3,1303614,418.0,-1,-1,,,,
27049703,512332,504508,2,1220676,52.0,-1,-1,,,,
27049707,512332,504508,2,1221167,951.0,-1,-1,,,,
27049729,512332,530158,2,1823079,83.0,-1,-1,,,,
27049732,512332,504508,2,1996597,865.0,-1,-1,,,,
27049802,512332,483999,3,472336,2268.0,-1,-1,,,,
27049811,512332,504508,2,518401,261.0,-1,-1,,,,
27049852,512332,504508,2,823230,1.0,-1,-1,,,,
27049870,512332,604918,3,973227,88.0,-1,-1,,,,
27049883,512332,521755,3,20913430,1625.0,-1,-1,,,,
27049912,512332,530158,2,727233,33550.0,-1,-1,,,,
27049924,512332,504508,2,3291860,1317.0,-1,-1,,,,
27049940,512332,504508,2,3495659,632.0,-1,-1,,,,
27049943,512332,504508,2,3459051,435.0,-1,-1,,,,
27049952,512332,504508,2,3292112,307.0,-1,-1,,,,
27049953,512332,504508,2,3301610,677.0,-1,-1,,,,
27049955,512332,651537,3,3119571,28.0,-1,-1,,,,
27049959,512332,504508,2,3113122,3191.0,-1,-1,,,,
27049965,512332,525263,3,3196854,33.0,-1,-1,,,,
27049970,512332,528837,3,3240002,152.0,-1,-1,,,,
27049972,512332,504508,2,3231921,160.0,-1,-1,,,,
27049985,512332,536560,3,3152886,50.0,-1,-1,,,,
27049989,512332,504508,2,3723843,1423.0,-1,-1,,,,
27049995,512332,627982,3,3736219,1157.0,-1,-1,,,,
27050010,512332,504508,2,3903334,9.0,-1,-1,,,,
27050022,512332,538071,3,3576735,6.0,-1,-1,,,,
27050027,512332,530158,2,24883761,4359.0,-1,-1,,,,
27050031,512332,554722,3,3638449,10.0,-1,-1,,,,
27050035,512332,618784,3,3632424,80.0,-1,-1,,,,
27050047,512332,504508,2,3769305,338.0,-1,-1,,,,
27050048,512332,635297,3,3769305,134.0,-1,-1,,,,
27050062,512332,530158,2,2457440,85.0,-1,-1,,,,
27050092,512332,504508,2,2179475,1314.0,-1,-1,,,,
27050101,512332,504508,2,2264923,447.0,-1,-1,,,,
27050102,512332,617468,3,2264923,446.0,-1,-1,,,,
27050124,512332,504508,2,2950233,4423.0,-1,-1,,,,
27050125,512332,561157,6,17020800,2.0,4,0,1.0,-165.0,33.0,-41.0
27050131,512332,504508,2,2943050,1403.0,-1,-1,,,,
27050138,512332,657173,6,8812800,4.0,4,1,1.0,-165.0,-29.0,-13.0
27050153,512332,515723,3,3132284,243.0,-1,-1,,,,
27050157,512332,625756,6,15120000,4.0,4,3,1.0,-165.0,-25.0,-111.0
27050166,512332,504508,2,2781348,458.0,-1,-1,,,,
27050175,512332,616453,6,26265600,2.0,2,5,-22.0,91.0,22.0,156.0
27050177,512332,509607,6,15206400,-1.0,1,4,-29.0,-13.0,1.0,-165.0
27050179,512332,625756,6,18489600,5.0,4,3,1.0,-165.0,-25.0,-111.0
27050180,512332,657173,6,7430400,0.0,4,1,1.0,-165.0,-29.0,-13.0
27050181,512332,552748,3,2209998,213.0,-1,-1,,,,
27050185,512332,504508,2,2870281,9007.0,-1,-1,,,,
27050189,512332,509607,6,18662400,-1.0,0,4,33.0,-41.0,1.0,-165.0
27050191,512332,655265,3,7453477,7.0,-1,-1,,,,
27050198,512332,504508,2,12100367,515.0,-1,-1,,,,
27050202,512332,504508,2,12127991,482.0,-1,-1,,,,
27050210,512332,569215,3,12111127,1035.0,-1,-1,,,,
27050219,512332,504508,2,12277097,720.0,-1,-1,,,,
27050225,512332,504508,2,24735370,97.0,-1,-1,,,,
27050238,512332,552748,3,11848559,196.0,-1,-1,,,,
27050252,512332,530158,2,11937765,190.0,-1,-1,,,,
27050257,512332,504508,2,11961495,713.0,-1,-1,,,,
27050266,512332,492039,3,12539250,1.0,-1,-1,,,,
27050316,512332,527769,2,8562788,4259.0,-1,-1,,,,
27050334,512332,504508,2,11406808,90.0,-1,-1,,,,
27050364,512332,530158,2,11241601,211.0,-1,-1,,,,
27050365,512332,623736,3,11241601,747.0,-1,-1,,,,
27050379,512332,504508,2,11348641,176.0,-1,-1,,,,
27050382,512332,504508,2,12283234,1657.0,-1,-1,,,,
27050391,512332,504508,2,26742976,344.0,-1,-1,,,,
27050404,512332,504508,2,11764263,2017.0,-1,-1,,,,
27050411,512332,530158,2,11674528,1709.0,-1,-1,,,,
27050414,512332,527769,2,11762897,104.0,-1,-1,,,,
27050433,512332,603396,3,11580494,296.0,-1,-1,,,,
27050434,512332,561157,6,17020800,2.0,4,0,1.0,-165.0,33.0,-41.0
27050435,512332,657173,6,8812800,4.0,4,1,1.0,-165.0,-29.0,-13.0
27050436,512332,625756,6,15120000,4.0,4,3,1.0,-165.0,-25.0,-111.0
27050437,512332,616453,6,26265600,2.0,2,5,-22.0,91.0,22.0,156.0
27050438,512332,509607,6,15206400,-1.0,1,4,-29.0,-13.0,1.0,-165.0
27050440,512332,625756,6,18489600,5.0,4,3,1.0,-165.0,-25.0,-111.0
27050441,512332,657173,6,7430400,0.0,4,1,1.0,-165.0,-29.0,-13.0
27050442,512332,509607,6,18662400,-1.0,0,4,33.0,-41.0,1.0,-165.0
27050443,512332,504508,2,11612903,6738.0,-1,-1,,,,
27050448,512332,643197,3,11623663,10.0,-1,-1,,,,
27050450,512332,504508,2,11616054,2740.0,-1,-1,,,,
27050452,512332,530158,2,11614827,309.0,-1,-1,,,,
27050459,512332,527769,2,11667136,912.0,-1,-1,,,,
27050481,512332,578908,3,13663726,16.0,-1,-1,,,,
27050487,512332,504508,2,13756532,289.0,-1,-1,,,,
27050493,512332,504508,2,13776509,514.0,-1,-1,,,,
27050500,512332,504508,2,13420589,1985.0,-1,-1,,,,
27050516,512332,504508,2,13574929,1446.0,-1,-1,,,,
27050518,512332,504508,2,13574929,1761.0,-1,-1,,,,
27050546,512332,504508,2,14104284,947.0,-1,-1,,,,
27050550,512332,504508,2,14094724,2961.0,-1,-1,,,,
27050573,512332,504508,2,13871044,71.0,-1,-1,,,,
27050574,512332,550466,3,13871044,25.0,-1,-1,,,,
27050643,512332,504508,2,12726767,168.0,-1,-1,,,,
27050654,512332,504508,2,12796020,4671.0,-1,-1,,,,
27050699,512332,602870,3,13319441,195.0,-1,-1,,,,
27050715,512332,504508,2,13138713,3692.0,-1,-1,,,,
27050721,512332,504508,2,13221365,241.0,-1,-1,,,,
27050724,512332,504508,2,13232672,559.0,-1,-1,,,,
27050759,512332,530158,2,8859610,114.0,-1,-1,,,,
27050769,512332,555931,3,8899877,9442.0,-1,-1,,,,
27050781,512332,621009,3,8594687,959.0,-1,-1,,,,
27050795,512332,504508,2,22644388,5032.0,-1,-1,,,,
27050814,512332,504508,2,9339004,1412.0,-1,-1,,,,
27050856,512332,527769,2,9121190,152.0,-1,-1,,,,
27050871,512332,527769,2,8472498,923.0,-1,-1,,,,
27050895,512332,504508,2,7950098,213.0,-1,-1,,,,
27050907,512332,531490,3,7695015,1.0,-1,-1,,,,
27050936,512332,504508,2,7713823,118.0,-1,-1,,,,
27050939,512332,504508,2,7961049,241.0,-1,-1,,,,
27050941,512332,504508,2,8092448,438.0,-1,-1,,,,
27050946,512332,504508,2,8316000,7724.0,-1,-1,,,,
27050949,512332,530158,2,8314927,2076.0,-1,-1,,,,
27050960,512332,605235,3,8415363,1.0,-1,-1,,,,
27050992,512332,504508,2,8179254,85.0,-1,-1,,,,
27051001,512332,631478,3,8129579,213.0,-1,-1,,,,
27051012,512332,504508,2,10669050,26.0,-1,-1,,,,
27051028,512332,492532,3,10713973,264.0,-1,-1,,,,
27051032,512332,504508,2,10743283,2503.0,-1,-1,,,,
27051034,512332,504508,2,10726573,848.0,-1,-1,,,,
27051037,512332,474202,3,10744610,61.0,-1,-1,,,,
27051131,512332,551552,3,10887657,218.0,-1,-1,,,,
27051150,512332,504508,2,9918004,17.0,-1,-1,,,,
27051152,512332,504508,2,9864040,672.0,-1,-1,,,,
27051154,512332,504508,2,9858290,725.0,-1,-1,,,,
27051157,512332,569215,3,9891788,21.0,-1,-1,,,,
27051175,512332,504508,2,9946948,3738.0,-1,-1,,,,
27051179,512332,504508,2,21359897,144.0,-1,-1,,,,
27051186,512332,504508,2,9597963,79.0,-1,-1,,,,
27051243,512332,504508,2,10414817,151.0,-1,-1,,,,
27051248,512332,504508,2,10227187,3431.0,-1,-1,,,,
27051261,512332,504508,2,10058054,2136.0,-1,-1,,,,
27051279,512332,504508,2,10111129,597.0,-1,-1,,,,
27051287,512332,530158,2,30110763,306.0,-1,-1,,,,
27051294,512332,567281,3,30067224,91.0,-1,-1,,,,
27051300,512332,532053,2,30099220,306.0,-1,-1,,,,
27051303,512332,608159,3,28208563,216.0,-1,-1,,,,
27051318,512332,504508,2,1362013,7.0,-1,-1,,,,
27051356,512332,504508,2,27569529,1924.0,-1,-1,,,,
27051358,512332,499177,3,26185199,1.0,-1,-1,,,,
27051378,512332,504508,2,11840716,46.0,-1,-1,,,,
27051379,512332,504508,2,22901323,1472.0,-1,-1,,,,
27051389,512332,523286,3,26708829,27.0,-1,-1,,,,
27051402,512332,527769,2,3993125,423.0,-1,-1,,,,
27051406,512332,467222,3,30170413,549.0,-1,-1,,,,
27051424,512332,504508,2,3552501,384.0,-1,-1,,,,
27051434,512332,504508,2,3988819,77.0,-1,-1,,,,
27051436,512332,504508,2,876296,2740.0,-1,-1,,,,
27051447,512332,504508,2,29755809,239.0,-1,-1,,,,
27051460,512332,568436,3,30592366,1246.0,-1,-1,,,,
27051503,512332,504508,2,29732049,561.0,-1,-1,,,,
27051545,512332,504508,2,29990137,10076.0,-1,-1,,,,
27051576,512332,527769,2,29981537,813.0,-1,-1,,,,
27051601,512332,591709,3,17674855,852.0,-1,-1,,,,
27051605,512332,504508,2,28577569,717.0,-1,-1,,,,
27051606,512332,504508,2,6686343,261.0,-1,-1,,,,
27051633,512332,504508,2,30417131,68.0,-1,-1,,,,
27051638,512332,539720,3,28614290,116.0,-1,-1,,,,
27051639,512332,530158,2,30468967,302.0,-1,-1,,,,
27051650,512332,504508,2,31111255,2526.0,-1,-1,,,,
27051663,512332,504508,2,30414763,1772.0,-1,-1,,,,
27051683,512332,527769,2,30808812,11.0,-1,-1,,,,
27051694,512332,504508,2,30589715,85.0,-1,-1,,,,
27051697,512332,484155,3,30696399,43.0,-1,-1,,,,
27051718,512332,527769,2,30942046,1956.0,-1,-1,,,,
27051724,512332,504508,2,30787561,158.0,-1,-1,,,,
27051728,512332,504508,2,30601992,10.0,-1,-1,,,,
27051785,512332,535897,3,24646725,2123.0,-1,-1,,,,
27051792,512332,504508,2,30283719,284.0,-1,-1,,,,
27051798,512332,614798,3,16510541,519.0,-1,-1,,,,
27051805,512332,461577,3,28276571,3.0,-1,-1,,,,
27051814,512332,540367,3,28253563,2084.0,-1,-1,,,,
27051818,512332,641131,3,28180689,343.0,-1,-1,,,,
27051839,512332,504508,2,24118216,157.0,-1,-1,,,,
27051846,512332,527769,2,28624868,2729.0,-1,-1,,,,
27051865,512332,576493,3,31278723,1866.0,-1,-1,,,,
27051892,512332,580043,3,11792687,406.0,-1,-1,,,,
27051900,512332,527769,2,2253153,1894.0,-1,-1,,,,
27051905,512332,504508,2,27236529,1370.0,-1,-1,,,,
27051909,512332,504508,2,28003682,1894.0,-1,-1,,,,
27051941,512332,504508,2,27343572,1302.0,-1,-1,,,,
27051947,512332,620131,3,29072553,600.0,-1,-1,,,,
27051949,512332,619245,3,27339856,717.0,-1,-1,,,,
27051964,512332,504508,2,29241454,189.0,-1,-1,,,,
27051968,512332,559572,3,28117679,1165.0,-1,-1,,,,
27051973,512332,504508,2,29207066,1672.0,-1,-1,,,,
27052023,512332,504508,2,28007475,161.0,-1,-1,,,,
27052028,512332,527769,2,28007475,273.0,-1,-1,,,,
27052033,512332,504508,2,27997234,442.0,-1,-1,,,,
27052047,512332,527769,2,28013302,1196.0,-1,-1,,,,
27052055,512332,504508,2,27937590,17.0,-1,-1,,,,
27052072,512332,527769,2,27739871,10.0,-1,-1,,,,
27052079,512332,504508,2,28864120,307.0,-1,-1,,,,
27052102,512332,504508,2,28877906,909.0,-1,-1,,,,
27052105,512332,549605,3,27671788,43.0,-1,-1,,,,
27052129,512332,504508,2,28911654,917.0,-1,-1,,,,
27052131,512332,504508,2,27587557,839.0,-1,-1,,,,
27052140,512332,504508,2,29554729,143.0,-1,-1,,,,
27052149,512332,492039,3,26719055,1.0,-1,-1,,,,
27052151,512332,504508,2,28082189,8718.0,-1,-1,,,,
27052178,512332,504508,2,28866735,860.0,-1,-1,,,,
27052191,512332,504508,2,26830659,337.0,-1,-1,,,,
27052195,512332,504508,2,29595295,755.0,-1,-1,,,,
27052206,512332,504508,2,29640844,1185.0,-1,-1,,,,
27052215,512332,504508,2,29636864,579.0,-1,-1,,,,
27052219,512332,504508,2,26534218,1928.0,-1,-1,,,,
27052249,512332,530158,2,26738964,45.0,-1,-1,,,,
27052270,512332,597727,3,28086283,407.0,-1,-1,,,,
27052285,512332,530158,2,29464973,2162.0,-1,-1,,,,
27052305,512332,504508,2,29382334,18.0,-1,-1,,,,
27052311,512332,527769,2,28799754,2136.0,-1,-1,,,,
27052338,512332,504508,2,29595295,7.0,-1,-1,,,,
36806002,526900,595298,5,31536000,30.99,-1,-1,,,,
36806003,526900,459381,5,31536000,889.23,-1,-1,,,,
36806006,526900,527449,5,31536000,416.4,-1,-1,,,,
36806014,526900,536346,5,31536000,833.09,-1,-1,,,,
36806015,526900,503218,5,31536000,422.25,-1,-1,,,,
36806033,526900,620120,5,31536000,235.96,-1,-1,,,,
36806034,526900,473173,5,31536000,406.34,-1,-1,,,,
36806037,526900,632961,5,31536000,174.52,-1,-1,,,,
36806038,526900,644226,5,31536000,299.89,-1,-1,,,,
36806040,526900,571970,5,31536000,139.14,-1,-1,,,,
36806041,526900,503701,5,31536000,1404.95,-1,-1,,,,
36806043,526900,466907,5,31536000,450.9,-1,-1,,,,
36806047,526900,642329,5,31536000,151.96,-1,-1,,,,
36806048,526900,616315,5,31536000,264.7,-1,-1,,,,
36806055,526900,537281,5,31536000,58.46,-1,-1,,,,
36806056,526900,589943,5,31536000,11.6,-1,-1,,,,
36806123,526900,575030,5,31536000,3215.11,-1,-1,,,,
36806215,526900,621924,5,31536000,3586.83,-1,-1,,,,
38503248,529703,575030,5,31536000,532.93,-1,-1,,,,
38503249,529703,632961,5,31536000,1602.58,-1,-1,,,,
38503251,529703,536346,5,31536000,800.31,-1,-1,,,,
38503252,529703,520660,5,31536000,5582.7,-1,-1,,,,
38503253,529703,567195,5,31536000,467.3,-1,-1,,,,
38503254,529703,527449,5,31536000,1334.16,-1,-1,,,,
38503255,529703,459381,5,31536000,255.85,-1,-1,,,,
38503256,529703,595298,5,31536000,5625.32,-1,-1,,,,
38503257,529703,466907,5,31536000,960.84,-1,-1,,,,
38503258,529703,589943,5,31536000,3572.86,-1,-1,,,,
38503259,529703,577992,5,31536000,6682.44,-1,-1,,,,
38503260,529703,537281,5,31536000,1147.12,-1,-1,,,,
38503262,529703,580426,5,31536000,2263.12,-1,-1,,,,
38503263,529703,616315,5,31536000,7629.96,-1,-1,,,,
38503264,529703,642329,5,31536000,791.15,-1,-1,,,,
38503266,529703,571970,5,31536000,275.34,-1,-1,,,,
38503267,529703,644226,5,31536000,5438.14,-1,-1,,,,
38503269,529703,473173,5,31536000,2130.33,-1,-1,,,,
41977279,535358,641131,3,14099198,147.0,-1,-1,,,,
41977293,535358,483999,3,17557071,46.0,-1,-1,,,,
41977300,535358,522405,3,12903327,818.0,-1,-1,,,,
41977307,535358,548086,2,27399610,960.0,-1,-1,,,,
41977324,535358,489366,2,9372031,2222.0,-1,-1,,,,
41977327,535358,606994,3,22222670,33.0,-1,-1,,,,
41977329,535358,489366,2,16357359,4362.0,-1,-1,,,,
41977343,535358,602870,3,28234815,121.0,-1,-1,,,,
41977380,535358,469675,3,703922,171.0,-1,-1,,,,
41977400,535358,493816,2,20160819,5785.0,-1,-1,,,,
41977425,535358,549891,3,4587891,599.0,-1,-1,,,,
41977432,535358,641131,3,28435870,151.0,-1,-1,,,,
41977446,535358,493816,2,12286449,1289.0,-1,-1,,,,
41977448,535358,525263,3,3047564,2227.0,-1,-1,,,,
41977461,535358,469675,3,26227257,2374.0,-1,-1,,,,
41977466,535358,562375,3,24821936,24.0,-1,-1,,,,
41977473,535358,617563,3,20396448,70507.0,-1,-1,,,,
41977480,535358,548086,2,11512826,85.0,-1,-1,,,,
41977486,535358,606994,3,9683428,44.0,-1,-1,,,,
41977487,535358,548086,2,19317144,575.0,-1,-1,,,,
41977490,535358,654011,3,2109612,535.0,-1,-1,,,,
41977517,535358,489366,2,520241,1734.0,-1,-1,,,,
41977528,535358,639698,2,22214499,4868.0,-1,-1,,,,
41977532,535358,639698,2,15229137,143.0,-1,-1,,,,
41977536,535358,634262,3,15879620,479.0,-1,-1,,,,
41977549,535358,652864,2,23710331,855.0,-1,-1,,,,
41977559,535358,639698,2,15000034,202.0,-1,-1,,,,
41977561,535358,569441,3,25316675,34.0,-1,-1,,,,
41977565,535358,552133,3,23607766,26.0,-1,-1,,,,
41977568,535358,521440,3,30975733,54.0,-1,-1,,,,
41977573,535358,548086,2,24891633,309.0,-1,-1,,,,
41977577,535358,499073,3,19315819,85.0,-1,-1,,,,
41977604,535358,639698,2,30272688,2034.0,-1,-1,,,,
41977616,535358,583964,3,15057576,1.0,-1,-1,,,,
41977617,535358,483999,3,823015,1035.0,-1,-1,,,,
41977620,535358,595456,3,19381691,682.0,-1,-1,,,,
41977634,535358,493816,2,1042686,295.0,-1,-1,,,,
41977642,535358,489366,2,16936810,217.0,-1,-1,,,,
41977652,535358,461577,3,3605810,81.0,-1,-1,,,,
41977658,535358,580051,3,24196217,3611.0,-1,-1,,,,
41977659,535358,621525,3,21123610,54.0,-1,-1,,,,
41977661,535358,630657,3,4333484,1.0,-1,-1,,,,
41977672,535358,483999,3,6081587,1316.0,-1,-1,,,,
41977723,535358,639698,2,5751046,482.0,-1,-1,,,,
41977734,535358,493816,2,7098695,4935.0,-1,-1,,,,
41977738,535358,548086,2,7020612,37.0,-1,-1,,,,
41977758,535358,569011,3,6925837,1913.0,-1,-1,,,,
41977763,535358,506745,2,6694429,2558.0,-1,-1,,,,
41977795,535358,631478,3,2615455,987.0,-1,-1,,,,
41977806,535358,489366,2,3348238,315.0,-1,-1,,,,
41977815,535358,493816,2,4879685,393.0,-1,-1,,,,
41977829,535358,548086,2,4712278,24.0,-1,-1,,,,
41977840,535358,652864,2,4338364,560.0,-1,-1,,,,
41977848,535358,588391,3,14096467,1.0,-1,-1,,,,
41977850,535358,548086,2,7442709,1530.0,-1,-1,,,,
41977872,535358,489366,2,10123925,3187.0,-1,-1,,,,
41977876,535358,546538,2,10290960,1037.0,-1,-1,,,,
41977883,535358,489366,2,10368037,1027.0,-1,-1,,,,
41977884,535358,518094,3,10368037,365.0,-1,-1,,,,
41977894,535358,548086,2,11925030,1192.0,-1,-1,,,,
41977901,535358,548086,2,12221315,504.0,-1,-1,,,,
41977911,535358,489366,2,11119417,798.0,-1,-1,,,,
41977913,535358,493816,2,11182619,86.0,-1,-1,,,,
41977925,535358,489366,2,11598190,1831.0,-1,-1,,,,
41977927,535358,639698,2,11262402,62.0,-1,-1,,,,
41977952,535358,535361,3,31454685,600.0,-1,-1,,,,
41977978,535358,639698,2,31284006,2.0,-1,-1,,,,
41977985,535358,639698,2,9976946,159.0,-1,-1,,,,
41977998,535358,553442,3,9332206,88.0,-1,-1,,,,
41978022,535358,479918,3,15732376,9.0,-1,-1,,,,
41978030,535358,641917,3,17757153,3.0,-1,-1,,,,
41978054,535358,548086,2,4337347,1808.0,-1,-1,,,,
41978065,535358,492039,3,13228452,1.0,-1,-1,,,,
41978103,535358,546357,3,1944128,320.0,-1,-1,,,,
41978107,535358,642696,3,5284802,81.0,-1,-1,,,,
41978119,535358,489366,2,22502921,3182.0,-1,-1,,,,
41978184,535358,540367,3,1069158,122.0,-1,-1,,,,
41978194,535358,493816,2,322809,9750.0,-1,-1,,,,
41978204,535358,639698,2,553737,4.0,-1,-1,,,,
41978214,535358,489366,2,1989364,44.0,-1,-1,,,,
41978217,535358,489366,2,2083683,137.0,-1,-1,,,,
41978232,535358,543663,3,1324384,267.0,-1,-1,,,,
41978238,535358,548086,2,1775062,4.0,-1,-1,,,,
41978271,535358,489366,2,28806751,3207.0,-1,-1,,,,
41978277,535358,653261,3,15067678,54.0,-1,-1,,,,
41978282,535358,548086,2,25953049,396.0,-1,-1,,,,
41978292,535358,487676,3,28614244,53.0,-1,-1,,,,
41978314,535358,493358,3,2368953,391.0,-1,-1,,,,
41978322,535358,548086,2,17591227,387.0,-1,-1,,,,
41978358,535358,489366,2,29062274,384.0,-1,-1,,,,
41978367,535358,548086,2,23266721,3389.0,-1,-1,,,,
41978373,535358,636153,3,23591549,237.0,-1,-1,,,,
41978403,535358,645667,3,28030361,11.0,-1,-1,,,,
41978422,535358,597461,3,22211679,4374.0,-1,-1,,,,
41978433,535358,548086,2,21698689,126.0,-1,-1,,,,
41978450,535358,543037,3,22483415,398.0,-1,-1,,,,
41978468,535358,548086,2,29988418,25.0,-1,-1,,,,
41978479,535358,639698,2,22672847,79.0,-1,-1,,,,
41978503,535358,489366,2,25930185,62.0,-1,-1,,,,
41978513,535358,639698,2,25509001,12.0,-1,-1,,,,
41978521,535358,548086,2,25510715,591.0,-1,-1,,,,
41978535,535358,493816,2,26738449,1.0,-1,-1,,,,
41978549,535358,469675,3,26669354,396.0,-1,-1,,,,
41978561,535358,489366,2,26366283,1109.0,-1,-1,,,,
41978563,535358,483354,3,26458931,125.0,-1,-1,,,,
41978576,535358,489366,2,24234168,140.0,-1,-1,,,,
41978591,535358,528220,3,27323413,5.0,-1,-1,,,,
41978593,535358,548086,2,27323413,575.0,-1,-1,,,,
41978601,535358,568871,3,23875225,75.0,-1,-1,,,,
41978604,535358,489366,2,23960901,51.0,-1,-1,,,,
41978615,535358,548086,2,25060818,465.0,-1,-1,,,,
41978619,535358,489366,2,25145565,22.0,-1,-1,,,,
41978640,535358,548086,2,24713793,1467.0,-1,-1,,,,
41978654,535358,461577,3,15224811,385.0,-1,-1,,,,
41978664,535358,489366,2,15589822,218.0,-1,-1,,,,
41978676,535358,493816,2,14627534,1.0,-1,-1,,,,
41978690,535358,624573,3,15998837,380.0,-1,-1,,,,
41978702,535358,618398,3,17116930,57.0,-1,-1,,,,
41978717,535358,540367,3,16202820,463.0,-1,-1,,,,
41978718,535358,643087,3,16713368,154.0,-1,-1,,,,
41978728,535358,465733,3,17322819,197.0,-1,-1,,,,
41978748,535358,639698,2,13324099,681.0,-1,-1,,,,
41978749,535358,639698,2,12808624,1.0,-1,-1,,,,
41978761,535358,493816,2,12721957,56.0,-1,-1,,,,
41978777,535358,590595,3,14181177,157.0,-1,-1,,,,
41978810,535358,493816,2,17395815,388.0,-1,-1,,,,
41978823,535358,458356,3,20478504,105.0,-1,-1,,,,
41978829,535358,461577,3,20046082,55.0,-1,-1,,,,
41978836,535358,560927,3,19716393,22.0,-1,-1,,,,
41978839,535358,495822,3,19728398,5.0,-1,-1,,,,
41978853,535358,639698,2,21009655,601.0,-1,-1,,,,
41978860,535358,489366,2,21435037,56.0,-1,-1,,,,
41978877,535358,493816,2,20925022,94.0,-1,-1,,,,
41978882,535358,639698,2,20966953,1066.0,-1,-1,,,,
41978885,535358,489366,2,30276747,180.0,-1,-1,,,,
41978886,535358,547205,3,20966953,614.0,-1,-1,,,,
41978891,535358,469675,3,17839787,31.0,-1,-1,,,,
41978899,535358,592419,3,18103663,1.0,-1,-1,,,,
41978908,535358,493816,2,18341240,1644.0,-1,-1,,,,
41978924,535358,489366,2,17715910,481.0,-1,-1,,,,
41978929,535358,548086,2,18413448,363.0,-1,-1,,,,
41978932,535358,548086,2,18936722,219.0,-1,-1,,,,
41978935,535358,641131,3,19008609,245.0,-1,-1,,,,
41978946,535358,516609,3,19209654,1228.0,-1,-1,,,,
41978953,535358,643087,3,18532109,336.0,-1,-1,,,,
41978962,535358,548086,2,30627473,202.0,-1,-1,,,,
41978973,535358,492039,3,8657944,1.0,-1,-1,,,,
41978976,535358,484118,3,27395454,90.0,-1,-1,,,,
41979029,535358,548086,2,4078845,40.0,-1,-1,,,,
41979033,535358,639698,2,7611005,5117.0,-1,-1,,,,
41979037,535358,639698,2,1658889,5243.0,-1,-1,,,,
41979058,535358,493816,2,23197723,4.0,-1,-1,,,,
41979065,535358,492039,3,4876666,1.0,-1,-1,,,,
41979070,535358,458672,3,17658738,117.0,-1,-1,,,,
41979081,535358,641131,3,9614885,243.0,-1,-1,,,,
41979133,535358,604622,3,28010875,158.0,-1,-1,,,,
41979139,535358,548086,2,17998553,116.0,-1,-1,,,,
41979148,535358,541752,3,12621467,188.0,-1,-1,,,,
41979165,535358,516054,3,14024102,155.0,-1,-1,,,,
41979204,535358,605235,3,2468773,1.0,-1,-1,,,,
41979227,535358,479691,3,12795358,281.0,-1,-1,,,,
41979229,535358,492039,3,29641103,1.0,-1,-1,,,,
41979247,535358,635923,3,29030458,294.0,-1,-1,,,,
41979252,535358,548086,2,29858816,476.0,-1,-1,,,,
41979260,535358,636813,3,31282731,13.0,-1,-1,,,,
41979266,535358,634010,3,21205838,159.0,-1,-1,,,,
41979272,535358,548086,2,26235357,80.0,-1,-1,,,,
41979281,535358,493816,2,10895070,20.0,-1,-1,,,,
41979282,535358,489366,2,15122151,1257.0,-1,-1,,,,
41979290,535358,651417,3,15900964,158.0,-1,-1,,,,
41979300,535358,489366,2,19445056,992.0,-1,-1,,,,
41979348,535358,467804,3,4710065,49.0,-1,-1,,,,
41979392,535358,563055,3,8726447,574.0,-1,-1,,,,
41979394,535358,544415,3,30793720,84.0,-1,-1,,,,
41979405,535358,596301,3,22068774,38112.0,-1,-1,,,,
41979406,535358,594939,3,23768300,734.0,-1,-1,,,,
41979423,535358,592419,3,23596459,1.0,-1,-1,,,,
41979439,535358,546538,2,11755056,1799.0,-1,-1,,,,
41979469,535358,579535,2,14665443,9.0,-1,-1,,,,
41979489,535358,565639,3,4472539,619.0,-1,-1,,,,
41979491,535358,548086,2,17637522,303.0,-1,-1,,,,
41979509,535358,548086,2,17118302,181.0,-1,-1,,,,
41979516,535358,459381,5,31536000,376.85,-1,-1,,,,
41979521,535358,469746,3,30445589,1.0,-1,-1,,,,
41979525,535358,595298,5,31536000,1168.14,-1,-1,,,,
41979530,535358,466907,5,31536000,229.41,-1,-1,,,,
41979532,535358,589943,5,31536000,2694.86,-1,-1,,,,
41979533,535358,577992,5,31536000,694.34,-1,-1,,,,
41979535,535358,596301,3,6937235,265.0,-1,-1,,,,
41979538,535358,527449,5,31536000,353.15,-1,-1,,,,
41979553,535358,639698,2,20479544,2668.0,-1,-1,,,,
41979558,535358,536346,5,31536000,557.8,-1,-1,,,,
41979560,535358,520660,5,31536000,1041.31,-1,-1,,,,
41979562,535358,567195,5,31536000,934.78,-1,-1,,,,
41979565,535358,537281,5,31536000,243.66,-1,-1,,,,
41979568,535358,644226,5,31536000,428.56,-1,-1,,,,
41979571,535358,493816,2,23781019,36.0,-1,-1,,,,
41979572,535358,632961,5,31536000,240.33,-1,-1,,,,
41979574,535358,473173,5,31536000,1066.88,-1,-1,,,,
41979579,535358,548086,2,9340841,373.0,-1,-1,,,,
41979580,535358,620120,5,31536000,4868.13,-1,-1,,,,
41979584,535358,575030,5,31536000,5421.24,-1,-1,,,,
41979587,535358,621924,5,31536000,1776.07,-1,-1,,,,
41979594,535358,580426,5,31536000,622.29,-1,-1,,,,
41979598,535358,590595,3,3218422,327.0,-1,-1,,,,
41979600,535358,595581,5,31536000,548.89,-1,-1,,,,
41979606,535358,616315,5,31536000,1328.92,-1,-1,,,,
41979607,535358,639698,2,27008113,847.0,-1,-1,,,,
41979615,535358,503701,5,31536000,1175.11,-1,-1,,,,
41979616,535358,571970,5,31536000,35.01,-1,-1,,,,
41979622,535358,489366,2,7042531,476.0,-1,-1,,,,
41979626,535358,538782,3,1245639,279.0,-1,-1,,,,
41979631,535358,461577,3,16054563,149.0,-1,-1,,,,
41979641,535358,645895,3,176756,349.0,-1,-1,,,,
41979650,535358,548086,2,14795322,217.0,-1,-1,,,,
41979659,535358,489366,2,4062483,79.0,-1,-1,,,,
41979670,535358,495475,3,4296038,1.0,-1,-1,,,,
41979684,535358,639698,2,3646896,803.0,-1,-1,,,,
41979692,535358,620131,3,25341640,2044.0,-1,-1,,,,
41979696,535358,639698,2,13137004,1028.0,-1,-1,,,,
41979701,535358,611220,3,24308445,186.0,-1,-1,,,,
41979703,535358,644388,3,13137004,563.0,-1,-1,,,,
41979707,535358,482579,3,21267006,127.0,-1,-1,,,,
41979720,535358,489366,2,4685078,213.0,-1,-1,,,,
41979726,535358,550466,3,26160014,18.0,-1,-1,,,,
41979730,535358,493358,3,4422793,217.0,-1,-1,,,,
41979747,535358,489366,2,19977149,181.0,-1,-1,,,,
41979749,535358,499177,3,19803053,1.0,-1,-1,,,,
41979751,535358,554011,3,15126317,56.0,-1,-1,,,,
41979754,535358,469675,3,7804810,14.0,-1,-1,,,,
41979757,535358,639698,2,20169442,426.0,-1,-1,,,,
41979770,535358,489366,2,14268221,496.0,-1,-1,,,,
45076015,537354,521018,3,12293201,336.0,-1,-1,,,,
45076031,537354,492039,2,28817443,1.0,-1,-1,,,,
45076055,537354,590595,3,30766344,337.0,-1,-1,,,,
45076087,537354,560927,3,8917464,1.0,-1,-1,,,,
45076115,537354,645330,3,24824165,14.0,-1,-1,,,,
45076116,537354,492039,2,6149418,1.0,-1,-1,,,,
45076123,537354,492039,2,19790672,1.0,-1,-1,,,,
45076164,537354,492039,2,28470753,1.0,-1,-1,,,,
45076171,537354,633951,3,27410661,147.0,-1,-1,,,,
45076174,537354,492039,2,21874805,1.0,-1,-1,,,,
45076213,537354,629784,3,20047218,779.0,-1,-1,,,,
45076226,537354,492039,2,22842406,1.0,-1,-1,,,,
45076242,537354,492039,2,18072535,1.0,-1,-1,,,,
45076254,537354,492039,3,8122383,1.0,-1,-1,,,,
45076278,537354,481827,3,27589734,144.0,-1,-1,,,,
45076286,537354,554195,3,29392406,34.0,-1,-1,,,,
45076319,537354,492039,2,15133250,1.0,-1,-1,,,,
45076353,537354,631478,3,12270906,71.0,-1,-1,,,,
45076356,537354,547205,3,7380713,634.0,-1,-1,,,,
45076383,537354,492039,2,5448642,1.0,-1,-1,,,,
45076392,537354,595456,3,11929717,933.0,-1,-1,,,,
45076394,537354,597727,3,27403237,568.0,-1,-1,,,,
45076402,537354,492039,2,14903655,1.0,-1,-1,,,,
45076425,537354,492039,2,3300642,1.0,-1,-1,,,,
45076431,537354,578254,3,8563353,13.0,-1,-1,,,,
45076433,537354,469746,3,28274231,1.0,-1,-1,,,,
45076448,537354,492039,2,2009869,1.0,-1,-1,,,,
45076466,537354,492039,2,1469516,1.0,-1,-1,,,,
45076474,537354,544430,3,6326703,1.0,-1,-1,,,,
45076478,537354,509816,3,29782101,1.0,-1,-1,,,,
45076485,537354,637454,3,11084942,2004.0,-1,-1,,,,
45076516,537354,629769,3,3633517,338.0,-1,-1,,,,
45076552,537354,492039,3,9520553,1.0,-1,-1,,,,
45076561,537354,631478,3,10723919,2115.0,-1,-1,,,,
45076577,537354,492039,2,7628184,1.0,-1,-1,,,,
45076613,537354,492039,2,16776037,1.0,-1,-1,,,,
45076631,537354,636391,3,25156296,2269.0,-1,-1,,,,
45076635,537354,492039,2,8212325,1.0,-1,-1,,,,
45076663,537354,549891,3,28375922,1770.0,-1,-1,,,,
45076682,537354,555931,3,28706915,1.0,-1,-1,,,,
45076704,537354,643837,3,24201627,6368.0,-1,-1,,,,
45076719,537354,641131,3,445493,27.0,-1,-1,,,,
45076723,537354,492039,2,10454410,1.0,-1,-1,,,,
45076739,537354,537857,3,8477397,1.0,-1,-1,,,,
45076746,537354,490206,3,1601148,261.0,-1,-1,,,,
45076758,537354,492039,2,26645079,1.0,-1,-1,,,,
45076779,537354,654651,3,23415855,3500.0,-1,-1,,,,
45076783,537354,492039,2,20223346,1.0,-1,-1,,,,
45076788,537354,597727,3,23347528,752.0,-1,-1,,,,
45076807,537354,492039,2,28346705,1.0,-1,-1,,,,
45076814,537354,492039,2,20483079,1.0,-1,-1,,,,
45076816,537354,492039,2,13919803,1.0,-1,-1,,,,
45076823,537354,640324,3,26452108,318.0,-1,-1,,,,
45076844,537354,492039,2,30940048,1.0,-1,-1,,,,
45076847,537354,492039,2,3035266,1.0,-1,-1,,,,
45076853,537354,492039,2,25444550,1.0,-1,-1,,,,
45076854,537354,469675,3,28172679,277.0,-1,-1,,,,
45076861,537354,587437,3,29044460,2045.0,-1,-1,,,,
45076869,537354,595800,3,29549444,1552.0,-1,-1,,,,
45076876,537354,492039,2,23157611,1.0,-1,-1,,,,
45076884,537354,492039,2,27943979,1.0,-1,-1,,,,
45076889,537354,641131,3,26305506,481.0,-1,-1,,,,
45076891,537354,641131,3,13133084,86.0,-1,-1,,,,
45076900,537354,642329,5,31536000,174.79,-1,-1,,,,
45076902,537354,503701,5,31536000,616.75,-1,-1,,,,
45076904,537354,571970,5,31536000,94.93,-1,-1,,,,
45076906,537354,644226,5,31536000,957.45,-1,-1,,,,
45076907,537354,632961,5,31536000,392.88,-1,-1,,,,
45076908,537354,473173,5,31536000,659.39,-1,-1,,,,
45076909,537354,620120,5,31536000,564.8,-1,-1,,,,
45076910,537354,621924,5,31536000,595.55,-1,-1,,,,
45076911,537354,492039,2,15933528,1.0,-1,-1,,,,
45076914,537354,595581,5,31536000,1709.3,-1,-1,,,,
45076916,537354,643087,3,11157310,25.0,-1,-1,,,,
45076924,537354,492039,2,538951,1.0,-1,-1,,,,
45076932,537354,580426,5,31536000,65.78,-1,-1,,,,
45076933,537354,577992,5,31536000,1597.78,-1,-1,,,,
45076946,537354,550466,3,13849973,299.0,-1,-1,,,,
45076948,537354,537281,5,31536000,447.27,-1,-1,,,,
45076955,537354,536346,5,31536000,1708.23,-1,-1,,,,
45076956,537354,520660,5,31536000,2518.06,-1,-1,,,,
45076958,537354,527449,5,31536000,229.46,-1,-1,,,,
45076959,537354,459381,5,31536000,443.47,-1,-1,,,,
45076960,537354,595298,5,31536000,321.79,-1,-1,,,,
45076961,537354,631478,3,4585006,1054.0,-1,-1,,,,
45076962,537354,589943,5,31536000,64.19,-1,-1,,,,
45076973,537354,492039,2,25611146,1.0,-1,-1,,,,
45076975,537354,492039,2,99845,1.0,-1,-1,,,,
45076978,537354,627982,3,24645617,83.0,-1,-1,,,,
45076982,537354,457982,3,30783365,279.0,-1,-1,,,,
45076991,537354,492039,2,24755760,1.0,-1,-1,,,,
45077001,537354,469675,3,23077640,61.0,-1,-1,,,,
45077004,537354,492039,2,8996544,1.0,-1,-1,,,,
45077016,537354,571866,3,28028309,2562.0,-1,-1,,,,
45077028,537354,641131,3,18956430,63.0,-1,-1,,,,
45077032,537354,509816,3,12623067,7.0,-1,-1,,,,
45077046,537354,615049,3,27244401,182.0,-1,-1,,,,
45077051,537354,492039,2,17280041,1.0,-1,-1,,,,
45077052,537354,492039,2,5388766,1.0,-1,-1,,,,
45077066,537354,631028,3,20966044,5.0,-1,-1,,,,
45077097,537354,516054,3,2335255,3229.0,-1,-1,,,,
45077107,537354,544415,3,17723257,1957.0,-1,-1,,,,
45077110,537354,540420,3,22824902,17.0,-1,-1,,,,
45077122,537354,492039,2,11337148,1.0,-1,-1,,,,
45077140,537354,492039,2,30849646,1.0,-1,-1,,,,
45077145,537354,611553,3,14181870,335.0,-1,-1,,,,
45077153,537354,604622,3,18525240,84.0,-1,-1,,,,
45077168,537354,524702,3,9420673,232.0,-1,-1,,,,
45077170,537354,492039,2,18525240,1.0,-1,-1,,,,
45077207,537354,544444,3,28256709,160.0,-1,-1,,,,
45077214,537354,492039,2,14067363,1.0,-1,-1,,,,
45077233,537354,492039,2,6753528,1.0,-1,-1,,,,
45077255,537354,492039,2,8494089,1.0,-1,-1,,,,
45077271,537354,492039,2,18261457,1.0,-1,-1,,,,
45077274,537354,492039,2,25434010,1.0,-1,-1,,,,
45077277,537354,492039,3,11667380,1.0,-1,-1,,,,
45077284,537354,466410,3,14030484,1.0,-1,-1,,,,
45077299,537354,528403,3,31127784,217.0,-1,-1,,,,
45077309,537354,466907,5,31536000,268.06,-1,-1,,,,
45077325,537354,640466,3,26193279,140.0,-1,-1,,,,
45077332,537354,627924,3,29820536,514.0,-1,-1,,,,
45077337,537354,492039,2,31129102,1.0,-1,-1,,,,
45077353,537354,536777,3,1916320,4.0,-1,-1,,,,
45077370,537354,492039,2,23161728,1.0,-1,-1,,,,
45077417,537354,630657,3,22930480,1.0,-1,-1,,,,
45077436,537354,651537,3,19919922,43.0,-1,-1,,,,
45077439,537354,492039,2,29808734,1.0,-1,-1,,,,
45077455,537354,590595,3,23938243,202.0,-1,-1,,,,
45077467,537354,582887,3,23032087,107.0,-1,-1,,,,
45077481,537354,581101,3,25328212,499.0,-1,-1,,,,
45077498,537354,492039,2,10478888,1.0,-1,-1,,,,
45077520,537354,548607,3,7185502,281.0,-1,-1,,,,
45077535,537354,552748,3,7358827,23.0,-1,-1,,,,
45077542,537354,492039,2,9236311,1.0,-1,-1,,,,
45077567,537354,606218,3,11687773,1086.0,-1,-1,,,,
45077568,537354,461577,3,5196623,167.0,-1,-1,,,,
45077603,537354,492039,2,971423,1.0,-1,-1,,,,
45077611,537354,490745,3,3377302,442.0,-1,-1,,,,
45077615,537354,492039,2,8587229,1.0,-1,-1,,,,
45077642,537354,492039,2,1482726,1.0,-1,-1,,,,
45077658,537354,492039,3,5407598,1.0,-1,-1,,,,
45077686,537354,551552,3,11200834,280.0,-1,-1,,,,
45077692,537354,597461,3,28256437,1613.0,-1,-1,,,,
45077706,537354,492039,2,27825349,1.0,-1,-1,,,,
45077727,537354,492039,2,3547882,1.0,-1,-1,,,,
45077730,537354,492039,2,3552051,1.0,-1,-1,,,,
45077750,537354,482870,3,17915587,854.0,-1,-1,,,,
45077773,537354,492039,2,23855675,1.0,-1,-1,,,,
45077785,537354,522278,3,492533,92.0,-1,-1,,,,
45077790,537354,492039,2,27409808,1.0,-1,-1,,,,
47831497,542136,537281,5,31536000,128.01,-1,-1,,,,
47831498,542136,580426,5,31536000,63.9,-1,-1,,,,
47831499,542136,595581,5,31536000,529.18,-1,-1,,,,
47831500,542136,616315,5,31536000,916.48,-1,-1,,,,
47831501,542136,642329,5,31536000,1030.58,-1,-1,,,,
47831502,542136,503701,5,31536000,139.69,-1,-1,,,,
47831503,542136,571970,5,31536000,134.62,-1,-1,,,,
47831504,542136,644226,5,31536000,389.86,-1,-1,,,,
47831505,542136,473173,5,31536000,462.08,-1,-1,,,,
47831506,542136,575030,5,31536000,3316.14,-1,-1,,,,
47831507,542136,621924,5,31536000,220.54,-1,-1,,,,
47831511,542136,577992,5,31536000,301.72,-1,-1,,,,
47831528,542136,589943,5,31536000,1235.18,-1,-1,,,,
47831529,542136,466907,5,31536000,167.09,-1,-1,,,,
47831530,542136,595298,5,31536000,1795.82,-1,-1,,,,
47831548,542136,459381,5,31536000,94.41,-1,-1,,,,
47831550,542136,527449,5,31536000,117.68,-1,-1,,,,
47831551,542136,567195,5,31536000,579.57,-1,-1,,,,
47831552,542136,536346,5,31536000,293.91,-1,-1,,,,
47831553,542136,503218,5,31536000,349.97,-1,-1,,,,
51821523,548652,459381,5,31536000,490.53,-1,-1,,,,
51821552,548652,630626,5,31536000,2551.61,-1,-1,,,,
51821556,548652,527449,5,31536000,61.78,-1,-1,,,,
51821721,548652,606730,5,31536000,16.59,-1,-1,,,,
51821722,548652,577992,5,31536000,441.14,-1,-1,,,,
51821731,548652,537281,5,31536000,432.01,-1,-1,,,,
51821749,548652,595298,5,31536000,484.68,-1,-1,,,,
51821751,548652,466907,5,31536000,598.9,-1,-1,,,,
51821756,548652,580426,5,31536000,23.27,-1,-1,,,,
51822447,548652,642329,5,31536000,410.93,-1,-1,,,,
51822486,548652,575030,5,31536000,3800.48,-1,-1,,,,
51822498,548652,503701,5,31536000,442.65,-1,-1,,,,
51822506,548652,473173,5,31536000,221.13,-1,-1,,,,
51822514,548652,616315,5,31536000,183.84,-1,-1,,,,
51822701,548652,621924,5,31536000,461.5,-1,-1,,,,
54466570,552988,542136,5,31536000,8580.38,-1,-1,,,,
54468186,552988,651631,5,31536000,21325.2,-1,-1,,,,
54473303,552988,537354,5,31536000,13234.6,-1,-1,,,,
54482009,552988,548652,5,31536000,2350.71,-1,-1,,,,
54494746,552988,459130,5,31536000,3926.75,-1,-1,,,,
54494922,552988,471910,5,31536000,19945.1,-1,-1,,,,
54496085,552988,641837,5,31536000,8521.64,-1,-1,,,,
54500733,552988,591140,5,31536000,4699.47,-1,-1,,,,
54508955,552988,535358,5,31536000,20044.5,-1,-1,,,,
54512715,552988,624608,5,31536000,18921.5,-1,-1,,,,
54516403,552988,635566,5,31536000,21753.7,-1,-1,,,,
54525922,552988,600971,5,31536000,55373.3,-1,-1,,,,
54532370,552988,629523,5,31536000,13853.0,-1,-1,,,,
54534826,552988,489112,5,31536000,3589.34,-1,-1,,,,
54535165,552988,512332,5,31536000,1537.36,-1,-1,,,,
54539318,552988,472092,5,31536000,22105.9,-1,-1,,,,
54550884,552988,529703,5,31536000,23227.0,-1,-1,,,,
54552636,552988,526900,5,31536000,9201.76,-1,-1,,,,
54559290,552988,600574,5,31536000,90527.2,-1,-1,,,,
54560680,552988,572173,5,31536000,114399.0,-1,-1,,,,
54562254,552988,467432,5,31536000,7542.46,-1,-1,,,,
56792355,467432,616453,6,17280000,1.0,2,5,-22.0,91.0,22.0,156.0
56792519,467432,561157,6,3283200,0.0,4,0,1.0,-165.0,33.0,-41.0
56793050,467432,561157,6,3283200,0.0,4,0,1.0,-165.0,33.0,-41.0
56793143,467432,616453,6,17280000,1.0,2,5,-22.0,91.0,22.0,156.0
56793726,467432,632961,5,31536000,317.3,-1,-1,,,,
56793733,467432,644226,5,31536000,1353.76,-1,-1,,,,
56793753,467432,473173,5,31536000,851.96,-1,-1,,,,
56793755,467432,621924,5,31536000,9515.46,-1,-1,,,,
56793778,467432,575030,5,31536000,3787.01,-1,-1,,,,
56793781,467432,620120,5,31536000,1528.91,-1,-1,,,,
56793921,467432,527449,5,31536000,22.06,-1,-1,,,,
56793926,467432,567195,5,31536000,264.72,-1,-1,,,,
56793933,467432,536346,5,31536000,235.35,-1,-1,,,,
56793937,467432,459381,5,31536000,442.2,-1,-1,,,,
56793957,467432,595298,5,31536000,1412.41,-1,-1,,,,
56794033,467432,503701,5,31536000,303.25,-1,-1,,,,
56794037,467432,616315,5,31536000,323.03,-1,-1,,,,
56794040,467432,580426,5,31536000,563.99,-1,-1,,,,
56794054,467432,561157,6,3283200,0.0,4,0,1.0,-165.0,33.0,-41.0
56794055,467432,616453,6,17280000,1.0,2,5,-22.0,91.0,22.0,156.0
56794085,467432,571970,5,31536000,41.82,-1,-1,,,,
56794092,467432,616453,6,17280000,1.0,2,5,-22.0,91.0,22.0,156.0
56794096,467432,606730,5,31536000,219.86,-1,-1,,,,
56794111,467432,466907,5,31536000,567.12,-1,-1,,,,
56794124,467432,561157,6,3283200,0.0,4,0,1.0,-165.0,33.0,-41.0
56794127,467432,523927,5,31536000,1870.77,-1,-1,,,,
56794130,467432,589943,5,31536000,457.16,-1,-1,,,,
56794314,467432,616453,6,17280000,1.0,2,5,-22.0,91.0,22.0,156.0
56794319,467432,561157,6,3283200,0.0,4,0,1.0,-165.0,33.0,-41.0
68993336,572173,575030,5,31536000,6573.08,-1,-1,,,,
68993337,572173,657173,6,19353600,1.0,4,1,1.0,-165.0,-29.0,-13.0
68993341,572173,620120,5,31536000,27143.7,-1,-1,,,,
68993345,572173,632961,5,31536000,1467.58,-1,-1,,,,
68993366,572173,473173,5,31536000,815.23,-1,-1,,,,
68993369,572173,625756,6,27043200,-1.0,0,3,33.0,-41.0,-25.0,-111.0
68993447,572173,621924,5,31536000,25926.6,-1,-1,,,,
68993540,572173,657173,6,19353600,1.0,4,1,1.0,-165.0,-29.0,-13.0
68993551,572173,625756,6,27043200,-1.0,0,3,33.0,-41.0,-25.0,-111.0
68993561,572173,657173,6,19353600,1.0,4,1,1.0,-165.0,-29.0,-13.0
68993639,572173,625756,6,27043200,-1.0,0,3,33.0,-41.0,-25.0,-111.0
68993815,572173,523927,5,31536000,9407.29,-1,-1,,,,
68993817,572173,577992,5,31536000,6157.02,-1,-1,,,,
68993833,572173,580426,5,31536000,300.7,-1,-1,,,,
68993850,572173,606730,5,31536000,656.92,-1,-1,,,,
68993852,572173,589943,5,31536000,5004.53,-1,-1,,,,
68993898,572173,642329,5,31536000,2327.83,-1,-1,,,,
68993902,572173,644226,5,31536000,236.73,-1,-1,,,,
68993905,572173,503701,5,31536000,1148.87,-1,-1,,,,
68993920,572173,595581,5,31536000,5247.73,-1,-1,,,,
68993931,572173,616315,5,31536000,5277.84,-1,-1,,,,
68993944,572173,466907,5,31536000,920.73,-1,-1,,,,
68994018,572173,595298,5,31536000,1454.88,-1,-1,,,,
68994019,572173,459381,5,31536000,776.33,-1,-1,,,,
68994033,572173,527449,5,31536000,447.44,-1,-1,,,,
68994060,572173,640784,5,31536000,404.29,-1,-1,,,,
68994073,572173,567195,5,31536000,15436.6,-1,-1,,,,
68994077,572173,520660,5,31536000,5054.79,-1,-1,,,,
68994078,572173,536346,5,31536000,152.78,-1,-1,,,,
68994881,572173,625756,6,27043200,-1.0,0,3,33.0,-41.0,-25.0,-111.0
68994956,572173,657173,6,19353600,1.0,4,1,1.0,-165.0,-29.0,-13.0
68995037,572173,657173,6,19353600,1.0,4,1,1.0,-165.0,-29.0,-13.0
68995041,572173,625756,6,27043200,-1.0,0,3,33.0,-41.0,-25.0,-111.0
81334902,591140,459381,5,31536000,549.8,-1,-1,,,,
81334905,591140,527449,5,31536000,211.42,-1,-1,,,,
81334908,591140,630626,5,31536000,2700.11,-1,-1,,,,
81335640,591140,595298,5,31536000,557.43,-1,-1,,,,
81335891,591140,561157,6,3024000,2.0,1,0,-29.0,-13.0,33.0,-41.0
81335896,591140,657173,6,19872000,-1.0,3,1,-25.0,-111.0,-29.0,-13.0
81335897,591140,657173,6,22636800,-1.0,4,1,1.0,-165.0,-29.0,-13.0
81335921,591140,509607,6,9072000,1.0,2,4,-22.0,91.0,1.0,-165.0
81336008,591140,499467,6,23155200,4.0,4,2,1.0,-165.0,-22.0,91.0
81336009,591140,499467,6,31536000,0.0,1,2,-29.0,-13.0,-22.0,91.0
81336120,591140,499467,6,4752000,0.0,0,2,33.0,-41.0,-22.0,91.0
81336123,591140,657173,6,18748800,-1.0,4,1,1.0,-165.0,-29.0,-13.0
81336124,591140,625756,6,13305600,1.0,1,3,-29.0,-13.0,-25.0,-111.0
81336126,591140,616453,6,2505600,0.0,1,5,-29.0,-13.0,22.0,156.0
81336127,591140,509607,6,10886400,4.0,1,4,-29.0,-13.0,1.0,-165.0
81336188,591140,499467,6,4752000,0.0,0,2,33.0,-41.0,-22.0,91.0
81336210,591140,625756,6,13305600,1.0,1,3,-29.0,-13.0,-25.0,-111.0
81336224,591140,657173,6,18748800,-1.0,4,1,1.0,-165.0,-29.0,-13.0
81336232,591140,509607,6,9072000,1.0,2,4,-22.0,91.0,1.0,-165.0
81336236,591140,657173,6,22636800,-1.0,4,1,1.0,-165.0,-29.0,-13.0
81336241,591140,657173,6,19872000,-1.0,3,1,-25.0,-111.0,-29.0,-13.0
81336243,591140,561157,6,3024000,2.0,1,0,-29.0,-13.0,33.0,-41.0
81336263,591140,499467,6,31536000,0.0,1,2,-29.0,-13.0,-22.0,91.0
81336267,591140,499467,6,23155200,4.0,4,2,1.0,-165.0,-22.0,91.0
81336330,591140,509607,6,10886400,4.0,1,4,-29.0,-13.0,1.0,-165.0
81336332,591140,616453,6,2505600,0.0,1,5,-29.0,-13.0,22.0,156.0
81336449,591140,657173,6,18748800,-1.0,4,1,1.0,-165.0,-29.0,-13.0
81336450,591140,499467,6,4752000,0.0,0,2,33.0,-41.0,-22.0,91.0
81336452,591140,499467,6,31536000,0.0,1,2,-29.0,-13.0,-22.0,91.0
81336453,591140,499467,6,23155200,4.0,4,2,1.0,-165.0,-22.0,91.0
81336459,591140,509607,6,9072000,1.0,2,4,-22.0,91.0,1.0,-165.0
81336464,591140,657173,6,22636800,-1.0,4,1,1.0,-165.0,-29.0,-13.0
81336480,591140,509607,6,10886400,4.0,1,4,-29.0,-13.0,1.0,-165.0
81336482,591140,616453,6,2505600,0.0,1,5,-29.0,-13.0,22.0,156.0
81336487,591140,625756,6,13305600,1.0,1,3,-29.0,-13.0,-25.0,-111.0
81336520,591140,657173,6,19872000,-1.0,3,1,-25.0,-111.0,-29.0,-13.0
81336523,591140,561157,6,3024000,2.0,1,0,-29.0,-13.0,33.0,-41.0
81336557,591140,561157,6,3024000,2.0,1,0,-29.0,-13.0,33.0,-41.0
81336667,591140,657173,6,18748800,-1.0,4,1,1.0,-165.0,-29.0,-13.0
81336670,591140,499467,6,4752000,0.0,0,2,33.0,-41.0,-22.0,91.0
81336673,591140,499467,6,31536000,0.0,1,2,-29.0,-13.0,-22.0,91.0
81336674,591140,499467,6,23155200,4.0,4,2,1.0,-165.0,-22.0,91.0
81336675,591140,625756,6,13305600,1.0,1,3,-29.0,-13.0,-25.0,-111.0
81336680,591140,657173,6,22636800,-1.0,4,1,1.0,-165.0,-29.0,-13.0
81336684,591140,657173,6,19872000,-1.0,3,1,-25.0,-111.0,-29.0,-13.0
81336685,591140,509607,6,9072000,1.0,2,4,-22.0,91.0,1.0,-165.0
81336687,591140,616453,6,2505600,0.0,1,5,-29.0,-13.0,22.0,156.0
81336688,591140,509607,6,10886400,4.0,1,4,-29.0,-13.0,1.0,-165.0
81336727,591140,621924,5,31536000,1857.01,-1,-1,,,,
81336755,591140,616315,5,31536000,2063.51,-1,-1,,,,
81336758,591140,580426,5,31536000,616.68,-1,-1,,,,
81336765,591140,537281,5,31536000,82.92,-1,-1,,,,
81336767,591140,589943,5,31536000,157.42,-1,-1,,,,
81336771,591140,466907,5,31536000,23.3,-1,-1,,,,
81336772,591140,523927,5,31536000,361.68,-1,-1,,,,
81336778,591140,575030,5,31536000,1525.83,-1,-1,,,,
81336788,591140,473173,5,31536000,26.07,-1,-1,,,,
81336789,591140,632961,5,31536000,297.42,-1,-1,,,,
81336791,591140,571970,5,31536000,14.73,-1,-1,,,,
81336793,591140,503701,5,31536000,1638.18,-1,-1,,,,
81337258,591140,625756,6,13305600,1.0,1,3,-29.0,-13.0,-25.0,-111.0
81337259,591140,657173,6,18748800,-1.0,4,1,1.0,-165.0,-29.0,-13.0
81337260,591140,499467,6,4752000,0.0,0,2,33.0,-41.0,-22.0,91.0
81337261,591140,499467,6,31536000,0.0,1,2,-29.0,-13.0,-22.0,91.0
81337262,591140,499467,6,23155200,4.0,4,2,1.0,-165.0,-22.0,91.0
81337263,591140,509607,6,9072000,1.0,2,4,-22.0,91.0,1.0,-165.0
81337265,591140,657173,6,22636800,-1.0,4,1,1.0,-165.0,-29.0,-13.0
81337266,591140,657173,6,19872000,-1.0,3,1,-25.0,-111.0,-29.0,-13.0
81337269,591140,561157,6,3024000,2.0,1,0,-29.0,-13.0,33.0,-41.0
81337278,591140,616453,6,2505600,0.0,1,5,-29.0,-13.0,22.0,156.0
81337324,591140,509607,6,10886400,4.0,1,4,-29.0,-13.0,1.0,-165.0
84389104,471910,616453,6,16502400,2.0,1,5,-29.0,-13.0,22.0,156.0
84389106,471910,561157,6,13392000,0.0,1,0,-29.0,-13.0,33.0,-41.0
84389111,471910,657173,6,10108800,-1.0,2,1,-22.0,91.0,-29.0,-13.0
84389114,471910,616453,6,8121600,4.0,0,5,33.0,-41.0,22.0,156.0
84389120,471910,595298,5,31536000,2479.05,-1,-1,,,,
84389121,471910,466907,5,31536000,337.14,-1,-1,,,,
84389127,471910,589943,5,31536000,998.03,-1,-1,,,,
84389129,471910,577992,5,31536000,1031.98,-1,-1,,,,
84389131,471910,459381,5,31536000,501.87,-1,-1,,,,
84389139,471910,580426,5,31536000,250.85,-1,-1,,,,
84389140,471910,616315,5,31536000,1063.86,-1,-1,,,,
84389141,471910,642329,5,31536000,267.1,-1,-1,,,,
84389143,471910,503701,5,31536000,1352.34,-1,-1,,,,
84389144,471910,523927,5,31536000,952.65,-1,-1,,,,
84389166,471910,640784,5,31536000,682.59,-1,-1,,,,
84389167,471910,630626,5,31536000,3425.3,-1,-1,,,,
84389171,471910,527449,5,31536000,255.03,-1,-1,,,,
84389173,471910,571970,5,31536000,94.42,-1,-1,,,,
84389174,471910,473173,5,31536000,1001.29,-1,-1,,,,
84389175,471910,620120,5,31536000,3085.45,-1,-1,,,,
84389208,471910,575030,5,31536000,863.38,-1,-1,,,,
84389209,471910,621924,5,31536000,86.9,-1,-1,,,,
84389232,471910,561157,6,12614400,5.0,3,0,-25.0,-111.0,33.0,-41.0
84389234,471910,657173,6,27993600,-1.0,2,1,-22.0,91.0,-29.0,-13.0
84389258,471910,561157,6,12614400,5.0,3,0,-25.0,-111.0,33.0,-41.0
84389262,471910,616453,6,22982400,2.0,1,5,-29.0,-13.0,22.0,156.0
84389266,471910,657173,6,27993600,-1.0,2,1,-22.0,91.0,-29.0,-13.0
84389267,471910,499467,6,30499200,4.0,1,2,-29.0,-13.0,-22.0,91.0
84389287,471910,499467,6,30499200,4.0,1,2,-29.0,-13.0,-22.0,91.0
84389292,471910,657173,6,27993600,-1.0,2,1,-22.0,91.0,-29.0,-13.0
84389298,471910,616453,6,22982400,2.0,1,5,-29.0,-13.0,22.0,156.0
84389326,471910,657173,6,10108800,-1.0,2,1,-22.0,91.0,-29.0,-13.0
84389327,471910,561157,6,13392000,0.0,1,0,-29.0,-13.0,33.0,-41.0
84389372,471910,561157,6,12614400,5.0,3,0,-25.0,-111.0,33.0,-41.0
84389392,471910,616453,6,16502400,2.0,1,5,-29.0,-13.0,22.0,156.0
84389393,471910,616453,6,8121600,4.0,0,5,33.0,-41.0,22.0,156.0
84389419,471910,616453,6,22982400,2.0,1,5,-29.0,-13.0,22.0,156.0
84389420,471910,657173,6,10108800,-1.0,2,1,-22.0,91.0,-29.0,-13.0
84389421,471910,616453,6,8121600,4.0,0,5,33.0,-41.0,22.0,156.0
84389486,471910,499467,6,30499200,4.0,1,2,-29.0,-13.0,-22.0,91.0
84389538,471910,616453,6,16502400,2.0,1,5,-29.0,-13.0,22.0,156.0
84389559,471910,561157,6,13392000,0.0,1,0,-29.0,-13.0,33.0,-41.0
84389725,471910,616453,6,16502400,2.0,1,5,-29.0,-13.0,22.0,156.0
84389729,471910,616453,6,8121600,4.0,0,5,33.0,-41.0,22.0,156.0
84389731,471910,561157,6,13392000,0.0,1,0,-29.0,-13.0,33.0,-41.0
84389732,471910,657173,6,10108800,-1.0,2,1,-22.0,91.0,-29.0,-13.0
84389734,471910,561157,6,12614400,5.0,3,0,-25.0,-111.0,33.0,-41.0
84389735,471910,657173,6,27993600,-1.0,2,1,-22.0,91.0,-29.0,-13.0
84389737,471910,499467,6,30499200,4.0,1,2,-29.0,-13.0,-22.0,91.0
84389746,471910,616453,6,22982400,2.0,1,5,-29.0,-13.0,22.0,156.0
84389840,471910,616453,6,16502400,2.0,1,5,-29.0,-13.0,22.0,156.0
84389842,471910,616453,6,8121600,4.0,0,5,33.0,-41.0,22.0,156.0
84389845,471910,561157,6,13392000,0.0,1,0,-29.0,-13.0,33.0,-41.0
84389846,471910,657173,6,10108800,-1.0,2,1,-22.0,91.0,-29.0,-13.0
84389849,471910,561157,6,12614400,5.0,3,0,-25.0,-111.0,33.0,-41.0
84389854,471910,616453,6,22982400,2.0,1,5,-29.0,-13.0,22.0,156.0
84389855,471910,657173,6,27993600,-1.0,2,1,-22.0,91.0,-29.0,-13.0
84389856,471910,499467,6,30499200,4.0,1,2,-29.0,-13.0,-22.0,91.0
84494220,472092,595581,5,31536000,2133.17,-1,-1,,,,
84494221,472092,616315,5,31536000,2774.39,-1,-1,,,,
84494224,472092,642329,5,31536000,688.12,-1,-1,,,,
84494229,472092,503701,5,31536000,5072.1,-1,-1,,,,
84494232,472092,571970,5,31536000,312.1,-1,-1,,,,
84494233,472092,644226,5,31536000,3040.92,-1,-1,,,,
84494234,472092,473173,5,31536000,8369.27,-1,-1,,,,
84494239,472092,621924,5,31536000,459.63,-1,-1,,,,
84494244,472092,567195,5,31536000,2936.8,-1,-1,,,,
84494247,472092,527449,5,31536000,838.91,-1,-1,,,,
84494250,472092,459381,5,31536000,1963.32,-1,-1,,,,
84494251,472092,595298,5,31536000,3925.54,-1,-1,,,,
84494261,472092,466907,5,31536000,904.81,-1,-1,,,,
84494262,472092,589943,5,31536000,6712.71,-1,-1,,,,
84494265,472092,537281,5,31536000,1352.98,-1,-1,,,,
84494293,472092,520660,5,31536000,5081.58,-1,-1,,,,
84494294,472092,561157,6,2073600,-1.0,4,0,1.0,-165.0,33.0,-41.0
84494295,472092,625756,6,27043200,1.0,0,3,33.0,-41.0,-25.0,-111.0
84494306,472092,625756,6,13392000,2.0,0,3,33.0,-41.0,-25.0,-111.0
84494310,472092,561157,6,19440000,-1.0,2,0,-22.0,91.0,33.0,-41.0
84494311,472092,509607,6,24192000,3.0,0,4,33.0,-41.0,1.0,-165.0
84494313,472092,616453,6,18057600,3.0,4,5,1.0,-165.0,22.0,156.0
84494314,472092,561157,6,20908800,-1.0,2,0,-22.0,91.0,33.0,-41.0
84494315,472092,561157,6,7171200,-1.0,4,0,1.0,-165.0,33.0,-41.0
84494316,472092,561157,6,15811200,-1.0,0,0,33.0,-41.0,33.0,-41.0
84494317,472092,561157,6,18662400,-1.0,1,0,-29.0,-13.0,33.0,-41.0
84494320,472092,536346,5,31536000,4064.84,-1,-1,,,,
84494373,472092,625756,6,27043200,1.0,0,3,33.0,-41.0,-25.0,-111.0
84494374,472092,625756,6,13392000,2.0,0,3,33.0,-41.0,-25.0,-111.0
84494375,472092,561157,6,2073600,-1.0,4,0,1.0,-165.0,33.0,-41.0
84494383,472092,561157,6,18662400,-1.0,1,0,-29.0,-13.0,33.0,-41.0
84494397,472092,561157,6,15811200,-1.0,0,0,33.0,-41.0,33.0,-41.0
84494398,472092,561157,6,20908800,-1.0,2,0,-22.0,91.0,33.0,-41.0
84494409,472092,561157,6,7171200,-1.0,4,0,1.0,-165.0,33.0,-41.0
84494416,472092,561157,6,19440000,-1.0,2,0,-22.0,91.0,33.0,-41.0
84494418,472092,509607,6,24192000,3.0,0,4,33.0,-41.0,1.0,-165.0
84494420,472092,616453,6,18057600,3.0,4,5,1.0,-165.0,22.0,156.0
84494450,472092,509607,6,24192000,3.0,0,4,33.0,-41.0,1.0,-165.0
84494451,472092,561157,6,19440000,-1.0,2,0,-22.0,91.0,33.0,-41.0
84494525,472092,561157,6,2073600,-1.0,4,0,1.0,-165.0,33.0,-41.0
84494528,472092,561157,6,15811200,-1.0,0,0,33.0,-41.0,33.0,-41.0
84494533,472092,561157,6,7171200,-1.0,4,0,1.0,-165.0,33.0,-41.0
84494537,472092,561157,6,2073600,-1.0,4,0,1.0,-165.0,33.0,-41.0
84494540,472092,625756,6,13392000,2.0,0,3,33.0,-41.0,-25.0,-111.0
84494541,472092,625756,6,27043200,1.0,0,3,33.0,-41.0,-25.0,-111.0
84494542,472092,561157,6,18662400,-1.0,1,0,-29.0,-13.0,33.0,-41.0
84494545,472092,561157,6,20908800,-1.0,2,0,-22.0,91.0,33.0,-41.0
84494559,472092,625756,6,13392000,2.0,0,3,33.0,-41.0,-25.0,-111.0
84494561,472092,625756,6,27043200,1.0,0,3,33.0,-41.0,-25.0,-111.0
84494563,472092,561157,6,15811200,-1.0,0,0,33.0,-41.0,33.0,-41.0
84494566,472092,561157,6,18662400,-1.0,1,0,-29.0,-13.0,33.0,-41.0
84494577,472092,561157,6,7171200,-1.0,4,0,1.0,-165.0,33.0,-41.0
84494578,472092,561157,6,20908800,-1.0,2,0,-22.0,91.0,33.0,-41.0
84494581,472092,561157,6,15811200,-1.0,0,0,33.0,-41.0,33.0,-41.0
84494589,472092,561157,6,18662400,-1.0,1,0,-29.0,-13.0,33.0,-41.0
84494594,472092,561157,6,7171200,-1.0,4,0,1.0,-165.0,33.0,-41.0
84494598,472092,561157,6,20908800,-1.0,2,0,-22.0,91.0,33.0,-41.0
84494599,472092,561157,6,19440000,-1.0,2,0,-22.0,91.0,33.0,-41.0
84494602,472092,616453,6,18057600,3.0,4,5,1.0,-165.0,22.0,156.0
84494603,472092,509607,6,24192000,3.0,0,4,33.0,-41.0,1.0,-165.0
84494604,472092,625756,6,27043200,1.0,0,3,33.0,-41.0,-25.0,-111.0
84494612,472092,616453,6,18057600,3.0,4,5,1.0,-165.0,22.0,156.0
84494613,472092,616453,6,18057600,3.0,4,5,1.0,-165.0,22.0,156.0
84494616,472092,509607,6,24192000,3.0,0,4,33.0,-41.0,1.0,-165.0
84494623,472092,561157,6,2073600,-1.0,4,0,1.0,-165.0,33.0,-41.0
84494626,472092,625756,6,13392000,2.0,0,3,33.0,-41.0,-25.0,-111.0
84494627,472092,561157,6,19440000,-1.0,2,0,-22.0,91.0,33.0,-41.0
87835903,600574,630626,5,31536000,15186.5,-1,-1,,,,
87835905,600574,640784,5,31536000,1539.98,-1,-1,,,,
87835928,600574,567195,5,31536000,15854.9,-1,-1,,,,
87835929,600574,459381,5,31536000,2059.86,-1,-1,,,,
87835932,600574,571970,5,31536000,596.99,-1,-1,,,,
87835933,600574,642329,5,31536000,695.05,-1,-1,,,,
87835934,600574,616315,5,31536000,1314.23,-1,-1,,,,
87835940,600574,595581,5,31536000,7376.68,-1,-1,,,,
87835941,600574,523927,5,31536000,8282.73,-1,-1,,,,
87835942,600574,537281,5,31536000,2507.99,-1,-1,,,,
87835943,600574,577992,5,31536000,1061.11,-1,-1,,,,
87835946,600574,589943,5,31536000,7010.23,-1,-1,,,,
87835949,600574,466907,5,31536000,2059.0,-1,-1,,,,
87835952,600574,595298,5,31536000,1565.42,-1,-1,,,,
87835953,600574,527449,5,31536000,562.21,-1,-1,,,,
87835954,600574,473173,5,31536000,638.58,-1,-1,,,,
87836009,600574,620120,5,31536000,8226.17,-1,-1,,,,
87836010,600574,575030,5,31536000,43.06,-1,-1,,,,
87836087,600574,621924,5,31536000,8751.45,-1,-1,,,,
88064295,600971,657173,6,15465600,5.0,4,1,1.0,-165.0,-29.0,-13.0
88064296,600971,499467,6,23587200,0.0,4,2,1.0,-165.0,-22.0,91.0
88064305,600971,530665,4,-656897782,0.25,-1,-1,,,,
88064307,600971,509607,6,1641600,-1.0,0,4,33.0,-41.0,1.0,-165.0
88064320,600971,579269,4,-685755382,0.166667,-1,-1,,,,
88064329,600971,657173,6,25401600,1.0,5,1,22.0,156.0,-29.0,-13.0
88064360,600971,657173,6,26006400,0.0,4,1,1.0,-165.0,-29.0,-13.0
88064382,600971,657173,6,25401600,1.0,5,1,22.0,156.0,-29.0,-13.0
88064384,600971,657173,6,26006400,0.0,4,1,1.0,-165.0,-29.0,-13.0
88064386,600971,499467,6,6307200,1.0,4,2,1.0,-165.0,-22.0,91.0
88064396,600971,657173,6,26006400,0.0,4,1,1.0,-165.0,-29.0,-13.0
88064399,600971,616453,6,19785600,1.0,4,5,1.0,-165.0,22.0,156.0
88064401,600971,625756,6,2505600,5.0,4,3,1.0,-165.0,-25.0,-111.0
88064402,600971,616453,6,19785600,1.0,4,5,1.0,-165.0,22.0,156.0
88064404,600971,657173,6,25401600,1.0,5,1,22.0,156.0,-29.0,-13.0
88064413,600971,499467,6,6307200,1.0,4,2,1.0,-165.0,-22.0,91.0
88064417,600971,499467,6,23587200,0.0,4,2,1.0,-165.0,-22.0,91.0
88064422,600971,657173,6,15465600,5.0,4,1,1.0,-165.0,-29.0,-13.0
88064423,600971,509607,6,1641600,-1.0,0,4,33.0,-41.0,1.0,-165.0
88064429,600971,625756,6,2505600,5.0,4,3,1.0,-165.0,-25.0,-111.0
88064430,600971,616453,6,24019200,3.0,0,5,33.0,-41.0,22.0,156.0
88064433,600971,625756,6,2505600,5.0,4,3,1.0,-165.0,-25.0,-111.0
88064435,600971,616453,6,24019200,3.0,0,5,33.0,-41.0,22.0,156.0
88064437,600971,499467,6,23587200,0.0,4,2,1.0,-165.0,-22.0,91.0
88064450,600971,509607,6,1641600,-1.0,0,4,33.0,-41.0,1.0,-165.0
88064452,600971,657173,6,15465600,5.0,4,1,1.0,-165.0,-29.0,-13.0
88064453,600971,499467,6,6307200,1.0,4,2,1.0,-165.0,-22.0,91.0
88064475,600971,616453,6,24019200,3.0,0,5,33.0,-41.0,22.0,156.0
88064523,600971,607498,4,-541121782,0.333333,-1,-1,,,,
88065107,600971,625756,6,2505600,5.0,4,3,1.0,-165.0,-25.0,-111.0
88065108,600971,616453,6,24019200,3.0,0,5,33.0,-41.0,22.0,156.0
88065109,600971,509607,6,1641600,-1.0,0,4,33.0,-41.0,1.0,-165.0
88065113,600971,657173,6,15465600,5.0,4,1,1.0,-165.0,-29.0,-13.0
88065114,600971,499467,6,23587200,0.0,4,2,1.0,-165.0,-22.0,91.0
88065292,600971,657173,6,26006400,0.0,4,1,1.0,-165.0,-29.0,-13.0
88065425,600971,657173,6,25401600,1.0,5,1,22.0,156.0,-29.0,-13.0
88065469,600971,499467,6,6307200,1.0,4,2,1.0,-165.0,-22.0,91.0
88065509,600971,616453,6,19785600,1.0,4,5,1.0,-165.0,22.0,156.0
88065820,600971,625756,6,2505600,5.0,4,3,1.0,-165.0,-25.0,-111.0
88065883,600971,616453,6,19785600,1.0,4,5,1.0,-165.0,22.0,156.0
88065944,600971,657173,6,25401600,1.0,5,1,22.0,156.0,-29.0,-13.0
88065951,600971,499467,6,6307200,1.0,4,2,1.0,-165.0,-22.0,91.0
88065956,600971,657173,6,26006400,0.0,4,1,1.0,-165.0,-29.0,-13.0
88065963,600971,499467,6,23587200,0.0,4,2,1.0,-165.0,-22.0,91.0
88066008,600971,657173,6,15465600,5.0,4,1,1.0,-165.0,-29.0,-13.0
88066009,600971,509607,6,1641600,-1.0,0,4,33.0,-41.0,1.0,-165.0
88066010,600971,616453,6,24019200,3.0,0,5,33.0,-41.0,22.0,156.0
88066348,600971,466907,5,31536000,1596.22,-1,-1,,,,
88066349,600971,595298,5,31536000,1123.89,-1,-1,,,,
88066351,600971,459381,5,31536000,284.24,-1,-1,,,,
88066352,600971,527449,5,31536000,295.36,-1,-1,,,,
88066354,600971,536346,5,31536000,3398.71,-1,-1,,,,
88066356,600971,630626,5,31536000,8745.63,-1,-1,,,,
88066440,600971,567195,5,31536000,6580.68,-1,-1,,,,
88066448,600971,606730,5,31536000,1623.57,-1,-1,,,,
88066497,600971,575030,5,31536000,15067.8,-1,-1,,,,
88066498,600971,620120,5,31536000,4387.13,-1,-1,,,,
88066499,600971,473173,5,31536000,5790.81,-1,-1,,,,
88066500,600971,463021,4,-508376182,0.25,-1,-1,,,,
88066501,600971,632961,5,31536000,398.49,-1,-1,,,,
88066503,600971,644226,5,31536000,3100.38,-1,-1,,,,
88066504,600971,503701,5,31536000,7684.84,-1,-1,,,,
88066505,600971,642329,5,31536000,614.86,-1,-1,,,,
88066507,600971,595581,5,31536000,1042.86,-1,-1,,,,
88066509,600971,523927,5,31536000,9264.65,-1,-1,,,,
88066510,600971,616453,6,19785600,1.0,4,5,1.0,-165.0,22.0,156.0
88066513,600971,577992,5,31536000,3862.58,-1,-1,,,,
88066515,600971,589943,5,31536000,348.06,-1,-1,,,,
88066518,600971,580426,5,31536000,385.94,-1,-1,,,,
100220763,620120,641837,5,31536000,717.7,-1,-1,,,,
100221070,620120,542136,5,31536000,935.92,-1,-1,,,,
100221169,620120,548652,5,31536000,539.63,-1,-1,,,,
100223623,620120,651631,5,31536000,1966.62,-1,-1,,,,
100224295,620120,629523,5,31536000,648.8,-1,-1,,,,
100225171,620120,529703,5,31536000,1768.44,-1,-1,,,,
100229329,620120,472092,5,31536000,3633.11,-1,-1,,,,
100232352,620120,459130,5,31536000,329.21,-1,-1,,,,
100234935,620120,591140,5,31536000,637.92,-1,-1,,,,
100236076,620120,624608,5,31536000,4278.58,-1,-1,,,,
102995560,624608,503701,5,31536000,549.07,-1,-1,,,,
102995563,624608,523927,5,31536000,1793.58,-1,-1,,,,
102995566,624608,537281,5,31536000,444.73,-1,-1,,,,
102995587,624608,644226,5,31536000,4439.27,-1,-1,,,,
102995592,624608,473173,5,31536000,1697.24,-1,-1,,,,
102995594,624608,632961,5,31536000,796.47,-1,-1,,,,
102995597,624608,575030,5,31536000,9522.49,-1,-1,,,,
102995603,624608,459381,5,31536000,1201.85,-1,-1,,,,
102995607,624608,527449,5,31536000,164.85,-1,-1,,,,
102995610,624608,536346,5,31536000,2914.96,-1,-1,,,,
102995623,624608,577992,5,31536000,2297.46,-1,-1,,,,
102995630,624608,589943,5,31536000,1347.59,-1,-1,,,,
102995632,624608,466907,5,31536000,1500.36,-1,-1,,,,
102995641,624608,595298,5,31536000,3597.06,-1,-1,,,,
105899397,629523,657173,6,17193600,5.0,2,1,-22.0,91.0,-29.0,-13.0
105899398,629523,561157,6,30844800,3.0,2,0,-22.0,91.0,33.0,-41.0
105899399,629523,616453,6,5529600,1.0,2,5,-22.0,91.0,22.0,156.0
105899406,629523,616453,6,23155200,0.0,2,5,-22.0,91.0,22.0,156.0
105899419,629523,499467,6,1209600,-1.0,0,2,33.0,-41.0,-22.0,91.0
105899420,629523,657173,6,29721600,6.0,2,1,-22.0,91.0,-29.0,-13.0
105899443,629523,499467,6,30153600,-1.0,3,2,-25.0,-111.0,-22.0,91.0
105899444,629523,561157,6,4924800,4.0,2,0,-22.0,91.0,33.0,-41.0
105899455,629523,499467,6,30153600,-1.0,3,2,-25.0,-111.0,-22.0,91.0
105899456,629523,561157,6,4924800,4.0,2,0,-22.0,91.0,33.0,-41.0
105899457,629523,657173,6,29721600,6.0,2,1,-22.0,91.0,-29.0,-13.0
105899460,629523,499467,6,1209600,-1.0,0,2,33.0,-41.0,-22.0,91.0
105899461,629523,657173,6,17193600,5.0,2,1,-22.0,91.0,-29.0,-13.0
105899462,629523,561157,6,30844800,3.0,2,0,-22.0,91.0,33.0,-41.0
105899463,629523,616453,6,5529600,1.0,2,5,-22.0,91.0,22.0,156.0
105899471,629523,616453,6,23155200,0.0,2,5,-22.0,91.0,22.0,156.0
105899556,629523,561157,6,30844800,3.0,2,0,-22.0,91.0,33.0,-41.0
105899561,629523,616453,6,5529600,1.0,2,5,-22.0,91.0,22.0,156.0
105899581,629523,657173,6,17193600,5.0,2,1,-22.0,91.0,-29.0,-13.0
105899590,629523,499467,6,30153600,-1.0,3,2,-25.0,-111.0,-22.0,91.0
105899596,629523,561157,6,4924800,4.0,2,0,-22.0,91.0,33.0,-41.0
105899597,629523,657173,6,29721600,6.0,2,1,-22.0,91.0,-29.0,-13.0
105899598,629523,499467,6,1209600,-1.0,0,2,33.0,-41.0,-22.0,91.0
105899604,629523,616453,6,23155200,0.0,2,5,-22.0,91.0,22.0,156.0
105899648,629523,499467,6,30153600,-1.0,3,2,-25.0,-111.0,-22.0,91.0
105899649,629523,561157,6,4924800,4.0,2,0,-22.0,91.0,33.0,-41.0
105899650,629523,657173,6,29721600,6.0,2,1,-22.0,91.0,-29.0,-13.0
105899652,629523,616453,6,23155200,0.0,2,5,-22.0,91.0,22.0,156.0
105899653,629523,657173,6,17193600,5.0,2,1,-22.0,91.0,-29.0,-13.0
105899654,629523,561157,6,30844800,3.0,2,0,-22.0,91.0,33.0,-41.0
105899655,629523,616453,6,5529600,1.0,2,5,-22.0,91.0,22.0,156.0
105899715,629523,473173,5,31536000,750.21,-1,-1,,,,
105899716,629523,575030,5,31536000,10944.3,-1,-1,,,,
105899718,629523,621924,5,31536000,765.36,-1,-1,,,,
105899725,629523,632961,5,31536000,235.74,-1,-1,,,,
105899739,629523,571970,5,31536000,30.51,-1,-1,,,,
105899740,629523,503701,5,31536000,426.87,-1,-1,,,,
105899748,629523,630626,5,31536000,4562.27,-1,-1,,,,
105899749,629523,567195,5,31536000,1489.47,-1,-1,,,,
105899750,629523,527449,5,31536000,389.42,-1,-1,,,,
105899752,629523,459381,5,31536000,352.26,-1,-1,,,,
105899755,629523,595298,5,31536000,618.5,-1,-1,,,,
105899757,629523,466907,5,31536000,456.17,-1,-1,,,,
105899758,629523,589943,5,31536000,404.88,-1,-1,,,,
105899760,629523,577992,5,31536000,511.11,-1,-1,,,,
105899761,629523,523927,5,31536000,508.21,-1,-1,,,,
105899763,629523,595581,5,31536000,240.41,-1,-1,,,,
105899766,629523,499467,6,1209600,-1.0,0,2,33.0,-41.0,-22.0,91.0
105899777,629523,499467,6,30153600,-1.0,3,2,-25.0,-111.0,-22.0,91.0
105899779,629523,561157,6,4924800,4.0,2,0,-22.0,91.0,33.0,-41.0
105899781,629523,657173,6,29721600,6.0,2,1,-22.0,91.0,-29.0,-13.0
105899782,629523,499467,6,1209600,-1.0,0,2,33.0,-41.0,-22.0,91.0
105899783,629523,616453,6,23155200,0.0,2,5,-22.0,91.0,22.0,156.0
105899785,629523,657173,6,17193600,5.0,2,1,-22.0,91.0,-29.0,-13.0
105899787,629523,561157,6,30844800,3.0,2,0,-22.0,91.0,33.0,-41.0
105899788,629523,616453,6,5529600,1.0,2,5,-22.0,91.0,22.0,156.0
109619914,635566,580426,5,31536000,174.01,-1,-1,,,,
109620027,635566,473173,5,31536000,427.63,-1,-1,,,,
109620028,635566,620120,5,31536000,34.6,-1,-1,,,,
109620029,635566,575030,5,31536000,5674.34,-1,-1,,,,
109620030,635566,621924,5,31536000,1568.86,-1,-1,,,,
109620053,635566,632961,5,31536000,159.74,-1,-1,,,,
109620054,635566,616315,5,31536000,787.98,-1,-1,,,,
109620056,635566,640784,5,31536000,138.26,-1,-1,,,,
109620058,635566,630626,5,31536000,4654.42,-1,-1,,,,
109620060,635566,527449,5,31536000,212.48,-1,-1,,,,
109620061,635566,459381,5,31536000,399.62,-1,-1,,,,
109620062,635566,595298,5,31536000,1215.51,-1,-1,,,,
109620065,635566,466907,5,31536000,447.77,-1,-1,,,,
109620066,635566,571970,5,31536000,89.56,-1,-1,,,,
109620069,635566,577992,5,31536000,2034.58,-1,-1,,,,
109620078,635566,595581,5,31536000,1102.61,-1,-1,,,,
109620079,635566,589943,5,31536000,1245.13,-1,-1,,,,
109620175,635566,657173,6,26870400,5.0,2,1,-22.0,91.0,-29.0,-13.0
109620176,635566,616453,6,9072000,-1.0,1,5,-29.0,-13.0,22.0,156.0
109620177,635566,657173,6,2937600,1.0,5,1,22.0,156.0,-29.0,-13.0
109620178,635566,657173,6,22204800,3.0,4,1,1.0,-165.0,-29.0,-13.0
109620186,635566,499467,6,28598400,1.0,5,2,22.0,156.0,-22.0,91.0
109620273,635566,657173,6,22204800,3.0,4,1,1.0,-165.0,-29.0,-13.0
109620274,635566,657173,6,2937600,1.0,5,1,22.0,156.0,-29.0,-13.0
109620275,635566,616453,6,9072000,-1.0,1,5,-29.0,-13.0,22.0,156.0
109620276,635566,499467,6,28598400,1.0,5,2,22.0,156.0,-22.0,91.0
109620277,635566,657173,6,26870400,5.0,2,1,-22.0,91.0,-29.0,-13.0
109620343,635566,657173,6,26870400,5.0,2,1,-22.0,91.0,-29.0,-13.0
109620344,635566,499467,6,28598400,1.0,5,2,22.0,156.0,-22.0,91.0
109620345,635566,616453,6,9072000,-1.0,1,5,-29.0,-13.0,22.0,156.0
109620476,635566,657173,6,2937600,1.0,5,1,22.0,156.0,-29.0,-13.0
109620477,635566,657173,6,22204800,3.0,4,1,1.0,-165.0,-29.0,-13.0
109621009,635566,657173,6,22204800,3.0,4,1,1.0,-165.0,-29.0,-13.0
109621025,635566,657173,6,2937600,1.0,5,1,22.0,156.0,-29.0,-13.0
109621026,635566,616453,6,9072000,-1.0,1,5,-29.0,-13.0,22.0,156.0
109621027,635566,499467,6,28598400,1.0,5,2,22.0,156.0,-22.0,91.0
109621043,635566,657173,6,26870400,5.0,2,1,-22.0,91.0,-29.0,-13.0
109621109,635566,657173,6,22204800,3.0,4,1,1.0,-165.0,-29.0,-13.0
109621111,635566,657173,6,2937600,1.0,5,1,22.0,156.0,-29.0,-13.0
109621114,635566,616453,6,9072000,-1.0,1,5,-29.0,-13.0,22.0,156.0
109621117,635566,499467,6,28598400,1.0,5,2,22.0,156.0,-22.0,91.0
109621119,635566,657173,6,26870400,5.0,2,1,-22.0,91.0,-29.0,-13.0
114346884,641837,523927,5,31536000,1162.76,-1,-1,,,,
114346885,641837,595581,5,31536000,482.55,-1,-1,,,,
114346886,641837,616315,5,31536000,1724.44,-1,-1,,,,
114346887,641837,503701,5,31536000,1774.74,-1,-1,,,,
114346888,641837,632961,5,31536000,686.9,-1,-1,,,,
114346889,641837,473173,5,31536000,1017.66,-1,-1,,,,
114346891,641837,575030,5,31536000,3667.02,-1,-1,,,,
114346892,641837,621924,5,31536000,1757.97,-1,-1,,,,
114346977,641837,503218,5,31536000,525.92,-1,-1,,,,
114346980,641837,630626,5,31536000,1305.11,-1,-1,,,,
114346982,641837,567195,5,31536000,938.77,-1,-1,,,,
114346984,641837,459381,5,31536000,629.97,-1,-1,,,,
114346985,641837,595298,5,31536000,441.59,-1,-1,,,,
114346986,641837,466907,5,31536000,26.5,-1,-1,,,,
114346987,641837,606730,5,31536000,393.44,-1,-1,,,,
114346989,641837,527449,5,31536000,123.36,-1,-1,,,,
114347008,641837,577992,5,31536000,114.84,-1,-1,,,,
120274440,651631,642329,5,31536000,4296.28,-1,-1,,,,
120274441,651631,616315,5,31536000,2778.55,-1,-1,,,,
120274442,651631,537281,5,31536000,2342.12,-1,-1,,,,
120274448,651631,577992,5,31536000,5684.66,-1,-1,,,,
120274459,651631,466907,5,31536000,1181.75,-1,-1,,,,
120274466,651631,473173,5,31536000,3661.37,-1,-1,,,,
120274491,651631,621924,5,31536000,8879.85,-1,-1,,,,
120274493,651631,575030,5,31536000,21679.3,-1,-1,,,,
120274494,651631,503701,5,31536000,3145.12,-1,-1,,,,
120274497,651631,595298,5,31536000,4153.6,-1,-1,,,,
120274535,651631,459381,5,31536000,1925.86,-1,-1,,,,
120274536,651631,527449,5,31536000,250.0,-1,-1,,,,
120274537,651631,567195,5,31536000,3986.49,-1,-1,,,,
120274540,651631,630626,5,31536000,10609.1,-1,-1,,,,
120274544,651631,640784,5,31536000,243.3,-1,-1,,,,
