,Source,Target,eType,Time,Weight,SourceLocation,TargetLocation,SourceLatitude,SourceLongitude,TargetLatitude,TargetLongitude
0,460259,553772,0,27739538,1.0,-1,-1,,,,
1,631870,529762,0,4942116,1.0,-1,-1,,,,
2,529762,510755,0,20679855,1.0,-1,-1,,,,
3,569541,469963,1,30961819,1.0,0,4,32.5128,-51.8635,3.87508,-168.736
4,560907,569541,0,8756443,1.0,-1,-1,,,,
5,600971,631870,1,4473224,1.0,0,2,37.5294,-41.5884,-21.6555,89.47
6,469963,460259,0,272196,1.0,-1,-1,,,,
7,488329,560907,1,19411606,1.0,3,2,-26.0719,-110.275,-22.3063,95.8664
8,488329,560907,1,19365507,1.0,3,2,-26.0719,-110.275,-22.3063,95.8664
9,631870,631870,0,29549416,1.0,-1,-1,,,,
10,510755,533733,1,27144206,1.0,0,1,42.6705,-44.9402,-29.3098,-11.7001
11,488329,553772,1,18506438,1.0,3,4,-26.0719,-110.275,0.939177,-165.497
12,533733,488329,1,23277329,1.0,1,3,-29.3098,-11.7001,-26.0719,-110.275
2202783,460259,561157,6,29808000,7.0,4,0,1.0,-165.0,33.0,-41.0
2202784,460259,625756,6,6480000,4.0,4,3,1.0,-165.0,-25.0,-111.0
2202877,460259,625756,6,6480000,4.0,4,3,1.0,-165.0,-25.0,-111.0
2202893,460259,561157,6,29808000,7.0,4,0,1.0,-165.0,33.0,-41.0
2202930,460259,561157,6,29808000,7.0,4,0,1.0,-165.0,33.0,-41.0
2202931,460259,625756,6,6480000,4.0,4,3,1.0,-165.0,-25.0,-111.0
2202956,460259,561157,6,29808000,7.0,4,0,1.0,-165.0,33.0,-41.0
2202980,460259,561157,6,29808000,7.0,4,0,1.0,-165.0,33.0,-41.0
2203021,460259,625756,6,6480000,4.0,4,3,1.0,-165.0,-25.0,-111.0
2203037,460259,625756,6,6480000,4.0,4,3,1.0,-165.0,-25.0,-111.0
2203066,460259,567195,5,31536000,66.87,-1,-1,,,,
2203069,460259,536346,5,31536000,747.51,-1,-1,,,,
2203087,460259,527449,5,31536000,113.71,-1,-1,,,,
2203088,460259,459381,5,31536000,190.6,-1,-1,,,,
2203092,460259,644226,5,31536000,186.87,-1,-1,,,,
2203095,460259,503701,5,31536000,543.89,-1,-1,,,,
2203097,460259,642329,5,31536000,293.08,-1,-1,,,,
2203098,460259,616315,5,31536000,279.49,-1,-1,,,,
2203100,460259,523927,5,31536000,434.41,-1,-1,,,,
2203109,460259,466907,5,31536000,254.75,-1,-1,,,,
2203112,460259,595298,5,31536000,357.82,-1,-1,,,,
2203234,460259,621924,5,31536000,290.73,-1,-1,,,,
2203235,460259,575030,5,31536000,21.27,-1,-1,,,,
2203238,460259,620120,5,31536000,149.44,-1,-1,,,,
2203240,460259,473173,5,31536000,215.15,-1,-1,,,,
2203243,460259,632961,5,31536000,221.85,-1,-1,,,,
11530849,488329,509607,6,17280000,0.0,3,4,-25.0,-111.0,1.0,-165.0
11530875,488329,509607,6,15984000,5.0,5,4,22.0,156.0,1.0,-165.0
11530880,488329,509607,6,23241600,4.0,2,4,-22.0,91.0,1.0,-165.0
11530887,488329,509607,6,10022400,1.0,3,4,-25.0,-111.0,1.0,-165.0
11531043,488329,621924,5,31536000,1586.54,-1,-1,,,,
11531044,488329,575030,5,31536000,145.31,-1,-1,,,,
11531045,488329,620120,5,31536000,4546.77,-1,-1,,,,
11531046,488329,473173,5,31536000,967.18,-1,-1,,,,
11531047,488329,644226,5,31536000,197.49,-1,-1,,,,
11531049,488329,642329,5,31536000,159.96,-1,-1,,,,
11531050,488329,523927,5,31536000,187.29,-1,-1,,,,
11531051,488329,589943,5,31536000,2688.01,-1,-1,,,,
11531053,488329,466907,5,31536000,469.86,-1,-1,,,,
11531055,488329,595298,5,31536000,67.97,-1,-1,,,,
11531056,488329,459381,5,31536000,235.33,-1,-1,,,,
11531057,488329,527449,5,31536000,322.92,-1,-1,,,,
11531058,488329,567195,5,31536000,163.29,-1,-1,,,,
11531059,488329,520660,5,31536000,2286.73,-1,-1,,,,
11531060,488329,536346,5,31536000,1262.61,-1,-1,,,,
11531063,488329,616315,5,31536000,786.27,-1,-1,,,,
11531296,488329,509607,6,17280000,0.0,3,4,-25.0,-111.0,1.0,-165.0
11531297,488329,509607,6,15984000,5.0,5,4,22.0,156.0,1.0,-165.0
11531298,488329,509607,6,10022400,1.0,3,4,-25.0,-111.0,1.0,-165.0
11531299,488329,509607,6,23241600,4.0,2,4,-22.0,91.0,1.0,-165.0
11531304,488329,509607,6,23241600,4.0,2,4,-22.0,91.0,1.0,-165.0
11531305,488329,509607,6,10022400,1.0,3,4,-25.0,-111.0,1.0,-165.0
11531306,488329,509607,6,15984000,5.0,5,4,22.0,156.0,1.0,-165.0
11531308,488329,509607,6,17280000,0.0,3,4,-25.0,-111.0,1.0,-165.0
11531335,488329,509607,6,23241600,4.0,2,4,-22.0,91.0,1.0,-165.0
11531336,488329,509607,6,10022400,1.0,3,4,-25.0,-111.0,1.0,-165.0
11531337,488329,509607,6,15984000,5.0,5,4,22.0,156.0,1.0,-165.0
11531338,488329,509607,6,17280000,0.0,3,4,-25.0,-111.0,1.0,-165.0
11531349,488329,509607,6,23241600,4.0,2,4,-22.0,91.0,1.0,-165.0
11531350,488329,509607,6,10022400,1.0,3,4,-25.0,-111.0,1.0,-165.0
11531351,488329,509607,6,15984000,5.0,5,4,22.0,156.0,1.0,-165.0
11531352,488329,509607,6,17280000,0.0,3,4,-25.0,-111.0,1.0,-165.0
25563333,510031,631870,5,31536000,1960.23,-1,-1,,,,
25569649,510031,469963,5,31536000,558.29,-1,-1,,,,
25581003,510031,600971,5,31536000,3229.47,-1,-1,,,,
25584156,510031,529762,5,31536000,167.41,-1,-1,,,,
25587029,510031,488329,5,31536000,468.36,-1,-1,,,,
25592630,510031,533733,5,31536000,426.19,-1,-1,,,,
25597062,510031,553772,5,31536000,498.35,-1,-1,,,,
26060407,510755,561157,6,15552000,-1.0,4,0,1.0,-165.0,33.0,-41.0
26060451,510755,657173,6,14342400,1.0,0,1,33.0,-41.0,-29.0,-13.0
26060659,510755,616453,6,18489600,5.0,3,5,-25.0,-111.0,22.0,156.0
26060805,510755,561157,6,22291200,-1.0,3,0,-25.0,-111.0,33.0,-41.0
26061856,510755,595298,5,31536000,3204.81,-1,-1,,,,
26061857,510755,459381,5,31536000,1740.47,-1,-1,,,,
26061860,510755,561157,6,22291200,-1.0,3,0,-25.0,-111.0,33.0,-41.0
26061861,510755,561157,6,15552000,-1.0,4,0,1.0,-165.0,33.0,-41.0
26061862,510755,527449,5,31536000,207.82,-1,-1,,,,
26061863,510755,657173,6,14342400,1.0,0,1,33.0,-41.0,-29.0,-13.0
26061864,510755,616453,6,18489600,5.0,3,5,-25.0,-111.0,22.0,156.0
26061865,510755,567195,5,31536000,8682.35,-1,-1,,,,
26061868,510755,630626,5,31536000,11767.3,-1,-1,,,,
26061894,510755,657173,6,14342400,1.0,0,1,33.0,-41.0,-29.0,-13.0
26061916,510755,561157,6,15552000,-1.0,4,0,1.0,-165.0,33.0,-41.0
26061917,510755,561157,6,22291200,-1.0,3,0,-25.0,-111.0,33.0,-41.0
26061924,510755,616453,6,18489600,5.0,3,5,-25.0,-111.0,22.0,156.0
26062240,510755,580426,5,31536000,639.47,-1,-1,,,,
26062297,510755,616315,5,31536000,1633.27,-1,-1,,,,
26062332,510755,595581,5,31536000,405.63,-1,-1,,,,
26062399,510755,589943,5,31536000,924.61,-1,-1,,,,
26062403,510755,466907,5,31536000,293.99,-1,-1,,,,
26062459,510755,537281,5,31536000,523.52,-1,-1,,,,
26062567,510755,561157,6,22291200,-1.0,3,0,-25.0,-111.0,33.0,-41.0
26062568,510755,561157,6,15552000,-1.0,4,0,1.0,-165.0,33.0,-41.0
26062569,510755,657173,6,14342400,1.0,0,1,33.0,-41.0,-29.0,-13.0
26062570,510755,616453,6,18489600,5.0,3,5,-25.0,-111.0,22.0,156.0
26062607,510755,616453,6,18489600,5.0,3,5,-25.0,-111.0,22.0,156.0
26062608,510755,657173,6,14342400,1.0,0,1,33.0,-41.0,-29.0,-13.0
26062609,510755,561157,6,15552000,-1.0,4,0,1.0,-165.0,33.0,-41.0
26062610,510755,561157,6,22291200,-1.0,3,0,-25.0,-111.0,33.0,-41.0
26063314,510755,473173,5,31536000,1558.33,-1,-1,,,,
26063362,510755,571970,5,31536000,142.11,-1,-1,,,,
26063383,510755,632961,5,31536000,312.95,-1,-1,,,,
26063402,510755,642329,5,31536000,2901.96,-1,-1,,,,
26063421,510755,503701,5,31536000,6705.68,-1,-1,,,,
26063638,510755,621924,5,31536000,2793.61,-1,-1,,,,
26063699,510755,575030,5,31536000,12255.7,-1,-1,,,,
26063769,510755,620120,5,31536000,1314.65,-1,-1,,,,
38544430,529762,589943,5,31536000,2425.59,-1,-1,,,,
38544784,529762,509607,6,25401600,1.0,3,4,-25.0,-111.0,1.0,-165.0
38544918,529762,536346,5,31536000,2046.4,-1,-1,,,,
38544920,529762,567195,5,31536000,4696.39,-1,-1,,,,
38544922,529762,640784,5,31536000,24.1,-1,-1,,,,
38544943,529762,527449,5,31536000,444.01,-1,-1,,,,
38544946,529762,473173,5,31536000,552.94,-1,-1,,,,
38544947,529762,606730,5,31536000,422.62,-1,-1,,,,
38544949,529762,644226,5,31536000,4634.54,-1,-1,,,,
38544953,529762,503701,5,31536000,1748.13,-1,-1,,,,
38544956,529762,616315,5,31536000,997.04,-1,-1,,,,
38544957,529762,523927,5,31536000,3492.23,-1,-1,,,,
38544960,529762,621924,5,31536000,1615.4,-1,-1,,,,
38544961,529762,466907,5,31536000,2755.17,-1,-1,,,,
38544966,529762,459381,5,31536000,349.98,-1,-1,,,,
38544969,529762,595298,5,31536000,1817.04,-1,-1,,,,
38545011,529762,509607,6,25401600,1.0,3,4,-25.0,-111.0,1.0,-165.0
38545077,529762,537281,5,31536000,152.9,-1,-1,,,,
38545258,529762,509607,6,25401600,1.0,3,4,-25.0,-111.0,1.0,-165.0
38545268,529762,509607,6,25401600,1.0,3,4,-25.0,-111.0,1.0,-165.0
38545408,529762,509607,6,25401600,1.0,3,4,-25.0,-111.0,1.0,-165.0
38545649,529762,485815,4,20966400,0.2,-1,-1,,,,
40979827,533733,509607,6,30067200,5.0,1,4,-29.0,-13.0,1.0,-165.0
40979850,533733,657173,6,24451200,-1.0,3,1,-25.0,-111.0,-29.0,-13.0
40979870,533733,625756,6,14256000,1.0,2,3,-22.0,91.0,-25.0,-111.0
40979871,533733,561157,6,6048000,3.0,3,0,-25.0,-111.0,33.0,-41.0
40979879,533733,499467,6,29635200,2.0,1,2,-29.0,-13.0,-22.0,91.0
40979881,533733,499467,6,20822400,3.0,1,2,-29.0,-13.0,-22.0,91.0
40979882,533733,657173,6,1123200,-1.0,0,1,33.0,-41.0,-29.0,-13.0
40979883,533733,657173,6,31276800,-1.0,3,1,-25.0,-111.0,-29.0,-13.0
40979884,533733,657173,6,14688000,-1.0,0,1,33.0,-41.0,-29.0,-13.0
40979892,533733,657173,6,604800,-1.0,2,1,-22.0,91.0,-29.0,-13.0
40980176,533733,657173,6,1123200,-1.0,0,1,33.0,-41.0,-29.0,-13.0
40980196,533733,657173,6,1123200,-1.0,0,1,33.0,-41.0,-29.0,-13.0
40980197,533733,657173,6,31276800,-1.0,3,1,-25.0,-111.0,-29.0,-13.0
40980198,533733,657173,6,14688000,-1.0,0,1,33.0,-41.0,-29.0,-13.0
40980199,533733,657173,6,604800,-1.0,2,1,-22.0,91.0,-29.0,-13.0
40980205,533733,561157,6,6048000,3.0,3,0,-25.0,-111.0,33.0,-41.0
40980206,533733,625756,6,14256000,1.0,2,3,-22.0,91.0,-25.0,-111.0
40980213,533733,499467,6,20822400,3.0,1,2,-29.0,-13.0,-22.0,91.0
40980252,533733,499467,6,29635200,2.0,1,2,-29.0,-13.0,-22.0,91.0
40980253,533733,657173,6,24451200,-1.0,3,1,-25.0,-111.0,-29.0,-13.0
40980254,533733,509607,6,30067200,5.0,1,4,-29.0,-13.0,1.0,-165.0
40980345,533733,625756,6,14256000,1.0,2,3,-22.0,91.0,-25.0,-111.0
40980370,533733,561157,6,6048000,3.0,3,0,-25.0,-111.0,33.0,-41.0
40980373,533733,657173,6,24451200,-1.0,3,1,-25.0,-111.0,-29.0,-13.0
40980376,533733,657173,6,31276800,-1.0,3,1,-25.0,-111.0,-29.0,-13.0
40980379,533733,657173,6,1123200,-1.0,0,1,33.0,-41.0,-29.0,-13.0
40980381,533733,499467,6,29635200,2.0,1,2,-29.0,-13.0,-22.0,91.0
40980386,533733,499467,6,20822400,3.0,1,2,-29.0,-13.0,-22.0,91.0
40980402,533733,509607,6,30067200,5.0,1,4,-29.0,-13.0,1.0,-165.0
40980403,533733,657173,6,604800,-1.0,2,1,-22.0,91.0,-29.0,-13.0
40980406,533733,657173,6,14688000,-1.0,0,1,33.0,-41.0,-29.0,-13.0
40980454,533733,509607,6,30067200,5.0,1,4,-29.0,-13.0,1.0,-165.0
40980455,533733,657173,6,24451200,-1.0,3,1,-25.0,-111.0,-29.0,-13.0
40980457,533733,499467,6,29635200,2.0,1,2,-29.0,-13.0,-22.0,91.0
40980460,533733,499467,6,20822400,3.0,1,2,-29.0,-13.0,-22.0,91.0
40980461,533733,657173,6,1123200,-1.0,0,1,33.0,-41.0,-29.0,-13.0
40980462,533733,657173,6,31276800,-1.0,3,1,-25.0,-111.0,-29.0,-13.0
40980463,533733,657173,6,14688000,-1.0,0,1,33.0,-41.0,-29.0,-13.0
40980464,533733,657173,6,604800,-1.0,2,1,-22.0,91.0,-29.0,-13.0
40980465,533733,561157,6,6048000,3.0,3,0,-25.0,-111.0,33.0,-41.0
40980466,533733,625756,6,14256000,1.0,2,3,-22.0,91.0,-25.0,-111.0
40980568,533733,632961,5,31536000,98.31,-1,-1,,,,
40980569,533733,644226,5,31536000,670.66,-1,-1,,,,
40980571,533733,642329,5,31536000,7.1,-1,-1,,,,
40980572,533733,616315,5,31536000,923.97,-1,-1,,,,
40980574,533733,595581,5,31536000,432.02,-1,-1,,,,
40980575,533733,580426,5,31536000,317.87,-1,-1,,,,
40980576,533733,537281,5,31536000,97.91,-1,-1,,,,
40980577,533733,577992,5,31536000,259.34,-1,-1,,,,
40980579,533733,466907,5,31536000,397.97,-1,-1,,,,
40980580,533733,595298,5,31536000,774.83,-1,-1,,,,
40980581,533733,459381,5,31536000,331.98,-1,-1,,,,
40980582,533733,473173,5,31536000,515.39,-1,-1,,,,
40980599,533733,621924,5,31536000,3.16,-1,-1,,,,
40980601,533733,575030,5,31536000,844.95,-1,-1,,,,
40980603,533733,527449,5,31536000,81.03,-1,-1,,,,
40980621,533733,567195,5,31536000,18.68,-1,-1,,,,
40980624,533733,536346,5,31536000,37.25,-1,-1,,,,
40980653,533733,657173,6,604800,-1.0,2,1,-22.0,91.0,-29.0,-13.0
40980665,533733,499467,6,20822400,3.0,1,2,-29.0,-13.0,-22.0,91.0
40980670,533733,657173,6,24451200,-1.0,3,1,-25.0,-111.0,-29.0,-13.0
40980672,533733,509607,6,30067200,5.0,1,4,-29.0,-13.0,1.0,-165.0
40980676,533733,657173,6,31276800,-1.0,3,1,-25.0,-111.0,-29.0,-13.0
40980680,533733,657173,6,14688000,-1.0,0,1,33.0,-41.0,-29.0,-13.0
40980682,533733,499467,6,29635200,2.0,1,2,-29.0,-13.0,-22.0,91.0
40980686,533733,561157,6,6048000,3.0,3,0,-25.0,-111.0,33.0,-41.0
40980697,533733,625756,6,14256000,1.0,2,3,-22.0,91.0,-25.0,-111.0
54478407,552988,631870,5,31536000,38053.9,-1,-1,,,,
54479937,552988,469963,5,31536000,10264.2,-1,-1,,,,
54483819,552988,460259,5,31536000,772.77,-1,-1,,,,
54495248,552988,533733,5,31536000,1111.91,-1,-1,,,,
54500457,552988,488329,5,31536000,24164.6,-1,-1,,,,
54525922,552988,600971,5,31536000,55373.3,-1,-1,,,,
54526588,552988,569541,5,31536000,122624.0,-1,-1,,,,
54536503,552988,529762,5,31536000,34471.0,-1,-1,,,,
54540714,552988,510755,5,31536000,6133.52,-1,-1,,,,
54546190,552988,560907,5,31536000,7248.75,-1,-1,,,,
54556982,552988,553772,5,31536000,9126.42,-1,-1,,,,
55049283,553772,527449,5,31536000,178.82,-1,-1,,,,
55049298,553772,459381,5,31536000,203.07,-1,-1,,,,
55049304,553772,589943,5,31536000,682.46,-1,-1,,,,
55049314,553772,466907,5,31536000,289.32,-1,-1,,,,
55049315,553772,595298,5,31536000,1190.77,-1,-1,,,,
55049376,553772,537281,5,31536000,342.03,-1,-1,,,,
55049380,553772,595581,5,31536000,945.95,-1,-1,,,,
55049411,553772,620120,5,31536000,636.34,-1,-1,,,,
55049412,553772,473173,5,31536000,51.38,-1,-1,,,,
55049417,553772,571970,5,31536000,102.12,-1,-1,,,,
55049418,553772,642329,5,31536000,200.46,-1,-1,,,,
55049454,553772,580426,5,31536000,197.68,-1,-1,,,,
55049472,553772,523927,5,31536000,324.8,-1,-1,,,,
55049592,553772,640784,5,31536000,143.73,-1,-1,,,,
55049605,553772,567195,5,31536000,1993.6,-1,-1,,,,
55049621,553772,630626,5,31536000,1484.18,-1,-1,,,,
55049738,553772,509607,6,26179200,-1.0,1,4,-29.0,-13.0,1.0,-165.0
55049740,553772,499467,6,15206400,3.0,4,2,1.0,-165.0,-22.0,91.0
55049788,553772,509607,6,26179200,-1.0,1,4,-29.0,-13.0,1.0,-165.0
55049789,553772,499467,6,15206400,3.0,4,2,1.0,-165.0,-22.0,91.0
55049810,553772,499467,6,15206400,3.0,4,2,1.0,-165.0,-22.0,91.0
55049811,553772,509607,6,26179200,-1.0,1,4,-29.0,-13.0,1.0,-165.0
55049837,553772,499467,6,15206400,3.0,4,2,1.0,-165.0,-22.0,91.0
55049838,553772,509607,6,26179200,-1.0,1,4,-29.0,-13.0,1.0,-165.0
55049948,553772,621924,5,31536000,695.27,-1,-1,,,,
55049952,553772,575030,5,31536000,1933.48,-1,-1,,,,
55050418,553772,499467,6,15206400,3.0,4,2,1.0,-165.0,-22.0,91.0
55050435,553772,509607,6,26179200,-1.0,1,4,-29.0,-13.0,1.0,-165.0
58293094,469963,621924,5,31536000,329.02,-1,-1,,,,
58293177,469963,575030,5,31536000,640.5,-1,-1,,,,
58293616,469963,536346,5,31536000,284.67,-1,-1,,,,
58293633,469963,527449,5,31536000,38.16,-1,-1,,,,
58293656,469963,503701,5,31536000,545.83,-1,-1,,,,
58293666,469963,632961,5,31536000,361.83,-1,-1,,,,
58293668,469963,473173,5,31536000,81.0,-1,-1,,,,
58293674,469963,620120,5,31536000,927.74,-1,-1,,,,
58293677,469963,644226,5,31536000,615.36,-1,-1,,,,
58293679,469963,642329,5,31536000,163.66,-1,-1,,,,
58293684,469963,459381,5,31536000,268.9,-1,-1,,,,
58293685,469963,595298,5,31536000,223.49,-1,-1,,,,
58293690,469963,466907,5,31536000,114.47,-1,-1,,,,
58293694,469963,577992,5,31536000,623.31,-1,-1,,,,
58293704,469963,523927,5,31536000,352.39,-1,-1,,,,
58293706,469963,595581,5,31536000,477.23,-1,-1,,,,
61973900,560907,589943,5,31536000,1317.68,-1,-1,,,,
61973901,560907,577992,5,31536000,72.36,-1,-1,,,,
61973902,560907,537281,5,31536000,698.91,-1,-1,,,,
61973903,560907,595581,5,31536000,424.22,-1,-1,,,,
61973905,560907,616315,5,31536000,1393.02,-1,-1,,,,
61973906,560907,503701,5,31536000,1088.83,-1,-1,,,,
61973908,560907,571970,5,31536000,111.55,-1,-1,,,,
61973909,560907,644226,5,31536000,408.65,-1,-1,,,,
61973910,560907,632961,5,31536000,240.19,-1,-1,,,,
61973911,560907,473173,5,31536000,664.45,-1,-1,,,,
61973912,560907,620120,5,31536000,1190.59,-1,-1,,,,
61973913,560907,575030,5,31536000,983.37,-1,-1,,,,
61973914,560907,621924,5,31536000,6109.97,-1,-1,,,,
61973921,560907,595298,5,31536000,2126.36,-1,-1,,,,
61973922,560907,527449,5,31536000,324.88,-1,-1,,,,
61973939,560907,640784,5,31536000,235.32,-1,-1,,,,
61973940,560907,536346,5,31536000,71.11,-1,-1,,,,
61973941,560907,567195,5,31536000,942.86,-1,-1,,,,
61973942,560907,459381,5,31536000,126.56,-1,-1,,,,
67354224,569541,561157,6,19094400,-1.0,0,0,33.0,-41.0,33.0,-41.0
67354225,569541,561157,6,11750400,-1.0,0,0,33.0,-41.0,33.0,-41.0
67354228,569541,625756,6,28252800,0.0,0,3,33.0,-41.0,-25.0,-111.0
67354232,569541,561157,6,29116800,-1.0,2,0,-22.0,91.0,33.0,-41.0
67354241,569541,625756,6,27129600,4.0,4,3,1.0,-165.0,-25.0,-111.0
67354246,569541,509607,6,22636800,2.0,3,4,-25.0,-111.0,1.0,-165.0
67354252,569541,499467,6,11318400,2.0,3,2,-25.0,-111.0,-22.0,91.0
67354324,569541,561157,6,14256000,-1.0,5,0,22.0,156.0,33.0,-41.0
67354335,569541,575030,5,31536000,9705.0,-1,-1,,,,
67354546,569541,499467,6,11318400,2.0,3,2,-25.0,-111.0,-22.0,91.0
67354548,569541,561157,6,14256000,-1.0,5,0,22.0,156.0,33.0,-41.0
67354549,569541,509607,6,22636800,2.0,3,4,-25.0,-111.0,1.0,-165.0
67354550,569541,625756,6,28252800,0.0,0,3,33.0,-41.0,-25.0,-111.0
67354551,569541,561157,6,11750400,-1.0,0,0,33.0,-41.0,33.0,-41.0
67354555,569541,561157,6,29116800,-1.0,2,0,-22.0,91.0,33.0,-41.0
67354556,569541,625756,6,27129600,4.0,4,3,1.0,-165.0,-25.0,-111.0
67354557,569541,561157,6,19094400,-1.0,0,0,33.0,-41.0,33.0,-41.0
67354597,569541,621924,5,31536000,8778.86,-1,-1,,,,
67354599,569541,561157,6,14256000,-1.0,5,0,22.0,156.0,33.0,-41.0
67354601,569541,499467,6,11318400,2.0,3,2,-25.0,-111.0,-22.0,91.0
67354614,569541,509607,6,22636800,2.0,3,4,-25.0,-111.0,1.0,-165.0
67354617,569541,625756,6,28252800,0.0,0,3,33.0,-41.0,-25.0,-111.0
67354629,569541,561157,6,19094400,-1.0,0,0,33.0,-41.0,33.0,-41.0
67354630,569541,625756,6,27129600,4.0,4,3,1.0,-165.0,-25.0,-111.0
67354631,569541,561157,6,29116800,-1.0,2,0,-22.0,91.0,33.0,-41.0
67354632,569541,561157,6,11750400,-1.0,0,0,33.0,-41.0,33.0,-41.0
67354637,569541,459381,5,31536000,1865.08,-1,-1,,,,
67354641,569541,595581,5,31536000,12697.3,-1,-1,,,,
67354651,569541,616315,5,31536000,14974.4,-1,-1,,,,
67354654,569541,561157,6,29116800,-1.0,2,0,-22.0,91.0,33.0,-41.0
67354656,569541,503701,5,31536000,16607.3,-1,-1,,,,
67354661,569541,561157,6,11750400,-1.0,0,0,33.0,-41.0,33.0,-41.0
67354662,569541,625756,6,28252800,0.0,0,3,33.0,-41.0,-25.0,-111.0
67354663,569541,509607,6,22636800,2.0,3,4,-25.0,-111.0,1.0,-165.0
67354664,569541,642329,5,31536000,564.87,-1,-1,,,,
67354665,569541,561157,6,14256000,-1.0,5,0,22.0,156.0,33.0,-41.0
67354666,569541,499467,6,11318400,2.0,3,2,-25.0,-111.0,-22.0,91.0
67354670,569541,580426,5,31536000,1288.3,-1,-1,,,,
67354677,569541,640784,5,31536000,1660.89,-1,-1,,,,
67354679,569541,536346,5,31536000,1806.53,-1,-1,,,,
67354680,569541,527449,5,31536000,1390.89,-1,-1,,,,
67354681,569541,520660,5,31536000,6908.02,-1,-1,,,,
67354683,569541,567195,5,31536000,5143.78,-1,-1,,,,
67354691,569541,537281,5,31536000,2896.1,-1,-1,,,,
67354700,569541,577992,5,31536000,7002.96,-1,-1,,,,
67354708,569541,625756,6,28252800,0.0,0,3,33.0,-41.0,-25.0,-111.0
67354709,569541,509607,6,22636800,2.0,3,4,-25.0,-111.0,1.0,-165.0
67354713,569541,561157,6,14256000,-1.0,5,0,22.0,156.0,33.0,-41.0
67354715,569541,499467,6,11318400,2.0,3,2,-25.0,-111.0,-22.0,91.0
67354719,569541,473173,5,31536000,5973.95,-1,-1,,,,
67354721,569541,466907,5,31536000,3139.4,-1,-1,,,,
67354734,569541,589943,5,31536000,8763.88,-1,-1,,,,
67354738,569541,620120,5,31536000,14168.0,-1,-1,,,,
67354742,569541,625756,6,27129600,4.0,4,3,1.0,-165.0,-25.0,-111.0
67354747,569541,561157,6,19094400,-1.0,0,0,33.0,-41.0,33.0,-41.0
67354748,569541,561157,6,19094400,-1.0,0,0,33.0,-41.0,33.0,-41.0
67354749,569541,595298,5,31536000,8147.99,-1,-1,,,,
67354750,569541,561157,6,11750400,-1.0,0,0,33.0,-41.0,33.0,-41.0
67354752,569541,625756,6,27129600,4.0,4,3,1.0,-165.0,-25.0,-111.0
67354753,569541,571970,5,31536000,2.12,-1,-1,,,,
67354755,569541,644226,5,31536000,6327.79,-1,-1,,,,
67354756,569541,561157,6,29116800,-1.0,2,0,-22.0,91.0,33.0,-41.0
88064295,600971,657173,6,15465600,5.0,4,1,1.0,-165.0,-29.0,-13.0
88064296,600971,499467,6,23587200,0.0,4,2,1.0,-165.0,-22.0,91.0
88064305,600971,530665,4,-656897782,0.25,-1,-1,,,,
88064307,600971,509607,6,1641600,-1.0,0,4,33.0,-41.0,1.0,-165.0
88064320,600971,579269,4,-685755382,0.166667,-1,-1,,,,
88064329,600971,657173,6,25401600,1.0,5,1,22.0,156.0,-29.0,-13.0
88064360,600971,657173,6,26006400,0.0,4,1,1.0,-165.0,-29.0,-13.0
88064382,600971,657173,6,25401600,1.0,5,1,22.0,156.0,-29.0,-13.0
88064384,600971,657173,6,26006400,0.0,4,1,1.0,-165.0,-29.0,-13.0
88064386,600971,499467,6,6307200,1.0,4,2,1.0,-165.0,-22.0,91.0
88064396,600971,657173,6,26006400,0.0,4,1,1.0,-165.0,-29.0,-13.0
88064399,600971,616453,6,19785600,1.0,4,5,1.0,-165.0,22.0,156.0
88064401,600971,625756,6,2505600,5.0,4,3,1.0,-165.0,-25.0,-111.0
88064402,600971,616453,6,19785600,1.0,4,5,1.0,-165.0,22.0,156.0
88064404,600971,657173,6,25401600,1.0,5,1,22.0,156.0,-29.0,-13.0
88064413,600971,499467,6,6307200,1.0,4,2,1.0,-165.0,-22.0,91.0
88064417,600971,499467,6,23587200,0.0,4,2,1.0,-165.0,-22.0,91.0
88064422,600971,657173,6,15465600,5.0,4,1,1.0,-165.0,-29.0,-13.0
88064423,600971,509607,6,1641600,-1.0,0,4,33.0,-41.0,1.0,-165.0
88064429,600971,625756,6,2505600,5.0,4,3,1.0,-165.0,-25.0,-111.0
88064430,600971,616453,6,24019200,3.0,0,5,33.0,-41.0,22.0,156.0
88064433,600971,625756,6,2505600,5.0,4,3,1.0,-165.0,-25.0,-111.0
88064435,600971,616453,6,24019200,3.0,0,5,33.0,-41.0,22.0,156.0
88064437,600971,499467,6,23587200,0.0,4,2,1.0,-165.0,-22.0,91.0
88064450,600971,509607,6,1641600,-1.0,0,4,33.0,-41.0,1.0,-165.0
88064452,600971,657173,6,15465600,5.0,4,1,1.0,-165.0,-29.0,-13.0
88064453,600971,499467,6,6307200,1.0,4,2,1.0,-165.0,-22.0,91.0
88064475,600971,616453,6,24019200,3.0,0,5,33.0,-41.0,22.0,156.0
88064523,600971,607498,4,-541121782,0.333333,-1,-1,,,,
88065107,600971,625756,6,2505600,5.0,4,3,1.0,-165.0,-25.0,-111.0
88065108,600971,616453,6,24019200,3.0,0,5,33.0,-41.0,22.0,156.0
88065109,600971,509607,6,1641600,-1.0,0,4,33.0,-41.0,1.0,-165.0
88065113,600971,657173,6,15465600,5.0,4,1,1.0,-165.0,-29.0,-13.0
88065114,600971,499467,6,23587200,0.0,4,2,1.0,-165.0,-22.0,91.0
88065292,600971,657173,6,26006400,0.0,4,1,1.0,-165.0,-29.0,-13.0
88065425,600971,657173,6,25401600,1.0,5,1,22.0,156.0,-29.0,-13.0
88065469,600971,499467,6,6307200,1.0,4,2,1.0,-165.0,-22.0,91.0
88065509,600971,616453,6,19785600,1.0,4,5,1.0,-165.0,22.0,156.0
88065820,600971,625756,6,2505600,5.0,4,3,1.0,-165.0,-25.0,-111.0
88065883,600971,616453,6,19785600,1.0,4,5,1.0,-165.0,22.0,156.0
88065944,600971,657173,6,25401600,1.0,5,1,22.0,156.0,-29.0,-13.0
88065951,600971,499467,6,6307200,1.0,4,2,1.0,-165.0,-22.0,91.0
88065956,600971,657173,6,26006400,0.0,4,1,1.0,-165.0,-29.0,-13.0
88065963,600971,499467,6,23587200,0.0,4,2,1.0,-165.0,-22.0,91.0
88066008,600971,657173,6,15465600,5.0,4,1,1.0,-165.0,-29.0,-13.0
88066009,600971,509607,6,1641600,-1.0,0,4,33.0,-41.0,1.0,-165.0
88066010,600971,616453,6,24019200,3.0,0,5,33.0,-41.0,22.0,156.0
88066348,600971,466907,5,31536000,1596.22,-1,-1,,,,
88066349,600971,595298,5,31536000,1123.89,-1,-1,,,,
88066351,600971,459381,5,31536000,284.24,-1,-1,,,,
88066352,600971,527449,5,31536000,295.36,-1,-1,,,,
88066354,600971,536346,5,31536000,3398.71,-1,-1,,,,
88066356,600971,630626,5,31536000,8745.63,-1,-1,,,,
88066440,600971,567195,5,31536000,6580.68,-1,-1,,,,
88066448,600971,606730,5,31536000,1623.57,-1,-1,,,,
88066497,600971,575030,5,31536000,15067.8,-1,-1,,,,
88066498,600971,620120,5,31536000,4387.13,-1,-1,,,,
88066499,600971,473173,5,31536000,5790.81,-1,-1,,,,
88066500,600971,463021,4,-508376182,0.25,-1,-1,,,,
88066501,600971,632961,5,31536000,398.49,-1,-1,,,,
88066503,600971,644226,5,31536000,3100.38,-1,-1,,,,
88066504,600971,503701,5,31536000,7684.84,-1,-1,,,,
88066505,600971,642329,5,31536000,614.86,-1,-1,,,,
88066507,600971,595581,5,31536000,1042.86,-1,-1,,,,
88066509,600971,523927,5,31536000,9264.65,-1,-1,,,,
88066510,600971,616453,6,19785600,1.0,4,5,1.0,-165.0,22.0,156.0
88066513,600971,577992,5,31536000,3862.58,-1,-1,,,,
88066515,600971,589943,5,31536000,348.06,-1,-1,,,,
88066518,600971,580426,5,31536000,385.94,-1,-1,,,,
100229658,620120,529762,5,31536000,2551.55,-1,-1,,,,
100232532,620120,533733,5,31536000,239.93,-1,-1,,,,
107386120,631870,554011,3,18527082,99.0,-1,-1,,,,
107386125,631870,509607,6,19526400,4.0,2,4,-22.0,91.0,1.0,-165.0
107386128,631870,499467,6,13910400,-1.0,5,2,22.0,156.0,-22.0,91.0
107386145,631870,628261,2,21219878,828.0,-1,-1,,,,
107386167,631870,511523,2,3676324,4112.0,-1,-1,,,,
107386173,631870,461577,3,8052382,243.0,-1,-1,,,,
107386176,631870,490199,3,19376305,1697.0,-1,-1,,,,
107386178,631870,504542,3,9337817,360.0,-1,-1,,,,
107386211,631870,628261,2,12106447,852.0,-1,-1,,,,
107386274,631870,499177,3,2682307,1.0,-1,-1,,,,
107386320,631870,628261,2,31282598,21.0,-1,-1,,,,
107386336,631870,511523,2,11588422,538.0,-1,-1,,,,
107386338,631870,620947,3,26277791,639.0,-1,-1,,,,
107386347,631870,628261,2,30764442,27.0,-1,-1,,,,
107386356,631870,628261,2,18771619,28.0,-1,-1,,,,
107386358,631870,616453,6,12355200,2.0,2,5,-22.0,91.0,22.0,156.0
107386362,631870,499467,6,20908800,-1.0,5,2,22.0,156.0,-22.0,91.0
107386364,631870,509607,6,5270400,3.0,2,4,-22.0,91.0,1.0,-165.0
107386368,631870,561157,6,1728000,5.0,2,0,-22.0,91.0,33.0,-41.0
107386379,631870,657173,6,18489600,0.0,2,1,-22.0,91.0,-29.0,-13.0
107386382,631870,552748,3,24661455,267.0,-1,-1,,,,
107386383,631870,616453,6,13564800,0.0,2,5,-22.0,91.0,22.0,156.0
107386384,631870,616453,6,13564800,0.0,2,5,-22.0,91.0,22.0,156.0
107386386,631870,657173,6,18489600,0.0,2,1,-22.0,91.0,-29.0,-13.0
107386393,631870,509607,6,22550400,3.0,1,4,-29.0,-13.0,1.0,-165.0
107386394,631870,499467,6,13910400,-1.0,5,2,22.0,156.0,-22.0,91.0
107386395,631870,509607,6,14688000,2.0,5,4,22.0,156.0,1.0,-165.0
107386396,631870,509607,6,19526400,4.0,2,4,-22.0,91.0,1.0,-165.0
107386397,631870,509607,6,22550400,3.0,1,4,-29.0,-13.0,1.0,-165.0
107386402,631870,616453,6,12355200,2.0,2,5,-22.0,91.0,22.0,156.0
107386403,631870,499467,6,20908800,-1.0,5,2,22.0,156.0,-22.0,91.0
107386404,631870,561157,6,1728000,5.0,2,0,-22.0,91.0,33.0,-41.0
107386409,631870,509607,6,14688000,2.0,5,4,22.0,156.0,1.0,-165.0
107386413,631870,509607,6,5270400,3.0,2,4,-22.0,91.0,1.0,-165.0
107386420,631870,567511,3,9181950,6225.0,-1,-1,,,,
107386426,631870,628261,2,25320016,1344.0,-1,-1,,,,
107386435,631870,588802,3,20153904,1.0,-1,-1,,,,
107386455,631870,491412,3,30006355,531.0,-1,-1,,,,
107386462,631870,628261,2,25501458,9685.0,-1,-1,,,,
107386478,631870,616453,6,12355200,2.0,2,5,-22.0,91.0,22.0,156.0
107386485,631870,628261,2,5735179,817.0,-1,-1,,,,
107386490,631870,499467,6,20908800,-1.0,5,2,22.0,156.0,-22.0,91.0
107386503,631870,509607,6,22550400,3.0,1,4,-29.0,-13.0,1.0,-165.0
107386507,631870,537778,2,18636490,21.0,-1,-1,,,,
107386512,631870,492039,3,7430442,1.0,-1,-1,,,,
107386521,631870,628261,2,26461099,201.0,-1,-1,,,,
107386525,631870,499467,6,13910400,-1.0,5,2,22.0,156.0,-22.0,91.0
107386526,631870,509607,6,19526400,4.0,2,4,-22.0,91.0,1.0,-165.0
107386529,631870,509607,6,14688000,2.0,5,4,22.0,156.0,1.0,-165.0
107386535,631870,628261,2,18594639,31.0,-1,-1,,,,
107386548,631870,640784,5,31536000,15.57,-1,-1,,,,
107386550,631870,536346,5,31536000,3531.21,-1,-1,,,,
107386554,631870,520660,5,31536000,966.53,-1,-1,,,,
107386562,631870,511523,2,4434539,112.0,-1,-1,,,,
107386565,631870,561157,6,1728000,5.0,2,0,-22.0,91.0,33.0,-41.0
107386575,631870,657173,6,18489600,0.0,2,1,-22.0,91.0,-29.0,-13.0
107386580,631870,616453,6,13564800,0.0,2,5,-22.0,91.0,22.0,156.0
107386581,631870,547205,3,28214402,670.0,-1,-1,,,,
107386585,631870,509607,6,5270400,3.0,2,4,-22.0,91.0,1.0,-165.0
107386594,631870,492039,3,25429196,1.0,-1,-1,,,,
107386601,631870,603769,3,11412799,20.0,-1,-1,,,,
107386618,631870,525263,3,27249176,841.0,-1,-1,,,,
107386619,631870,585677,3,25243119,1.0,-1,-1,,,,
107386662,631870,654907,3,605302,85.0,-1,-1,,,,
107386667,631870,650839,3,31297002,309.0,-1,-1,,,,
107386690,631870,567195,5,31536000,4602.94,-1,-1,,,,
107386697,631870,511523,2,21055724,839.0,-1,-1,,,,
107386704,631870,507635,3,9439875,8.0,-1,-1,,,,
107386705,631870,527449,5,31536000,118.51,-1,-1,,,,
107386706,631870,459381,5,31536000,382.44,-1,-1,,,,
107386719,631870,584456,3,29550287,18.0,-1,-1,,,,
107386728,631870,628261,2,5812784,620.0,-1,-1,,,,
107386729,631870,509607,6,5270400,3.0,2,4,-22.0,91.0,1.0,-165.0
107386734,631870,616453,6,13564800,0.0,2,5,-22.0,91.0,22.0,156.0
107386745,631870,619599,3,445216,412.0,-1,-1,,,,
107386749,631870,526490,3,13249471,122.0,-1,-1,,,,
107386764,631870,657173,6,18489600,0.0,2,1,-22.0,91.0,-29.0,-13.0
107386765,631870,561157,6,1728000,5.0,2,0,-22.0,91.0,33.0,-41.0
107386795,631870,499467,6,20908800,-1.0,5,2,22.0,156.0,-22.0,91.0
107386796,631870,616453,6,12355200,2.0,2,5,-22.0,91.0,22.0,156.0
107386797,631870,509607,6,14688000,2.0,5,4,22.0,156.0,1.0,-165.0
107386800,631870,509607,6,19526400,4.0,2,4,-22.0,91.0,1.0,-165.0
107386802,631870,499467,6,13910400,-1.0,5,2,22.0,156.0,-22.0,91.0
107386822,631870,537778,2,26469948,886.0,-1,-1,,,,
107386838,631870,523927,5,31536000,1656.13,-1,-1,,,,
107386839,631870,580426,5,31536000,771.73,-1,-1,,,,
107386840,631870,595581,5,31536000,1167.45,-1,-1,,,,
107386842,631870,649483,2,1502697,75.0,-1,-1,,,,
107386844,631870,649122,3,30500518,1344.0,-1,-1,,,,
107386846,631870,642329,5,31536000,139.49,-1,-1,,,,
107386847,631870,644226,5,31536000,1306.64,-1,-1,,,,
107386848,631870,632961,5,31536000,460.17,-1,-1,,,,
107386851,631870,473173,5,31536000,1109.59,-1,-1,,,,
107386853,631870,537281,5,31536000,496.98,-1,-1,,,,
107386863,631870,595298,5,31536000,3967.93,-1,-1,,,,
107386865,631870,638549,2,28384122,53.0,-1,-1,,,,
107386867,631870,466907,5,31536000,692.13,-1,-1,,,,
107386868,631870,477076,2,26364499,391.0,-1,-1,,,,
107386875,631870,589943,5,31536000,1904.74,-1,-1,,,,
107386876,631870,577992,5,31536000,944.15,-1,-1,,,,
107386881,631870,620120,5,31536000,8411.9,-1,-1,,,,
107386882,631870,575030,5,31536000,5193.98,-1,-1,,,,
107386888,631870,544756,3,30598235,419.0,-1,-1,,,,
107386896,631870,481823,3,116683,69.0,-1,-1,,,,
107386903,631870,628261,2,30335041,1196.0,-1,-1,,,,
107386908,631870,467222,3,26822656,1.0,-1,-1,,,,
107386914,631870,628261,2,698353,57.0,-1,-1,,,,
107386939,631870,509607,6,22550400,3.0,1,4,-29.0,-13.0,1.0,-165.0
107386940,631870,653239,3,18902547,589.0,-1,-1,,,,
107386974,631870,576193,3,13420114,2522.0,-1,-1,,,,
107386978,631870,641131,3,17121258,54.0,-1,-1,,,,
107386990,631870,511523,2,15338195,182.0,-1,-1,,,,
107387000,631870,509816,3,14181604,13.0,-1,-1,,,,
107387003,631870,628261,2,14378077,45.0,-1,-1,,,,
107387044,631870,537778,2,3036271,1649.0,-1,-1,,,,
107387045,631870,628261,2,8916996,110.0,-1,-1,,,,
107387066,631870,544444,3,4062938,757.0,-1,-1,,,,
107387083,631870,649483,2,25835614,278.0,-1,-1,,,,
107387111,631870,628261,2,8655986,1157.0,-1,-1,,,,
107387136,631870,597976,3,15265732,217.0,-1,-1,,,,
107387137,631870,649483,2,30992767,538.0,-1,-1,,,,
107387146,631870,628261,2,17900688,77.0,-1,-1,,,,
107387148,631870,511523,2,30791514,1110.0,-1,-1,,,,
107387149,631870,620947,3,23855010,48.0,-1,-1,,,,
107387160,631870,628261,2,21615010,347.0,-1,-1,,,,
107387196,631870,628261,2,27939610,1330.0,-1,-1,,,,
107387208,631870,628261,2,26303075,2494.0,-1,-1,,,,
107387228,631870,650839,3,24134506,34.0,-1,-1,,,,
107387254,631870,511523,2,4075400,395.0,-1,-1,,,,
107387258,631870,467222,3,4587049,21.0,-1,-1,,,,
107387264,631870,469675,3,7182392,221.0,-1,-1,,,,
107387288,631870,523286,3,18607956,56.0,-1,-1,,,,
107387292,631870,628261,2,6964445,128.0,-1,-1,,,,
107387302,631870,484500,3,10770002,12.0,-1,-1,,,,
107387304,631870,628261,2,8390911,883.0,-1,-1,,,,
107387307,631870,576493,3,24406394,6.0,-1,-1,,,,
107387309,631870,467222,3,12793977,375.0,-1,-1,,,,
107387329,631870,628261,2,18490719,28.0,-1,-1,,,,
107387346,631870,649483,2,13699843,49.0,-1,-1,,,,
107387353,631870,459033,3,3801901,152.0,-1,-1,,,,
107387354,631870,547205,3,1557405,57.0,-1,-1,,,,
107387371,631870,628261,2,12373077,250.0,-1,-1,,,,
107387377,631870,612670,2,3479116,30.0,-1,-1,,,,
107387394,631870,602870,3,10737641,13.0,-1,-1,,,,
107387416,631870,568871,3,30340458,157.0,-1,-1,,,,
107387421,631870,628261,2,26959557,18.0,-1,-1,,,,
107387442,631870,511523,2,1557405,2564.0,-1,-1,,,,
107387443,631870,557900,3,19667920,288.0,-1,-1,,,,
107387445,631870,551814,3,22383024,72.0,-1,-1,,,,
107387453,631870,649483,2,14956472,616.0,-1,-1,,,,
107387459,631870,613410,3,7358065,14.0,-1,-1,,,,
107387461,631870,569215,3,14450672,250.0,-1,-1,,,,
107387463,631870,581101,3,15063221,23.0,-1,-1,,,,
107387468,631870,569044,3,30799003,41.0,-1,-1,,,,
107387474,631870,550308,3,20312435,18189.0,-1,-1,,,,
107387478,631870,613410,3,15646013,491.0,-1,-1,,,,
107387499,631870,511523,2,4728028,188.0,-1,-1,,,,
107387508,631870,641131,3,12823785,168.0,-1,-1,,,,
107387509,631870,628261,2,17151689,106.0,-1,-1,,,,
107387512,631870,489369,3,7094885,10.0,-1,-1,,,,
107387519,631870,578918,3,31107455,270.0,-1,-1,,,,
107387535,631870,628261,2,27674645,28.0,-1,-1,,,,
107387537,631870,571869,3,27674645,18.0,-1,-1,,,,
107387540,631870,651417,3,30245495,595.0,-1,-1,,,,
107387557,631870,628261,2,24720614,19.0,-1,-1,,,,
107387564,631870,469675,3,22138848,28.0,-1,-1,,,,
107387570,631870,628261,2,394610,416.0,-1,-1,,,,
107387573,631870,614654,3,30690903,26.0,-1,-1,,,,
107387585,631870,641917,3,15069292,137.0,-1,-1,,,,
107387608,631870,492039,3,788455,1.0,-1,-1,,,,
107387620,631870,651537,3,9273214,19.0,-1,-1,,,,
107387627,631870,511523,2,2001072,874.0,-1,-1,,,,
107387640,631870,543037,3,28967766,94.0,-1,-1,,,,
107387654,631870,622123,3,9771878,2.0,-1,-1,,,,
107387658,631870,466286,3,5142537,2279.0,-1,-1,,,,
107387663,631870,628261,2,22737600,766.0,-1,-1,,,,
107387676,631870,469675,3,28702858,228.0,-1,-1,,,,
107387682,631870,628261,2,21004077,222.0,-1,-1,,,,
107387697,631870,628261,2,22302773,117.0,-1,-1,,,,
107387703,631870,628261,2,26107553,81.0,-1,-1,,,,
107387705,631870,605235,3,21361104,1.0,-1,-1,,,,
107387712,631870,554011,3,2715868,591.0,-1,-1,,,,
107387725,631870,588802,3,13048082,80.0,-1,-1,,,,
107387736,631870,630347,3,18065167,321.0,-1,-1,,,,
107387740,631870,511523,2,14610245,389.0,-1,-1,,,,
107387751,631870,628261,2,18923958,5993.0,-1,-1,,,,
107387753,631870,628261,2,7892681,196.0,-1,-1,,,,
107387757,631870,500134,3,802202,220.0,-1,-1,,,,
107387764,631870,628261,2,19104732,1197.0,-1,-1,,,,
107387769,631870,528019,3,15306009,59.0,-1,-1,,,,
107387778,631870,622123,3,14256016,397.0,-1,-1,,,,
107387783,631870,606994,3,19403187,54.0,-1,-1,,,,
107387836,631870,649483,2,20193855,2159.0,-1,-1,,,,
107387840,631870,649483,2,18779620,929.0,-1,-1,,,,
107387858,631870,579984,3,27216047,1.0,-1,-1,,,,
107387867,631870,521652,3,27684750,123.0,-1,-1,,,,
107387873,631870,628261,2,3304816,316.0,-1,-1,,,,
107387936,631870,628261,2,28694929,107.0,-1,-1,,,,
107387960,631870,492470,3,2142268,1232.0,-1,-1,,,,
107387973,631870,461577,3,11940594,144.0,-1,-1,,,,
107387991,631870,461577,3,14003523,12.0,-1,-1,,,,
107387994,631870,588802,3,20143382,269.0,-1,-1,,,,
107388001,631870,628261,2,27071813,1216.0,-1,-1,,,,
107388027,631870,628261,2,5452202,114.0,-1,-1,,,,
107388044,631870,469675,3,1126466,327.0,-1,-1,,,,
107388045,631870,628261,2,29396553,259.0,-1,-1,,,,
107388048,631870,628261,2,4523228,28.0,-1,-1,,,,
107388066,631870,579218,3,23275194,147.0,-1,-1,,,,
107388072,631870,499467,6,13910400,-1.0,5,2,22.0,156.0,-22.0,91.0
107388075,631870,511523,2,19442215,496.0,-1,-1,,,,
107388077,631870,628261,2,21600941,68.0,-1,-1,,,,
107388084,631870,629784,3,17571228,1015.0,-1,-1,,,,
107388087,631870,628261,2,27570856,895.0,-1,-1,,,,
107388097,631870,628261,2,26478017,12.0,-1,-1,,,,
107388098,631870,482870,3,10297254,219.0,-1,-1,,,,
107388106,631870,509607,6,19526400,4.0,2,4,-22.0,91.0,1.0,-165.0
107388107,631870,509607,6,22550400,3.0,1,4,-29.0,-13.0,1.0,-165.0
107388115,631870,657173,6,18489600,0.0,2,1,-22.0,91.0,-29.0,-13.0
107388121,631870,616453,6,13564800,0.0,2,5,-22.0,91.0,22.0,156.0
107388122,631870,509607,6,5270400,3.0,2,4,-22.0,91.0,1.0,-165.0
107388125,631870,628261,2,28198798,1005.0,-1,-1,,,,
107388137,631870,587361,3,17721369,640.0,-1,-1,,,,
107388138,631870,509607,6,14688000,2.0,5,4,22.0,156.0,1.0,-165.0
107388139,631870,616453,6,12355200,2.0,2,5,-22.0,91.0,22.0,156.0
107388150,631870,631478,3,28782731,52.0,-1,-1,,,,
107388151,631870,499467,6,20908800,-1.0,5,2,22.0,156.0,-22.0,91.0
107388156,631870,561157,6,1728000,5.0,2,0,-22.0,91.0,33.0,-41.0
107388172,631870,461577,3,5012502,47.0,-1,-1,,,,
107388176,631870,554011,3,10840365,472.0,-1,-1,,,,
107388186,631870,517154,3,9079782,227.0,-1,-1,,,,
107388187,631870,499177,3,28720496,1.0,-1,-1,,,,
