,Source,Target,eType,Time,Weight,SourceLocation,TargetLocation,SourceLatitude,SourceLongitude,TargetLatitude,TargetLongitude
0,542532,568841,1,10373963,1.0,0,4,36.5619,-36.3489,2.49803,-165.476
1,511320,594989,0,9187264,1.0,-1,-1,,,,
2,503648,571105,1,4514418,1.0,0,4,35.9838,-39.4095,-7.59915,-164.992
3,503648,571105,1,28519502,1.0,0,4,35.9838,-39.4095,-7.59915,-164.992
4,524464,503593,0,4062979,1.0,-1,-1,,,,
5,503593,496592,1,5821462,1.0,2,5,-19.9672,92.8671,22.4875,157.591
6,594989,519334,1,31041400,1.0,1,5,-32.1478,-12.6354,20.2714,154.533
7,594989,519334,1,463720,1.0,1,5,-32.1478,-12.6354,20.2714,154.533
8,555341,551134,1,21267715,1.0,1,1,-28.1084,-10.6508,-31.4442,-12.5074
9,571105,529484,0,9171685,1.0,-1,-1,,,,
10,571105,529484,0,24636620,1.0,-1,-1,,,,
11,555341,519334,0,12036495,1.0,-1,-1,,,,
12,568841,524464,1,3310973,1.0,4,4,2.49803,-165.476,3.43404,-163.131
13,529484,524464,0,13662932,1.0,-1,-1,,,,
14,524464,529484,1,27312035,1.0,4,4,3.43404,-163.131,1.00224,-162.558
15,496592,499365,1,10807226,1.0,5,5,22.4875,157.591,24.018,158.228
16,626542,594989,1,13404321,1.0,0,1,29.0256,-34.866,-32.1478,-12.6354
17,626542,594989,1,17204797,1.0,0,1,29.0256,-34.866,-32.1478,-12.6354
18,524464,571105,1,1221622,1.0,4,4,3.43404,-163.131,-7.59915,-164.992
19,524464,571105,1,5032676,1.0,4,4,3.43404,-163.131,-7.59915,-164.992
20,555341,542532,1,11588560,1.0,1,0,-28.1084,-10.6508,36.5619,-36.3489
21,551134,503648,1,21634466,1.0,1,0,-31.4442,-12.5074,35.9838,-39.4095
22,503648,555341,1,26648696,1.0,0,1,35.9838,-39.4095,-28.1084,-10.6508
23,503648,567078,1,1866070,1.0,0,5,35.9838,-39.4095,22.3899,156.537
24,571105,628896,1,29743467,1.0,4,3,-7.59915,-164.992,-24.8562,-111.358
25,594989,567078,0,11242970,1.0,-1,-1,,,,
26,571105,568841,1,29439058,1.0,4,4,-7.59915,-164.992,2.49803,-165.476
27,496592,509512,1,27780625,1.0,5,5,22.4875,157.591,18.6915,151.197
28,628896,555341,0,19705928,1.0,-1,-1,,,,
29,626542,585522,1,2939187,1.0,0,0,29.0256,-34.866,38.5521,-36.3779
30,594989,510385,1,4674050,1.0,1,4,-32.1478,-12.6354,-2.55587,-169.621
31,577873,628896,0,16613313,1.0,-1,-1,,,,
32,524464,519334,0,11847365,1.0,-1,-1,,,,
33,551134,628896,1,10412211,1.0,1,3,-31.4442,-12.5074,-24.8562,-111.358
34,503648,551134,0,7968216,1.0,-1,-1,,,,
35,550283,571105,1,9248445,1.0,1,4,-29.9505,-13.5588,-7.59915,-164.992
36,524464,567078,1,20757076,1.0,4,5,3.43404,-163.131,22.3899,156.537
37,524464,567078,1,4009681,1.0,4,5,3.43404,-163.131,22.3899,156.537
38,542532,524464,1,25434603,1.0,0,4,36.5619,-36.3489,3.43404,-163.131
39,568841,571105,1,1745640,1.0,4,4,2.49803,-165.476,-7.59915,-164.992
40,555341,571105,1,4758524,1.0,1,4,-28.1084,-10.6508,-7.59915,-164.992
41,571105,551134,1,30610616,1.0,4,1,-7.59915,-164.992,-31.4442,-12.5074
42,577873,542532,1,29509365,1.0,2,0,-20.2403,89.0172,36.5619,-36.3489
43,626542,529484,0,19709293,1.0,-1,-1,,,,
44,585522,524464,0,15748224,1.0,-1,-1,,,,
45,571105,519334,1,11931027,1.0,4,5,-7.59915,-164.992,20.2714,154.533
46,626542,511320,1,25142886,1.0,0,0,29.0256,-34.866,27.4237,-42.298
47,510385,519334,1,1930477,1.0,4,5,-2.55587,-169.621,20.2714,154.533
48,555341,529484,1,23677037,1.0,1,4,-28.1084,-10.6508,1.00224,-162.558
49,628896,519334,0,2086128,1.0,-1,-1,,,,
50,571105,524464,1,30342009,1.0,4,4,-7.59915,-164.992,3.43404,-163.131
51,550283,585522,1,27413307,1.0,1,0,-29.9505,-13.5588,38.5521,-36.3779
52,524464,568841,0,18873619,1.0,-1,-1,,,,
53,524464,568841,1,12895207,1.0,4,4,3.43404,-163.131,2.49803,-165.476
54,529484,594989,1,11462996,1.0,4,1,1.00224,-162.558,-32.1478,-12.6354
55,524464,503648,1,12485319,1.0,4,0,3.43404,-163.131,35.9838,-39.4095
56,594989,529484,1,1991880,1.0,1,4,-32.1478,-12.6354,1.00224,-162.558
57,519334,503648,1,26095348,1.0,5,0,20.2714,154.533,35.9838,-39.4095
58,499365,524464,1,24279463,1.0,5,4,24.018,158.228,3.43404,-163.131
59,600971,577873,0,26064723,1.0,-1,-1,,,,
60,567078,499365,1,28868068,1.0,5,5,22.3899,156.537,24.018,158.228
61,628896,496592,1,1354178,1.0,3,5,-24.8562,-111.358,22.4875,157.591
62,628896,550283,1,2861421,1.0,3,1,-24.8562,-111.358,-29.9505,-13.5588
63,567078,594989,0,24807747,1.0,-1,-1,,,,
64,567078,594989,0,22993773,1.0,-1,-1,,,,
65,509512,510385,0,22575808,1.0,-1,-1,,,,
66,628896,626542,1,22982459,1.0,3,0,-24.8562,-111.358,29.0256,-34.866
67,594989,568841,1,22591798,1.0,1,4,-32.1478,-12.6354,2.49803,-165.476
68,585522,626542,0,18942192,1.0,-1,-1,,,,
69,594989,550283,0,21635336,1.0,-1,-1,,,,
70,529484,496592,1,2163616,1.0,4,5,1.00224,-162.558,22.4875,157.591
16753874,496592,595298,5,31536000,1952.14,-1,-1,,,,
16753875,496592,459381,5,31536000,370.41,-1,-1,,,,
16753879,496592,527449,5,31536000,346.26,-1,-1,,,,
16753890,496592,567195,5,31536000,4717.15,-1,-1,,,,
16753905,496592,537281,5,31536000,654.46,-1,-1,,,,
16753912,496592,466907,5,31536000,619.93,-1,-1,,,,
16753937,496592,536346,5,31536000,494.59,-1,-1,,,,
16753973,496592,523927,5,31536000,2538.4,-1,-1,,,,
16753976,496592,473173,5,31536000,206.22,-1,-1,,,,
16753984,496592,632961,5,31536000,426.64,-1,-1,,,,
16753998,496592,620120,5,31536000,4001.43,-1,-1,,,,
16754007,496592,621924,5,31536000,298.61,-1,-1,,,,
16754009,496592,575030,5,31536000,1392.44,-1,-1,,,,
16754027,496592,595581,5,31536000,1807.28,-1,-1,,,,
16754029,496592,580426,5,31536000,143.05,-1,-1,,,,
16754051,496592,644226,5,31536000,672.99,-1,-1,,,,
16754054,496592,503701,5,31536000,2385.31,-1,-1,,,,
16754062,496592,642329,5,31536000,751.6,-1,-1,,,,
16754063,496592,616315,5,31536000,62.68,-1,-1,,,,
16754235,496592,640784,5,31536000,37.64,-1,-1,,,,
19017414,499365,459381,5,31536000,280.05,-1,-1,,,,
19017424,499365,595298,5,31536000,2206.31,-1,-1,,,,
19017458,499365,466907,5,31536000,220.62,-1,-1,,,,
19017473,499365,527449,5,31536000,110.37,-1,-1,,,,
19017480,499365,616315,5,31536000,5565.45,-1,-1,,,,
19017486,499365,642329,5,31536000,691.73,-1,-1,,,,
19017487,499365,503701,5,31536000,1513.09,-1,-1,,,,
19017488,499365,571970,5,31536000,95.64,-1,-1,,,,
19017492,499365,644226,5,31536000,1474.95,-1,-1,,,,
19017495,499365,632961,5,31536000,873.18,-1,-1,,,,
19017498,499365,473173,5,31536000,186.93,-1,-1,,,,
19017500,499365,620120,5,31536000,65434.1,-1,-1,,,,
19017508,499365,595581,5,31536000,723.26,-1,-1,,,,
19017510,499365,580426,5,31536000,452.36,-1,-1,,,,
19017514,499365,606730,5,31536000,298.93,-1,-1,,,,
19017518,499365,589943,5,31536000,827.66,-1,-1,,,,
19017528,499365,577992,5,31536000,717.7,-1,-1,,,,
19017531,499365,537281,5,31536000,243.67,-1,-1,,,,
19017537,499365,523927,5,31536000,2434.51,-1,-1,,,,
19017615,499365,536346,5,31536000,461.94,-1,-1,,,,
19017620,499365,520660,5,31536000,1026.3,-1,-1,,,,
19017641,499365,567195,5,31536000,568.35,-1,-1,,,,
19017666,499365,640784,5,31536000,721.2,-1,-1,,,,
19018886,499365,643971,4,27360000,0.125,-1,-1,,,,
21581502,503593,499467,6,9417600,-1.0,4,2,1.0,-165.0,-22.0,91.0
21581504,503593,625756,6,2592000,3.0,1,3,-29.0,-13.0,-25.0,-111.0
21581531,503593,499467,6,7603200,-1.0,3,2,-25.0,-111.0,-22.0,91.0
21581534,503593,616453,6,3542400,6.0,2,5,-22.0,91.0,22.0,156.0
21582042,503593,632961,5,31536000,454.36,-1,-1,,,,
21582134,503593,499467,6,7603200,-1.0,3,2,-25.0,-111.0,-22.0,91.0
21582135,503593,616453,6,3542400,6.0,2,5,-22.0,91.0,22.0,156.0
21582137,503593,499467,6,9417600,-1.0,4,2,1.0,-165.0,-22.0,91.0
21582138,503593,625756,6,2592000,3.0,1,3,-29.0,-13.0,-25.0,-111.0
21582482,503593,625756,6,2592000,3.0,1,3,-29.0,-13.0,-25.0,-111.0
21582484,503593,499467,6,9417600,-1.0,4,2,1.0,-165.0,-22.0,91.0
21582485,503593,616453,6,3542400,6.0,2,5,-22.0,91.0,22.0,156.0
21582486,503593,499467,6,7603200,-1.0,3,2,-25.0,-111.0,-22.0,91.0
21582507,503593,499467,6,9417600,-1.0,4,2,1.0,-165.0,-22.0,91.0
21582510,503593,616453,6,3542400,6.0,2,5,-22.0,91.0,22.0,156.0
21582511,503593,499467,6,7603200,-1.0,3,2,-25.0,-111.0,-22.0,91.0
21582555,503593,499467,6,7603200,-1.0,3,2,-25.0,-111.0,-22.0,91.0
21582562,503593,616453,6,3542400,6.0,2,5,-22.0,91.0,22.0,156.0
21582563,503593,499467,6,9417600,-1.0,4,2,1.0,-165.0,-22.0,91.0
21582564,503593,625756,6,2592000,3.0,1,3,-29.0,-13.0,-25.0,-111.0
21582566,503593,625756,6,2592000,3.0,1,3,-29.0,-13.0,-25.0,-111.0
21582576,503593,577992,5,31536000,4667.0,-1,-1,,,,
21582578,503593,537281,5,31536000,197.39,-1,-1,,,,
21582601,503593,567195,5,31536000,6162.83,-1,-1,,,,
21582602,503593,527449,5,31536000,1129.14,-1,-1,,,,
21582604,503593,459381,5,31536000,938.24,-1,-1,,,,
21582606,503593,595298,5,31536000,1455.38,-1,-1,,,,
21582607,503593,466907,5,31536000,1003.94,-1,-1,,,,
21582609,503593,589943,5,31536000,7722.79,-1,-1,,,,
21582622,503593,571970,5,31536000,10.45,-1,-1,,,,
21582633,503593,520660,5,31536000,3428.23,-1,-1,,,,
21582634,503593,503701,5,31536000,827.72,-1,-1,,,,
21582639,503593,523927,5,31536000,1557.09,-1,-1,,,,
21582642,503593,595581,5,31536000,370.22,-1,-1,,,,
21582646,503593,616315,5,31536000,465.09,-1,-1,,,,
21582647,503593,642329,5,31536000,2812.61,-1,-1,,,,
21582656,503593,536346,5,31536000,2222.77,-1,-1,,,,
21582708,503593,640784,5,31536000,311.12,-1,-1,,,,
21582714,503593,503218,5,31536000,1104.68,-1,-1,,,,
21582755,503593,621924,5,31536000,1320.32,-1,-1,,,,
21582761,503593,575030,5,31536000,12609.0,-1,-1,,,,
21582798,503593,620120,5,31536000,13375.2,-1,-1,,,,
21582805,503593,473173,5,31536000,1673.9,-1,-1,,,,
21582814,503593,644226,5,31536000,2763.28,-1,-1,,,,
21625114,503648,561157,6,2678400,-1.0,3,0,-25.0,-111.0,33.0,-41.0
21625126,503648,625756,6,24710400,4.0,1,3,-29.0,-13.0,-25.0,-111.0
21625154,503648,616453,6,2764800,0.0,3,5,-25.0,-111.0,22.0,156.0
21625170,503648,561157,6,16934400,-1.0,5,0,22.0,156.0,33.0,-41.0
21625174,503648,616453,6,18662400,2.0,0,5,33.0,-41.0,22.0,156.0
21625178,503648,561157,6,4579200,-1.0,0,0,33.0,-41.0,33.0,-41.0
21625179,503648,561157,6,23760000,-1.0,5,0,22.0,156.0,33.0,-41.0
21625180,503648,561157,6,12268800,-1.0,0,0,33.0,-41.0,33.0,-41.0
21625188,503648,509607,6,17107200,4.0,0,4,33.0,-41.0,1.0,-165.0
21625452,503648,561157,6,16934400,-1.0,5,0,22.0,156.0,33.0,-41.0
21625454,503648,509607,6,17107200,4.0,0,4,33.0,-41.0,1.0,-165.0
21625456,503648,561157,6,12268800,-1.0,0,0,33.0,-41.0,33.0,-41.0
21625457,503648,561157,6,23760000,-1.0,5,0,22.0,156.0,33.0,-41.0
21625481,503648,616453,6,2764800,0.0,3,5,-25.0,-111.0,22.0,156.0
21625520,503648,561157,6,4579200,-1.0,0,0,33.0,-41.0,33.0,-41.0
21625521,503648,625756,6,24710400,4.0,1,3,-29.0,-13.0,-25.0,-111.0
21625522,503648,561157,6,2678400,-1.0,3,0,-25.0,-111.0,33.0,-41.0
21625529,503648,616453,6,18662400,2.0,0,5,33.0,-41.0,22.0,156.0
21626475,503648,616453,6,2764800,0.0,3,5,-25.0,-111.0,22.0,156.0
21626477,503648,561157,6,16934400,-1.0,5,0,22.0,156.0,33.0,-41.0
21626511,503648,616453,6,18662400,2.0,0,5,33.0,-41.0,22.0,156.0
21626512,503648,625756,6,24710400,4.0,1,3,-29.0,-13.0,-25.0,-111.0
21626516,503648,561157,6,2678400,-1.0,3,0,-25.0,-111.0,33.0,-41.0
21626519,503648,509607,6,17107200,4.0,0,4,33.0,-41.0,1.0,-165.0
21626522,503648,561157,6,12268800,-1.0,0,0,33.0,-41.0,33.0,-41.0
21626524,503648,561157,6,23760000,-1.0,5,0,22.0,156.0,33.0,-41.0
21626527,503648,561157,6,4579200,-1.0,0,0,33.0,-41.0,33.0,-41.0
21627893,503648,536346,5,31536000,1234.67,-1,-1,,,,
21627895,503648,520660,5,31536000,7640.91,-1,-1,,,,
21627896,503648,567195,5,31536000,12681.2,-1,-1,,,,
21627897,503648,527449,5,31536000,959.79,-1,-1,,,,
21627898,503648,459381,5,31536000,2064.31,-1,-1,,,,
21627901,503648,466907,5,31536000,2293.72,-1,-1,,,,
21627902,503648,577992,5,31536000,7425.36,-1,-1,,,,
21627904,503648,537281,5,31536000,2122.04,-1,-1,,,,
21627905,503648,523927,5,31536000,5412.67,-1,-1,,,,
21627906,503648,580426,5,31536000,888.74,-1,-1,,,,
21627908,503648,595581,5,31536000,3152.86,-1,-1,,,,
21627909,503648,616315,5,31536000,10087.7,-1,-1,,,,
21627910,503648,642329,5,31536000,495.82,-1,-1,,,,
21627911,503648,503701,5,31536000,13044.9,-1,-1,,,,
21627912,503648,595298,5,31536000,3467.83,-1,-1,,,,
21627942,503648,571970,5,31536000,749.59,-1,-1,,,,
21627943,503648,632961,5,31536000,65.07,-1,-1,,,,
21627969,503648,644226,5,31536000,5499.69,-1,-1,,,,
21627972,503648,473173,5,31536000,1729.14,-1,-1,,,,
21627977,503648,620120,5,31536000,22004.1,-1,-1,,,,
21627978,503648,575030,5,31536000,7432.76,-1,-1,,,,
21628122,503648,561157,6,4579200,-1.0,0,0,33.0,-41.0,33.0,-41.0
21628123,503648,616453,6,18662400,2.0,0,5,33.0,-41.0,22.0,156.0
21628128,503648,625756,6,24710400,4.0,1,3,-29.0,-13.0,-25.0,-111.0
21628134,503648,561157,6,2678400,-1.0,3,0,-25.0,-111.0,33.0,-41.0
21628142,503648,509607,6,17107200,4.0,0,4,33.0,-41.0,1.0,-165.0
21628146,503648,561157,6,12268800,-1.0,0,0,33.0,-41.0,33.0,-41.0
21628165,503648,561157,6,23760000,-1.0,5,0,22.0,156.0,33.0,-41.0
21628278,503648,561157,6,16934400,-1.0,5,0,22.0,156.0,33.0,-41.0
21628304,503648,616453,6,2764800,0.0,3,5,-25.0,-111.0,22.0,156.0
21628573,503648,561157,6,16934400,-1.0,5,0,22.0,156.0,33.0,-41.0
21628606,503648,616453,6,2764800,0.0,3,5,-25.0,-111.0,22.0,156.0
21628615,503648,509607,6,17107200,4.0,0,4,33.0,-41.0,1.0,-165.0
21628617,503648,625756,6,24710400,4.0,1,3,-29.0,-13.0,-25.0,-111.0
21628622,503648,561157,6,2678400,-1.0,3,0,-25.0,-111.0,33.0,-41.0
21628642,503648,561157,6,12268800,-1.0,0,0,33.0,-41.0,33.0,-41.0
21628655,503648,561157,6,23760000,-1.0,5,0,22.0,156.0,33.0,-41.0
21628661,503648,561157,6,4579200,-1.0,0,0,33.0,-41.0,33.0,-41.0
21628668,503648,616453,6,18662400,2.0,0,5,33.0,-41.0,22.0,156.0
25186359,509512,527449,5,31536000,81.19,-1,-1,,,,
25186361,509512,459381,5,31536000,275.48,-1,-1,,,,
25186369,509512,595298,5,31536000,1737.79,-1,-1,,,,
25186370,509512,466907,5,31536000,329.42,-1,-1,,,,
25186383,509512,567195,5,31536000,955.05,-1,-1,,,,
25186389,509512,630626,5,31536000,3108.49,-1,-1,,,,
25186391,509512,640784,5,31536000,426.08,-1,-1,,,,
25186392,509512,575030,5,31536000,2128.88,-1,-1,,,,
25186396,509512,616315,5,31536000,1063.91,-1,-1,,,,
25186397,509512,642329,5,31536000,0.05,-1,-1,,,,
25186399,509512,571970,5,31536000,94.28,-1,-1,,,,
25186400,509512,632961,5,31536000,190.6,-1,-1,,,,
25186403,509512,473173,5,31536000,954.25,-1,-1,,,,
25186408,509512,620120,5,31536000,547.37,-1,-1,,,,
25186410,509512,523927,5,31536000,1222.02,-1,-1,,,,
25186413,509512,580426,5,31536000,609.49,-1,-1,,,,
25186426,509512,595581,5,31536000,897.28,-1,-1,,,,
25540106,510031,503593,5,31536000,2044.95,-1,-1,,,,
25543217,510031,551134,5,31536000,396.82,-1,-1,,,,
25544931,510031,542532,5,31536000,963.21,-1,-1,,,,
25545713,510031,510385,5,31536000,257.12,-1,-1,,,,
25551520,510031,585522,5,31536000,2481.51,-1,-1,,,,
25559192,510031,503648,5,31536000,7703.15,-1,-1,,,,
25563945,510031,519334,5,31536000,1433.35,-1,-1,,,,
25568641,510031,577873,5,31536000,25.03,-1,-1,,,,
25574984,510031,594989,5,31536000,1742.33,-1,-1,,,,
25579059,510031,509512,5,31536000,593.5,-1,-1,,,,
25581003,510031,600971,5,31536000,3229.47,-1,-1,,,,
25583565,510031,571105,5,31536000,461.81,-1,-1,,,,
25592180,510031,628896,5,31536000,1112.0,-1,-1,,,,
25832010,510385,509607,6,18921600,-1.0,0,4,33.0,-41.0,1.0,-165.0
25832172,510385,499467,6,30758400,4.0,4,2,1.0,-165.0,-22.0,91.0
25832301,510385,509607,6,18403200,-1.0,0,4,33.0,-41.0,1.0,-165.0
25832302,510385,657173,6,12009600,0.0,5,1,22.0,156.0,-29.0,-13.0
25832303,510385,509607,6,22896000,-1.0,0,4,33.0,-41.0,1.0,-165.0
25832310,510385,509607,6,8985600,-1.0,1,4,-29.0,-13.0,1.0,-165.0
25832316,510385,509607,6,3369600,-1.0,0,4,33.0,-41.0,1.0,-165.0
25832327,510385,625756,6,12268800,5.0,4,3,1.0,-165.0,-25.0,-111.0
25832328,510385,625756,6,15379200,3.0,4,3,1.0,-165.0,-25.0,-111.0
25832338,510385,509607,6,15292800,-1.0,1,4,-29.0,-13.0,1.0,-165.0
25832396,510385,509607,6,18921600,-1.0,0,4,33.0,-41.0,1.0,-165.0
25832399,510385,625756,6,15379200,3.0,4,3,1.0,-165.0,-25.0,-111.0
25832400,510385,509607,6,15292800,-1.0,1,4,-29.0,-13.0,1.0,-165.0
25832401,510385,625756,6,12268800,5.0,4,3,1.0,-165.0,-25.0,-111.0
25832402,510385,657173,6,12009600,0.0,5,1,22.0,156.0,-29.0,-13.0
25832404,510385,509607,6,22896000,-1.0,0,4,33.0,-41.0,1.0,-165.0
25832405,510385,509607,6,8985600,-1.0,1,4,-29.0,-13.0,1.0,-165.0
25832406,510385,509607,6,3369600,-1.0,0,4,33.0,-41.0,1.0,-165.0
25832407,510385,499467,6,30758400,4.0,4,2,1.0,-165.0,-22.0,91.0
25832411,510385,509607,6,18403200,-1.0,0,4,33.0,-41.0,1.0,-165.0
25832482,510385,499467,6,30758400,4.0,4,2,1.0,-165.0,-22.0,91.0
25832485,510385,509607,6,3369600,-1.0,0,4,33.0,-41.0,1.0,-165.0
25832492,510385,509607,6,8985600,-1.0,1,4,-29.0,-13.0,1.0,-165.0
25832493,510385,509607,6,22896000,-1.0,0,4,33.0,-41.0,1.0,-165.0
25832495,510385,657173,6,12009600,0.0,5,1,22.0,156.0,-29.0,-13.0
25832497,510385,625756,6,12268800,5.0,4,3,1.0,-165.0,-25.0,-111.0
25832562,510385,509607,6,15292800,-1.0,1,4,-29.0,-13.0,1.0,-165.0
25832565,510385,625756,6,15379200,3.0,4,3,1.0,-165.0,-25.0,-111.0
25832571,510385,509607,6,18403200,-1.0,0,4,33.0,-41.0,1.0,-165.0
25832575,510385,509607,6,18921600,-1.0,0,4,33.0,-41.0,1.0,-165.0
25832655,510385,625756,6,12268800,5.0,4,3,1.0,-165.0,-25.0,-111.0
25832668,510385,657173,6,12009600,0.0,5,1,22.0,156.0,-29.0,-13.0
25832670,510385,509607,6,8985600,-1.0,1,4,-29.0,-13.0,1.0,-165.0
25832678,510385,509607,6,3369600,-1.0,0,4,33.0,-41.0,1.0,-165.0
25832681,510385,509607,6,22896000,-1.0,0,4,33.0,-41.0,1.0,-165.0
25832683,510385,509607,6,15292800,-1.0,1,4,-29.0,-13.0,1.0,-165.0
25832685,510385,509607,6,18921600,-1.0,0,4,33.0,-41.0,1.0,-165.0
25832687,510385,499467,6,30758400,4.0,4,2,1.0,-165.0,-22.0,91.0
25832692,510385,509607,6,18403200,-1.0,0,4,33.0,-41.0,1.0,-165.0
25832706,510385,625756,6,15379200,3.0,4,3,1.0,-165.0,-25.0,-111.0
25832718,510385,595581,5,31536000,481.25,-1,-1,,,,
25832720,510385,523927,5,31536000,147.19,-1,-1,,,,
25832727,510385,616315,5,31536000,320.71,-1,-1,,,,
25832728,510385,577992,5,31536000,535.57,-1,-1,,,,
25832729,510385,589943,5,31536000,1464.79,-1,-1,,,,
25832730,510385,606730,5,31536000,321.57,-1,-1,,,,
25832731,510385,466907,5,31536000,155.17,-1,-1,,,,
25832732,510385,595298,5,31536000,1308.55,-1,-1,,,,
25832745,510385,621924,5,31536000,79.85,-1,-1,,,,
25832746,510385,575030,5,31536000,3193.56,-1,-1,,,,
25832748,510385,620120,5,31536000,1505.09,-1,-1,,,,
25832757,510385,642329,5,31536000,723.11,-1,-1,,,,
25832758,510385,473173,5,31536000,4.4,-1,-1,,,,
25832762,510385,644226,5,31536000,408.65,-1,-1,,,,
25832767,510385,571970,5,31536000,81.2,-1,-1,,,,
25832770,510385,503701,5,31536000,1194.7,-1,-1,,,,
25832771,510385,632961,5,31536000,77.82,-1,-1,,,,
25832787,510385,640784,5,31536000,15.27,-1,-1,,,,
25832804,510385,536346,5,31536000,1068.91,-1,-1,,,,
25832806,510385,459381,5,31536000,343.86,-1,-1,,,,
25832818,510385,527449,5,31536000,136.12,-1,-1,,,,
25832824,510385,567195,5,31536000,2773.52,-1,-1,,,,
25832860,510385,499467,6,30758400,4.0,4,2,1.0,-165.0,-22.0,91.0
25832865,510385,509607,6,15292800,-1.0,1,4,-29.0,-13.0,1.0,-165.0
25832866,510385,625756,6,12268800,5.0,4,3,1.0,-165.0,-25.0,-111.0
25832869,510385,657173,6,12009600,0.0,5,1,22.0,156.0,-29.0,-13.0
25832873,510385,509607,6,22896000,-1.0,0,4,33.0,-41.0,1.0,-165.0
25832884,510385,509607,6,8985600,-1.0,1,4,-29.0,-13.0,1.0,-165.0
25832888,510385,509607,6,3369600,-1.0,0,4,33.0,-41.0,1.0,-165.0
25833017,510385,509607,6,18921600,-1.0,0,4,33.0,-41.0,1.0,-165.0
25833028,510385,509607,6,18403200,-1.0,0,4,33.0,-41.0,1.0,-165.0
25833031,510385,625756,6,15379200,3.0,4,3,1.0,-165.0,-25.0,-111.0
26390414,511320,561157,6,8553600,-1.0,0,0,33.0,-41.0,33.0,-41.0
26390415,511320,561157,6,5875200,-1.0,0,0,33.0,-41.0,33.0,-41.0
26390419,511320,499467,6,28252800,7.0,0,2,33.0,-41.0,-22.0,91.0
26390424,511320,625756,6,28339200,2.0,0,3,33.0,-41.0,-25.0,-111.0
26390433,511320,625756,6,13132800,2.0,0,3,33.0,-41.0,-25.0,-111.0
26390434,511320,499467,6,7516800,5.0,4,2,1.0,-165.0,-22.0,91.0
26390435,511320,657173,6,4579200,5.0,0,1,33.0,-41.0,-29.0,-13.0
26390436,511320,616453,6,18403200,7.0,0,5,33.0,-41.0,22.0,156.0
26390437,511320,625756,6,29376000,3.0,0,3,33.0,-41.0,-25.0,-111.0
26390438,511320,509607,6,25833600,6.0,0,4,33.0,-41.0,1.0,-165.0
26390469,511320,561157,6,22118400,-1.0,0,0,33.0,-41.0,33.0,-41.0
26390528,511320,616453,6,18403200,7.0,0,5,33.0,-41.0,22.0,156.0
26390535,511320,625756,6,29376000,3.0,0,3,33.0,-41.0,-25.0,-111.0
26390537,511320,509607,6,25833600,6.0,0,4,33.0,-41.0,1.0,-165.0
26390544,511320,625756,6,28339200,2.0,0,3,33.0,-41.0,-25.0,-111.0
26390545,511320,561157,6,22118400,-1.0,0,0,33.0,-41.0,33.0,-41.0
26390547,511320,561157,6,8553600,-1.0,0,0,33.0,-41.0,33.0,-41.0
26390549,511320,561157,6,5875200,-1.0,0,0,33.0,-41.0,33.0,-41.0
26390550,511320,657173,6,4579200,5.0,0,1,33.0,-41.0,-29.0,-13.0
26390552,511320,499467,6,7516800,5.0,4,2,1.0,-165.0,-22.0,91.0
26390577,511320,625756,6,13132800,2.0,0,3,33.0,-41.0,-25.0,-111.0
26390660,511320,499467,6,28252800,7.0,0,2,33.0,-41.0,-22.0,91.0
26390700,511320,561157,6,8553600,-1.0,0,0,33.0,-41.0,33.0,-41.0
26390711,511320,561157,6,22118400,-1.0,0,0,33.0,-41.0,33.0,-41.0
26390715,511320,527449,5,31536000,1138.66,-1,-1,,,,
26390718,511320,625756,6,28339200,2.0,0,3,33.0,-41.0,-25.0,-111.0
26390727,511320,630626,5,31536000,12870.3,-1,-1,,,,
26390730,511320,499467,6,28252800,7.0,0,2,33.0,-41.0,-22.0,91.0
26390733,511320,567195,5,31536000,1868.24,-1,-1,,,,
26390741,511320,561157,6,5875200,-1.0,0,0,33.0,-41.0,33.0,-41.0
26390756,511320,589943,5,31536000,626.17,-1,-1,,,,
26390761,511320,577992,5,31536000,1761.52,-1,-1,,,,
26390776,511320,459381,5,31536000,2530.23,-1,-1,,,,
26390787,511320,595298,5,31536000,475.03,-1,-1,,,,
26390801,511320,523927,5,31536000,3794.64,-1,-1,,,,
26390803,511320,509607,6,25833600,6.0,0,4,33.0,-41.0,1.0,-165.0
26390805,511320,509607,6,25833600,6.0,0,4,33.0,-41.0,1.0,-165.0
26390807,511320,625756,6,29376000,3.0,0,3,33.0,-41.0,-25.0,-111.0
26390815,511320,625756,6,28339200,2.0,0,3,33.0,-41.0,-25.0,-111.0
26390825,511320,616453,6,18403200,7.0,0,5,33.0,-41.0,22.0,156.0
26390830,511320,499467,6,28252800,7.0,0,2,33.0,-41.0,-22.0,91.0
26390846,511320,561157,6,22118400,-1.0,0,0,33.0,-41.0,33.0,-41.0
26390851,511320,561157,6,8553600,-1.0,0,0,33.0,-41.0,33.0,-41.0
26390856,511320,561157,6,5875200,-1.0,0,0,33.0,-41.0,33.0,-41.0
26390860,511320,657173,6,4579200,5.0,0,1,33.0,-41.0,-29.0,-13.0
26390873,511320,616453,6,18403200,7.0,0,5,33.0,-41.0,22.0,156.0
26390875,511320,640784,5,31536000,201.42,-1,-1,,,,
26390885,511320,625756,6,29376000,3.0,0,3,33.0,-41.0,-25.0,-111.0
26390888,511320,657173,6,4579200,5.0,0,1,33.0,-41.0,-29.0,-13.0
26390891,511320,499467,6,7516800,5.0,4,2,1.0,-165.0,-22.0,91.0
26390899,511320,625756,6,13132800,2.0,0,3,33.0,-41.0,-25.0,-111.0
26390904,511320,625756,6,13132800,2.0,0,3,33.0,-41.0,-25.0,-111.0
26390906,511320,499467,6,7516800,5.0,4,2,1.0,-165.0,-22.0,91.0
26390925,511320,561157,6,22118400,-1.0,0,0,33.0,-41.0,33.0,-41.0
26390936,511320,561157,6,5875200,-1.0,0,0,33.0,-41.0,33.0,-41.0
26390944,511320,499467,6,28252800,7.0,0,2,33.0,-41.0,-22.0,91.0
26390945,511320,561157,6,8553600,-1.0,0,0,33.0,-41.0,33.0,-41.0
26390978,511320,625756,6,28339200,2.0,0,3,33.0,-41.0,-25.0,-111.0
26390988,511320,499467,6,7516800,5.0,4,2,1.0,-165.0,-22.0,91.0
26390994,511320,625756,6,13132800,2.0,0,3,33.0,-41.0,-25.0,-111.0
26391015,511320,509607,6,25833600,6.0,0,4,33.0,-41.0,1.0,-165.0
26391017,511320,625756,6,29376000,3.0,0,3,33.0,-41.0,-25.0,-111.0
26391029,511320,616453,6,18403200,7.0,0,5,33.0,-41.0,22.0,156.0
26391031,511320,657173,6,4579200,5.0,0,1,33.0,-41.0,-29.0,-13.0
26391044,511320,473173,5,31536000,2387.82,-1,-1,,,,
26391056,511320,575030,5,31536000,12025.5,-1,-1,,,,
26391060,511320,621924,5,31536000,4760.85,-1,-1,,,,
26391073,511320,616315,5,31536000,3563.11,-1,-1,,,,
26391080,511320,642329,5,31536000,2297.7,-1,-1,,,,
26391081,511320,571970,5,31536000,1566.29,-1,-1,,,,
32039308,519334,605235,3,16165451,1.0,-1,-1,,,,
32039366,519334,461577,3,19034447,7.0,-1,-1,,,,
32039376,519334,651417,2,527068,1220.0,-1,-1,,,,
32039408,519334,458356,3,13244286,201.0,-1,-1,,,,
32039412,519334,651417,2,30245495,595.0,-1,-1,,,,
32039417,519334,483999,3,26907886,199.0,-1,-1,,,,
32039435,519334,619695,2,15049086,462.0,-1,-1,,,,
32039440,519334,625145,3,1302356,225.0,-1,-1,,,,
32039442,519334,547205,3,3732543,5.0,-1,-1,,,,
32039446,519334,504542,3,4327801,246.0,-1,-1,,,,
32039456,519334,656197,3,8308318,459.0,-1,-1,,,,
32039471,519334,479918,3,12960827,211.0,-1,-1,,,,
32039481,519334,651417,2,21369600,29.0,-1,-1,,,,
32039483,519334,654907,3,17581351,388.0,-1,-1,,,,
32039495,519334,641131,3,28430454,225.0,-1,-1,,,,
32039514,519334,549834,3,22750132,236.0,-1,-1,,,,
32039529,519334,607429,3,29819804,513.0,-1,-1,,,,
32039537,519334,594278,2,17112946,53.0,-1,-1,,,,
32039549,519334,492039,3,20749729,1.0,-1,-1,,,,
32039567,519334,585589,2,28602330,230.0,-1,-1,,,,
32039568,519334,592419,3,13429487,1.0,-1,-1,,,,
32039587,519334,522405,3,20241654,352.0,-1,-1,,,,
32039620,519334,651417,2,24194386,5.0,-1,-1,,,,
32039623,519334,651417,2,12215173,2682.0,-1,-1,,,,
32039650,519334,608159,3,30326421,233.0,-1,-1,,,,
32039671,519334,469746,3,21106570,31.0,-1,-1,,,,
32039677,519334,585589,2,31201828,200.0,-1,-1,,,,
32039681,519334,499467,6,30153600,3.0,4,2,1.0,-165.0,-22.0,91.0
32039682,519334,657173,6,18662400,5.0,5,1,22.0,156.0,-29.0,-13.0
32039683,519334,561157,6,15292800,4.0,1,0,-29.0,-13.0,33.0,-41.0
32039684,519334,509607,6,20563200,4.0,2,4,-22.0,91.0,1.0,-165.0
32039685,519334,459033,3,18608025,127.0,-1,-1,,,,
32039686,519334,625756,6,12268800,0.0,5,3,22.0,156.0,-25.0,-111.0
32039687,519334,499467,6,1123200,2.0,5,2,22.0,156.0,-22.0,91.0
32039688,519334,509607,6,25920000,3.0,5,4,22.0,156.0,1.0,-165.0
32039690,519334,509607,6,518400,5.0,5,4,22.0,156.0,1.0,-165.0
32039692,519334,499467,6,17020800,2.0,5,2,22.0,156.0,-22.0,91.0
32039693,519334,616453,6,25056000,-1.0,3,5,-25.0,-111.0,22.0,156.0
32039695,519334,616453,6,16761600,-1.0,4,5,1.0,-165.0,22.0,156.0
32039711,519334,589617,3,13500082,2713.0,-1,-1,,,,
32039713,519334,641131,3,7862402,265.0,-1,-1,,,,
32039721,519334,553442,3,24465602,243.0,-1,-1,,,,
32039759,519334,490745,3,20431017,263.0,-1,-1,,,,
32039783,519334,553709,3,14173399,1.0,-1,-1,,,,
32039805,519334,594278,2,2944377,115.0,-1,-1,,,,
32039835,519334,641917,3,21365339,375.0,-1,-1,,,,
32039853,519334,578908,3,25636000,61.0,-1,-1,,,,
32039865,519334,554011,3,6922246,193.0,-1,-1,,,,
32039909,519334,596032,3,25470602,723.0,-1,-1,,,,
32039919,519334,619695,2,28087681,312.0,-1,-1,,,,
32039929,519334,490620,3,4177834,619.0,-1,-1,,,,
32039933,519334,619526,3,13320313,976.0,-1,-1,,,,
32039936,519334,594278,2,16173376,124.0,-1,-1,,,,
32039958,519334,651417,2,28700786,807.0,-1,-1,,,,
32039962,519334,585589,2,23510203,1323.0,-1,-1,,,,
32039965,519334,594278,2,10840593,230.0,-1,-1,,,,
32039972,519334,605235,3,27655064,1.0,-1,-1,,,,
32039980,519334,651417,2,25201827,2409.0,-1,-1,,,,
32039991,519334,594278,2,12194112,7.0,-1,-1,,,,
32040032,519334,562375,3,29566510,92.0,-1,-1,,,,
32040038,519334,499467,6,30153600,3.0,4,2,1.0,-165.0,-22.0,91.0
32040039,519334,657173,6,18662400,5.0,5,1,22.0,156.0,-29.0,-13.0
32040040,519334,561157,6,15292800,4.0,1,0,-29.0,-13.0,33.0,-41.0
32040043,519334,509607,6,20563200,4.0,2,4,-22.0,91.0,1.0,-165.0
32040064,519334,651417,2,13397119,54.0,-1,-1,,,,
32040071,519334,625756,6,12268800,0.0,5,3,22.0,156.0,-25.0,-111.0
32040072,519334,499467,6,1123200,2.0,5,2,22.0,156.0,-22.0,91.0
32040073,519334,509607,6,25920000,3.0,5,4,22.0,156.0,1.0,-165.0
32040083,519334,499177,3,25327823,1.0,-1,-1,,,,
32040092,519334,650238,3,14718296,2735.0,-1,-1,,,,
32040102,519334,509607,6,518400,5.0,5,4,22.0,156.0,1.0,-165.0
32040103,519334,499467,6,17020800,2.0,5,2,22.0,156.0,-22.0,91.0
32040104,519334,616453,6,25056000,-1.0,3,5,-25.0,-111.0,22.0,156.0
32040105,519334,616453,6,16761600,-1.0,4,5,1.0,-165.0,22.0,156.0
32040122,519334,569011,3,2106361,1235.0,-1,-1,,,,
32040124,519334,651417,2,13707310,74.0,-1,-1,,,,
32040126,519334,531490,3,13707310,1.0,-1,-1,,,,
32040139,519334,651417,2,11070998,673.0,-1,-1,,,,
32040151,519334,583906,3,15080241,190.0,-1,-1,,,,
32040153,519334,502260,2,30430587,135.0,-1,-1,,,,
32040168,519334,623897,3,29488967,127.0,-1,-1,,,,
32040202,519334,651417,2,25755019,199.0,-1,-1,,,,
32040233,519334,594278,2,3807927,528.0,-1,-1,,,,
32040258,519334,619695,2,30333459,36.0,-1,-1,,,,
32040269,519334,651417,2,1067226,15.0,-1,-1,,,,
32040276,519334,460951,2,29128833,1655.0,-1,-1,,,,
32040296,519334,605235,3,876024,1.0,-1,-1,,,,
32040301,519334,561157,6,15292800,4.0,1,0,-29.0,-13.0,33.0,-41.0
32040303,519334,657173,6,18662400,5.0,5,1,22.0,156.0,-29.0,-13.0
32040304,519334,499467,6,30153600,3.0,4,2,1.0,-165.0,-22.0,91.0
32040317,519334,619695,2,7893053,361.0,-1,-1,,,,
32040325,519334,509607,6,20563200,4.0,2,4,-22.0,91.0,1.0,-165.0
32040326,519334,625756,6,12268800,0.0,5,3,22.0,156.0,-25.0,-111.0
32040327,519334,499467,6,1123200,2.0,5,2,22.0,156.0,-22.0,91.0
32040331,519334,499090,3,3036583,1.0,-1,-1,,,,
32040345,519334,616453,6,16761600,-1.0,4,5,1.0,-165.0,22.0,156.0
32040346,519334,616453,6,25056000,-1.0,3,5,-25.0,-111.0,22.0,156.0
32040347,519334,499467,6,17020800,2.0,5,2,22.0,156.0,-22.0,91.0
32040348,519334,509607,6,518400,5.0,5,4,22.0,156.0,1.0,-165.0
32040352,519334,509607,6,25920000,3.0,5,4,22.0,156.0,1.0,-165.0
32040361,519334,588802,3,2625708,217.0,-1,-1,,,,
32040366,519334,516672,3,8134832,97.0,-1,-1,,,,
32040387,519334,590595,3,21781235,1916.0,-1,-1,,,,
32040421,519334,619695,2,2446299,326.0,-1,-1,,,,
32040435,519334,502016,3,4150858,265.0,-1,-1,,,,
32040446,519334,651417,2,16510107,267.0,-1,-1,,,,
32040448,519334,619695,2,5628984,18.0,-1,-1,,,,
32040456,519334,652259,3,10505285,1.0,-1,-1,,,,
32040511,519334,651417,2,17210812,485.0,-1,-1,,,,
32040521,519334,582402,3,15914911,25.0,-1,-1,,,,
32040535,519334,483999,3,9108524,521.0,-1,-1,,,,
32040550,519334,578918,3,2942414,23.0,-1,-1,,,,
32040572,519334,597461,3,1584831,879.0,-1,-1,,,,
32040580,519334,637298,2,23588103,86.0,-1,-1,,,,
32040599,519334,594278,2,9001992,506.0,-1,-1,,,,
32040601,519334,563741,3,22209148,1.0,-1,-1,,,,
32040629,519334,651417,2,16529457,902.0,-1,-1,,,,
32040645,519334,515351,3,9409088,2547.0,-1,-1,,,,
32040654,519334,641131,3,12069796,110.0,-1,-1,,,,
32040666,519334,550716,3,21634202,1.0,-1,-1,,,,
32040693,519334,651417,2,7264498,423.0,-1,-1,,,,
32040740,519334,568871,3,18015693,124.0,-1,-1,,,,
32040761,519334,580043,3,7776017,15.0,-1,-1,,,,
32040782,519334,651417,2,18073810,14.0,-1,-1,,,,
32040785,519334,651417,2,16516115,665.0,-1,-1,,,,
32040793,519334,467427,3,11727872,413.0,-1,-1,,,,
32040798,519334,651417,2,27489353,25.0,-1,-1,,,,
32040824,519334,624573,3,30240481,559.0,-1,-1,,,,
32040855,519334,626044,3,1754896,10.0,-1,-1,,,,
32040856,519334,629785,3,3585283,745.0,-1,-1,,,,
32040865,519334,651417,2,25152162,333.0,-1,-1,,,,
32040901,519334,619695,2,23116806,620.0,-1,-1,,,,
32040903,519334,651417,2,1385333,64.0,-1,-1,,,,
32040912,519334,651417,2,197311,372.0,-1,-1,,,,
32040914,519334,651417,2,19836644,345.0,-1,-1,,,,
32040945,519334,594278,2,26528411,382.0,-1,-1,,,,
32040968,519334,594278,2,13236403,200.0,-1,-1,,,,
32040971,519334,590595,3,30512424,269.0,-1,-1,,,,
32040989,519334,486930,2,22815620,87.0,-1,-1,,,,
32041012,519334,594278,2,24281358,850.0,-1,-1,,,,
32041027,519334,585589,2,8564966,1.0,-1,-1,,,,
32041042,519334,555931,3,5717412,87.0,-1,-1,,,,
32041048,519334,594278,2,27254944,257.0,-1,-1,,,,
32041074,519334,554011,3,22982783,77.0,-1,-1,,,,
32041075,519334,596301,3,26369219,48.0,-1,-1,,,,
32041084,519334,483999,3,15992643,73.0,-1,-1,,,,
32041087,519334,460951,2,10129827,147.0,-1,-1,,,,
32041096,519334,502260,2,4443396,19.0,-1,-1,,,,
32041097,519334,594278,2,14948742,900.0,-1,-1,,,,
32041099,519334,641131,3,10839652,215.0,-1,-1,,,,
32041111,519334,631478,3,28017045,92.0,-1,-1,,,,
32041115,519334,464456,3,2517358,112.0,-1,-1,,,,
32041118,519334,485885,3,6505253,1250.0,-1,-1,,,,
32041122,519334,567281,3,28524253,3114.0,-1,-1,,,,
32041163,519334,541548,3,4851862,36.0,-1,-1,,,,
32041164,519334,559137,3,17292640,155.0,-1,-1,,,,
32041196,519334,651417,2,9526641,5.0,-1,-1,,,,
32041206,519334,594278,2,11406301,62.0,-1,-1,,,,
32041217,519334,467222,3,965947,1073.0,-1,-1,,,,
32041221,519334,651417,2,28083919,3.0,-1,-1,,,,
32041273,519334,594278,2,22569931,322.0,-1,-1,,,,
32041318,519334,647172,3,30854189,1309.0,-1,-1,,,,
32041322,519334,637559,2,24899611,107.0,-1,-1,,,,
32041335,519334,651417,2,14170246,45.0,-1,-1,,,,
32041342,519334,594278,2,542446,2925.0,-1,-1,,,,
32041362,519334,486930,2,15465618,171.0,-1,-1,,,,
32041367,519334,492039,3,23430287,1.0,-1,-1,,,,
32041372,519334,651417,2,31295080,15.0,-1,-1,,,,
32041375,519334,594278,2,16994906,2452.0,-1,-1,,,,
32041381,519334,525263,3,13750080,1624.0,-1,-1,,,,
32041387,519334,649122,3,16694645,3056.0,-1,-1,,,,
32041396,519334,585589,2,11365158,206.0,-1,-1,,,,
32041411,519334,594278,2,26828465,8.0,-1,-1,,,,
32041427,519334,594278,2,4320380,293.0,-1,-1,,,,
32041437,519334,594278,2,30114949,4.0,-1,-1,,,,
32041443,519334,508266,3,4786375,284.0,-1,-1,,,,
32041445,519334,533194,3,12295841,23.0,-1,-1,,,,
32041448,519334,628261,3,27939610,1330.0,-1,-1,,,,
32041456,519334,511493,3,9467529,353.0,-1,-1,,,,
32041479,519334,591728,3,476107,1.0,-1,-1,,,,
32041487,519334,631478,3,1734490,4050.0,-1,-1,,,,
32041526,519334,651417,2,12993129,169.0,-1,-1,,,,
32041539,519334,594278,2,22644007,813.0,-1,-1,,,,
32041554,519334,492039,3,22414815,1.0,-1,-1,,,,
32041562,519334,602870,3,29244033,29.0,-1,-1,,,,
32041591,519334,567967,3,20181659,126.0,-1,-1,,,,
32041646,519334,594278,2,25061810,1085.0,-1,-1,,,,
32041652,519334,585589,2,31375719,1557.0,-1,-1,,,,
32041689,519334,651417,2,5296365,52.0,-1,-1,,,,
32041697,519334,619695,2,27582149,20.0,-1,-1,,,,
32041710,519334,641475,3,3025842,646.0,-1,-1,,,,
32041717,519334,502260,2,28512031,235.0,-1,-1,,,,
32041720,519334,600597,3,7691600,159.0,-1,-1,,,,
32041726,519334,641315,3,28893639,107567.0,-1,-1,,,,
32041747,519334,651417,2,8855706,364.0,-1,-1,,,,
32041760,519334,549834,3,25664195,636.0,-1,-1,,,,
32041762,519334,596301,3,11370850,60.0,-1,-1,,,,
32041768,519334,496988,3,30646020,332.0,-1,-1,,,,
32041776,519334,483999,3,29997733,557.0,-1,-1,,,,
32041780,519334,545568,3,14982771,884.0,-1,-1,,,,
32041793,519334,635369,3,9183848,196.0,-1,-1,,,,
32041794,519334,619695,2,9183848,666.0,-1,-1,,,,
32041832,519334,619695,2,22578145,191.0,-1,-1,,,,
32041834,519334,597448,3,607119,397.0,-1,-1,,,,
32041853,519334,545141,3,12356123,36.0,-1,-1,,,,
32041859,519334,583906,3,24477776,205.0,-1,-1,,,,
32041885,519334,594278,2,3982080,140.0,-1,-1,,,,
32041903,519334,555931,3,9176044,553.0,-1,-1,,,,
32041905,519334,651417,2,21025629,353.0,-1,-1,,,,
32041917,519334,544444,3,20918528,507.0,-1,-1,,,,
32041924,519334,651417,2,27153553,241.0,-1,-1,,,,
32041933,519334,616453,6,16761600,-1.0,4,5,1.0,-165.0,22.0,156.0
32041934,519334,616453,6,25056000,-1.0,3,5,-25.0,-111.0,22.0,156.0
32041935,519334,499467,6,17020800,2.0,5,2,22.0,156.0,-22.0,91.0
32041941,519334,461577,3,18898930,5.0,-1,-1,,,,
32041962,519334,620076,3,18159224,40.0,-1,-1,,,,
32041967,519334,602870,3,30255899,1407.0,-1,-1,,,,
32041982,519334,629784,3,6495992,1151.0,-1,-1,,,,
32041989,519334,537857,3,16861496,999.0,-1,-1,,,,
32041998,519334,578961,2,30331807,585.0,-1,-1,,,,
32042016,519334,651417,2,3487701,5.0,-1,-1,,,,
32042027,519334,632485,3,22664420,28.0,-1,-1,,,,
32042031,519334,651417,2,5739871,203.0,-1,-1,,,,
32042046,519334,594278,2,21873279,48.0,-1,-1,,,,
32042072,519334,537564,3,3112561,176.0,-1,-1,,,,
32042077,519334,509607,6,518400,5.0,5,4,22.0,156.0,1.0,-165.0
32042078,519334,509607,6,25920000,3.0,5,4,22.0,156.0,1.0,-165.0
32042079,519334,499467,6,1123200,2.0,5,2,22.0,156.0,-22.0,91.0
32042080,519334,625756,6,12268800,0.0,5,3,22.0,156.0,-25.0,-111.0
32042081,519334,509607,6,20563200,4.0,2,4,-22.0,91.0,1.0,-165.0
32042082,519334,561157,6,15292800,4.0,1,0,-29.0,-13.0,33.0,-41.0
32042083,519334,657173,6,18662400,5.0,5,1,22.0,156.0,-29.0,-13.0
32042084,519334,499467,6,30153600,3.0,4,2,1.0,-165.0,-22.0,91.0
32042090,519334,585589,2,19150850,625.0,-1,-1,,,,
32042107,519334,547205,3,20239960,89.0,-1,-1,,,,
32042113,519334,585589,2,13762484,934.0,-1,-1,,,,
32042117,519334,493816,3,10895070,20.0,-1,-1,,,,
32042118,519334,544444,3,14958035,80.0,-1,-1,,,,
32042146,519334,585589,2,27240365,937.0,-1,-1,,,,
32042151,519334,594278,2,19899038,393.0,-1,-1,,,,
32042152,519334,547205,3,17213295,515.0,-1,-1,,,,
32042180,519334,504557,3,4324356,2156.0,-1,-1,,,,
32042188,519334,590595,3,4408856,186.0,-1,-1,,,,
32042212,519334,509816,3,13409779,61.0,-1,-1,,,,
32042221,519334,585589,2,5106805,531.0,-1,-1,,,,
32042222,519334,585589,2,28466775,27.0,-1,-1,,,,
32042237,519334,651417,2,2350493,88.0,-1,-1,,,,
32042247,519334,478008,3,28691322,80.0,-1,-1,,,,
32042252,519334,605235,3,30189267,1.0,-1,-1,,,,
32042260,519334,651417,2,17918452,106.0,-1,-1,,,,
32042273,519334,651417,2,16605012,1.0,-1,-1,,,,
32042298,519334,531490,3,1766902,1.0,-1,-1,,,,
32042305,519334,643849,3,16965652,24.0,-1,-1,,,,
32042306,519334,616453,6,16761600,-1.0,4,5,1.0,-165.0,22.0,156.0
32042307,519334,616453,6,25056000,-1.0,3,5,-25.0,-111.0,22.0,156.0
32042308,519334,499467,6,17020800,2.0,5,2,22.0,156.0,-22.0,91.0
32042309,519334,509607,6,518400,5.0,5,4,22.0,156.0,1.0,-165.0
32042310,519334,509607,6,25920000,3.0,5,4,22.0,156.0,1.0,-165.0
32042311,519334,499467,6,1123200,2.0,5,2,22.0,156.0,-22.0,91.0
32042315,519334,509607,6,20563200,4.0,2,4,-22.0,91.0,1.0,-165.0
32042319,519334,561157,6,15292800,4.0,1,0,-29.0,-13.0,33.0,-41.0
32042320,519334,657173,6,18662400,5.0,5,1,22.0,156.0,-29.0,-13.0
32042322,519334,499467,6,30153600,3.0,4,2,1.0,-165.0,-22.0,91.0
32042326,519334,625756,6,12268800,0.0,5,3,22.0,156.0,-25.0,-111.0
32042338,519334,651417,2,28353648,1769.0,-1,-1,,,,
32042346,519334,588802,3,23762902,290.0,-1,-1,,,,
32042349,519334,651417,2,6670539,149.0,-1,-1,,,,
32042374,519334,651417,2,6154560,7.0,-1,-1,,,,
32042381,519334,651417,2,25756494,92.0,-1,-1,,,,
32042393,519334,585589,2,17930169,17.0,-1,-1,,,,
32042414,519334,556592,3,24567350,2310.0,-1,-1,,,,
32042434,519334,619695,2,24730156,30.0,-1,-1,,,,
32042440,519334,460951,2,18863320,211.0,-1,-1,,,,
32042445,519334,594278,2,12035138,80.0,-1,-1,,,,
32042454,519334,493607,3,15822903,149.0,-1,-1,,,,
32042456,519334,602870,3,6342857,233.0,-1,-1,,,,
32042475,519334,517230,3,3472414,1.0,-1,-1,,,,
32042484,519334,475970,3,24282729,420.0,-1,-1,,,,
32042489,519334,490745,3,7018234,348.0,-1,-1,,,,
32042493,519334,502260,2,17208439,429.0,-1,-1,,,,
32042532,519334,523286,3,17113839,788.0,-1,-1,,,,
32042537,519334,594278,2,17586762,170.0,-1,-1,,,,
32042547,519334,559572,3,3827520,60.0,-1,-1,,,,
32042570,519334,540348,3,15522853,1.0,-1,-1,,,,
32042576,519334,594278,2,18360960,212.0,-1,-1,,,,
32042627,519334,619695,2,17982731,17.0,-1,-1,,,,
32042643,519334,499675,3,11775365,235.0,-1,-1,,,,
32042650,519334,576196,3,3039985,2549.0,-1,-1,,,,
32042653,519334,643682,3,31366821,53.0,-1,-1,,,,
32042669,519334,647172,3,147648,1483.0,-1,-1,,,,
32042694,519334,468500,3,2713703,51.0,-1,-1,,,,
32042698,519334,641131,3,356422,9.0,-1,-1,,,,
32042736,519334,460951,2,14102732,25.0,-1,-1,,,,
32042774,519334,471242,3,31468089,96.0,-1,-1,,,,
32042778,519334,573047,3,6624592,10.0,-1,-1,,,,
32042779,519334,585677,3,7809025,25.0,-1,-1,,,,
32042823,519334,585151,3,21810442,222.0,-1,-1,,,,
32042829,519334,544444,3,5036282,56.0,-1,-1,,,,
32042842,519334,502260,2,17260801,362.0,-1,-1,,,,
32042866,519334,547205,3,28115932,504.0,-1,-1,,,,
32042884,519334,514346,3,10426190,169.0,-1,-1,,,,
32042885,519334,515723,3,23544480,421.0,-1,-1,,,,
32042901,519334,637559,2,5802080,41.0,-1,-1,,,,
32042902,519334,585589,2,21441610,511.0,-1,-1,,,,
32042905,519334,594278,2,6427262,59.0,-1,-1,,,,
32042918,519334,516054,3,22304896,1.0,-1,-1,,,,
32042938,519334,592419,3,3225039,1.0,-1,-1,,,,
32042943,519334,461577,3,3142755,25.0,-1,-1,,,,
32042955,519334,489627,3,29811841,957.0,-1,-1,,,,
32042960,519334,496272,3,9164929,393.0,-1,-1,,,,
32042967,519334,585589,2,4331935,53.0,-1,-1,,,,
32042976,519334,594278,2,10725304,9.0,-1,-1,,,,
32043018,519334,543037,3,29648485,1.0,-1,-1,,,,
32043049,519334,651417,2,24130482,18.0,-1,-1,,,,
32043058,519334,499177,3,21603008,1.0,-1,-1,,,,
32043074,519334,458848,3,21082729,39.0,-1,-1,,,,
32043109,519334,547205,3,13337438,79.0,-1,-1,,,,
32043132,519334,614798,3,10989918,135.0,-1,-1,,,,
32043138,519334,581349,3,19490934,1459.0,-1,-1,,,,
32043155,519334,518094,3,2166038,1395.0,-1,-1,,,,
32043170,519334,460951,2,4505813,4.0,-1,-1,,,,
32043208,519334,651417,2,15207249,8.0,-1,-1,,,,
32043215,519334,651417,2,27131077,821.0,-1,-1,,,,
32043222,519334,594278,2,12444729,22.0,-1,-1,,,,
32043229,519334,597461,3,27131077,1.0,-1,-1,,,,
32043246,519334,594278,2,21717473,77.0,-1,-1,,,,
32043265,519334,651417,2,12469708,35.0,-1,-1,,,,
32043268,519334,528019,3,13310410,496.0,-1,-1,,,,
32043292,519334,523286,3,17994298,366.0,-1,-1,,,,
32043332,519334,651417,2,29559649,36.0,-1,-1,,,,
32043335,519334,619695,2,30184067,736.0,-1,-1,,,,
32043352,519334,594278,2,12911086,41.0,-1,-1,,,,
32043358,519334,585589,2,23885311,175.0,-1,-1,,,,
32043369,519334,619695,2,11067018,162.0,-1,-1,,,,
32043386,519334,585589,2,20285652,114.0,-1,-1,,,,
32043401,519334,636257,3,30948533,1.0,-1,-1,,,,
32043421,519334,464295,3,3040371,11.0,-1,-1,,,,
32043428,519334,552748,3,9023220,1481.0,-1,-1,,,,
32043430,519334,651417,2,24817108,36.0,-1,-1,,,,
32043443,519334,544444,3,13633233,5.0,-1,-1,,,,
32043451,519334,655265,3,22741803,226.0,-1,-1,,,,
32043452,519334,635847,3,20460997,513.0,-1,-1,,,,
32043461,519334,649141,3,14185236,102.0,-1,-1,,,,
32043492,519334,579492,3,3630879,825.0,-1,-1,,,,
32043497,519334,619695,2,7359544,304.0,-1,-1,,,,
32043500,519334,491412,3,8643159,77.0,-1,-1,,,,
32043513,519334,544444,3,15649322,543.0,-1,-1,,,,
32043518,519334,630626,5,31536000,3937.4,-1,-1,,,,
32043519,519334,527449,5,31536000,200.64,-1,-1,,,,
32043520,519334,585589,2,21692325,982.0,-1,-1,,,,
32043521,519334,459381,5,31536000,644.51,-1,-1,,,,
32043522,519334,595298,5,31536000,1349.7,-1,-1,,,,
32043524,519334,466907,5,31536000,358.51,-1,-1,,,,
32043528,519334,577992,5,31536000,969.03,-1,-1,,,,
32043529,519334,537281,5,31536000,651.32,-1,-1,,,,
32043532,519334,589943,5,31536000,1877.82,-1,-1,,,,
32043533,519334,640784,5,31536000,712.46,-1,-1,,,,
32043534,519334,652996,3,24561551,112.0,-1,-1,,,,
32043545,519334,594278,2,1650826,11.0,-1,-1,,,,
32043553,519334,523927,5,31536000,2494.93,-1,-1,,,,
32043555,519334,595581,5,31536000,2166.69,-1,-1,,,,
32043556,519334,503701,5,31536000,1602.42,-1,-1,,,,
32043567,519334,651417,2,14549688,9.0,-1,-1,,,,
32043580,519334,571970,5,31536000,65.72,-1,-1,,,,
32043581,519334,632961,5,31536000,740.16,-1,-1,,,,
32043582,519334,594278,2,23103178,230.0,-1,-1,,,,
32043583,519334,473173,5,31536000,2823.81,-1,-1,,,,
32043584,519334,620120,5,31536000,4885.61,-1,-1,,,,
32043585,519334,575030,5,31536000,3753.72,-1,-1,,,,
32043592,519334,499177,3,16609952,1.0,-1,-1,,,,
32043594,519334,642329,5,31536000,265.72,-1,-1,,,,
32043605,519334,594278,2,25662383,179.0,-1,-1,,,,
32043653,519334,461577,3,2464834,253.0,-1,-1,,,,
32043662,519334,538782,3,13142557,508.0,-1,-1,,,,
32043663,519334,492039,3,16334262,1.0,-1,-1,,,,
32043703,519334,594278,2,19215407,773.0,-1,-1,,,,
32043715,519334,594278,2,17111177,401.0,-1,-1,,,,
32043737,519334,609929,3,25790065,48.0,-1,-1,,,,
32043741,519334,483999,3,1561724,227.0,-1,-1,,,,
32043752,519334,651417,2,22471973,502.0,-1,-1,,,,
32043764,519334,651417,2,6961174,77.0,-1,-1,,,,
32043785,519334,594278,2,9105594,187.0,-1,-1,,,,
32043811,519334,651417,2,27575498,648.0,-1,-1,,,,
32043813,519334,651417,2,22471228,1094.0,-1,-1,,,,
32043820,519334,509848,3,12885864,834.0,-1,-1,,,,
32043826,519334,627982,3,12971914,1264.0,-1,-1,,,,
32043860,519334,499177,3,8390920,1.0,-1,-1,,,,
32043862,519334,594278,2,26194756,3194.0,-1,-1,,,,
32043896,519334,570041,3,27922327,179.0,-1,-1,,,,
32043917,519334,555931,3,478955,850.0,-1,-1,,,,
32043935,519334,458356,3,18610561,58.0,-1,-1,,,,
32043952,519334,594278,2,27667463,240.0,-1,-1,,,,
32043975,519334,551814,3,30352460,432.0,-1,-1,,,,
32043986,519334,619695,2,28191640,163.0,-1,-1,,,,
32043990,519334,651417,2,27396250,181.0,-1,-1,,,,
32043998,519334,500293,3,6013673,97.0,-1,-1,,,,
32044010,519334,505462,3,4501849,19.0,-1,-1,,,,
32044018,519334,619695,2,17721681,208.0,-1,-1,,,,
32044031,519334,594278,2,12046535,2551.0,-1,-1,,,,
32044051,519334,594278,2,20306672,164.0,-1,-1,,,,
32044063,519334,585589,2,22294532,344.0,-1,-1,,,,
32044096,519334,651417,2,28699243,135.0,-1,-1,,,,
32044114,519334,651417,2,21351615,375.0,-1,-1,,,,
32044121,519334,594278,2,7790409,580.0,-1,-1,,,,
32044132,519334,547205,3,3812999,615.0,-1,-1,,,,
32044144,519334,460951,2,16471459,279.0,-1,-1,,,,
32044145,519334,651417,2,24665174,444.0,-1,-1,,,,
32044155,519334,529694,3,24282311,233.0,-1,-1,,,,
32044170,519334,612524,3,29637390,35.0,-1,-1,,,,
32044193,519334,651537,3,7530498,114.0,-1,-1,,,,
32044198,519334,579067,3,5625295,88.0,-1,-1,,,,
32044221,519334,578908,3,26897291,312.0,-1,-1,,,,
32044259,519334,594278,2,19563084,208.0,-1,-1,,,,
32044289,519334,578961,2,2045363,17.0,-1,-1,,,,
32044309,519334,578961,2,4081019,480.0,-1,-1,,,,
32044325,519334,654011,3,3895066,4933.0,-1,-1,,,,
32044334,519334,594278,2,1138702,333.0,-1,-1,,,,
32044337,519334,651417,2,8512805,555.0,-1,-1,,,,
32044347,519334,582519,3,23524257,2409.0,-1,-1,,,,
32044370,519334,525263,3,18970249,541.0,-1,-1,,,,
32044384,519334,621119,3,23558052,607.0,-1,-1,,,,
32044386,519334,594278,2,6090843,20.0,-1,-1,,,,
32044390,519334,588994,3,27003268,5.0,-1,-1,,,,
32044392,519334,651417,2,2176399,1.0,-1,-1,,,,
32044418,519334,578908,3,21091827,165.0,-1,-1,,,,
32044420,519334,636813,3,12937253,49.0,-1,-1,,,,
32044433,519334,621445,3,12400467,192.0,-1,-1,,,,
32044434,519334,628976,3,16357169,126.0,-1,-1,,,,
35301268,524464,657173,6,20822400,5.0,4,1,1.0,-165.0,-29.0,-13.0
35301269,524464,561157,6,20995200,4.0,1,0,-29.0,-13.0,33.0,-41.0
35301270,524464,616453,6,23587200,0.0,4,5,1.0,-165.0,22.0,156.0
35301287,524464,616453,6,15292800,2.0,4,5,1.0,-165.0,22.0,156.0
35301302,524464,499467,6,9417600,4.0,0,2,33.0,-41.0,-22.0,91.0
35301303,524464,561157,6,1123200,0.0,4,0,1.0,-165.0,33.0,-41.0
35301304,524464,561157,6,25747200,3.0,4,0,1.0,-165.0,33.0,-41.0
35301335,524464,657173,6,3456000,5.0,2,1,-22.0,91.0,-29.0,-13.0
35301336,524464,657173,6,16848000,4.0,4,1,1.0,-165.0,-29.0,-13.0
35301337,524464,625756,6,11232000,1.0,5,3,22.0,156.0,-25.0,-111.0
35301338,524464,657173,6,27734400,4.0,4,1,1.0,-165.0,-29.0,-13.0
35301427,524464,657173,6,20822400,5.0,4,1,1.0,-165.0,-29.0,-13.0
35301428,524464,561157,6,20995200,4.0,1,0,-29.0,-13.0,33.0,-41.0
35301429,524464,616453,6,23587200,0.0,4,5,1.0,-165.0,22.0,156.0
35301430,524464,616453,6,15292800,2.0,4,5,1.0,-165.0,22.0,156.0
35301431,524464,499467,6,9417600,4.0,0,2,33.0,-41.0,-22.0,91.0
35301432,524464,561157,6,1123200,0.0,4,0,1.0,-165.0,33.0,-41.0
35301433,524464,561157,6,25747200,3.0,4,0,1.0,-165.0,33.0,-41.0
35301435,524464,657173,6,3456000,5.0,2,1,-22.0,91.0,-29.0,-13.0
35301436,524464,657173,6,16848000,4.0,4,1,1.0,-165.0,-29.0,-13.0
35301438,524464,625756,6,11232000,1.0,5,3,22.0,156.0,-25.0,-111.0
35301451,524464,657173,6,27734400,4.0,4,1,1.0,-165.0,-29.0,-13.0
35301757,524464,621924,5,31536000,173.93,-1,-1,,,,
35301758,524464,575030,5,31536000,2321.44,-1,-1,,,,
35301759,524464,620120,5,31536000,207.4,-1,-1,,,,
35301760,524464,473173,5,31536000,804.61,-1,-1,,,,
35301762,524464,632961,5,31536000,210.34,-1,-1,,,,
35301763,524464,503701,5,31536000,1617.0,-1,-1,,,,
35301765,524464,642329,5,31536000,123.13,-1,-1,,,,
35301766,524464,595581,5,31536000,533.24,-1,-1,,,,
35301767,524464,523927,5,31536000,74.85,-1,-1,,,,
35301768,524464,537281,5,31536000,132.07,-1,-1,,,,
35301769,524464,589943,5,31536000,462.53,-1,-1,,,,
35301770,524464,466907,5,31536000,202.87,-1,-1,,,,
35301771,524464,595298,5,31536000,33.14,-1,-1,,,,
35301772,524464,459381,5,31536000,232.99,-1,-1,,,,
35301773,524464,527449,5,31536000,137.29,-1,-1,,,,
35301774,524464,567195,5,31536000,528.45,-1,-1,,,,
35301775,524464,630626,5,31536000,1726.43,-1,-1,,,,
35301776,524464,640784,5,31536000,34.43,-1,-1,,,,
35301778,524464,616315,5,31536000,600.42,-1,-1,,,,
35302593,524464,657173,6,20822400,5.0,4,1,1.0,-165.0,-29.0,-13.0
35302594,524464,561157,6,20995200,4.0,1,0,-29.0,-13.0,33.0,-41.0
35302595,524464,616453,6,23587200,0.0,4,5,1.0,-165.0,22.0,156.0
35302596,524464,616453,6,15292800,2.0,4,5,1.0,-165.0,22.0,156.0
35302597,524464,499467,6,9417600,4.0,0,2,33.0,-41.0,-22.0,91.0
35302598,524464,561157,6,1123200,0.0,4,0,1.0,-165.0,33.0,-41.0
35302600,524464,561157,6,25747200,3.0,4,0,1.0,-165.0,33.0,-41.0
35302601,524464,657173,6,3456000,5.0,2,1,-22.0,91.0,-29.0,-13.0
35302603,524464,657173,6,16848000,4.0,4,1,1.0,-165.0,-29.0,-13.0
35302605,524464,625756,6,11232000,1.0,5,3,22.0,156.0,-25.0,-111.0
35302606,524464,657173,6,27734400,4.0,4,1,1.0,-165.0,-29.0,-13.0
35302626,524464,657173,6,20822400,5.0,4,1,1.0,-165.0,-29.0,-13.0
35302627,524464,561157,6,20995200,4.0,1,0,-29.0,-13.0,33.0,-41.0
35302628,524464,616453,6,23587200,0.0,4,5,1.0,-165.0,22.0,156.0
35302631,524464,499467,6,9417600,4.0,0,2,33.0,-41.0,-22.0,91.0
35302632,524464,561157,6,1123200,0.0,4,0,1.0,-165.0,33.0,-41.0
35302635,524464,561157,6,25747200,3.0,4,0,1.0,-165.0,33.0,-41.0
35302636,524464,657173,6,3456000,5.0,2,1,-22.0,91.0,-29.0,-13.0
35302637,524464,657173,6,16848000,4.0,4,1,1.0,-165.0,-29.0,-13.0
35302638,524464,625756,6,11232000,1.0,5,3,22.0,156.0,-25.0,-111.0
35302639,524464,657173,6,27734400,4.0,4,1,1.0,-165.0,-29.0,-13.0
35302643,524464,616453,6,15292800,2.0,4,5,1.0,-165.0,22.0,156.0
35307288,524464,561157,6,25747200,3.0,4,0,1.0,-165.0,33.0,-41.0
35307289,524464,657173,6,3456000,5.0,2,1,-22.0,91.0,-29.0,-13.0
35307290,524464,657173,6,16848000,4.0,4,1,1.0,-165.0,-29.0,-13.0
35307291,524464,625756,6,11232000,1.0,5,3,22.0,156.0,-25.0,-111.0
35307292,524464,657173,6,27734400,4.0,4,1,1.0,-165.0,-29.0,-13.0
35307310,524464,561157,6,1123200,0.0,4,0,1.0,-165.0,33.0,-41.0
35307311,524464,499467,6,9417600,4.0,0,2,33.0,-41.0,-22.0,91.0
35307312,524464,616453,6,15292800,2.0,4,5,1.0,-165.0,22.0,156.0
35307331,524464,657173,6,20822400,5.0,4,1,1.0,-165.0,-29.0,-13.0
35307332,524464,561157,6,20995200,4.0,1,0,-29.0,-13.0,33.0,-41.0
35307333,524464,616453,6,23587200,0.0,4,5,1.0,-165.0,22.0,156.0
38361208,529484,632961,5,31536000,224.8,-1,-1,,,,
38361333,529484,616453,6,12700800,5.0,4,5,1.0,-165.0,22.0,156.0
38361336,529484,616453,6,10281600,1.0,4,5,1.0,-165.0,22.0,156.0
38361338,529484,616453,6,23414400,1.0,1,5,-29.0,-13.0,22.0,156.0
38361593,529484,536346,5,31536000,340.94,-1,-1,,,,
38361594,529484,520660,5,31536000,1357.76,-1,-1,,,,
38361597,529484,567195,5,31536000,1396.87,-1,-1,,,,
38361629,529484,459381,5,31536000,346.5,-1,-1,,,,
38361630,529484,621924,5,31536000,1144.22,-1,-1,,,,
38361642,529484,575030,5,31536000,4532.09,-1,-1,,,,
38361657,529484,527449,5,31536000,64.89,-1,-1,,,,
38361659,529484,620120,5,31536000,2707.92,-1,-1,,,,
38361665,529484,595298,5,31536000,194.52,-1,-1,,,,
38361666,529484,466907,5,31536000,144.8,-1,-1,,,,
38361671,529484,537281,5,31536000,115.0,-1,-1,,,,
38361674,529484,523927,5,31536000,960.45,-1,-1,,,,
38361675,529484,580426,5,31536000,140.99,-1,-1,,,,
38361677,529484,616315,5,31536000,1351.25,-1,-1,,,,
38361679,529484,642329,5,31536000,566.24,-1,-1,,,,
38361680,529484,503701,5,31536000,1190.26,-1,-1,,,,
38361682,529484,644226,5,31536000,240.93,-1,-1,,,,
38361684,529484,473173,5,31536000,275.15,-1,-1,,,,
38362283,529484,616453,6,12700800,5.0,4,5,1.0,-165.0,22.0,156.0
38362285,529484,616453,6,23414400,1.0,1,5,-29.0,-13.0,22.0,156.0
38362294,529484,616453,6,10281600,1.0,4,5,1.0,-165.0,22.0,156.0
38362974,529484,616453,6,12700800,5.0,4,5,1.0,-165.0,22.0,156.0
38362975,529484,616453,6,10281600,1.0,4,5,1.0,-165.0,22.0,156.0
38363002,529484,616453,6,23414400,1.0,1,5,-29.0,-13.0,22.0,156.0
38363525,529484,616453,6,12700800,5.0,4,5,1.0,-165.0,22.0,156.0
38363526,529484,616453,6,10281600,1.0,4,5,1.0,-165.0,22.0,156.0
38363527,529484,616453,6,23414400,1.0,1,5,-29.0,-13.0,22.0,156.0
38364169,529484,616453,6,12700800,5.0,4,5,1.0,-165.0,22.0,156.0
38364173,529484,616453,6,10281600,1.0,4,5,1.0,-165.0,22.0,156.0
38364174,529484,616453,6,23414400,1.0,1,5,-29.0,-13.0,22.0,156.0
48101897,542532,571970,5,31536000,376.83,-1,-1,,,,
48101899,542532,644226,5,31536000,3102.14,-1,-1,,,,
48101900,542532,632961,5,31536000,1123.16,-1,-1,,,,
48101901,542532,473173,5,31536000,19.57,-1,-1,,,,
48101903,542532,575030,5,31536000,5005.27,-1,-1,,,,
48101904,542532,621924,5,31536000,2242.7,-1,-1,,,,
48101915,542532,503701,5,31536000,1854.27,-1,-1,,,,
48101957,542532,642329,5,31536000,4076.34,-1,-1,,,,
48101958,542532,595581,5,31536000,1617.93,-1,-1,,,,
48102002,542532,520660,5,31536000,7931.03,-1,-1,,,,
48102003,542532,567195,5,31536000,2651.92,-1,-1,,,,
48102004,542532,527449,5,31536000,388.0,-1,-1,,,,
48102005,542532,459381,5,31536000,1531.94,-1,-1,,,,
48102007,542532,536346,5,31536000,3600.96,-1,-1,,,,
48102009,542532,595298,5,31536000,2435.71,-1,-1,,,,
48102011,542532,466907,5,31536000,976.75,-1,-1,,,,
48102012,542532,589943,5,31536000,4485.33,-1,-1,,,,
48102014,542532,523927,5,31536000,3562.81,-1,-1,,,,
52818190,550283,616315,5,31536000,1042.16,-1,-1,,,,
52818192,550283,642329,5,31536000,732.54,-1,-1,,,,
52818193,550283,503701,5,31536000,938.27,-1,-1,,,,
52818194,550283,632961,5,31536000,256.4,-1,-1,,,,
52818197,550283,473173,5,31536000,576.86,-1,-1,,,,
52818198,550283,621924,5,31536000,144.59,-1,-1,,,,
52818217,550283,595581,5,31536000,441.61,-1,-1,,,,
52818218,550283,589943,5,31536000,111.34,-1,-1,,,,
52818234,550283,630626,5,31536000,1415.04,-1,-1,,,,
52818235,550283,567195,5,31536000,1670.89,-1,-1,,,,
52818237,550283,527449,5,31536000,75.15,-1,-1,,,,
52818238,550283,459381,5,31536000,55.63,-1,-1,,,,
52818239,550283,595298,5,31536000,160.18,-1,-1,,,,
52818241,550283,466907,5,31536000,471.22,-1,-1,,,,
52818244,550283,577992,5,31536000,2125.56,-1,-1,,,,
53298722,551134,625756,6,30844800,1.0,1,3,-29.0,-13.0,-25.0,-111.0
53298723,551134,625756,6,8985600,4.0,1,3,-29.0,-13.0,-25.0,-111.0
53298737,551134,657173,6,26092800,-1.0,0,1,33.0,-41.0,-29.0,-13.0
53298738,551134,616453,6,31536000,0.0,1,5,-29.0,-13.0,22.0,156.0
53298743,551134,616453,6,26697600,4.0,1,5,-29.0,-13.0,22.0,156.0
53298744,551134,625756,6,26870400,2.0,1,3,-29.0,-13.0,-25.0,-111.0
53298747,551134,561157,6,7862400,2.0,1,0,-29.0,-13.0,33.0,-41.0
53298749,551134,499467,6,29116800,0.0,1,2,-29.0,-13.0,-22.0,91.0
53298750,551134,657173,6,28857600,-1.0,4,1,1.0,-165.0,-29.0,-13.0
53298751,551134,616453,6,10713600,2.0,4,5,1.0,-165.0,22.0,156.0
53298753,551134,625756,6,13651200,1.0,1,3,-29.0,-13.0,-25.0,-111.0
53298760,551134,561157,6,7862400,2.0,1,0,-29.0,-13.0,33.0,-41.0
53298993,551134,625756,6,8985600,4.0,1,3,-29.0,-13.0,-25.0,-111.0
53299105,551134,625756,6,30844800,1.0,1,3,-29.0,-13.0,-25.0,-111.0
53299538,551134,657173,6,28857600,-1.0,4,1,1.0,-165.0,-29.0,-13.0
53299549,551134,657173,6,26092800,-1.0,0,1,33.0,-41.0,-29.0,-13.0
53299554,551134,616453,6,31536000,0.0,1,5,-29.0,-13.0,22.0,156.0
53299559,551134,499467,6,29116800,0.0,1,2,-29.0,-13.0,-22.0,91.0
53299561,551134,616453,6,26697600,4.0,1,5,-29.0,-13.0,22.0,156.0
53299569,551134,625756,6,13651200,1.0,1,3,-29.0,-13.0,-25.0,-111.0
53299576,551134,616453,6,10713600,2.0,4,5,1.0,-165.0,22.0,156.0
53299581,551134,561157,6,7862400,2.0,1,0,-29.0,-13.0,33.0,-41.0
53299584,551134,625756,6,26870400,2.0,1,3,-29.0,-13.0,-25.0,-111.0
53299591,551134,625756,6,8985600,4.0,1,3,-29.0,-13.0,-25.0,-111.0
53299638,551134,625756,6,30844800,1.0,1,3,-29.0,-13.0,-25.0,-111.0
53299656,551134,499467,6,29116800,0.0,1,2,-29.0,-13.0,-22.0,91.0
53299955,551134,616453,6,10713600,2.0,4,5,1.0,-165.0,22.0,156.0
53299990,551134,625756,6,13651200,1.0,1,3,-29.0,-13.0,-25.0,-111.0
53300045,551134,616453,6,26697600,4.0,1,5,-29.0,-13.0,22.0,156.0
53300123,551134,625756,6,26870400,2.0,1,3,-29.0,-13.0,-25.0,-111.0
53300201,551134,640784,5,31536000,71.07,-1,-1,,,,
53300203,551134,503218,5,31536000,373.95,-1,-1,,,,
53300204,551134,536346,5,31536000,933.53,-1,-1,,,,
53300205,551134,567195,5,31536000,970.59,-1,-1,,,,
53300207,551134,527449,5,31536000,503.1,-1,-1,,,,
53300208,551134,459381,5,31536000,658.67,-1,-1,,,,
53300209,551134,595298,5,31536000,1609.11,-1,-1,,,,
53300210,551134,466907,5,31536000,418.16,-1,-1,,,,
53300212,551134,523927,5,31536000,2202.29,-1,-1,,,,
53300235,551134,616453,6,31536000,0.0,1,5,-29.0,-13.0,22.0,156.0
53300244,551134,580426,5,31536000,329.81,-1,-1,,,,
53300364,551134,595581,5,31536000,585.66,-1,-1,,,,
53300365,551134,503701,5,31536000,921.16,-1,-1,,,,
53300420,551134,657173,6,26092800,-1.0,0,1,33.0,-41.0,-29.0,-13.0
53300450,551134,657173,6,28857600,-1.0,4,1,1.0,-165.0,-29.0,-13.0
53300482,551134,642329,5,31536000,476.31,-1,-1,,,,
53300514,551134,571970,5,31536000,4.25,-1,-1,,,,
53300515,551134,644226,5,31536000,780.03,-1,-1,,,,
53300517,551134,632961,5,31536000,530.39,-1,-1,,,,
53300518,551134,473173,5,31536000,3143.71,-1,-1,,,,
53300519,551134,620120,5,31536000,1309.35,-1,-1,,,,
53300520,551134,575030,5,31536000,3654.74,-1,-1,,,,
53300521,551134,621924,5,31536000,495.19,-1,-1,,,,
53300783,551134,625756,6,13651200,1.0,1,3,-29.0,-13.0,-25.0,-111.0
53300795,551134,616453,6,10713600,2.0,4,5,1.0,-165.0,22.0,156.0
53300811,551134,561157,6,7862400,2.0,1,0,-29.0,-13.0,33.0,-41.0
53300824,551134,625756,6,30844800,1.0,1,3,-29.0,-13.0,-25.0,-111.0
53300826,551134,625756,6,8985600,4.0,1,3,-29.0,-13.0,-25.0,-111.0
53300828,551134,657173,6,26092800,-1.0,0,1,33.0,-41.0,-29.0,-13.0
53300829,551134,657173,6,28857600,-1.0,4,1,1.0,-165.0,-29.0,-13.0
53300832,551134,499467,6,29116800,0.0,1,2,-29.0,-13.0,-22.0,91.0
53300835,551134,616453,6,26697600,4.0,1,5,-29.0,-13.0,22.0,156.0
53300838,551134,625756,6,26870400,2.0,1,3,-29.0,-13.0,-25.0,-111.0
53300839,551134,616453,6,31536000,0.0,1,5,-29.0,-13.0,22.0,156.0
53301411,551134,625756,6,30844800,1.0,1,3,-29.0,-13.0,-25.0,-111.0
53301412,551134,625756,6,8985600,4.0,1,3,-29.0,-13.0,-25.0,-111.0
53301414,551134,616453,6,31536000,0.0,1,5,-29.0,-13.0,22.0,156.0
53301418,551134,657173,6,26092800,-1.0,0,1,33.0,-41.0,-29.0,-13.0
53301424,551134,657173,6,28857600,-1.0,4,1,1.0,-165.0,-29.0,-13.0
53301425,551134,616453,6,26697600,4.0,1,5,-29.0,-13.0,22.0,156.0
53301426,551134,625756,6,26870400,2.0,1,3,-29.0,-13.0,-25.0,-111.0
53301427,551134,561157,6,7862400,2.0,1,0,-29.0,-13.0,33.0,-41.0
53301428,551134,616453,6,10713600,2.0,4,5,1.0,-165.0,22.0,156.0
53301432,551134,625756,6,13651200,1.0,1,3,-29.0,-13.0,-25.0,-111.0
53301437,551134,499467,6,29116800,0.0,1,2,-29.0,-13.0,-22.0,91.0
54465041,552988,503593,5,31536000,59007.4,-1,-1,,,,
54467073,552988,510385,5,31536000,11385.0,-1,-1,,,,
54467991,552988,551134,5,31536000,8123.61,-1,-1,,,,
54469929,552988,542532,5,31536000,38714.9,-1,-1,,,,
54472271,552988,585522,5,31536000,81902.7,-1,-1,,,,
54473301,552988,499365,5,31536000,63856.8,-1,-1,,,,
54474376,552988,567078,5,31536000,5231.89,-1,-1,,,,
54478136,552988,519334,5,31536000,29081.3,-1,-1,,,,
54481573,552988,577873,5,31536000,8771.77,-1,-1,,,,
54489187,552988,529484,5,31536000,16540.1,-1,-1,,,,
54495156,552988,628896,5,31536000,12687.0,-1,-1,,,,
54497405,552988,496592,5,31536000,17350.1,-1,-1,,,,
54506021,552988,626542,5,31536000,18659.8,-1,-1,,,,
54513723,552988,511320,5,31536000,30013.8,-1,-1,,,,
54523146,552988,594989,5,31536000,52878.3,-1,-1,,,,
54525922,552988,600971,5,31536000,55373.3,-1,-1,,,,
54532585,552988,509512,5,31536000,4519.89,-1,-1,,,,
54535565,552988,571105,5,31536000,17808.1,-1,-1,,,,
54538215,552988,568841,5,31536000,9286.47,-1,-1,,,,
54540392,552988,555341,5,31536000,2996.32,-1,-1,,,,
54541514,552988,524464,5,31536000,8598.21,-1,-1,,,,
54554580,552988,550283,5,31536000,2092.81,-1,-1,,,,
54561406,552988,503648,5,31536000,113757.0,-1,-1,,,,
56034312,555341,616453,6,24192000,3.0,1,5,-29.0,-13.0,22.0,156.0
56034316,555341,509607,6,2246400,1.0,1,4,-29.0,-13.0,1.0,-165.0
56034320,555341,509607,6,20304000,3.0,1,4,-29.0,-13.0,1.0,-165.0
56035940,555341,509607,6,20304000,3.0,1,4,-29.0,-13.0,1.0,-165.0
56035941,555341,509607,6,2246400,1.0,1,4,-29.0,-13.0,1.0,-165.0
56035943,555341,616453,6,24192000,3.0,1,5,-29.0,-13.0,22.0,156.0
56036269,555341,509607,6,20304000,3.0,1,4,-29.0,-13.0,1.0,-165.0
56036271,555341,509607,6,2246400,1.0,1,4,-29.0,-13.0,1.0,-165.0
56036292,555341,616453,6,24192000,3.0,1,5,-29.0,-13.0,22.0,156.0
56036940,555341,509607,6,20304000,3.0,1,4,-29.0,-13.0,1.0,-165.0
56036957,555341,509607,6,2246400,1.0,1,4,-29.0,-13.0,1.0,-165.0
56037468,555341,620120,5,31536000,94.66,-1,-1,,,,
56037472,555341,575030,5,31536000,3213.62,-1,-1,,,,
56037473,555341,621924,5,31536000,438.02,-1,-1,,,,
56037484,555341,473173,5,31536000,403.94,-1,-1,,,,
56037491,555341,503701,5,31536000,365.96,-1,-1,,,,
56037494,555341,571970,5,31536000,5.4,-1,-1,,,,
56037495,555341,632961,5,31536000,441.52,-1,-1,,,,
56037583,555341,589943,5,31536000,251.78,-1,-1,,,,
56037585,555341,577992,5,31536000,728.56,-1,-1,,,,
56037586,555341,537281,5,31536000,190.95,-1,-1,,,,
56037589,555341,595581,5,31536000,202.04,-1,-1,,,,
56037590,555341,616315,5,31536000,302.85,-1,-1,,,,
56037591,555341,642329,5,31536000,194.96,-1,-1,,,,
56037606,555341,630626,5,31536000,1550.7,-1,-1,,,,
56037607,555341,527449,5,31536000,55.78,-1,-1,,,,
56037608,555341,459381,5,31536000,218.17,-1,-1,,,,
56037609,555341,595298,5,31536000,1899.68,-1,-1,,,,
56037613,555341,466907,5,31536000,43.64,-1,-1,,,,
56037617,555341,616453,6,24192000,3.0,1,5,-29.0,-13.0,22.0,156.0
56038186,555341,509607,6,20304000,3.0,1,4,-29.0,-13.0,1.0,-165.0
56038449,555341,509607,6,2246400,1.0,1,4,-29.0,-13.0,1.0,-165.0
56038457,555341,616453,6,24192000,3.0,1,5,-29.0,-13.0,22.0,156.0
65760194,567078,620120,5,31536000,857.77,-1,-1,,,,
65760204,567078,483999,2,15293687,7.0,-1,-1,,,,
65760224,567078,483999,2,793970,6761.0,-1,-1,,,,
65760231,567078,483999,2,22899924,1585.0,-1,-1,,,,
65760252,567078,568871,3,2608595,459.0,-1,-1,,,,
65760270,567078,541752,3,435076,205.0,-1,-1,,,,
65760272,567078,483999,2,19894727,372.0,-1,-1,,,,
65760279,567078,520837,2,23331646,879.0,-1,-1,,,,
65760287,567078,481520,3,28030576,184.0,-1,-1,,,,
65760290,567078,492039,3,18767574,1.0,-1,-1,,,,
65760294,567078,484172,2,3997085,98.0,-1,-1,,,,
65760302,567078,536346,5,31536000,693.17,-1,-1,,,,
65760325,567078,605235,3,20696579,1.0,-1,-1,,,,
65760327,567078,567195,5,31536000,649.94,-1,-1,,,,
65760334,567078,475970,3,7616539,1176.0,-1,-1,,,,
65760368,567078,483999,2,15399024,212.0,-1,-1,,,,
65760401,567078,595581,5,31536000,364.7,-1,-1,,,,
65760409,567078,580426,5,31536000,241.68,-1,-1,,,,
65760453,567078,623292,3,30679573,154.0,-1,-1,,,,
65760462,567078,483999,2,25935509,130.0,-1,-1,,,,
65760472,567078,483999,2,11247862,291.0,-1,-1,,,,
65760489,567078,527449,5,31536000,113.41,-1,-1,,,,
65760500,567078,483999,2,7002017,1108.0,-1,-1,,,,
65760506,567078,483999,2,10399686,122.0,-1,-1,,,,
65760517,567078,644226,5,31536000,299.38,-1,-1,,,,
65760527,567078,473173,5,31536000,490.7,-1,-1,,,,
65760529,567078,483999,2,23245016,121.0,-1,-1,,,,
65760531,567078,483999,2,8847957,1007.0,-1,-1,,,,
65760543,567078,550492,3,5631577,116.0,-1,-1,,,,
65760545,567078,631478,3,6077648,1740.0,-1,-1,,,,
65760580,567078,657260,3,19571763,2268.0,-1,-1,,,,
65760588,567078,483999,2,2941252,94.0,-1,-1,,,,
65760593,567078,590595,3,8703010,91.0,-1,-1,,,,
65760656,567078,483999,3,30446445,24.0,-1,-1,,,,
65760663,567078,597727,2,8592496,42.0,-1,-1,,,,
65760680,567078,579218,3,16615053,227.0,-1,-1,,,,
65760687,567078,536981,3,20677346,157.0,-1,-1,,,,
65760696,567078,547205,3,20568270,2.0,-1,-1,,,,
65760699,567078,456806,3,6484006,58.0,-1,-1,,,,
65760700,567078,611220,3,2164825,186.0,-1,-1,,,,
65760706,567078,483999,2,1995005,126.0,-1,-1,,,,
65760728,567078,503218,5,31536000,562.7,-1,-1,,,,
65760738,567078,483193,2,7577295,327.0,-1,-1,,,,
65760757,567078,483999,2,12303166,89.0,-1,-1,,,,
65760768,567078,616315,5,31536000,1169.75,-1,-1,,,,
65760780,567078,492039,3,6151555,1.0,-1,-1,,,,
65760804,567078,483999,2,11148505,327.0,-1,-1,,,,
65760808,567078,568506,3,28362634,291.0,-1,-1,,,,
65760813,567078,652259,3,19827058,1.0,-1,-1,,,,
65760830,567078,597727,2,10807843,259.0,-1,-1,,,,
65760832,567078,532979,2,19539449,157.0,-1,-1,,,,
65760889,567078,642329,5,31536000,747.47,-1,-1,,,,
65760895,567078,641131,3,31374345,331.0,-1,-1,,,,
65760896,567078,483999,2,11691388,1452.0,-1,-1,,,,
65760900,567078,509816,3,28780936,219.0,-1,-1,,,,
65760908,567078,537704,3,10740060,379.0,-1,-1,,,,
65760910,567078,550466,3,11414059,10.0,-1,-1,,,,
65760920,567078,483999,2,22827269,37.0,-1,-1,,,,
65760940,567078,613410,3,19015485,857.0,-1,-1,,,,
65760948,567078,483999,2,8640759,349.0,-1,-1,,,,
65760970,567078,478548,3,30477639,1.0,-1,-1,,,,
65760977,567078,523927,5,31536000,677.61,-1,-1,,,,
65761005,567078,583906,3,26023007,8.0,-1,-1,,,,
65761018,567078,483999,2,10112702,194.0,-1,-1,,,,
65761027,567078,636964,3,1555251,32.0,-1,-1,,,,
65761035,567078,483999,2,10297205,151.0,-1,-1,,,,
65761063,567078,483999,2,12714878,443.0,-1,-1,,,,
65761095,567078,483999,2,21797610,399.0,-1,-1,,,,
65761101,567078,549891,3,1681939,542.0,-1,-1,,,,
65761125,567078,529694,3,30672032,32.0,-1,-1,,,,
65761143,567078,620947,3,25502874,727.0,-1,-1,,,,
65761145,567078,650934,3,2794328,39.0,-1,-1,,,,
65761158,567078,479691,3,19620390,759.0,-1,-1,,,,
65761192,567078,492039,3,8297336,1.0,-1,-1,,,,
65761200,567078,532852,2,7092034,203.0,-1,-1,,,,
65761217,567078,597461,3,14489276,459.0,-1,-1,,,,
65761228,567078,483999,2,14180657,359.0,-1,-1,,,,
65761238,567078,520837,2,16630605,767.0,-1,-1,,,,
65761242,567078,483999,2,631338,48.0,-1,-1,,,,
65761248,567078,483193,3,16246542,25.0,-1,-1,,,,
65761262,567078,483999,2,17115394,2680.0,-1,-1,,,,
65761309,567078,467222,3,17393991,1136.0,-1,-1,,,,
65761313,567078,655556,3,22127069,60.0,-1,-1,,,,
65761326,567078,516046,3,14257359,1151.0,-1,-1,,,,
65761351,567078,483999,2,8830897,114.0,-1,-1,,,,
65761355,567078,483999,2,30796049,295.0,-1,-1,,,,
65761365,567078,537281,5,31536000,348.57,-1,-1,,,,
65761403,567078,576493,3,6679230,4484.0,-1,-1,,,,
65761407,567078,544444,3,3122699,158.0,-1,-1,,,,
65761427,567078,483999,2,20499918,58.0,-1,-1,,,,
65761432,567078,483999,2,26529483,242.0,-1,-1,,,,
65761499,567078,499177,3,13366034,1.0,-1,-1,,,,
65761507,567078,483999,2,15061204,908.0,-1,-1,,,,
65761513,567078,637454,3,29682176,233.0,-1,-1,,,,
65761515,567078,483999,2,18154588,155.0,-1,-1,,,,
65761524,567078,483999,2,29470091,27.0,-1,-1,,,,
65761527,567078,573036,3,17627811,60.0,-1,-1,,,,
65761540,567078,645895,3,20487410,557.0,-1,-1,,,,
65761566,567078,490745,3,8735225,12.0,-1,-1,,,,
65761569,567078,532758,3,3650223,414.0,-1,-1,,,,
65761572,567078,483999,2,25920733,756.0,-1,-1,,,,
65761588,567078,483999,2,9509409,165.0,-1,-1,,,,
65761602,567078,590595,3,5408114,877.0,-1,-1,,,,
65761624,567078,483999,2,14629002,489.0,-1,-1,,,,
65761640,567078,461577,3,23157852,162.0,-1,-1,,,,
65761643,567078,483999,2,6103239,28.0,-1,-1,,,,
65761648,567078,483999,2,24404449,1.0,-1,-1,,,,
65761654,567078,466907,5,31536000,28.56,-1,-1,,,,
65761669,567078,483999,3,9953168,31.0,-1,-1,,,,
65761693,567078,483999,2,6843983,244.0,-1,-1,,,,
65761711,567078,571791,2,30337246,1.0,-1,-1,,,,
65761713,567078,459381,5,31536000,231.61,-1,-1,,,,
65761759,567078,552748,3,2274154,1424.0,-1,-1,,,,
65761767,567078,462923,3,21639026,1.0,-1,-1,,,,
65761779,567078,483999,2,7530853,209.0,-1,-1,,,,
65761834,567078,516054,3,11430763,90.0,-1,-1,,,,
65761838,567078,595298,5,31536000,1020.58,-1,-1,,,,
65761844,567078,489532,3,18341788,32.0,-1,-1,,,,
65761852,567078,571704,3,7363749,707.0,-1,-1,,,,
65761877,567078,607429,3,16806035,390.0,-1,-1,,,,
65761879,567078,483999,2,18886002,385.0,-1,-1,,,,
65761881,567078,577992,5,31536000,2407.88,-1,-1,,,,
65761882,567078,461577,3,28219249,52.0,-1,-1,,,,
65761887,567078,641131,3,29121159,96.0,-1,-1,,,,
65761891,567078,652259,3,22601218,1.0,-1,-1,,,,
65761917,567078,483999,2,28198038,46.0,-1,-1,,,,
65761943,567078,466410,3,8569453,1.0,-1,-1,,,,
65761967,567078,483999,2,21955254,108.0,-1,-1,,,,
65761968,567078,483999,3,3937193,28.0,-1,-1,,,,
65761979,567078,497428,3,2289747,1.0,-1,-1,,,,
65762012,567078,564755,3,4007173,7538.0,-1,-1,,,,
65762013,567078,606730,5,31536000,452.93,-1,-1,,,,
65762019,567078,483999,2,9332002,4.0,-1,-1,,,,
65762036,567078,597727,2,9863539,779.0,-1,-1,,,,
65762046,567078,631478,3,20628035,1585.0,-1,-1,,,,
65762051,567078,483999,2,25762857,137.0,-1,-1,,,,
65762070,567078,483999,2,10887236,566.0,-1,-1,,,,
65762073,567078,646245,3,9521694,1257.0,-1,-1,,,,
65762099,567078,544415,3,17515546,42.0,-1,-1,,,,
65762100,567078,589943,5,31536000,966.79,-1,-1,,,,
65762105,567078,483999,2,22489857,501.0,-1,-1,,,,
65762109,567078,483999,2,15011056,118.0,-1,-1,,,,
65762111,567078,625954,2,13136818,475.0,-1,-1,,,,
65762114,567078,657260,2,6406236,14.0,-1,-1,,,,
65762116,567078,483999,2,789138,763.0,-1,-1,,,,
65762124,567078,646684,3,30809721,100.0,-1,-1,,,,
65762131,567078,483999,2,8742265,19.0,-1,-1,,,,
66953188,568841,621924,5,31536000,361.97,-1,-1,,,,
66953218,568841,503701,5,31536000,334.66,-1,-1,,,,
66953220,568841,642329,5,31536000,183.23,-1,-1,,,,
66953221,568841,616315,5,31536000,1597.35,-1,-1,,,,
66953222,568841,595581,5,31536000,351.1,-1,-1,,,,
66953224,568841,580426,5,31536000,431.94,-1,-1,,,,
66953226,568841,523927,5,31536000,1104.4,-1,-1,,,,
66953228,568841,537281,5,31536000,41.16,-1,-1,,,,
66953230,568841,577992,5,31536000,828.99,-1,-1,,,,
66953232,568841,589943,5,31536000,991.91,-1,-1,,,,
66953233,568841,571970,5,31536000,36.55,-1,-1,,,,
66953235,568841,644226,5,31536000,295.07,-1,-1,,,,
66953237,568841,575030,5,31536000,5649.37,-1,-1,,,,
66953238,568841,620120,5,31536000,410.64,-1,-1,,,,
66953239,568841,473173,5,31536000,597.57,-1,-1,,,,
66953252,568841,632961,5,31536000,106.36,-1,-1,,,,
66953331,568841,640784,5,31536000,400.57,-1,-1,,,,
66953445,568841,466907,5,31536000,346.67,-1,-1,,,,
66953448,568841,595298,5,31536000,1577.52,-1,-1,,,,
66953449,568841,459381,5,31536000,179.86,-1,-1,,,,
66953454,568841,527449,5,31536000,161.99,-1,-1,,,,
66953455,568841,567195,5,31536000,2158.71,-1,-1,,,,
66953456,568841,520660,5,31536000,2156.96,-1,-1,,,,
66953457,568841,536346,5,31536000,942.82,-1,-1,,,,
68330468,571105,575030,5,31536000,3327.09,-1,-1,,,,
68330510,571105,459381,5,31536000,146.81,-1,-1,,,,
68330518,571105,595298,5,31536000,366.47,-1,-1,,,,
68330521,571105,466907,5,31536000,335.21,-1,-1,,,,
68330523,571105,589943,5,31536000,1915.66,-1,-1,,,,
68330533,571105,523927,5,31536000,1059.76,-1,-1,,,,
68330536,571105,595581,5,31536000,1100.9,-1,-1,,,,
68330537,571105,616315,5,31536000,1093.74,-1,-1,,,,
68330538,571105,577992,5,31536000,1448.84,-1,-1,,,,
68330545,571105,620120,5,31536000,1779.06,-1,-1,,,,
68330548,571105,473173,5,31536000,199.29,-1,-1,,,,
68330554,571105,632961,5,31536000,138.28,-1,-1,,,,
68330557,571105,571970,5,31536000,127.73,-1,-1,,,,
68330559,571105,642329,5,31536000,438.92,-1,-1,,,,
68330560,571105,527449,5,31536000,57.09,-1,-1,,,,
68330567,571105,630626,5,31536000,2043.92,-1,-1,,,,
68330572,571105,503701,5,31536000,630.56,-1,-1,,,,
68330573,571105,567195,5,31536000,317.64,-1,-1,,,,
73152551,577873,537281,5,31536000,237.65,-1,-1,,,,
73152556,577873,595581,5,31536000,629.5,-1,-1,,,,
73152569,577873,580426,5,31536000,10.71,-1,-1,,,,
73152576,577873,606730,5,31536000,359.23,-1,-1,,,,
73152584,577873,466907,5,31536000,303.99,-1,-1,,,,
73152631,577873,459381,5,31536000,502.1,-1,-1,,,,
73152637,577873,595298,5,31536000,723.36,-1,-1,,,,
73152710,577873,644226,5,31536000,1419.56,-1,-1,,,,
73152718,577873,571970,5,31536000,80.35,-1,-1,,,,
73152726,577873,642329,5,31536000,1511.46,-1,-1,,,,
73152729,577873,632961,5,31536000,10.7,-1,-1,,,,
73152730,577873,473173,5,31536000,606.38,-1,-1,,,,
73152755,577873,575030,5,31536000,867.38,-1,-1,,,,
73152944,577873,567195,5,31536000,1550.1,-1,-1,,,,
73152951,577873,527449,5,31536000,250.61,-1,-1,,,,
73152964,577873,536346,5,31536000,428.99,-1,-1,,,,
73152971,577873,503218,5,31536000,371.18,-1,-1,,,,
77919626,585522,561157,6,15811200,-1.0,1,0,-29.0,-13.0,33.0,-41.0
77919629,585522,561157,6,9849600,-1.0,5,0,22.0,156.0,33.0,-41.0
77919630,585522,509607,6,777600,5.0,3,4,-25.0,-111.0,1.0,-165.0
77919646,585522,616453,6,9676800,2.0,0,5,33.0,-41.0,22.0,156.0
77919716,585522,630626,5,31536000,17633.0,-1,-1,,,,
77919717,585522,567195,5,31536000,14268.7,-1,-1,,,,
77919718,585522,527449,5,31536000,1112.59,-1,-1,,,,
77919719,585522,459381,5,31536000,510.02,-1,-1,,,,
77919720,585522,595298,5,31536000,2513.65,-1,-1,,,,
77919721,585522,466907,5,31536000,2809.19,-1,-1,,,,
77919722,585522,606730,5,31536000,1182.21,-1,-1,,,,
77919723,585522,589943,5,31536000,16601.2,-1,-1,,,,
77919725,585522,577992,5,31536000,24.41,-1,-1,,,,
77919726,585522,537281,5,31536000,2165.69,-1,-1,,,,
77919727,585522,580426,5,31536000,3167.99,-1,-1,,,,
77919729,585522,616315,5,31536000,2604.79,-1,-1,,,,
77919730,585522,642329,5,31536000,2300.73,-1,-1,,,,
77919731,585522,503701,5,31536000,530.9,-1,-1,,,,
77919732,585522,571970,5,31536000,449.87,-1,-1,,,,
77919733,585522,632961,5,31536000,897.04,-1,-1,,,,
77919734,585522,473173,5,31536000,1369.57,-1,-1,,,,
77919735,585522,620120,5,31536000,12027.8,-1,-1,,,,
77919736,585522,575030,5,31536000,19318.3,-1,-1,,,,
77919738,585522,621924,5,31536000,3600.99,-1,-1,,,,
77919977,585522,561157,6,15811200,-1.0,1,0,-29.0,-13.0,33.0,-41.0
77919978,585522,561157,6,9849600,-1.0,5,0,22.0,156.0,33.0,-41.0
77919979,585522,509607,6,777600,5.0,3,4,-25.0,-111.0,1.0,-165.0
77919980,585522,616453,6,9676800,2.0,0,5,33.0,-41.0,22.0,156.0
77919996,585522,616453,6,9676800,2.0,0,5,33.0,-41.0,22.0,156.0
77919997,585522,509607,6,777600,5.0,3,4,-25.0,-111.0,1.0,-165.0
77919998,585522,561157,6,9849600,-1.0,5,0,22.0,156.0,33.0,-41.0
77919999,585522,561157,6,15811200,-1.0,1,0,-29.0,-13.0,33.0,-41.0
77920016,585522,561157,6,15811200,-1.0,1,0,-29.0,-13.0,33.0,-41.0
77920018,585522,561157,6,9849600,-1.0,5,0,22.0,156.0,33.0,-41.0
77920019,585522,616453,6,9676800,2.0,0,5,33.0,-41.0,22.0,156.0
77920026,585522,509607,6,777600,5.0,3,4,-25.0,-111.0,1.0,-165.0
77920041,585522,561157,6,9849600,-1.0,5,0,22.0,156.0,33.0,-41.0
77920042,585522,509607,6,777600,5.0,3,4,-25.0,-111.0,1.0,-165.0
77920066,585522,616453,6,9676800,2.0,0,5,33.0,-41.0,22.0,156.0
77920067,585522,561157,6,15811200,-1.0,1,0,-29.0,-13.0,33.0,-41.0
83642719,594989,520660,5,31536000,4782.07,-1,-1,,,,
83642765,594989,575030,5,31536000,8847.91,-1,-1,,,,
83642792,594989,527449,5,31536000,1031.56,-1,-1,,,,
83642807,594989,459381,5,31536000,437.05,-1,-1,,,,
83642815,594989,536346,5,31536000,2094.63,-1,-1,,,,
83642834,594989,640784,5,31536000,806.05,-1,-1,,,,
83642838,594989,503218,5,31536000,834.72,-1,-1,,,,
83642845,594989,567195,5,31536000,1131.36,-1,-1,,,,
83643032,594989,644226,5,31536000,2536.0,-1,-1,,,,
83643035,594989,632961,5,31536000,124.21,-1,-1,,,,
83643144,594989,620120,5,31536000,9454.34,-1,-1,,,,
83643153,594989,473173,5,31536000,396.27,-1,-1,,,,
83643442,594989,589943,5,31536000,1649.11,-1,-1,,,,
83643445,594989,577992,5,31536000,2363.55,-1,-1,,,,
83643447,594989,537281,5,31536000,1008.54,-1,-1,,,,
83643541,594989,595298,5,31536000,2201.86,-1,-1,,,,
83643596,594989,466907,5,31536000,829.96,-1,-1,,,,
83643644,594989,571970,5,31536000,101.56,-1,-1,,,,
83643796,594989,523927,5,31536000,6214.07,-1,-1,,,,
83643807,594989,595581,5,31536000,1108.48,-1,-1,,,,
83643815,594989,616315,5,31536000,2822.57,-1,-1,,,,
83643863,594989,580426,5,31536000,272.95,-1,-1,,,,
83654835,594989,497725,4,14054400,0.1,-1,-1,,,,
83656039,594989,523911,4,-159177600,0.05,-1,-1,,,,
88064295,600971,657173,6,15465600,5.0,4,1,1.0,-165.0,-29.0,-13.0
88064296,600971,499467,6,23587200,0.0,4,2,1.0,-165.0,-22.0,91.0
88064305,600971,530665,4,-656897782,0.25,-1,-1,,,,
88064307,600971,509607,6,1641600,-1.0,0,4,33.0,-41.0,1.0,-165.0
88064320,600971,579269,4,-685755382,0.166667,-1,-1,,,,
88064329,600971,657173,6,25401600,1.0,5,1,22.0,156.0,-29.0,-13.0
88064360,600971,657173,6,26006400,0.0,4,1,1.0,-165.0,-29.0,-13.0
88064382,600971,657173,6,25401600,1.0,5,1,22.0,156.0,-29.0,-13.0
88064384,600971,657173,6,26006400,0.0,4,1,1.0,-165.0,-29.0,-13.0
88064386,600971,499467,6,6307200,1.0,4,2,1.0,-165.0,-22.0,91.0
88064396,600971,657173,6,26006400,0.0,4,1,1.0,-165.0,-29.0,-13.0
88064399,600971,616453,6,19785600,1.0,4,5,1.0,-165.0,22.0,156.0
88064401,600971,625756,6,2505600,5.0,4,3,1.0,-165.0,-25.0,-111.0
88064402,600971,616453,6,19785600,1.0,4,5,1.0,-165.0,22.0,156.0
88064404,600971,657173,6,25401600,1.0,5,1,22.0,156.0,-29.0,-13.0
88064413,600971,499467,6,6307200,1.0,4,2,1.0,-165.0,-22.0,91.0
88064417,600971,499467,6,23587200,0.0,4,2,1.0,-165.0,-22.0,91.0
88064422,600971,657173,6,15465600,5.0,4,1,1.0,-165.0,-29.0,-13.0
88064423,600971,509607,6,1641600,-1.0,0,4,33.0,-41.0,1.0,-165.0
88064429,600971,625756,6,2505600,5.0,4,3,1.0,-165.0,-25.0,-111.0
88064430,600971,616453,6,24019200,3.0,0,5,33.0,-41.0,22.0,156.0
88064433,600971,625756,6,2505600,5.0,4,3,1.0,-165.0,-25.0,-111.0
88064435,600971,616453,6,24019200,3.0,0,5,33.0,-41.0,22.0,156.0
88064437,600971,499467,6,23587200,0.0,4,2,1.0,-165.0,-22.0,91.0
88064450,600971,509607,6,1641600,-1.0,0,4,33.0,-41.0,1.0,-165.0
88064452,600971,657173,6,15465600,5.0,4,1,1.0,-165.0,-29.0,-13.0
88064453,600971,499467,6,6307200,1.0,4,2,1.0,-165.0,-22.0,91.0
88064475,600971,616453,6,24019200,3.0,0,5,33.0,-41.0,22.0,156.0
88064523,600971,607498,4,-541121782,0.333333,-1,-1,,,,
88065107,600971,625756,6,2505600,5.0,4,3,1.0,-165.0,-25.0,-111.0
88065108,600971,616453,6,24019200,3.0,0,5,33.0,-41.0,22.0,156.0
88065109,600971,509607,6,1641600,-1.0,0,4,33.0,-41.0,1.0,-165.0
88065113,600971,657173,6,15465600,5.0,4,1,1.0,-165.0,-29.0,-13.0
88065114,600971,499467,6,23587200,0.0,4,2,1.0,-165.0,-22.0,91.0
88065292,600971,657173,6,26006400,0.0,4,1,1.0,-165.0,-29.0,-13.0
88065425,600971,657173,6,25401600,1.0,5,1,22.0,156.0,-29.0,-13.0
88065469,600971,499467,6,6307200,1.0,4,2,1.0,-165.0,-22.0,91.0
88065509,600971,616453,6,19785600,1.0,4,5,1.0,-165.0,22.0,156.0
88065820,600971,625756,6,2505600,5.0,4,3,1.0,-165.0,-25.0,-111.0
88065883,600971,616453,6,19785600,1.0,4,5,1.0,-165.0,22.0,156.0
88065944,600971,657173,6,25401600,1.0,5,1,22.0,156.0,-29.0,-13.0
88065951,600971,499467,6,6307200,1.0,4,2,1.0,-165.0,-22.0,91.0
88065956,600971,657173,6,26006400,0.0,4,1,1.0,-165.0,-29.0,-13.0
88065963,600971,499467,6,23587200,0.0,4,2,1.0,-165.0,-22.0,91.0
88066008,600971,657173,6,15465600,5.0,4,1,1.0,-165.0,-29.0,-13.0
88066009,600971,509607,6,1641600,-1.0,0,4,33.0,-41.0,1.0,-165.0
88066010,600971,616453,6,24019200,3.0,0,5,33.0,-41.0,22.0,156.0
88066348,600971,466907,5,31536000,1596.22,-1,-1,,,,
88066349,600971,595298,5,31536000,1123.89,-1,-1,,,,
88066351,600971,459381,5,31536000,284.24,-1,-1,,,,
88066352,600971,527449,5,31536000,295.36,-1,-1,,,,
88066354,600971,536346,5,31536000,3398.71,-1,-1,,,,
88066356,600971,630626,5,31536000,8745.63,-1,-1,,,,
88066440,600971,567195,5,31536000,6580.68,-1,-1,,,,
88066448,600971,606730,5,31536000,1623.57,-1,-1,,,,
88066497,600971,575030,5,31536000,15067.8,-1,-1,,,,
88066498,600971,620120,5,31536000,4387.13,-1,-1,,,,
88066499,600971,473173,5,31536000,5790.81,-1,-1,,,,
88066500,600971,463021,4,-508376182,0.25,-1,-1,,,,
88066501,600971,632961,5,31536000,398.49,-1,-1,,,,
88066503,600971,644226,5,31536000,3100.38,-1,-1,,,,
88066504,600971,503701,5,31536000,7684.84,-1,-1,,,,
88066505,600971,642329,5,31536000,614.86,-1,-1,,,,
88066507,600971,595581,5,31536000,1042.86,-1,-1,,,,
88066509,600971,523927,5,31536000,9264.65,-1,-1,,,,
88066510,600971,616453,6,19785600,1.0,4,5,1.0,-165.0,22.0,156.0
88066513,600971,577992,5,31536000,3862.58,-1,-1,,,,
88066515,600971,589943,5,31536000,348.06,-1,-1,,,,
88066518,600971,580426,5,31536000,385.94,-1,-1,,,,
100220322,620120,550283,5,31536000,122.56,-1,-1,,,,
100222115,620120,577873,5,31536000,238.9,-1,-1,,,,
100225177,620120,511320,5,31536000,1876.78,-1,-1,,,,
100237763,620120,542532,5,31536000,1388.76,-1,-1,,,,
104087638,626542,620120,5,31536000,2024.49,-1,-1,,,,
104087646,626542,473173,5,31536000,2661.51,-1,-1,,,,
104087679,626542,571970,5,31536000,48.47,-1,-1,,,,
104087682,626542,503701,5,31536000,3408.48,-1,-1,,,,
104087759,626542,621924,5,31536000,3346.06,-1,-1,,,,
104088203,626542,595581,5,31536000,2019.01,-1,-1,,,,
104088498,626542,466907,5,31536000,1473.56,-1,-1,,,,
104088501,626542,595298,5,31536000,5208.44,-1,-1,,,,
104088502,626542,459381,5,31536000,2370.45,-1,-1,,,,
104088510,626542,589943,5,31536000,2281.8,-1,-1,,,,
104088515,626542,580426,5,31536000,638.8,-1,-1,,,,
104088517,626542,523927,5,31536000,2362.59,-1,-1,,,,
104088529,626542,537281,5,31536000,624.45,-1,-1,,,,
104088557,626542,527449,5,31536000,698.23,-1,-1,,,,
104088561,626542,567195,5,31536000,3541.97,-1,-1,,,,
104088568,626542,630626,5,31536000,7418.05,-1,-1,,,,
105542684,628896,616453,6,22377600,3.0,3,5,-25.0,-111.0,22.0,156.0
105542927,628896,561157,6,19267200,2.0,3,0,-25.0,-111.0,33.0,-41.0
105543091,628896,616453,6,22809600,2.0,3,5,-25.0,-111.0,22.0,156.0
105543095,628896,561157,6,6652800,2.0,3,0,-25.0,-111.0,33.0,-41.0
105543099,628896,509607,6,1123200,0.0,3,4,-25.0,-111.0,1.0,-165.0
105543113,628896,616453,6,14256000,4.0,3,5,-25.0,-111.0,22.0,156.0
105543122,628896,561157,6,5875200,0.0,2,0,-22.0,91.0,33.0,-41.0
105543162,628896,616453,6,15292800,1.0,3,5,-25.0,-111.0,22.0,156.0
105543185,628896,561157,6,27302400,3.0,0,0,33.0,-41.0,33.0,-41.0
105543246,628896,625756,6,10281600,-1.0,4,3,1.0,-165.0,-25.0,-111.0
105543379,628896,616453,6,22377600,3.0,3,5,-25.0,-111.0,22.0,156.0
105543641,628896,561157,6,5875200,0.0,2,0,-22.0,91.0,33.0,-41.0
105543667,628896,561157,6,27302400,3.0,0,0,33.0,-41.0,33.0,-41.0
105543669,628896,561157,6,19267200,2.0,3,0,-25.0,-111.0,33.0,-41.0
105543734,628896,625756,6,10281600,-1.0,4,3,1.0,-165.0,-25.0,-111.0
105543789,628896,616453,6,22377600,3.0,3,5,-25.0,-111.0,22.0,156.0
105543790,628896,561157,6,5875200,0.0,2,0,-22.0,91.0,33.0,-41.0
105543791,628896,616453,6,14256000,4.0,3,5,-25.0,-111.0,22.0,156.0
105543793,628896,616453,6,22809600,2.0,3,5,-25.0,-111.0,22.0,156.0
105543795,628896,509607,6,1123200,0.0,3,4,-25.0,-111.0,1.0,-165.0
105543799,628896,616453,6,15292800,1.0,3,5,-25.0,-111.0,22.0,156.0
105543805,628896,561157,6,6652800,2.0,3,0,-25.0,-111.0,33.0,-41.0
105543879,628896,561157,6,19267200,2.0,3,0,-25.0,-111.0,33.0,-41.0
105543886,628896,509607,6,1123200,0.0,3,4,-25.0,-111.0,1.0,-165.0
105543888,628896,616453,6,22809600,2.0,3,5,-25.0,-111.0,22.0,156.0
105543895,628896,616453,6,14256000,4.0,3,5,-25.0,-111.0,22.0,156.0
105543905,628896,561157,6,27302400,3.0,0,0,33.0,-41.0,33.0,-41.0
105543910,628896,625756,6,10281600,-1.0,4,3,1.0,-165.0,-25.0,-111.0
105543915,628896,616453,6,15292800,1.0,3,5,-25.0,-111.0,22.0,156.0
105543921,628896,561157,6,6652800,2.0,3,0,-25.0,-111.0,33.0,-41.0
105544226,628896,595298,5,31536000,2876.38,-1,-1,,,,
105544240,628896,459381,5,31536000,727.77,-1,-1,,,,
105544256,628896,577992,5,31536000,827.53,-1,-1,,,,
105544258,628896,466907,5,31536000,74.99,-1,-1,,,,
105544292,628896,527449,5,31536000,223.76,-1,-1,,,,
105544305,628896,567195,5,31536000,1082.54,-1,-1,,,,
105544321,628896,503701,5,31536000,1857.51,-1,-1,,,,
105544347,628896,620120,5,31536000,26.04,-1,-1,,,,
105544349,628896,473173,5,31536000,838.06,-1,-1,,,,
105544352,628896,632961,5,31536000,132.03,-1,-1,,,,
105544355,628896,644226,5,31536000,385.95,-1,-1,,,,
105544367,628896,580426,5,31536000,349.85,-1,-1,,,,
105544383,628896,537281,5,31536000,235.75,-1,-1,,,,
105544385,628896,523927,5,31536000,764.42,-1,-1,,,,
105544389,628896,642329,5,31536000,257.44,-1,-1,,,,
105544400,628896,595581,5,31536000,1253.46,-1,-1,,,,
105545312,628896,536346,5,31536000,334.23,-1,-1,,,,
105545369,628896,640784,5,31536000,179.73,-1,-1,,,,
105545444,628896,616453,6,22377600,3.0,3,5,-25.0,-111.0,22.0,156.0
105545446,628896,561157,6,5875200,0.0,2,0,-22.0,91.0,33.0,-41.0
105545447,628896,616453,6,22809600,2.0,3,5,-25.0,-111.0,22.0,156.0
105545449,628896,509607,6,1123200,0.0,3,4,-25.0,-111.0,1.0,-165.0
105545450,628896,561157,6,6652800,2.0,3,0,-25.0,-111.0,33.0,-41.0
105545451,628896,616453,6,15292800,1.0,3,5,-25.0,-111.0,22.0,156.0
105545452,628896,625756,6,10281600,-1.0,4,3,1.0,-165.0,-25.0,-111.0
105545453,628896,561157,6,27302400,3.0,0,0,33.0,-41.0,33.0,-41.0
105545454,628896,561157,6,19267200,2.0,3,0,-25.0,-111.0,33.0,-41.0
105545456,628896,616453,6,14256000,4.0,3,5,-25.0,-111.0,22.0,156.0
105545752,628896,616453,6,22377600,3.0,3,5,-25.0,-111.0,22.0,156.0
105545778,628896,561157,6,5875200,0.0,2,0,-22.0,91.0,33.0,-41.0
105545883,628896,561157,6,6652800,2.0,3,0,-25.0,-111.0,33.0,-41.0
105545885,628896,616453,6,15292800,1.0,3,5,-25.0,-111.0,22.0,156.0
105545891,628896,625756,6,10281600,-1.0,4,3,1.0,-165.0,-25.0,-111.0
105545895,628896,561157,6,27302400,3.0,0,0,33.0,-41.0,33.0,-41.0
105545903,628896,616453,6,14256000,4.0,3,5,-25.0,-111.0,22.0,156.0
105545909,628896,616453,6,22809600,2.0,3,5,-25.0,-111.0,22.0,156.0
105545923,628896,509607,6,1123200,0.0,3,4,-25.0,-111.0,1.0,-165.0
105545958,628896,561157,6,19267200,2.0,3,0,-25.0,-111.0,33.0,-41.0
