,Source,Target,eType,Time,Weight,SourceLocation,TargetLocation,SourceLatitude,SourceLongitude,TargetLatitude,TargetLongitude
0,493129,589424,0,16688717,1.0,-1,-1,,,,
1,465899,646676,1,15728431,1.0,0,1,28.9875,-38.5153,-24.6892,-11.8534
2,465899,646676,0,5565918,1.0,-1,-1,,,,
3,589424,561362,1,1663403,1.0,1,1,-25.7706,-10.105,-27.5471,-13.3062
4,632227,490646,1,19365126,1.0,1,5,-25.9059,-17.9435,20.4362,155.824
5,490646,620590,1,26137979,1.0,5,4,20.4362,155.824,-1.26917,-166.349
6,589424,646676,0,19738095,1.0,-1,-1,,,,
7,508663,546801,0,8168263,1.0,-1,-1,,,,
8,508663,546801,0,16593345,1.0,-1,-1,,,,
9,508663,546801,0,2959064,1.0,-1,-1,,,,
10,508663,654814,0,19795705,1.0,-1,-1,,,,
11,600971,556394,0,7870614,1.0,-1,-1,,,,
12,646676,596526,1,20742607,1.0,1,2,-24.6892,-11.8534,-20.8582,87.5029
13,493129,546801,1,18583589,1.0,0,3,37.468,-39.2163,-24.6143,-111.258
14,620590,638904,1,9938917,1.0,4,4,-1.26917,-166.349,4.54867,-163.14
15,546801,596526,1,14785481,1.0,3,2,-24.6143,-111.258,-20.8582,87.5029
16,654814,597313,1,9111635,1.0,5,0,22.5087,154.279,41.8345,-42.689
17,465899,493129,1,28028175,1.0,0,0,28.9875,-38.5153,37.468,-39.2163
18,556394,508663,1,30881464,1.0,5,1,20.233,157.639,-25.0807,-15.4946
19,546801,493129,1,28772191,1.0,3,0,-24.6143,-111.258,37.468,-39.2163
20,465899,546801,0,23510897,1.0,-1,-1,,,,
21,546801,508663,1,30442496,1.0,3,1,-24.6143,-111.258,-25.0807,-15.4946
22,533666,646676,0,9166863,1.0,-1,-1,,,,
23,596526,638904,0,21959493,1.0,-1,-1,,,,
24,533666,516157,0,15856569,1.0,-1,-1,,,,
25,597313,465899,1,4169494,1.0,0,0,41.8345,-42.689,28.9875,-38.5153
26,508663,490646,0,19101921,1.0,-1,-1,,,,
27,508663,490646,0,4500972,1.0,-1,-1,,,,
28,638904,646676,0,7171222,1.0,-1,-1,,,,
29,638904,516157,0,5032846,1.0,-1,-1,,,,
30,596526,589424,0,12276019,1.0,-1,-1,,,,
31,490646,646676,1,650214,1.0,5,1,20.4362,155.824,-24.6892,-11.8534
32,646676,546801,0,15302723,1.0,-1,-1,,,,
33,561362,596526,1,29320690,1.0,1,2,-27.5471,-13.3062,-20.8582,87.5029
34,561362,596526,1,29316109,1.0,1,2,-27.5471,-13.3062,-20.8582,87.5029
35,596526,533666,1,21048957,1.0,2,2,-20.8582,87.5029,-22.214,86.0914
36,596526,533666,1,21085517,1.0,2,2,-20.8582,87.5029,-22.214,86.0914
37,546801,632227,1,2426907,1.0,3,1,-24.6143,-111.258,-25.9059,-17.9435
12916601,490646,642329,5,31536000,616.6,-1,-1,,,,
12916603,490646,503701,5,31536000,96.82,-1,-1,,,,
12916606,490646,571970,5,31536000,90.51,-1,-1,,,,
12916607,490646,644226,5,31536000,777.16,-1,-1,,,,
12916608,490646,632961,5,31536000,205.27,-1,-1,,,,
12916609,490646,473173,5,31536000,2027.75,-1,-1,,,,
12916619,490646,620120,5,31536000,3987.88,-1,-1,,,,
12916620,490646,621924,5,31536000,1365.63,-1,-1,,,,
12916753,490646,523927,5,31536000,2884.58,-1,-1,,,,
12916754,490646,580426,5,31536000,783.94,-1,-1,,,,
12916755,490646,595581,5,31536000,3174.83,-1,-1,,,,
12916759,490646,616315,5,31536000,1083.55,-1,-1,,,,
12916769,490646,577992,5,31536000,1322.75,-1,-1,,,,
12916770,490646,630626,5,31536000,2815.45,-1,-1,,,,
12916772,490646,536346,5,31536000,2149.27,-1,-1,,,,
12916774,490646,520660,5,31536000,1410.77,-1,-1,,,,
12916776,490646,567195,5,31536000,5035.03,-1,-1,,,,
12916777,490646,527449,5,31536000,142.52,-1,-1,,,,
12916781,490646,459381,5,31536000,254.29,-1,-1,,,,
12916782,490646,595298,5,31536000,2010.18,-1,-1,,,,
12916793,490646,466907,5,31536000,530.6,-1,-1,,,,
12916794,490646,589943,5,31536000,1272.32,-1,-1,,,,
14518484,493129,509607,6,19526400,0.0,0,4,33.0,-41.0,1.0,-165.0
14518542,493129,561157,6,23155200,-1.0,0,0,33.0,-41.0,33.0,-41.0
14519506,493129,509607,6,19526400,0.0,0,4,33.0,-41.0,1.0,-165.0
14519507,493129,561157,6,23155200,-1.0,0,0,33.0,-41.0,33.0,-41.0
14519582,493129,509607,6,19526400,0.0,0,4,33.0,-41.0,1.0,-165.0
14519583,493129,561157,6,23155200,-1.0,0,0,33.0,-41.0,33.0,-41.0
14519719,493129,509607,6,19526400,0.0,0,4,33.0,-41.0,1.0,-165.0
14519720,493129,561157,6,23155200,-1.0,0,0,33.0,-41.0,33.0,-41.0
14519749,493129,466907,5,31536000,3580.76,-1,-1,,,,
14519750,493129,595298,5,31536000,14058.1,-1,-1,,,,
14519751,493129,459381,5,31536000,1858.2,-1,-1,,,,
14519752,493129,527449,5,31536000,1736.67,-1,-1,,,,
14519754,493129,567195,5,31536000,9948.31,-1,-1,,,,
14519755,493129,536346,5,31536000,650.42,-1,-1,,,,
14519756,493129,589943,5,31536000,11077.9,-1,-1,,,,
14519757,493129,640784,5,31536000,1664.46,-1,-1,,,,
14519767,493129,577992,5,31536000,3779.64,-1,-1,,,,
14519769,493129,537281,5,31536000,117.27,-1,-1,,,,
14519777,493129,621924,5,31536000,5365.61,-1,-1,,,,
14519778,493129,575030,5,31536000,11734.9,-1,-1,,,,
14519779,493129,620120,5,31536000,17577.1,-1,-1,,,,
14519780,493129,473173,5,31536000,3107.02,-1,-1,,,,
14519781,493129,632961,5,31536000,1381.71,-1,-1,,,,
14519783,493129,644226,5,31536000,4156.99,-1,-1,,,,
14519784,493129,503701,5,31536000,15763.6,-1,-1,,,,
14519785,493129,616315,5,31536000,2347.59,-1,-1,,,,
14519786,493129,595581,5,31536000,2502.44,-1,-1,,,,
14519787,493129,580426,5,31536000,1471.39,-1,-1,,,,
14519788,493129,523927,5,31536000,3109.53,-1,-1,,,,
14520656,493129,509607,6,19526400,0.0,0,4,33.0,-41.0,1.0,-165.0
14520676,493129,561157,6,23155200,-1.0,0,0,33.0,-41.0,33.0,-41.0
24684264,508663,620120,5,31536000,305.6,-1,-1,,,,
24684265,508663,473173,5,31536000,64.86,-1,-1,,,,
24684269,508663,632961,5,31536000,82.03,-1,-1,,,,
24684271,508663,644226,5,31536000,63.46,-1,-1,,,,
24684274,508663,503701,5,31536000,2106.31,-1,-1,,,,
24684275,508663,595581,5,31536000,344.65,-1,-1,,,,
24684277,508663,580426,5,31536000,156.61,-1,-1,,,,
24684279,508663,575030,5,31536000,2283.38,-1,-1,,,,
24684290,508663,523927,5,31536000,1227.05,-1,-1,,,,
24684298,508663,621924,5,31536000,1377.88,-1,-1,,,,
24684301,508663,537281,5,31536000,133.84,-1,-1,,,,
24684304,508663,536346,5,31536000,412.58,-1,-1,,,,
24684324,508663,577992,5,31536000,865.86,-1,-1,,,,
24684325,508663,466907,5,31536000,572.4,-1,-1,,,,
24684326,508663,595298,5,31536000,581.99,-1,-1,,,,
24684327,508663,459381,5,31536000,199.41,-1,-1,,,,
24684328,508663,527449,5,31536000,217.03,-1,-1,,,,
24684337,508663,520660,5,31536000,1272.02,-1,-1,,,,
24684339,508663,567195,5,31536000,285.25,-1,-1,,,,
25541763,510031,646676,5,31536000,1543.51,-1,-1,,,,
25541920,510031,508663,5,31536000,1143.59,-1,-1,,,,
25553570,510031,516157,5,31536000,962.47,-1,-1,,,,
25558913,510031,620590,5,31536000,487.34,-1,-1,,,,
25560748,510031,561362,5,31536000,558.71,-1,-1,,,,
25564561,510031,638904,5,31536000,69.32,-1,-1,,,,
25580980,510031,490646,5,31536000,1088.58,-1,-1,,,,
25581003,510031,600971,5,31536000,3229.47,-1,-1,,,,
25581431,510031,589424,5,31536000,3199.81,-1,-1,,,,
25582933,510031,596526,5,31536000,1255.51,-1,-1,,,,
29492475,516157,571970,5,31536000,31.91,-1,-1,,,,
29492500,516157,644226,5,31536000,1148.04,-1,-1,,,,
29492515,516157,616315,5,31536000,467.46,-1,-1,,,,
29492523,516157,642329,5,31536000,637.56,-1,-1,,,,
29492534,516157,503701,5,31536000,746.4,-1,-1,,,,
29492545,516157,621924,5,31536000,417.09,-1,-1,,,,
29492578,516157,473173,5,31536000,3129.44,-1,-1,,,,
29492585,516157,632961,5,31536000,612.67,-1,-1,,,,
29492600,516157,575030,5,31536000,9513.01,-1,-1,,,,
29492602,516157,620120,5,31536000,2863.76,-1,-1,,,,
29492620,516157,466907,5,31536000,832.21,-1,-1,,,,
29492629,516157,589943,5,31536000,2183.96,-1,-1,,,,
29492648,516157,595298,5,31536000,3669.28,-1,-1,,,,
29492649,516157,527449,5,31536000,302.91,-1,-1,,,,
29492669,516157,459381,5,31536000,268.46,-1,-1,,,,
29492687,516157,523927,5,31536000,2948.32,-1,-1,,,,
29492696,516157,580426,5,31536000,13.82,-1,-1,,,,
29492701,516157,595581,5,31536000,1253.14,-1,-1,,,,
29492724,516157,537281,5,31536000,510.78,-1,-1,,,,
29492735,516157,577992,5,31536000,299.42,-1,-1,,,,
29493036,516157,567195,5,31536000,1003.22,-1,-1,,,,
29493067,516157,536346,5,31536000,2018.51,-1,-1,,,,
29493363,516157,640784,5,31536000,85.14,-1,-1,,,,
40933658,533666,621924,5,31536000,713.28,-1,-1,,,,
40933845,533666,466907,5,31536000,328.77,-1,-1,,,,
40933847,533666,606730,5,31536000,1147.73,-1,-1,,,,
40933852,533666,589943,5,31536000,3323.8,-1,-1,,,,
40933854,533666,577992,5,31536000,2291.57,-1,-1,,,,
40933869,533666,537281,5,31536000,463.49,-1,-1,,,,
40933878,533666,536346,5,31536000,658.33,-1,-1,,,,
40933882,533666,520660,5,31536000,1847.59,-1,-1,,,,
40933884,533666,567195,5,31536000,91.72,-1,-1,,,,
40933891,533666,527449,5,31536000,128.79,-1,-1,,,,
40933902,533666,595298,5,31536000,1953.66,-1,-1,,,,
40933903,533666,459381,5,31536000,423.64,-1,-1,,,,
40933909,533666,580426,5,31536000,1030.75,-1,-1,,,,
40933913,533666,632961,5,31536000,315.58,-1,-1,,,,
40933918,533666,473173,5,31536000,1295.69,-1,-1,,,,
40933922,533666,620120,5,31536000,847.95,-1,-1,,,,
40933930,533666,575030,5,31536000,11389.2,-1,-1,,,,
40933939,533666,644226,5,31536000,329.32,-1,-1,,,,
40933944,533666,503701,5,31536000,1458.77,-1,-1,,,,
40933948,533666,571970,5,31536000,20.89,-1,-1,,,,
40933955,533666,642329,5,31536000,71.84,-1,-1,,,,
44048705,465899,473173,5,31536000,3563.12,-1,-1,,,,
44048706,465899,571970,5,31536000,134.4,-1,-1,,,,
44048710,465899,644226,5,31536000,3514.29,-1,-1,,,,
44048714,465899,503701,5,31536000,607.1,-1,-1,,,,
44048715,465899,589943,5,31536000,4177.72,-1,-1,,,,
44048716,465899,606730,5,31536000,542.91,-1,-1,,,,
44048717,465899,466907,5,31536000,1842.92,-1,-1,,,,
44048721,465899,595298,5,31536000,1268.89,-1,-1,,,,
44048722,465899,459381,5,31536000,510.81,-1,-1,,,,
44048723,465899,527449,5,31536000,226.36,-1,-1,,,,
44048724,465899,567195,5,31536000,1944.73,-1,-1,,,,
44048725,465899,536346,5,31536000,3814.2,-1,-1,,,,
44048736,465899,577992,5,31536000,6841.43,-1,-1,,,,
44048750,465899,642329,5,31536000,982.84,-1,-1,,,,
44048754,465899,595581,5,31536000,1295.72,-1,-1,,,,
44048755,465899,580426,5,31536000,694.88,-1,-1,,,,
44048758,465899,523927,5,31536000,1103.31,-1,-1,,,,
44048760,465899,537281,5,31536000,558.41,-1,-1,,,,
44048762,465899,575030,5,31536000,1464.86,-1,-1,,,,
50764076,546801,616453,6,8899200,5.0,4,5,1.0,-165.0,22.0,156.0
50764077,546801,561157,6,28166400,3.0,3,0,-25.0,-111.0,33.0,-41.0
50764079,546801,625756,6,10108800,-1.0,1,3,-29.0,-13.0,-25.0,-111.0
50764772,546801,630626,5,31536000,3270.31,-1,-1,,,,
50764774,546801,527449,5,31536000,70.47,-1,-1,,,,
50764775,546801,459381,5,31536000,190.71,-1,-1,,,,
50764776,546801,595298,5,31536000,475.67,-1,-1,,,,
50764778,546801,466907,5,31536000,359.94,-1,-1,,,,
50764779,546801,589943,5,31536000,1126.82,-1,-1,,,,
50764780,546801,580426,5,31536000,842.92,-1,-1,,,,
50764783,546801,595581,5,31536000,969.38,-1,-1,,,,
50764785,546801,503701,5,31536000,1618.81,-1,-1,,,,
50764786,546801,632961,5,31536000,157.97,-1,-1,,,,
50764787,546801,473173,5,31536000,160.47,-1,-1,,,,
50764788,546801,620120,5,31536000,460.8,-1,-1,,,,
50764791,546801,621924,5,31536000,4520.21,-1,-1,,,,
50764796,546801,642329,5,31536000,87.18,-1,-1,,,,
50766325,546801,625756,6,10108800,-1.0,1,3,-29.0,-13.0,-25.0,-111.0
50766331,546801,561157,6,28166400,3.0,3,0,-25.0,-111.0,33.0,-41.0
50766339,546801,616453,6,8899200,5.0,4,5,1.0,-165.0,22.0,156.0
50767431,546801,625756,6,10108800,-1.0,1,3,-29.0,-13.0,-25.0,-111.0
50767433,546801,561157,6,28166400,3.0,3,0,-25.0,-111.0,33.0,-41.0
50767445,546801,616453,6,8899200,5.0,4,5,1.0,-165.0,22.0,156.0
50767957,546801,561157,6,28166400,3.0,3,0,-25.0,-111.0,33.0,-41.0
50767965,546801,625756,6,10108800,-1.0,1,3,-29.0,-13.0,-25.0,-111.0
50767980,546801,616453,6,8899200,5.0,4,5,1.0,-165.0,22.0,156.0
50768042,546801,616453,6,8899200,5.0,4,5,1.0,-165.0,22.0,156.0
50768054,546801,625756,6,10108800,-1.0,1,3,-29.0,-13.0,-25.0,-111.0
50768057,546801,561157,6,28166400,3.0,3,0,-25.0,-111.0,33.0,-41.0
54472341,552988,654814,5,31536000,56705.6,-1,-1,,,,
54473669,552988,508663,5,31536000,9329.65,-1,-1,,,,
54474656,552988,646676,5,31536000,35611.6,-1,-1,,,,
54476812,552988,546801,5,31536000,4229.59,-1,-1,,,,
54481458,552988,597313,5,31536000,8994.85,-1,-1,,,,
54489437,552988,638904,5,31536000,13066.7,-1,-1,,,,
54498957,552988,465899,5,31536000,19052.4,-1,-1,,,,
54508212,552988,516157,5,31536000,16426.1,-1,-1,,,,
54512613,552988,493129,5,31536000,83041.9,-1,-1,,,,
54524304,552988,533666,5,31536000,15649.1,-1,-1,,,,
54525386,552988,490646,5,31536000,33412.6,-1,-1,,,,
54525922,552988,600971,5,31536000,55373.3,-1,-1,,,,
54531386,552988,589424,5,31536000,26115.3,-1,-1,,,,
54538567,552988,596526,5,31536000,27220.7,-1,-1,,,,
54538724,552988,556394,5,31536000,18254.2,-1,-1,,,,
54546128,552988,620590,5,31536000,21043.9,-1,-1,,,,
54548044,552988,632227,5,31536000,13099.6,-1,-1,,,,
54559967,552988,561362,5,31536000,20372.5,-1,-1,,,,
59209797,556394,458356,3,20501212,527.0,-1,-1,,,,
59209804,556394,556707,2,12196850,328.0,-1,-1,,,,
59209808,556394,556707,2,1836039,197.0,-1,-1,,,,
59209852,556394,556707,2,15067955,283.0,-1,-1,,,,
59209866,556394,641657,3,18842076,153.0,-1,-1,,,,
59209876,556394,556707,2,4281171,61.0,-1,-1,,,,
59209890,556394,556707,2,14964882,356.0,-1,-1,,,,
59209892,556394,619599,3,28266493,7.0,-1,-1,,,,
59209908,556394,499467,6,5961600,4.0,5,2,22.0,156.0,-22.0,91.0
59209918,556394,561157,6,21081600,0.0,5,0,22.0,156.0,33.0,-41.0
59209923,556394,556707,2,8647565,30.0,-1,-1,,,,
59209928,556394,499467,6,22723200,6.0,5,2,22.0,156.0,-22.0,91.0
59209948,556394,499467,6,22723200,6.0,5,2,22.0,156.0,-22.0,91.0
59209955,556394,561157,6,21081600,0.0,5,0,22.0,156.0,33.0,-41.0
59209963,556394,499467,6,5961600,4.0,5,2,22.0,156.0,-22.0,91.0
59209970,556394,651537,3,23543030,27.0,-1,-1,,,,
59209987,556394,461577,3,27574176,613.0,-1,-1,,,,
59209998,556394,499177,3,31296965,1.0,-1,-1,,,,
59210016,556394,499177,3,3304843,1.0,-1,-1,,,,
59210034,556394,556707,2,28985789,1.0,-1,-1,,,,
59210035,556394,483999,3,874180,71.0,-1,-1,,,,
59210048,556394,641131,3,6358516,18.0,-1,-1,,,,
59210054,556394,607843,3,19986999,31.0,-1,-1,,,,
59210073,556394,544438,3,8044950,19.0,-1,-1,,,,
59210086,556394,492039,3,17046042,1.0,-1,-1,,,,
59210088,556394,556707,2,17073290,95.0,-1,-1,,,,
59210093,556394,636950,3,8656856,1.0,-1,-1,,,,
59210105,556394,499467,6,22723200,6.0,5,2,22.0,156.0,-22.0,91.0
59210106,556394,499467,6,5961600,4.0,5,2,22.0,156.0,-22.0,91.0
59210124,556394,492039,3,3403474,1.0,-1,-1,,,,
59210126,556394,561157,6,21081600,0.0,5,0,22.0,156.0,33.0,-41.0
59210154,556394,499467,6,5961600,4.0,5,2,22.0,156.0,-22.0,91.0
59210157,556394,499467,6,22723200,6.0,5,2,22.0,156.0,-22.0,91.0
59210165,556394,556707,2,13842108,346.0,-1,-1,,,,
59210177,556394,561157,6,21081600,0.0,5,0,22.0,156.0,33.0,-41.0
59210187,556394,501845,3,8870987,466.0,-1,-1,,,,
59210188,556394,641131,3,29759813,242.0,-1,-1,,,,
59210193,556394,656769,3,905636,200.0,-1,-1,,,,
59210212,556394,544415,3,23952047,7.0,-1,-1,,,,
59210217,556394,618348,3,20058620,33.0,-1,-1,,,,
59210230,556394,512207,3,24132152,343.0,-1,-1,,,,
59210263,556394,636813,3,19887862,1219.0,-1,-1,,,,
59210264,556394,556707,2,7344026,44.0,-1,-1,,,,
59210265,556394,556707,2,18748810,23.0,-1,-1,,,,
59210266,556394,556707,2,27492002,124.0,-1,-1,,,,
59210283,556394,499177,3,26560812,1.0,-1,-1,,,,
59210307,556394,556707,2,14519853,6.0,-1,-1,,,,
59210335,556394,556707,2,17470128,8.0,-1,-1,,,,
59210351,556394,482579,3,26928566,114.0,-1,-1,,,,
59210355,556394,484026,3,30521098,306.0,-1,-1,,,,
59210388,556394,636813,3,27513420,46.0,-1,-1,,,,
59210408,556394,556707,2,11158858,146.0,-1,-1,,,,
59210429,556394,556707,2,4067406,200.0,-1,-1,,,,
59210450,556394,556707,2,29204937,1.0,-1,-1,,,,
59210481,556394,461577,3,7546515,134.0,-1,-1,,,,
59210490,556394,520837,3,17659212,111.0,-1,-1,,,,
59210500,556394,556707,2,29205123,7.0,-1,-1,,,,
59210513,556394,620076,3,30370909,383.0,-1,-1,,,,
59210531,556394,643849,3,18321418,4561.0,-1,-1,,,,
59210535,556394,587565,3,14798825,1992.0,-1,-1,,,,
59210540,556394,556707,2,30269686,1361.0,-1,-1,,,,
59210546,556394,492039,3,22744276,1.0,-1,-1,,,,
59210572,556394,580426,5,31536000,141.49,-1,-1,,,,
59210574,556394,553442,3,14623246,119.0,-1,-1,,,,
59210575,556394,595581,5,31536000,531.26,-1,-1,,,,
59210577,556394,616315,5,31536000,449.4,-1,-1,,,,
59210578,556394,523927,5,31536000,1073.09,-1,-1,,,,
59210580,556394,632961,5,31536000,231.69,-1,-1,,,,
59210584,556394,473173,5,31536000,2803.03,-1,-1,,,,
59210585,556394,620120,5,31536000,1905.4,-1,-1,,,,
59210586,556394,503701,5,31536000,1164.04,-1,-1,,,,
59210587,556394,575030,5,31536000,2897.04,-1,-1,,,,
59210588,556394,537281,5,31536000,148.11,-1,-1,,,,
59210589,556394,589943,5,31536000,1684.44,-1,-1,,,,
59210594,556394,640784,5,31536000,33.2,-1,-1,,,,
59210595,556394,630626,5,31536000,3736.23,-1,-1,,,,
59210596,556394,577992,5,31536000,908.31,-1,-1,,,,
59210598,556394,527449,5,31536000,64.96,-1,-1,,,,
59210599,556394,459381,5,31536000,541.75,-1,-1,,,,
59210600,556394,595298,5,31536000,622.96,-1,-1,,,,
59210601,556394,466907,5,31536000,505.98,-1,-1,,,,
59210604,556394,567195,5,31536000,1584.59,-1,-1,,,,
59210606,556394,621924,5,31536000,278.79,-1,-1,,,,
59210610,556394,499467,6,22723200,6.0,5,2,22.0,156.0,-22.0,91.0
59210611,556394,499467,6,5961600,4.0,5,2,22.0,156.0,-22.0,91.0
59210612,556394,561157,6,21081600,0.0,5,0,22.0,156.0,33.0,-41.0
59210619,556394,469675,3,22597069,448.0,-1,-1,,,,
59210625,556394,556707,2,26737929,6.0,-1,-1,,,,
59210626,556394,556707,2,21686403,23.0,-1,-1,,,,
59210657,556394,614057,3,25587000,133.0,-1,-1,,,,
59210677,556394,556707,2,19105490,1.0,-1,-1,,,,
59210679,556394,556707,2,4780096,117.0,-1,-1,,,,
59210685,556394,556707,2,3649205,370.0,-1,-1,,,,
59210695,556394,556707,2,864055,54.0,-1,-1,,,,
59210705,556394,645553,3,22604494,12603.0,-1,-1,,,,
59210707,556394,461577,3,29775814,272.0,-1,-1,,,,
59210735,556394,556707,2,14688804,499.0,-1,-1,,,,
59210744,556394,556707,2,27683640,163.0,-1,-1,,,,
59210751,556394,556707,2,20678139,12.0,-1,-1,,,,
59210763,556394,556707,2,29924778,1741.0,-1,-1,,,,
59210770,556394,556707,2,25783114,391.0,-1,-1,,,,
59210782,556394,461577,3,4532712,2.0,-1,-1,,,,
59210800,556394,484026,3,16431895,32.0,-1,-1,,,,
59210854,556394,506060,3,25587900,29.0,-1,-1,,,,
59210878,556394,584456,3,25258524,778.0,-1,-1,,,,
59210881,556394,492039,3,16082410,1.0,-1,-1,,,,
59210886,556394,491412,3,12130722,4.0,-1,-1,,,,
59210889,556394,556707,2,12115388,616.0,-1,-1,,,,
59210899,556394,481210,3,27508855,105.0,-1,-1,,,,
59210900,556394,559162,3,17634047,10240.0,-1,-1,,,,
59210922,556394,556707,2,26096895,4.0,-1,-1,,,,
59210925,556394,556707,2,20761781,2.0,-1,-1,,,,
59210931,556394,473239,3,23448748,55.0,-1,-1,,,,
59210953,556394,553442,3,13926969,28.0,-1,-1,,,,
59210957,556394,587361,3,14967007,276.0,-1,-1,,,,
59210974,556394,556707,2,22818327,17.0,-1,-1,,,,
59210984,556394,614057,3,9695566,817.0,-1,-1,,,,
59211003,556394,499177,3,30599093,1.0,-1,-1,,,,
59211014,556394,475194,3,16244642,120.0,-1,-1,,,,
59211031,556394,556707,2,16590802,85.0,-1,-1,,,,
59211075,556394,587579,3,14612175,143.0,-1,-1,,,,
59211078,556394,469675,3,27424929,1.0,-1,-1,,,,
59211082,556394,592419,3,16960498,1.0,-1,-1,,,,
59211085,556394,649122,3,24606736,622.0,-1,-1,,,,
59211092,556394,588919,3,19010322,17.0,-1,-1,,,,
59211106,556394,593230,3,26536324,102.0,-1,-1,,,,
59211136,556394,556707,2,13508651,44.0,-1,-1,,,,
59211149,556394,588994,3,6838122,501.0,-1,-1,,,,
59211172,556394,643087,3,17424549,254.0,-1,-1,,,,
59211175,556394,556707,2,12377917,74.0,-1,-1,,,,
62251032,561362,561157,6,17193600,6.0,1,0,-29.0,-13.0,33.0,-41.0
62251033,561362,509607,6,12700800,2.0,1,4,-29.0,-13.0,1.0,-165.0
62251034,561362,509607,6,15724800,2.0,1,4,-29.0,-13.0,1.0,-165.0
62251036,561362,499467,6,30067200,5.0,1,2,-29.0,-13.0,-22.0,91.0
62251046,561362,616453,6,27993600,0.0,1,5,-29.0,-13.0,22.0,156.0
62251459,561362,499467,6,30067200,5.0,1,2,-29.0,-13.0,-22.0,91.0
62251461,561362,509607,6,15724800,2.0,1,4,-29.0,-13.0,1.0,-165.0
62251462,561362,509607,6,12700800,2.0,1,4,-29.0,-13.0,1.0,-165.0
62251464,561362,561157,6,17193600,6.0,1,0,-29.0,-13.0,33.0,-41.0
62251465,561362,616453,6,27993600,0.0,1,5,-29.0,-13.0,22.0,156.0
62251535,561362,642329,5,31536000,215.36,-1,-1,,,,
62251546,561362,509607,6,12700800,2.0,1,4,-29.0,-13.0,1.0,-165.0
62251550,561362,561157,6,17193600,6.0,1,0,-29.0,-13.0,33.0,-41.0
62251551,561362,616453,6,27993600,0.0,1,5,-29.0,-13.0,22.0,156.0
62251556,561362,595581,5,31536000,2233.37,-1,-1,,,,
62251563,561362,503701,5,31536000,2132.58,-1,-1,,,,
62251564,561362,632961,5,31536000,358.59,-1,-1,,,,
62251567,561362,473173,5,31536000,926.64,-1,-1,,,,
62251569,561362,620120,5,31536000,2581.98,-1,-1,,,,
62251578,561362,575030,5,31536000,5298.38,-1,-1,,,,
62251581,561362,644226,5,31536000,1085.35,-1,-1,,,,
62251586,561362,571970,5,31536000,158.66,-1,-1,,,,
62251597,561362,509607,6,15724800,2.0,1,4,-29.0,-13.0,1.0,-165.0
62251599,561362,499467,6,30067200,5.0,1,2,-29.0,-13.0,-22.0,91.0
62251607,561362,527449,5,31536000,85.88,-1,-1,,,,
62251608,561362,459381,5,31536000,418.02,-1,-1,,,,
62251611,561362,595298,5,31536000,933.38,-1,-1,,,,
62251618,561362,536346,5,31536000,893.34,-1,-1,,,,
62251630,561362,567195,5,31536000,6782.69,-1,-1,,,,
62251632,561362,520660,5,31536000,1161.21,-1,-1,,,,
62251633,561362,466907,5,31536000,795.19,-1,-1,,,,
62251634,561362,589943,5,31536000,1659.41,-1,-1,,,,
62251646,561362,580426,5,31536000,331.57,-1,-1,,,,
62251666,561362,537281,5,31536000,493.92,-1,-1,,,,
62251667,561362,523927,5,31536000,1344.99,-1,-1,,,,
62251712,561362,616453,6,27993600,0.0,1,5,-29.0,-13.0,22.0,156.0
62251713,561362,561157,6,17193600,6.0,1,0,-29.0,-13.0,33.0,-41.0
62251714,561362,509607,6,12700800,2.0,1,4,-29.0,-13.0,1.0,-165.0
62251717,561362,509607,6,15724800,2.0,1,4,-29.0,-13.0,1.0,-165.0
62251721,561362,499467,6,30067200,5.0,1,2,-29.0,-13.0,-22.0,91.0
62251789,561362,509607,6,15724800,2.0,1,4,-29.0,-13.0,1.0,-165.0
62251791,561362,509607,6,12700800,2.0,1,4,-29.0,-13.0,1.0,-165.0
62251792,561362,561157,6,17193600,6.0,1,0,-29.0,-13.0,33.0,-41.0
62251793,561362,616453,6,27993600,0.0,1,5,-29.0,-13.0,22.0,156.0
62251795,561362,499467,6,30067200,5.0,1,2,-29.0,-13.0,-22.0,91.0
62252000,561362,640784,5,31536000,477.23,-1,-1,,,,
80289036,589424,536346,5,31536000,2288.01,-1,-1,,,,
80289059,589424,520660,5,31536000,1304.67,-1,-1,,,,
80289061,589424,567195,5,31536000,5807.59,-1,-1,,,,
80289062,589424,527449,5,31536000,159.88,-1,-1,,,,
80289063,589424,459381,5,31536000,520.92,-1,-1,,,,
80289064,589424,595298,5,31536000,1448.02,-1,-1,,,,
80289099,589424,466907,5,31536000,733.68,-1,-1,,,,
80289135,589424,577992,5,31536000,2566.55,-1,-1,,,,
80289137,589424,537281,5,31536000,472.15,-1,-1,,,,
80289139,589424,523927,5,31536000,1071.4,-1,-1,,,,
80289141,589424,580426,5,31536000,772.49,-1,-1,,,,
80289144,589424,503701,5,31536000,2157.79,-1,-1,,,,
80289145,589424,644226,5,31536000,1485.53,-1,-1,,,,
80289146,589424,632961,5,31536000,210.83,-1,-1,,,,
80289148,589424,473173,5,31536000,1268.81,-1,-1,,,,
80289152,589424,620120,5,31536000,6298.98,-1,-1,,,,
80289158,589424,575030,5,31536000,6172.24,-1,-1,,,,
80289159,589424,621924,5,31536000,928.95,-1,-1,,,,
85269445,596526,499467,6,864000,-1.0,1,2,-29.0,-13.0,-22.0,91.0
85269446,596526,625756,6,20131200,0.0,2,3,-22.0,91.0,-25.0,-111.0
85269447,596526,499467,6,30499200,-1.0,1,2,-29.0,-13.0,-22.0,91.0
85269471,596526,657173,6,7516800,2.0,3,1,-25.0,-111.0,-29.0,-13.0
85269483,596526,657173,6,26179200,5.0,5,1,22.0,156.0,-29.0,-13.0
85269485,596526,616453,6,22982400,4.0,4,5,1.0,-165.0,22.0,156.0
85269490,596526,616453,6,14774400,6.0,2,5,-22.0,91.0,22.0,156.0
85269492,596526,561157,6,23068800,2.0,4,0,1.0,-165.0,33.0,-41.0
85269560,596526,499467,6,5097600,-1.0,3,2,-25.0,-111.0,-22.0,91.0
85269639,596526,657173,6,16502400,1.0,2,1,-22.0,91.0,-29.0,-13.0
85269830,596526,616453,6,14774400,6.0,2,5,-22.0,91.0,22.0,156.0
85269831,596526,616453,6,22982400,4.0,4,5,1.0,-165.0,22.0,156.0
85269876,596526,499467,6,5097600,-1.0,3,2,-25.0,-111.0,-22.0,91.0
85269878,596526,657173,6,16502400,1.0,2,1,-22.0,91.0,-29.0,-13.0
85269922,596526,657173,6,26179200,5.0,5,1,22.0,156.0,-29.0,-13.0
85269933,596526,657173,6,7516800,2.0,3,1,-25.0,-111.0,-29.0,-13.0
85270259,596526,625756,6,20131200,0.0,2,3,-22.0,91.0,-25.0,-111.0
85270285,596526,499467,6,30499200,-1.0,1,2,-29.0,-13.0,-22.0,91.0
85270444,596526,499467,6,864000,-1.0,1,2,-29.0,-13.0,-22.0,91.0
85270454,596526,499467,6,864000,-1.0,1,2,-29.0,-13.0,-22.0,91.0
85270478,596526,657173,6,16502400,1.0,2,1,-22.0,91.0,-29.0,-13.0
85270498,596526,625756,6,20131200,0.0,2,3,-22.0,91.0,-25.0,-111.0
85270539,596526,561157,6,23068800,2.0,4,0,1.0,-165.0,33.0,-41.0
85270573,596526,616453,6,14774400,6.0,2,5,-22.0,91.0,22.0,156.0
85270577,596526,616453,6,22982400,4.0,4,5,1.0,-165.0,22.0,156.0
85270605,596526,561157,6,23068800,2.0,4,0,1.0,-165.0,33.0,-41.0
85270652,596526,499467,6,5097600,-1.0,3,2,-25.0,-111.0,-22.0,91.0
85270673,596526,657173,6,26179200,5.0,5,1,22.0,156.0,-29.0,-13.0
85270676,596526,657173,6,7516800,2.0,3,1,-25.0,-111.0,-29.0,-13.0
85270689,596526,499467,6,30499200,-1.0,1,2,-29.0,-13.0,-22.0,91.0
85271401,596526,499467,6,30499200,-1.0,1,2,-29.0,-13.0,-22.0,91.0
85271403,596526,625756,6,20131200,0.0,2,3,-22.0,91.0,-25.0,-111.0
85271404,596526,499467,6,864000,-1.0,1,2,-29.0,-13.0,-22.0,91.0
85271405,596526,561157,6,23068800,2.0,4,0,1.0,-165.0,33.0,-41.0
85271406,596526,616453,6,14774400,6.0,2,5,-22.0,91.0,22.0,156.0
85271408,596526,616453,6,22982400,4.0,4,5,1.0,-165.0,22.0,156.0
85271409,596526,657173,6,7516800,2.0,3,1,-25.0,-111.0,-29.0,-13.0
85271411,596526,499467,6,5097600,-1.0,3,2,-25.0,-111.0,-22.0,91.0
85271412,596526,657173,6,16502400,1.0,2,1,-22.0,91.0,-29.0,-13.0
85271423,596526,657173,6,26179200,5.0,5,1,22.0,156.0,-29.0,-13.0
85271425,596526,657173,6,16502400,1.0,2,1,-22.0,91.0,-29.0,-13.0
85271426,596526,499467,6,5097600,-1.0,3,2,-25.0,-111.0,-22.0,91.0
85271444,596526,657173,6,7516800,2.0,3,1,-25.0,-111.0,-29.0,-13.0
85271445,596526,657173,6,26179200,5.0,5,1,22.0,156.0,-29.0,-13.0
85271446,596526,616453,6,22982400,4.0,4,5,1.0,-165.0,22.0,156.0
85271448,596526,616453,6,14774400,6.0,2,5,-22.0,91.0,22.0,156.0
85271449,596526,561157,6,23068800,2.0,4,0,1.0,-165.0,33.0,-41.0
85271451,596526,499467,6,864000,-1.0,1,2,-29.0,-13.0,-22.0,91.0
85271452,596526,499467,6,30499200,-1.0,1,2,-29.0,-13.0,-22.0,91.0
85271458,596526,625756,6,20131200,0.0,2,3,-22.0,91.0,-25.0,-111.0
85271461,596526,621924,5,31536000,1090.69,-1,-1,,,,
85271497,596526,620120,5,31536000,1631.03,-1,-1,,,,
85271498,596526,473173,5,31536000,321.96,-1,-1,,,,
85271499,596526,632961,5,31536000,23.94,-1,-1,,,,
85271500,596526,644226,5,31536000,2164.57,-1,-1,,,,
85271501,596526,571970,5,31536000,39.22,-1,-1,,,,
85271503,596526,503701,5,31536000,1664.17,-1,-1,,,,
85271504,596526,642329,5,31536000,1461.65,-1,-1,,,,
85271505,596526,595581,5,31536000,676.68,-1,-1,,,,
85271506,596526,523927,5,31536000,1191.81,-1,-1,,,,
85271507,596526,537281,5,31536000,574.88,-1,-1,,,,
85271508,596526,577992,5,31536000,456.12,-1,-1,,,,
85271509,596526,589943,5,31536000,416.81,-1,-1,,,,
85271510,596526,606730,5,31536000,959.76,-1,-1,,,,
85271512,596526,466907,5,31536000,854.07,-1,-1,,,,
85271513,596526,595298,5,31536000,262.8,-1,-1,,,,
85271523,596526,503218,5,31536000,781.14,-1,-1,,,,
85271524,596526,536346,5,31536000,1009.52,-1,-1,,,,
85271525,596526,567195,5,31536000,2125.01,-1,-1,,,,
85271526,596526,527449,5,31536000,347.07,-1,-1,,,,
85271527,596526,459381,5,31536000,262.68,-1,-1,,,,
85778812,597313,621924,5,31536000,634.36,-1,-1,,,,
85778814,597313,620120,5,31536000,813.6,-1,-1,,,,
85778816,597313,473173,5,31536000,1935.02,-1,-1,,,,
85778817,597313,632961,5,31536000,716.2,-1,-1,,,,
85778824,597313,503701,5,31536000,3149.18,-1,-1,,,,
85778853,597313,466907,5,31536000,811.22,-1,-1,,,,
85778855,597313,595298,5,31536000,2536.92,-1,-1,,,,
85778858,597313,459381,5,31536000,485.97,-1,-1,,,,
85778859,597313,527449,5,31536000,215.8,-1,-1,,,,
85778862,597313,630626,5,31536000,10797.2,-1,-1,,,,
85778863,597313,640784,5,31536000,1080.66,-1,-1,,,,
85778875,597313,642329,5,31536000,124.91,-1,-1,,,,
85778879,597313,616315,5,31536000,1940.82,-1,-1,,,,
85778888,597313,595581,5,31536000,167.45,-1,-1,,,,
85778889,597313,523927,5,31536000,2098.68,-1,-1,,,,
85778890,597313,537281,5,31536000,225.12,-1,-1,,,,
85778891,597313,589943,5,31536000,1125.73,-1,-1,,,,
88064295,600971,657173,6,15465600,5.0,4,1,1.0,-165.0,-29.0,-13.0
88064296,600971,499467,6,23587200,0.0,4,2,1.0,-165.0,-22.0,91.0
88064305,600971,530665,4,-656897782,0.25,-1,-1,,,,
88064307,600971,509607,6,1641600,-1.0,0,4,33.0,-41.0,1.0,-165.0
88064320,600971,579269,4,-685755382,0.166667,-1,-1,,,,
88064329,600971,657173,6,25401600,1.0,5,1,22.0,156.0,-29.0,-13.0
88064360,600971,657173,6,26006400,0.0,4,1,1.0,-165.0,-29.0,-13.0
88064382,600971,657173,6,25401600,1.0,5,1,22.0,156.0,-29.0,-13.0
88064384,600971,657173,6,26006400,0.0,4,1,1.0,-165.0,-29.0,-13.0
88064386,600971,499467,6,6307200,1.0,4,2,1.0,-165.0,-22.0,91.0
88064396,600971,657173,6,26006400,0.0,4,1,1.0,-165.0,-29.0,-13.0
88064399,600971,616453,6,19785600,1.0,4,5,1.0,-165.0,22.0,156.0
88064401,600971,625756,6,2505600,5.0,4,3,1.0,-165.0,-25.0,-111.0
88064402,600971,616453,6,19785600,1.0,4,5,1.0,-165.0,22.0,156.0
88064404,600971,657173,6,25401600,1.0,5,1,22.0,156.0,-29.0,-13.0
88064413,600971,499467,6,6307200,1.0,4,2,1.0,-165.0,-22.0,91.0
88064417,600971,499467,6,23587200,0.0,4,2,1.0,-165.0,-22.0,91.0
88064422,600971,657173,6,15465600,5.0,4,1,1.0,-165.0,-29.0,-13.0
88064423,600971,509607,6,1641600,-1.0,0,4,33.0,-41.0,1.0,-165.0
88064429,600971,625756,6,2505600,5.0,4,3,1.0,-165.0,-25.0,-111.0
88064430,600971,616453,6,24019200,3.0,0,5,33.0,-41.0,22.0,156.0
88064433,600971,625756,6,2505600,5.0,4,3,1.0,-165.0,-25.0,-111.0
88064435,600971,616453,6,24019200,3.0,0,5,33.0,-41.0,22.0,156.0
88064437,600971,499467,6,23587200,0.0,4,2,1.0,-165.0,-22.0,91.0
88064450,600971,509607,6,1641600,-1.0,0,4,33.0,-41.0,1.0,-165.0
88064452,600971,657173,6,15465600,5.0,4,1,1.0,-165.0,-29.0,-13.0
88064453,600971,499467,6,6307200,1.0,4,2,1.0,-165.0,-22.0,91.0
88064475,600971,616453,6,24019200,3.0,0,5,33.0,-41.0,22.0,156.0
88064523,600971,607498,4,-541121782,0.333333,-1,-1,,,,
88065107,600971,625756,6,2505600,5.0,4,3,1.0,-165.0,-25.0,-111.0
88065108,600971,616453,6,24019200,3.0,0,5,33.0,-41.0,22.0,156.0
88065109,600971,509607,6,1641600,-1.0,0,4,33.0,-41.0,1.0,-165.0
88065113,600971,657173,6,15465600,5.0,4,1,1.0,-165.0,-29.0,-13.0
88065114,600971,499467,6,23587200,0.0,4,2,1.0,-165.0,-22.0,91.0
88065292,600971,657173,6,26006400,0.0,4,1,1.0,-165.0,-29.0,-13.0
88065425,600971,657173,6,25401600,1.0,5,1,22.0,156.0,-29.0,-13.0
88065469,600971,499467,6,6307200,1.0,4,2,1.0,-165.0,-22.0,91.0
88065509,600971,616453,6,19785600,1.0,4,5,1.0,-165.0,22.0,156.0
88065820,600971,625756,6,2505600,5.0,4,3,1.0,-165.0,-25.0,-111.0
88065883,600971,616453,6,19785600,1.0,4,5,1.0,-165.0,22.0,156.0
88065944,600971,657173,6,25401600,1.0,5,1,22.0,156.0,-29.0,-13.0
88065951,600971,499467,6,6307200,1.0,4,2,1.0,-165.0,-22.0,91.0
88065956,600971,657173,6,26006400,0.0,4,1,1.0,-165.0,-29.0,-13.0
88065963,600971,499467,6,23587200,0.0,4,2,1.0,-165.0,-22.0,91.0
88066008,600971,657173,6,15465600,5.0,4,1,1.0,-165.0,-29.0,-13.0
88066009,600971,509607,6,1641600,-1.0,0,4,33.0,-41.0,1.0,-165.0
88066010,600971,616453,6,24019200,3.0,0,5,33.0,-41.0,22.0,156.0
88066348,600971,466907,5,31536000,1596.22,-1,-1,,,,
88066349,600971,595298,5,31536000,1123.89,-1,-1,,,,
88066351,600971,459381,5,31536000,284.24,-1,-1,,,,
88066352,600971,527449,5,31536000,295.36,-1,-1,,,,
88066354,600971,536346,5,31536000,3398.71,-1,-1,,,,
88066356,600971,630626,5,31536000,8745.63,-1,-1,,,,
88066440,600971,567195,5,31536000,6580.68,-1,-1,,,,
88066448,600971,606730,5,31536000,1623.57,-1,-1,,,,
88066497,600971,575030,5,31536000,15067.8,-1,-1,,,,
88066498,600971,620120,5,31536000,4387.13,-1,-1,,,,
88066499,600971,473173,5,31536000,5790.81,-1,-1,,,,
88066500,600971,463021,4,-508376182,0.25,-1,-1,,,,
88066501,600971,632961,5,31536000,398.49,-1,-1,,,,
88066503,600971,644226,5,31536000,3100.38,-1,-1,,,,
88066504,600971,503701,5,31536000,7684.84,-1,-1,,,,
88066505,600971,642329,5,31536000,614.86,-1,-1,,,,
88066507,600971,595581,5,31536000,1042.86,-1,-1,,,,
88066509,600971,523927,5,31536000,9264.65,-1,-1,,,,
88066510,600971,616453,6,19785600,1.0,4,5,1.0,-165.0,22.0,156.0
88066513,600971,577992,5,31536000,3862.58,-1,-1,,,,
88066515,600971,589943,5,31536000,348.06,-1,-1,,,,
88066518,600971,580426,5,31536000,385.94,-1,-1,,,,
100219867,620120,465899,5,31536000,1177.49,-1,-1,,,,
100514137,620590,657173,6,10195200,2.0,4,1,1.0,-165.0,-29.0,-13.0
100514215,620590,616453,6,4233600,5.0,3,5,-25.0,-111.0,22.0,156.0
100514260,620590,616453,6,4233600,5.0,3,5,-25.0,-111.0,22.0,156.0
100514262,620590,657173,6,10195200,2.0,4,1,1.0,-165.0,-29.0,-13.0
100514301,620590,657173,6,10195200,2.0,4,1,1.0,-165.0,-29.0,-13.0
100514341,620590,616453,6,4233600,5.0,3,5,-25.0,-111.0,22.0,156.0
100514366,620590,632961,5,31536000,955.64,-1,-1,,,,
100514369,620590,606730,5,31536000,217.62,-1,-1,,,,
100514374,620590,473173,5,31536000,1402.67,-1,-1,,,,
100514375,620590,620120,5,31536000,4563.49,-1,-1,,,,
100514382,620590,575030,5,31536000,530.83,-1,-1,,,,
100514388,620590,657173,6,10195200,2.0,4,1,1.0,-165.0,-29.0,-13.0
100514389,620590,616453,6,4233600,5.0,3,5,-25.0,-111.0,22.0,156.0
100514401,620590,537281,5,31536000,285.37,-1,-1,,,,
100514408,620590,644226,5,31536000,993.86,-1,-1,,,,
100514413,620590,536346,5,31536000,676.85,-1,-1,,,,
100514429,620590,527449,5,31536000,152.14,-1,-1,,,,
100514432,620590,520660,5,31536000,2559.31,-1,-1,,,,
100514438,620590,621924,5,31536000,16167.7,-1,-1,,,,
100514443,620590,459381,5,31536000,313.55,-1,-1,,,,
100514447,620590,657173,6,10195200,2.0,4,1,1.0,-165.0,-29.0,-13.0
100514449,620590,616453,6,4233600,5.0,3,5,-25.0,-111.0,22.0,156.0
100514465,620590,466907,5,31536000,545.66,-1,-1,,,,
100514470,620590,595298,5,31536000,756.72,-1,-1,,,,
100514474,620590,640784,5,31536000,183.94,-1,-1,,,,
100514477,620590,616315,5,31536000,786.91,-1,-1,,,,
100514493,620590,595581,5,31536000,435.96,-1,-1,,,,
100514501,620590,580426,5,31536000,3645.01,-1,-1,,,,
100514511,620590,503701,5,31536000,691.4,-1,-1,,,,
100514522,620590,571970,5,31536000,157.54,-1,-1,,,,
100514545,620590,642329,5,31536000,1170.45,-1,-1,,,,
100514548,620590,523927,5,31536000,1301.03,-1,-1,,,,
107590754,632227,467222,3,9981951,5.0,-1,-1,,,,
107590762,632227,522405,3,10055906,532.0,-1,-1,,,,
107590768,632227,485885,2,26621780,192.0,-1,-1,,,,
107590780,632227,467239,3,3027019,35.0,-1,-1,,,,
107590781,632227,560517,3,15994941,1789.0,-1,-1,,,,
107590796,632227,485885,2,12121767,157.0,-1,-1,,,,
107590811,632227,526897,2,9602100,235.0,-1,-1,,,,
107590819,632227,467239,3,4799929,760.0,-1,-1,,,,
107590835,632227,485885,2,18627665,376.0,-1,-1,,,,
107590840,632227,625756,6,14688000,3.0,1,3,-29.0,-13.0,-25.0,-111.0
107590855,632227,509607,6,28684800,3.0,1,4,-29.0,-13.0,1.0,-165.0
107590860,632227,461577,3,2864217,8.0,-1,-1,,,,
107590875,632227,485885,3,16435521,413.0,-1,-1,,,,
107590877,632227,643087,3,17367355,252.0,-1,-1,,,,
107590879,632227,610664,2,13341636,290.0,-1,-1,,,,
107590897,632227,483999,3,19875987,6.0,-1,-1,,,,
107590906,632227,500134,3,17893850,588.0,-1,-1,,,,
107590910,632227,509819,3,11923228,810.0,-1,-1,,,,
107590916,632227,617468,3,14737004,854.0,-1,-1,,,,
107590920,632227,485885,2,1730297,32.0,-1,-1,,,,
107590929,632227,485885,2,22168619,1724.0,-1,-1,,,,
107590952,632227,610664,2,24138005,490.0,-1,-1,,,,
107590954,632227,657173,6,26352000,-1.0,4,1,1.0,-165.0,-29.0,-13.0
107590957,632227,485885,2,10213057,811.0,-1,-1,,,,
107590978,632227,657173,6,20649600,-1.0,4,1,1.0,-165.0,-29.0,-13.0
107590983,632227,481475,3,14089731,132.0,-1,-1,,,,
107590996,632227,485885,2,8234425,273.0,-1,-1,,,,
107591006,632227,605235,3,30262495,1.0,-1,-1,,,,
107591007,632227,526897,2,16134244,427.0,-1,-1,,,,
107591019,632227,485885,2,21011043,96.0,-1,-1,,,,
107591022,632227,625756,6,9763200,1.0,1,3,-29.0,-13.0,-25.0,-111.0
107591028,632227,590595,3,17368577,706.0,-1,-1,,,,
107591029,632227,605235,3,20572567,1.0,-1,-1,,,,
107591044,632227,561157,6,17798400,3.0,1,0,-29.0,-13.0,33.0,-41.0
107591046,632227,485885,2,30256802,242.0,-1,-1,,,,
107591065,632227,483999,3,18403931,318.0,-1,-1,,,,
107591074,632227,618142,3,17112256,842.0,-1,-1,,,,
107591082,632227,526897,2,11349014,306.0,-1,-1,,,,
107591124,632227,485885,2,15775235,1251.0,-1,-1,,,,
107591141,632227,492786,3,16074776,475.0,-1,-1,,,,
107591144,632227,657173,6,16156800,-1.0,0,1,33.0,-41.0,-29.0,-13.0
107591151,632227,509607,6,20217600,0.0,1,4,-29.0,-13.0,1.0,-165.0
107591155,632227,504536,2,24387495,618.0,-1,-1,,,,
107591159,632227,520837,3,13086731,6123.0,-1,-1,,,,
107591174,632227,526897,2,11152832,1.0,-1,-1,,,,
107591189,632227,603116,3,801394,104.0,-1,-1,,,,
107591192,632227,657173,6,3542400,-1.0,3,1,-25.0,-111.0,-29.0,-13.0
107591197,632227,643087,3,4840588,17.0,-1,-1,,,,
107591198,632227,610664,2,23428823,234.0,-1,-1,,,,
107591200,632227,602870,3,30006245,62.0,-1,-1,,,,
107591217,632227,610664,2,17281841,238.0,-1,-1,,,,
107591221,632227,654011,3,19303139,36.0,-1,-1,,,,
107591231,632227,613410,3,24464474,653.0,-1,-1,,,,
107591236,632227,568871,3,5205118,3.0,-1,-1,,,,
107591257,632227,635847,3,2023114,978.0,-1,-1,,,,
107591260,632227,654916,3,28688748,4998.0,-1,-1,,,,
107591264,632227,552748,3,18669317,407.0,-1,-1,,,,
107591275,632227,600431,3,14188361,51.0,-1,-1,,,,
107591288,632227,515723,3,20857739,138.0,-1,-1,,,,
107591298,632227,610664,2,29587124,191.0,-1,-1,,,,
107591302,632227,657173,6,5961600,-1.0,4,1,1.0,-165.0,-29.0,-13.0
107591310,632227,562375,3,31222419,53.0,-1,-1,,,,
107591382,632227,464146,3,25952384,55.0,-1,-1,,,,
107591390,632227,485885,2,25765204,202.0,-1,-1,,,,
107591421,632227,526897,2,29118370,525.0,-1,-1,,,,
107591439,632227,469675,3,26966702,7.0,-1,-1,,,,
107591443,632227,485885,2,12911065,603.0,-1,-1,,,,
107591458,632227,610664,2,14004826,2.0,-1,-1,,,,
107591465,632227,483999,3,830418,1.0,-1,-1,,,,
107591473,632227,552748,3,8830850,400.0,-1,-1,,,,
107591487,632227,554323,3,22519127,630.0,-1,-1,,,,
107591520,632227,485885,2,5794616,1020.0,-1,-1,,,,
107591536,632227,555931,3,19812676,7438.0,-1,-1,,,,
107591569,632227,526897,2,21881077,276.0,-1,-1,,,,
107591575,632227,542490,3,18068176,846.0,-1,-1,,,,
107591578,632227,489096,3,19800831,974.0,-1,-1,,,,
107591585,632227,526897,2,19328792,1.0,-1,-1,,,,
107591611,632227,485885,2,3469305,781.0,-1,-1,,,,
107591648,632227,485885,2,21520577,349.0,-1,-1,,,,
107591649,632227,485885,2,8742765,147.0,-1,-1,,,,
107591664,632227,637017,2,27595954,349.0,-1,-1,,,,
107591667,632227,554011,3,25878877,18.0,-1,-1,,,,
107591675,632227,485885,2,8756132,735.0,-1,-1,,,,
107591681,632227,485885,2,13236037,457.0,-1,-1,,,,
107591686,632227,610664,2,12124857,637.0,-1,-1,,,,
107591690,632227,485885,2,21433687,32.0,-1,-1,,,,
107591691,632227,496326,3,3478675,9608.0,-1,-1,,,,
107591709,632227,485885,2,14178972,174.0,-1,-1,,,,
107591710,632227,657173,6,26352000,-1.0,4,1,1.0,-165.0,-29.0,-13.0
107591713,632227,657173,6,16156800,-1.0,0,1,33.0,-41.0,-29.0,-13.0
107591719,632227,500811,3,2359358,361.0,-1,-1,,,,
107591762,632227,625756,6,9763200,1.0,1,3,-29.0,-13.0,-25.0,-111.0
107591763,632227,657173,6,20649600,-1.0,4,1,1.0,-165.0,-29.0,-13.0
107591764,632227,561157,6,17798400,3.0,1,0,-29.0,-13.0,33.0,-41.0
107591765,632227,590595,3,31105082,816.0,-1,-1,,,,
107591774,632227,523927,5,31536000,1217.19,-1,-1,,,,
107591807,632227,657173,6,5961600,-1.0,4,1,1.0,-165.0,-29.0,-13.0
107591809,632227,657173,6,3542400,-1.0,3,1,-25.0,-111.0,-29.0,-13.0
107591812,632227,589943,5,31536000,1156.23,-1,-1,,,,
107591813,632227,509607,6,20217600,0.0,1,4,-29.0,-13.0,1.0,-165.0
107591815,632227,509607,6,28684800,3.0,1,4,-29.0,-13.0,1.0,-165.0
107591816,632227,625756,6,14688000,3.0,1,3,-29.0,-13.0,-25.0,-111.0
107591826,632227,537281,5,31536000,171.0,-1,-1,,,,
107591832,632227,577992,5,31536000,124.81,-1,-1,,,,
107591833,632227,485885,2,28685142,2854.0,-1,-1,,,,
107591845,632227,657173,6,16156800,-1.0,0,1,33.0,-41.0,-29.0,-13.0
107591858,632227,629784,3,12995892,554.0,-1,-1,,,,
107591878,632227,527449,5,31536000,229.8,-1,-1,,,,
107591879,632227,567195,5,31536000,1400.58,-1,-1,,,,
107591880,632227,630626,5,31536000,3238.7,-1,-1,,,,
107591886,632227,485885,2,14948217,189.0,-1,-1,,,,
107591896,632227,485885,2,17213104,164.0,-1,-1,,,,
107591902,632227,459381,5,31536000,555.18,-1,-1,,,,
107591918,632227,595298,5,31536000,1231.47,-1,-1,,,,
107591923,632227,485885,2,26576470,540.0,-1,-1,,,,
107591929,632227,485885,2,29066093,215.0,-1,-1,,,,
107591934,632227,520754,3,10559728,5.0,-1,-1,,,,
107591943,632227,466907,5,31536000,795.87,-1,-1,,,,
107591945,632227,605301,3,15491562,56.0,-1,-1,,,,
107591950,632227,492039,3,15512692,1.0,-1,-1,,,,
107591960,632227,485885,2,10496559,71.0,-1,-1,,,,
107591967,632227,575199,3,9123659,797.0,-1,-1,,,,
107591973,632227,605235,3,3897169,1.0,-1,-1,,,,
107591983,632227,610664,2,21819279,403.0,-1,-1,,,,
107592007,632227,485885,2,21902109,80.0,-1,-1,,,,
107592013,632227,527064,2,23690802,20.0,-1,-1,,,,
107592025,632227,617623,3,30516618,26.0,-1,-1,,,,
107592054,632227,485885,2,4429456,90.0,-1,-1,,,,
107592055,632227,485885,2,9333652,184.0,-1,-1,,,,
107592103,632227,526897,2,8086274,364.0,-1,-1,,,,
107592105,632227,526897,2,10023344,1965.0,-1,-1,,,,
107592123,632227,485885,2,14395498,167.0,-1,-1,,,,
107592136,632227,636257,3,8221725,1.0,-1,-1,,,,
107592146,632227,646684,3,11253805,246.0,-1,-1,,,,
107592152,632227,485885,2,18706823,723.0,-1,-1,,,,
107592167,632227,492039,3,30954623,1.0,-1,-1,,,,
107592172,632227,580426,5,31536000,129.81,-1,-1,,,,
107592196,632227,485885,2,1824981,1120.0,-1,-1,,,,
107592221,632227,526897,2,25679331,161.0,-1,-1,,,,
107592243,632227,536981,3,28024635,354.0,-1,-1,,,,
107592250,632227,595581,5,31536000,227.48,-1,-1,,,,
107592257,632227,485885,2,29156448,75.0,-1,-1,,,,
107592275,632227,641131,3,28711376,155.0,-1,-1,,,,
107592325,632227,485885,2,14366887,264.0,-1,-1,,,,
107592332,632227,557178,3,20825158,47.0,-1,-1,,,,
107592358,632227,485885,2,20568255,289.0,-1,-1,,,,
107592370,632227,543037,3,5244495,42.0,-1,-1,,,,
107592374,632227,469675,3,12976014,69.0,-1,-1,,,,
107592393,632227,542053,3,14921221,12.0,-1,-1,,,,
107592413,632227,526897,2,10048805,23.0,-1,-1,,,,
107592426,632227,516054,3,24858363,120.0,-1,-1,,,,
107592429,632227,561157,6,17798400,3.0,1,0,-29.0,-13.0,33.0,-41.0
107592433,632227,657173,6,5961600,-1.0,4,1,1.0,-165.0,-29.0,-13.0
107592439,632227,657173,6,3542400,-1.0,3,1,-25.0,-111.0,-29.0,-13.0
107592442,632227,625756,6,14688000,3.0,1,3,-29.0,-13.0,-25.0,-111.0
107592448,632227,657173,6,3542400,-1.0,3,1,-25.0,-111.0,-29.0,-13.0
107592450,632227,492039,3,27746677,1.0,-1,-1,,,,
107592453,632227,509607,6,20217600,0.0,1,4,-29.0,-13.0,1.0,-165.0
107592455,632227,509607,6,28684800,3.0,1,4,-29.0,-13.0,1.0,-165.0
107592459,632227,625756,6,14688000,3.0,1,3,-29.0,-13.0,-25.0,-111.0
107592462,632227,509607,6,20217600,0.0,1,4,-29.0,-13.0,1.0,-165.0
107592463,632227,625756,6,9763200,1.0,1,3,-29.0,-13.0,-25.0,-111.0
107592470,632227,485885,2,448587,549.0,-1,-1,,,,
107592471,632227,657173,6,16156800,-1.0,0,1,33.0,-41.0,-29.0,-13.0
107592473,632227,657173,6,26352000,-1.0,4,1,1.0,-165.0,-29.0,-13.0
107592478,632227,625756,6,9763200,1.0,1,3,-29.0,-13.0,-25.0,-111.0
107592480,632227,657173,6,20649600,-1.0,4,1,1.0,-165.0,-29.0,-13.0
107592485,632227,509607,6,28684800,3.0,1,4,-29.0,-13.0,1.0,-165.0
107592489,632227,566212,2,27148091,349.0,-1,-1,,,,
107592490,632227,561157,6,17798400,3.0,1,0,-29.0,-13.0,33.0,-41.0
107592492,632227,657173,6,20649600,-1.0,4,1,1.0,-165.0,-29.0,-13.0
107592496,632227,657173,6,5961600,-1.0,4,1,1.0,-165.0,-29.0,-13.0
107592527,632227,632855,3,10804727,4545.0,-1,-1,,,,
107592530,632227,563055,3,19009846,1070.0,-1,-1,,,,
107592552,632227,556642,3,25343447,1168.0,-1,-1,,,,
107592566,632227,526897,2,31197446,1614.0,-1,-1,,,,
107592589,632227,485885,2,3303002,984.0,-1,-1,,,,
107592593,632227,483999,3,4607044,11.0,-1,-1,,,,
107592608,632227,631478,3,25472204,228.0,-1,-1,,,,
107592621,632227,526897,2,2594956,64.0,-1,-1,,,,
107592625,632227,483999,3,11768780,218.0,-1,-1,,,,
107592627,632227,485885,2,9518752,856.0,-1,-1,,,,
107592633,632227,526897,2,15258050,89.0,-1,-1,,,,
107592638,632227,478548,3,14531574,1.0,-1,-1,,,,
107592643,632227,610664,2,4450884,35.0,-1,-1,,,,
107592653,632227,610664,2,13573206,3.0,-1,-1,,,,
107592661,632227,499177,3,27317535,1.0,-1,-1,,,,
107592666,632227,542660,2,5789162,231.0,-1,-1,,,,
107592696,632227,606994,3,7718143,13.0,-1,-1,,,,
107592708,632227,583242,3,30953755,2360.0,-1,-1,,,,
107592712,632227,504536,2,28030361,211.0,-1,-1,,,,
107592724,632227,516054,3,5105531,177.0,-1,-1,,,,
107592732,632227,544444,3,623161,137.0,-1,-1,,,,
107592738,632227,485885,2,16914140,150.0,-1,-1,,,,
107592745,632227,566212,2,14006065,52.0,-1,-1,,,,
107592771,632227,566212,2,2116103,45.0,-1,-1,,,,
107592775,632227,597461,3,7556413,328.0,-1,-1,,,,
107592786,632227,462460,3,29741432,13.0,-1,-1,,,,
107592804,632227,641131,3,21952814,126.0,-1,-1,,,,
107592805,632227,485885,2,19360889,118.0,-1,-1,,,,
107592807,632227,483999,3,4579208,36.0,-1,-1,,,,
107592810,632227,485885,2,6656167,842.0,-1,-1,,,,
107592816,632227,485885,2,29137255,70.0,-1,-1,,,,
107592817,632227,526897,2,25330919,162.0,-1,-1,,,,
107592838,632227,641131,3,6488190,106.0,-1,-1,,,,
107592845,632227,590595,3,9590441,519.0,-1,-1,,,,
107592867,632227,657173,6,26352000,-1.0,4,1,1.0,-165.0,-29.0,-13.0
107592868,632227,561157,6,17798400,3.0,1,0,-29.0,-13.0,33.0,-41.0
107592870,632227,610664,2,22091379,723.0,-1,-1,,,,
107592871,632227,657173,6,26352000,-1.0,4,1,1.0,-165.0,-29.0,-13.0
107592878,632227,485885,2,3139233,249.0,-1,-1,,,,
107592882,632227,657173,6,16156800,-1.0,0,1,33.0,-41.0,-29.0,-13.0
107592884,632227,484026,3,25610089,1163.0,-1,-1,,,,
107592896,632227,625756,6,9763200,1.0,1,3,-29.0,-13.0,-25.0,-111.0
107592898,632227,566212,2,8946017,46.0,-1,-1,,,,
107592901,632227,576171,3,23351441,171.0,-1,-1,,,,
107592916,632227,657173,6,20649600,-1.0,4,1,1.0,-165.0,-29.0,-13.0
107592936,632227,549834,3,18443148,412.0,-1,-1,,,,
107592938,632227,478591,3,12532545,154.0,-1,-1,,,,
107592952,632227,526897,2,20652159,671.0,-1,-1,,,,
107592961,632227,563055,3,30597866,94.0,-1,-1,,,,
107592963,632227,485885,2,29384434,362.0,-1,-1,,,,
107592967,632227,641131,3,19613069,158.0,-1,-1,,,,
107592971,632227,538291,3,1009651,619.0,-1,-1,,,,
107592978,632227,525263,3,21094225,2665.0,-1,-1,,,,
107592979,632227,483999,3,13423950,802.0,-1,-1,,,,
107592992,632227,632961,5,31536000,146.97,-1,-1,,,,
107592994,632227,503701,5,31536000,166.31,-1,-1,,,,
107592996,632227,620120,5,31536000,2291.67,-1,-1,,,,
107593011,632227,538415,3,13596826,336.0,-1,-1,,,,
107593013,632227,485885,3,7956381,168.0,-1,-1,,,,
107593032,632227,599714,3,25752513,122.0,-1,-1,,,,
107593034,632227,559162,3,29039421,403.0,-1,-1,,,,
107593035,632227,537030,3,30438766,922.0,-1,-1,,,,
107593039,632227,551552,3,29389000,199.0,-1,-1,,,,
107593040,632227,473173,5,31536000,3118.21,-1,-1,,,,
107593056,632227,657173,6,3542400,-1.0,3,1,-25.0,-111.0,-29.0,-13.0
107593057,632227,499177,3,19358429,1.0,-1,-1,,,,
107593059,632227,625756,6,14688000,3.0,1,3,-29.0,-13.0,-25.0,-111.0
107593063,632227,597727,3,14024649,1004.0,-1,-1,,,,
107593064,632227,509607,6,20217600,0.0,1,4,-29.0,-13.0,1.0,-165.0
107593067,632227,509607,6,28684800,3.0,1,4,-29.0,-13.0,1.0,-165.0
107593069,632227,483999,3,23529012,384.0,-1,-1,,,,
107593071,632227,657173,6,5961600,-1.0,4,1,1.0,-165.0,-29.0,-13.0
107593076,632227,557626,3,24939891,116.0,-1,-1,,,,
107593080,632227,592419,3,19409487,1.0,-1,-1,,,,
107593089,632227,485885,2,9862192,29.0,-1,-1,,,,
107593099,632227,527064,2,27999627,579.0,-1,-1,,,,
107593101,632227,543037,3,18186332,188.0,-1,-1,,,,
107593106,632227,526897,2,3478675,385.0,-1,-1,,,,
107593116,632227,485885,2,30522765,515.0,-1,-1,,,,
107593127,632227,485885,2,25669094,416.0,-1,-1,,,,
107593139,632227,485885,2,19112779,207.0,-1,-1,,,,
107593146,632227,485885,2,31038645,278.0,-1,-1,,,,
107593149,632227,546489,3,10735280,1.0,-1,-1,,,,
107593150,632227,483999,3,15901534,113.0,-1,-1,,,,
107593196,632227,485885,2,2715652,1052.0,-1,-1,,,,
107593212,632227,608439,3,14785218,1.0,-1,-1,,,,
107593217,632227,575030,5,31536000,4462.41,-1,-1,,,,
107593220,632227,496902,3,31281622,201.0,-1,-1,,,,
107593225,632227,485885,2,29312332,355.0,-1,-1,,,,
111647239,638904,509607,6,10886400,-1.0,2,4,-22.0,91.0,1.0,-165.0
111647243,638904,461577,3,30155536,39.0,-1,-1,,,,
111647259,638904,483999,2,4602621,160.0,-1,-1,,,,
111647263,638904,654011,3,699648,755.0,-1,-1,,,,
111647270,638904,613214,3,15952858,33.0,-1,-1,,,,
111647285,638904,550466,3,2610743,6.0,-1,-1,,,,
111647311,638904,520837,2,26378654,739.0,-1,-1,,,,
111647328,638904,483999,2,27937472,164.0,-1,-1,,,,
111647336,638904,483999,2,2717292,271.0,-1,-1,,,,
111647340,638904,603374,2,28202403,7.0,-1,-1,,,,
111647344,638904,560979,3,28202403,581.0,-1,-1,,,,
111647358,638904,483999,3,19211837,254.0,-1,-1,,,,
111647389,638904,483999,2,27227276,593.0,-1,-1,,,,
111647396,638904,483999,2,14965568,593.0,-1,-1,,,,
111647399,638904,483999,2,28726589,63.0,-1,-1,,,,
111647411,638904,601711,3,28430157,365.0,-1,-1,,,,
111647443,638904,564209,3,10554256,916.0,-1,-1,,,,
111647453,638904,579492,3,909287,169.0,-1,-1,,,,
111647455,638904,493358,3,17031037,57.0,-1,-1,,,,
111647463,638904,610664,3,28453238,18.0,-1,-1,,,,
111647464,638904,528220,3,25336823,100.0,-1,-1,,,,
111647493,638904,483999,2,16765396,637.0,-1,-1,,,,
111647495,638904,520837,2,28602754,477.0,-1,-1,,,,
111647499,638904,520837,2,27828091,334.0,-1,-1,,,,
111647507,638904,528837,3,11538036,108.0,-1,-1,,,,
111647520,638904,509607,6,10886400,-1.0,2,4,-22.0,91.0,1.0,-165.0
111647521,638904,635913,3,8209459,1952.0,-1,-1,,,,
111647534,638904,520837,2,28553805,112.0,-1,-1,,,,
111647541,638904,585677,3,7606603,741.0,-1,-1,,,,
111647548,638904,589496,3,24221644,189.0,-1,-1,,,,
111647555,638904,657260,2,24570742,120.0,-1,-1,,,,
111647592,638904,483999,3,25837841,5.0,-1,-1,,,,
111647606,638904,556592,3,27479554,199.0,-1,-1,,,,
111647608,638904,483999,2,693747,1303.0,-1,-1,,,,
111647614,638904,483999,2,11353796,68.0,-1,-1,,,,
111647618,638904,483999,2,30423638,122.0,-1,-1,,,,
111647619,638904,569215,3,19996853,45.0,-1,-1,,,,
111647622,638904,554195,3,26076997,495.0,-1,-1,,,,
111647633,638904,483999,3,30078168,275.0,-1,-1,,,,
111647650,638904,595298,5,31536000,927.31,-1,-1,,,,
111647651,638904,459381,5,31536000,150.52,-1,-1,,,,
111647652,638904,527449,5,31536000,53.93,-1,-1,,,,
111647654,638904,622305,3,26884215,1301.0,-1,-1,,,,
111647655,638904,567195,5,31536000,86.55,-1,-1,,,,
111647656,638904,630626,5,31536000,1565.97,-1,-1,,,,
111647666,638904,466907,5,31536000,361.02,-1,-1,,,,
111647669,638904,589943,5,31536000,1345.83,-1,-1,,,,
111647671,638904,483999,2,26884215,1453.0,-1,-1,,,,
111647673,638904,473173,5,31536000,170.72,-1,-1,,,,
111647674,638904,632961,5,31536000,244.55,-1,-1,,,,
111647675,638904,571970,5,31536000,26.94,-1,-1,,,,
111647676,638904,503701,5,31536000,482.54,-1,-1,,,,
111647677,638904,642329,5,31536000,415.79,-1,-1,,,,
111647678,638904,616315,5,31536000,47.46,-1,-1,,,,
111647679,638904,595581,5,31536000,222.34,-1,-1,,,,
111647683,638904,523927,5,31536000,243.44,-1,-1,,,,
111647684,638904,537281,5,31536000,315.45,-1,-1,,,,
111647686,638904,577992,5,31536000,465.79,-1,-1,,,,
111647687,638904,483999,2,6486023,874.0,-1,-1,,,,
111647688,638904,620120,5,31536000,1916.71,-1,-1,,,,
111647689,638904,586468,3,440303,1.0,-1,-1,,,,
111647697,638904,506284,3,2511624,53.0,-1,-1,,,,
111647702,638904,602966,3,21532804,188.0,-1,-1,,,,
111647715,638904,640964,3,20107225,109.0,-1,-1,,,,
111647722,638904,503218,5,31536000,428.26,-1,-1,,,,
111647732,638904,575030,5,31536000,761.09,-1,-1,,,,
111647742,638904,492039,3,9598705,1.0,-1,-1,,,,
111647750,638904,595988,3,4015853,111.0,-1,-1,,,,
111647776,638904,483999,2,8727706,69.0,-1,-1,,,,
111647782,638904,621924,5,31536000,530.84,-1,-1,,,,
111647784,638904,600597,3,7957992,523.0,-1,-1,,,,
111647786,638904,466410,3,13741946,1.0,-1,-1,,,,
111647801,638904,483999,2,7171222,1499.0,-1,-1,,,,
111647825,638904,467804,3,16954583,189.0,-1,-1,,,,
111647838,638904,483999,2,16519728,128.0,-1,-1,,,,
111647844,638904,483999,2,29638113,498.0,-1,-1,,,,
111647852,638904,467222,3,1586289,533.0,-1,-1,,,,
111647868,638904,627982,3,19634405,17.0,-1,-1,,,,
111647873,638904,520249,3,16246642,495.0,-1,-1,,,,
111647890,638904,484026,3,29638113,732.0,-1,-1,,,,
111647898,638904,520837,2,29743460,16.0,-1,-1,,,,
111647902,638904,483999,2,14428814,32039.0,-1,-1,,,,
111647907,638904,532852,3,9163471,536.0,-1,-1,,,,
111647931,638904,597727,2,23446343,49.0,-1,-1,,,,
111647932,638904,521652,3,27227549,4.0,-1,-1,,,,
111647951,638904,515463,3,16941819,29.0,-1,-1,,,,
111647959,638904,483999,2,18756751,303.0,-1,-1,,,,
111647963,638904,483999,2,10108853,1.0,-1,-1,,,,
111647981,638904,536981,3,13429834,399.0,-1,-1,,,,
111647985,638904,573036,3,7776001,24.0,-1,-1,,,,
111648001,638904,466410,3,20147043,1.0,-1,-1,,,,
111648003,638904,471032,3,10464321,24.0,-1,-1,,,,
111648011,638904,516164,3,17247615,845.0,-1,-1,,,,
111648014,638904,483999,2,20147043,359.0,-1,-1,,,,
111648015,638904,597727,2,26893037,2454.0,-1,-1,,,,
111648019,638904,483999,2,21044710,185.0,-1,-1,,,,
111648022,638904,483999,2,14963776,15.0,-1,-1,,,,
111648024,638904,483999,2,17247615,75.0,-1,-1,,,,
111648026,638904,483999,2,19746295,82.0,-1,-1,,,,
111648042,638904,614057,3,19282353,3071.0,-1,-1,,,,
111648067,638904,631478,3,19268407,1471.0,-1,-1,,,,
111648093,638904,483999,2,5572464,3.0,-1,-1,,,,
111648127,638904,483999,2,27091214,342.0,-1,-1,,,,
111648170,638904,463664,3,25749868,343.0,-1,-1,,,,
111648189,638904,493278,3,16502452,256.0,-1,-1,,,,
111648218,638904,569215,3,520935,193.0,-1,-1,,,,
111648223,638904,597727,2,31001584,148.0,-1,-1,,,,
111648242,638904,485885,3,28520411,7.0,-1,-1,,,,
111648249,638904,606218,3,28951243,76.0,-1,-1,,,,
111648266,638904,492039,3,2700692,1.0,-1,-1,,,,
111648276,638904,509607,6,10886400,-1.0,2,4,-22.0,91.0,1.0,-165.0
111648306,638904,483999,2,18945819,36.0,-1,-1,,,,
111648307,638904,651537,3,4330086,687.0,-1,-1,,,,
111648324,638904,652270,3,27656454,1.0,-1,-1,,,,
111648360,638904,568436,3,16258613,78.0,-1,-1,,,,
111648365,638904,483999,2,16270081,427.0,-1,-1,,,,
111648399,638904,590595,3,17906434,293.0,-1,-1,,,,
111648407,638904,560915,3,18063762,8.0,-1,-1,,,,
111648420,638904,483999,2,2885761,50.0,-1,-1,,,,
111648432,638904,483999,2,17558962,2182.0,-1,-1,,,,
111648454,638904,657260,2,14817617,726.0,-1,-1,,,,
111648462,638904,523312,3,14965168,30.0,-1,-1,,,,
111648473,638904,483999,2,15531724,648.0,-1,-1,,,,
111648488,638904,483999,2,13925239,1564.0,-1,-1,,,,
111648490,638904,483999,2,14087171,1213.0,-1,-1,,,,
111648504,638904,520837,2,14353940,310.0,-1,-1,,,,
111648511,638904,643087,3,2530117,45.0,-1,-1,,,,
111648513,638904,461577,3,16078915,592.0,-1,-1,,,,
111648514,638904,520837,2,2947718,131.0,-1,-1,,,,
111648525,638904,483999,2,2876040,297.0,-1,-1,,,,
111648534,638904,483999,2,17046048,284.0,-1,-1,,,,
111648537,638904,521018,3,16079550,306.0,-1,-1,,,,
111648550,638904,492039,3,15838554,1.0,-1,-1,,,,
111648561,638904,483999,2,18289566,1.0,-1,-1,,,,
111648574,638904,483999,3,16973493,348.0,-1,-1,,,,
111648578,638904,520837,2,2304721,1253.0,-1,-1,,,,
111648580,638904,548776,3,2263698,820.0,-1,-1,,,,
111648590,638904,483999,2,2103882,334.0,-1,-1,,,,
111648592,638904,484172,2,2075698,808.0,-1,-1,,,,
111648603,638904,552577,3,20856111,37.0,-1,-1,,,,
111648605,638904,520837,2,20950961,14.0,-1,-1,,,,
111648609,638904,483999,2,21031724,236.0,-1,-1,,,,
111648620,638904,483999,2,21126724,660.0,-1,-1,,,,
111648623,638904,483999,2,21181689,1730.0,-1,-1,,,,
111648633,638904,483999,2,21456759,208.0,-1,-1,,,,
111648639,638904,651417,3,1397175,65.0,-1,-1,,,,
111648667,638904,483999,2,10160832,164.0,-1,-1,,,,
111648682,638904,540627,3,5631882,484.0,-1,-1,,,,
111648688,638904,508266,3,1700439,383.0,-1,-1,,,,
111648758,638904,461577,3,11497134,16.0,-1,-1,,,,
111648773,638904,625954,2,2335099,804.0,-1,-1,,,,
111648781,638904,483999,2,27234383,175.0,-1,-1,,,,
111648783,638904,483999,2,20230085,5.0,-1,-1,,,,
111648787,638904,483999,2,19701242,364.0,-1,-1,,,,
111648795,638904,520837,2,19911029,327.0,-1,-1,,,,
111648798,638904,481570,3,19872223,30.0,-1,-1,,,,
111648804,638904,520837,2,19968614,71.0,-1,-1,,,,
111648818,638904,635913,3,6863243,372.0,-1,-1,,,,
111648844,638904,483999,2,7181309,60.0,-1,-1,,,,
111648849,638904,483999,2,6222520,125.0,-1,-1,,,,
111648855,638904,532852,2,6239703,196.0,-1,-1,,,,
111648865,638904,483999,2,6672622,212.0,-1,-1,,,,
111648875,638904,483999,2,7783945,1846.0,-1,-1,,,,
111648881,638904,483999,2,12789623,14.0,-1,-1,,,,
111648892,638904,483999,2,3343392,297.0,-1,-1,,,,
111648896,638904,483999,2,8998210,1965.0,-1,-1,,,,
111648942,638904,469675,3,3665476,440.0,-1,-1,,,,
111648979,638904,483999,2,4163143,158.0,-1,-1,,,,
111648984,638904,483999,2,3823246,1637.0,-1,-1,,,,
111649007,638904,483999,2,3556948,4.0,-1,-1,,,,
111649012,638904,483999,2,5813776,130.0,-1,-1,,,,
111649013,638904,580043,3,1927863,10.0,-1,-1,,,,
111649042,638904,597727,2,5277970,744.0,-1,-1,,,,
111649051,638904,488981,3,5545962,383.0,-1,-1,,,,
111649057,638904,464295,3,5556905,129.0,-1,-1,,,,
111649063,638904,597461,3,9244817,234.0,-1,-1,,,,
111649079,638904,483999,2,12106103,45.0,-1,-1,,,,
111649084,638904,483999,2,12205042,41.0,-1,-1,,,,
111649105,638904,483999,2,9862213,33.0,-1,-1,,,,
111649108,638904,483999,2,11506801,777.0,-1,-1,,,,
111649118,638904,483999,2,7962018,245.0,-1,-1,,,,
111649148,638904,554011,3,13789242,468.0,-1,-1,,,,
111649155,638904,637454,3,13071634,75.0,-1,-1,,,,
111649165,638904,653239,3,5575227,363.0,-1,-1,,,,
111649197,638904,520837,2,9944742,52.0,-1,-1,,,,
111649207,638904,520837,2,10158377,168.0,-1,-1,,,,
111649211,638904,501105,3,10208434,1025.0,-1,-1,,,,
111649216,638904,630389,2,9800944,91.0,-1,-1,,,,
111649220,638904,560703,3,9373433,343.0,-1,-1,,,,
111649227,638904,657260,2,9342917,190.0,-1,-1,,,,
111649250,638904,597461,3,10800289,140.0,-1,-1,,,,
111649264,638904,483999,2,11081669,14.0,-1,-1,,,,
111649288,638904,459033,3,10605818,156.0,-1,-1,,,,
111649315,638904,483999,2,31017603,93.0,-1,-1,,,,
111649336,638904,483999,2,30866694,9002.0,-1,-1,,,,
111649344,638904,492469,2,10550170,36.0,-1,-1,,,,
111649391,638904,483999,2,18686361,1039.0,-1,-1,,,,
111649397,638904,516054,3,6919949,1260.0,-1,-1,,,,
111649410,638904,483999,2,22915833,154.0,-1,-1,,,,
111649415,638904,490836,3,23088986,384.0,-1,-1,,,,
111649425,638904,480588,3,22209138,17.0,-1,-1,,,,
111649428,638904,483999,3,25142455,551.0,-1,-1,,,,
111649438,638904,545568,3,22726673,347.0,-1,-1,,,,
111649440,638904,499177,3,22726673,1.0,-1,-1,,,,
111649445,638904,483999,2,22813386,62.0,-1,-1,,,,
111649446,638904,515723,3,6241733,144.0,-1,-1,,,,
111649457,638904,483999,2,23415681,172.0,-1,-1,,,,
111649461,638904,521440,3,347081,28.0,-1,-1,,,,
111649465,638904,483999,2,27402669,24.0,-1,-1,,,,
111649471,638904,509607,6,10886400,-1.0,2,4,-22.0,91.0,1.0,-165.0
111649476,638904,483999,2,14608218,412.0,-1,-1,,,,
111649488,638904,634538,3,23189521,41.0,-1,-1,,,,
111649490,638904,509607,6,10886400,-1.0,2,4,-22.0,91.0,1.0,-165.0
111649502,638904,483999,2,17724973,605.0,-1,-1,,,,
111649519,638904,590442,3,20150457,251.0,-1,-1,,,,
111649524,638904,521018,3,10140773,293.0,-1,-1,,,,
111649533,638904,483999,2,26685583,269.0,-1,-1,,,,
111649547,638904,651537,3,31059750,318.0,-1,-1,,,,
111649592,638904,483999,2,17209600,132.0,-1,-1,,,,
111649618,638904,592419,3,3904854,1.0,-1,-1,,,,
111649632,638904,584456,3,5214272,3.0,-1,-1,,,,
111649671,638904,631478,3,4464394,20.0,-1,-1,,,,
111649677,638904,483999,2,30883711,2.0,-1,-1,,,,
111649689,638904,643087,3,14239249,33.0,-1,-1,,,,
111649704,638904,483999,2,29737316,75.0,-1,-1,,,,
111649710,638904,633838,3,22120234,5223.0,-1,-1,,,,
111649714,638904,483193,2,18847688,10.0,-1,-1,,,,
111649770,638904,483999,2,22254386,79.0,-1,-1,,,,
111649776,638904,483999,2,538582,1310.0,-1,-1,,,,
111649797,638904,630347,3,8036078,458.0,-1,-1,,,,
111649822,638904,483999,2,22490458,470.0,-1,-1,,,,
111649881,638904,569215,3,22388122,100.0,-1,-1,,,,
117215802,646676,516054,3,4243507,652.0,-1,-1,,,,
117215804,646676,578918,2,979817,284.0,-1,-1,,,,
117215812,646676,559830,3,23301039,1.0,-1,-1,,,,
117215852,646676,578918,2,24537647,480.0,-1,-1,,,,
117215854,646676,504600,3,14952736,375.0,-1,-1,,,,
117215875,646676,547205,3,10551176,3.0,-1,-1,,,,
117215883,646676,578918,2,30617239,24.0,-1,-1,,,,
117215910,646676,578918,2,30965666,376.0,-1,-1,,,,
117215941,646676,641131,3,449318,215.0,-1,-1,,,,
117215945,646676,578918,2,31412195,9.0,-1,-1,,,,
117215954,646676,461577,3,26913641,10.0,-1,-1,,,,
117215966,646676,484155,3,31309219,170.0,-1,-1,,,,
117215970,646676,470356,3,24107577,1507.0,-1,-1,,,,
117215971,646676,480588,3,20750305,61.0,-1,-1,,,,
117215976,646676,578918,2,3727122,353.0,-1,-1,,,,
117215997,646676,578918,2,16243800,530.0,-1,-1,,,,
117216000,646676,578918,2,23708902,1408.0,-1,-1,,,,
117216016,646676,548553,3,5532668,108.0,-1,-1,,,,
117216022,646676,578918,2,25254000,83.0,-1,-1,,,,
117216037,646676,566550,3,16480885,588.0,-1,-1,,,,
117216041,646676,578918,2,9055576,21.0,-1,-1,,,,
117216042,646676,578918,2,18146407,1003.0,-1,-1,,,,
117216057,646676,631478,3,16358023,1191.0,-1,-1,,,,
117216072,646676,575521,3,15841468,645.0,-1,-1,,,,
117216083,646676,469675,3,11608435,357.0,-1,-1,,,,
117216102,646676,578918,2,625805,5.0,-1,-1,,,,
117216107,646676,504890,3,10810128,165.0,-1,-1,,,,
117216124,646676,578918,2,5097616,136.0,-1,-1,,,,
117216127,646676,484265,3,12977360,2276.0,-1,-1,,,,
117216138,646676,551552,3,2167999,1229.0,-1,-1,,,,
117216141,646676,643087,3,10169286,14.0,-1,-1,,,,
117216148,646676,554011,3,13599145,2711.0,-1,-1,,,,
117216158,646676,641131,3,30502105,314.0,-1,-1,,,,
117216161,646676,602870,3,7348215,98.0,-1,-1,,,,
117216168,646676,578918,2,28462618,12.0,-1,-1,,,,
117216179,646676,483999,3,12984435,846.0,-1,-1,,,,
117216182,646676,601877,3,10698000,426.0,-1,-1,,,,
117216198,646676,605235,3,28350565,1.0,-1,-1,,,,
117216200,646676,578918,2,3813893,230.0,-1,-1,,,,
117216204,646676,554011,3,5801524,5630.0,-1,-1,,,,
117216241,646676,484026,3,1426715,743.0,-1,-1,,,,
117216244,646676,578918,2,18059321,1052.0,-1,-1,,,,
117216266,646676,578918,2,26975966,121.0,-1,-1,,,,
117216274,646676,654651,3,5454904,1078.0,-1,-1,,,,
117216313,646676,578918,2,27271242,40.0,-1,-1,,,,
117216315,646676,591813,3,23945767,350.0,-1,-1,,,,
117216333,646676,578918,2,20049486,120.0,-1,-1,,,,
117216361,646676,620512,3,2179530,30.0,-1,-1,,,,
117216402,646676,578918,2,16358433,1076.0,-1,-1,,,,
117216408,646676,586881,3,105177,119.0,-1,-1,,,,
117216410,646676,541381,3,27583434,95.0,-1,-1,,,,
117216442,646676,641131,3,927741,101.0,-1,-1,,,,
117216448,646676,578918,2,6932166,286.0,-1,-1,,,,
117216450,646676,578918,2,6924654,789.0,-1,-1,,,,
117216464,646676,578918,2,27144057,134.0,-1,-1,,,,
117216465,646676,578918,2,28601501,52.0,-1,-1,,,,
117216493,646676,617023,3,15897611,837.0,-1,-1,,,,
117216511,646676,640324,3,3995301,1197.0,-1,-1,,,,
117216515,646676,631478,3,700846,6725.0,-1,-1,,,,
117216524,646676,578918,2,29462433,2515.0,-1,-1,,,,
117216532,646676,578918,2,29471555,253.0,-1,-1,,,,
117216548,646676,572451,3,27046091,187.0,-1,-1,,,,
117216561,646676,578918,2,3138978,760.0,-1,-1,,,,
117216563,646676,578918,2,19738095,139.0,-1,-1,,,,
117216567,646676,578918,2,14119344,1103.0,-1,-1,,,,
117216571,646676,578918,2,7793662,483.0,-1,-1,,,,
117216578,646676,578918,2,30254427,77.0,-1,-1,,,,
117216601,646676,576493,3,29987987,1.0,-1,-1,,,,
117216619,646676,657173,6,7948800,-1.0,2,1,-22.0,91.0,-29.0,-13.0
117216620,646676,657173,6,31536000,-1.0,4,1,1.0,-165.0,-29.0,-13.0
117216636,646676,550699,3,7456336,1.0,-1,-1,,,,
117216649,646676,540350,3,14103487,1.0,-1,-1,,,,
117216660,646676,578918,2,12026421,185.0,-1,-1,,,,
117216668,646676,578918,2,5622047,1429.0,-1,-1,,,,
117216674,646676,578918,2,24474676,44.0,-1,-1,,,,
117216745,646676,547205,3,16952654,7867.0,-1,-1,,,,
117216762,646676,540627,3,15562230,264.0,-1,-1,,,,
117216780,646676,578918,2,15508518,1.0,-1,-1,,,,
117216784,646676,578918,2,7003864,3.0,-1,-1,,,,
117216799,646676,578918,2,13942112,359.0,-1,-1,,,,
117216819,646676,470135,3,14622647,76.0,-1,-1,,,,
117216823,646676,631478,3,10114849,355.0,-1,-1,,,,
117216859,646676,578918,2,28354139,131.0,-1,-1,,,,
117216870,646676,474202,3,6658212,106.0,-1,-1,,,,
117216877,646676,578918,2,11215616,157.0,-1,-1,,,,
117216901,646676,643665,3,22389321,48.0,-1,-1,,,,
117216903,646676,458872,3,30365287,1.0,-1,-1,,,,
117216922,646676,578918,2,25495939,86.0,-1,-1,,,,
117216923,646676,641131,3,285275,528.0,-1,-1,,,,
117216924,646676,578918,2,27835966,68.0,-1,-1,,,,
117216933,646676,578918,2,14786943,71.0,-1,-1,,,,
117216935,646676,649490,3,11585189,77.0,-1,-1,,,,
117216940,646676,654651,3,19470617,6191.0,-1,-1,,,,
117216948,646676,578918,2,7788645,1781.0,-1,-1,,,,
117216952,646676,578918,2,26418811,186.0,-1,-1,,,,
117216962,646676,587361,3,14442035,9.0,-1,-1,,,,
117216966,646676,578918,2,13619528,683.0,-1,-1,,,,
117216979,646676,554011,3,8616247,396.0,-1,-1,,,,
117216994,646676,485885,3,16862411,168.0,-1,-1,,,,
117217009,646676,578918,2,30069364,285.0,-1,-1,,,,
117217014,646676,504600,3,29844749,75.0,-1,-1,,,,
117217024,646676,565579,3,16948854,1.0,-1,-1,,,,
117217026,646676,641131,3,99856,810.0,-1,-1,,,,
117217084,646676,631478,3,4844195,91.0,-1,-1,,,,
117217106,646676,578918,2,2079497,123.0,-1,-1,,,,
117217120,646676,578918,2,27965521,717.0,-1,-1,,,,
117217128,646676,544444,3,23415187,30.0,-1,-1,,,,
117217130,646676,636391,3,21109829,2738.0,-1,-1,,,,
117217150,646676,578918,2,12528390,24.0,-1,-1,,,,
117217174,646676,578918,2,19540119,913.0,-1,-1,,,,
117217181,646676,640324,3,31029523,468.0,-1,-1,,,,
117217183,646676,578918,2,13651969,2089.0,-1,-1,,,,
117217230,646676,578918,2,25755827,4593.0,-1,-1,,,,
117217240,646676,545141,3,17457865,5999.0,-1,-1,,,,
117217259,646676,632961,5,31536000,282.41,-1,-1,,,,
117217260,646676,473173,5,31536000,532.43,-1,-1,,,,
117217261,646676,620120,5,31536000,4310.88,-1,-1,,,,
117217263,646676,575030,5,31536000,8344.41,-1,-1,,,,
117217264,646676,644226,5,31536000,166.83,-1,-1,,,,
117217265,646676,621924,5,31536000,1277.54,-1,-1,,,,
117217273,646676,503701,5,31536000,342.21,-1,-1,,,,
117217275,646676,642329,5,31536000,288.41,-1,-1,,,,
117217277,646676,640784,5,31536000,588.57,-1,-1,,,,
117217278,646676,536346,5,31536000,1328.0,-1,-1,,,,
117217279,646676,520660,5,31536000,2683.05,-1,-1,,,,
117217280,646676,567195,5,31536000,6480.99,-1,-1,,,,
117217281,646676,527449,5,31536000,270.28,-1,-1,,,,
117217284,646676,459381,5,31536000,624.5,-1,-1,,,,
117217285,646676,595298,5,31536000,3013.19,-1,-1,,,,
117217286,646676,466907,5,31536000,455.92,-1,-1,,,,
117217287,646676,523927,5,31536000,1130.65,-1,-1,,,,
117217288,646676,580426,5,31536000,19.72,-1,-1,,,,
117217289,646676,595581,5,31536000,1094.65,-1,-1,,,,
117217290,646676,616315,5,31536000,2450.52,-1,-1,,,,
117217292,646676,583964,3,30875085,69.0,-1,-1,,,,
117217305,646676,483999,3,1331105,253.0,-1,-1,,,,
117217307,646676,578918,2,1331105,2.0,-1,-1,,,,
117217318,646676,651417,3,29660182,38.0,-1,-1,,,,
117217337,646676,649122,3,24557330,511.0,-1,-1,,,,
117217340,646676,578918,2,27599040,6.0,-1,-1,,,,
117217351,646676,578918,2,23864911,41.0,-1,-1,,,,
117217359,646676,478125,3,29049782,8140.0,-1,-1,,,,
117217372,646676,578918,2,18316853,321.0,-1,-1,,,,
117217380,646676,578918,2,18150255,13.0,-1,-1,,,,
117217408,646676,594541,3,18437406,1.0,-1,-1,,,,
117217410,646676,482579,3,18420513,343.0,-1,-1,,,,
117217412,646676,535375,3,617043,1506.0,-1,-1,,,,
117217413,646676,605235,3,14879294,1.0,-1,-1,,,,
117217435,646676,657173,6,7948800,-1.0,2,1,-22.0,91.0,-29.0,-13.0
117217445,646676,461577,3,6581535,2.0,-1,-1,,,,
117217464,646676,492576,3,22469424,154.0,-1,-1,,,,
117217466,646676,592419,3,19536580,1.0,-1,-1,,,,
117217483,646676,565206,3,19403165,77.0,-1,-1,,,,
117217491,646676,578918,2,19879818,78.0,-1,-1,,,,
117217492,646676,578918,2,4470274,27.0,-1,-1,,,,
117217508,646676,571180,3,12737539,436.0,-1,-1,,,,
117217511,646676,657173,6,31536000,-1.0,4,1,1.0,-165.0,-29.0,-13.0
117217517,646676,578918,2,19014634,10118.0,-1,-1,,,,
117217536,646676,473475,3,13914740,693.0,-1,-1,,,,
117217540,646676,482579,3,30849644,572.0,-1,-1,,,,
117217550,646676,473475,3,19289884,101.0,-1,-1,,,,
117217586,646676,578918,2,15315847,85.0,-1,-1,,,,
117217598,646676,643087,3,15486037,212.0,-1,-1,,,,
117217601,646676,578918,2,15415747,28.0,-1,-1,,,,
117217645,646676,578918,2,14474702,184.0,-1,-1,,,,
117217661,646676,578918,2,16998289,4.0,-1,-1,,,,
117217667,646676,578918,2,16856831,36.0,-1,-1,,,,
117217684,646676,631208,3,12906363,426.0,-1,-1,,,,
117217693,646676,630657,3,21000650,1.0,-1,-1,,,,
117217694,646676,483999,3,7171222,1499.0,-1,-1,,,,
117217700,646676,578918,2,17027436,64.0,-1,-1,,,,
117217716,646676,461577,3,15897643,8.0,-1,-1,,,,
117217735,646676,651417,3,16533044,6.0,-1,-1,,,,
117217742,646676,578918,2,615300,94.0,-1,-1,,,,
117217782,646676,588802,3,13135235,407.0,-1,-1,,,,
117217783,646676,590595,3,16633278,255.0,-1,-1,,,,
117217788,646676,578918,2,794111,910.0,-1,-1,,,,
117217798,646676,631478,3,23068828,569.0,-1,-1,,,,
117217810,646676,578918,2,188667,360.0,-1,-1,,,,
117217811,646676,578918,2,8001761,426.0,-1,-1,,,,
117217827,646676,578918,2,22497351,113.0,-1,-1,,,,
117217834,646676,486295,3,22034187,43.0,-1,-1,,,,
117217835,646676,578918,2,22652430,16.0,-1,-1,,,,
117217850,646676,578918,2,22641884,136.0,-1,-1,,,,
117217854,646676,578918,2,23162491,88.0,-1,-1,,,,
117217861,646676,552577,3,20742607,198.0,-1,-1,,,,
117217875,646676,613410,3,23983611,896.0,-1,-1,,,,
117217920,646676,595800,3,6775254,728.0,-1,-1,,,,
117217926,646676,578918,2,20943609,766.0,-1,-1,,,,
117217931,646676,620409,3,11162901,4.0,-1,-1,,,,
117217963,646676,539190,3,18178803,488.0,-1,-1,,,,
117217976,646676,544415,3,16892207,735.0,-1,-1,,,,
117217982,646676,594939,3,21258048,1463.0,-1,-1,,,,
117217985,646676,523286,3,21197080,86.0,-1,-1,,,,
117217987,646676,578918,2,21228013,397.0,-1,-1,,,,
117217991,646676,578918,2,27145452,183.0,-1,-1,,,,
117218003,646676,578918,2,20131593,21.0,-1,-1,,,,
117218014,646676,578918,2,12641972,73.0,-1,-1,,,,
117218022,646676,578918,2,19886534,544.0,-1,-1,,,,
117218027,646676,578918,2,17021597,643.0,-1,-1,,,,
117218047,646676,505462,3,19026951,1101.0,-1,-1,,,,
117218049,646676,578918,2,19886534,52.0,-1,-1,,,,
117218061,646676,464295,3,22229239,89.0,-1,-1,,,,
117218085,646676,578918,2,2513425,69.0,-1,-1,,,,
117218094,646676,578918,2,283735,13.0,-1,-1,,,,
117218103,646676,569215,3,21775331,55.0,-1,-1,,,,
117218112,646676,518191,3,24544091,1571.0,-1,-1,,,,
117218130,646676,578918,2,22128345,94.0,-1,-1,,,,
117218139,646676,578918,2,8238297,40.0,-1,-1,,,,
117218148,646676,578918,2,13741932,1160.0,-1,-1,,,,
117218153,646676,578918,2,5630051,13.0,-1,-1,,,,
117218156,646676,578918,2,16083407,63.0,-1,-1,,,,
117218182,646676,657173,6,31536000,-1.0,4,1,1.0,-165.0,-29.0,-13.0
117218184,646676,504542,3,6063896,703.0,-1,-1,,,,
117218194,646676,657173,6,7948800,-1.0,2,1,-22.0,91.0,-29.0,-13.0
117218195,646676,641131,3,15212921,1005.0,-1,-1,,,,
117218203,646676,549455,3,4861910,522.0,-1,-1,,,,
117218218,646676,578918,2,4794874,548.0,-1,-1,,,,
117218220,646676,578918,2,894245,88.0,-1,-1,,,,
117218227,646676,578918,2,5319454,110.0,-1,-1,,,,
117218232,646676,464186,3,5304479,15.0,-1,-1,,,,
117218249,646676,578918,2,6931451,44.0,-1,-1,,,,
117218268,646676,567511,3,3298572,172.0,-1,-1,,,,
117218289,646676,578918,2,18090628,34.0,-1,-1,,,,
117218301,646676,578918,2,6337604,1193.0,-1,-1,,,,
117218305,646676,578918,2,27995621,188.0,-1,-1,,,,
117218319,646676,483999,3,6403730,6.0,-1,-1,,,,
117218332,646676,641131,3,6490101,61.0,-1,-1,,,,
117218335,646676,578918,2,16294811,21.0,-1,-1,,,,
117218344,646676,657173,6,7948800,-1.0,2,1,-22.0,91.0,-29.0,-13.0
117218347,646676,578918,2,2352342,41.0,-1,-1,,,,
117218384,646676,489532,3,2603719,81.0,-1,-1,,,,
117218396,646676,578918,2,1481121,1.0,-1,-1,,,,
117218461,646676,578918,2,4062721,272.0,-1,-1,,,,
117218469,646676,657173,6,31536000,-1.0,4,1,1.0,-165.0,-29.0,-13.0
117218485,646676,532702,3,4524032,310.0,-1,-1,,,,
117218500,646676,578918,2,3297605,172.0,-1,-1,,,,
117218506,646676,627532,3,3205467,57.0,-1,-1,,,,
117218513,646676,578918,2,3402034,464.0,-1,-1,,,,
117218557,646676,578918,2,11426484,5.0,-1,-1,,,,
117218572,646676,578918,2,12056084,234.0,-1,-1,,,,
117218593,646676,461577,3,10720466,193.0,-1,-1,,,,
117218603,646676,578918,2,10470004,263.0,-1,-1,,,,
117218609,646676,483999,3,10387466,281.0,-1,-1,,,,
117218618,646676,649034,3,11262277,1.0,-1,-1,,,,
117218630,646676,578918,2,10991314,16.0,-1,-1,,,,
117218664,646676,578918,2,13778169,18.0,-1,-1,,,,
117218666,646676,578918,2,13752814,74.0,-1,-1,,,,
117218677,646676,643087,3,13355763,721.0,-1,-1,,,,
117218679,646676,542053,3,13571284,2489.0,-1,-1,,,,
117218684,646676,578918,2,13056499,995.0,-1,-1,,,,
117218685,646676,578918,2,12154329,9.0,-1,-1,,,,
117218692,646676,578918,2,712107,7.0,-1,-1,,,,
117218702,646676,578918,2,12199010,390.0,-1,-1,,,,
117218707,646676,578918,2,12149146,87.0,-1,-1,,,,
117218711,646676,578918,2,12478143,415.0,-1,-1,,,,
117218716,646676,459033,3,12849899,216.0,-1,-1,,,,
117218731,646676,578918,2,12476192,34.0,-1,-1,,,,
117218736,646676,578918,2,10293857,48.0,-1,-1,,,,
117218756,646676,578918,2,7823086,128.0,-1,-1,,,,
117218769,646676,578918,2,8361196,4.0,-1,-1,,,,
117218795,646676,578918,2,7371098,758.0,-1,-1,,,,
117218798,646676,578918,2,7315683,289.0,-1,-1,,,,
117218807,646676,632286,3,7371098,96.0,-1,-1,,,,
117218839,646676,578918,2,9679478,68.0,-1,-1,,,,
117218861,646676,617023,3,10291828,803.0,-1,-1,,,,
117218870,646676,578918,2,10028439,587.0,-1,-1,,,,
117218874,646676,458356,3,4337417,68.0,-1,-1,,,,
117218883,646676,578918,2,24030498,8.0,-1,-1,,,,
117218917,646676,578918,2,9306047,5274.0,-1,-1,,,,
117218919,646676,641131,3,9249923,115.0,-1,-1,,,,
117218925,646676,578918,2,9081137,210.0,-1,-1,,,,
117218936,646676,578918,2,20772720,9945.0,-1,-1,,,,
117218943,646676,578918,2,27734439,7.0,-1,-1,,,,
117218955,646676,578918,2,1817818,14.0,-1,-1,,,,
117218957,646676,636035,3,28186938,1121.0,-1,-1,,,,
117219007,646676,578918,2,3824237,113.0,-1,-1,,,,
117219022,646676,485068,3,4500725,112.0,-1,-1,,,,
117219033,646676,578918,2,27572416,11.0,-1,-1,,,,
117219045,646676,516624,3,11359984,13.0,-1,-1,,,,
117219052,646676,528220,3,6413818,15757.0,-1,-1,,,,
117219058,646676,556592,3,522240,424.0,-1,-1,,,,
117219063,646676,547205,3,21994627,756.0,-1,-1,,,,
117219064,646676,474374,3,1905175,241.0,-1,-1,,,,
117219071,646676,578918,2,2425528,643.0,-1,-1,,,,
117219086,646676,578918,2,26192184,3.0,-1,-1,,,,
117219117,646676,602870,3,13248373,146.0,-1,-1,,,,
117219126,646676,578918,2,24813048,858.0,-1,-1,,,,
117219129,646676,657173,6,31536000,-1.0,4,1,1.0,-165.0,-29.0,-13.0
117219131,646676,578918,2,28013423,368.0,-1,-1,,,,
117219132,646676,657173,6,7948800,-1.0,2,1,-22.0,91.0,-29.0,-13.0
117219144,646676,578918,2,27857770,29.0,-1,-1,,,,
117219150,646676,461577,3,27834241,25.0,-1,-1,,,,
117219161,646676,578918,2,14646027,1155.0,-1,-1,,,,
117219167,646676,578918,2,3034080,33.0,-1,-1,,,,
117219172,646676,578918,2,8506833,1066.0,-1,-1,,,,
117219208,646676,578918,2,26476185,23.0,-1,-1,,,,
117219211,646676,619599,3,16644679,267.0,-1,-1,,,,
117219214,646676,578918,2,10575361,11.0,-1,-1,,,,
117219218,646676,481988,3,2168648,1455.0,-1,-1,,,,
117219238,646676,578918,2,12009946,66.0,-1,-1,,,,
117219268,646676,573279,3,26972139,75.0,-1,-1,,,,
117219304,646676,613410,3,7269808,8.0,-1,-1,,,,
117219322,646676,578918,2,22814672,744.0,-1,-1,,,,
117219340,646676,644754,3,27425509,951.0,-1,-1,,,,
117219341,646676,578918,2,25490890,988.0,-1,-1,,,,
117219358,646676,531319,3,11948436,1553.0,-1,-1,,,,
117219362,646676,626529,3,21168788,1.0,-1,-1,,,,
117219368,646676,550716,3,24765538,214.0,-1,-1,,,,
117219393,646676,544415,3,6656706,81.0,-1,-1,,,,
117219395,646676,578918,2,996491,68.0,-1,-1,,,,
117219460,646676,578918,2,29390412,1164.0,-1,-1,,,,
117219462,646676,582887,3,24465287,74.0,-1,-1,,,,
117219488,646676,578918,2,24463680,1.0,-1,-1,,,,
117219494,646676,578918,2,25062851,1049.0,-1,-1,,,,
117219498,646676,592419,3,17139161,1.0,-1,-1,,,,
117219511,646676,457622,3,12874476,1.0,-1,-1,,,,
117219545,646676,461811,3,24422064,95.0,-1,-1,,,,
117219546,646676,547205,3,13577865,510.0,-1,-1,,,,
117219560,646676,578918,2,3476292,2234.0,-1,-1,,,,
117219562,646676,578918,2,18176772,971.0,-1,-1,,,,
117219599,646676,578918,2,9292691,4.0,-1,-1,,,,
117219634,646676,504542,3,30334836,5157.0,-1,-1,,,,
117219637,646676,578918,2,23163234,5.0,-1,-1,,,,
117219666,646676,578918,2,24468862,4701.0,-1,-1,,,,
117219668,646676,653261,3,29569727,3.0,-1,-1,,,,
117219675,646676,542053,3,22209657,1374.0,-1,-1,,,,
117219682,646676,578918,2,29959431,14.0,-1,-1,,,,
117219697,646676,584456,3,22740890,263.0,-1,-1,,,,
117219698,646676,578918,2,19495105,627.0,-1,-1,,,,
117219702,646676,578918,2,29729593,1.0,-1,-1,,,,
117219711,646676,645330,3,14536105,212.0,-1,-1,,,,
117219712,646676,614798,3,26101477,185.0,-1,-1,,,,
117219715,646676,578918,2,30680458,2110.0,-1,-1,,,,
117219719,646676,596301,3,24812431,142.0,-1,-1,,,,
117219725,646676,509969,3,26121646,431.0,-1,-1,,,,
117219728,646676,576493,3,28890610,9.0,-1,-1,,,,
117219745,646676,578918,2,4357664,92.0,-1,-1,,,,
117219751,646676,578918,2,24747087,38.0,-1,-1,,,,
117219757,646676,537421,3,28602385,9.0,-1,-1,,,,
117219762,646676,476182,3,28687001,193.0,-1,-1,,,,
117219780,646676,569215,3,22643806,128.0,-1,-1,,,,
117219788,646676,578918,2,17798432,37.0,-1,-1,,,,
117219790,646676,578918,2,7795480,202.0,-1,-1,,,,
117219794,646676,578918,2,24747087,24.0,-1,-1,,,,
117219804,646676,529389,3,26902076,68.0,-1,-1,,,,
117219806,646676,594278,3,11761549,431.0,-1,-1,,,,
117219816,646676,578918,2,28464494,473.0,-1,-1,,,,
117219856,646676,578918,2,20996565,559.0,-1,-1,,,,
117219857,646676,641131,3,28981001,176.0,-1,-1,,,,
122157516,654814,567195,5,31536000,4354.26,-1,-1,,,,
122157525,654814,520660,5,31536000,2623.87,-1,-1,,,,
122157529,654814,527449,5,31536000,302.91,-1,-1,,,,
122157538,654814,536346,5,31536000,996.0,-1,-1,,,,
122157539,654814,640784,5,31536000,560.76,-1,-1,,,,
122157564,654814,466907,5,31536000,174.28,-1,-1,,,,
122157568,654814,644226,5,31536000,2148.01,-1,-1,,,,
122157570,654814,589943,5,31536000,577.47,-1,-1,,,,
122157572,654814,577992,5,31536000,2073.87,-1,-1,,,,
122157573,654814,595298,5,31536000,2832.16,-1,-1,,,,
122157575,654814,571970,5,31536000,2.45,-1,-1,,,,
122157576,654814,580426,5,31536000,954.0,-1,-1,,,,
122157580,654814,595581,5,31536000,451.26,-1,-1,,,,
122157581,654814,503701,5,31536000,4796.7,-1,-1,,,,
122157583,654814,642329,5,31536000,1444.97,-1,-1,,,,
122157584,654814,523927,5,31536000,1175.51,-1,-1,,,,
122157586,654814,632961,5,31536000,245.13,-1,-1,,,,
122157599,654814,459381,5,31536000,688.38,-1,-1,,,,
122157601,654814,575030,5,31536000,6699.3,-1,-1,,,,
122157603,654814,620120,5,31536000,7800.17,-1,-1,,,,
122157607,654814,473173,5,31536000,1155.99,-1,-1,,,,
122157707,654814,616315,5,31536000,1125.43,-1,-1,,,,
