Source,Target
591588,569893
524069,528241
527982,600345
618323,477936
618323,524069
600345,470919
470919,528241
465661,477936
465661,470919
477936,524069
569893,524069
600345,569893
653376,527982
477936,465661
618323,591588
470919,465661
653376,608508
