Source,Target
563211,585212
563211,534034
563211,527597
563211,629627
639051,477138
639051,629627
639051,602912
599441,629627
599441,534034
599441,585212
599441,582851
599441,527597
599441,541017
515794,629627
515794,572413
515794,544615
515794,505965
515794,602912
515794,534449
534034,629627
534034,585212
534034,582851
534034,527597
477138,572413
477138,639051
477138,534449
477138,505965
477138,544615
477138,602912
477138,629627
477138,515794
541017,563211
541017,527597
541017,582851
541017,629627
541017,585212
541017,599441
644830,488928
644830,585212
488928,585212
602912,629627
602912,534449
602912,639051
602912,515794
602912,477138
544615,639051
544615,629627
544615,602912
544615,477138
544615,534449
505965,515794
505965,572413
505965,629627
527597,541017
527597,599441
527597,585212
527597,582851
527597,563211
527597,629627
527597,534034
534449,544615
534449,629627
534449,572413
534449,505965
629627,477138
629627,599441
629627,639051
629627,515794
629627,602912
629627,505965
629627,582851
629627,534034
629627,585212
629627,563211
629627,527597
585212,488928
585212,644830
572413,505965
572413,477138
572413,629627
572413,515794
572413,602912
572413,639051
572413,544615
