Source,Target,1
490041,589639,5
599956,635665,3
599956,589639,9
490041,635665,3
490041,599956,1
599956,490041,9
632150,635665,2
635665,568093,1
616050,632150,1
632150,568093,1
533140,591682,1
635665,533140,2
616050,533140,4
533140,616050,1
632150,464459,3
599956,492777,4
599956,493044,2
490041,550361,1
599956,570411,1
616050,464459,1
490041,623295,1
599956,596193,1
635665,616050,1
632150,533140,2
616050,635665,1
464459,632150,1
490041,640464,1
599956,623295,1
635665,632150,1
632150,591682,1
599956,550361,1
623295,635665,7
623295,492777,3
492777,550361,1
492777,623295,6
492777,596193,1
550361,596193,1
635665,493044,4
492777,493044,3
550361,623295,1
492777,635665,6
550361,493044,3
623295,493044,1
635665,596193,3
635665,550361,2
623295,550361,1
635665,492777,2
635665,623295,1
589639,635665,1
589639,490041,1
589639,599956,1
635665,570411,3
640464,635665,4
635665,640464,3
640464,570411,5
