Source,Target,1
572413,629627,6
572413,505965,8
629627,515794,9
572413,515794,4
515794,505965,6
515794,629627,4
629627,505965,9
585212,563211,3
541017,629627,2
585212,541017,1
585212,599441,2
541017,563211,3
582851,541017,3
582851,527597,2
582851,585212,3
582851,563211,3
527597,585212,4
527597,534034,1
585212,629627,3
527597,599441,1
582851,629627,1
527597,563211,1
527597,582851,4
585212,534034,2
541017,582851,2
541017,599441,2
629627,534449,6
515794,477138,1
505965,639051,1
602912,544615,1
629627,477138,4
505965,515794,2
602912,534449,1
505965,602912,3
505965,544615,1
505965,534449,2
629627,639051,3
515794,602912,1
515794,544615,1
629627,602912,6
629627,544615,6
505965,629627,1
505965,477138,1
477138,639051,7
477138,629627,5
602912,629627,2
639051,629627,5
477138,602912,4
639051,602912,2
602912,639051,3
639051,477138,3
534449,544615,6
534449,629627,10
