Source,Target,1
629627,657173,1
585212,657173,1
629627,625756,1
534034,657173,1
599441,625756,1
534034,625756,1
599441,509607,1
534034,509607,1
599441,499467,1
585212,509607,1
629627,509607,1
585212,499467,1
534034,499467,1
542965,509607,1
635665,625756,1
538892,509607,1
568093,625756,1
568093,499467,1
464459,625756,1
464459,499467,1
635665,499467,1
568093,561157,1
635665,561157,1
570284,509607,1
643925,625756,1
649553,625756,1
570284,625756,1
643925,509607,1
649553,509607,1
570284,616453,1
649553,616453,1
570284,561157,1
643925,561157,1
598006,657173,1
612711,561157,1
598006,561157,1
643411,561157,1
