Source,Target,1
628320,557269,1
546593,492850,1
536906,569329,1
483005,655963,1
601496,557269,1
639642,639642,2
557269,544636,2
579305,544636,1
584457,639642,2
516873,483005,1
492850,580798,2
536906,584457,1
569329,482012,1
536906,492850,1
544636,544636,1
580798,482012,1
546593,580798,1
536906,541907,1
464579,611572,1
584457,601496,1
546593,588172,1
579305,639642,3
636721,546593,1
536906,516873,1
536906,585606,1
579305,584457,2
464579,580237,1
566580,584457,1
557269,639642,2
657526,536906,1
536906,579305,1
536906,628320,1
536906,571369,1
544636,557269,1
464579,579305,1
464579,596726,1
464579,537816,1
544636,579305,2
588172,569329,1
536906,655963,1
628320,584457,1
546593,657526,1
636721,464579,1
588172,482012,1
639642,557269,4
464579,558089,1
464579,459726,1
585606,544636,1
636721,580798,1
464579,578749,1
536906,601496,1
536906,483005,1
579305,601496,1
557269,655963,1
557269,601496,1
655963,579305,3
636721,492850,1
464579,571670,1
584457,579305,1
655963,601496,1
536906,639642,1
492850,464579,1
541907,628320,1
464579,588172,1
585606,516873,1
655963,655963,1
492850,569329,1
464579,500336,1
580798,588172,1
536906,566580,1
569329,588172,1
569329,636721,1
482012,492850,1
464579,623468,1
588172,636721,1
536906,477374,1
483005,579305,2
588172,464579,1
636721,536906,1
492850,588172,2
464579,611238,1
464579,536906,1
536906,544636,1
464579,521673,1
464579,516393,1
536906,557269,1
584457,585606,1
639642,655963,1
464579,645371,1
579305,655963,1
