,Source,Target,eType,Time,Weight,SourceLocation,TargetLocation,SourceLatitude,SourceLongitude,TargetLatitude,TargetLongitude
0,581835,644948,1,12580939,1.0,1,1,-25.388,-15.1947,-26.9063,-10.5777
1,546031,494174,1,16430428,1.0,1,2,-32.3456,-11.4924,-21.4845,92.6351
2,575155,635242,1,22987735,1.0,5,0,21.7741,156.356,24.6672,-49.6618
3,545718,603499,0,3654047,1.0,-1,-1,,,,
4,464476,520967,1,11161447,1.0,4,5,-8.47145,-166.128,23.2429,154.141
5,554724,545718,1,119466,1.0,1,2,-30.6304,-13.4298,-22.6191,89.1477
6,482387,538083,0,25404047,1.0,-1,-1,,,,
7,571763,599650,1,31294672,1.0,1,1,-29.8815,-14.7442,-29.286,-15.9693
8,609400,585150,0,14472906,1.0,-1,-1,,,,
9,482387,546031,0,8992482,1.0,-1,-1,,,,
10,542312,642444,1,26475849,1.0,0,2,34.9741,-39.8233,-21.0181,89.0911
11,632799,549206,0,25600888,1.0,-1,-1,,,,
12,543584,644393,1,17800566,1.0,3,0,-23.9939,-111.647,31.4697,-34.2309
13,621111,537931,1,3820979,1.0,3,4,-25.3213,-111.324,-3.10109,-164.926
14,554724,545271,0,1426913,1.0,-1,-1,,,,
15,610356,632647,3,30245741,321.0,-1,-1,,,,
16,599650,561943,0,21701575,1.0,-1,-1,,,,
17,615473,546031,0,29911242,1.0,-1,-1,,,,
18,466901,581835,1,28191393,1.0,4,1,-3.8861,-166.339,-25.388,-15.1947
19,575155,486074,0,15214395,1.0,-1,-1,,,,
20,469356,624638,1,24806425,1.0,4,4,-0.590253,-164.533,4.48214,-165.891
21,631118,546031,1,25358902,1.0,5,1,20.9213,157.67,-32.3456,-11.4924
22,539684,605849,1,21633138,1.0,0,2,44.0212,-43.7695,-23.4922,93.4224
23,574136,612553,0,823819,1.0,-1,-1,,,,
24,610356,605849,0,3206198,1.0,-1,-1,,,,
25,635242,491574,1,18695708,1.0,0,4,24.6672,-49.6618,0.688599,-161.585
26,546031,612553,0,14522202,1.0,-1,-1,,,,
27,586814,486074,0,24998595,1.0,-1,-1,,,,
28,631515,546031,0,27835220,1.0,-1,-1,,,,
29,543584,631515,0,14701855,1.0,-1,-1,,,,
30,615473,632799,0,7697521,1.0,-1,-1,,,,
31,622513,522402,0,13767864,1.0,-1,-1,,,,
32,555058,537931,1,12545109,1.0,0,4,25.2507,-40.5821,-3.10109,-164.926
33,579463,472513,0,12237122,1.0,-1,-1,,,,
34,487965,522402,0,14391424,1.0,-1,-1,,,,
35,615473,631515,0,21717602,1.0,-1,-1,,,,
36,623929,521178,1,16681258,1.0,0,2,36.9828,-38.2383,-22.112,90.2738
37,545826,542312,1,24492558,1.0,2,0,-23.2369,91.2964,34.9741,-39.8233
38,521178,612553,1,27915224,1.0,2,3,-22.112,90.2738,-25.306,-110.6
39,631515,631118,0,17798406,1.0,-1,-1,,,,
40,644393,466901,1,11778942,1.0,0,4,31.4697,-34.2309,-3.8861,-166.339
41,623929,491574,0,18637561,1.0,-1,-1,,,,
42,581084,459109,0,25185280,1.0,-1,-1,,,,
43,571510,537261,1,9186481,1.0,0,4,39.1548,-43.9278,2.40552,-168.447
44,609729,574421,0,13434875,1.0,-1,-1,,,,
45,549206,513526,1,9247348,1.0,2,4,-21.2689,89.236,4.9322,-161.189
46,581084,533599,1,31366374,1.0,4,0,1.51043,-163.062,36.6167,-35.6184
47,546031,538083,0,2428961,1.0,-1,-1,,,,
48,581835,631515,1,9938216,1.0,1,2,-25.388,-15.1947,-23.9642,88.5773
49,586814,546031,1,18518688,1.0,3,1,-24.6844,-110.654,-32.3456,-11.4924
50,491574,579463,1,28108512,1.0,4,0,0.688599,-161.585,33.0041,-41.4689
51,523558,567089,0,31389162,1.0,-1,-1,,,,
52,554724,567089,1,1666018,1.0,1,0,-30.6304,-13.4298,34.7944,-50.9145
53,631515,594492,1,9029468,1.0,2,0,-23.9642,88.5773,38.4462,-49.279
54,599650,538083,0,11380140,1.0,-1,-1,,,,
55,605731,524495,1,7623034,1.0,1,1,-30.7424,-13.8858,-28.3416,-11.22
56,482044,611268,0,9627082,1.0,-1,-1,,,,
57,581084,486074,1,26354641,1.0,4,0,1.51043,-163.062,36.7074,-40.1253
58,615582,632893,1,29264809,1.0,0,0,31.5514,-44.6836,24.7864,-33.3998
59,648624,469114,1,29380710,1.0,0,4,28.8207,-39.1066,-0.347084,-163.692
60,537931,579463,1,21945655,1.0,4,0,-3.10109,-164.926,33.0041,-41.4689
61,537931,579463,1,21882764,1.0,4,0,-3.10109,-164.926,33.0041,-41.4689
62,482937,539684,0,8684466,1.0,-1,-1,,,,
63,579463,538083,0,7085620,1.0,-1,-1,,,,
64,605849,539684,0,26112040,1.0,-1,-1,,,,
65,549206,458565,0,2162966,1.0,-1,-1,,,,
66,524201,594492,1,27313926,1.0,4,0,0.261294,-162.537,38.4462,-49.279
67,472513,621111,1,22834846,1.0,0,3,25.954,-39.8528,-25.3213,-111.324
68,581835,549206,0,29765313,1.0,-1,-1,,,,
69,501448,623929,1,24625682,1.0,5,0,22.833,156.121,36.9828,-38.2383
70,486074,522402,1,23988299,1.0,0,0,36.7074,-40.1253,34.358,-42.1897
71,615473,537931,0,6581547,1.0,-1,-1,,,,
72,631118,579463,1,31386714,1.0,5,0,20.9213,157.67,33.0041,-41.4689
73,486074,458565,0,10482178,1.0,-1,-1,,,,
74,491574,640764,0,27167930,1.0,-1,-1,,,,
75,538083,574136,1,24077570,1.0,0,4,33.2754,-43.1505,-1.6001,-161.631
76,598217,623929,1,26897421,1.0,3,0,-25.0568,-110.704,36.9828,-38.2383
77,524201,603499,1,23701482,1.0,4,4,0.261294,-162.537,0.893908,-164.902
78,581835,642875,1,8817011,1.0,1,0,-25.388,-15.1947,36.2603,-36.8584
79,533599,585150,1,19809794,1.0,0,0,36.6167,-35.6184,37.9707,-38.7163
80,612553,648624,0,13310688,1.0,-1,-1,,,,
81,640764,538083,1,27056688,1.0,4,0,1.23762,-166.012,33.2754,-43.1505
82,587552,642875,1,25164040,1.0,5,0,23.7119,156.241,36.2603,-36.8584
83,603499,546031,0,27058790,1.0,-1,-1,,,,
84,491574,545718,1,2342728,1.0,4,2,0.688599,-161.585,-22.6191,89.1477
85,538083,644948,0,26566933,1.0,-1,-1,,,,
86,546031,472513,1,2965721,1.0,1,0,-32.3456,-11.4924,25.954,-39.8528
87,622513,571510,1,4959922,1.0,3,0,-24.9779,-111.253,39.1548,-43.9278
88,603499,575155,1,2340778,1.0,4,5,0.893908,-164.902,21.7741,156.356
89,549206,610356,0,5896902,1.0,-1,-1,,,,
90,631515,586814,1,11326241,1.0,2,3,-23.9642,88.5773,-24.6844,-110.654
91,589994,642875,0,24306915,1.0,-1,-1,,,,
92,603499,554724,1,31192006,1.0,4,1,0.893908,-164.902,-30.6304,-13.4298
93,579463,521178,1,2945564,1.0,0,2,33.0041,-41.4689,-22.112,90.2738
94,538083,581835,0,4327249,1.0,-1,-1,,,,
95,631515,632799,0,19034539,1.0,-1,-1,,,,
96,581084,545826,0,8681609,1.0,-1,-1,,,,
97,640764,631515,1,18093950,1.0,4,2,1.23762,-166.012,-23.9642,88.5773
98,494174,581835,0,29040122,1.0,-1,-1,,,,
99,494174,581835,1,27918741,1.0,2,1,-21.4845,92.6351,-25.388,-15.1947
100,533599,632799,1,13408377,1.0,0,0,36.6167,-35.6184,27.1975,-39.8087
101,571510,631515,1,20141334,1.0,0,2,39.1548,-43.9278,-23.9642,88.5773
102,621111,579463,0,22293311,1.0,-1,-1,,,,
103,599650,581835,0,21311531,1.0,-1,-1,,,,
104,486074,648624,1,31143913,1.0,0,0,36.7074,-40.1253,28.8207,-39.1066
105,513526,610356,1,23093255,1.0,4,5,4.9322,-161.189,19.9469,153.532
106,513526,610356,1,23122062,1.0,4,5,4.9322,-161.189,19.9469,153.532
107,545826,598217,1,19912600,1.0,2,3,-23.2369,91.2964,-25.0568,-110.704
108,520967,640764,1,21616434,1.0,5,4,23.2429,154.141,1.23762,-166.012
109,539684,466901,1,30990032,1.0,0,4,44.0212,-43.7695,-3.8861,-166.339
110,586814,538083,1,26557237,1.0,3,0,-24.6844,-110.654,33.2754,-43.1505
111,537931,615473,1,31396545,1.0,4,1,-3.10109,-164.926,-30.9745,-12.9442
112,537931,615473,1,31296204,1.0,4,1,-3.10109,-164.926,-30.9745,-12.9442
113,472513,603499,1,1867482,1.0,0,4,25.954,-39.8528,0.893908,-164.902
114,472513,622513,1,24688317,1.0,0,3,25.954,-39.8528,-24.9779,-111.253
115,472513,622513,1,30331454,1.0,0,3,25.954,-39.8528,-24.9779,-111.253
116,494174,638343,0,25505327,1.0,-1,-1,,,,
117,542312,631515,1,21182434,1.0,0,2,34.9741,-39.8233,-23.9642,88.5773
118,609729,472513,1,5616729,1.0,4,0,-4.88788,-162.335,25.954,-39.8528
119,546031,631515,1,26643967,1.0,1,2,-32.3456,-11.4924,-23.9642,88.5773
120,545271,621111,1,16200130,1.0,2,3,-21.0222,89.549,-25.3213,-111.324
121,459109,609729,0,8656828,1.0,-1,-1,,,,
122,583405,642875,1,17773561,1.0,3,0,-25.4523,-110.664,36.2603,-36.8584
123,610356,612553,1,5619023,1.0,5,3,19.9469,153.532,-25.306,-110.6
124,644948,594492,1,28773166,1.0,1,0,-26.9063,-10.5777,38.4462,-49.279
125,586814,631515,1,1301769,1.0,3,2,-24.6844,-110.654,-23.9642,88.5773
126,589994,603499,0,282765,1.0,-1,-1,,,,
127,524495,631515,0,9764330,1.0,-1,-1,,,,
128,545718,571763,1,2678405,1.0,2,1,-22.6191,89.1477,-29.8815,-14.7442
129,603499,635242,1,4496175,1.0,4,0,0.893908,-164.902,24.6672,-49.6618
130,579463,513526,1,1943282,1.0,0,4,33.0041,-41.4689,4.9322,-161.189
131,546031,624638,0,18239073,1.0,-1,-1,,,,
132,615473,612553,0,18165636,1.0,-1,-1,,,,
133,615582,632799,1,20449823,1.0,0,0,31.5514,-44.6836,27.1975,-39.8087
134,545271,644948,0,14087539,1.0,-1,-1,,,,
135,574136,624638,1,26443960,1.0,4,4,-1.6001,-161.631,4.48214,-165.891
136,574421,472513,0,1852165,1.0,-1,-1,,,,
137,612553,611268,0,18351366,1.0,-1,-1,,,,
138,610356,520967,0,24582098,1.0,-1,-1,,,,
139,631515,550580,0,20761531,1.0,-1,-1,,,,
140,632799,486074,1,10886444,1.0,0,0,27.1975,-39.8087,36.7074,-40.1253
141,581084,524201,0,7612469,1.0,-1,-1,,,,
142,482044,586814,1,31381056,1.0,4,3,7.67465,-166.629,-24.6844,-110.654
143,482044,586814,1,31417152,1.0,4,3,7.67465,-166.629,-24.6844,-110.654
144,642875,594876,1,17619290,1.0,0,3,36.2603,-36.8584,-25.8639,-111.006
145,533599,522402,0,22038158,1.0,-1,-1,,,,
146,538083,605849,0,3549621,1.0,-1,-1,,,,
147,581835,581084,0,7127329,1.0,-1,-1,,,,
148,519411,632799,1,242448,1.0,2,0,-22.1292,91.2368,27.1975,-39.8087
149,519411,587552,0,5044353,1.0,-1,-1,,,,
150,543584,545826,1,22899095,1.0,3,2,-23.9939,-111.647,-23.2369,91.2964
151,459109,574136,0,21620477,1.0,-1,-1,,,,
152,621111,610356,1,18273603,1.0,3,5,-25.3213,-111.324,19.9469,153.532
153,549206,472513,1,24394486,1.0,2,0,-21.2689,89.236,25.954,-39.8528
154,632799,605849,0,13235555,1.0,-1,-1,,,,
155,621111,632893,1,8567715,1.0,3,0,-25.3213,-111.324,24.7864,-33.3998
156,581835,574136,1,785534,1.0,1,4,-25.388,-15.1947,-1.6001,-161.631
157,579463,615582,1,28177203,1.0,0,0,33.0041,-41.4689,31.5514,-44.6836
158,635242,594492,1,9879881,1.0,0,0,24.6672,-49.6618,38.4462,-49.279
159,571510,599650,0,3201895,1.0,-1,-1,,,,
160,631515,644948,0,17119100,1.0,-1,-1,,,,
161,579463,631515,0,556856,1.0,-1,-1,,,,
162,579463,631515,0,29072922,1.0,-1,-1,,,,
163,579463,631515,0,19738132,1.0,-1,-1,,,,
164,579463,610356,1,6654613,1.0,0,5,33.0041,-41.4689,19.9469,153.532
165,605731,469356,1,23553618,1.0,1,4,-30.7424,-13.8858,-0.590253,-164.533
166,472513,521178,1,4678106,1.0,0,2,25.954,-39.8528,-22.112,90.2738
167,549206,612719,0,29384656,1.0,-1,-1,,,,
168,546031,567089,0,5941350,1.0,-1,-1,,,,
169,594492,546031,0,28611138,1.0,-1,-1,,,,
170,644948,612553,0,5725021,1.0,-1,-1,,,,
171,494174,466901,0,15021569,1.0,-1,-1,,,,
172,469356,632799,0,3989271,1.0,-1,-1,,,,
173,469356,632799,1,6739205,1.0,4,0,-0.590253,-164.533,27.1975,-39.8087
174,574421,644948,0,28345236,1.0,-1,-1,,,,
175,523558,581835,0,12379711,1.0,-1,-1,,,,
176,472513,581835,0,30609403,1.0,-1,-1,,,,
177,472513,581835,1,30348538,1.0,0,1,25.954,-39.8528,-25.388,-15.1947
178,472513,581835,0,11500886,1.0,-1,-1,,,,
179,482044,631118,1,1304668,1.0,4,5,7.67465,-166.629,20.9213,157.67
180,581835,571763,1,12818845,1.0,1,1,-25.388,-15.1947,-29.8815,-14.7442
181,612553,482937,0,13741948,1.0,-1,-1,,,,
182,574136,459109,1,7713785,1.0,4,4,-1.6001,-161.631,1.13032,-156.686
183,615582,631118,1,27563799,1.0,0,5,31.5514,-44.6836,20.9213,157.67
184,615582,464476,1,14552467,1.0,0,4,31.5514,-44.6836,-8.47145,-166.128
185,585150,575155,1,2271610,1.0,0,5,37.9707,-38.7163,21.7741,156.356
186,612719,598217,1,8172949,1.0,0,3,30.4954,-42.4116,-25.0568,-110.704
187,579463,615473,1,23087529,1.0,0,1,33.0041,-41.4689,-30.9745,-12.9442
188,579463,615473,1,29659223,1.0,0,1,33.0041,-41.4689,-30.9745,-12.9442
189,579463,615473,0,19356992,1.0,-1,-1,,,,
190,459109,610356,0,6594289,1.0,-1,-1,,,,
191,538083,610356,0,28102715,1.0,-1,-1,,,,
192,579463,547030,0,21355229,1.0,-1,-1,,,,
193,583405,469356,1,3113299,1.0,3,4,-25.4523,-110.664,-0.590253,-164.533
194,599650,631118,0,14889662,1.0,-1,-1,,,,
195,521178,523558,1,29576196,1.0,2,0,-22.112,90.2738,35.3335,-43.2873
196,543584,546031,0,5317470,1.0,-1,-1,,,,
197,575155,501448,1,28835907,1.0,5,5,21.7741,156.356,22.833,156.121
198,524495,615582,1,26793909,1.0,1,0,-28.3416,-11.22,31.5514,-44.6836
199,632893,482387,1,5831666,1.0,0,4,24.7864,-33.3998,-0.918323,-168.288
200,486074,482937,1,12636517,1.0,0,4,36.7074,-40.1253,1.321,-169.951
201,555058,598217,1,28390809,1.0,0,3,25.2507,-40.5821,-25.0568,-110.704
202,542312,520967,0,16105138,1.0,-1,-1,,,,
203,579463,574421,1,7530878,1.0,0,1,33.0041,-41.4689,-30.001,-11.2662
204,472513,491574,1,27166265,1.0,0,4,25.954,-39.8528,0.688599,-161.585
205,459109,635242,0,18404296,1.0,-1,-1,,,,
206,581835,594492,0,12503219,1.0,-1,-1,,,,
207,609400,642444,1,9342906,1.0,3,2,-24.9441,-110.796,-21.0181,89.0911
208,583405,632893,0,18507249,1.0,-1,-1,,,,
209,612719,622645,1,14173937,1.0,0,4,30.4954,-42.4116,-4.64864,-169.112
210,537931,545826,0,29823027,1.0,-1,-1,,,,
211,550580,638343,1,14780426,1.0,3,4,-24.6773,-111.728,0.225691,-161.595
212,550580,638343,1,14898618,1.0,3,4,-24.6773,-111.728,0.225691,-161.595
213,605849,631515,0,17563578,1.0,-1,-1,,,,
214,605849,631515,0,11150177,1.0,-1,-1,,,,
215,586814,610356,1,18322582,1.0,3,5,-24.6844,-110.654,19.9469,153.532
216,599650,542312,0,26552362,1.0,-1,-1,,,,
217,622513,543584,1,1131138,1.0,3,3,-24.9779,-111.253,-23.9939,-111.647
218,624638,547030,0,18691951,1.0,-1,-1,,,,
219,543584,545271,1,6395322,1.0,3,2,-23.9939,-111.647,-21.0222,89.549
220,539684,469114,1,6307973,1.0,0,4,44.0212,-43.7695,-0.347084,-163.692
221,603499,631515,0,27245667,1.0,-1,-1,,,,
222,632893,546031,0,18751328,1.0,-1,-1,,,,
223,603499,482044,0,30466640,1.0,-1,-1,,,,
224,624638,581835,1,16357715,1.0,4,1,4.48214,-165.891,-25.388,-15.1947
225,472513,522402,0,29502994,1.0,-1,-1,,,,
226,609400,579463,1,11093796,1.0,3,0,-24.9441,-110.796,33.0041,-41.4689
227,542312,594492,1,29643897,1.0,0,0,34.9741,-39.8233,38.4462,-49.279
228,594492,538083,1,25707556,1.0,0,0,38.4462,-49.279,33.2754,-43.1505
229,594492,538083,1,25600841,1.0,0,0,38.4462,-49.279,33.2754,-43.1505
230,537261,594492,1,27873630,1.0,4,0,2.40552,-168.447,38.4462,-49.279
231,644948,644948,1,12962570,1.0,1,1,-26.9063,-10.5777,-26.9063,-10.5777
232,549206,631118,0,25921230,1.0,-1,-1,,,,
233,648624,547030,1,12204238,1.0,0,4,28.8207,-39.1066,-1.34438,-170.595
234,631515,561943,0,21011070,1.0,-1,-1,,,,
235,621111,520967,0,11418693,1.0,-1,-1,,,,
236,538083,546031,0,25965416,1.0,-1,-1,,,,
237,635242,599650,1,8295234,1.0,0,1,24.6672,-49.6618,-29.286,-15.9693
238,635242,610356,0,16289278,1.0,-1,-1,,,,
239,594492,567089,0,93380,1.0,-1,-1,,,,
240,640764,585150,0,25501690,1.0,-1,-1,,,,
241,644393,537261,1,6236795,1.0,0,4,31.4697,-34.2309,2.40552,-168.447
242,543584,589994,0,12845288,1.0,-1,-1,,,,
243,491574,571763,0,321919,1.0,-1,-1,,,,
244,519411,644948,0,1572509,1.0,-1,-1,,,,
245,644948,523558,1,7776598,1.0,1,0,-26.9063,-10.5777,35.3335,-43.2873
246,621111,631118,1,2949623,1.0,3,5,-25.3213,-111.324,20.9213,157.67
247,545718,549206,1,24039406,1.0,2,2,-22.6191,89.1477,-21.2689,89.236
248,574136,571763,1,28193947,1.0,4,1,-1.6001,-161.631,-29.8815,-14.7442
249,513526,567089,1,13227654,1.0,4,0,4.9322,-161.189,34.7944,-50.9145
250,491574,491574,1,2276667,1.0,4,4,0.688599,-161.585,0.688599,-161.585
251,533599,644948,0,87485,1.0,-1,-1,,,,
252,459109,466901,1,18109627,1.0,4,4,1.13032,-156.686,-3.8861,-166.339
253,581835,632799,1,3297826,1.0,1,0,-25.388,-15.1947,27.1975,-39.8087
254,581835,632799,1,17210763,1.0,1,0,-25.388,-15.1947,27.1975,-39.8087
255,581835,632799,1,20314618,1.0,1,0,-25.388,-15.1947,27.1975,-39.8087
256,542312,545271,1,15741175,1.0,0,2,34.9741,-39.8233,-21.0222,89.549
257,546031,547030,1,6312018,1.0,1,4,-32.3456,-11.4924,-1.34438,-170.595
258,519411,539294,1,13431028,1.0,2,0,-22.1292,91.2368,25.6853,-42.5918
259,546031,644393,1,2172930,1.0,1,0,-32.3456,-11.4924,31.4697,-34.2309
260,542312,547030,0,30847009,1.0,-1,-1,,,,
261,611268,482937,1,19055723,1.0,3,4,-25.0214,-111.328,1.321,-169.951
262,546031,632799,1,7807220,1.0,1,0,-32.3456,-11.4924,27.1975,-39.8087
263,555058,631118,1,25167363,1.0,0,5,25.2507,-40.5821,20.9213,157.67
264,524495,632799,0,29208289,1.0,-1,-1,,,,
265,533599,635242,0,6418065,1.0,-1,-1,,,,
266,542312,546031,0,3975301,1.0,-1,-1,,,,
267,542312,546031,1,4349554,1.0,0,1,34.9741,-39.8233,-32.3456,-11.4924
268,579463,546031,1,27994333,1.0,0,1,33.0041,-41.4689,-32.3456,-11.4924
269,579463,546031,1,12626192,1.0,0,1,33.0041,-41.4689,-32.3456,-11.4924
270,644948,491574,0,21892372,1.0,-1,-1,,,,
271,610356,644948,1,16635626,1.0,5,1,19.9469,153.532,-26.9063,-10.5777
272,567089,612553,0,23124512,1.0,-1,-1,,,,
273,472513,622645,0,22383046,1.0,-1,-1,,,,
274,538083,594492,1,18757455,1.0,0,0,33.2754,-43.1505,38.4462,-49.279
275,546031,648624,0,21627382,1.0,-1,-1,,,,
276,609400,482387,1,16628401,1.0,3,4,-24.9441,-110.796,-0.918323,-168.288
277,631515,644393,1,14260324,1.0,2,0,-23.9642,88.5773,31.4697,-34.2309
278,631515,644393,1,14167485,1.0,2,0,-23.9642,88.5773,31.4697,-34.2309
279,644948,632647,3,8790252,4.0,-1,-1,,,,
280,486074,587552,1,8242583,1.0,0,5,36.7074,-40.1253,23.7119,156.241
281,644393,598217,1,1926553,1.0,0,3,31.4697,-34.2309,-25.0568,-110.704
282,520967,598217,0,30504984,1.0,-1,-1,,,,
283,546031,612719,1,18264775,1.0,1,0,-32.3456,-11.4924,30.4954,-42.4116
284,581835,550580,1,16341392,1.0,1,3,-25.388,-15.1947,-24.6773,-111.728
285,581835,550580,1,15986394,1.0,1,3,-25.388,-15.1947,-24.6773,-111.728
286,598217,549206,0,31193653,1.0,-1,-1,,,,
287,610356,581835,0,20848184,1.0,-1,-1,,,,
288,574136,631118,0,11284923,1.0,-1,-1,,,,
289,554724,482044,1,29836104,1.0,1,4,-30.6304,-13.4298,7.67465,-166.629
290,644393,581835,0,18506422,1.0,-1,-1,,,,
291,622645,550580,1,3036531,1.0,4,3,-4.64864,-169.112,-24.6773,-111.728
292,482937,542312,0,26020850,1.0,-1,-1,,,,
293,555058,571763,1,11706206,1.0,0,1,25.2507,-40.5821,-29.8815,-14.7442
294,579463,609729,0,30006041,1.0,-1,-1,,,,
295,571763,524495,0,15493253,1.0,-1,-1,,,,
296,494174,487965,1,21966893,1.0,2,0,-21.4845,92.6351,28.3667,-44.3607
297,549206,609729,1,4087457,1.0,2,4,-21.2689,89.236,-4.88788,-162.335
298,581084,594492,0,18431301,1.0,-1,-1,,,,
299,644393,631118,1,16552832,1.0,0,5,31.4697,-34.2309,20.9213,157.67
300,458565,464476,1,26109658,1.0,0,4,34.6258,-46.2583,-8.47145,-166.128
301,555058,631515,1,2606448,1.0,0,2,25.2507,-40.5821,-23.9642,88.5773
302,631515,469356,0,7965605,1.0,-1,-1,,,,
303,561943,537261,1,30615978,1.0,0,4,30.7519,-44.1544,2.40552,-168.447
304,543584,605849,0,16416332,1.0,-1,-1,,,,
305,579463,575155,0,10900695,1.0,-1,-1,,,,
306,612719,571763,0,3815739,1.0,-1,-1,,,,
307,644393,539294,1,29467442,1.0,0,0,31.4697,-34.2309,25.6853,-42.5918
308,561943,581835,0,14451469,1.0,-1,-1,,,,
309,594492,622513,1,28100194,1.0,0,3,38.4462,-49.279,-24.9779,-111.253
310,547030,638343,1,26093935,1.0,4,4,-1.34438,-170.595,0.225691,-161.595
311,571763,520967,1,4673083,1.0,1,5,-29.8815,-14.7442,23.2429,154.141
312,542312,609729,0,8560994,1.0,-1,-1,,,,
313,524201,594876,1,789152,1.0,4,3,0.261294,-162.537,-25.8639,-111.006
