Source,Target,eType
640517,505699,0
530437,530437,1
530437,462596,1
530437,637410,0
530437,510809,0
530437,577058,1
530437,553750,1
530437,600627,1
530437,505747,1
564742,474506,1
564742,586859,0
564742,549882,1
564742,546259,1
564742,651611,1
564742,637410,1
565768,499140,0
565768,545835,1
565768,550960,1
565768,535700,1
565768,600373,1
565768,633377,1
565768,481389,1
565768,510809,1
574482,647192,1
497171,562670,0
497171,593612,0
550420,622561,1
550420,613089,1
547858,598238,1
547858,575462,1
647192,596220,1
647192,481389,0
647192,474506,0
612896,598657,1
612896,479718,1
612896,569329,0
612896,633377,1
612896,496310,0
612896,530437,1
612896,479870,0
633377,534721,1
577058,564037,1
577058,530437,1
577058,505747,0
577058,462596,0
545835,640517,0
545835,479870,0
545835,545182,1
550960,637410,1
550960,637410,0
550960,564742,1
550960,547858,0
550960,506682,1
550960,560233,0
550960,584316,1
600627,586859,0
600627,637410,1
628279,539425,0
628279,564037,1
628279,522632,0
628279,542512,1
628279,651611,1
628279,513736,1
628279,549882,0
628279,479870,0
463943,537384,1
463943,457661,1
463943,481389,1
463943,633377,1
463943,491184,0
463943,647192,1
526415,622561,0
526415,497274,1
526415,457661,1
509029,595730,0
479333,586859,1
479333,522632,0
479333,499140,0
479333,595222,0
479333,564742,0
479333,539425,1
560233,562670,1
560233,564024,0
586859,606191,1
586859,628279,1
481389,463943,1
481389,530437,1
481389,461473,0
481389,550960,0
647288,479881,1
647288,474506,1
497274,496310,1
497274,530437,0
497274,600627,0
504956,574482,0
504956,481389,0
504956,628279,1
584316,534721,1
584316,481389,1
479870,562670,1
479870,575462,1
479870,654770,1
479870,537463,1
479870,628279,1
612992,647192,1
612992,537463,0
612992,560233,1
612992,600627,0
612992,547858,1
612992,628279,1
612992,462596,1
598657,547858,1
545922,617238,0
545922,457661,1
545922,600627,0
602755,481389,0
479881,483828,1
535700,497274,1
535700,612896,0
535700,587930,1
535700,463943,1
535700,553750,1
535700,481389,0
587930,645319,1
461473,526415,0
461473,547858,0
491184,547858,0
491184,505747,1
491184,505747,0
496310,545835,1
496310,513736,0
496310,463943,1
544956,637410,1
544956,565768,1
544956,575462,0
534721,537384,1
534721,565768,0
645319,654770,1
645319,617238,1
513736,530437,0
513736,577058,0
593612,545182,0
593612,562670,1
593612,553750,1
472269,551860,0
644825,472269,0
644825,612992,0
598238,461473,0
613089,530437,1
613089,504035,1
613089,481389,0
613089,535700,1
613089,595222,0
613089,564037,0
613089,602755,1
504035,644825,0
504035,479333,1
596220,618418,1
596220,461473,0
596220,527278,1
596220,526415,0
462596,644825,1
462596,628279,1
462596,476489,0
595730,654770,0
595730,612992,1
595730,463943,0
595730,539425,1
595730,640517,0
595730,534721,0
595730,587930,1
595730,553750,0
553750,535700,1
553750,457661,0
553750,575462,1
553750,600627,0
595222,545922,1
617238,562670,1
539425,637410,1
539425,530437,0
539425,553750,0
537384,628279,0
537384,647192,1
537384,612992,1
610606,506682,0
610606,504035,1
542512,505699,0
542512,547858,1
542512,546259,1
542512,562670,0
600373,527278,0
600373,575462,1
600373,542512,0
564024,499140,0
564024,577058,1
506682,535700,1
521536,497274,0
564037,474506,1
564037,565768,0
476489,595730,0
476489,612992,0
476489,617238,1
476489,462596,0
476489,575462,1
476489,564742,0
510809,535700,1
510809,495089,0
510809,545922,1
510809,479718,1
651611,549882,1
505699,544956,1
505699,530437,1
505699,598657,0
505699,546259,0
505699,479870,1
537463,569329,0
537463,545922,1
537463,479870,1
537463,553750,0
537463,474516,0
537463,617238,0
522632,628279,0
522632,602755,0
522632,550960,1
474506,530437,1
474506,542512,0
474506,565768,0
474506,560233,0
474506,534721,1
474506,479718,0
474506,457661,1
474506,547858,0
505747,463943,1
505747,637410,1
505747,565768,1
505747,600627,0
505747,530437,0
505747,476489,0
505747,612992,1
474516,645319,1
474516,457661,1
474516,504956,0
570269,513736,1
570269,595222,1
570269,647288,0
545182,491184,1
545182,479870,0
527278,550420,0
527278,547858,0
654770,510809,1
654770,521536,0
654770,550960,1
618418,457661,1
618418,530437,1
618418,565768,0
618418,462596,1
618418,633377,1
551860,474516,0
551860,610606,1
551860,542512,1
551860,463943,0
457661,530437,1
457661,617238,1
457661,651611,0
457661,613089,1
457661,577058,0
457661,491184,0
457661,587930,1
457661,586859,1
457661,481389,1
457661,645319,1
457661,595222,1
457661,479718,0
499140,598657,1
499140,633377,0
546259,618418,1
622561,479881,1
622561,530437,0
622561,495089,0
622561,497274,1
637410,633377,1
637410,570269,1
479718,595222,1
479718,647288,0
479718,457661,0
479718,654770,0
575462,570269,1
575462,497171,0
575462,584316,1
575462,545182,0
575462,506682,0
575462,587930,1
575462,553750,1
575462,461473,1
575462,600373,1
575462,462596,1
562670,499140,1
562670,509029,0
606191,587930,1
606191,654770,1
569329,491184,1
569329,596220,1
569329,584316,1
569329,505747,1
569329,530437,1
569329,570269,1
569329,535700,0
569329,545922,1
495089,602755,1
495089,610606,1
495089,545835,0
483828,600373,1
483828,462596,1
483828,569329,1
483828,565768,0
483828,628279,1
549882,526415,1
549882,562670,0
549882,496310,1
549882,595222,0
549882,457661,1
