TemplateId,Id,Distance
39,570284,14.491376746189438
40,570284,15.329709716755891
41,570284,14.491376746189438
73,570284,14.866068747318506
74,570284,15.427248620541512
75,570284,14.866068747318506
77,570284,15.459624833740307
78,570284,14.491376746189438
79,570284,14.491376746189438
80,570284,14.89966442575134
82,570284,18.65475810617763
83,570284,18.65475810617763
84,570284,18.65475810617763
85,570284,14.491376746189438
86,570284,14.491376746189438
87,570284,14.52583904633395
