template,candidate,cosine_distance,match
41,594308,0.8109171757359186,573137
41,524153,0.817828226115091,573137
41,631903,0.7534709149856368,573137
41,573137,0.8305890904498174,573137
41,549840,0.8278848755346137,573137
41,619322,0.7812684838353678,573137
41,483784,0.8358180327793958,573137
41,477657,0.880664222686838,573137
41,530990,0.7083524432771008,573137
41,561819,0.8022603017568002,573137
45,594308,0.7645320594361382,631903
45,524153,0.6762154069938029,631903
45,631903,0.5971683153097105,631903
45,573137,0.7887406951836663,631903
45,549840,0.679144062109198,631903
45,619322,0.708409332654178,631903
45,483784,0.7545150604216001,631903
45,477657,0.7403004416639876,631903
45,530990,0.5883927973412335,631903
45,561819,0.9137817908456889,631903
47,594308,0.7572968813672156,524153
47,524153,0.7255635262604654,524153
47,631903,0.7814378054862243,524153
47,573137,0.8763120569366739,524153
47,549840,0.7813475859209863,524153
47,619322,0.8091733941881669,524153
47,483784,0.8718161572054999,524153
47,477657,0.8448961084783829,524153
47,530990,0.7984813326427702,524153
47,561819,0.900724684561448,524153
0,594308,0.763897919150442,619322
0,524153,0.8176747470427814,619322
0,631903,0.7491726934530331,619322
0,573137,0.8161137237102283,619322
0,549840,0.8554591137382589,619322
0,619322,0.7537050403316738,619322
0,483784,0.8071150718390947,619322
0,477657,0.9311175453162135,619322
0,530990,0.7371957511568019,619322
0,561819,0.7410664228316792,619322
39,594308,0.760721542087428,594308
39,524153,0.7597884068963474,594308
39,631903,0.8158481365020456,594308
39,573137,0.8786206768260717,594308
39,549840,0.8542619213281342,594308
39,619322,0.8291742063107932,594308
39,483784,0.8739154726664992,594308
39,477657,0.9077521836918865,594308
39,530990,0.8102328490351153,594308
39,561819,0.8376294097148405,594308
58,594308,0.651938429423613,561819
58,524153,0.7149398502658129,561819
58,631903,0.7511409306298248,561819
58,573137,0.7620871930691634,561819
58,549840,0.7549555816734026,561819
58,619322,0.715543317484083,561819
58,483784,0.7645574833650339,561819
58,477657,0.8693193506168617,561819
58,530990,0.8663380667773329,561819
58,561819,0.6378433861113963,561819
66,594308,0.862801131885993,
66,524153,0.8578515368812933,
66,631903,0.9142857142857143,
66,573137,0.9029857499854668,
66,549840,0.9482545110331799,
66,619322,0.9382786600151632,
66,483784,0.9226610808763469,
66,477657,0.9753401519041964,
66,530990,0.9670707220030929,
66,561819,0.9188892894346188,
43,594308,0.7938750042486988,530990
43,524153,0.7559300867696879,530990
43,631903,0.7350903409560998,530990
43,573137,0.8709050328485259,530990
43,549840,0.7918433061445671,530990
43,619322,0.7800998501116145,530990
43,483784,0.83401066334364,530990
43,477657,0.8165217569280349,530990
43,530990,0.690915746601315,530990
43,561819,0.871873751126294,530990
67,594308,0.9215401328551087,
67,524153,0.896774107616287,
67,631903,0.9237507148336976,
67,573137,0.9691780532726955,
67,549840,0.9361195607113201,
67,619322,0.9372505592886651,
67,483784,0.9656006157575074,
67,477657,0.9415019087675449,
67,530990,0.8884073818530394,
67,561819,0.9835076434668235,
56,594308,0.8401054691768556,
56,524153,0.7969015924550555,
56,631903,0.7990026042838312,
56,573137,0.9054386304926255,
56,549840,0.8496283105196542,
56,619322,0.8116705538276967,
56,483784,0.8590656228693174,
56,477657,0.8550851606788212,
56,530990,0.8176535101826603,
56,561819,0.8680042897908739,
65,594308,0.8977185174440638,
65,524153,0.8615883810472528,
65,631903,0.8417718518628042,
65,573137,0.9834688160216878,
65,549840,0.9093066633316151,
65,619322,0.8895684739251535,
65,483784,0.9374020463231368,
65,477657,0.9523770287581863,
65,530990,0.7531101057693509,
65,561819,1.0,
40,594308,0.9147173737102612,
40,524153,0.8840576542539198,
40,631903,0.8605514219991459,
40,573137,0.9553304271356501,
40,549840,0.9292031297305923,
40,619322,0.9033747718783078,
40,483784,0.932340627105807,
40,477657,0.9576099982935429,
40,530990,0.8059255128220706,
40,561819,0.9641469829088896,
27,594308,0.8882285312695642,
27,524153,0.7995886238850696,
27,631903,0.840391659416316,
27,573137,0.954837506581445,
27,549840,0.8981388566042123,
27,619322,0.9109283657572035,
27,483784,0.9207930738435521,
27,477657,0.8959168500887967,
27,530990,0.8201352750385345,
27,561819,0.9637513514326688,
34,594308,0.8998853389939709,
34,524153,0.9043996278155546,
34,631903,0.876252840896012,
34,573137,0.9360590593735627,
34,549840,0.9303982906946658,
34,619322,0.892489093254529,
34,483784,0.9198993143707785,
34,477657,0.9535628195205629,
34,530990,0.8925170090101139,
34,561819,0.9083558173422579,
57,594308,0.8451899053241881,477657
57,524153,0.7843428122368643,477657
57,631903,0.8305875507067113,477657
57,573137,0.8840934812149903,477657
57,549840,0.8115893248197479,477657
57,619322,0.8607118758643018,477657
57,483784,0.8870670675360385,477657
57,477657,0.8108610153606676,477657
57,530990,0.790176915073621,477657
57,561819,0.9770296957646324,477657
37,594308,0.8681886983881231,549840
37,524153,0.8265821785038453,549840
37,631903,0.7828441366929328,549840
37,573137,0.8964392608813516,549840
37,549840,0.8030397227754564,549840
37,619322,0.8207893310790706,549840
37,483784,0.8712099513589234,549840
37,477657,0.8315271271197413,549840
37,530990,0.7975283124205408,549840
37,561819,0.9335034617704673,549840
63,594308,0.8026077095536592,483784
63,524153,0.7959503221227697,483784
63,631903,0.7677150554409772,483784
63,573137,0.8715001464530789,483784
63,549840,0.7974208196207191,483784
63,619322,0.7970276188092935,483784
63,483784,0.8481077351458246,483784
63,477657,0.8528282976341341,483784
63,530990,0.7593580737206224,483784
63,561819,0.8755237238066107,483784
