template,candidate,cosine_distance,match
34,629627,0.572123634622467,477138
34,544615,0.4244792808661091,477138
34,515794,0.4498230128847788,477138
34,534449,0.44713673908391516,477138
34,639051,0.44713673908391516,477138
34,582851,0.6360507920824657,477138
34,541017,0.6706277502264606,477138
34,585212,0.6626168713259226,477138
34,602912,0.44603432454103253,477138
34,527597,0.7513159593147157,477138
34,563211,0.7492658947649156,477138
34,599441,0.753501071291582,477138
34,534034,0.7558037924760508,477138
34,572413,0.5073271821286235,477138
34,477138,0.4244792808661091,477138
34,505965,0.44899548135387535,477138
63,629627,0.6181568238531655,582851
63,544615,0.4736833711292968,582851
63,515794,0.5016350656621544,582851
63,534449,0.5057609473135585,582851
63,639051,0.5057609473135585,582851
63,582851,0.6786397722474554,582851
63,541017,0.7168419647253153,582851
63,585212,0.7035856125864327,582851
63,602912,0.47579331457000806,582851
63,527597,0.7696217814445148,582851
63,563211,0.7713407036546165,582851
63,599441,0.7838654577167073,582851
63,534034,0.7926219591969502,582851
63,572413,0.5725825904897217,582851
63,477138,0.4736833711292968,582851
63,505965,0.484064802128472,582851
58,629627,0.6181568238531655,629627
58,544615,0.4736833711292968,629627
58,515794,0.5016350656621544,629627
58,534449,0.5057609473135585,629627
58,639051,0.5057609473135585,629627
58,582851,0.6786397722474554,629627
58,541017,0.7168419647253153,629627
58,585212,0.7035856125864327,629627
58,602912,0.47579331457000806,629627
58,527597,0.7696217814445148,629627
58,563211,0.7713407036546165,629627
58,599441,0.7838654577167073,629627
58,534034,0.7926219591969502,629627
58,572413,0.5725825904897217,629627
58,477138,0.4736833711292968,629627
58,505965,0.484064802128472,629627
37,629627,0.5187841797290162,585212
37,544615,0.40340321103356136,585212
37,515794,0.4058820461642173,585212
37,534449,0.43236167671090386,585212
37,639051,0.43236167671090386,585212
37,582851,0.5896607392254523,585212
37,541017,0.6266573332881036,585212
37,585212,0.5993747313437383,585212
37,602912,0.4126133509541614,585212
37,527597,0.6771724669672528,585212
37,563211,0.6867565585033965,585212
37,599441,0.6977217390231276,585212
37,534034,0.6978457140181686,585212
37,572413,0.49504311854839966,585212
37,477138,0.40340321103356136,585212
37,505965,0.3973224604233955,585212
45,629627,0.585963068706342,505965
45,544615,0.4529260273656117,505965
45,515794,0.469070545570874,505965
45,534449,0.4837348994680274,505965
45,639051,0.4837348994680274,505965
45,582851,0.6470249611684279,505965
45,541017,0.6844494161360084,505965
45,585212,0.6685682259135906,505965
45,602912,0.45714404911141493,505965
45,527597,0.7388996699792423,505965
45,563211,0.7447523863979671,505965
45,599441,0.755516456524684,505965
45,534034,0.7618451245513445,505965
45,572413,0.5479518784319458,505965
45,477138,0.4529260273656117,505965
45,505965,0.45164699402484776,505965
56,629627,0.6199022825538254,563211
56,544615,0.5040423567510169,563211
56,515794,0.5352493402009479,563211
56,534449,0.545241814101789,563211
56,639051,0.545241814101789,563211
56,582851,0.6796354497128443,563211
56,541017,0.7278685535371983,563211
56,585212,0.6917683643938901,563211
56,602912,0.4940750152029151,563211
56,527597,0.7215544772312477,563211
56,563211,0.7465742193378473,563211
56,599441,0.7695315634818031,563211
56,534034,0.7841638040148005,563211
56,572413,0.6160281814654661,563211
56,477138,0.5040423567510169,563211
56,505965,0.5004011802135486,563211
43,629627,0.6181568238531655,602912
43,544615,0.4736833711292968,602912
43,515794,0.5016350656621544,602912
43,534449,0.5057609473135585,602912
43,639051,0.5057609473135585,602912
43,582851,0.6786397722474554,602912
43,541017,0.7168419647253153,602912
43,585212,0.7035856125864327,602912
43,602912,0.47579331457000806,602912
43,527597,0.7696217814445148,602912
43,563211,0.7713407036546165,602912
43,599441,0.7838654577167073,602912
43,534034,0.7926219591969502,602912
43,572413,0.5725825904897217,602912
43,477138,0.4736833711292968,602912
43,505965,0.484064802128472,602912
41,629627,0.5935573462031862,544615
41,544615,0.40359469723276287,544615
41,515794,0.46727418626183437,544615
41,534449,0.3970964994759707,544615
41,639051,0.3970964994759707,544615
41,582851,0.6091767785309299,544615
41,541017,0.642985825903181,544615
41,585212,0.6897456133217699,544615
41,602912,0.4795808482099664,544615
41,527597,0.8432105001821839,544615
41,563211,0.8406288094051072,544615
41,599441,0.8282413596234873,544615
41,534034,0.8164169048196992,544615
41,572413,0.43451445648619125,544615
41,477138,0.40359469723276287,544615
41,505965,0.4983234542340619,544615
27,629627,0.6199022825538254,527597
27,544615,0.5040423567510169,527597
27,515794,0.5352493402009479,527597
27,534449,0.545241814101789,527597
27,639051,0.545241814101789,527597
27,582851,0.6796354497128443,527597
27,541017,0.7278685535371983,527597
27,585212,0.6917683643938901,527597
27,602912,0.4940750152029151,527597
27,527597,0.7215544772312477,527597
27,563211,0.7465742193378473,527597
27,599441,0.7695315634818031,527597
27,534034,0.7841638040148005,527597
27,572413,0.6160281814654661,527597
27,477138,0.5040423567510169,527597
27,505965,0.5004011802135486,527597
47,629627,0.49330403324109595,599441
47,544615,0.40554983290588487,599441
47,515794,0.42236958607813935,599441
47,534449,0.4311380549940147,599441
47,639051,0.4311380549940147,599441
47,582851,0.5756827964769924,599441
47,541017,0.6151103777419062,599441
47,585212,0.5611746736368097,599441
47,602912,0.4309549014490234,599441
47,527597,0.6245330291598055,599441
47,563211,0.6298785483830628,599441
47,599441,0.6462700453622989,599441
47,534034,0.6550598978746538,599441
47,572413,0.48843886448971197,599441
47,477138,0.40554983290588487,599441
47,505965,0.42705983938657566,599441
57,629627,0.41285911814991205,515794
57,544615,0.32379988575539287,515794
57,515794,0.28583323271161065,515794
57,534449,0.35520101966398787,515794
57,639051,0.35520101966398787,515794
57,582851,0.519795804909666,515794
57,541017,0.5499681133553116,515794
57,585212,0.49368122413801074,515794
57,602912,0.3188347018177563,515794
57,527597,0.5880554017088816,515794
57,563211,0.5842201042442735,515794
57,599441,0.5977112705968385,515794
57,534034,0.5822582692786931,515794
57,572413,0.42241362136579674,515794
57,477138,0.32379988575539287,515794
57,505965,0.2818837877517476,515794
40,629627,0.6233775340273421,541017
40,544615,0.41327146718998153,541017
40,515794,0.5477059360799297,541017
40,534449,0.3595075495296235,541017
40,639051,0.3595075495296235,541017
40,582851,0.5730787999061774,541017
40,541017,0.6018788033806862,541017
40,585212,0.709305161897694,541017
40,602912,0.5890353892011321,541017
40,527597,0.9452758720694702,541017
40,563211,0.931219844173305,541017
40,599441,0.90132552026482,541017
40,534034,0.8790034894546396,541017
40,572413,0.35237268800200194,541017
40,477138,0.41327146718998153,541017
40,505965,0.6566353888481704,541017
0,629627,0.6085999922454202,639051
0,544615,0.3941838173607256,639051
0,515794,0.4742072326275729,639051
0,534449,0.3535724685906876,639051
0,639051,0.3535724685906876,639051
0,582851,0.5877003486540816,639051
0,541017,0.6074973635632106,639051
0,585212,0.7086718246749673,639051
0,602912,0.5292153761616296,639051
0,527597,0.9370013868674227,639051
0,563211,0.9163323868153898,639051
0,599441,0.8823737355172088,639051
0,534034,0.8524618212731511,639051
0,572413,0.36064236730970745,639051
0,477138,0.3941838173607256,639051
0,505965,0.5601621431718165,639051
39,629627,0.6085999922454202,534449
39,544615,0.3941838173607256,534449
39,515794,0.4742072326275729,534449
39,534449,0.3535724685906876,534449
39,639051,0.3535724685906876,534449
39,582851,0.5877003486540816,534449
39,541017,0.6074973635632106,534449
39,585212,0.7086718246749673,534449
39,602912,0.5292153761616296,534449
39,527597,0.9370013868674227,534449
39,563211,0.9163323868153898,534449
39,599441,0.8823737355172088,534449
39,534034,0.8524618212731511,534449
39,572413,0.36064236730970745,534449
39,477138,0.3941838173607256,534449
39,505965,0.5601621431718165,534449
65,629627,0.6233775340273421,572413
65,544615,0.41327146718998153,572413
65,515794,0.5477059360799297,572413
65,534449,0.3595075495296235,572413
65,639051,0.3595075495296235,572413
65,582851,0.5730787999061774,572413
65,541017,0.6018788033806862,572413
65,585212,0.709305161897694,572413
65,602912,0.5890353892011321,572413
65,527597,0.9452758720694702,572413
65,563211,0.931219844173305,572413
65,599441,0.90132552026482,572413
65,534034,0.8790034894546396,572413
65,572413,0.35237268800200194,572413
65,477138,0.41327146718998153,572413
65,505965,0.6566353888481704,572413
