,Source,eType,Target,Time,Weight,SourceLocation,TargetLocation,SourceLatitude,SourceLongitude,TargetLatitude,TargetLongitude
4276,456761,1,508659,2025-06-07 05:23:13,1.0,4,1,5.73393,-164.85,-30.3708,-12.6149
154478,457002,0,545211,2025-09-05 04:36:17,1.0,-1,-1,,,,
186651,457058,1,464993,2025-02-13 02:32:22,1.0,2,4,-20.0432,91.2884,-3.05257,-163.531
186784,457058,1,459593,2025-02-11 10:36:25,1.0,2,3,-20.0432,91.2884,-24.5625,-110.97
187399,457058,1,464993,2025-06-09 05:12:58,1.0,2,4,-20.0432,91.2884,-3.05257,-163.531
188738,457058,0,483282,2025-04-22 03:51:17,1.0,-1,-1,,,,
189168,457058,1,483282,2025-12-25 03:20:28,1.0,2,2,-20.0432,91.2884,-22.0344,96.172
189277,457058,1,545211,2025-08-26 00:12:00,1.0,2,2,-20.0432,91.2884,-24.8311,88.651
192247,457058,1,464993,2025-06-09 13:06:42,1.0,2,4,-20.0432,91.2884,-3.05257,-163.531
192308,457058,0,483282,2025-05-29 06:00:51,1.0,-1,-1,,,,
274419,457170,0,483282,2025-12-03 14:30:33,1.0,-1,-1,,,,
930719,458115,1,459593,2025-11-25 10:48:10,1.0,0,3,29.5269,-35.4643,-24.5625,-110.97
931229,458115,1,459593,2025-08-10 00:11:41,1.0,0,3,29.5269,-35.4643,-24.5625,-110.97
931269,458115,1,459593,2025-11-23 20:24:05,1.0,0,3,29.5269,-35.4643,-24.5625,-110.97
1229636,458640,1,483282,2025-03-19 07:31:59,1.0,1,2,-29.8264,-14.8811,-22.0344,96.172
1230604,458640,1,483282,2025-11-10 06:20:13,1.0,1,2,-29.8264,-14.8811,-22.0344,96.172
1230995,458640,0,545211,2025-01-23 00:00:48,1.0,-1,-1,,,,
1231810,458640,1,608508,2025-07-29 11:33:24,1.0,1,3,-29.8264,-14.8811,-24.8099,-111.629
1231943,458640,1,545211,2025-07-26 03:40:55,1.0,1,2,-29.8264,-14.8811,-24.8311,88.651
1233116,458640,1,508659,2025-08-08 08:59:41,1.0,1,1,-29.8264,-14.8811,-30.3708,-12.6149
1795496,459593,0,457058,2025-07-01 17:44:01,1.0,-1,-1,,,,
2310211,460478,0,608508,2025-05-02 09:20:15,1.0,-1,-1,,,,
2310708,460478,1,483282,2025-09-28 02:23:12,1.0,4,2,4.54364,-163.755,-22.0344,96.172
8508650,483282,1,458640,2025-04-30 05:23:53,1.0,2,1,-22.0344,96.172,-29.8264,-14.8811
8508754,483282,1,460478,2025-08-27 01:44:59,1.0,2,4,-22.0344,96.172,4.54364,-163.755
8510430,483282,1,483282,2025-11-22 13:20:36,1.0,2,2,-22.0344,96.172,-22.0344,96.172
8511169,483282,0,494508,2025-06-23 07:00:31,1.0,-1,-1,,,,
8513844,483282,0,457058,2025-02-28 18:42:03,1.0,-1,-1,,,,
8516385,483282,1,483282,2025-12-27 12:36:37,1.0,2,2,-22.0344,96.172,-22.0344,96.172
8518084,483282,0,608508,2025-01-19 05:42:26,1.0,-1,-1,,,,
8519063,483282,1,508659,2025-05-15 09:20:23,1.0,2,1,-22.0344,96.172,-30.3708,-12.6149
15411238,494508,1,545211,2025-04-14 10:36:08,1.0,2,2,-22.5174,90.2463,-24.8311,88.651
15412123,494508,0,483282,2025-05-17 02:33:36,1.0,-1,-1,,,,
15415329,494508,0,483282,2025-07-24 06:24:51,1.0,-1,-1,,,,
15415538,494508,1,545211,2025-07-22 01:44:58,1.0,2,2,-22.5174,90.2463,-24.8311,88.651
15417804,494508,1,545211,2025-11-27 00:15:22,1.0,2,2,-22.5174,90.2463,-24.8311,88.651
24662464,508659,1,608508,2025-11-10 04:12:18,1.0,1,3,-30.3708,-12.6149,-24.8099,-111.629
24663925,508659,1,457002,2025-03-29 00:45:56,1.0,1,3,-30.3708,-12.6149,-25.35,-112.53
24666426,508659,0,483282,2025-02-10 10:02:11,1.0,-1,-1,,,,
24667770,508659,1,456761,2025-05-13 05:19:41,1.0,1,4,-30.3708,-12.6149,5.73393,-164.85
24668451,508659,0,464993,2025-04-30 00:00:39,1.0,-1,-1,,,,
24672677,508659,1,460478,2025-03-05 04:46:29,1.0,1,4,-30.3708,-12.6149,4.54364,-163.755
24675887,508659,1,494508,2025-09-10 09:04:56,1.0,1,2,-30.3708,-12.6149,-22.5174,90.2463
24676220,508659,0,545211,2025-10-17 08:40:19,1.0,-1,-1,,,,
24676706,508659,1,545211,2025-10-25 01:06:45,1.0,1,2,-30.3708,-12.6149,-24.8311,88.651
24677459,508659,1,494508,2025-09-29 07:40:48,1.0,1,2,-30.3708,-12.6149,-22.5174,90.2463
24677978,508659,0,460478,2025-07-18 08:00:37,1.0,-1,-1,,,,
24678200,508659,0,608508,2025-07-14 03:58:07,1.0,-1,-1,,,,
43449884,464993,1,457058,2025-08-31 21:11:55,1.0,4,2,-3.05257,-163.531,-20.0432,91.2884
43450089,464993,1,457058,2025-09-02 11:26:40,1.0,4,2,-3.05257,-163.531,-20.0432,91.2884
49765604,545211,1,457002,2025-05-05 06:54:37,1.0,2,3,-24.8311,88.651,-25.35,-112.53
49765742,545211,1,608508,2025-07-08 01:44:31,1.0,2,3,-24.8311,88.651,-24.8099,-111.629
49768311,545211,0,545211,2025-04-24 04:03:36,1.0,-1,-1,,,,
49769627,545211,1,508659,2025-01-24 00:34:24,1.0,2,1,-24.8311,88.651,-30.3708,-12.6149
49773027,545211,1,494508,2025-01-11 15:03:50,1.0,2,2,-24.8311,88.651,-22.5174,90.2463
49773352,545211,1,494508,2025-01-29 11:54:40,1.0,2,2,-24.8311,88.651,-22.5174,90.2463
49773683,545211,1,464993,2025-11-02 01:48:52,1.0,2,4,-24.8311,88.651,-3.05257,-163.531
61317263,559853,1,494508,2025-09-28 01:12:35,1.0,2,2,-22.5504,90.7806,-22.5174,90.2463
81955641,592124,0,483282,2025-07-13 04:19:38,1.0,-1,-1,,,,
92731732,608508,0,457002,2025-11-25 01:10:41,1.0,-1,-1,,,,
92734037,608508,1,457058,2025-12-20 00:26:54,1.0,3,2,-24.8099,-111.629,-20.0432,91.2884
92738484,608508,0,604379,2025-11-20 09:48:35,1.0,-1,-1,,,,
3274,456761,5,473173,2026-01-01 00:00:00,973.03,-1,-1,,,,
3275,456761,5,632961,2026-01-01 00:00:00,43.3,-1,-1,,,,
3276,456761,5,644226,2026-01-01 00:00:00,858.35,-1,-1,,,,
3277,456761,5,642329,2026-01-01 00:00:00,513.13,-1,-1,,,,
3283,456761,5,503701,2026-01-01 00:00:00,1885.96,-1,-1,,,,
3295,456761,5,620120,2026-01-01 00:00:00,2534.88,-1,-1,,,,
3318,456761,5,575030,2026-01-01 00:00:00,1282.69,-1,-1,,,,
3319,456761,5,621924,2026-01-01 00:00:00,1337.18,-1,-1,,,,
3632,456761,5,595298,2026-01-01 00:00:00,300.33,-1,-1,,,,
3636,456761,5,466907,2026-01-01 00:00:00,276.47,-1,-1,,,,
3639,456761,5,589943,2026-01-01 00:00:00,926.63,-1,-1,,,,
3647,456761,5,520660,2026-01-01 00:00:00,943.25,-1,-1,,,,
3648,456761,5,567195,2026-01-01 00:00:00,3099.36,-1,-1,,,,
3650,456761,5,527449,2026-01-01 00:00:00,160.1,-1,-1,,,,
3655,456761,5,459381,2026-01-01 00:00:00,157.7,-1,-1,,,,
3662,456761,5,536346,2026-01-01 00:00:00,888.31,-1,-1,,,,
3665,456761,5,580426,2026-01-01 00:00:00,340.25,-1,-1,,,,
3668,456761,5,616315,2026-01-01 00:00:00,334.24,-1,-1,,,,
3685,456761,5,577992,2026-01-01 00:00:00,24.91,-1,-1,,,,
3686,456761,5,537281,2026-01-01 00:00:00,307.2,-1,-1,,,,
3690,456761,5,523927,2026-01-01 00:00:00,877.51,-1,-1,,,,
3748,456761,5,640784,2026-01-01 00:00:00,247.71,-1,-1,,,,
155901,457002,5,575030,2026-01-01 00:00:00,3272.17,-1,-1,,,,
155902,457002,5,620120,2026-01-01 00:00:00,1146.5,-1,-1,,,,
155905,457002,5,473173,2026-01-01 00:00:00,2305.16,-1,-1,,,,
155908,457002,5,595581,2026-01-01 00:00:00,1047.76,-1,-1,,,,
155910,457002,5,503701,2026-01-01 00:00:00,343.96,-1,-1,,,,
155912,457002,5,571970,2026-01-01 00:00:00,139.91,-1,-1,,,,
155917,457002,5,632961,2026-01-01 00:00:00,4.13,-1,-1,,,,
155923,457002,5,621924,2026-01-01 00:00:00,441.22,-1,-1,,,,
155966,457002,5,523927,2026-01-01 00:00:00,1725.18,-1,-1,,,,
155968,457002,5,537281,2026-01-01 00:00:00,386.47,-1,-1,,,,
156011,457002,5,459381,2026-01-01 00:00:00,85.79,-1,-1,,,,
156013,457002,5,595298,2026-01-01 00:00:00,318.04,-1,-1,,,,
156014,457002,5,466907,2026-01-01 00:00:00,336.2,-1,-1,,,,
156022,457002,5,589943,2026-01-01 00:00:00,2039.72,-1,-1,,,,
156023,457002,5,577992,2026-01-01 00:00:00,2220.9,-1,-1,,,,
156028,457002,5,527449,2026-01-01 00:00:00,298.18,-1,-1,,,,
156031,457002,5,630626,2026-01-01 00:00:00,3099.15,-1,-1,,,,
156045,457002,5,640784,2026-01-01 00:00:00,304.23,-1,-1,,,,
156049,457002,5,567195,2026-01-01 00:00:00,1236.71,-1,-1,,,,
186115,457058,5,536346,2026-01-01 00:00:00,1018.93,-1,-1,,,,
186296,457058,5,537281,2026-01-01 00:00:00,106.71,-1,-1,,,,
186304,457058,5,595581,2026-01-01 00:00:00,286.52,-1,-1,,,,
186312,457058,5,503701,2026-01-01 00:00:00,1477.16,-1,-1,,,,
186317,457058,5,644226,2026-01-01 00:00:00,696.1,-1,-1,,,,
186321,457058,5,473173,2026-01-01 00:00:00,1020.05,-1,-1,,,,
186342,457058,5,616315,2026-01-01 00:00:00,1799.9,-1,-1,,,,
186343,457058,5,642329,2026-01-01 00:00:00,475.46,-1,-1,,,,
186357,457058,5,520660,2026-01-01 00:00:00,1017.6,-1,-1,,,,
186366,457058,5,527449,2026-01-01 00:00:00,508.54,-1,-1,,,,
186367,457058,5,459381,2026-01-01 00:00:00,122.32,-1,-1,,,,
186417,457058,5,589943,2026-01-01 00:00:00,547.59,-1,-1,,,,
186430,457058,5,595298,2026-01-01 00:00:00,557.47,-1,-1,,,,
186433,457058,5,466907,2026-01-01 00:00:00,334.19,-1,-1,,,,
187240,457058,5,621924,2026-01-01 00:00:00,5112.77,-1,-1,,,,
275884,457170,5,632961,2026-01-01 00:00:00,309.99,-1,-1,,,,
275885,457170,5,473173,2026-01-01 00:00:00,369.37,-1,-1,,,,
275886,457170,5,620120,2026-01-01 00:00:00,610.4,-1,-1,,,,
275892,457170,5,575030,2026-01-01 00:00:00,1654.91,-1,-1,,,,
275906,457170,5,466907,2026-01-01 00:00:00,258.09,-1,-1,,,,
275907,457170,5,589943,2026-01-01 00:00:00,955.5,-1,-1,,,,
275908,457170,5,577992,2026-01-01 00:00:00,912.19,-1,-1,,,,
275910,457170,5,523927,2026-01-01 00:00:00,1946.31,-1,-1,,,,
275915,457170,5,595581,2026-01-01 00:00:00,306.79,-1,-1,,,,
275916,457170,5,616315,2026-01-01 00:00:00,691.15,-1,-1,,,,
275920,457170,5,642329,2026-01-01 00:00:00,782.44,-1,-1,,,,
275921,457170,5,503701,2026-01-01 00:00:00,554.52,-1,-1,,,,
275923,457170,5,580426,2026-01-01 00:00:00,353.74,-1,-1,,,,
276016,457170,5,503218,2026-01-01 00:00:00,490.17,-1,-1,,,,
276018,457170,5,630626,2026-01-01 00:00:00,3206.22,-1,-1,,,,
276020,457170,5,527449,2026-01-01 00:00:00,206.77,-1,-1,,,,
276027,457170,5,459381,2026-01-01 00:00:00,170.96,-1,-1,,,,
276030,457170,5,595298,2026-01-01 00:00:00,727.87,-1,-1,,,,
931971,458115,5,503218,2026-01-01 00:00:00,1111.89,-1,-1,,,,
931977,458115,5,621924,2026-01-01 00:00:00,1079.98,-1,-1,,,,
931978,458115,5,575030,2026-01-01 00:00:00,8326.3,-1,-1,,,,
931979,458115,5,473173,2026-01-01 00:00:00,489.64,-1,-1,,,,
931980,458115,5,632961,2026-01-01 00:00:00,685.45,-1,-1,,,,
931981,458115,5,571970,2026-01-01 00:00:00,45.75,-1,-1,,,,
931982,458115,5,503701,2026-01-01 00:00:00,3698.63,-1,-1,,,,
931983,458115,5,642329,2026-01-01 00:00:00,3330.22,-1,-1,,,,
931984,458115,5,616315,2026-01-01 00:00:00,990.53,-1,-1,,,,
931985,458115,5,595581,2026-01-01 00:00:00,1210.64,-1,-1,,,,
931986,458115,5,523927,2026-01-01 00:00:00,2939.39,-1,-1,,,,
931987,458115,5,537281,2026-01-01 00:00:00,1302.53,-1,-1,,,,
931988,458115,5,577992,2026-01-01 00:00:00,4303.15,-1,-1,,,,
931989,458115,5,589943,2026-01-01 00:00:00,2164.67,-1,-1,,,,
931990,458115,5,606730,2026-01-01 00:00:00,1467.89,-1,-1,,,,
931991,458115,5,466907,2026-01-01 00:00:00,983.38,-1,-1,,,,
931992,458115,5,595298,2026-01-01 00:00:00,1763.51,-1,-1,,,,
931993,458115,5,459381,2026-01-01 00:00:00,961.58,-1,-1,,,,
931994,458115,5,527449,2026-01-01 00:00:00,753.59,-1,-1,,,,
931995,458115,5,567195,2026-01-01 00:00:00,3456.99,-1,-1,,,,
931996,458115,5,630626,2026-01-01 00:00:00,9772.8,-1,-1,,,,
1231635,458640,5,473173,2026-01-01 00:00:00,331.19,-1,-1,,,,
1231636,458640,5,620120,2026-01-01 00:00:00,9590.16,-1,-1,,,,
1231654,458640,5,632961,2026-01-01 00:00:00,681.96,-1,-1,,,,
1231656,458640,5,642329,2026-01-01 00:00:00,2299.83,-1,-1,,,,
1231662,458640,5,503701,2026-01-01 00:00:00,1965.68,-1,-1,,,,
1231666,458640,5,644226,2026-01-01 00:00:00,39.88,-1,-1,,,,
1231696,458640,5,616315,2026-01-01 00:00:00,1183.92,-1,-1,,,,
1231764,458640,5,527449,2026-01-01 00:00:00,554.24,-1,-1,,,,
1231765,458640,5,459381,2026-01-01 00:00:00,649.18,-1,-1,,,,
1231770,458640,5,595298,2026-01-01 00:00:00,2746.31,-1,-1,,,,
1231773,458640,5,466907,2026-01-01 00:00:00,796.81,-1,-1,,,,
1231777,458640,5,589943,2026-01-01 00:00:00,5201.68,-1,-1,,,,
1231779,458640,5,537281,2026-01-01 00:00:00,227.6,-1,-1,,,,
1231780,458640,5,523927,2026-01-01 00:00:00,1176.33,-1,-1,,,,
1231783,458640,5,580426,2026-01-01 00:00:00,1681.94,-1,-1,,,,
1231795,458640,5,640784,2026-01-01 00:00:00,903.12,-1,-1,,,,
1231798,458640,5,520660,2026-01-01 00:00:00,3107.8,-1,-1,,,,
1231803,458640,5,567195,2026-01-01 00:00:00,5313.72,-1,-1,,,,
1231804,458640,5,536346,2026-01-01 00:00:00,1389.71,-1,-1,,,,
1796009,459593,5,571970,2026-01-01 00:00:00,10.68,-1,-1,,,,
1796010,459593,5,644226,2026-01-01 00:00:00,363.54,-1,-1,,,,
1796012,459593,5,632961,2026-01-01 00:00:00,189.41,-1,-1,,,,
1796013,459593,5,473173,2026-01-01 00:00:00,178.94,-1,-1,,,,
1796016,459593,5,575030,2026-01-01 00:00:00,7954.04,-1,-1,,,,
1796018,459593,5,621924,2026-01-01 00:00:00,1251.73,-1,-1,,,,
1796038,459593,5,503701,2026-01-01 00:00:00,349.78,-1,-1,,,,
1796040,459593,5,642329,2026-01-01 00:00:00,184.09,-1,-1,,,,
1796041,459593,5,616315,2026-01-01 00:00:00,624.92,-1,-1,,,,
1796042,459593,5,640784,2026-01-01 00:00:00,475.98,-1,-1,,,,
1796043,459593,5,503218,2026-01-01 00:00:00,564.64,-1,-1,,,,
1796044,459593,5,536346,2026-01-01 00:00:00,2647.63,-1,-1,,,,
1796045,459593,5,520660,2026-01-01 00:00:00,1876.55,-1,-1,,,,
1796046,459593,5,567195,2026-01-01 00:00:00,1296.54,-1,-1,,,,
1796047,459593,5,527449,2026-01-01 00:00:00,284.93,-1,-1,,,,
1796049,459593,5,459381,2026-01-01 00:00:00,495.69,-1,-1,,,,
1796050,459593,5,595298,2026-01-01 00:00:00,1307.7,-1,-1,,,,
1796051,459593,5,466907,2026-01-01 00:00:00,651.72,-1,-1,,,,
1796065,459593,5,577992,2026-01-01 00:00:00,1238.1,-1,-1,,,,
1796066,459593,5,537281,2026-01-01 00:00:00,798.27,-1,-1,,,,
1796067,459593,5,523927,2026-01-01 00:00:00,2026.09,-1,-1,,,,
1796071,459593,5,595581,2026-01-01 00:00:00,1452.87,-1,-1,,,,
2310772,460478,5,466907,2026-01-01 00:00:00,213.73,-1,-1,,,,
2310774,460478,5,595298,2026-01-01 00:00:00,191.99,-1,-1,,,,
2310775,460478,5,459381,2026-01-01 00:00:00,289.42,-1,-1,,,,
2310776,460478,5,527449,2026-01-01 00:00:00,69.98,-1,-1,,,,
2310777,460478,5,567195,2026-01-01 00:00:00,1085.48,-1,-1,,,,
2310778,460478,5,630626,2026-01-01 00:00:00,2562.22,-1,-1,,,,
2310779,460478,5,640784,2026-01-01 00:00:00,175.37,-1,-1,,,,
2310791,460478,5,577992,2026-01-01 00:00:00,547.99,-1,-1,,,,
2310794,460478,5,621924,2026-01-01 00:00:00,90.71,-1,-1,,,,
2310798,460478,5,620120,2026-01-01 00:00:00,1099.61,-1,-1,,,,
2310799,460478,5,473173,2026-01-01 00:00:00,612.67,-1,-1,,,,
2310800,460478,5,632961,2026-01-01 00:00:00,182.17,-1,-1,,,,
2310803,460478,5,503701,2026-01-01 00:00:00,1538.9,-1,-1,,,,
2310804,460478,5,616315,2026-01-01 00:00:00,191.81,-1,-1,,,,
2310806,460478,5,595581,2026-01-01 00:00:00,30.13,-1,-1,,,,
2310807,460478,5,580426,2026-01-01 00:00:00,242.87,-1,-1,,,,
2310808,460478,5,523927,2026-01-01 00:00:00,1619.21,-1,-1,,,,
2310809,460478,5,589943,2026-01-01 00:00:00,186.97,-1,-1,,,,
8514583,483282,5,630626,2026-01-01 00:00:00,5029.17,-1,-1,,,,
8514725,483282,5,640784,2026-01-01 00:00:00,945.07,-1,-1,,,,
8514794,483282,5,527449,2026-01-01 00:00:00,162.78,-1,-1,,,,
8514857,483282,5,567195,2026-01-01 00:00:00,29.41,-1,-1,,,,
8515648,483282,5,642329,2026-01-01 00:00:00,328.02,-1,-1,,,,
8515666,483282,5,503701,2026-01-01 00:00:00,1211.93,-1,-1,,,,
8515673,483282,5,571970,2026-01-01 00:00:00,15.86,-1,-1,,,,
8515716,483282,5,595298,2026-01-01 00:00:00,1262.05,-1,-1,,,,
8515737,483282,5,459381,2026-01-01 00:00:00,36.18,-1,-1,,,,
8515753,483282,5,466907,2026-01-01 00:00:00,374.71,-1,-1,,,,
8515774,483282,5,595581,2026-01-01 00:00:00,714.34,-1,-1,,,,
8515793,483282,5,523927,2026-01-01 00:00:00,1176.41,-1,-1,,,,
8515825,483282,5,621924,2026-01-01 00:00:00,5657.84,-1,-1,,,,
8515919,483282,5,632961,2026-01-01 00:00:00,324.12,-1,-1,,,,
8515943,483282,5,575030,2026-01-01 00:00:00,5566.12,-1,-1,,,,
8515952,483282,5,473173,2026-01-01 00:00:00,375.27,-1,-1,,,,
15414411,494508,5,621924,2026-01-01 00:00:00,1028.85,-1,-1,,,,
15414413,494508,5,575030,2026-01-01 00:00:00,2564.88,-1,-1,,,,
15414416,494508,5,620120,2026-01-01 00:00:00,3589.0,-1,-1,,,,
15414417,494508,5,473173,2026-01-01 00:00:00,213.42,-1,-1,,,,
15414418,494508,5,632961,2026-01-01 00:00:00,830.78,-1,-1,,,,
15414420,494508,5,644226,2026-01-01 00:00:00,1459.66,-1,-1,,,,
15414421,494508,5,642329,2026-01-01 00:00:00,1134.96,-1,-1,,,,
15414422,494508,5,595581,2026-01-01 00:00:00,1141.6,-1,-1,,,,
15414423,494508,5,580426,2026-01-01 00:00:00,780.74,-1,-1,,,,
15414435,494508,5,523927,2026-01-01 00:00:00,2667.51,-1,-1,,,,
15414446,494508,5,589943,2026-01-01 00:00:00,4935.97,-1,-1,,,,
15414447,494508,5,466907,2026-01-01 00:00:00,8.88,-1,-1,,,,
15414468,494508,5,595298,2026-01-01 00:00:00,2723.85,-1,-1,,,,
15414469,494508,5,459381,2026-01-01 00:00:00,310.74,-1,-1,,,,
15414470,494508,5,527449,2026-01-01 00:00:00,203.42,-1,-1,,,,
15414471,494508,5,567195,2026-01-01 00:00:00,7219.24,-1,-1,,,,
15414472,494508,5,536346,2026-01-01 00:00:00,22.54,-1,-1,,,,
24664889,508659,5,536346,2026-01-01 00:00:00,271.14,-1,-1,,,,
24664891,508659,5,520660,2026-01-01 00:00:00,2117.77,-1,-1,,,,
24664892,508659,5,527449,2026-01-01 00:00:00,6.35,-1,-1,,,,
24664893,508659,5,459381,2026-01-01 00:00:00,313.07,-1,-1,,,,
24664894,508659,5,595298,2026-01-01 00:00:00,1254.31,-1,-1,,,,
24664895,508659,5,466907,2026-01-01 00:00:00,445.78,-1,-1,,,,
24664896,508659,5,589943,2026-01-01 00:00:00,866.23,-1,-1,,,,
24664897,508659,5,537281,2026-01-01 00:00:00,579.91,-1,-1,,,,
24664898,508659,5,523927,2026-01-01 00:00:00,197.27,-1,-1,,,,
24664899,508659,5,580426,2026-01-01 00:00:00,463.6,-1,-1,,,,
24664900,508659,5,595581,2026-01-01 00:00:00,630.66,-1,-1,,,,
24664901,508659,5,642329,2026-01-01 00:00:00,1193.99,-1,-1,,,,
24664902,508659,5,503701,2026-01-01 00:00:00,1562.36,-1,-1,,,,
24664903,508659,5,644226,2026-01-01 00:00:00,663.54,-1,-1,,,,
24664904,508659,5,567195,2026-01-01 00:00:00,550.86,-1,-1,,,,
24664905,508659,5,632961,2026-01-01 00:00:00,472.37,-1,-1,,,,
24664936,508659,5,473173,2026-01-01 00:00:00,475.21,-1,-1,,,,
24664937,508659,5,621924,2026-01-01 00:00:00,626.16,-1,-1,,,,
24664965,508659,5,620120,2026-01-01 00:00:00,1537.21,-1,-1,,,,
25545619,510031,5,458115,2026-01-01 00:00:00,1890.57,-1,-1,,,,
25558378,510031,5,608508,2026-01-01 00:00:00,2922.94,-1,-1,,,,
25559969,510031,5,508659,2026-01-01 00:00:00,1612.58,-1,-1,,,,
25562181,510031,5,457170,2026-01-01 00:00:00,83.83,-1,-1,,,,
25564285,510031,5,464993,2026-01-01 00:00:00,143.3,-1,-1,,,,
25565202,510031,5,559853,2026-01-01 00:00:00,704.33,-1,-1,,,,
25565991,510031,5,483282,2026-01-01 00:00:00,866.32,-1,-1,,,,
25569862,510031,5,456761,2026-01-01 00:00:00,56.54,-1,-1,,,,
25574223,510031,5,460478,2026-01-01 00:00:00,148.73,-1,-1,,,,
25575795,510031,5,457002,2026-01-01 00:00:00,1112.61,-1,-1,,,,
43448728,464993,5,577992,2026-01-01 00:00:00,585.5,-1,-1,,,,
43448729,464993,5,589943,2026-01-01 00:00:00,317.36,-1,-1,,,,
43448730,464993,5,466907,2026-01-01 00:00:00,288.0,-1,-1,,,,
43448731,464993,5,595298,2026-01-01 00:00:00,157.09,-1,-1,,,,
43448733,464993,5,459381,2026-01-01 00:00:00,263.23,-1,-1,,,,
43448734,464993,5,527449,2026-01-01 00:00:00,81.14,-1,-1,,,,
43448735,464993,5,567195,2026-01-01 00:00:00,622.79,-1,-1,,,,
43448736,464993,5,536346,2026-01-01 00:00:00,587.44,-1,-1,,,,
43448737,464993,5,640784,2026-01-01 00:00:00,119.26,-1,-1,,,,
43448743,464993,5,537281,2026-01-01 00:00:00,467.52,-1,-1,,,,
43448746,464993,5,595581,2026-01-01 00:00:00,173.47,-1,-1,,,,
43448750,464993,5,575030,2026-01-01 00:00:00,130.52,-1,-1,,,,
43448753,464993,5,620120,2026-01-01 00:00:00,1290.7,-1,-1,,,,
43448754,464993,5,473173,2026-01-01 00:00:00,1690.74,-1,-1,,,,
43448755,464993,5,632961,2026-01-01 00:00:00,50.05,-1,-1,,,,
43448757,464993,5,644226,2026-01-01 00:00:00,412.02,-1,-1,,,,
43448758,464993,5,571970,2026-01-01 00:00:00,109.23,-1,-1,,,,
43448759,464993,5,503701,2026-01-01 00:00:00,564.5,-1,-1,,,,
43448760,464993,5,642329,2026-01-01 00:00:00,123.85,-1,-1,,,,
43448761,464993,5,616315,2026-01-01 00:00:00,261.53,-1,-1,,,,
43448762,464993,5,523927,2026-01-01 00:00:00,345.26,-1,-1,,,,
49770195,545211,5,466907,2026-01-01 00:00:00,326.64,-1,-1,,,,
49770199,545211,5,595298,2026-01-01 00:00:00,3464.98,-1,-1,,,,
49770201,545211,5,459381,2026-01-01 00:00:00,589.25,-1,-1,,,,
49770202,545211,5,527449,2026-01-01 00:00:00,285.19,-1,-1,,,,
49770203,545211,5,567195,2026-01-01 00:00:00,345.64,-1,-1,,,,
49770206,545211,5,630626,2026-01-01 00:00:00,3895.55,-1,-1,,,,
49770250,545211,5,589943,2026-01-01 00:00:00,43.88,-1,-1,,,,
49770251,545211,5,577992,2026-01-01 00:00:00,4080.61,-1,-1,,,,
49770264,545211,5,621924,2026-01-01 00:00:00,2938.46,-1,-1,,,,
49770265,545211,5,575030,2026-01-01 00:00:00,1974.45,-1,-1,,,,
49770299,545211,5,595581,2026-01-01 00:00:00,173.29,-1,-1,,,,
49770300,545211,5,580426,2026-01-01 00:00:00,595.84,-1,-1,,,,
49770302,545211,5,523927,2026-01-01 00:00:00,480.2,-1,-1,,,,
49770303,545211,5,537281,2026-01-01 00:00:00,107.73,-1,-1,,,,
49770312,545211,5,620120,2026-01-01 00:00:00,1300.53,-1,-1,,,,
49770315,545211,5,473173,2026-01-01 00:00:00,894.97,-1,-1,,,,
49770317,545211,5,632961,2026-01-01 00:00:00,291.84,-1,-1,,,,
49770319,545211,5,503701,2026-01-01 00:00:00,1021.43,-1,-1,,,,
49770322,545211,5,642329,2026-01-01 00:00:00,468.73,-1,-1,,,,
54469195,552988,5,458115,2026-01-01 00:00:00,15162.8,-1,-1,,,,
54476714,552988,5,464993,2026-01-01 00:00:00,4958.33,-1,-1,,,,
54481445,552988,5,456761,2026-01-01 00:00:00,22521.1,-1,-1,,,,
54481967,552988,5,457058,2026-01-01 00:00:00,9007.33,-1,-1,,,,
54484344,552988,5,559853,2026-01-01 00:00:00,32571.6,-1,-1,,,,
54488741,552988,5,494508,2026-01-01 00:00:00,21408.3,-1,-1,,,,
54489085,552988,5,483282,2026-01-01 00:00:00,9452.2,-1,-1,,,,
54513279,552988,5,459593,2026-01-01 00:00:00,13323.7,-1,-1,,,,
54521847,552988,5,460478,2026-01-01 00:00:00,9493.51,-1,-1,,,,
54525879,552988,5,604379,2026-01-01 00:00:00,7863.56,-1,-1,,,,
54543916,552988,5,592124,2026-01-01 00:00:00,5452.41,-1,-1,,,,
54544477,552988,5,508659,2026-01-01 00:00:00,12917.5,-1,-1,,,,
54547441,552988,5,545211,2026-01-01 00:00:00,7654.21,-1,-1,,,,
54549883,552988,5,608508,2026-01-01 00:00:00,41723.8,-1,-1,,,,
54557748,552988,5,457002,2026-01-01 00:00:00,7251.81,-1,-1,,,,
54562171,552988,5,457170,2026-01-01 00:00:00,7147.57,-1,-1,,,,
54563305,552988,5,458640,2026-01-01 00:00:00,42191.7,-1,-1,,,,
61313812,559853,5,632961,2026-01-01 00:00:00,386.01,-1,-1,,,,
61313813,559853,5,644226,2026-01-01 00:00:00,920.33,-1,-1,,,,
61313855,559853,5,473173,2026-01-01 00:00:00,1864.88,-1,-1,,,,
61313860,559853,5,620120,2026-01-01 00:00:00,6708.6,-1,-1,,,,
61313945,559853,5,571970,2026-01-01 00:00:00,212.76,-1,-1,,,,
61314129,559853,5,575030,2026-01-01 00:00:00,396.4,-1,-1,,,,
61314611,559853,5,580426,2026-01-01 00:00:00,1010.53,-1,-1,,,,
61314634,559853,5,595581,2026-01-01 00:00:00,15.72,-1,-1,,,,
61314665,559853,5,523927,2026-01-01 00:00:00,1950.06,-1,-1,,,,
61314746,559853,5,642329,2026-01-01 00:00:00,1835.42,-1,-1,,,,
61314770,559853,5,503701,2026-01-01 00:00:00,7120.76,-1,-1,,,,
61314779,559853,5,536346,2026-01-01 00:00:00,187.18,-1,-1,,,,
61314803,559853,5,567195,2026-01-01 00:00:00,350.66,-1,-1,,,,
61314810,559853,5,520660,2026-01-01 00:00:00,1923.9,-1,-1,,,,
61314862,559853,5,459381,2026-01-01 00:00:00,814.88,-1,-1,,,,
61314882,559853,5,466907,2026-01-01 00:00:00,737.72,-1,-1,,,,
61314892,559853,5,595298,2026-01-01 00:00:00,2886.17,-1,-1,,,,
61314939,559853,5,527449,2026-01-01 00:00:00,207.79,-1,-1,,,,
81955336,592124,5,630626,2026-01-01 00:00:00,2370.7,-1,-1,,,,
81955338,592124,5,567195,2026-01-01 00:00:00,871.9,-1,-1,,,,
81955346,592124,5,527449,2026-01-01 00:00:00,47.53,-1,-1,,,,
81955349,592124,5,459381,2026-01-01 00:00:00,185.02,-1,-1,,,,
81955351,592124,5,595298,2026-01-01 00:00:00,506.83,-1,-1,,,,
81955358,592124,5,466907,2026-01-01 00:00:00,489.03,-1,-1,,,,
81955389,592124,5,606730,2026-01-01 00:00:00,136.55,-1,-1,,,,
81955423,592124,5,589943,2026-01-01 00:00:00,598.21,-1,-1,,,,
81955425,592124,5,577992,2026-01-01 00:00:00,540.42,-1,-1,,,,
81955427,592124,5,537281,2026-01-01 00:00:00,134.19,-1,-1,,,,
81955428,592124,5,580426,2026-01-01 00:00:00,10.07,-1,-1,,,,
81955434,592124,5,642329,2026-01-01 00:00:00,124.2,-1,-1,,,,
81955439,592124,5,571970,2026-01-01 00:00:00,52.31,-1,-1,,,,
81955443,592124,5,632961,2026-01-01 00:00:00,33.74,-1,-1,,,,
81955444,592124,5,473173,2026-01-01 00:00:00,809.53,-1,-1,,,,
81955445,592124,5,575030,2026-01-01 00:00:00,190.91,-1,-1,,,,
81955451,592124,5,503701,2026-01-01 00:00:00,1102.18,-1,-1,,,,
90256879,604379,5,567195,2026-01-01 00:00:00,199.9,-1,-1,,,,
90256881,604379,5,571970,2026-01-01 00:00:00,123.35,-1,-1,,,,
90256882,604379,5,620120,2026-01-01 00:00:00,730.65,-1,-1,,,,
90256886,604379,5,527449,2026-01-01 00:00:00,183.09,-1,-1,,,,
90256894,604379,5,473173,2026-01-01 00:00:00,511.18,-1,-1,,,,
90256896,604379,5,459381,2026-01-01 00:00:00,397.76,-1,-1,,,,
90256898,604379,5,595298,2026-01-01 00:00:00,1806.92,-1,-1,,,,
90256940,604379,5,466907,2026-01-01 00:00:00,160.82,-1,-1,,,,
90256944,604379,5,589943,2026-01-01 00:00:00,924.02,-1,-1,,,,
90256948,604379,5,577992,2026-01-01 00:00:00,2493.66,-1,-1,,,,
90256956,604379,5,537281,2026-01-01 00:00:00,31.65,-1,-1,,,,
90256957,604379,5,616315,2026-01-01 00:00:00,209.29,-1,-1,,,,
90256958,604379,5,523927,2026-01-01 00:00:00,325.47,-1,-1,,,,
90256968,604379,5,632961,2026-01-01 00:00:00,824.24,-1,-1,,,,
90256980,604379,5,503701,2026-01-01 00:00:00,178.12,-1,-1,,,,
92732877,608508,5,537281,2026-01-01 00:00:00,656.64,-1,-1,,,,
92732878,608508,5,589943,2026-01-01 00:00:00,976.78,-1,-1,,,,
92732879,608508,5,466907,2026-01-01 00:00:00,726.45,-1,-1,,,,
92732880,608508,5,595298,2026-01-01 00:00:00,101.23,-1,-1,,,,
92732881,608508,5,459381,2026-01-01 00:00:00,510.92,-1,-1,,,,
92732882,608508,5,527449,2026-01-01 00:00:00,128.81,-1,-1,,,,
92732883,608508,5,567195,2026-01-01 00:00:00,5519.25,-1,-1,,,,
92732884,608508,5,520660,2026-01-01 00:00:00,3664.48,-1,-1,,,,
92732885,608508,5,536346,2026-01-01 00:00:00,489.51,-1,-1,,,,
92732896,608508,5,580426,2026-01-01 00:00:00,514.86,-1,-1,,,,
92732897,608508,5,595581,2026-01-01 00:00:00,1396.28,-1,-1,,,,
92732898,608508,5,616315,2026-01-01 00:00:00,1709.58,-1,-1,,,,
92732899,608508,5,642329,2026-01-01 00:00:00,105.49,-1,-1,,,,
92732911,608508,5,621924,2026-01-01 00:00:00,1369.26,-1,-1,,,,
92732912,608508,5,575030,2026-01-01 00:00:00,7060.93,-1,-1,,,,
92732913,608508,5,620120,2026-01-01 00:00:00,6564.0,-1,-1,,,,
92732914,608508,5,473173,2026-01-01 00:00:00,1509.64,-1,-1,,,,
92732915,608508,5,632961,2026-01-01 00:00:00,202.13,-1,-1,,,,
92732916,608508,5,644226,2026-01-01 00:00:00,576.51,-1,-1,,,,
92732917,608508,5,571970,2026-01-01 00:00:00,108.45,-1,-1,,,,
92732918,608508,5,503701,2026-01-01 00:00:00,1480.83,-1,-1,,,,
100217291,620120,5,457058,2026-01-01 00:00:00,747.73,-1,-1,,,,
100218819,620120,5,483282,2026-01-01 00:00:00,350.68,-1,-1,,,,
100219828,620120,5,458115,2026-01-01 00:00:00,622.53,-1,-1,,,,
100221326,620120,5,459593,2026-01-01 00:00:00,1017.44,-1,-1,,,,
100233456,620120,5,592124,2026-01-01 00:00:00,97.41,-1,-1,,,,
